[     1s]    INFO tuneNormalizer:  Search Space: ['-mem2reg', '-licm', '-gvn', '-early-cse', '-globalopt', '-simplifycfg', '-basicaa', '-aa', '-memdep', '-dse', '-deadargelim', '-libcalls-shrinkwrap', '-tailcallelim', '-instcombine', '-memcpyopt', '-early-cse-memssa']


[    66s]    INFO opentuner.search.plugin.DisplayPlugin: tests=4, best #272, cost time=0.0040, found by NormalGreedyMutation
[    66s] WARNING opentuner.search.simplextechniques: only 1 point in simplex, will not use RandomNelderMead
[   127s]    INFO opentuner.search.plugin.DisplayPlugin: tests=8, best #272, cost time=0.0040, found by NormalGreedyMutation
[   188s]    INFO opentuner.search.plugin.DisplayPlugin: tests=12, best #272, cost time=0.0040, found by NormalGreedyMutation
[   252s]    INFO opentuner.search.plugin.DisplayPlugin: tests=16, best #272, cost time=0.0040, found by NormalGreedyMutation
[   317s]    INFO opentuner.search.plugin.DisplayPlugin: tests=20, best #272, cost time=0.0040, found by NormalGreedyMutation
[   382s]    INFO opentuner.search.plugin.DisplayPlugin: tests=24, best #272, cost time=0.0040, found by NormalGreedyMutation
[   443s]    INFO opentuner.search.plugin.DisplayPlugin: tests=28, best #272, cost time=0.0040, found by NormalGreedyMutation
[   490s]    INFO opentuner.search.plugin.DisplayPlugin: tests=32, best #272, cost time=0.0040, found by NormalGreedyMutation
[   541s]    INFO opentuner.search.plugin.DisplayPlugin: tests=35, best #272, cost time=0.0040, found by NormalGreedyMutation
[   604s]    INFO opentuner.search.plugin.DisplayPlugin: tests=39, best #272, cost time=0.0040, found by NormalGreedyMutation
[   673s]    INFO opentuner.search.plugin.DisplayPlugin: tests=43, best #272, cost time=0.0040, found by NormalGreedyMutation
[   714s]    INFO opentuner.search.plugin.DisplayPlugin: tests=46, best #272, cost time=0.0040, found by NormalGreedyMutation
[   780s]    INFO opentuner.search.plugin.DisplayPlugin: tests=50, best #272, cost time=0.0040, found by NormalGreedyMutation
[   842s]    INFO opentuner.search.plugin.DisplayPlugin: tests=54, best #272, cost time=0.0040, found by NormalGreedyMutation
[   906s]    INFO opentuner.search.plugin.DisplayPlugin: tests=58, best #272, cost time=0.0040, found by NormalGreedyMutation
[   948s]    INFO opentuner.search.plugin.DisplayPlugin: tests=61, best #272, cost time=0.0040, found by NormalGreedyMutation
[  1009s]    INFO opentuner.search.plugin.DisplayPlugin: tests=65, best #272, cost time=0.0040, found by NormalGreedyMutation
[  1056s]    INFO opentuner.search.plugin.DisplayPlugin: tests=68, best #272, cost time=0.0040, found by NormalGreedyMutation
[  1117s]    INFO opentuner.search.plugin.DisplayPlugin: tests=72, best #272, cost time=0.0040, found by NormalGreedyMutation
[  1184s]    INFO opentuner.search.plugin.DisplayPlugin: tests=76, best #272, cost time=0.0040, found by NormalGreedyMutation
[  1253s]    INFO opentuner.search.plugin.DisplayPlugin: tests=80, best #272, cost time=0.0040, found by NormalGreedyMutation
[  1326s]    INFO tuneNormalizer: run_precompiled: Early Exit: Optimal pass sequence written to mcsema//normalizer_final_config.json: [ -mem2reg -gvn -early-cse -globalopt -basicaa -memdep -instcombine -memcpyopt -early-cse-memssa]
[  1326s]    INFO opentuner.search.plugin.DisplayPlugin: tests=84, best #270, cost time=0.0000, found by DifferentialEvolutionAlt
[  1349s]    INFO tuneNormalizer: run_precompiled: Early Exit: Optimal pass sequence written to mcsema//normalizer_final_config.json: [ -mem2reg -licm -gvn -early-cse -simplifycfg -aa -dse]
[  1380s]    INFO opentuner.search.plugin.DisplayPlugin: tests=88, best #270, cost time=0.0000, found by DifferentialEvolutionAlt
[  1448s]    INFO opentuner.search.plugin.DisplayPlugin: tests=92, best #270, cost time=0.0000, found by DifferentialEvolutionAlt
[  1501s]    INFO opentuner.search.plugin.DisplayPlugin: tests=96, best #270, cost time=0.0000, found by DifferentialEvolutionAlt
[  1556s]    INFO opentuner.search.plugin.DisplayPlugin: tests=100, best #270, cost time=0.0000, found by DifferentialEvolutionAlt
[  1557s]    INFO opentuner.search.plugin.DisplayPlugin: tests=100, best #270, cost time=0.0000, found by DifferentialEvolutionAlt
[  1557s]    INFO tuneNormalizer: Optimal pass sequence seen so far: [-early-cse-memssa -mem2reg -basicaa -early-cse -memdep -instcombine -memcpyopt -gvn -globalopt ]
1029.93user 37.07system 25:57.24elapsed 68%CPU (0avgtext+0avgdata 116324maxresident)k
0inputs+2904808outputs (0major+5432800minor)pagefaults 0swaps
