; ModuleID = 'mcsema/test0.target.opt.ll'
source_filename = "llvm-link"
target datalayout = "e-m:e-i64:64-f80:128-n8:16:32:64-S128"
target triple = "x86_64-pc-linux-gnu-elf"

%G__0x4005e4_type = type <{ [8 x i8] }>
%struct.State = type { %struct.ArchState, [32 x %union.VectorReg], %struct.ArithFlags, %union.anon, %struct.Segments, %struct.AddressSpace, %struct.GPR, %struct.X87Stack, %struct.MMX, %struct.FPUStatusFlags, %union.anon, %union.FPU, %struct.SegmentCaches }
%struct.ArchState = type { i32, i32, %union.anon }
%union.VectorReg = type { %union.vec512_t }
%union.vec512_t = type { %struct.uint64v8_t }
%struct.uint64v8_t = type { [8 x i64] }
%struct.ArithFlags = type { i8, i8, i8, i8, i8, i8, i8, i8, i8, i8, i8, i8, i8, i8, i8, i8 }
%struct.Segments = type { i16, %union.SegmentSelector, i16, %union.SegmentSelector, i16, %union.SegmentSelector, i16, %union.SegmentSelector, i16, %union.SegmentSelector, i16, %union.SegmentSelector }
%union.SegmentSelector = type { i16 }
%struct.AddressSpace = type { i64, %struct.Reg, i64, %struct.Reg, i64, %struct.Reg, i64, %struct.Reg, i64, %struct.Reg, i64, %struct.Reg }
%struct.Reg = type { %union.anon }
%struct.GPR = type { i64, %struct.Reg, i64, %struct.Reg, i64, %struct.Reg, i64, %struct.Reg, i64, %struct.Reg, i64, %struct.Reg, i64, %struct.Reg, i64, %struct.Reg, i64, %struct.Reg, i64, %struct.Reg, i64, %struct.Reg, i64, %struct.Reg, i64, %struct.Reg, i64, %struct.Reg, i64, %struct.Reg, i64, %struct.Reg, i64, %struct.Reg }
%struct.X87Stack = type { [8 x %struct.anon.3] }
%struct.anon.3 = type { i64, double }
%struct.MMX = type { [8 x %struct.anon.4] }
%struct.anon.4 = type { i64, %union.vec64_t }
%union.vec64_t = type { %struct.uint64v1_t }
%struct.uint64v1_t = type { [1 x i64] }
%struct.FPUStatusFlags = type { i8, i8, i8, i8, i8, i8, i8, i8, i8, i8, i8, i8, i8, i8, i8, i8, i8, i8, i8, i8, [4 x i8] }
%union.anon = type { i64 }
%union.FPU = type { %struct.anon.13 }
%struct.anon.13 = type { %struct.FpuFXSAVE, [96 x i8] }
%struct.FpuFXSAVE = type { %union.SegmentSelector, %union.SegmentSelector, %union.FPUAbridgedTagWord, i8, i16, i32, %union.SegmentSelector, i16, i32, %union.SegmentSelector, i16, %union.FPUControlStatus, %union.FPUControlStatus, [8 x %struct.FPUStackElem], [16 x %union.vec128_t] }
%union.FPUAbridgedTagWord = type { i8 }
%union.FPUControlStatus = type { i32 }
%struct.FPUStackElem = type { %union.anon.11, [6 x i8] }
%union.anon.11 = type { %struct.float80_t }
%struct.float80_t = type { [10 x i8] }
%union.vec128_t = type { %struct.uint128v1_t }
%struct.uint128v1_t = type { [1 x i128] }
%struct.SegmentCaches = type { %struct.SegmentShadow, %struct.SegmentShadow, %struct.SegmentShadow, %struct.SegmentShadow, %struct.SegmentShadow, %struct.SegmentShadow }
%struct.SegmentShadow = type { %union.anon, i32, i32 }
%struct.Memory = type opaque

@G__0x4005e4 = external global %G__0x4005e4_type

; Function Attrs: nounwind readnone
declare i32 @llvm.ctpop.i32(i32) #0

declare extern_weak x86_64_sysvcc i64 @printf(i64, i64, i64, i64, i64, i64, i64, i64, i64, i64, i64, i64, i64, i64, i64, i64)

declare %struct.Memory* @__remill_function_call(%struct.State* dereferenceable(3376), i64, %struct.Memory*) local_unnamed_addr

declare %struct.Memory* @sub_400540.doWork(%struct.State* noalias dereferenceable(3376), i64, %struct.Memory* noalias readnone returned) local_unnamed_addr

; Function Attrs: alwaysinline
define %struct.Memory* @main(%struct.State* noalias, i64, %struct.Memory* noalias) local_unnamed_addr #1 {
entry:
  %3 = getelementptr inbounds %struct.State, %struct.State* %0, i64 0, i32 6, i32 33, i32 0, i32 0
  %PC.i = getelementptr inbounds %struct.State, %struct.State* %0, i64 0, i32 6, i32 33, i32 0, i32 0
  %RBP.i = getelementptr inbounds %struct.State, %struct.State* %0, i64 0, i32 6, i32 15, i32 0, i32 0
  %4 = load i64, i64* %RBP.i, align 8
  %5 = add i64 %1, 1
  store i64 %5, i64* %PC.i, align 8
  %6 = getelementptr inbounds %struct.State, %struct.State* %0, i64 0, i32 6, i32 13, i32 0, i32 0
  %7 = load i64, i64* %6, align 8
  %8 = add i64 %7, -8
  %9 = inttoptr i64 %8 to i64*
  store i64 %4, i64* %9, align 8
  %RSP.i11 = getelementptr inbounds %struct.State, %struct.State* %0, i64 0, i32 6, i32 13, i32 0, i32 0
  %10 = load i64, i64* %PC.i, align 8
  store i64 %8, i64* %RBP.i, align 8
  %11 = add i64 %7, -40
  store i64 %11, i64* %RSP.i11, align 8
  %12 = icmp ult i64 %8, 32
  %13 = zext i1 %12 to i8
  %14 = getelementptr inbounds %struct.State, %struct.State* %0, i64 0, i32 2, i32 1
  store i8 %13, i8* %14, align 1
  %15 = trunc i64 %11 to i32
  %16 = and i32 %15, 255
  %17 = call i32 @llvm.ctpop.i32(i32 %16)
  %18 = trunc i32 %17 to i8
  %19 = and i8 %18, 1
  %20 = xor i8 %19, 1
  %21 = getelementptr inbounds %struct.State, %struct.State* %0, i64 0, i32 2, i32 3
  store i8 %20, i8* %21, align 1
  %22 = xor i64 %8, %11
  %23 = lshr i64 %22, 4
  %24 = trunc i64 %23 to i8
  %25 = and i8 %24, 1
  %26 = getelementptr inbounds %struct.State, %struct.State* %0, i64 0, i32 2, i32 5
  store i8 %25, i8* %26, align 1
  %27 = icmp eq i64 %11, 0
  %28 = zext i1 %27 to i8
  %29 = getelementptr inbounds %struct.State, %struct.State* %0, i64 0, i32 2, i32 7
  store i8 %28, i8* %29, align 1
  %30 = lshr i64 %11, 63
  %31 = trunc i64 %30 to i8
  %32 = getelementptr inbounds %struct.State, %struct.State* %0, i64 0, i32 2, i32 9
  store i8 %31, i8* %32, align 1
  %33 = lshr i64 %8, 63
  %34 = xor i64 %30, %33
  %35 = add nuw nsw i64 %34, %33
  %36 = icmp eq i64 %35, 2
  %37 = zext i1 %36 to i8
  %38 = getelementptr inbounds %struct.State, %struct.State* %0, i64 0, i32 2, i32 13
  store i8 %37, i8* %38, align 1
  %39 = add i64 %7, -12
  %40 = add i64 %10, 14
  store i64 %40, i64* %PC.i, align 8
  %41 = inttoptr i64 %39 to i32*
  store i32 0, i32* %41, align 4
  %42 = getelementptr inbounds %struct.State, %struct.State* %0, i64 0, i32 6, i32 11, i32 0
  %EDI.i = bitcast %union.anon* %42 to i32*
  %43 = load i64, i64* %RBP.i, align 8
  %44 = add i64 %43, -8
  %45 = load i32, i32* %EDI.i, align 4
  %46 = load i64, i64* %PC.i, align 8
  %47 = add i64 %46, 3
  store i64 %47, i64* %PC.i, align 8
  %48 = inttoptr i64 %44 to i32*
  store i32 %45, i32* %48, align 4
  %49 = getelementptr inbounds %struct.State, %struct.State* %0, i64 0, i32 6, i32 9, i32 0
  %RSI.i23 = getelementptr inbounds %union.anon, %union.anon* %49, i64 0, i32 0
  %50 = load i64, i64* %RBP.i, align 8
  %51 = add i64 %50, -16
  %52 = load i64, i64* %RSI.i23, align 8
  %53 = load i64, i64* %PC.i, align 8
  %54 = add i64 %53, 4
  store i64 %54, i64* %PC.i, align 8
  %55 = inttoptr i64 %51 to i64*
  store i64 %52, i64* %55, align 8
  %56 = getelementptr inbounds %struct.State, %struct.State* %0, i64 0, i32 6, i32 1, i32 0
  %AL.i21 = bitcast %union.anon* %56 to i8*
  %57 = load i64, i64* %PC.i, align 8
  store i8 0, i8* %AL.i21, align 1
  %58 = add i64 %57, 58
  %59 = add i64 %57, 7
  %60 = load i64, i64* %6, align 8
  %61 = add i64 %60, -8
  %62 = inttoptr i64 %61 to i64*
  store i64 %59, i64* %62, align 8
  store i64 %61, i64* %6, align 8
  store i64 %58, i64* %3, align 8
  %call2_400508 = call %struct.Memory* @sub_400540.doWork(%struct.State* %0, i64 %58, %struct.Memory* %2)
  %RDI.i = getelementptr inbounds %union.anon, %union.anon* %42, i64 0, i32 0
  %63 = load i64, i64* %PC.i, align 8
  store i64 add (i64 ptrtoint (%G__0x4005e4_type* @G__0x4005e4 to i64), i64 156), i64* %RDI.i, align 8
  %EAX.i16 = bitcast %union.anon* %56 to i32*
  %64 = load i32, i32* %EAX.i16, align 4
  %65 = zext i32 %64 to i64
  store i64 %65, i64* %RSI.i23, align 8
  store i8 0, i8* %AL.i21, align 1
  %66 = add i64 %63, -285
  %67 = add i64 %63, 19
  %68 = load i64, i64* %6, align 8
  %69 = add i64 %68, -8
  %70 = inttoptr i64 %69 to i64*
  store i64 %67, i64* %70, align 8
  store i64 %69, i64* %6, align 8
  store i64 %66, i64* %3, align 8
  %71 = call %struct.Memory* @__remill_function_call(%struct.State* %0, i64 ptrtoint (i64 (i64, i64, i64, i64, i64, i64, i64, i64, i64, i64, i64, i64, i64, i64, i64, i64)* @printf to i64), %struct.Memory* %call2_400508)
  %ESI.i9 = bitcast %union.anon* %49 to i32*
  %72 = load i64, i64* %PC.i, align 8
  store i64 0, i64* %RSI.i23, align 8
  %73 = load i64, i64* %RBP.i, align 8
  %74 = add i64 %73, -20
  %75 = load i32, i32* %EAX.i16, align 4
  %76 = add i64 %72, 5
  store i64 %76, i64* %PC.i, align 8
  %77 = inttoptr i64 %74 to i32*
  store i32 %75, i32* %77, align 4
  %RAX.i = getelementptr inbounds %union.anon, %union.anon* %56, i64 0, i32 0
  %78 = load i32, i32* %ESI.i9, align 4
  %79 = zext i32 %78 to i64
  %80 = load i64, i64* %PC.i, align 8
  store i64 %79, i64* %RAX.i, align 8
  %81 = load i64, i64* %RSP.i11, align 8
  %82 = add i64 %81, 32
  store i64 %82, i64* %RSP.i11, align 8
  %83 = icmp ugt i64 %81, -33
  %84 = zext i1 %83 to i8
  store i8 %84, i8* %14, align 1
  %85 = trunc i64 %82 to i32
  %86 = and i32 %85, 255
  %87 = call i32 @llvm.ctpop.i32(i32 %86)
  %88 = trunc i32 %87 to i8
  %89 = and i8 %88, 1
  %90 = xor i8 %89, 1
  store i8 %90, i8* %21, align 1
  %91 = xor i64 %81, %82
  %92 = lshr i64 %91, 4
  %93 = trunc i64 %92 to i8
  %94 = and i8 %93, 1
  store i8 %94, i8* %26, align 1
  %95 = icmp eq i64 %82, 0
  %96 = zext i1 %95 to i8
  store i8 %96, i8* %29, align 1
  %97 = lshr i64 %82, 63
  %98 = trunc i64 %97 to i8
  store i8 %98, i8* %32, align 1
  %99 = lshr i64 %81, 63
  %100 = xor i64 %97, %99
  %101 = add nuw nsw i64 %100, %97
  %102 = icmp eq i64 %101, 2
  %103 = zext i1 %102 to i8
  store i8 %103, i8* %38, align 1
  %104 = add i64 %80, 7
  store i64 %104, i64* %PC.i, align 8
  %105 = add i64 %81, 40
  %106 = inttoptr i64 %82 to i64*
  %107 = load i64, i64* %106, align 8
  store i64 %107, i64* %RBP.i, align 8
  store i64 %105, i64* %6, align 8
  %108 = add i64 %80, 8
  store i64 %108, i64* %PC.i, align 8
  %109 = inttoptr i64 %105 to i64*
  %110 = load i64, i64* %109, align 8
  store i64 %110, i64* %3, align 8
  %111 = add i64 %81, 48
  store i64 %111, i64* %6, align 8
  ret %struct.Memory* %71
}

attributes #0 = { nounwind readnone }
attributes #1 = { alwaysinline }
