; ModuleID = 'mcsema/test.proposed.inline.ll'
source_filename = "llvm-link"
target datalayout = "e-m:e-i64:64-f80:128-n8:16:32:64-S128"
target triple = "x86_64-pc-linux-gnu-elf"

%__bss_start_type = type <{ [8 x i8] }>
%struct.State = type { %struct.ArchState, [32 x %union.VectorReg], %struct.ArithFlags, %union.anon, %struct.Segments, %struct.AddressSpace, %struct.GPR, %struct.X87Stack, %struct.MMX, %struct.FPUStatusFlags, %union.anon, %union.FPU, %struct.SegmentCaches }
%struct.ArchState = type { i32, i32, %union.anon }
%union.VectorReg = type { %union.vec512_t }
%union.vec512_t = type { %struct.uint64v8_t }
%struct.uint64v8_t = type { [8 x i64] }
%struct.ArithFlags = type { i8, i8, i8, i8, i8, i8, i8, i8, i8, i8, i8, i8, i8, i8, i8, i8 }
%struct.Segments = type { i16, %union.SegmentSelector, i16, %union.SegmentSelector, i16, %union.SegmentSelector, i16, %union.SegmentSelector, i16, %union.SegmentSelector, i16, %union.SegmentSelector }
%union.SegmentSelector = type { i16 }
%struct.AddressSpace = type { i64, %struct.Reg, i64, %struct.Reg, i64, %struct.Reg, i64, %struct.Reg, i64, %struct.Reg, i64, %struct.Reg }
%struct.Reg = type { %union.anon }
%struct.GPR = type { i64, %struct.Reg, i64, %struct.Reg, i64, %struct.Reg, i64, %struct.Reg, i64, %struct.Reg, i64, %struct.Reg, i64, %struct.Reg, i64, %struct.Reg, i64, %struct.Reg, i64, %struct.Reg, i64, %struct.Reg, i64, %struct.Reg, i64, %struct.Reg, i64, %struct.Reg, i64, %struct.Reg, i64, %struct.Reg, i64, %struct.Reg }
%struct.X87Stack = type { [8 x %struct.anon.3] }
%struct.anon.3 = type { i64, double }
%struct.MMX = type { [8 x %struct.anon.4] }
%struct.anon.4 = type { i64, %union.vec64_t }
%union.vec64_t = type { %struct.uint64v1_t }
%struct.uint64v1_t = type { [1 x i64] }
%struct.FPUStatusFlags = type { i8, i8, i8, i8, i8, i8, i8, i8, i8, i8, i8, i8, i8, i8, i8, i8, i8, i8, i8, i8, [4 x i8] }
%union.anon = type { i64 }
%union.FPU = type { %struct.anon.13 }
%struct.anon.13 = type { %struct.FpuFXSAVE, [96 x i8] }
%struct.FpuFXSAVE = type { %union.SegmentSelector, %union.SegmentSelector, %union.FPUAbridgedTagWord, i8, i16, i32, %union.SegmentSelector, i16, i32, %union.SegmentSelector, i16, %union.FPUControlStatus, %union.FPUControlStatus, [8 x %struct.FPUStackElem], [16 x %union.vec128_t] }
%union.FPUAbridgedTagWord = type { i8 }
%union.FPUControlStatus = type { i32 }
%struct.FPUStackElem = type { %union.anon.11, [6 x i8] }
%union.anon.11 = type { %struct.float80_t }
%struct.float80_t = type { [10 x i8] }
%union.vec128_t = type { %struct.uint128v1_t }
%struct.uint128v1_t = type { [1 x i128] }
%struct.SegmentCaches = type { %struct.SegmentShadow, %struct.SegmentShadow, %struct.SegmentShadow, %struct.SegmentShadow, %struct.SegmentShadow, %struct.SegmentShadow }
%struct.SegmentShadow = type { %union.anon, i32, i32 }
%struct.Memory = type opaque

@__bss_start = local_unnamed_addr global %__bss_start_type zeroinitializer

; Function Attrs: nounwind readnone
declare i32 @llvm.ctpop.i32(i32) #0

declare %struct.Memory* @sub_478110.play_attack_defend_n(%struct.State* noalias dereferenceable(3376), i64, %struct.Memory* noalias readnone returned) local_unnamed_addr

; Function Attrs: alwaysinline
define %struct.Memory* @autohelperbarrierspat116(%struct.State* noalias, i64, %struct.Memory* noalias readnone returned) local_unnamed_addr #1 {
entry:
  %3 = getelementptr inbounds %struct.State, %struct.State* %0, i64 0, i32 6, i32 33, i32 0, i32 0
  %RBP.i = getelementptr inbounds %struct.State, %struct.State* %0, i64 0, i32 6, i32 15, i32 0, i32 0
  %4 = load i64, i64* %RBP.i, align 8
  %5 = add i64 %1, 1
  store i64 %5, i64* %3, align 8
  %6 = getelementptr inbounds %struct.State, %struct.State* %0, i64 0, i32 6, i32 13, i32 0, i32 0
  %7 = load i64, i64* %6, align 8
  %8 = add i64 %7, -8
  %9 = inttoptr i64 %8 to i64*
  store i64 %4, i64* %9, align 8
  %10 = load i64, i64* %3, align 8
  store i64 %8, i64* %RBP.i, align 8
  %11 = getelementptr inbounds %struct.State, %struct.State* %0, i64 0, i32 6, i32 3, i32 0
  %RBX.i137 = getelementptr inbounds %union.anon, %union.anon* %11, i64 0, i32 0
  %12 = load i64, i64* %RBX.i137, align 8
  %13 = add i64 %10, 4
  store i64 %13, i64* %3, align 8
  %14 = add i64 %7, -16
  %15 = inttoptr i64 %14 to i64*
  store i64 %12, i64* %15, align 8
  %16 = load i64, i64* %3, align 8
  %17 = add i64 %7, -104
  store i64 %17, i64* %6, align 8
  %18 = icmp ult i64 %14, 88
  %19 = zext i1 %18 to i8
  %20 = getelementptr inbounds %struct.State, %struct.State* %0, i64 0, i32 2, i32 1
  store i8 %19, i8* %20, align 1
  %21 = trunc i64 %17 to i32
  %22 = and i32 %21, 255
  %23 = tail call i32 @llvm.ctpop.i32(i32 %22)
  %24 = trunc i32 %23 to i8
  %25 = and i8 %24, 1
  %26 = xor i8 %25, 1
  %27 = getelementptr inbounds %struct.State, %struct.State* %0, i64 0, i32 2, i32 3
  store i8 %26, i8* %27, align 1
  %28 = xor i64 %14, 16
  %29 = xor i64 %28, %17
  %30 = lshr i64 %29, 4
  %31 = trunc i64 %30 to i8
  %32 = and i8 %31, 1
  %33 = getelementptr inbounds %struct.State, %struct.State* %0, i64 0, i32 2, i32 5
  store i8 %32, i8* %33, align 1
  %34 = icmp eq i64 %17, 0
  %35 = zext i1 %34 to i8
  %36 = getelementptr inbounds %struct.State, %struct.State* %0, i64 0, i32 2, i32 7
  store i8 %35, i8* %36, align 1
  %37 = lshr i64 %17, 63
  %38 = trunc i64 %37 to i8
  %39 = getelementptr inbounds %struct.State, %struct.State* %0, i64 0, i32 2, i32 9
  store i8 %38, i8* %39, align 1
  %40 = lshr i64 %14, 63
  %41 = xor i64 %37, %40
  %42 = add nuw nsw i64 %41, %40
  %43 = icmp eq i64 %42, 2
  %44 = zext i1 %43 to i8
  %45 = getelementptr inbounds %struct.State, %struct.State* %0, i64 0, i32 2, i32 13
  store i8 %44, i8* %45, align 1
  %46 = getelementptr inbounds %struct.State, %struct.State* %0, i64 0, i32 6, i32 1, i32 0
  %RAX.i133 = getelementptr inbounds %union.anon, %union.anon* %46, i64 0, i32 0
  store i64 1, i64* %RAX.i133, align 8
  %47 = getelementptr inbounds %struct.State, %struct.State* %0, i64 0, i32 6, i32 17, i32 0
  %R8D.i131 = bitcast %union.anon* %47 to i32*
  %48 = getelementptr inbounds %union.anon, %union.anon* %47, i64 0, i32 0
  store i64 6, i64* %48, align 8
  %49 = getelementptr inbounds %struct.State, %struct.State* %0, i64 0, i32 6, i32 11, i32 0
  %EDI.i = bitcast %union.anon* %49 to i32*
  %50 = load i64, i64* %RBP.i, align 8
  %51 = add i64 %50, -12
  %52 = load i32, i32* %EDI.i, align 4
  %53 = add i64 %16, 18
  store i64 %53, i64* %3, align 8
  %54 = inttoptr i64 %51 to i32*
  store i32 %52, i32* %54, align 4
  %55 = getelementptr inbounds %struct.State, %struct.State* %0, i64 0, i32 6, i32 9, i32 0
  %ESI.i126 = bitcast %union.anon* %55 to i32*
  %56 = load i64, i64* %RBP.i, align 8
  %57 = add i64 %56, -16
  %58 = load i32, i32* %ESI.i126, align 4
  %59 = load i64, i64* %3, align 8
  %60 = add i64 %59, 3
  store i64 %60, i64* %3, align 8
  %61 = inttoptr i64 %57 to i32*
  store i32 %58, i32* %61, align 4
  %62 = getelementptr inbounds %struct.State, %struct.State* %0, i64 0, i32 6, i32 7, i32 0
  %EDX.i123 = bitcast %union.anon* %62 to i32*
  %63 = load i64, i64* %RBP.i, align 8
  %64 = add i64 %63, -20
  %65 = load i32, i32* %EDX.i123, align 4
  %66 = load i64, i64* %3, align 8
  %67 = add i64 %66, 3
  store i64 %67, i64* %3, align 8
  %68 = inttoptr i64 %64 to i32*
  store i32 %65, i32* %68, align 4
  %69 = getelementptr inbounds %struct.State, %struct.State* %0, i64 0, i32 6, i32 5, i32 0
  %ECX.i120 = bitcast %union.anon* %69 to i32*
  %70 = load i64, i64* %RBP.i, align 8
  %71 = add i64 %70, -24
  %72 = load i32, i32* %ECX.i120, align 4
  %73 = load i64, i64* %3, align 8
  %74 = add i64 %73, 3
  store i64 %74, i64* %3, align 8
  %75 = inttoptr i64 %71 to i32*
  store i32 %72, i32* %75, align 4
  %R9.i118 = getelementptr inbounds %struct.State, %struct.State* %0, i64 0, i32 6, i32 19, i32 0, i32 0
  %76 = load i64, i64* %RBP.i, align 8
  %77 = add i64 %76, -12
  %78 = load i64, i64* %3, align 8
  %79 = add i64 %78, 4
  store i64 %79, i64* %3, align 8
  %80 = inttoptr i64 %77 to i32*
  %81 = load i32, i32* %80, align 4
  %82 = sext i32 %81 to i64
  store i64 %82, i64* %R9.i118, align 8
  %RCX.i114 = getelementptr inbounds %union.anon, %union.anon* %69, i64 0, i32 0
  %83 = shl nsw i64 %82, 2
  %84 = add nsw i64 %83, 11898832
  %85 = add i64 %78, 12
  store i64 %85, i64* %3, align 8
  %86 = inttoptr i64 %84 to i32*
  %87 = load i32, i32* %86, align 4
  %88 = zext i32 %87 to i64
  store i64 %88, i64* %RCX.i114, align 8
  %89 = add i64 %76, -16
  %90 = add i64 %78, 15
  store i64 %90, i64* %3, align 8
  %91 = inttoptr i64 %89 to i32*
  %92 = load i32, i32* %91, align 4
  %93 = add i32 %92, %87
  %94 = zext i32 %93 to i64
  store i64 %94, i64* %RCX.i114, align 8
  %95 = icmp ult i32 %93, %87
  %96 = icmp ult i32 %93, %92
  %97 = or i1 %95, %96
  %98 = zext i1 %97 to i8
  store i8 %98, i8* %20, align 1
  %99 = and i32 %93, 255
  %100 = tail call i32 @llvm.ctpop.i32(i32 %99)
  %101 = trunc i32 %100 to i8
  %102 = and i8 %101, 1
  %103 = xor i8 %102, 1
  store i8 %103, i8* %27, align 1
  %104 = xor i32 %92, %87
  %105 = xor i32 %104, %93
  %106 = lshr i32 %105, 4
  %107 = trunc i32 %106 to i8
  %108 = and i8 %107, 1
  store i8 %108, i8* %33, align 1
  %109 = icmp eq i32 %93, 0
  %110 = zext i1 %109 to i8
  store i8 %110, i8* %36, align 1
  %111 = lshr i32 %93, 31
  %112 = trunc i32 %111 to i8
  store i8 %112, i8* %39, align 1
  %113 = lshr i32 %87, 31
  %114 = lshr i32 %92, 31
  %115 = xor i32 %111, %113
  %116 = xor i32 %111, %114
  %117 = add nuw nsw i32 %115, %116
  %118 = icmp eq i32 %117, 2
  %119 = zext i1 %118 to i8
  store i8 %119, i8* %45, align 1
  %120 = add i64 %76, -28
  %121 = add i64 %78, 18
  store i64 %121, i64* %3, align 8
  %122 = inttoptr i64 %120 to i32*
  store i32 %93, i32* %122, align 4
  %123 = load i64, i64* %RBP.i, align 8
  %124 = add i64 %123, -12
  %125 = load i64, i64* %3, align 8
  %126 = add i64 %125, 4
  store i64 %126, i64* %3, align 8
  %127 = inttoptr i64 %124 to i32*
  %128 = load i32, i32* %127, align 4
  %129 = sext i32 %128 to i64
  store i64 %129, i64* %R9.i118, align 8
  %130 = shl nsw i64 %129, 2
  %131 = add nsw i64 %130, 11897648
  %132 = add i64 %125, 12
  store i64 %132, i64* %3, align 8
  %133 = inttoptr i64 %131 to i32*
  %134 = load i32, i32* %133, align 4
  %135 = zext i32 %134 to i64
  store i64 %135, i64* %RCX.i114, align 8
  %136 = add i64 %123, -16
  %137 = add i64 %125, 15
  store i64 %137, i64* %3, align 8
  %138 = inttoptr i64 %136 to i32*
  %139 = load i32, i32* %138, align 4
  %140 = add i32 %139, %134
  %141 = zext i32 %140 to i64
  store i64 %141, i64* %RCX.i114, align 8
  %142 = icmp ult i32 %140, %134
  %143 = icmp ult i32 %140, %139
  %144 = or i1 %142, %143
  %145 = zext i1 %144 to i8
  store i8 %145, i8* %20, align 1
  %146 = and i32 %140, 255
  %147 = tail call i32 @llvm.ctpop.i32(i32 %146)
  %148 = trunc i32 %147 to i8
  %149 = and i8 %148, 1
  %150 = xor i8 %149, 1
  store i8 %150, i8* %27, align 1
  %151 = xor i32 %139, %134
  %152 = xor i32 %151, %140
  %153 = lshr i32 %152, 4
  %154 = trunc i32 %153 to i8
  %155 = and i8 %154, 1
  store i8 %155, i8* %33, align 1
  %156 = icmp eq i32 %140, 0
  %157 = zext i1 %156 to i8
  store i8 %157, i8* %36, align 1
  %158 = lshr i32 %140, 31
  %159 = trunc i32 %158 to i8
  store i8 %159, i8* %39, align 1
  %160 = lshr i32 %134, 31
  %161 = lshr i32 %139, 31
  %162 = xor i32 %158, %160
  %163 = xor i32 %158, %161
  %164 = add nuw nsw i32 %162, %163
  %165 = icmp eq i32 %164, 2
  %166 = zext i1 %165 to i8
  store i8 %166, i8* %45, align 1
  %167 = add i64 %123, -32
  %168 = add i64 %125, 18
  store i64 %168, i64* %3, align 8
  %169 = inttoptr i64 %167 to i32*
  store i32 %140, i32* %169, align 4
  %170 = load i64, i64* %RBP.i, align 8
  %171 = add i64 %170, -12
  %172 = load i64, i64* %3, align 8
  %173 = add i64 %172, 4
  store i64 %173, i64* %3, align 8
  %174 = inttoptr i64 %171 to i32*
  %175 = load i32, i32* %174, align 4
  %176 = sext i32 %175 to i64
  store i64 %176, i64* %R9.i118, align 8
  %177 = shl nsw i64 %176, 2
  %178 = add nsw i64 %177, 11900048
  %179 = add i64 %172, 12
  store i64 %179, i64* %3, align 8
  %180 = inttoptr i64 %178 to i32*
  %181 = load i32, i32* %180, align 4
  %182 = zext i32 %181 to i64
  store i64 %182, i64* %RCX.i114, align 8
  %183 = add i64 %170, -16
  %184 = add i64 %172, 15
  store i64 %184, i64* %3, align 8
  %185 = inttoptr i64 %183 to i32*
  %186 = load i32, i32* %185, align 4
  %187 = add i32 %186, %181
  %188 = zext i32 %187 to i64
  store i64 %188, i64* %RCX.i114, align 8
  %189 = icmp ult i32 %187, %181
  %190 = icmp ult i32 %187, %186
  %191 = or i1 %189, %190
  %192 = zext i1 %191 to i8
  store i8 %192, i8* %20, align 1
  %193 = and i32 %187, 255
  %194 = tail call i32 @llvm.ctpop.i32(i32 %193)
  %195 = trunc i32 %194 to i8
  %196 = and i8 %195, 1
  %197 = xor i8 %196, 1
  store i8 %197, i8* %27, align 1
  %198 = xor i32 %186, %181
  %199 = xor i32 %198, %187
  %200 = lshr i32 %199, 4
  %201 = trunc i32 %200 to i8
  %202 = and i8 %201, 1
  store i8 %202, i8* %33, align 1
  %203 = icmp eq i32 %187, 0
  %204 = zext i1 %203 to i8
  store i8 %204, i8* %36, align 1
  %205 = lshr i32 %187, 31
  %206 = trunc i32 %205 to i8
  store i8 %206, i8* %39, align 1
  %207 = lshr i32 %181, 31
  %208 = lshr i32 %186, 31
  %209 = xor i32 %205, %207
  %210 = xor i32 %205, %208
  %211 = add nuw nsw i32 %209, %210
  %212 = icmp eq i32 %211, 2
  %213 = zext i1 %212 to i8
  store i8 %213, i8* %45, align 1
  %214 = add i64 %170, -36
  %215 = add i64 %172, 18
  store i64 %215, i64* %3, align 8
  %216 = inttoptr i64 %214 to i32*
  store i32 %187, i32* %216, align 4
  %217 = load i64, i64* %RBP.i, align 8
  %218 = add i64 %217, -12
  %219 = load i64, i64* %3, align 8
  %220 = add i64 %219, 4
  store i64 %220, i64* %3, align 8
  %221 = inttoptr i64 %218 to i32*
  %222 = load i32, i32* %221, align 4
  %223 = sext i32 %222 to i64
  store i64 %223, i64* %R9.i118, align 8
  %224 = shl nsw i64 %223, 2
  %225 = add nsw i64 %224, 11900080
  %226 = add i64 %219, 12
  store i64 %226, i64* %3, align 8
  %227 = inttoptr i64 %225 to i32*
  %228 = load i32, i32* %227, align 4
  %229 = zext i32 %228 to i64
  store i64 %229, i64* %RCX.i114, align 8
  %230 = add i64 %217, -16
  %231 = add i64 %219, 15
  store i64 %231, i64* %3, align 8
  %232 = inttoptr i64 %230 to i32*
  %233 = load i32, i32* %232, align 4
  %234 = add i32 %233, %228
  %235 = zext i32 %234 to i64
  store i64 %235, i64* %RCX.i114, align 8
  %236 = icmp ult i32 %234, %228
  %237 = icmp ult i32 %234, %233
  %238 = or i1 %236, %237
  %239 = zext i1 %238 to i8
  store i8 %239, i8* %20, align 1
  %240 = and i32 %234, 255
  %241 = tail call i32 @llvm.ctpop.i32(i32 %240)
  %242 = trunc i32 %241 to i8
  %243 = and i8 %242, 1
  %244 = xor i8 %243, 1
  store i8 %244, i8* %27, align 1
  %245 = xor i32 %233, %228
  %246 = xor i32 %245, %234
  %247 = lshr i32 %246, 4
  %248 = trunc i32 %247 to i8
  %249 = and i8 %248, 1
  store i8 %249, i8* %33, align 1
  %250 = icmp eq i32 %234, 0
  %251 = zext i1 %250 to i8
  store i8 %251, i8* %36, align 1
  %252 = lshr i32 %234, 31
  %253 = trunc i32 %252 to i8
  store i8 %253, i8* %39, align 1
  %254 = lshr i32 %228, 31
  %255 = lshr i32 %233, 31
  %256 = xor i32 %252, %254
  %257 = xor i32 %252, %255
  %258 = add nuw nsw i32 %256, %257
  %259 = icmp eq i32 %258, 2
  %260 = zext i1 %259 to i8
  store i8 %260, i8* %45, align 1
  %261 = add i64 %217, -40
  %262 = add i64 %219, 18
  store i64 %262, i64* %3, align 8
  %263 = inttoptr i64 %261 to i32*
  store i32 %234, i32* %263, align 4
  %264 = load i64, i64* %RBP.i, align 8
  %265 = add i64 %264, -12
  %266 = load i64, i64* %3, align 8
  %267 = add i64 %266, 4
  store i64 %267, i64* %3, align 8
  %268 = inttoptr i64 %265 to i32*
  %269 = load i32, i32* %268, align 4
  %270 = sext i32 %269 to i64
  store i64 %270, i64* %R9.i118, align 8
  %271 = shl nsw i64 %270, 2
  %272 = add nsw i64 %271, 11898896
  %273 = add i64 %266, 12
  store i64 %273, i64* %3, align 8
  %274 = inttoptr i64 %272 to i32*
  %275 = load i32, i32* %274, align 4
  %276 = zext i32 %275 to i64
  store i64 %276, i64* %RCX.i114, align 8
  %277 = add i64 %264, -16
  %278 = add i64 %266, 15
  store i64 %278, i64* %3, align 8
  %279 = inttoptr i64 %277 to i32*
  %280 = load i32, i32* %279, align 4
  %281 = add i32 %280, %275
  %282 = zext i32 %281 to i64
  store i64 %282, i64* %RCX.i114, align 8
  %283 = icmp ult i32 %281, %275
  %284 = icmp ult i32 %281, %280
  %285 = or i1 %283, %284
  %286 = zext i1 %285 to i8
  store i8 %286, i8* %20, align 1
  %287 = and i32 %281, 255
  %288 = tail call i32 @llvm.ctpop.i32(i32 %287)
  %289 = trunc i32 %288 to i8
  %290 = and i8 %289, 1
  %291 = xor i8 %290, 1
  store i8 %291, i8* %27, align 1
  %292 = xor i32 %280, %275
  %293 = xor i32 %292, %281
  %294 = lshr i32 %293, 4
  %295 = trunc i32 %294 to i8
  %296 = and i8 %295, 1
  store i8 %296, i8* %33, align 1
  %297 = icmp eq i32 %281, 0
  %298 = zext i1 %297 to i8
  store i8 %298, i8* %36, align 1
  %299 = lshr i32 %281, 31
  %300 = trunc i32 %299 to i8
  store i8 %300, i8* %39, align 1
  %301 = lshr i32 %275, 31
  %302 = lshr i32 %280, 31
  %303 = xor i32 %299, %301
  %304 = xor i32 %299, %302
  %305 = add nuw nsw i32 %303, %304
  %306 = icmp eq i32 %305, 2
  %307 = zext i1 %306 to i8
  store i8 %307, i8* %45, align 1
  %308 = add i64 %264, -44
  %309 = add i64 %266, 18
  store i64 %309, i64* %3, align 8
  %310 = inttoptr i64 %308 to i32*
  store i32 %281, i32* %310, align 4
  %311 = load i64, i64* %RBP.i, align 8
  %312 = add i64 %311, -12
  %313 = load i64, i64* %3, align 8
  %314 = add i64 %313, 4
  store i64 %314, i64* %3, align 8
  %315 = inttoptr i64 %312 to i32*
  %316 = load i32, i32* %315, align 4
  %317 = sext i32 %316 to i64
  store i64 %317, i64* %R9.i118, align 8
  %318 = shl nsw i64 %317, 2
  %319 = add nsw i64 %318, 11897680
  %320 = add i64 %313, 12
  store i64 %320, i64* %3, align 8
  %321 = inttoptr i64 %319 to i32*
  %322 = load i32, i32* %321, align 4
  %323 = zext i32 %322 to i64
  store i64 %323, i64* %RCX.i114, align 8
  %324 = add i64 %311, -16
  %325 = add i64 %313, 15
  store i64 %325, i64* %3, align 8
  %326 = inttoptr i64 %324 to i32*
  %327 = load i32, i32* %326, align 4
  %328 = add i32 %327, %322
  %329 = zext i32 %328 to i64
  store i64 %329, i64* %RCX.i114, align 8
  %330 = icmp ult i32 %328, %322
  %331 = icmp ult i32 %328, %327
  %332 = or i1 %330, %331
  %333 = zext i1 %332 to i8
  store i8 %333, i8* %20, align 1
  %334 = and i32 %328, 255
  %335 = tail call i32 @llvm.ctpop.i32(i32 %334)
  %336 = trunc i32 %335 to i8
  %337 = and i8 %336, 1
  %338 = xor i8 %337, 1
  store i8 %338, i8* %27, align 1
  %339 = xor i32 %327, %322
  %340 = xor i32 %339, %328
  %341 = lshr i32 %340, 4
  %342 = trunc i32 %341 to i8
  %343 = and i8 %342, 1
  store i8 %343, i8* %33, align 1
  %344 = icmp eq i32 %328, 0
  %345 = zext i1 %344 to i8
  store i8 %345, i8* %36, align 1
  %346 = lshr i32 %328, 31
  %347 = trunc i32 %346 to i8
  store i8 %347, i8* %39, align 1
  %348 = lshr i32 %322, 31
  %349 = lshr i32 %327, 31
  %350 = xor i32 %346, %348
  %351 = xor i32 %346, %349
  %352 = add nuw nsw i32 %350, %351
  %353 = icmp eq i32 %352, 2
  %354 = zext i1 %353 to i8
  store i8 %354, i8* %45, align 1
  %355 = add i64 %311, -48
  %356 = add i64 %313, 18
  store i64 %356, i64* %3, align 8
  %357 = inttoptr i64 %355 to i32*
  store i32 %328, i32* %357, align 4
  %RDI.i = getelementptr inbounds %union.anon, %union.anon* %49, i64 0, i32 0
  %358 = load i64, i64* %RBP.i, align 8
  %359 = add i64 %358, -20
  %360 = load i64, i64* %3, align 8
  %361 = add i64 %360, 3
  store i64 %361, i64* %3, align 8
  %362 = inttoptr i64 %359 to i32*
  %363 = load i32, i32* %362, align 4
  %364 = zext i32 %363 to i64
  store i64 %364, i64* %RDI.i, align 8
  %365 = add i64 %358, -28
  %366 = add i64 %360, 6
  store i64 %366, i64* %3, align 8
  %367 = inttoptr i64 %365 to i32*
  %368 = load i32, i32* %367, align 4
  %369 = zext i32 %368 to i64
  store i64 %369, i64* %RCX.i114, align 8
  %RDX.i43 = getelementptr inbounds %union.anon, %union.anon* %62, i64 0, i32 0
  %370 = add i64 %358, -32
  %371 = add i64 %360, 9
  store i64 %371, i64* %3, align 8
  %372 = inttoptr i64 %370 to i32*
  %373 = load i32, i32* %372, align 4
  %374 = zext i32 %373 to i64
  store i64 %374, i64* %RDX.i43, align 8
  %375 = add i64 %358, -36
  %376 = add i64 %360, 13
  store i64 %376, i64* %3, align 8
  %377 = inttoptr i64 %375 to i32*
  %378 = load i32, i32* %377, align 4
  %379 = zext i32 %378 to i64
  store i64 %379, i64* %R9.i118, align 8
  %RSI.i38 = getelementptr inbounds %union.anon, %union.anon* %55, i64 0, i32 0
  %380 = add i64 %358, -40
  %381 = add i64 %360, 16
  store i64 %381, i64* %3, align 8
  %382 = inttoptr i64 %380 to i32*
  %383 = load i32, i32* %382, align 4
  %384 = zext i32 %383 to i64
  store i64 %384, i64* %RSI.i38, align 8
  %385 = getelementptr inbounds %struct.State, %struct.State* %0, i64 0, i32 6, i32 21, i32 0
  %R10D.i35 = bitcast %union.anon* %385 to i32*
  %386 = getelementptr inbounds %union.anon, %union.anon* %385, i64 0, i32 0
  %387 = add i64 %358, -44
  %388 = add i64 %360, 20
  store i64 %388, i64* %3, align 8
  %389 = inttoptr i64 %387 to i32*
  %390 = load i32, i32* %389, align 4
  %391 = zext i32 %390 to i64
  store i64 %391, i64* %386, align 8
  %392 = getelementptr inbounds %struct.State, %struct.State* %0, i64 0, i32 6, i32 23, i32 0
  %R11D.i32 = bitcast %union.anon* %392 to i32*
  %393 = getelementptr inbounds %union.anon, %union.anon* %392, i64 0, i32 0
  %394 = add i64 %358, -48
  %395 = add i64 %360, 24
  store i64 %395, i64* %3, align 8
  %396 = inttoptr i64 %394 to i32*
  %397 = load i32, i32* %396, align 4
  %398 = zext i32 %397 to i64
  store i64 %398, i64* %393, align 8
  %399 = add i64 %360, 27
  store i64 %399, i64* %3, align 8
  %400 = load i32, i32* %382, align 4
  %401 = zext i32 %400 to i64
  store i64 %401, i64* %RBX.i137, align 8
  %402 = add i64 %358, -52
  %403 = add i64 %360, 30
  store i64 %403, i64* %3, align 8
  %404 = inttoptr i64 %402 to i32*
  store i32 %383, i32* %404, align 4
  %EAX.i25 = bitcast %union.anon* %46 to i32*
  %405 = load i32, i32* %EAX.i25, align 4
  %406 = zext i32 %405 to i64
  %407 = load i64, i64* %3, align 8
  store i64 %406, i64* %RSI.i38, align 8
  %408 = load i64, i64* %RBP.i, align 8
  %409 = add i64 %408, -56
  %410 = load i32, i32* %EDX.i123, align 4
  %411 = add i64 %407, 5
  store i64 %411, i64* %3, align 8
  %412 = inttoptr i64 %409 to i32*
  store i32 %410, i32* %412, align 4
  %413 = load i32, i32* %R8D.i131, align 4
  %414 = zext i32 %413 to i64
  %415 = load i64, i64* %3, align 8
  store i64 %414, i64* %RDX.i43, align 8
  %416 = load i64, i64* %RBP.i, align 8
  %417 = add i64 %416, -56
  %418 = add i64 %415, 7
  store i64 %418, i64* %3, align 8
  %419 = inttoptr i64 %417 to i32*
  %420 = load i32, i32* %419, align 4
  %421 = zext i32 %420 to i64
  store i64 %421, i64* %48, align 8
  %422 = add i64 %416, -52
  %423 = add i64 %415, 10
  store i64 %423, i64* %3, align 8
  %424 = inttoptr i64 %422 to i32*
  %425 = load i32, i32* %424, align 4
  %426 = zext i32 %425 to i64
  store i64 %426, i64* %RAX.i133, align 8
  %427 = bitcast i64* %6 to i32**
  %428 = load i32*, i32** %427, align 8
  %429 = add i64 %415, 13
  store i64 %429, i64* %3, align 8
  store i32 %425, i32* %428, align 4
  %430 = load i64, i64* %6, align 8
  %431 = add i64 %430, 8
  %432 = load i32, i32* %R10D.i35, align 4
  %433 = load i64, i64* %3, align 8
  %434 = add i64 %433, 5
  store i64 %434, i64* %3, align 8
  %435 = inttoptr i64 %431 to i32*
  store i32 %432, i32* %435, align 4
  %436 = load i64, i64* %6, align 8
  %437 = add i64 %436, 16
  %438 = load i32, i32* %R11D.i32, align 4
  %439 = load i64, i64* %3, align 8
  %440 = add i64 %439, 5
  store i64 %440, i64* %3, align 8
  %441 = inttoptr i64 %437 to i32*
  store i32 %438, i32* %441, align 4
  %EBX.i = bitcast %union.anon* %11 to i32*
  %442 = load i64, i64* %6, align 8
  %443 = add i64 %442, 24
  %444 = load i32, i32* %EBX.i, align 4
  %445 = load i64, i64* %3, align 8
  %446 = add i64 %445, 4
  store i64 %446, i64* %3, align 8
  %447 = inttoptr i64 %443 to i32*
  store i32 %444, i32* %447, align 4
  %AL.i = bitcast %union.anon* %46 to i8*
  %448 = load i64, i64* %3, align 8
  store i8 0, i8* %AL.i, align 1
  %449 = add i64 %448, -154682
  %450 = add i64 %448, 7
  %451 = load i64, i64* %6, align 8
  %452 = add i64 %451, -8
  %453 = inttoptr i64 %452 to i64*
  store i64 %450, i64* %453, align 8
  store i64 %452, i64* %6, align 8
  store i64 %449, i64* %3, align 8
  %call2_49dd4c = tail call %struct.Memory* @sub_478110.play_attack_defend_n(%struct.State* %0, i64 %449, %struct.Memory* %2)
  %454 = load i64, i64* %6, align 8
  %455 = load i64, i64* %3, align 8
  %456 = add i64 %454, 88
  store i64 %456, i64* %6, align 8
  %457 = icmp ugt i64 %454, -89
  %458 = zext i1 %457 to i8
  store i8 %458, i8* %20, align 1
  %459 = trunc i64 %456 to i32
  %460 = and i32 %459, 255
  %461 = tail call i32 @llvm.ctpop.i32(i32 %460)
  %462 = trunc i32 %461 to i8
  %463 = and i8 %462, 1
  %464 = xor i8 %463, 1
  store i8 %464, i8* %27, align 1
  %465 = xor i64 %454, 16
  %466 = xor i64 %465, %456
  %467 = lshr i64 %466, 4
  %468 = trunc i64 %467 to i8
  %469 = and i8 %468, 1
  store i8 %469, i8* %33, align 1
  %470 = icmp eq i64 %456, 0
  %471 = zext i1 %470 to i8
  store i8 %471, i8* %36, align 1
  %472 = lshr i64 %456, 63
  %473 = trunc i64 %472 to i8
  store i8 %473, i8* %39, align 1
  %474 = lshr i64 %454, 63
  %475 = xor i64 %472, %474
  %476 = add nuw nsw i64 %475, %472
  %477 = icmp eq i64 %476, 2
  %478 = zext i1 %477 to i8
  store i8 %478, i8* %45, align 1
  %479 = add i64 %455, 5
  store i64 %479, i64* %3, align 8
  %480 = add i64 %454, 96
  %481 = inttoptr i64 %456 to i64*
  %482 = load i64, i64* %481, align 8
  store i64 %482, i64* %RBX.i137, align 8
  store i64 %480, i64* %6, align 8
  %483 = add i64 %455, 6
  store i64 %483, i64* %3, align 8
  %484 = add i64 %454, 104
  %485 = inttoptr i64 %480 to i64*
  %486 = load i64, i64* %485, align 8
  store i64 %486, i64* %RBP.i, align 8
  store i64 %484, i64* %6, align 8
  %487 = add i64 %455, 7
  store i64 %487, i64* %3, align 8
  %488 = inttoptr i64 %484 to i64*
  %489 = load i64, i64* %488, align 8
  store i64 %489, i64* %3, align 8
  %490 = add i64 %454, 112
  store i64 %490, i64* %6, align 8
  ret %struct.Memory* %call2_49dd4c
}

; Function Attrs: norecurse nounwind
define %struct.Memory* @routine_pushq__rbp(%struct.State* nocapture dereferenceable(3376), i64, %struct.Memory* readnone returned) local_unnamed_addr #2 {
block_400488:
  %PC = getelementptr inbounds %struct.State, %struct.State* %0, i64 0, i32 6, i32 33, i32 0, i32 0
  %RBP = getelementptr inbounds %struct.State, %struct.State* %0, i64 0, i32 6, i32 15, i32 0, i32 0
  %3 = load i64, i64* %RBP, align 8
  %4 = load i64, i64* %PC, align 8
  %5 = add i64 %4, 1
  store i64 %5, i64* %PC, align 8
  %6 = getelementptr inbounds %struct.State, %struct.State* %0, i64 0, i32 6, i32 13, i32 0, i32 0
  %7 = load i64, i64* %6, align 8
  %8 = add i64 %7, -8
  %9 = inttoptr i64 %8 to i64*
  store i64 %3, i64* %9, align 8
  store i64 %8, i64* %6, align 8
  ret %struct.Memory* %2
}

; Function Attrs: norecurse nounwind
define %struct.Memory* @routine_movq__rsp___rbp(%struct.State* nocapture dereferenceable(3376), i64, %struct.Memory* readnone returned) local_unnamed_addr #2 {
block_400488:
  %PC = getelementptr inbounds %struct.State, %struct.State* %0, i64 0, i32 6, i32 33, i32 0, i32 0
  %RSP = getelementptr inbounds %struct.State, %struct.State* %0, i64 0, i32 6, i32 13, i32 0, i32 0
  %RBP = getelementptr inbounds %struct.State, %struct.State* %0, i64 0, i32 6, i32 15, i32 0, i32 0
  %3 = load i64, i64* %RSP, align 8
  %4 = load i64, i64* %PC, align 8
  %5 = add i64 %4, 3
  store i64 %5, i64* %PC, align 8
  store i64 %3, i64* %RBP, align 8
  ret %struct.Memory* %2
}

; Function Attrs: norecurse nounwind
define %struct.Memory* @routine_pushq__rbx(%struct.State* nocapture dereferenceable(3376), i64, %struct.Memory* readnone returned) local_unnamed_addr #2 {
block_400488:
  %PC = getelementptr inbounds %struct.State, %struct.State* %0, i64 0, i32 6, i32 33, i32 0, i32 0
  %RBX = getelementptr inbounds %struct.State, %struct.State* %0, i64 0, i32 6, i32 3, i32 0, i32 0
  %3 = load i64, i64* %RBX, align 8
  %4 = load i64, i64* %PC, align 8
  %5 = add i64 %4, 1
  store i64 %5, i64* %PC, align 8
  %6 = getelementptr inbounds %struct.State, %struct.State* %0, i64 0, i32 6, i32 13, i32 0, i32 0
  %7 = load i64, i64* %6, align 8
  %8 = add i64 %7, -8
  %9 = inttoptr i64 %8 to i64*
  store i64 %3, i64* %9, align 8
  store i64 %8, i64* %6, align 8
  ret %struct.Memory* %2
}

; Function Attrs: nounwind
define %struct.Memory* @routine_subq__0x58___rsp(%struct.State* nocapture dereferenceable(3376), i64, %struct.Memory* readnone returned) local_unnamed_addr #3 {
block_400488:
  %PC = getelementptr inbounds %struct.State, %struct.State* %0, i64 0, i32 6, i32 33, i32 0, i32 0
  %RSP = getelementptr inbounds %struct.State, %struct.State* %0, i64 0, i32 6, i32 13, i32 0, i32 0
  %3 = load i64, i64* %RSP, align 8
  %4 = load i64, i64* %PC, align 8
  %5 = add i64 %4, 4
  store i64 %5, i64* %PC, align 8
  %6 = add i64 %3, -88
  store i64 %6, i64* %RSP, align 8
  %7 = icmp ult i64 %3, 88
  %8 = zext i1 %7 to i8
  %9 = getelementptr inbounds %struct.State, %struct.State* %0, i64 0, i32 2, i32 1
  store i8 %8, i8* %9, align 1
  %10 = trunc i64 %6 to i32
  %11 = and i32 %10, 255
  %12 = tail call i32 @llvm.ctpop.i32(i32 %11)
  %13 = trunc i32 %12 to i8
  %14 = and i8 %13, 1
  %15 = xor i8 %14, 1
  %16 = getelementptr inbounds %struct.State, %struct.State* %0, i64 0, i32 2, i32 3
  store i8 %15, i8* %16, align 1
  %17 = xor i64 %3, 16
  %18 = xor i64 %17, %6
  %19 = lshr i64 %18, 4
  %20 = trunc i64 %19 to i8
  %21 = and i8 %20, 1
  %22 = getelementptr inbounds %struct.State, %struct.State* %0, i64 0, i32 2, i32 5
  store i8 %21, i8* %22, align 1
  %23 = icmp eq i64 %6, 0
  %24 = zext i1 %23 to i8
  %25 = getelementptr inbounds %struct.State, %struct.State* %0, i64 0, i32 2, i32 7
  store i8 %24, i8* %25, align 1
  %26 = lshr i64 %6, 63
  %27 = trunc i64 %26 to i8
  %28 = getelementptr inbounds %struct.State, %struct.State* %0, i64 0, i32 2, i32 9
  store i8 %27, i8* %28, align 1
  %29 = lshr i64 %3, 63
  %30 = xor i64 %26, %29
  %31 = add nuw nsw i64 %30, %29
  %32 = icmp eq i64 %31, 2
  %33 = zext i1 %32 to i8
  %34 = getelementptr inbounds %struct.State, %struct.State* %0, i64 0, i32 2, i32 13
  store i8 %33, i8* %34, align 1
  ret %struct.Memory* %2
}

; Function Attrs: norecurse nounwind
define %struct.Memory* @routine_movl__0x1___eax(%struct.State* nocapture dereferenceable(3376), i64, %struct.Memory* readnone returned) local_unnamed_addr #2 {
block_400488:
  %PC = getelementptr inbounds %struct.State, %struct.State* %0, i64 0, i32 6, i32 33, i32 0, i32 0
  %RAX = getelementptr inbounds %struct.State, %struct.State* %0, i64 0, i32 6, i32 1, i32 0, i32 0
  %3 = load i64, i64* %PC, align 8
  %4 = add i64 %3, 5
  store i64 %4, i64* %PC, align 8
  store i64 1, i64* %RAX, align 8
  ret %struct.Memory* %2
}

; Function Attrs: norecurse nounwind
define %struct.Memory* @routine_movl__0x6___r8d(%struct.State* nocapture dereferenceable(3376), i64, %struct.Memory* readnone returned) local_unnamed_addr #2 {
block_400488:
  %PC = getelementptr inbounds %struct.State, %struct.State* %0, i64 0, i32 6, i32 33, i32 0, i32 0
  %3 = getelementptr inbounds %struct.State, %struct.State* %0, i64 0, i32 6, i32 17, i32 0, i32 0
  %4 = load i64, i64* %PC, align 8
  %5 = add i64 %4, 6
  store i64 %5, i64* %PC, align 8
  store i64 6, i64* %3, align 8
  ret %struct.Memory* %2
}

; Function Attrs: norecurse nounwind
define %struct.Memory* @routine_movl__edi__MINUS0xc__rbp_(%struct.State* nocapture dereferenceable(3376), i64, %struct.Memory* readnone returned) local_unnamed_addr #2 {
block_400488:
  %PC = getelementptr inbounds %struct.State, %struct.State* %0, i64 0, i32 6, i32 33, i32 0, i32 0
  %3 = getelementptr inbounds %struct.State, %struct.State* %0, i64 0, i32 6, i32 11, i32 0
  %EDI = bitcast %union.anon* %3 to i32*
  %RBP = getelementptr inbounds %struct.State, %struct.State* %0, i64 0, i32 6, i32 15, i32 0, i32 0
  %4 = load i64, i64* %RBP, align 8
  %5 = add i64 %4, -12
  %6 = load i32, i32* %EDI, align 4
  %7 = load i64, i64* %PC, align 8
  %8 = add i64 %7, 3
  store i64 %8, i64* %PC, align 8
  %9 = inttoptr i64 %5 to i32*
  store i32 %6, i32* %9, align 4
  ret %struct.Memory* %2
}

; Function Attrs: norecurse nounwind
define %struct.Memory* @routine_movl__esi__MINUS0x10__rbp_(%struct.State* nocapture dereferenceable(3376), i64, %struct.Memory* readnone returned) local_unnamed_addr #2 {
block_400488:
  %PC = getelementptr inbounds %struct.State, %struct.State* %0, i64 0, i32 6, i32 33, i32 0, i32 0
  %3 = getelementptr inbounds %struct.State, %struct.State* %0, i64 0, i32 6, i32 9, i32 0
  %ESI = bitcast %union.anon* %3 to i32*
  %RBP = getelementptr inbounds %struct.State, %struct.State* %0, i64 0, i32 6, i32 15, i32 0, i32 0
  %4 = load i64, i64* %RBP, align 8
  %5 = add i64 %4, -16
  %6 = load i32, i32* %ESI, align 4
  %7 = load i64, i64* %PC, align 8
  %8 = add i64 %7, 3
  store i64 %8, i64* %PC, align 8
  %9 = inttoptr i64 %5 to i32*
  store i32 %6, i32* %9, align 4
  ret %struct.Memory* %2
}

; Function Attrs: norecurse nounwind
define %struct.Memory* @routine_movl__edx__MINUS0x14__rbp_(%struct.State* nocapture dereferenceable(3376), i64, %struct.Memory* readnone returned) local_unnamed_addr #2 {
block_400488:
  %PC = getelementptr inbounds %struct.State, %struct.State* %0, i64 0, i32 6, i32 33, i32 0, i32 0
  %3 = getelementptr inbounds %struct.State, %struct.State* %0, i64 0, i32 6, i32 7, i32 0
  %EDX = bitcast %union.anon* %3 to i32*
  %RBP = getelementptr inbounds %struct.State, %struct.State* %0, i64 0, i32 6, i32 15, i32 0, i32 0
  %4 = load i64, i64* %RBP, align 8
  %5 = add i64 %4, -20
  %6 = load i32, i32* %EDX, align 4
  %7 = load i64, i64* %PC, align 8
  %8 = add i64 %7, 3
  store i64 %8, i64* %PC, align 8
  %9 = inttoptr i64 %5 to i32*
  store i32 %6, i32* %9, align 4
  ret %struct.Memory* %2
}

; Function Attrs: norecurse nounwind
define %struct.Memory* @routine_movl__ecx__MINUS0x18__rbp_(%struct.State* nocapture dereferenceable(3376), i64, %struct.Memory* readnone returned) local_unnamed_addr #2 {
block_400488:
  %PC = getelementptr inbounds %struct.State, %struct.State* %0, i64 0, i32 6, i32 33, i32 0, i32 0
  %3 = getelementptr inbounds %struct.State, %struct.State* %0, i64 0, i32 6, i32 5, i32 0
  %ECX = bitcast %union.anon* %3 to i32*
  %RBP = getelementptr inbounds %struct.State, %struct.State* %0, i64 0, i32 6, i32 15, i32 0, i32 0
  %4 = load i64, i64* %RBP, align 8
  %5 = add i64 %4, -24
  %6 = load i32, i32* %ECX, align 4
  %7 = load i64, i64* %PC, align 8
  %8 = add i64 %7, 3
  store i64 %8, i64* %PC, align 8
  %9 = inttoptr i64 %5 to i32*
  store i32 %6, i32* %9, align 4
  ret %struct.Memory* %2
}

; Function Attrs: norecurse nounwind
define %struct.Memory* @routine_movslq_MINUS0xc__rbp____r9(%struct.State* nocapture dereferenceable(3376), i64, %struct.Memory* readnone returned) local_unnamed_addr #2 {
block_400488:
  %PC = getelementptr inbounds %struct.State, %struct.State* %0, i64 0, i32 6, i32 33, i32 0, i32 0
  %RBP = getelementptr inbounds %struct.State, %struct.State* %0, i64 0, i32 6, i32 15, i32 0, i32 0
  %R9 = getelementptr inbounds %struct.State, %struct.State* %0, i64 0, i32 6, i32 19, i32 0, i32 0
  %3 = load i64, i64* %RBP, align 8
  %4 = add i64 %3, -12
  %5 = load i64, i64* %PC, align 8
  %6 = add i64 %5, 4
  store i64 %6, i64* %PC, align 8
  %7 = inttoptr i64 %4 to i32*
  %8 = load i32, i32* %7, align 4
  %9 = sext i32 %8 to i64
  store i64 %9, i64* %R9, align 8
  ret %struct.Memory* %2
}

; Function Attrs: norecurse nounwind
define %struct.Memory* @routine_movl_0xb58fd0___r9_4____ecx(%struct.State* nocapture dereferenceable(3376), i64, %struct.Memory* readnone returned) local_unnamed_addr #2 {
block_400488:
  %PC = getelementptr inbounds %struct.State, %struct.State* %0, i64 0, i32 6, i32 33, i32 0, i32 0
  %RCX = getelementptr inbounds %struct.State, %struct.State* %0, i64 0, i32 6, i32 5, i32 0, i32 0
  %R9 = getelementptr inbounds %struct.State, %struct.State* %0, i64 0, i32 6, i32 19, i32 0, i32 0
  %3 = load i64, i64* %R9, align 8
  %4 = shl i64 %3, 2
  %5 = add i64 %4, 11898832
  %6 = load i64, i64* %PC, align 8
  %7 = add i64 %6, 8
  store i64 %7, i64* %PC, align 8
  %8 = inttoptr i64 %5 to i32*
  %9 = load i32, i32* %8, align 4
  %10 = zext i32 %9 to i64
  store i64 %10, i64* %RCX, align 8
  ret %struct.Memory* %2
}

; Function Attrs: nounwind
define %struct.Memory* @routine_addl_MINUS0x10__rbp____ecx(%struct.State* nocapture dereferenceable(3376), i64, %struct.Memory* readnone returned) local_unnamed_addr #3 {
block_400488:
  %PC = getelementptr inbounds %struct.State, %struct.State* %0, i64 0, i32 6, i32 33, i32 0, i32 0
  %RCX = getelementptr inbounds %struct.State, %struct.State* %0, i64 0, i32 6, i32 5, i32 0, i32 0
  %RBP = getelementptr inbounds %struct.State, %struct.State* %0, i64 0, i32 6, i32 15, i32 0, i32 0
  %3 = load i64, i64* %RCX, align 8
  %4 = load i64, i64* %RBP, align 8
  %5 = add i64 %4, -16
  %6 = load i64, i64* %PC, align 8
  %7 = add i64 %6, 3
  store i64 %7, i64* %PC, align 8
  %8 = trunc i64 %3 to i32
  %9 = inttoptr i64 %5 to i32*
  %10 = load i32, i32* %9, align 4
  %11 = add i32 %10, %8
  %12 = zext i32 %11 to i64
  store i64 %12, i64* %RCX, align 8
  %13 = icmp ult i32 %11, %8
  %14 = icmp ult i32 %11, %10
  %15 = or i1 %13, %14
  %16 = zext i1 %15 to i8
  %17 = getelementptr inbounds %struct.State, %struct.State* %0, i64 0, i32 2, i32 1
  store i8 %16, i8* %17, align 1
  %18 = and i32 %11, 255
  %19 = tail call i32 @llvm.ctpop.i32(i32 %18)
  %20 = trunc i32 %19 to i8
  %21 = and i8 %20, 1
  %22 = xor i8 %21, 1
  %23 = getelementptr inbounds %struct.State, %struct.State* %0, i64 0, i32 2, i32 3
  store i8 %22, i8* %23, align 1
  %24 = xor i32 %10, %8
  %25 = xor i32 %24, %11
  %26 = lshr i32 %25, 4
  %27 = trunc i32 %26 to i8
  %28 = and i8 %27, 1
  %29 = getelementptr inbounds %struct.State, %struct.State* %0, i64 0, i32 2, i32 5
  store i8 %28, i8* %29, align 1
  %30 = icmp eq i32 %11, 0
  %31 = zext i1 %30 to i8
  %32 = getelementptr inbounds %struct.State, %struct.State* %0, i64 0, i32 2, i32 7
  store i8 %31, i8* %32, align 1
  %33 = lshr i32 %11, 31
  %34 = trunc i32 %33 to i8
  %35 = getelementptr inbounds %struct.State, %struct.State* %0, i64 0, i32 2, i32 9
  store i8 %34, i8* %35, align 1
  %36 = lshr i32 %8, 31
  %37 = lshr i32 %10, 31
  %38 = xor i32 %33, %36
  %39 = xor i32 %33, %37
  %40 = add nuw nsw i32 %38, %39
  %41 = icmp eq i32 %40, 2
  %42 = zext i1 %41 to i8
  %43 = getelementptr inbounds %struct.State, %struct.State* %0, i64 0, i32 2, i32 13
  store i8 %42, i8* %43, align 1
  ret %struct.Memory* %2
}

; Function Attrs: norecurse nounwind
define %struct.Memory* @routine_movl__ecx__MINUS0x1c__rbp_(%struct.State* nocapture dereferenceable(3376), i64, %struct.Memory* readnone returned) local_unnamed_addr #2 {
block_400488:
  %PC = getelementptr inbounds %struct.State, %struct.State* %0, i64 0, i32 6, i32 33, i32 0, i32 0
  %3 = getelementptr inbounds %struct.State, %struct.State* %0, i64 0, i32 6, i32 5, i32 0
  %ECX = bitcast %union.anon* %3 to i32*
  %RBP = getelementptr inbounds %struct.State, %struct.State* %0, i64 0, i32 6, i32 15, i32 0, i32 0
  %4 = load i64, i64* %RBP, align 8
  %5 = add i64 %4, -28
  %6 = load i32, i32* %ECX, align 4
  %7 = load i64, i64* %PC, align 8
  %8 = add i64 %7, 3
  store i64 %8, i64* %PC, align 8
  %9 = inttoptr i64 %5 to i32*
  store i32 %6, i32* %9, align 4
  ret %struct.Memory* %2
}

; Function Attrs: norecurse nounwind
define %struct.Memory* @routine_movl_0xb58b30___r9_4____ecx(%struct.State* nocapture dereferenceable(3376), i64, %struct.Memory* readnone returned) local_unnamed_addr #2 {
block_400488:
  %PC = getelementptr inbounds %struct.State, %struct.State* %0, i64 0, i32 6, i32 33, i32 0, i32 0
  %RCX = getelementptr inbounds %struct.State, %struct.State* %0, i64 0, i32 6, i32 5, i32 0, i32 0
  %R9 = getelementptr inbounds %struct.State, %struct.State* %0, i64 0, i32 6, i32 19, i32 0, i32 0
  %3 = load i64, i64* %R9, align 8
  %4 = shl i64 %3, 2
  %5 = add i64 %4, 11897648
  %6 = load i64, i64* %PC, align 8
  %7 = add i64 %6, 8
  store i64 %7, i64* %PC, align 8
  %8 = inttoptr i64 %5 to i32*
  %9 = load i32, i32* %8, align 4
  %10 = zext i32 %9 to i64
  store i64 %10, i64* %RCX, align 8
  ret %struct.Memory* %2
}

; Function Attrs: norecurse nounwind
define %struct.Memory* @routine_movl__ecx__MINUS0x20__rbp_(%struct.State* nocapture dereferenceable(3376), i64, %struct.Memory* readnone returned) local_unnamed_addr #2 {
block_400488:
  %PC = getelementptr inbounds %struct.State, %struct.State* %0, i64 0, i32 6, i32 33, i32 0, i32 0
  %3 = getelementptr inbounds %struct.State, %struct.State* %0, i64 0, i32 6, i32 5, i32 0
  %ECX = bitcast %union.anon* %3 to i32*
  %RBP = getelementptr inbounds %struct.State, %struct.State* %0, i64 0, i32 6, i32 15, i32 0, i32 0
  %4 = load i64, i64* %RBP, align 8
  %5 = add i64 %4, -32
  %6 = load i32, i32* %ECX, align 4
  %7 = load i64, i64* %PC, align 8
  %8 = add i64 %7, 3
  store i64 %8, i64* %PC, align 8
  %9 = inttoptr i64 %5 to i32*
  store i32 %6, i32* %9, align 4
  ret %struct.Memory* %2
}

; Function Attrs: norecurse nounwind
define %struct.Memory* @routine_movl_0xb59490___r9_4____ecx(%struct.State* nocapture dereferenceable(3376), i64, %struct.Memory* readnone returned) local_unnamed_addr #2 {
block_400488:
  %PC = getelementptr inbounds %struct.State, %struct.State* %0, i64 0, i32 6, i32 33, i32 0, i32 0
  %RCX = getelementptr inbounds %struct.State, %struct.State* %0, i64 0, i32 6, i32 5, i32 0, i32 0
  %R9 = getelementptr inbounds %struct.State, %struct.State* %0, i64 0, i32 6, i32 19, i32 0, i32 0
  %3 = load i64, i64* %R9, align 8
  %4 = shl i64 %3, 2
  %5 = add i64 %4, 11900048
  %6 = load i64, i64* %PC, align 8
  %7 = add i64 %6, 8
  store i64 %7, i64* %PC, align 8
  %8 = inttoptr i64 %5 to i32*
  %9 = load i32, i32* %8, align 4
  %10 = zext i32 %9 to i64
  store i64 %10, i64* %RCX, align 8
  ret %struct.Memory* %2
}

; Function Attrs: norecurse nounwind
define %struct.Memory* @routine_movl__ecx__MINUS0x24__rbp_(%struct.State* nocapture dereferenceable(3376), i64, %struct.Memory* readnone returned) local_unnamed_addr #2 {
block_400488:
  %PC = getelementptr inbounds %struct.State, %struct.State* %0, i64 0, i32 6, i32 33, i32 0, i32 0
  %3 = getelementptr inbounds %struct.State, %struct.State* %0, i64 0, i32 6, i32 5, i32 0
  %ECX = bitcast %union.anon* %3 to i32*
  %RBP = getelementptr inbounds %struct.State, %struct.State* %0, i64 0, i32 6, i32 15, i32 0, i32 0
  %4 = load i64, i64* %RBP, align 8
  %5 = add i64 %4, -36
  %6 = load i32, i32* %ECX, align 4
  %7 = load i64, i64* %PC, align 8
  %8 = add i64 %7, 3
  store i64 %8, i64* %PC, align 8
  %9 = inttoptr i64 %5 to i32*
  store i32 %6, i32* %9, align 4
  ret %struct.Memory* %2
}

; Function Attrs: norecurse nounwind
define %struct.Memory* @routine_movl_0xb594b0___r9_4____ecx(%struct.State* nocapture dereferenceable(3376), i64, %struct.Memory* readnone returned) local_unnamed_addr #2 {
block_400488:
  %PC = getelementptr inbounds %struct.State, %struct.State* %0, i64 0, i32 6, i32 33, i32 0, i32 0
  %RCX = getelementptr inbounds %struct.State, %struct.State* %0, i64 0, i32 6, i32 5, i32 0, i32 0
  %R9 = getelementptr inbounds %struct.State, %struct.State* %0, i64 0, i32 6, i32 19, i32 0, i32 0
  %3 = load i64, i64* %R9, align 8
  %4 = shl i64 %3, 2
  %5 = add i64 %4, 11900080
  %6 = load i64, i64* %PC, align 8
  %7 = add i64 %6, 8
  store i64 %7, i64* %PC, align 8
  %8 = inttoptr i64 %5 to i32*
  %9 = load i32, i32* %8, align 4
  %10 = zext i32 %9 to i64
  store i64 %10, i64* %RCX, align 8
  ret %struct.Memory* %2
}

; Function Attrs: norecurse nounwind
define %struct.Memory* @routine_movl__ecx__MINUS0x28__rbp_(%struct.State* nocapture dereferenceable(3376), i64, %struct.Memory* readnone returned) local_unnamed_addr #2 {
block_400488:
  %PC = getelementptr inbounds %struct.State, %struct.State* %0, i64 0, i32 6, i32 33, i32 0, i32 0
  %3 = getelementptr inbounds %struct.State, %struct.State* %0, i64 0, i32 6, i32 5, i32 0
  %ECX = bitcast %union.anon* %3 to i32*
  %RBP = getelementptr inbounds %struct.State, %struct.State* %0, i64 0, i32 6, i32 15, i32 0, i32 0
  %4 = load i64, i64* %RBP, align 8
  %5 = add i64 %4, -40
  %6 = load i32, i32* %ECX, align 4
  %7 = load i64, i64* %PC, align 8
  %8 = add i64 %7, 3
  store i64 %8, i64* %PC, align 8
  %9 = inttoptr i64 %5 to i32*
  store i32 %6, i32* %9, align 4
  ret %struct.Memory* %2
}

; Function Attrs: norecurse nounwind
define %struct.Memory* @routine_movl_0xb59010___r9_4____ecx(%struct.State* nocapture dereferenceable(3376), i64, %struct.Memory* readnone returned) local_unnamed_addr #2 {
block_400488:
  %PC = getelementptr inbounds %struct.State, %struct.State* %0, i64 0, i32 6, i32 33, i32 0, i32 0
  %RCX = getelementptr inbounds %struct.State, %struct.State* %0, i64 0, i32 6, i32 5, i32 0, i32 0
  %R9 = getelementptr inbounds %struct.State, %struct.State* %0, i64 0, i32 6, i32 19, i32 0, i32 0
  %3 = load i64, i64* %R9, align 8
  %4 = shl i64 %3, 2
  %5 = add i64 %4, 11898896
  %6 = load i64, i64* %PC, align 8
  %7 = add i64 %6, 8
  store i64 %7, i64* %PC, align 8
  %8 = inttoptr i64 %5 to i32*
  %9 = load i32, i32* %8, align 4
  %10 = zext i32 %9 to i64
  store i64 %10, i64* %RCX, align 8
  ret %struct.Memory* %2
}

; Function Attrs: norecurse nounwind
define %struct.Memory* @routine_movl__ecx__MINUS0x2c__rbp_(%struct.State* nocapture dereferenceable(3376), i64, %struct.Memory* readnone returned) local_unnamed_addr #2 {
block_400488:
  %PC = getelementptr inbounds %struct.State, %struct.State* %0, i64 0, i32 6, i32 33, i32 0, i32 0
  %3 = getelementptr inbounds %struct.State, %struct.State* %0, i64 0, i32 6, i32 5, i32 0
  %ECX = bitcast %union.anon* %3 to i32*
  %RBP = getelementptr inbounds %struct.State, %struct.State* %0, i64 0, i32 6, i32 15, i32 0, i32 0
  %4 = load i64, i64* %RBP, align 8
  %5 = add i64 %4, -44
  %6 = load i32, i32* %ECX, align 4
  %7 = load i64, i64* %PC, align 8
  %8 = add i64 %7, 3
  store i64 %8, i64* %PC, align 8
  %9 = inttoptr i64 %5 to i32*
  store i32 %6, i32* %9, align 4
  ret %struct.Memory* %2
}

; Function Attrs: norecurse nounwind
define %struct.Memory* @routine_movl_0xb58b50___r9_4____ecx(%struct.State* nocapture dereferenceable(3376), i64, %struct.Memory* readnone returned) local_unnamed_addr #2 {
block_400488:
  %PC = getelementptr inbounds %struct.State, %struct.State* %0, i64 0, i32 6, i32 33, i32 0, i32 0
  %RCX = getelementptr inbounds %struct.State, %struct.State* %0, i64 0, i32 6, i32 5, i32 0, i32 0
  %R9 = getelementptr inbounds %struct.State, %struct.State* %0, i64 0, i32 6, i32 19, i32 0, i32 0
  %3 = load i64, i64* %R9, align 8
  %4 = shl i64 %3, 2
  %5 = add i64 %4, 11897680
  %6 = load i64, i64* %PC, align 8
  %7 = add i64 %6, 8
  store i64 %7, i64* %PC, align 8
  %8 = inttoptr i64 %5 to i32*
  %9 = load i32, i32* %8, align 4
  %10 = zext i32 %9 to i64
  store i64 %10, i64* %RCX, align 8
  ret %struct.Memory* %2
}

; Function Attrs: norecurse nounwind
define %struct.Memory* @routine_movl__ecx__MINUS0x30__rbp_(%struct.State* nocapture dereferenceable(3376), i64, %struct.Memory* readnone returned) local_unnamed_addr #2 {
block_400488:
  %PC = getelementptr inbounds %struct.State, %struct.State* %0, i64 0, i32 6, i32 33, i32 0, i32 0
  %3 = getelementptr inbounds %struct.State, %struct.State* %0, i64 0, i32 6, i32 5, i32 0
  %ECX = bitcast %union.anon* %3 to i32*
  %RBP = getelementptr inbounds %struct.State, %struct.State* %0, i64 0, i32 6, i32 15, i32 0, i32 0
  %4 = load i64, i64* %RBP, align 8
  %5 = add i64 %4, -48
  %6 = load i32, i32* %ECX, align 4
  %7 = load i64, i64* %PC, align 8
  %8 = add i64 %7, 3
  store i64 %8, i64* %PC, align 8
  %9 = inttoptr i64 %5 to i32*
  store i32 %6, i32* %9, align 4
  ret %struct.Memory* %2
}

; Function Attrs: norecurse nounwind
define %struct.Memory* @routine_movl_MINUS0x14__rbp____edi(%struct.State* nocapture dereferenceable(3376), i64, %struct.Memory* readnone returned) local_unnamed_addr #2 {
block_400488:
  %PC = getelementptr inbounds %struct.State, %struct.State* %0, i64 0, i32 6, i32 33, i32 0, i32 0
  %RDI = getelementptr inbounds %struct.State, %struct.State* %0, i64 0, i32 6, i32 11, i32 0, i32 0
  %RBP = getelementptr inbounds %struct.State, %struct.State* %0, i64 0, i32 6, i32 15, i32 0, i32 0
  %3 = load i64, i64* %RBP, align 8
  %4 = add i64 %3, -20
  %5 = load i64, i64* %PC, align 8
  %6 = add i64 %5, 3
  store i64 %6, i64* %PC, align 8
  %7 = inttoptr i64 %4 to i32*
  %8 = load i32, i32* %7, align 4
  %9 = zext i32 %8 to i64
  store i64 %9, i64* %RDI, align 8
  ret %struct.Memory* %2
}

; Function Attrs: norecurse nounwind
define %struct.Memory* @routine_movl_MINUS0x1c__rbp____ecx(%struct.State* nocapture dereferenceable(3376), i64, %struct.Memory* readnone returned) local_unnamed_addr #2 {
block_400488:
  %PC = getelementptr inbounds %struct.State, %struct.State* %0, i64 0, i32 6, i32 33, i32 0, i32 0
  %RCX = getelementptr inbounds %struct.State, %struct.State* %0, i64 0, i32 6, i32 5, i32 0, i32 0
  %RBP = getelementptr inbounds %struct.State, %struct.State* %0, i64 0, i32 6, i32 15, i32 0, i32 0
  %3 = load i64, i64* %RBP, align 8
  %4 = add i64 %3, -28
  %5 = load i64, i64* %PC, align 8
  %6 = add i64 %5, 3
  store i64 %6, i64* %PC, align 8
  %7 = inttoptr i64 %4 to i32*
  %8 = load i32, i32* %7, align 4
  %9 = zext i32 %8 to i64
  store i64 %9, i64* %RCX, align 8
  ret %struct.Memory* %2
}

; Function Attrs: norecurse nounwind
define %struct.Memory* @routine_movl_MINUS0x20__rbp____edx(%struct.State* nocapture dereferenceable(3376), i64, %struct.Memory* readnone returned) local_unnamed_addr #2 {
block_400488:
  %PC = getelementptr inbounds %struct.State, %struct.State* %0, i64 0, i32 6, i32 33, i32 0, i32 0
  %RDX = getelementptr inbounds %struct.State, %struct.State* %0, i64 0, i32 6, i32 7, i32 0, i32 0
  %RBP = getelementptr inbounds %struct.State, %struct.State* %0, i64 0, i32 6, i32 15, i32 0, i32 0
  %3 = load i64, i64* %RBP, align 8
  %4 = add i64 %3, -32
  %5 = load i64, i64* %PC, align 8
  %6 = add i64 %5, 3
  store i64 %6, i64* %PC, align 8
  %7 = inttoptr i64 %4 to i32*
  %8 = load i32, i32* %7, align 4
  %9 = zext i32 %8 to i64
  store i64 %9, i64* %RDX, align 8
  ret %struct.Memory* %2
}

; Function Attrs: norecurse nounwind
define %struct.Memory* @routine_movl_MINUS0x24__rbp____r9d(%struct.State* nocapture dereferenceable(3376), i64, %struct.Memory* readnone returned) local_unnamed_addr #2 {
block_400488:
  %PC = getelementptr inbounds %struct.State, %struct.State* %0, i64 0, i32 6, i32 33, i32 0, i32 0
  %RBP = getelementptr inbounds %struct.State, %struct.State* %0, i64 0, i32 6, i32 15, i32 0, i32 0
  %3 = getelementptr inbounds %struct.State, %struct.State* %0, i64 0, i32 6, i32 19, i32 0, i32 0
  %4 = load i64, i64* %RBP, align 8
  %5 = add i64 %4, -36
  %6 = load i64, i64* %PC, align 8
  %7 = add i64 %6, 4
  store i64 %7, i64* %PC, align 8
  %8 = inttoptr i64 %5 to i32*
  %9 = load i32, i32* %8, align 4
  %10 = zext i32 %9 to i64
  store i64 %10, i64* %3, align 8
  ret %struct.Memory* %2
}

; Function Attrs: norecurse nounwind
define %struct.Memory* @routine_movl_MINUS0x28__rbp____esi(%struct.State* nocapture dereferenceable(3376), i64, %struct.Memory* readnone returned) local_unnamed_addr #2 {
block_400488:
  %PC = getelementptr inbounds %struct.State, %struct.State* %0, i64 0, i32 6, i32 33, i32 0, i32 0
  %RSI = getelementptr inbounds %struct.State, %struct.State* %0, i64 0, i32 6, i32 9, i32 0, i32 0
  %RBP = getelementptr inbounds %struct.State, %struct.State* %0, i64 0, i32 6, i32 15, i32 0, i32 0
  %3 = load i64, i64* %RBP, align 8
  %4 = add i64 %3, -40
  %5 = load i64, i64* %PC, align 8
  %6 = add i64 %5, 3
  store i64 %6, i64* %PC, align 8
  %7 = inttoptr i64 %4 to i32*
  %8 = load i32, i32* %7, align 4
  %9 = zext i32 %8 to i64
  store i64 %9, i64* %RSI, align 8
  ret %struct.Memory* %2
}

; Function Attrs: norecurse nounwind
define %struct.Memory* @routine_movl_MINUS0x2c__rbp____r10d(%struct.State* nocapture dereferenceable(3376), i64, %struct.Memory* readnone returned) local_unnamed_addr #2 {
block_400488:
  %PC = getelementptr inbounds %struct.State, %struct.State* %0, i64 0, i32 6, i32 33, i32 0, i32 0
  %RBP = getelementptr inbounds %struct.State, %struct.State* %0, i64 0, i32 6, i32 15, i32 0, i32 0
  %3 = getelementptr inbounds %struct.State, %struct.State* %0, i64 0, i32 6, i32 21, i32 0, i32 0
  %4 = load i64, i64* %RBP, align 8
  %5 = add i64 %4, -44
  %6 = load i64, i64* %PC, align 8
  %7 = add i64 %6, 4
  store i64 %7, i64* %PC, align 8
  %8 = inttoptr i64 %5 to i32*
  %9 = load i32, i32* %8, align 4
  %10 = zext i32 %9 to i64
  store i64 %10, i64* %3, align 8
  ret %struct.Memory* %2
}

; Function Attrs: norecurse nounwind
define %struct.Memory* @routine_movl_MINUS0x30__rbp____r11d(%struct.State* nocapture dereferenceable(3376), i64, %struct.Memory* readnone returned) local_unnamed_addr #2 {
block_400488:
  %PC = getelementptr inbounds %struct.State, %struct.State* %0, i64 0, i32 6, i32 33, i32 0, i32 0
  %RBP = getelementptr inbounds %struct.State, %struct.State* %0, i64 0, i32 6, i32 15, i32 0, i32 0
  %3 = getelementptr inbounds %struct.State, %struct.State* %0, i64 0, i32 6, i32 23, i32 0, i32 0
  %4 = load i64, i64* %RBP, align 8
  %5 = add i64 %4, -48
  %6 = load i64, i64* %PC, align 8
  %7 = add i64 %6, 4
  store i64 %7, i64* %PC, align 8
  %8 = inttoptr i64 %5 to i32*
  %9 = load i32, i32* %8, align 4
  %10 = zext i32 %9 to i64
  store i64 %10, i64* %3, align 8
  ret %struct.Memory* %2
}

; Function Attrs: norecurse nounwind
define %struct.Memory* @routine_movl_MINUS0x28__rbp____ebx(%struct.State* nocapture dereferenceable(3376), i64, %struct.Memory* readnone returned) local_unnamed_addr #2 {
block_400488:
  %PC = getelementptr inbounds %struct.State, %struct.State* %0, i64 0, i32 6, i32 33, i32 0, i32 0
  %RBX = getelementptr inbounds %struct.State, %struct.State* %0, i64 0, i32 6, i32 3, i32 0, i32 0
  %RBP = getelementptr inbounds %struct.State, %struct.State* %0, i64 0, i32 6, i32 15, i32 0, i32 0
  %3 = load i64, i64* %RBP, align 8
  %4 = add i64 %3, -40
  %5 = load i64, i64* %PC, align 8
  %6 = add i64 %5, 3
  store i64 %6, i64* %PC, align 8
  %7 = inttoptr i64 %4 to i32*
  %8 = load i32, i32* %7, align 4
  %9 = zext i32 %8 to i64
  store i64 %9, i64* %RBX, align 8
  ret %struct.Memory* %2
}

; Function Attrs: norecurse nounwind
define %struct.Memory* @routine_movl__esi__MINUS0x34__rbp_(%struct.State* nocapture dereferenceable(3376), i64, %struct.Memory* readnone returned) local_unnamed_addr #2 {
block_400488:
  %PC = getelementptr inbounds %struct.State, %struct.State* %0, i64 0, i32 6, i32 33, i32 0, i32 0
  %3 = getelementptr inbounds %struct.State, %struct.State* %0, i64 0, i32 6, i32 9, i32 0
  %ESI = bitcast %union.anon* %3 to i32*
  %RBP = getelementptr inbounds %struct.State, %struct.State* %0, i64 0, i32 6, i32 15, i32 0, i32 0
  %4 = load i64, i64* %RBP, align 8
  %5 = add i64 %4, -52
  %6 = load i32, i32* %ESI, align 4
  %7 = load i64, i64* %PC, align 8
  %8 = add i64 %7, 3
  store i64 %8, i64* %PC, align 8
  %9 = inttoptr i64 %5 to i32*
  store i32 %6, i32* %9, align 4
  ret %struct.Memory* %2
}

; Function Attrs: norecurse nounwind
define %struct.Memory* @routine_movl__eax___esi(%struct.State* nocapture dereferenceable(3376), i64, %struct.Memory* readnone returned) local_unnamed_addr #2 {
block_400488:
  %PC = getelementptr inbounds %struct.State, %struct.State* %0, i64 0, i32 6, i32 33, i32 0, i32 0
  %3 = getelementptr inbounds %struct.State, %struct.State* %0, i64 0, i32 6, i32 1, i32 0
  %EAX = bitcast %union.anon* %3 to i32*
  %RSI = getelementptr inbounds %struct.State, %struct.State* %0, i64 0, i32 6, i32 9, i32 0, i32 0
  %4 = load i32, i32* %EAX, align 4
  %5 = zext i32 %4 to i64
  %6 = load i64, i64* %PC, align 8
  %7 = add i64 %6, 2
  store i64 %7, i64* %PC, align 8
  store i64 %5, i64* %RSI, align 8
  ret %struct.Memory* %2
}

; Function Attrs: norecurse nounwind
define %struct.Memory* @routine_movl__edx__MINUS0x38__rbp_(%struct.State* nocapture dereferenceable(3376), i64, %struct.Memory* readnone returned) local_unnamed_addr #2 {
block_400488:
  %PC = getelementptr inbounds %struct.State, %struct.State* %0, i64 0, i32 6, i32 33, i32 0, i32 0
  %3 = getelementptr inbounds %struct.State, %struct.State* %0, i64 0, i32 6, i32 7, i32 0
  %EDX = bitcast %union.anon* %3 to i32*
  %RBP = getelementptr inbounds %struct.State, %struct.State* %0, i64 0, i32 6, i32 15, i32 0, i32 0
  %4 = load i64, i64* %RBP, align 8
  %5 = add i64 %4, -56
  %6 = load i32, i32* %EDX, align 4
  %7 = load i64, i64* %PC, align 8
  %8 = add i64 %7, 3
  store i64 %8, i64* %PC, align 8
  %9 = inttoptr i64 %5 to i32*
  store i32 %6, i32* %9, align 4
  ret %struct.Memory* %2
}

; Function Attrs: norecurse nounwind
define %struct.Memory* @routine_movl__r8d___edx(%struct.State* nocapture dereferenceable(3376), i64, %struct.Memory* readnone returned) local_unnamed_addr #2 {
block_400488:
  %PC = getelementptr inbounds %struct.State, %struct.State* %0, i64 0, i32 6, i32 33, i32 0, i32 0
  %3 = getelementptr inbounds %struct.State, %struct.State* %0, i64 0, i32 6, i32 17, i32 0
  %R8D = bitcast %union.anon* %3 to i32*
  %RDX = getelementptr inbounds %struct.State, %struct.State* %0, i64 0, i32 6, i32 7, i32 0, i32 0
  %4 = load i32, i32* %R8D, align 4
  %5 = zext i32 %4 to i64
  %6 = load i64, i64* %PC, align 8
  %7 = add i64 %6, 3
  store i64 %7, i64* %PC, align 8
  store i64 %5, i64* %RDX, align 8
  ret %struct.Memory* %2
}

; Function Attrs: norecurse nounwind
define %struct.Memory* @routine_movl_MINUS0x38__rbp____r8d(%struct.State* nocapture dereferenceable(3376), i64, %struct.Memory* readnone returned) local_unnamed_addr #2 {
block_400488:
  %PC = getelementptr inbounds %struct.State, %struct.State* %0, i64 0, i32 6, i32 33, i32 0, i32 0
  %RBP = getelementptr inbounds %struct.State, %struct.State* %0, i64 0, i32 6, i32 15, i32 0, i32 0
  %3 = getelementptr inbounds %struct.State, %struct.State* %0, i64 0, i32 6, i32 17, i32 0, i32 0
  %4 = load i64, i64* %RBP, align 8
  %5 = add i64 %4, -56
  %6 = load i64, i64* %PC, align 8
  %7 = add i64 %6, 4
  store i64 %7, i64* %PC, align 8
  %8 = inttoptr i64 %5 to i32*
  %9 = load i32, i32* %8, align 4
  %10 = zext i32 %9 to i64
  store i64 %10, i64* %3, align 8
  ret %struct.Memory* %2
}

; Function Attrs: norecurse nounwind
define %struct.Memory* @routine_movl_MINUS0x34__rbp____eax(%struct.State* nocapture dereferenceable(3376), i64, %struct.Memory* readnone returned) local_unnamed_addr #2 {
block_400488:
  %PC = getelementptr inbounds %struct.State, %struct.State* %0, i64 0, i32 6, i32 33, i32 0, i32 0
  %RAX = getelementptr inbounds %struct.State, %struct.State* %0, i64 0, i32 6, i32 1, i32 0, i32 0
  %RBP = getelementptr inbounds %struct.State, %struct.State* %0, i64 0, i32 6, i32 15, i32 0, i32 0
  %3 = load i64, i64* %RBP, align 8
  %4 = add i64 %3, -52
  %5 = load i64, i64* %PC, align 8
  %6 = add i64 %5, 3
  store i64 %6, i64* %PC, align 8
  %7 = inttoptr i64 %4 to i32*
  %8 = load i32, i32* %7, align 4
  %9 = zext i32 %8 to i64
  store i64 %9, i64* %RAX, align 8
  ret %struct.Memory* %2
}

; Function Attrs: norecurse nounwind
define %struct.Memory* @routine_movl__eax____rsp_(%struct.State* nocapture dereferenceable(3376), i64, %struct.Memory* readnone returned) local_unnamed_addr #2 {
block_400488:
  %PC = getelementptr inbounds %struct.State, %struct.State* %0, i64 0, i32 6, i32 33, i32 0, i32 0
  %3 = getelementptr inbounds %struct.State, %struct.State* %0, i64 0, i32 6, i32 1, i32 0
  %EAX = bitcast %union.anon* %3 to i32*
  %RSP = getelementptr inbounds %struct.State, %struct.State* %0, i64 0, i32 6, i32 13, i32 0, i32 0
  %4 = bitcast i64* %RSP to i32**
  %5 = load i32*, i32** %4, align 8
  %6 = load i32, i32* %EAX, align 4
  %7 = load i64, i64* %PC, align 8
  %8 = add i64 %7, 3
  store i64 %8, i64* %PC, align 8
  store i32 %6, i32* %5, align 4
  ret %struct.Memory* %2
}

; Function Attrs: norecurse nounwind
define %struct.Memory* @routine_movl__r10d__0x8__rsp_(%struct.State* nocapture dereferenceable(3376), i64, %struct.Memory* readnone returned) local_unnamed_addr #2 {
block_400488:
  %PC = getelementptr inbounds %struct.State, %struct.State* %0, i64 0, i32 6, i32 33, i32 0, i32 0
  %3 = getelementptr inbounds %struct.State, %struct.State* %0, i64 0, i32 6, i32 21, i32 0
  %R10D = bitcast %union.anon* %3 to i32*
  %RSP = getelementptr inbounds %struct.State, %struct.State* %0, i64 0, i32 6, i32 13, i32 0, i32 0
  %4 = load i64, i64* %RSP, align 8
  %5 = add i64 %4, 8
  %6 = load i32, i32* %R10D, align 4
  %7 = load i64, i64* %PC, align 8
  %8 = add i64 %7, 5
  store i64 %8, i64* %PC, align 8
  %9 = inttoptr i64 %5 to i32*
  store i32 %6, i32* %9, align 4
  ret %struct.Memory* %2
}

; Function Attrs: norecurse nounwind
define %struct.Memory* @routine_movl__r11d__0x10__rsp_(%struct.State* nocapture dereferenceable(3376), i64, %struct.Memory* readnone returned) local_unnamed_addr #2 {
block_400488:
  %PC = getelementptr inbounds %struct.State, %struct.State* %0, i64 0, i32 6, i32 33, i32 0, i32 0
  %3 = getelementptr inbounds %struct.State, %struct.State* %0, i64 0, i32 6, i32 23, i32 0
  %R11D = bitcast %union.anon* %3 to i32*
  %RSP = getelementptr inbounds %struct.State, %struct.State* %0, i64 0, i32 6, i32 13, i32 0, i32 0
  %4 = load i64, i64* %RSP, align 8
  %5 = add i64 %4, 16
  %6 = load i32, i32* %R11D, align 4
  %7 = load i64, i64* %PC, align 8
  %8 = add i64 %7, 5
  store i64 %8, i64* %PC, align 8
  %9 = inttoptr i64 %5 to i32*
  store i32 %6, i32* %9, align 4
  ret %struct.Memory* %2
}

; Function Attrs: norecurse nounwind
define %struct.Memory* @routine_movl__ebx__0x18__rsp_(%struct.State* nocapture dereferenceable(3376), i64, %struct.Memory* readnone returned) local_unnamed_addr #2 {
block_400488:
  %PC = getelementptr inbounds %struct.State, %struct.State* %0, i64 0, i32 6, i32 33, i32 0, i32 0
  %3 = getelementptr inbounds %struct.State, %struct.State* %0, i64 0, i32 6, i32 3, i32 0
  %EBX = bitcast %union.anon* %3 to i32*
  %RSP = getelementptr inbounds %struct.State, %struct.State* %0, i64 0, i32 6, i32 13, i32 0, i32 0
  %4 = load i64, i64* %RSP, align 8
  %5 = add i64 %4, 24
  %6 = load i32, i32* %EBX, align 4
  %7 = load i64, i64* %PC, align 8
  %8 = add i64 %7, 4
  store i64 %8, i64* %PC, align 8
  %9 = inttoptr i64 %5 to i32*
  store i32 %6, i32* %9, align 4
  ret %struct.Memory* %2
}

; Function Attrs: norecurse nounwind
define %struct.Memory* @routine_movb__0x0___al(%struct.State* nocapture dereferenceable(3376), i64, %struct.Memory* readnone returned) local_unnamed_addr #2 {
block_400488:
  %PC = getelementptr inbounds %struct.State, %struct.State* %0, i64 0, i32 6, i32 33, i32 0, i32 0
  %3 = getelementptr inbounds %struct.State, %struct.State* %0, i64 0, i32 6, i32 1, i32 0
  %AL = bitcast %union.anon* %3 to i8*
  %4 = load i64, i64* %PC, align 8
  %5 = add i64 %4, 2
  store i64 %5, i64* %PC, align 8
  store i8 0, i8* %AL, align 1
  ret %struct.Memory* %2
}

; Function Attrs: norecurse nounwind
define %struct.Memory* @routine_callq_.play_attack_defend_n(%struct.State* nocapture dereferenceable(3376), i64, %struct.Memory* readnone returned, i64 %rel_off1, i64 %rel_off2, i64 %rel_off3) local_unnamed_addr #2 {
block_400488:
  %PC = getelementptr inbounds %struct.State, %struct.State* %0, i64 0, i32 6, i32 33, i32 0, i32 0
  %3 = load i64, i64* %PC, align 8
  %4 = add i64 %3, %rel_off1
  %5 = add i64 %3, %rel_off2
  %6 = getelementptr inbounds %struct.State, %struct.State* %0, i64 0, i32 6, i32 13, i32 0, i32 0
  %7 = load i64, i64* %6, align 8
  %8 = add i64 %7, -8
  %9 = inttoptr i64 %8 to i64*
  store i64 %5, i64* %9, align 8
  store i64 %8, i64* %6, align 8
  store i64 %4, i64* %PC, align 8
  ret %struct.Memory* %2
}

; Function Attrs: nounwind
define %struct.Memory* @routine_addq__0x58___rsp(%struct.State* nocapture dereferenceable(3376), i64, %struct.Memory* readnone returned) local_unnamed_addr #3 {
block_400488:
  %PC = getelementptr inbounds %struct.State, %struct.State* %0, i64 0, i32 6, i32 33, i32 0, i32 0
  %RSP = getelementptr inbounds %struct.State, %struct.State* %0, i64 0, i32 6, i32 13, i32 0, i32 0
  %3 = load i64, i64* %RSP, align 8
  %4 = load i64, i64* %PC, align 8
  %5 = add i64 %4, 4
  store i64 %5, i64* %PC, align 8
  %6 = add i64 %3, 88
  store i64 %6, i64* %RSP, align 8
  %7 = icmp ugt i64 %3, -89
  %8 = zext i1 %7 to i8
  %9 = getelementptr inbounds %struct.State, %struct.State* %0, i64 0, i32 2, i32 1
  store i8 %8, i8* %9, align 1
  %10 = trunc i64 %6 to i32
  %11 = and i32 %10, 255
  %12 = tail call i32 @llvm.ctpop.i32(i32 %11)
  %13 = trunc i32 %12 to i8
  %14 = and i8 %13, 1
  %15 = xor i8 %14, 1
  %16 = getelementptr inbounds %struct.State, %struct.State* %0, i64 0, i32 2, i32 3
  store i8 %15, i8* %16, align 1
  %17 = xor i64 %3, 16
  %18 = xor i64 %17, %6
  %19 = lshr i64 %18, 4
  %20 = trunc i64 %19 to i8
  %21 = and i8 %20, 1
  %22 = getelementptr inbounds %struct.State, %struct.State* %0, i64 0, i32 2, i32 5
  store i8 %21, i8* %22, align 1
  %23 = icmp eq i64 %6, 0
  %24 = zext i1 %23 to i8
  %25 = getelementptr inbounds %struct.State, %struct.State* %0, i64 0, i32 2, i32 7
  store i8 %24, i8* %25, align 1
  %26 = lshr i64 %6, 63
  %27 = trunc i64 %26 to i8
  %28 = getelementptr inbounds %struct.State, %struct.State* %0, i64 0, i32 2, i32 9
  store i8 %27, i8* %28, align 1
  %29 = lshr i64 %3, 63
  %30 = xor i64 %26, %29
  %31 = add nuw nsw i64 %30, %26
  %32 = icmp eq i64 %31, 2
  %33 = zext i1 %32 to i8
  %34 = getelementptr inbounds %struct.State, %struct.State* %0, i64 0, i32 2, i32 13
  store i8 %33, i8* %34, align 1
  ret %struct.Memory* %2
}

; Function Attrs: norecurse nounwind
define %struct.Memory* @routine_popq__rbx(%struct.State* nocapture dereferenceable(3376), i64, %struct.Memory* readnone returned) local_unnamed_addr #2 {
block_400488:
  %PC = getelementptr inbounds %struct.State, %struct.State* %0, i64 0, i32 6, i32 33, i32 0, i32 0
  %RBX = getelementptr inbounds %struct.State, %struct.State* %0, i64 0, i32 6, i32 3, i32 0, i32 0
  %3 = load i64, i64* %PC, align 8
  %4 = add i64 %3, 1
  store i64 %4, i64* %PC, align 8
  %5 = getelementptr inbounds %struct.State, %struct.State* %0, i64 0, i32 6, i32 13, i32 0, i32 0
  %6 = load i64, i64* %5, align 8
  %7 = add i64 %6, 8
  %8 = inttoptr i64 %6 to i64*
  %9 = load i64, i64* %8, align 8
  store i64 %9, i64* %RBX, align 8
  store i64 %7, i64* %5, align 8
  ret %struct.Memory* %2
}

; Function Attrs: norecurse nounwind
define %struct.Memory* @routine_popq__rbp(%struct.State* nocapture dereferenceable(3376), i64, %struct.Memory* readnone returned) local_unnamed_addr #2 {
block_400488:
  %PC = getelementptr inbounds %struct.State, %struct.State* %0, i64 0, i32 6, i32 33, i32 0, i32 0
  %RBP = getelementptr inbounds %struct.State, %struct.State* %0, i64 0, i32 6, i32 15, i32 0, i32 0
  %3 = load i64, i64* %PC, align 8
  %4 = add i64 %3, 1
  store i64 %4, i64* %PC, align 8
  %5 = getelementptr inbounds %struct.State, %struct.State* %0, i64 0, i32 6, i32 13, i32 0, i32 0
  %6 = load i64, i64* %5, align 8
  %7 = add i64 %6, 8
  %8 = inttoptr i64 %6 to i64*
  %9 = load i64, i64* %8, align 8
  store i64 %9, i64* %RBP, align 8
  store i64 %7, i64* %5, align 8
  ret %struct.Memory* %2
}

; Function Attrs: norecurse nounwind
define %struct.Memory* @routine_retq(%struct.State* nocapture dereferenceable(3376), i64, %struct.Memory* readnone returned) local_unnamed_addr #2 {
block_400488:
  %PC = getelementptr inbounds %struct.State, %struct.State* %0, i64 0, i32 6, i32 33, i32 0, i32 0
  %3 = load i64, i64* %PC, align 8
  %4 = add i64 %3, 1
  store i64 %4, i64* %PC, align 8
  %5 = getelementptr inbounds %struct.State, %struct.State* %0, i64 0, i32 6, i32 13, i32 0, i32 0
  %6 = load i64, i64* %5, align 8
  %7 = inttoptr i64 %6 to i64*
  %8 = load i64, i64* %7, align 8
  store i64 %8, i64* %PC, align 8
  %9 = add i64 %6, 8
  store i64 %9, i64* %5, align 8
  ret %struct.Memory* %2
}

attributes #0 = { nounwind readnone }
attributes #1 = { alwaysinline }
attributes #2 = { norecurse nounwind }
attributes #3 = { nounwind }
