; ModuleID = 'mcsema/test.proposed.ll'
source_filename = "llvm-link"
target datalayout = "e-m:e-i64:64-f80:128-n8:16:32:64-S128"
target triple = "x86_64-pc-linux-gnu-elf"

%union.anon = type { i64 }
%seg_400388__init_type = type <{ [23 x i8] }>
%seg_4003a0__text_type = type <{ [354 x i8] }>
%seg_400504__fini_type = type <{ [9 x i8] }>
%seg_400510__rodata_type = type <{ [4 x i8] }>
%seg_400514__eh_frame_hdr_type = type <{ [52 x i8] }>
%seg_400548__eh_frame_type = type <{ [208 x i8] }>
%seg_601018__data_type = type <{ [16 x i8] }>
%__bss_start_type = type <{ [8 x i8] }>
%seg_400514__fini_type = type <{ [9 x i8] }>
%seg_400520__rodata_type = type <{ [4 x i8] }>
%seg_400524__eh_frame_hdr_type = type <{ [52 x i8] }>
%seg_400558__eh_frame_type = type <{ [208 x i8] }>
%struct.State = type { %struct.ArchState, [32 x %union.VectorReg], %struct.ArithFlags, %union.anon, %struct.Segments, %struct.AddressSpace, %struct.GPR, %struct.X87Stack, %struct.MMX, %struct.FPUStatusFlags, %union.anon, %union.FPU, %struct.SegmentCaches }
%struct.ArchState = type { i32, i32, %union.anon }
%union.VectorReg = type { %union.vec512_t }
%union.vec512_t = type { %struct.uint64v8_t }
%struct.uint64v8_t = type { [8 x i64] }
%struct.ArithFlags = type { i8, i8, i8, i8, i8, i8, i8, i8, i8, i8, i8, i8, i8, i8, i8, i8 }
%struct.Segments = type { i16, %union.SegmentSelector, i16, %union.SegmentSelector, i16, %union.SegmentSelector, i16, %union.SegmentSelector, i16, %union.SegmentSelector, i16, %union.SegmentSelector }
%union.SegmentSelector = type { i16 }
%struct.AddressSpace = type { i64, %struct.Reg, i64, %struct.Reg, i64, %struct.Reg, i64, %struct.Reg, i64, %struct.Reg, i64, %struct.Reg }
%struct.Reg = type { %union.anon }
%struct.GPR = type { i64, %struct.Reg, i64, %struct.Reg, i64, %struct.Reg, i64, %struct.Reg, i64, %struct.Reg, i64, %struct.Reg, i64, %struct.Reg, i64, %struct.Reg, i64, %struct.Reg, i64, %struct.Reg, i64, %struct.Reg, i64, %struct.Reg, i64, %struct.Reg, i64, %struct.Reg, i64, %struct.Reg, i64, %struct.Reg, i64, %struct.Reg }
%struct.X87Stack = type { [8 x %struct.anon.3] }
%struct.anon.3 = type { i64, double }
%struct.MMX = type { [8 x %struct.anon.4] }
%struct.anon.4 = type { i64, %union.vec64_t }
%union.vec64_t = type { %struct.uint64v1_t }
%struct.uint64v1_t = type { [1 x i64] }
%struct.FPUStatusFlags = type { i8, i8, i8, i8, i8, i8, i8, i8, i8, i8, i8, i8, i8, i8, i8, i8, i8, i8, i8, i8, [4 x i8] }
%union.FPU = type { %struct.anon.13 }
%struct.anon.13 = type { %struct.FpuFXSAVE, [96 x i8] }
%struct.FpuFXSAVE = type { %union.SegmentSelector, %union.SegmentSelector, %union.FPUAbridgedTagWord, i8, i16, i32, %union.SegmentSelector, i16, i32, %union.SegmentSelector, i16, %union.FPUControlStatus, %union.FPUControlStatus, [8 x %struct.FPUStackElem], [16 x %union.vec128_t] }
%union.FPUAbridgedTagWord = type { i8 }
%union.FPUControlStatus = type { i32 }
%struct.FPUStackElem = type { %union.anon.11, [6 x i8] }
%union.anon.11 = type { %struct.float80_t }
%struct.float80_t = type { [10 x i8] }
%union.vec128_t = type { %struct.uint128v1_t }
%struct.uint128v1_t = type { [1 x i128] }
%struct.SegmentCaches = type { %struct.SegmentShadow, %struct.SegmentShadow, %struct.SegmentShadow, %struct.SegmentShadow, %struct.SegmentShadow, %struct.SegmentShadow }
%struct.SegmentShadow = type { %union.anon, i32, i32 }
%struct.Memory = type opaque
%struct.anon.2 = type { i8, i8 }

@switch.table = private unnamed_addr constant [4 x i32] [i32 2048, i32 3072, i32 0, i32 1024]
@DR0 = external global i64, align 8
@DR1 = external global i64, align 8
@DR2 = external global i64, align 8
@DR3 = external global i64, align 8
@DR4 = external global i64, align 8
@DR5 = external global i64, align 8
@DR6 = external global i64, align 8
@DR7 = external global i64, align 8
@gCR0 = external global %union.anon, align 1
@gCR1 = external global %union.anon, align 1
@gCR2 = external global %union.anon, align 1
@gCR3 = external global %union.anon, align 1
@gCR4 = external global %union.anon, align 1
@gCR8 = external global %union.anon, align 1
@seg_400388__init = internal constant %seg_400388__init_type <{ [23 x i8] c"H\83\EC\08H\8B\05e\0C \00H\85\C0t\02\FF\D0H\83\C4\08\C3" }>
@seg_4003a0__text = internal constant %seg_4003a0__text_type <{ [354 x i8] c"1\EDI\89\D1^H\89\E2H\83\E4\F0PTI\C7\C0\00\05@\00H\C7\C1\90\04@\00H\C7\C7\88\04@\00\FF\15&\0C \00\F4\0F\1FD\00\00\F3\C3f.\0F\1F\84\00\00\00\00\00\0F\1F@\00U\B8(\10`\00H=(\10`\00H\89\E5t\17\B8\00\00\00\00H\85\C0t\0D]\BF(\10`\00\FF\E0\0F\1FD\00\00]\C3f\0F\1FD\00\00\BE(\10`\00UH\81\EE(\10`\00H\89\E5H\C1\FE\03H\89\F0H\C1\E8?H\01\C6H\D1\FEt\15\B8\00\00\00\00H\85\C0t\0B]\BF(\10`\00\FF\E0\0F\1F\00]\C3f\0F\1FD\00\00\80=\D1\0B \00\00u\17UH\89\E5\E8~\FF\FF\FF\C6\05\BF\0B \00\01]\C3\0F\1FD\00\00\F3\C3\0F\1F@\00f.\0F\1F\84\00\00\00\00\00UH\89\E5]\EB\89\90U\C3f\0F\1FD\00\00AWAVI\89\D7AUATL\8D%\9E\09 \00UH\8D-\9E\09 \00SA\89\FDI\89\F6L)\E5H\83\EC\08H\C1\FD\03\E8\C7\FE\FF\FFH\85\EDt 1\DB\0F\1F\84\00\00\00\00\00L\89\FAL\89\F6D\89\EFA\FF\14\DCH\83\C3\01H9\DDu\EAH\83\C4\08[]A\5CA]A^A_\C3\90f.\0F\1F\84\00\00\00\00\00\F3\C3" }>
@seg_400504__fini = internal constant %seg_400504__fini_type <{ [9 x i8] c"H\83\EC\08H\83\C4\08\C3" }>
@seg_400510__rodata = internal constant %seg_400510__rodata_type <{ [4 x i8] c"\01\00\02\00" }>
@seg_400514__eh_frame_hdr = internal constant %seg_400514__eh_frame_hdr_type <{ [52 x i8] c"\01\1B\03;0\00\00\00\05\00\00\00\8C\FE\FF\FFL\00\00\00\BC\FE\FF\FFx\00\00\00t\FF\FF\FF\8C\00\00\00|\FF\FF\FF\A4\00\00\00\EC\FF\FF\FF\EC\00\00\00" }>
@seg_400548__eh_frame = internal constant %seg_400548__eh_frame_type <{ [208 x i8] c"\14\00\00\00\00\00\00\00\01zR\00\01x\10\01\1B\0C\07\08\90\01\07\10\10\00\00\00\1C\00\00\008\FE\FF\FF+\00\00\00\00\00\00\00\14\00\00\00\00\00\00\00\01zR\00\01x\10\01\1B\0C\07\08\90\01\00\00\10\00\00\00\1C\00\00\00<\FE\FF\FF\02\00\00\00\00\00\00\00\14\00\00\000\00\00\00\E0\FE\FF\FF\02\00\00\00\00\00\00\00\00\00\00\00D\00\00\00H\00\00\00\D0\FE\FF\FFe\00\00\00\00B\0E\10\8F\02B\0E\18\8E\03E\0E \8D\04B\0E(\8C\05H\0E0\86\06H\0E8\83\07M\0E@r\0E8A\0E0A\0E(B\0E B\0E\18B\0E\10B\0E\08\00\10\00\00\00\90\00\00\00\F8\FE\FF\FF\02\00\00\00\00\00\00\00\00\00\00\00" }>
@seg_601018__data = internal global %seg_601018__data_type zeroinitializer
@__bss_start = global %__bss_start_type zeroinitializer
@0 = internal global i1 false
@seg_400514__fini = internal constant %seg_400514__fini_type <{ [9 x i8] c"H\83\EC\08H\83\C4\08\C3" }>
@seg_400520__rodata = internal constant %seg_400520__rodata_type <{ [4 x i8] c"\01\00\02\00" }>
@seg_400524__eh_frame_hdr = internal constant %seg_400524__eh_frame_hdr_type <{ [52 x i8] c"\01\1B\03;0\00\00\00\05\00\00\00|\FE\FF\FFL\00\00\00\AC\FE\FF\FFx\00\00\00d\FF\FF\FF\8C\00\00\00|\FF\FF\FF\A4\00\00\00\EC\FF\FF\FF\EC\00\00\00" }>
@seg_400558__eh_frame = internal constant %seg_400558__eh_frame_type <{ [208 x i8] c"\14\00\00\00\00\00\00\00\01zR\00\01x\10\01\1B\0C\07\08\90\01\07\10\10\00\00\00\1C\00\00\00(\FE\FF\FF+\00\00\00\00\00\00\00\14\00\00\00\00\00\00\00\01zR\00\01x\10\01\1B\0C\07\08\90\01\00\00\10\00\00\00\1C\00\00\00,\FE\FF\FF\02\00\00\00\00\00\00\00\14\00\00\000\00\00\00\D0\FE\FF\FF\09\00\00\00\00\00\00\00\00\00\00\00D\00\00\00H\00\00\00\D0\FE\FF\FFe\00\00\00\00B\0E\10\8F\02B\0E\18\8E\03E\0E \8D\04B\0E(\8C\05H\0E0\86\06H\0E8\83\07M\0E@r\0E8A\0E0A\0E(B\0E B\0E\18B\0E\10B\0E\08\00\10\00\00\00\90\00\00\00\F8\FE\FF\FF\02\00\00\00\00\00\00\00\00\00\00\00" }>

declare %struct.Memory* @__remill_error(%struct.State* dereferenceable(3376), i64, %struct.Memory*)

declare i32 @__remill_fpu_exception_test_and_clear(i32, i32)

; Function Attrs: argmemonly nounwind
declare void @llvm.lifetime.start(i64, i8* nocapture) #0

; Function Attrs: argmemonly nounwind
declare void @llvm.lifetime.end(i64, i8* nocapture) #0

; Function Attrs: nounwind readnone
declare i32 @llvm.ctpop.i32(i32) #1

; Function Attrs: nounwind readnone
declare i32 @llvm.bswap.i32(i32) #1

; Function Attrs: nounwind readnone
declare i64 @llvm.bswap.i64(i64) #1

; Function Attrs: nounwind readnone
declare i32 @llvm.cttz.i32(i32, i1) #1

; Function Attrs: nounwind readnone
declare i64 @llvm.cttz.i64(i64, i1) #1

; Function Attrs: nounwind readnone
declare i32 @llvm.ctlz.i32(i32, i1) #1

; Function Attrs: nounwind readnone
declare i64 @llvm.ctlz.i64(i64, i1) #1

; Function Attrs: argmemonly nounwind
declare void @llvm.memcpy.p0i8.p0i8.i64(i8* nocapture writeonly, i8* nocapture readonly, i64, i32, i1) #0

; Function Attrs: nounwind readnone
declare double @llvm.nearbyint.f64(double) #1

; Function Attrs: nounwind readnone
declare double @llvm.fabs.f64(double) #1

; Function Attrs: nounwind readnone
declare <4 x double> @llvm.nearbyint.v4f64(<4 x double>) #1

; Function Attrs: nounwind readnone
declare <4 x double> @llvm.fabs.v4f64(<4 x double>) #1

; Function Attrs: nounwind readnone
declare double @llvm.trunc.f64(double) #1

; Function Attrs: nounwind readnone
declare <4 x double> @llvm.trunc.v4f64(<4 x double>) #1

; Function Attrs: nounwind readnone
declare float @llvm.nearbyint.f32(float) #1

; Function Attrs: nounwind readnone
declare float @llvm.fabs.f32(float) #1

; Function Attrs: nounwind readnone
declare <4 x float> @llvm.nearbyint.v4f32(<4 x float>) #1

; Function Attrs: nounwind readnone
declare <4 x float> @llvm.fabs.v4f32(<4 x float>) #1

; Function Attrs: nounwind readnone
declare float @llvm.trunc.f32(float) #1

; Function Attrs: nounwind readnone
declare <4 x float> @llvm.trunc.v4f32(<4 x float>) #1

; Function Attrs: argmemonly nounwind
declare void @llvm.memset.p0i8.i64(i8* nocapture writeonly, i8, i64, i32, i1) #0

declare double @atan(double) local_unnamed_addr

declare double @cos(double) local_unnamed_addr

declare double @sin(double) local_unnamed_addr

declare double @sqrt(double) local_unnamed_addr

declare double @tan(double) local_unnamed_addr

declare extern_weak x86_64_sysvcc i64 @abort()

declare extern_weak x86_64_sysvcc i64 @abs(i64)

declare extern_weak x86_64_sysvcc i64 @asin(i64)

declare extern_weak x86_64_sysvcc i64 @atof(i64)

declare extern_weak x86_64_sysvcc i64 @atoi(i64)

declare extern_weak x86_64_sysvcc i64 @atol(i64)

declare extern_weak x86_64_sysvcc i64 @calloc(i64, i64)

declare extern_weak x86_64_sysvcc i64 @clock()

declare extern_weak x86_64_sysvcc i64 @cosf(i64)

declare extern_weak x86_64_sysvcc i64 @exit(i64)

declare extern_weak x86_64_sysvcc i64 @exp(i64)

declare extern_weak x86_64_sysvcc i64 @fflush(i64)

declare extern_weak x86_64_sysvcc i64 @floor(i64)

declare extern_weak x86_64_sysvcc i64 @fprintf(i64, i64, i64, i64, i64, i64, i64, i64, i64, i64, i64, i64, i64, i64, i64, i64)

declare extern_weak x86_64_sysvcc i64 @fputs(i64, i64)

declare extern_weak x86_64_sysvcc i64 @free(i64)

declare extern_weak x86_64_sysvcc i64 @fwrite(i64, i64, i64, i64)

declare extern_weak x86_64_sysvcc i64 @getchar()

declare extern_weak x86_64_sysvcc i64 @gettimeofday(i64, i64)

declare extern_weak x86_64_sysvcc i64 @__isoc99_fscanf(i64, i64, i64, i64, i64, i64, i64, i64, i64, i64, i64, i64, i64, i64, i64, i64)

declare extern_weak x86_64_sysvcc i64 @__isoc99_scanf(i64, i64, i64, i64, i64, i64, i64, i64, i64, i64, i64, i64, i64, i64, i64, i64)

declare extern_weak x86_64_sysvcc i64 @__isoc99_sscanf(i64, i64, i64, i64, i64, i64, i64, i64, i64, i64, i64, i64, i64, i64, i64, i64)

declare extern_weak x86_64_sysvcc i64 @log(i64)

declare extern_weak x86_64_sysvcc i64 @lrand48()

declare extern_weak x86_64_sysvcc i64 @malloc(i64)

declare extern_weak x86_64_sysvcc i64 @memalign(i64, i64)

declare extern_weak x86_64_sysvcc i64 @memcpy(i64, i64, i64)

declare extern_weak x86_64_sysvcc i64 @memset(i64, i64, i64)

declare extern_weak x86_64_sysvcc i64 @perror(i64)

declare extern_weak x86_64_sysvcc i64 @posix_memalign(i64, i64, i64)

declare extern_weak x86_64_sysvcc i64 @pow(i64, i64)

declare extern_weak x86_64_sysvcc i64 @printf(i64, i64, i64, i64, i64, i64, i64, i64, i64, i64, i64, i64, i64, i64, i64, i64)

declare extern_weak x86_64_sysvcc i64 @putchar(i64)

declare extern_weak x86_64_sysvcc i64 @puts(i64)

declare extern_weak x86_64_sysvcc i64 @rand()

declare extern_weak x86_64_sysvcc i64 @random()

declare extern_weak x86_64_sysvcc i64 @realloc(i64, i64)

declare extern_weak x86_64_sysvcc i64 @seed48(i64)

declare extern_weak x86_64_sysvcc i64 @sinf(i64)

declare extern_weak x86_64_sysvcc i64 @sprintf(i64, i64, i64, i64, i64, i64, i64, i64, i64, i64, i64, i64, i64, i64, i64, i64)

declare extern_weak x86_64_sysvcc i64 @srand(i64)

declare extern_weak x86_64_sysvcc i64 @strcat(i64, i64)

declare extern_weak x86_64_sysvcc i64 @strcmp(i64, i64)

declare extern_weak x86_64_sysvcc i64 @strcpy(i64, i64)

declare extern_weak x86_64_sysvcc i64 @strdup(i64)

declare extern_weak x86_64_sysvcc i64 @strlen(i64)

declare extern_weak x86_64_sysvcc i64 @strncmp(i64, i64, i64)

declare extern_weak x86_64_sysvcc i64 @strtoll(i64, i64, i64)

declare extern_weak x86_64_sysvcc i64 @time(i64)

declare extern_weak x86_64_sysvcc i64 @ungetc(i64, i64)

declare extern_weak x86_64_sysvcc i64 @pthread_join(i64, i64)

declare extern_weak x86_64_sysvcc i64 @pthread_create(i64, i64, i64, i64)

declare %struct.Memory* @__remill_function_call(%struct.State* dereferenceable(3376), i64, %struct.Memory*)

declare %struct.Memory* @ext_sqrt(%struct.State* noalias dereferenceable(3376), i64, %struct.Memory* noalias)

declare %struct.Memory* @ext_atan(%struct.State* noalias dereferenceable(3376), i64, %struct.Memory* noalias)

declare %struct.Memory* @ext_cos(%struct.State* noalias dereferenceable(3376), i64, %struct.Memory* noalias)

declare %struct.Memory* @ext_tan(%struct.State* noalias dereferenceable(3376), i64, %struct.Memory* noalias)

declare %struct.Memory* @ext_sin(%struct.State* noalias dereferenceable(3376), i64, %struct.Memory* noalias)

declare %struct.Memory* @sub_477710.somewhere(%struct.State* noalias dereferenceable(3376), i64, %struct.Memory* noalias readnone returned)

; Function Attrs: alwaysinline
define %struct.Memory* @autohelperfusekipat6(%struct.State* noalias, i64, %struct.Memory* noalias) #2 {
entry:
  %3 = getelementptr inbounds %struct.State, %struct.State* %0, i64 0, i32 6, i32 33, i32 0, i32 0
  store i64 %1, i64* %3, align 8
  %BRANCH_TAKEN = alloca i8, align 1
  store i8 0, i8* %BRANCH_TAKEN, align 1
  %MEMORY = alloca %struct.Memory*, align 8
  store %struct.Memory* %2, %struct.Memory** %MEMORY, align 8
  %loadMem_4acaa0 = load %struct.Memory*, %struct.Memory** %MEMORY
  %4 = getelementptr inbounds %struct.State, %struct.State* %0, i32 0, i32 6
  %5 = getelementptr inbounds %struct.GPR, %struct.GPR* %4, i32 0, i32 33
  %6 = getelementptr inbounds %struct.Reg, %struct.Reg* %5, i32 0, i32 0
  %PC.i = bitcast %union.anon* %6 to i64*
  %7 = getelementptr inbounds %struct.State, %struct.State* %0, i32 0, i32 6
  %8 = getelementptr inbounds %struct.GPR, %struct.GPR* %7, i32 0, i32 15
  %9 = getelementptr inbounds %struct.Reg, %struct.Reg* %8, i32 0, i32 0
  %RBP.i = bitcast %union.anon* %9 to i64*
  %10 = load i64, i64* %RBP.i
  %11 = load i64, i64* %PC.i
  %12 = add i64 %11, 1
  store i64 %12, i64* %PC.i
  %13 = getelementptr inbounds %struct.State, %struct.State* %0, i64 0, i32 6, i32 13, i32 0, i32 0
  %14 = load i64, i64* %13, align 8
  %15 = add i64 %14, -8
  %16 = inttoptr i64 %15 to i64*
  store i64 %10, i64* %16
  store i64 %15, i64* %13, align 8
  store %struct.Memory* %loadMem_4acaa0, %struct.Memory** %MEMORY
  %loadMem_4acaa1 = load %struct.Memory*, %struct.Memory** %MEMORY
  %17 = getelementptr inbounds %struct.State, %struct.State* %0, i32 0, i32 6
  %18 = getelementptr inbounds %struct.GPR, %struct.GPR* %17, i32 0, i32 33
  %19 = getelementptr inbounds %struct.Reg, %struct.Reg* %18, i32 0, i32 0
  %PC.i62 = bitcast %union.anon* %19 to i64*
  %20 = getelementptr inbounds %struct.State, %struct.State* %0, i32 0, i32 6
  %21 = getelementptr inbounds %struct.GPR, %struct.GPR* %20, i32 0, i32 13
  %22 = getelementptr inbounds %struct.Reg, %struct.Reg* %21, i32 0, i32 0
  %RSP.i63 = bitcast %union.anon* %22 to i64*
  %23 = getelementptr inbounds %struct.State, %struct.State* %0, i32 0, i32 6
  %24 = getelementptr inbounds %struct.GPR, %struct.GPR* %23, i32 0, i32 15
  %25 = getelementptr inbounds %struct.Reg, %struct.Reg* %24, i32 0, i32 0
  %RBP.i64 = bitcast %union.anon* %25 to i64*
  %26 = load i64, i64* %RSP.i63
  %27 = load i64, i64* %PC.i62
  %28 = add i64 %27, 3
  store i64 %28, i64* %PC.i62
  store i64 %26, i64* %RBP.i64, align 8
  store %struct.Memory* %loadMem_4acaa1, %struct.Memory** %MEMORY
  %loadMem_4acaa4 = load %struct.Memory*, %struct.Memory** %MEMORY
  %29 = getelementptr inbounds %struct.State, %struct.State* %0, i32 0, i32 6
  %30 = getelementptr inbounds %struct.GPR, %struct.GPR* %29, i32 0, i32 33
  %31 = getelementptr inbounds %struct.Reg, %struct.Reg* %30, i32 0, i32 0
  %PC.i60 = bitcast %union.anon* %31 to i64*
  %32 = getelementptr inbounds %struct.State, %struct.State* %0, i32 0, i32 6
  %33 = getelementptr inbounds %struct.GPR, %struct.GPR* %32, i32 0, i32 13
  %34 = getelementptr inbounds %struct.Reg, %struct.Reg* %33, i32 0, i32 0
  %RSP.i61 = bitcast %union.anon* %34 to i64*
  %35 = load i64, i64* %RSP.i61
  %36 = load i64, i64* %PC.i60
  %37 = add i64 %36, 4
  store i64 %37, i64* %PC.i60
  %38 = sub i64 %35, 32
  store i64 %38, i64* %RSP.i61, align 8
  %39 = icmp ult i64 %35, 32
  %40 = zext i1 %39 to i8
  %41 = getelementptr inbounds %struct.State, %struct.State* %0, i64 0, i32 2, i32 1
  store i8 %40, i8* %41, align 1
  %42 = trunc i64 %38 to i32
  %43 = and i32 %42, 255
  %44 = call i32 @llvm.ctpop.i32(i32 %43)
  %45 = trunc i32 %44 to i8
  %46 = and i8 %45, 1
  %47 = xor i8 %46, 1
  %48 = getelementptr inbounds %struct.State, %struct.State* %0, i64 0, i32 2, i32 3
  store i8 %47, i8* %48, align 1
  %49 = xor i64 32, %35
  %50 = xor i64 %49, %38
  %51 = lshr i64 %50, 4
  %52 = trunc i64 %51 to i8
  %53 = and i8 %52, 1
  %54 = getelementptr inbounds %struct.State, %struct.State* %0, i64 0, i32 2, i32 5
  store i8 %53, i8* %54, align 1
  %55 = icmp eq i64 %38, 0
  %56 = zext i1 %55 to i8
  %57 = getelementptr inbounds %struct.State, %struct.State* %0, i64 0, i32 2, i32 7
  store i8 %56, i8* %57, align 1
  %58 = lshr i64 %38, 63
  %59 = trunc i64 %58 to i8
  %60 = getelementptr inbounds %struct.State, %struct.State* %0, i64 0, i32 2, i32 9
  store i8 %59, i8* %60, align 1
  %61 = lshr i64 %35, 63
  %62 = xor i64 %58, %61
  %63 = add i64 %62, %61
  %64 = icmp eq i64 %63, 2
  %65 = zext i1 %64 to i8
  %66 = getelementptr inbounds %struct.State, %struct.State* %0, i64 0, i32 2, i32 13
  store i8 %65, i8* %66, align 1
  store %struct.Memory* %loadMem_4acaa4, %struct.Memory** %MEMORY
  %loadMem_4acaa8 = load %struct.Memory*, %struct.Memory** %MEMORY
  %67 = getelementptr inbounds %struct.State, %struct.State* %0, i32 0, i32 6
  %68 = getelementptr inbounds %struct.GPR, %struct.GPR* %67, i32 0, i32 33
  %69 = getelementptr inbounds %struct.Reg, %struct.Reg* %68, i32 0, i32 0
  %PC.i59 = bitcast %union.anon* %69 to i64*
  %70 = getelementptr inbounds %struct.State, %struct.State* %0, i32 0, i32 6
  %71 = getelementptr inbounds %struct.GPR, %struct.GPR* %70, i32 0, i32 1
  %72 = getelementptr inbounds %struct.Reg, %struct.Reg* %71, i32 0, i32 0
  %RAX.i = bitcast %union.anon* %72 to i64*
  %73 = load i64, i64* %PC.i59
  %74 = add i64 %73, 5
  store i64 %74, i64* %PC.i59
  store i64 1, i64* %RAX.i, align 8
  store %struct.Memory* %loadMem_4acaa8, %struct.Memory** %MEMORY
  %loadMem_4acaad = load %struct.Memory*, %struct.Memory** %MEMORY
  %75 = getelementptr inbounds %struct.State, %struct.State* %0, i32 0, i32 6
  %76 = getelementptr inbounds %struct.GPR, %struct.GPR* %75, i32 0, i32 33
  %77 = getelementptr inbounds %struct.Reg, %struct.Reg* %76, i32 0, i32 0
  %PC.i57 = bitcast %union.anon* %77 to i64*
  %78 = getelementptr inbounds %struct.State, %struct.State* %0, i32 0, i32 6
  %79 = getelementptr inbounds %struct.GPR, %struct.GPR* %78, i32 0, i32 17
  %80 = getelementptr inbounds %struct.Reg, %struct.Reg* %79, i32 0, i32 0
  %R8D.i58 = bitcast %union.anon* %80 to i32*
  %81 = bitcast i32* %R8D.i58 to i64*
  %82 = load i64, i64* %PC.i57
  %83 = add i64 %82, 6
  store i64 %83, i64* %PC.i57
  store i64 2, i64* %81, align 8
  store %struct.Memory* %loadMem_4acaad, %struct.Memory** %MEMORY
  %loadMem_4acab3 = load %struct.Memory*, %struct.Memory** %MEMORY
  %84 = getelementptr inbounds %struct.State, %struct.State* %0, i32 0, i32 6
  %85 = getelementptr inbounds %struct.GPR, %struct.GPR* %84, i32 0, i32 33
  %86 = getelementptr inbounds %struct.Reg, %struct.Reg* %85, i32 0, i32 0
  %PC.i55 = bitcast %union.anon* %86 to i64*
  %87 = getelementptr inbounds %struct.State, %struct.State* %0, i32 0, i32 6
  %88 = getelementptr inbounds %struct.GPR, %struct.GPR* %87, i32 0, i32 19
  %89 = getelementptr inbounds %struct.Reg, %struct.Reg* %88, i32 0, i32 0
  %R9D.i56 = bitcast %union.anon* %89 to i32*
  %90 = bitcast i32* %R9D.i56 to i64*
  %91 = load i64, i64* %PC.i55
  %92 = add i64 %91, 6
  store i64 %92, i64* %PC.i55
  store i64 3, i64* %90, align 8
  store %struct.Memory* %loadMem_4acab3, %struct.Memory** %MEMORY
  %loadMem_4acab9 = load %struct.Memory*, %struct.Memory** %MEMORY
  %93 = getelementptr inbounds %struct.State, %struct.State* %0, i32 0, i32 6
  %94 = getelementptr inbounds %struct.GPR, %struct.GPR* %93, i32 0, i32 33
  %95 = getelementptr inbounds %struct.Reg, %struct.Reg* %94, i32 0, i32 0
  %PC.i53 = bitcast %union.anon* %95 to i64*
  %96 = getelementptr inbounds %struct.State, %struct.State* %0, i32 0, i32 6
  %97 = getelementptr inbounds %struct.GPR, %struct.GPR* %96, i32 0, i32 11
  %98 = getelementptr inbounds %struct.Reg, %struct.Reg* %97, i32 0, i32 0
  %EDI.i = bitcast %union.anon* %98 to i32*
  %99 = getelementptr inbounds %struct.State, %struct.State* %0, i32 0, i32 6
  %100 = getelementptr inbounds %struct.GPR, %struct.GPR* %99, i32 0, i32 15
  %101 = getelementptr inbounds %struct.Reg, %struct.Reg* %100, i32 0, i32 0
  %RBP.i54 = bitcast %union.anon* %101 to i64*
  %102 = load i64, i64* %RBP.i54
  %103 = sub i64 %102, 4
  %104 = load i32, i32* %EDI.i
  %105 = zext i32 %104 to i64
  %106 = load i64, i64* %PC.i53
  %107 = add i64 %106, 3
  store i64 %107, i64* %PC.i53
  %108 = inttoptr i64 %103 to i32*
  store i32 %104, i32* %108
  store %struct.Memory* %loadMem_4acab9, %struct.Memory** %MEMORY
  %loadMem_4acabc = load %struct.Memory*, %struct.Memory** %MEMORY
  %109 = getelementptr inbounds %struct.State, %struct.State* %0, i32 0, i32 6
  %110 = getelementptr inbounds %struct.GPR, %struct.GPR* %109, i32 0, i32 33
  %111 = getelementptr inbounds %struct.Reg, %struct.Reg* %110, i32 0, i32 0
  %PC.i51 = bitcast %union.anon* %111 to i64*
  %112 = getelementptr inbounds %struct.State, %struct.State* %0, i32 0, i32 6
  %113 = getelementptr inbounds %struct.GPR, %struct.GPR* %112, i32 0, i32 9
  %114 = getelementptr inbounds %struct.Reg, %struct.Reg* %113, i32 0, i32 0
  %ESI.i = bitcast %union.anon* %114 to i32*
  %115 = getelementptr inbounds %struct.State, %struct.State* %0, i32 0, i32 6
  %116 = getelementptr inbounds %struct.GPR, %struct.GPR* %115, i32 0, i32 15
  %117 = getelementptr inbounds %struct.Reg, %struct.Reg* %116, i32 0, i32 0
  %RBP.i52 = bitcast %union.anon* %117 to i64*
  %118 = load i64, i64* %RBP.i52
  %119 = sub i64 %118, 8
  %120 = load i32, i32* %ESI.i
  %121 = zext i32 %120 to i64
  %122 = load i64, i64* %PC.i51
  %123 = add i64 %122, 3
  store i64 %123, i64* %PC.i51
  %124 = inttoptr i64 %119 to i32*
  store i32 %120, i32* %124
  store %struct.Memory* %loadMem_4acabc, %struct.Memory** %MEMORY
  %loadMem_4acabf = load %struct.Memory*, %struct.Memory** %MEMORY
  %125 = getelementptr inbounds %struct.State, %struct.State* %0, i32 0, i32 6
  %126 = getelementptr inbounds %struct.GPR, %struct.GPR* %125, i32 0, i32 33
  %127 = getelementptr inbounds %struct.Reg, %struct.Reg* %126, i32 0, i32 0
  %PC.i48 = bitcast %union.anon* %127 to i64*
  %128 = getelementptr inbounds %struct.State, %struct.State* %0, i32 0, i32 6
  %129 = getelementptr inbounds %struct.GPR, %struct.GPR* %128, i32 0, i32 7
  %130 = getelementptr inbounds %struct.Reg, %struct.Reg* %129, i32 0, i32 0
  %EDX.i49 = bitcast %union.anon* %130 to i32*
  %131 = getelementptr inbounds %struct.State, %struct.State* %0, i32 0, i32 6
  %132 = getelementptr inbounds %struct.GPR, %struct.GPR* %131, i32 0, i32 15
  %133 = getelementptr inbounds %struct.Reg, %struct.Reg* %132, i32 0, i32 0
  %RBP.i50 = bitcast %union.anon* %133 to i64*
  %134 = load i64, i64* %RBP.i50
  %135 = sub i64 %134, 12
  %136 = load i32, i32* %EDX.i49
  %137 = zext i32 %136 to i64
  %138 = load i64, i64* %PC.i48
  %139 = add i64 %138, 3
  store i64 %139, i64* %PC.i48
  %140 = inttoptr i64 %135 to i32*
  store i32 %136, i32* %140
  store %struct.Memory* %loadMem_4acabf, %struct.Memory** %MEMORY
  %loadMem_4acac2 = load %struct.Memory*, %struct.Memory** %MEMORY
  %141 = getelementptr inbounds %struct.State, %struct.State* %0, i32 0, i32 6
  %142 = getelementptr inbounds %struct.GPR, %struct.GPR* %141, i32 0, i32 33
  %143 = getelementptr inbounds %struct.Reg, %struct.Reg* %142, i32 0, i32 0
  %PC.i45 = bitcast %union.anon* %143 to i64*
  %144 = getelementptr inbounds %struct.State, %struct.State* %0, i32 0, i32 6
  %145 = getelementptr inbounds %struct.GPR, %struct.GPR* %144, i32 0, i32 5
  %146 = getelementptr inbounds %struct.Reg, %struct.Reg* %145, i32 0, i32 0
  %ECX.i46 = bitcast %union.anon* %146 to i32*
  %147 = getelementptr inbounds %struct.State, %struct.State* %0, i32 0, i32 6
  %148 = getelementptr inbounds %struct.GPR, %struct.GPR* %147, i32 0, i32 15
  %149 = getelementptr inbounds %struct.Reg, %struct.Reg* %148, i32 0, i32 0
  %RBP.i47 = bitcast %union.anon* %149 to i64*
  %150 = load i64, i64* %RBP.i47
  %151 = sub i64 %150, 16
  %152 = load i32, i32* %ECX.i46
  %153 = zext i32 %152 to i64
  %154 = load i64, i64* %PC.i45
  %155 = add i64 %154, 3
  store i64 %155, i64* %PC.i45
  %156 = inttoptr i64 %151 to i32*
  store i32 %152, i32* %156
  store %struct.Memory* %loadMem_4acac2, %struct.Memory** %MEMORY
  %loadMem_4acac5 = load %struct.Memory*, %struct.Memory** %MEMORY
  %157 = getelementptr inbounds %struct.State, %struct.State* %0, i32 0, i32 6
  %158 = getelementptr inbounds %struct.GPR, %struct.GPR* %157, i32 0, i32 33
  %159 = getelementptr inbounds %struct.Reg, %struct.Reg* %158, i32 0, i32 0
  %PC.i42 = bitcast %union.anon* %159 to i64*
  %160 = getelementptr inbounds %struct.State, %struct.State* %0, i32 0, i32 6
  %161 = getelementptr inbounds %struct.GPR, %struct.GPR* %160, i32 0, i32 15
  %162 = getelementptr inbounds %struct.Reg, %struct.Reg* %161, i32 0, i32 0
  %RBP.i43 = bitcast %union.anon* %162 to i64*
  %163 = getelementptr inbounds %struct.State, %struct.State* %0, i32 0, i32 6
  %164 = getelementptr inbounds %struct.GPR, %struct.GPR* %163, i32 0, i32 21
  %165 = getelementptr inbounds %struct.Reg, %struct.Reg* %164, i32 0, i32 0
  %R10.i44 = bitcast %union.anon* %165 to i64*
  %166 = load i64, i64* %RBP.i43
  %167 = sub i64 %166, 4
  %168 = load i64, i64* %PC.i42
  %169 = add i64 %168, 4
  store i64 %169, i64* %PC.i42
  %170 = inttoptr i64 %167 to i32*
  %171 = load i32, i32* %170
  %172 = sext i32 %171 to i64
  store i64 %172, i64* %R10.i44, align 8
  store %struct.Memory* %loadMem_4acac5, %struct.Memory** %MEMORY
  %loadMem_4acac9 = load %struct.Memory*, %struct.Memory** %MEMORY
  %173 = getelementptr inbounds %struct.State, %struct.State* %0, i32 0, i32 6
  %174 = getelementptr inbounds %struct.GPR, %struct.GPR* %173, i32 0, i32 33
  %175 = getelementptr inbounds %struct.Reg, %struct.Reg* %174, i32 0, i32 0
  %PC.i39 = bitcast %union.anon* %175 to i64*
  %176 = getelementptr inbounds %struct.State, %struct.State* %0, i32 0, i32 6
  %177 = getelementptr inbounds %struct.GPR, %struct.GPR* %176, i32 0, i32 5
  %178 = getelementptr inbounds %struct.Reg, %struct.Reg* %177, i32 0, i32 0
  %RCX.i40 = bitcast %union.anon* %178 to i64*
  %179 = getelementptr inbounds %struct.State, %struct.State* %0, i32 0, i32 6
  %180 = getelementptr inbounds %struct.GPR, %struct.GPR* %179, i32 0, i32 21
  %181 = getelementptr inbounds %struct.Reg, %struct.Reg* %180, i32 0, i32 0
  %R10.i41 = bitcast %union.anon* %181 to i64*
  %182 = load i64, i64* %R10.i41
  %183 = mul i64 %182, 4
  %184 = add i64 %183, 11908336
  %185 = load i64, i64* %PC.i39
  %186 = add i64 %185, 8
  store i64 %186, i64* %PC.i39
  %187 = inttoptr i64 %184 to i32*
  %188 = load i32, i32* %187
  %189 = zext i32 %188 to i64
  store i64 %189, i64* %RCX.i40, align 8
  store %struct.Memory* %loadMem_4acac9, %struct.Memory** %MEMORY
  %loadMem_4acad1 = load %struct.Memory*, %struct.Memory** %MEMORY
  %190 = getelementptr inbounds %struct.State, %struct.State* %0, i32 0, i32 6
  %191 = getelementptr inbounds %struct.GPR, %struct.GPR* %190, i32 0, i32 33
  %192 = getelementptr inbounds %struct.Reg, %struct.Reg* %191, i32 0, i32 0
  %PC.i36 = bitcast %union.anon* %192 to i64*
  %193 = getelementptr inbounds %struct.State, %struct.State* %0, i32 0, i32 6
  %194 = getelementptr inbounds %struct.GPR, %struct.GPR* %193, i32 0, i32 5
  %195 = getelementptr inbounds %struct.Reg, %struct.Reg* %194, i32 0, i32 0
  %RCX.i37 = bitcast %union.anon* %195 to i64*
  %196 = getelementptr inbounds %struct.State, %struct.State* %0, i32 0, i32 6
  %197 = getelementptr inbounds %struct.GPR, %struct.GPR* %196, i32 0, i32 15
  %198 = getelementptr inbounds %struct.Reg, %struct.Reg* %197, i32 0, i32 0
  %RBP.i38 = bitcast %union.anon* %198 to i64*
  %199 = load i64, i64* %RCX.i37
  %200 = load i64, i64* %RBP.i38
  %201 = sub i64 %200, 8
  %202 = load i64, i64* %PC.i36
  %203 = add i64 %202, 3
  store i64 %203, i64* %PC.i36
  %204 = trunc i64 %199 to i32
  %205 = inttoptr i64 %201 to i32*
  %206 = load i32, i32* %205
  %207 = add i32 %206, %204
  %208 = zext i32 %207 to i64
  store i64 %208, i64* %RCX.i37, align 8
  %209 = icmp ult i32 %207, %204
  %210 = icmp ult i32 %207, %206
  %211 = or i1 %209, %210
  %212 = zext i1 %211 to i8
  %213 = getelementptr inbounds %struct.State, %struct.State* %0, i64 0, i32 2, i32 1
  store i8 %212, i8* %213, align 1
  %214 = and i32 %207, 255
  %215 = call i32 @llvm.ctpop.i32(i32 %214)
  %216 = trunc i32 %215 to i8
  %217 = and i8 %216, 1
  %218 = xor i8 %217, 1
  %219 = getelementptr inbounds %struct.State, %struct.State* %0, i64 0, i32 2, i32 3
  store i8 %218, i8* %219, align 1
  %220 = xor i32 %206, %204
  %221 = xor i32 %220, %207
  %222 = lshr i32 %221, 4
  %223 = trunc i32 %222 to i8
  %224 = and i8 %223, 1
  %225 = getelementptr inbounds %struct.State, %struct.State* %0, i64 0, i32 2, i32 5
  store i8 %224, i8* %225, align 1
  %226 = icmp eq i32 %207, 0
  %227 = zext i1 %226 to i8
  %228 = getelementptr inbounds %struct.State, %struct.State* %0, i64 0, i32 2, i32 7
  store i8 %227, i8* %228, align 1
  %229 = lshr i32 %207, 31
  %230 = trunc i32 %229 to i8
  %231 = getelementptr inbounds %struct.State, %struct.State* %0, i64 0, i32 2, i32 9
  store i8 %230, i8* %231, align 1
  %232 = lshr i32 %204, 31
  %233 = lshr i32 %206, 31
  %234 = xor i32 %229, %232
  %235 = xor i32 %229, %233
  %236 = add i32 %234, %235
  %237 = icmp eq i32 %236, 2
  %238 = zext i1 %237 to i8
  %239 = getelementptr inbounds %struct.State, %struct.State* %0, i64 0, i32 2, i32 13
  store i8 %238, i8* %239, align 1
  store %struct.Memory* %loadMem_4acad1, %struct.Memory** %MEMORY
  %loadMem_4acad4 = load %struct.Memory*, %struct.Memory** %MEMORY
  %240 = getelementptr inbounds %struct.State, %struct.State* %0, i32 0, i32 6
  %241 = getelementptr inbounds %struct.GPR, %struct.GPR* %240, i32 0, i32 33
  %242 = getelementptr inbounds %struct.Reg, %struct.Reg* %241, i32 0, i32 0
  %PC.i33 = bitcast %union.anon* %242 to i64*
  %243 = getelementptr inbounds %struct.State, %struct.State* %0, i32 0, i32 6
  %244 = getelementptr inbounds %struct.GPR, %struct.GPR* %243, i32 0, i32 5
  %245 = getelementptr inbounds %struct.Reg, %struct.Reg* %244, i32 0, i32 0
  %ECX.i34 = bitcast %union.anon* %245 to i32*
  %246 = getelementptr inbounds %struct.State, %struct.State* %0, i32 0, i32 6
  %247 = getelementptr inbounds %struct.GPR, %struct.GPR* %246, i32 0, i32 15
  %248 = getelementptr inbounds %struct.Reg, %struct.Reg* %247, i32 0, i32 0
  %RBP.i35 = bitcast %union.anon* %248 to i64*
  %249 = load i64, i64* %RBP.i35
  %250 = sub i64 %249, 20
  %251 = load i32, i32* %ECX.i34
  %252 = zext i32 %251 to i64
  %253 = load i64, i64* %PC.i33
  %254 = add i64 %253, 3
  store i64 %254, i64* %PC.i33
  %255 = inttoptr i64 %250 to i32*
  store i32 %251, i32* %255
  store %struct.Memory* %loadMem_4acad4, %struct.Memory** %MEMORY
  %loadMem_4acad7 = load %struct.Memory*, %struct.Memory** %MEMORY
  %256 = getelementptr inbounds %struct.State, %struct.State* %0, i32 0, i32 6
  %257 = getelementptr inbounds %struct.GPR, %struct.GPR* %256, i32 0, i32 33
  %258 = getelementptr inbounds %struct.Reg, %struct.Reg* %257, i32 0, i32 0
  %PC.i30 = bitcast %union.anon* %258 to i64*
  %259 = getelementptr inbounds %struct.State, %struct.State* %0, i32 0, i32 6
  %260 = getelementptr inbounds %struct.GPR, %struct.GPR* %259, i32 0, i32 15
  %261 = getelementptr inbounds %struct.Reg, %struct.Reg* %260, i32 0, i32 0
  %RBP.i31 = bitcast %union.anon* %261 to i64*
  %262 = getelementptr inbounds %struct.State, %struct.State* %0, i32 0, i32 6
  %263 = getelementptr inbounds %struct.GPR, %struct.GPR* %262, i32 0, i32 21
  %264 = getelementptr inbounds %struct.Reg, %struct.Reg* %263, i32 0, i32 0
  %R10.i32 = bitcast %union.anon* %264 to i64*
  %265 = load i64, i64* %RBP.i31
  %266 = sub i64 %265, 4
  %267 = load i64, i64* %PC.i30
  %268 = add i64 %267, 4
  store i64 %268, i64* %PC.i30
  %269 = inttoptr i64 %266 to i32*
  %270 = load i32, i32* %269
  %271 = sext i32 %270 to i64
  store i64 %271, i64* %R10.i32, align 8
  store %struct.Memory* %loadMem_4acad7, %struct.Memory** %MEMORY
  %loadMem_4acadb = load %struct.Memory*, %struct.Memory** %MEMORY
  %272 = getelementptr inbounds %struct.State, %struct.State* %0, i32 0, i32 6
  %273 = getelementptr inbounds %struct.GPR, %struct.GPR* %272, i32 0, i32 33
  %274 = getelementptr inbounds %struct.Reg, %struct.Reg* %273, i32 0, i32 0
  %PC.i28 = bitcast %union.anon* %274 to i64*
  %275 = getelementptr inbounds %struct.State, %struct.State* %0, i32 0, i32 6
  %276 = getelementptr inbounds %struct.GPR, %struct.GPR* %275, i32 0, i32 5
  %277 = getelementptr inbounds %struct.Reg, %struct.Reg* %276, i32 0, i32 0
  %RCX.i29 = bitcast %union.anon* %277 to i64*
  %278 = getelementptr inbounds %struct.State, %struct.State* %0, i32 0, i32 6
  %279 = getelementptr inbounds %struct.GPR, %struct.GPR* %278, i32 0, i32 21
  %280 = getelementptr inbounds %struct.Reg, %struct.Reg* %279, i32 0, i32 0
  %R10.i = bitcast %union.anon* %280 to i64*
  %281 = load i64, i64* %R10.i
  %282 = mul i64 %281, 4
  %283 = add i64 %282, 11908368
  %284 = load i64, i64* %PC.i28
  %285 = add i64 %284, 8
  store i64 %285, i64* %PC.i28
  %286 = inttoptr i64 %283 to i32*
  %287 = load i32, i32* %286
  %288 = zext i32 %287 to i64
  store i64 %288, i64* %RCX.i29, align 8
  store %struct.Memory* %loadMem_4acadb, %struct.Memory** %MEMORY
  %loadMem_4acae3 = load %struct.Memory*, %struct.Memory** %MEMORY
  %289 = getelementptr inbounds %struct.State, %struct.State* %0, i32 0, i32 6
  %290 = getelementptr inbounds %struct.GPR, %struct.GPR* %289, i32 0, i32 33
  %291 = getelementptr inbounds %struct.Reg, %struct.Reg* %290, i32 0, i32 0
  %PC.i25 = bitcast %union.anon* %291 to i64*
  %292 = getelementptr inbounds %struct.State, %struct.State* %0, i32 0, i32 6
  %293 = getelementptr inbounds %struct.GPR, %struct.GPR* %292, i32 0, i32 5
  %294 = getelementptr inbounds %struct.Reg, %struct.Reg* %293, i32 0, i32 0
  %RCX.i26 = bitcast %union.anon* %294 to i64*
  %295 = getelementptr inbounds %struct.State, %struct.State* %0, i32 0, i32 6
  %296 = getelementptr inbounds %struct.GPR, %struct.GPR* %295, i32 0, i32 15
  %297 = getelementptr inbounds %struct.Reg, %struct.Reg* %296, i32 0, i32 0
  %RBP.i27 = bitcast %union.anon* %297 to i64*
  %298 = load i64, i64* %RCX.i26
  %299 = load i64, i64* %RBP.i27
  %300 = sub i64 %299, 8
  %301 = load i64, i64* %PC.i25
  %302 = add i64 %301, 3
  store i64 %302, i64* %PC.i25
  %303 = trunc i64 %298 to i32
  %304 = inttoptr i64 %300 to i32*
  %305 = load i32, i32* %304
  %306 = add i32 %305, %303
  %307 = zext i32 %306 to i64
  store i64 %307, i64* %RCX.i26, align 8
  %308 = icmp ult i32 %306, %303
  %309 = icmp ult i32 %306, %305
  %310 = or i1 %308, %309
  %311 = zext i1 %310 to i8
  %312 = getelementptr inbounds %struct.State, %struct.State* %0, i64 0, i32 2, i32 1
  store i8 %311, i8* %312, align 1
  %313 = and i32 %306, 255
  %314 = call i32 @llvm.ctpop.i32(i32 %313)
  %315 = trunc i32 %314 to i8
  %316 = and i8 %315, 1
  %317 = xor i8 %316, 1
  %318 = getelementptr inbounds %struct.State, %struct.State* %0, i64 0, i32 2, i32 3
  store i8 %317, i8* %318, align 1
  %319 = xor i32 %305, %303
  %320 = xor i32 %319, %306
  %321 = lshr i32 %320, 4
  %322 = trunc i32 %321 to i8
  %323 = and i8 %322, 1
  %324 = getelementptr inbounds %struct.State, %struct.State* %0, i64 0, i32 2, i32 5
  store i8 %323, i8* %324, align 1
  %325 = icmp eq i32 %306, 0
  %326 = zext i1 %325 to i8
  %327 = getelementptr inbounds %struct.State, %struct.State* %0, i64 0, i32 2, i32 7
  store i8 %326, i8* %327, align 1
  %328 = lshr i32 %306, 31
  %329 = trunc i32 %328 to i8
  %330 = getelementptr inbounds %struct.State, %struct.State* %0, i64 0, i32 2, i32 9
  store i8 %329, i8* %330, align 1
  %331 = lshr i32 %303, 31
  %332 = lshr i32 %305, 31
  %333 = xor i32 %328, %331
  %334 = xor i32 %328, %332
  %335 = add i32 %333, %334
  %336 = icmp eq i32 %335, 2
  %337 = zext i1 %336 to i8
  %338 = getelementptr inbounds %struct.State, %struct.State* %0, i64 0, i32 2, i32 13
  store i8 %337, i8* %338, align 1
  store %struct.Memory* %loadMem_4acae3, %struct.Memory** %MEMORY
  %loadMem_4acae6 = load %struct.Memory*, %struct.Memory** %MEMORY
  %339 = getelementptr inbounds %struct.State, %struct.State* %0, i32 0, i32 6
  %340 = getelementptr inbounds %struct.GPR, %struct.GPR* %339, i32 0, i32 33
  %341 = getelementptr inbounds %struct.Reg, %struct.Reg* %340, i32 0, i32 0
  %PC.i23 = bitcast %union.anon* %341 to i64*
  %342 = getelementptr inbounds %struct.State, %struct.State* %0, i32 0, i32 6
  %343 = getelementptr inbounds %struct.GPR, %struct.GPR* %342, i32 0, i32 5
  %344 = getelementptr inbounds %struct.Reg, %struct.Reg* %343, i32 0, i32 0
  %ECX.i = bitcast %union.anon* %344 to i32*
  %345 = getelementptr inbounds %struct.State, %struct.State* %0, i32 0, i32 6
  %346 = getelementptr inbounds %struct.GPR, %struct.GPR* %345, i32 0, i32 15
  %347 = getelementptr inbounds %struct.Reg, %struct.Reg* %346, i32 0, i32 0
  %RBP.i24 = bitcast %union.anon* %347 to i64*
  %348 = load i64, i64* %RBP.i24
  %349 = sub i64 %348, 24
  %350 = load i32, i32* %ECX.i
  %351 = zext i32 %350 to i64
  %352 = load i64, i64* %PC.i23
  %353 = add i64 %352, 3
  store i64 %353, i64* %PC.i23
  %354 = inttoptr i64 %349 to i32*
  store i32 %350, i32* %354
  store %struct.Memory* %loadMem_4acae6, %struct.Memory** %MEMORY
  %loadMem_4acae9 = load %struct.Memory*, %struct.Memory** %MEMORY
  %355 = getelementptr inbounds %struct.State, %struct.State* %0, i32 0, i32 6
  %356 = getelementptr inbounds %struct.GPR, %struct.GPR* %355, i32 0, i32 33
  %357 = getelementptr inbounds %struct.Reg, %struct.Reg* %356, i32 0, i32 0
  %PC.i20 = bitcast %union.anon* %357 to i64*
  %358 = getelementptr inbounds %struct.State, %struct.State* %0, i32 0, i32 6
  %359 = getelementptr inbounds %struct.GPR, %struct.GPR* %358, i32 0, i32 19
  %360 = getelementptr inbounds %struct.Reg, %struct.Reg* %359, i32 0, i32 0
  %R9D.i21 = bitcast %union.anon* %360 to i32*
  %361 = getelementptr inbounds %struct.State, %struct.State* %0, i32 0, i32 6
  %362 = getelementptr inbounds %struct.GPR, %struct.GPR* %361, i32 0, i32 15
  %363 = getelementptr inbounds %struct.Reg, %struct.Reg* %362, i32 0, i32 0
  %RBP.i22 = bitcast %union.anon* %363 to i64*
  %364 = bitcast i32* %R9D.i21 to i64*
  %365 = load i32, i32* %R9D.i21
  %366 = zext i32 %365 to i64
  %367 = load i64, i64* %RBP.i22
  %368 = sub i64 %367, 12
  %369 = load i64, i64* %PC.i20
  %370 = add i64 %369, 4
  store i64 %370, i64* %PC.i20
  %371 = inttoptr i64 %368 to i32*
  %372 = load i32, i32* %371
  %373 = sub i32 %365, %372
  %374 = zext i32 %373 to i64
  store i64 %374, i64* %364, align 8
  %375 = icmp ult i32 %365, %372
  %376 = zext i1 %375 to i8
  %377 = getelementptr inbounds %struct.State, %struct.State* %0, i64 0, i32 2, i32 1
  store i8 %376, i8* %377, align 1
  %378 = and i32 %373, 255
  %379 = call i32 @llvm.ctpop.i32(i32 %378)
  %380 = trunc i32 %379 to i8
  %381 = and i8 %380, 1
  %382 = xor i8 %381, 1
  %383 = getelementptr inbounds %struct.State, %struct.State* %0, i64 0, i32 2, i32 3
  store i8 %382, i8* %383, align 1
  %384 = xor i32 %372, %365
  %385 = xor i32 %384, %373
  %386 = lshr i32 %385, 4
  %387 = trunc i32 %386 to i8
  %388 = and i8 %387, 1
  %389 = getelementptr inbounds %struct.State, %struct.State* %0, i64 0, i32 2, i32 5
  store i8 %388, i8* %389, align 1
  %390 = icmp eq i32 %373, 0
  %391 = zext i1 %390 to i8
  %392 = getelementptr inbounds %struct.State, %struct.State* %0, i64 0, i32 2, i32 7
  store i8 %391, i8* %392, align 1
  %393 = lshr i32 %373, 31
  %394 = trunc i32 %393 to i8
  %395 = getelementptr inbounds %struct.State, %struct.State* %0, i64 0, i32 2, i32 9
  store i8 %394, i8* %395, align 1
  %396 = lshr i32 %365, 31
  %397 = lshr i32 %372, 31
  %398 = xor i32 %397, %396
  %399 = xor i32 %393, %396
  %400 = add i32 %399, %398
  %401 = icmp eq i32 %400, 2
  %402 = zext i1 %401 to i8
  %403 = getelementptr inbounds %struct.State, %struct.State* %0, i64 0, i32 2, i32 13
  store i8 %402, i8* %403, align 1
  store %struct.Memory* %loadMem_4acae9, %struct.Memory** %MEMORY
  %loadMem_4acaed = load %struct.Memory*, %struct.Memory** %MEMORY
  %404 = getelementptr inbounds %struct.State, %struct.State* %0, i32 0, i32 6
  %405 = getelementptr inbounds %struct.GPR, %struct.GPR* %404, i32 0, i32 33
  %406 = getelementptr inbounds %struct.Reg, %struct.Reg* %405, i32 0, i32 0
  %PC.i18 = bitcast %union.anon* %406 to i64*
  %407 = getelementptr inbounds %struct.State, %struct.State* %0, i32 0, i32 6
  %408 = getelementptr inbounds %struct.GPR, %struct.GPR* %407, i32 0, i32 5
  %409 = getelementptr inbounds %struct.Reg, %struct.Reg* %408, i32 0, i32 0
  %RCX.i = bitcast %union.anon* %409 to i64*
  %410 = getelementptr inbounds %struct.State, %struct.State* %0, i32 0, i32 6
  %411 = getelementptr inbounds %struct.GPR, %struct.GPR* %410, i32 0, i32 15
  %412 = getelementptr inbounds %struct.Reg, %struct.Reg* %411, i32 0, i32 0
  %RBP.i19 = bitcast %union.anon* %412 to i64*
  %413 = load i64, i64* %RBP.i19
  %414 = sub i64 %413, 20
  %415 = load i64, i64* %PC.i18
  %416 = add i64 %415, 3
  store i64 %416, i64* %PC.i18
  %417 = inttoptr i64 %414 to i32*
  %418 = load i32, i32* %417
  %419 = zext i32 %418 to i64
  store i64 %419, i64* %RCX.i, align 8
  store %struct.Memory* %loadMem_4acaed, %struct.Memory** %MEMORY
  %loadMem_4acaf0 = load %struct.Memory*, %struct.Memory** %MEMORY
  %420 = getelementptr inbounds %struct.State, %struct.State* %0, i32 0, i32 6
  %421 = getelementptr inbounds %struct.GPR, %struct.GPR* %420, i32 0, i32 33
  %422 = getelementptr inbounds %struct.Reg, %struct.Reg* %421, i32 0, i32 0
  %PC.i15 = bitcast %union.anon* %422 to i64*
  %423 = getelementptr inbounds %struct.State, %struct.State* %0, i32 0, i32 6
  %424 = getelementptr inbounds %struct.GPR, %struct.GPR* %423, i32 0, i32 7
  %425 = getelementptr inbounds %struct.Reg, %struct.Reg* %424, i32 0, i32 0
  %RDX.i16 = bitcast %union.anon* %425 to i64*
  %426 = getelementptr inbounds %struct.State, %struct.State* %0, i32 0, i32 6
  %427 = getelementptr inbounds %struct.GPR, %struct.GPR* %426, i32 0, i32 15
  %428 = getelementptr inbounds %struct.Reg, %struct.Reg* %427, i32 0, i32 0
  %RBP.i17 = bitcast %union.anon* %428 to i64*
  %429 = load i64, i64* %RBP.i17
  %430 = sub i64 %429, 24
  %431 = load i64, i64* %PC.i15
  %432 = add i64 %431, 3
  store i64 %432, i64* %PC.i15
  %433 = inttoptr i64 %430 to i32*
  %434 = load i32, i32* %433
  %435 = zext i32 %434 to i64
  store i64 %435, i64* %RDX.i16, align 8
  store %struct.Memory* %loadMem_4acaf0, %struct.Memory** %MEMORY
  %loadMem_4acaf3 = load %struct.Memory*, %struct.Memory** %MEMORY
  %436 = getelementptr inbounds %struct.State, %struct.State* %0, i32 0, i32 6
  %437 = getelementptr inbounds %struct.GPR, %struct.GPR* %436, i32 0, i32 33
  %438 = getelementptr inbounds %struct.Reg, %struct.Reg* %437, i32 0, i32 0
  %PC.i14 = bitcast %union.anon* %438 to i64*
  %439 = getelementptr inbounds %struct.State, %struct.State* %0, i32 0, i32 6
  %440 = getelementptr inbounds %struct.GPR, %struct.GPR* %439, i32 0, i32 19
  %441 = getelementptr inbounds %struct.Reg, %struct.Reg* %440, i32 0, i32 0
  %R9D.i = bitcast %union.anon* %441 to i32*
  %442 = getelementptr inbounds %struct.State, %struct.State* %0, i32 0, i32 6
  %443 = getelementptr inbounds %struct.GPR, %struct.GPR* %442, i32 0, i32 11
  %444 = getelementptr inbounds %struct.Reg, %struct.Reg* %443, i32 0, i32 0
  %RDI.i = bitcast %union.anon* %444 to i64*
  %445 = load i32, i32* %R9D.i
  %446 = zext i32 %445 to i64
  %447 = load i64, i64* %PC.i14
  %448 = add i64 %447, 3
  store i64 %448, i64* %PC.i14
  %449 = and i64 %446, 4294967295
  store i64 %449, i64* %RDI.i, align 8
  store %struct.Memory* %loadMem_4acaf3, %struct.Memory** %MEMORY
  %loadMem_4acaf6 = load %struct.Memory*, %struct.Memory** %MEMORY
  %450 = getelementptr inbounds %struct.State, %struct.State* %0, i32 0, i32 6
  %451 = getelementptr inbounds %struct.GPR, %struct.GPR* %450, i32 0, i32 33
  %452 = getelementptr inbounds %struct.Reg, %struct.Reg* %451, i32 0, i32 0
  %PC.i13 = bitcast %union.anon* %452 to i64*
  %453 = getelementptr inbounds %struct.State, %struct.State* %0, i32 0, i32 6
  %454 = getelementptr inbounds %struct.GPR, %struct.GPR* %453, i32 0, i32 1
  %455 = getelementptr inbounds %struct.Reg, %struct.Reg* %454, i32 0, i32 0
  %EAX.i = bitcast %union.anon* %455 to i32*
  %456 = getelementptr inbounds %struct.State, %struct.State* %0, i32 0, i32 6
  %457 = getelementptr inbounds %struct.GPR, %struct.GPR* %456, i32 0, i32 9
  %458 = getelementptr inbounds %struct.Reg, %struct.Reg* %457, i32 0, i32 0
  %RSI.i = bitcast %union.anon* %458 to i64*
  %459 = load i32, i32* %EAX.i
  %460 = zext i32 %459 to i64
  %461 = load i64, i64* %PC.i13
  %462 = add i64 %461, 2
  store i64 %462, i64* %PC.i13
  %463 = and i64 %460, 4294967295
  store i64 %463, i64* %RSI.i, align 8
  store %struct.Memory* %loadMem_4acaf6, %struct.Memory** %MEMORY
  %loadMem_4acaf8 = load %struct.Memory*, %struct.Memory** %MEMORY
  %464 = getelementptr inbounds %struct.State, %struct.State* %0, i32 0, i32 6
  %465 = getelementptr inbounds %struct.GPR, %struct.GPR* %464, i32 0, i32 33
  %466 = getelementptr inbounds %struct.Reg, %struct.Reg* %465, i32 0, i32 0
  %PC.i11 = bitcast %union.anon* %466 to i64*
  %467 = getelementptr inbounds %struct.State, %struct.State* %0, i32 0, i32 6
  %468 = getelementptr inbounds %struct.GPR, %struct.GPR* %467, i32 0, i32 7
  %469 = getelementptr inbounds %struct.Reg, %struct.Reg* %468, i32 0, i32 0
  %EDX.i = bitcast %union.anon* %469 to i32*
  %470 = getelementptr inbounds %struct.State, %struct.State* %0, i32 0, i32 6
  %471 = getelementptr inbounds %struct.GPR, %struct.GPR* %470, i32 0, i32 15
  %472 = getelementptr inbounds %struct.Reg, %struct.Reg* %471, i32 0, i32 0
  %RBP.i12 = bitcast %union.anon* %472 to i64*
  %473 = load i64, i64* %RBP.i12
  %474 = sub i64 %473, 28
  %475 = load i32, i32* %EDX.i
  %476 = zext i32 %475 to i64
  %477 = load i64, i64* %PC.i11
  %478 = add i64 %477, 3
  store i64 %478, i64* %PC.i11
  %479 = inttoptr i64 %474 to i32*
  store i32 %475, i32* %479
  store %struct.Memory* %loadMem_4acaf8, %struct.Memory** %MEMORY
  %loadMem_4acafb = load %struct.Memory*, %struct.Memory** %MEMORY
  %480 = getelementptr inbounds %struct.State, %struct.State* %0, i32 0, i32 6
  %481 = getelementptr inbounds %struct.GPR, %struct.GPR* %480, i32 0, i32 33
  %482 = getelementptr inbounds %struct.Reg, %struct.Reg* %481, i32 0, i32 0
  %PC.i9 = bitcast %union.anon* %482 to i64*
  %483 = getelementptr inbounds %struct.State, %struct.State* %0, i32 0, i32 6
  %484 = getelementptr inbounds %struct.GPR, %struct.GPR* %483, i32 0, i32 17
  %485 = getelementptr inbounds %struct.Reg, %struct.Reg* %484, i32 0, i32 0
  %R8D.i10 = bitcast %union.anon* %485 to i32*
  %486 = getelementptr inbounds %struct.State, %struct.State* %0, i32 0, i32 6
  %487 = getelementptr inbounds %struct.GPR, %struct.GPR* %486, i32 0, i32 7
  %488 = getelementptr inbounds %struct.Reg, %struct.Reg* %487, i32 0, i32 0
  %RDX.i = bitcast %union.anon* %488 to i64*
  %489 = load i32, i32* %R8D.i10
  %490 = zext i32 %489 to i64
  %491 = load i64, i64* %PC.i9
  %492 = add i64 %491, 3
  store i64 %492, i64* %PC.i9
  %493 = and i64 %490, 4294967295
  store i64 %493, i64* %RDX.i, align 8
  store %struct.Memory* %loadMem_4acafb, %struct.Memory** %MEMORY
  %loadMem_4acafe = load %struct.Memory*, %struct.Memory** %MEMORY
  %494 = getelementptr inbounds %struct.State, %struct.State* %0, i32 0, i32 6
  %495 = getelementptr inbounds %struct.GPR, %struct.GPR* %494, i32 0, i32 33
  %496 = getelementptr inbounds %struct.Reg, %struct.Reg* %495, i32 0, i32 0
  %PC.i7 = bitcast %union.anon* %496 to i64*
  %497 = getelementptr inbounds %struct.State, %struct.State* %0, i32 0, i32 6
  %498 = getelementptr inbounds %struct.GPR, %struct.GPR* %497, i32 0, i32 17
  %499 = getelementptr inbounds %struct.Reg, %struct.Reg* %498, i32 0, i32 0
  %R8D.i = bitcast %union.anon* %499 to i32*
  %500 = getelementptr inbounds %struct.State, %struct.State* %0, i32 0, i32 6
  %501 = getelementptr inbounds %struct.GPR, %struct.GPR* %500, i32 0, i32 15
  %502 = getelementptr inbounds %struct.Reg, %struct.Reg* %501, i32 0, i32 0
  %RBP.i8 = bitcast %union.anon* %502 to i64*
  %503 = bitcast i32* %R8D.i to i64*
  %504 = load i64, i64* %RBP.i8
  %505 = sub i64 %504, 28
  %506 = load i64, i64* %PC.i7
  %507 = add i64 %506, 4
  store i64 %507, i64* %PC.i7
  %508 = inttoptr i64 %505 to i32*
  %509 = load i32, i32* %508
  %510 = zext i32 %509 to i64
  store i64 %510, i64* %503, align 8
  store %struct.Memory* %loadMem_4acafe, %struct.Memory** %MEMORY
  %loadMem_4acb02 = load %struct.Memory*, %struct.Memory** %MEMORY
  %511 = getelementptr inbounds %struct.State, %struct.State* %0, i32 0, i32 6
  %512 = getelementptr inbounds %struct.GPR, %struct.GPR* %511, i32 0, i32 33
  %513 = getelementptr inbounds %struct.Reg, %struct.Reg* %512, i32 0, i32 0
  %PC.i6 = bitcast %union.anon* %513 to i64*
  %514 = getelementptr inbounds %struct.State, %struct.State* %0, i32 0, i32 6
  %515 = getelementptr inbounds %struct.GPR, %struct.GPR* %514, i32 0, i32 1
  %516 = getelementptr inbounds %struct.Reg, %struct.Reg* %515, i32 0, i32 0
  %517 = bitcast %union.anon* %516 to %struct.anon.2*
  %AL.i = getelementptr inbounds %struct.anon.2, %struct.anon.2* %517, i32 0, i32 0
  %518 = load i64, i64* %PC.i6
  %519 = add i64 %518, 2
  store i64 %519, i64* %PC.i6
  store i8 0, i8* %AL.i, align 1
  store %struct.Memory* %loadMem_4acb02, %struct.Memory** %MEMORY
  %loadMem1_4acb04 = load %struct.Memory*, %struct.Memory** %MEMORY
  %520 = getelementptr inbounds %struct.State, %struct.State* %0, i32 0, i32 6
  %521 = getelementptr inbounds %struct.GPR, %struct.GPR* %520, i32 0, i32 33
  %522 = getelementptr inbounds %struct.Reg, %struct.Reg* %521, i32 0, i32 0
  %PC.i5 = bitcast %union.anon* %522 to i64*
  %523 = load i64, i64* %PC.i5
  %524 = add i64 %523, -218100
  %525 = load i64, i64* %PC.i5
  %526 = add i64 %525, 5
  %527 = load i64, i64* %PC.i5
  %528 = add i64 %527, 5
  store i64 %528, i64* %PC.i5
  %529 = getelementptr inbounds %struct.State, %struct.State* %0, i64 0, i32 6, i32 13, i32 0, i32 0
  %530 = load i64, i64* %529, align 8
  %531 = add i64 %530, -8
  %532 = inttoptr i64 %531 to i64*
  store i64 %526, i64* %532
  store i64 %531, i64* %529, align 8
  %533 = getelementptr inbounds %struct.State, %struct.State* %0, i64 0, i32 6, i32 33, i32 0, i32 0
  store i64 %524, i64* %533, align 8
  store %struct.Memory* %loadMem1_4acb04, %struct.Memory** %MEMORY
  %loadMem2_4acb04 = load %struct.Memory*, %struct.Memory** %MEMORY
  %loadPC_4acb04 = load i64, i64* %3
  %call2_4acb04 = call %struct.Memory* @sub_477710.somewhere(%struct.State* %0, i64 %loadPC_4acb04, %struct.Memory* %loadMem2_4acb04)
  store %struct.Memory* %call2_4acb04, %struct.Memory** %MEMORY
  %loadMem_4acb09 = load %struct.Memory*, %struct.Memory** %MEMORY
  %534 = getelementptr inbounds %struct.State, %struct.State* %0, i32 0, i32 6
  %535 = getelementptr inbounds %struct.GPR, %struct.GPR* %534, i32 0, i32 33
  %536 = getelementptr inbounds %struct.Reg, %struct.Reg* %535, i32 0, i32 0
  %PC.i4 = bitcast %union.anon* %536 to i64*
  %537 = getelementptr inbounds %struct.State, %struct.State* %0, i32 0, i32 6
  %538 = getelementptr inbounds %struct.GPR, %struct.GPR* %537, i32 0, i32 13
  %539 = getelementptr inbounds %struct.Reg, %struct.Reg* %538, i32 0, i32 0
  %RSP.i = bitcast %union.anon* %539 to i64*
  %540 = load i64, i64* %RSP.i
  %541 = load i64, i64* %PC.i4
  %542 = add i64 %541, 4
  store i64 %542, i64* %PC.i4
  %543 = add i64 32, %540
  store i64 %543, i64* %RSP.i, align 8
  %544 = icmp ult i64 %543, %540
  %545 = icmp ult i64 %543, 32
  %546 = or i1 %544, %545
  %547 = zext i1 %546 to i8
  %548 = getelementptr inbounds %struct.State, %struct.State* %0, i64 0, i32 2, i32 1
  store i8 %547, i8* %548, align 1
  %549 = trunc i64 %543 to i32
  %550 = and i32 %549, 255
  %551 = call i32 @llvm.ctpop.i32(i32 %550)
  %552 = trunc i32 %551 to i8
  %553 = and i8 %552, 1
  %554 = xor i8 %553, 1
  %555 = getelementptr inbounds %struct.State, %struct.State* %0, i64 0, i32 2, i32 3
  store i8 %554, i8* %555, align 1
  %556 = xor i64 32, %540
  %557 = xor i64 %556, %543
  %558 = lshr i64 %557, 4
  %559 = trunc i64 %558 to i8
  %560 = and i8 %559, 1
  %561 = getelementptr inbounds %struct.State, %struct.State* %0, i64 0, i32 2, i32 5
  store i8 %560, i8* %561, align 1
  %562 = icmp eq i64 %543, 0
  %563 = zext i1 %562 to i8
  %564 = getelementptr inbounds %struct.State, %struct.State* %0, i64 0, i32 2, i32 7
  store i8 %563, i8* %564, align 1
  %565 = lshr i64 %543, 63
  %566 = trunc i64 %565 to i8
  %567 = getelementptr inbounds %struct.State, %struct.State* %0, i64 0, i32 2, i32 9
  store i8 %566, i8* %567, align 1
  %568 = lshr i64 %540, 63
  %569 = xor i64 %565, %568
  %570 = add i64 %569, %565
  %571 = icmp eq i64 %570, 2
  %572 = zext i1 %571 to i8
  %573 = getelementptr inbounds %struct.State, %struct.State* %0, i64 0, i32 2, i32 13
  store i8 %572, i8* %573, align 1
  store %struct.Memory* %loadMem_4acb09, %struct.Memory** %MEMORY
  %loadMem_4acb0d = load %struct.Memory*, %struct.Memory** %MEMORY
  %574 = getelementptr inbounds %struct.State, %struct.State* %0, i32 0, i32 6
  %575 = getelementptr inbounds %struct.GPR, %struct.GPR* %574, i32 0, i32 33
  %576 = getelementptr inbounds %struct.Reg, %struct.Reg* %575, i32 0, i32 0
  %PC.i2 = bitcast %union.anon* %576 to i64*
  %577 = getelementptr inbounds %struct.State, %struct.State* %0, i32 0, i32 6
  %578 = getelementptr inbounds %struct.GPR, %struct.GPR* %577, i32 0, i32 15
  %579 = getelementptr inbounds %struct.Reg, %struct.Reg* %578, i32 0, i32 0
  %RBP.i3 = bitcast %union.anon* %579 to i64*
  %580 = load i64, i64* %PC.i2
  %581 = add i64 %580, 1
  store i64 %581, i64* %PC.i2
  %582 = getelementptr inbounds %struct.State, %struct.State* %0, i64 0, i32 6, i32 13, i32 0, i32 0
  %583 = load i64, i64* %582, align 8
  %584 = add i64 %583, 8
  %585 = inttoptr i64 %583 to i64*
  %586 = load i64, i64* %585
  store i64 %586, i64* %RBP.i3, align 8
  store i64 %584, i64* %582, align 8
  store %struct.Memory* %loadMem_4acb0d, %struct.Memory** %MEMORY
  %loadMem_4acb0e = load %struct.Memory*, %struct.Memory** %MEMORY
  %587 = getelementptr inbounds %struct.State, %struct.State* %0, i32 0, i32 6
  %588 = getelementptr inbounds %struct.GPR, %struct.GPR* %587, i32 0, i32 33
  %589 = getelementptr inbounds %struct.Reg, %struct.Reg* %588, i32 0, i32 0
  %PC.i1 = bitcast %union.anon* %589 to i64*
  %590 = load i64, i64* %PC.i1
  %591 = add i64 %590, 1
  store i64 %591, i64* %PC.i1
  %592 = getelementptr inbounds %struct.State, %struct.State* %0, i64 0, i32 6, i32 33, i32 0, i32 0
  %593 = getelementptr inbounds %struct.State, %struct.State* %0, i64 0, i32 6, i32 13, i32 0, i32 0
  %594 = load i64, i64* %593, align 8
  %595 = inttoptr i64 %594 to i64*
  %596 = load i64, i64* %595
  store i64 %596, i64* %592, align 8
  %597 = add i64 %594, 8
  store i64 %597, i64* %593, align 8
  store %struct.Memory* %loadMem_4acb0e, %struct.Memory** %MEMORY
  ret %struct.Memory* %loadMem_4acb0e
}

define %struct.Memory* @routine_pushq__rbp(%struct.State* dereferenceable(3376), i64, %struct.Memory*) {
block_400488:
  %3 = getelementptr inbounds %struct.State, %struct.State* %0, i32 0, i32 6
  %4 = getelementptr inbounds %struct.GPR, %struct.GPR* %3, i32 0, i32 33
  %5 = getelementptr inbounds %struct.Reg, %struct.Reg* %4, i32 0, i32 0
  %PC = bitcast %union.anon* %5 to i64*
  %6 = getelementptr inbounds %struct.State, %struct.State* %0, i32 0, i32 6
  %7 = getelementptr inbounds %struct.GPR, %struct.GPR* %6, i32 0, i32 15
  %8 = getelementptr inbounds %struct.Reg, %struct.Reg* %7, i32 0, i32 0
  %RBP = bitcast %union.anon* %8 to i64*
  %9 = load i64, i64* %RBP
  %10 = load i64, i64* %PC
  %11 = add i64 %10, 1
  store i64 %11, i64* %PC
  %12 = getelementptr inbounds %struct.State, %struct.State* %0, i64 0, i32 6, i32 13, i32 0, i32 0
  %13 = load i64, i64* %12, align 8
  %14 = add i64 %13, -8
  %15 = inttoptr i64 %14 to i64*
  store i64 %9, i64* %15
  store i64 %14, i64* %12, align 8
  ret %struct.Memory* %2
}

define %struct.Memory* @routine_movq__rsp___rbp(%struct.State* dereferenceable(3376), i64, %struct.Memory*) {
block_400488:
  %3 = getelementptr inbounds %struct.State, %struct.State* %0, i32 0, i32 6
  %4 = getelementptr inbounds %struct.GPR, %struct.GPR* %3, i32 0, i32 33
  %5 = getelementptr inbounds %struct.Reg, %struct.Reg* %4, i32 0, i32 0
  %PC = bitcast %union.anon* %5 to i64*
  %6 = getelementptr inbounds %struct.State, %struct.State* %0, i32 0, i32 6
  %7 = getelementptr inbounds %struct.GPR, %struct.GPR* %6, i32 0, i32 13
  %8 = getelementptr inbounds %struct.Reg, %struct.Reg* %7, i32 0, i32 0
  %RSP = bitcast %union.anon* %8 to i64*
  %9 = getelementptr inbounds %struct.State, %struct.State* %0, i32 0, i32 6
  %10 = getelementptr inbounds %struct.GPR, %struct.GPR* %9, i32 0, i32 15
  %11 = getelementptr inbounds %struct.Reg, %struct.Reg* %10, i32 0, i32 0
  %RBP = bitcast %union.anon* %11 to i64*
  %12 = load i64, i64* %RSP
  %13 = load i64, i64* %PC
  %14 = add i64 %13, 3
  store i64 %14, i64* %PC
  store i64 %12, i64* %RBP, align 8
  ret %struct.Memory* %2
}

define %struct.Memory* @routine_subq__0x20___rsp(%struct.State* dereferenceable(3376), i64, %struct.Memory*) {
block_400488:
  %3 = getelementptr inbounds %struct.State, %struct.State* %0, i32 0, i32 6
  %4 = getelementptr inbounds %struct.GPR, %struct.GPR* %3, i32 0, i32 33
  %5 = getelementptr inbounds %struct.Reg, %struct.Reg* %4, i32 0, i32 0
  %PC = bitcast %union.anon* %5 to i64*
  %6 = getelementptr inbounds %struct.State, %struct.State* %0, i32 0, i32 6
  %7 = getelementptr inbounds %struct.GPR, %struct.GPR* %6, i32 0, i32 13
  %8 = getelementptr inbounds %struct.Reg, %struct.Reg* %7, i32 0, i32 0
  %RSP = bitcast %union.anon* %8 to i64*
  %9 = load i64, i64* %RSP
  %10 = load i64, i64* %PC
  %11 = add i64 %10, 4
  store i64 %11, i64* %PC
  %12 = sub i64 %9, 32
  store i64 %12, i64* %RSP, align 8
  %13 = icmp ult i64 %9, 32
  %14 = zext i1 %13 to i8
  %15 = getelementptr inbounds %struct.State, %struct.State* %0, i64 0, i32 2, i32 1
  store i8 %14, i8* %15, align 1
  %16 = trunc i64 %12 to i32
  %17 = and i32 %16, 255
  %18 = call i32 @llvm.ctpop.i32(i32 %17)
  %19 = trunc i32 %18 to i8
  %20 = and i8 %19, 1
  %21 = xor i8 %20, 1
  %22 = getelementptr inbounds %struct.State, %struct.State* %0, i64 0, i32 2, i32 3
  store i8 %21, i8* %22, align 1
  %23 = xor i64 32, %9
  %24 = xor i64 %23, %12
  %25 = lshr i64 %24, 4
  %26 = trunc i64 %25 to i8
  %27 = and i8 %26, 1
  %28 = getelementptr inbounds %struct.State, %struct.State* %0, i64 0, i32 2, i32 5
  store i8 %27, i8* %28, align 1
  %29 = icmp eq i64 %12, 0
  %30 = zext i1 %29 to i8
  %31 = getelementptr inbounds %struct.State, %struct.State* %0, i64 0, i32 2, i32 7
  store i8 %30, i8* %31, align 1
  %32 = lshr i64 %12, 63
  %33 = trunc i64 %32 to i8
  %34 = getelementptr inbounds %struct.State, %struct.State* %0, i64 0, i32 2, i32 9
  store i8 %33, i8* %34, align 1
  %35 = lshr i64 %9, 63
  %36 = xor i64 %32, %35
  %37 = add i64 %36, %35
  %38 = icmp eq i64 %37, 2
  %39 = zext i1 %38 to i8
  %40 = getelementptr inbounds %struct.State, %struct.State* %0, i64 0, i32 2, i32 13
  store i8 %39, i8* %40, align 1
  ret %struct.Memory* %2
}

define %struct.Memory* @routine_movl__0x1___eax(%struct.State* dereferenceable(3376), i64, %struct.Memory*) {
block_400488:
  %3 = getelementptr inbounds %struct.State, %struct.State* %0, i32 0, i32 6
  %4 = getelementptr inbounds %struct.GPR, %struct.GPR* %3, i32 0, i32 33
  %5 = getelementptr inbounds %struct.Reg, %struct.Reg* %4, i32 0, i32 0
  %PC = bitcast %union.anon* %5 to i64*
  %6 = getelementptr inbounds %struct.State, %struct.State* %0, i32 0, i32 6
  %7 = getelementptr inbounds %struct.GPR, %struct.GPR* %6, i32 0, i32 1
  %8 = getelementptr inbounds %struct.Reg, %struct.Reg* %7, i32 0, i32 0
  %RAX = bitcast %union.anon* %8 to i64*
  %9 = load i64, i64* %PC
  %10 = add i64 %9, 5
  store i64 %10, i64* %PC
  store i64 1, i64* %RAX, align 8
  ret %struct.Memory* %2
}

define %struct.Memory* @routine_movl__0x2___r8d(%struct.State* dereferenceable(3376), i64, %struct.Memory*) {
block_400488:
  %3 = getelementptr inbounds %struct.State, %struct.State* %0, i32 0, i32 6
  %4 = getelementptr inbounds %struct.GPR, %struct.GPR* %3, i32 0, i32 33
  %5 = getelementptr inbounds %struct.Reg, %struct.Reg* %4, i32 0, i32 0
  %PC = bitcast %union.anon* %5 to i64*
  %6 = getelementptr inbounds %struct.State, %struct.State* %0, i32 0, i32 6
  %7 = getelementptr inbounds %struct.GPR, %struct.GPR* %6, i32 0, i32 17
  %8 = getelementptr inbounds %struct.Reg, %struct.Reg* %7, i32 0, i32 0
  %R8D = bitcast %union.anon* %8 to i32*
  %9 = bitcast i32* %R8D to i64*
  %10 = load i64, i64* %PC
  %11 = add i64 %10, 6
  store i64 %11, i64* %PC
  store i64 2, i64* %9, align 8
  ret %struct.Memory* %2
}

define %struct.Memory* @routine_movl__0x3___r9d(%struct.State* dereferenceable(3376), i64, %struct.Memory*) {
block_400488:
  %3 = getelementptr inbounds %struct.State, %struct.State* %0, i32 0, i32 6
  %4 = getelementptr inbounds %struct.GPR, %struct.GPR* %3, i32 0, i32 33
  %5 = getelementptr inbounds %struct.Reg, %struct.Reg* %4, i32 0, i32 0
  %PC = bitcast %union.anon* %5 to i64*
  %6 = getelementptr inbounds %struct.State, %struct.State* %0, i32 0, i32 6
  %7 = getelementptr inbounds %struct.GPR, %struct.GPR* %6, i32 0, i32 19
  %8 = getelementptr inbounds %struct.Reg, %struct.Reg* %7, i32 0, i32 0
  %R9D = bitcast %union.anon* %8 to i32*
  %9 = bitcast i32* %R9D to i64*
  %10 = load i64, i64* %PC
  %11 = add i64 %10, 6
  store i64 %11, i64* %PC
  store i64 3, i64* %9, align 8
  ret %struct.Memory* %2
}

define %struct.Memory* @routine_movl__edi__MINUS0x4__rbp_(%struct.State* dereferenceable(3376), i64, %struct.Memory*) {
block_400488:
  %3 = getelementptr inbounds %struct.State, %struct.State* %0, i32 0, i32 6
  %4 = getelementptr inbounds %struct.GPR, %struct.GPR* %3, i32 0, i32 33
  %5 = getelementptr inbounds %struct.Reg, %struct.Reg* %4, i32 0, i32 0
  %PC = bitcast %union.anon* %5 to i64*
  %6 = getelementptr inbounds %struct.State, %struct.State* %0, i32 0, i32 6
  %7 = getelementptr inbounds %struct.GPR, %struct.GPR* %6, i32 0, i32 11
  %8 = getelementptr inbounds %struct.Reg, %struct.Reg* %7, i32 0, i32 0
  %EDI = bitcast %union.anon* %8 to i32*
  %9 = getelementptr inbounds %struct.State, %struct.State* %0, i32 0, i32 6
  %10 = getelementptr inbounds %struct.GPR, %struct.GPR* %9, i32 0, i32 15
  %11 = getelementptr inbounds %struct.Reg, %struct.Reg* %10, i32 0, i32 0
  %RBP = bitcast %union.anon* %11 to i64*
  %12 = load i64, i64* %RBP
  %13 = sub i64 %12, 4
  %14 = load i32, i32* %EDI
  %15 = zext i32 %14 to i64
  %16 = load i64, i64* %PC
  %17 = add i64 %16, 3
  store i64 %17, i64* %PC
  %18 = inttoptr i64 %13 to i32*
  store i32 %14, i32* %18
  ret %struct.Memory* %2
}

define %struct.Memory* @routine_movl__esi__MINUS0x8__rbp_(%struct.State* dereferenceable(3376), i64, %struct.Memory*) {
block_400488:
  %3 = getelementptr inbounds %struct.State, %struct.State* %0, i32 0, i32 6
  %4 = getelementptr inbounds %struct.GPR, %struct.GPR* %3, i32 0, i32 33
  %5 = getelementptr inbounds %struct.Reg, %struct.Reg* %4, i32 0, i32 0
  %PC = bitcast %union.anon* %5 to i64*
  %6 = getelementptr inbounds %struct.State, %struct.State* %0, i32 0, i32 6
  %7 = getelementptr inbounds %struct.GPR, %struct.GPR* %6, i32 0, i32 9
  %8 = getelementptr inbounds %struct.Reg, %struct.Reg* %7, i32 0, i32 0
  %ESI = bitcast %union.anon* %8 to i32*
  %9 = getelementptr inbounds %struct.State, %struct.State* %0, i32 0, i32 6
  %10 = getelementptr inbounds %struct.GPR, %struct.GPR* %9, i32 0, i32 15
  %11 = getelementptr inbounds %struct.Reg, %struct.Reg* %10, i32 0, i32 0
  %RBP = bitcast %union.anon* %11 to i64*
  %12 = load i64, i64* %RBP
  %13 = sub i64 %12, 8
  %14 = load i32, i32* %ESI
  %15 = zext i32 %14 to i64
  %16 = load i64, i64* %PC
  %17 = add i64 %16, 3
  store i64 %17, i64* %PC
  %18 = inttoptr i64 %13 to i32*
  store i32 %14, i32* %18
  ret %struct.Memory* %2
}

define %struct.Memory* @routine_movl__edx__MINUS0xc__rbp_(%struct.State* dereferenceable(3376), i64, %struct.Memory*) {
block_400488:
  %3 = getelementptr inbounds %struct.State, %struct.State* %0, i32 0, i32 6
  %4 = getelementptr inbounds %struct.GPR, %struct.GPR* %3, i32 0, i32 33
  %5 = getelementptr inbounds %struct.Reg, %struct.Reg* %4, i32 0, i32 0
  %PC = bitcast %union.anon* %5 to i64*
  %6 = getelementptr inbounds %struct.State, %struct.State* %0, i32 0, i32 6
  %7 = getelementptr inbounds %struct.GPR, %struct.GPR* %6, i32 0, i32 7
  %8 = getelementptr inbounds %struct.Reg, %struct.Reg* %7, i32 0, i32 0
  %EDX = bitcast %union.anon* %8 to i32*
  %9 = getelementptr inbounds %struct.State, %struct.State* %0, i32 0, i32 6
  %10 = getelementptr inbounds %struct.GPR, %struct.GPR* %9, i32 0, i32 15
  %11 = getelementptr inbounds %struct.Reg, %struct.Reg* %10, i32 0, i32 0
  %RBP = bitcast %union.anon* %11 to i64*
  %12 = load i64, i64* %RBP
  %13 = sub i64 %12, 12
  %14 = load i32, i32* %EDX
  %15 = zext i32 %14 to i64
  %16 = load i64, i64* %PC
  %17 = add i64 %16, 3
  store i64 %17, i64* %PC
  %18 = inttoptr i64 %13 to i32*
  store i32 %14, i32* %18
  ret %struct.Memory* %2
}

define %struct.Memory* @routine_movl__ecx__MINUS0x10__rbp_(%struct.State* dereferenceable(3376), i64, %struct.Memory*) {
block_400488:
  %3 = getelementptr inbounds %struct.State, %struct.State* %0, i32 0, i32 6
  %4 = getelementptr inbounds %struct.GPR, %struct.GPR* %3, i32 0, i32 33
  %5 = getelementptr inbounds %struct.Reg, %struct.Reg* %4, i32 0, i32 0
  %PC = bitcast %union.anon* %5 to i64*
  %6 = getelementptr inbounds %struct.State, %struct.State* %0, i32 0, i32 6
  %7 = getelementptr inbounds %struct.GPR, %struct.GPR* %6, i32 0, i32 5
  %8 = getelementptr inbounds %struct.Reg, %struct.Reg* %7, i32 0, i32 0
  %ECX = bitcast %union.anon* %8 to i32*
  %9 = getelementptr inbounds %struct.State, %struct.State* %0, i32 0, i32 6
  %10 = getelementptr inbounds %struct.GPR, %struct.GPR* %9, i32 0, i32 15
  %11 = getelementptr inbounds %struct.Reg, %struct.Reg* %10, i32 0, i32 0
  %RBP = bitcast %union.anon* %11 to i64*
  %12 = load i64, i64* %RBP
  %13 = sub i64 %12, 16
  %14 = load i32, i32* %ECX
  %15 = zext i32 %14 to i64
  %16 = load i64, i64* %PC
  %17 = add i64 %16, 3
  store i64 %17, i64* %PC
  %18 = inttoptr i64 %13 to i32*
  store i32 %14, i32* %18
  ret %struct.Memory* %2
}

define %struct.Memory* @routine_movslq_MINUS0x4__rbp____r10(%struct.State* dereferenceable(3376), i64, %struct.Memory*) {
block_400488:
  %3 = getelementptr inbounds %struct.State, %struct.State* %0, i32 0, i32 6
  %4 = getelementptr inbounds %struct.GPR, %struct.GPR* %3, i32 0, i32 33
  %5 = getelementptr inbounds %struct.Reg, %struct.Reg* %4, i32 0, i32 0
  %PC = bitcast %union.anon* %5 to i64*
  %6 = getelementptr inbounds %struct.State, %struct.State* %0, i32 0, i32 6
  %7 = getelementptr inbounds %struct.GPR, %struct.GPR* %6, i32 0, i32 15
  %8 = getelementptr inbounds %struct.Reg, %struct.Reg* %7, i32 0, i32 0
  %RBP = bitcast %union.anon* %8 to i64*
  %9 = getelementptr inbounds %struct.State, %struct.State* %0, i32 0, i32 6
  %10 = getelementptr inbounds %struct.GPR, %struct.GPR* %9, i32 0, i32 21
  %11 = getelementptr inbounds %struct.Reg, %struct.Reg* %10, i32 0, i32 0
  %R10 = bitcast %union.anon* %11 to i64*
  %12 = load i64, i64* %RBP
  %13 = sub i64 %12, 4
  %14 = load i64, i64* %PC
  %15 = add i64 %14, 4
  store i64 %15, i64* %PC
  %16 = inttoptr i64 %13 to i32*
  %17 = load i32, i32* %16
  %18 = sext i32 %17 to i64
  store i64 %18, i64* %R10, align 8
  ret %struct.Memory* %2
}

define %struct.Memory* @routine_movl_0xb5b4f0___r10_4____ecx(%struct.State* dereferenceable(3376), i64, %struct.Memory*) {
block_400488:
  %3 = getelementptr inbounds %struct.State, %struct.State* %0, i32 0, i32 6
  %4 = getelementptr inbounds %struct.GPR, %struct.GPR* %3, i32 0, i32 33
  %5 = getelementptr inbounds %struct.Reg, %struct.Reg* %4, i32 0, i32 0
  %PC = bitcast %union.anon* %5 to i64*
  %6 = getelementptr inbounds %struct.State, %struct.State* %0, i32 0, i32 6
  %7 = getelementptr inbounds %struct.GPR, %struct.GPR* %6, i32 0, i32 5
  %8 = getelementptr inbounds %struct.Reg, %struct.Reg* %7, i32 0, i32 0
  %RCX = bitcast %union.anon* %8 to i64*
  %9 = getelementptr inbounds %struct.State, %struct.State* %0, i32 0, i32 6
  %10 = getelementptr inbounds %struct.GPR, %struct.GPR* %9, i32 0, i32 21
  %11 = getelementptr inbounds %struct.Reg, %struct.Reg* %10, i32 0, i32 0
  %R10 = bitcast %union.anon* %11 to i64*
  %12 = load i64, i64* %R10
  %13 = mul i64 %12, 4
  %14 = add i64 %13, 11908336
  %15 = load i64, i64* %PC
  %16 = add i64 %15, 8
  store i64 %16, i64* %PC
  %17 = inttoptr i64 %14 to i32*
  %18 = load i32, i32* %17
  %19 = zext i32 %18 to i64
  store i64 %19, i64* %RCX, align 8
  ret %struct.Memory* %2
}

define %struct.Memory* @routine_addl_MINUS0x8__rbp____ecx(%struct.State* dereferenceable(3376), i64, %struct.Memory*) {
block_400488:
  %3 = getelementptr inbounds %struct.State, %struct.State* %0, i32 0, i32 6
  %4 = getelementptr inbounds %struct.GPR, %struct.GPR* %3, i32 0, i32 33
  %5 = getelementptr inbounds %struct.Reg, %struct.Reg* %4, i32 0, i32 0
  %PC = bitcast %union.anon* %5 to i64*
  %6 = getelementptr inbounds %struct.State, %struct.State* %0, i32 0, i32 6
  %7 = getelementptr inbounds %struct.GPR, %struct.GPR* %6, i32 0, i32 5
  %8 = getelementptr inbounds %struct.Reg, %struct.Reg* %7, i32 0, i32 0
  %RCX = bitcast %union.anon* %8 to i64*
  %9 = getelementptr inbounds %struct.State, %struct.State* %0, i32 0, i32 6
  %10 = getelementptr inbounds %struct.GPR, %struct.GPR* %9, i32 0, i32 15
  %11 = getelementptr inbounds %struct.Reg, %struct.Reg* %10, i32 0, i32 0
  %RBP = bitcast %union.anon* %11 to i64*
  %12 = load i64, i64* %RCX
  %13 = load i64, i64* %RBP
  %14 = sub i64 %13, 8
  %15 = load i64, i64* %PC
  %16 = add i64 %15, 3
  store i64 %16, i64* %PC
  %17 = trunc i64 %12 to i32
  %18 = inttoptr i64 %14 to i32*
  %19 = load i32, i32* %18
  %20 = add i32 %19, %17
  %21 = zext i32 %20 to i64
  store i64 %21, i64* %RCX, align 8
  %22 = icmp ult i32 %20, %17
  %23 = icmp ult i32 %20, %19
  %24 = or i1 %22, %23
  %25 = zext i1 %24 to i8
  %26 = getelementptr inbounds %struct.State, %struct.State* %0, i64 0, i32 2, i32 1
  store i8 %25, i8* %26, align 1
  %27 = and i32 %20, 255
  %28 = call i32 @llvm.ctpop.i32(i32 %27)
  %29 = trunc i32 %28 to i8
  %30 = and i8 %29, 1
  %31 = xor i8 %30, 1
  %32 = getelementptr inbounds %struct.State, %struct.State* %0, i64 0, i32 2, i32 3
  store i8 %31, i8* %32, align 1
  %33 = xor i32 %19, %17
  %34 = xor i32 %33, %20
  %35 = lshr i32 %34, 4
  %36 = trunc i32 %35 to i8
  %37 = and i8 %36, 1
  %38 = getelementptr inbounds %struct.State, %struct.State* %0, i64 0, i32 2, i32 5
  store i8 %37, i8* %38, align 1
  %39 = icmp eq i32 %20, 0
  %40 = zext i1 %39 to i8
  %41 = getelementptr inbounds %struct.State, %struct.State* %0, i64 0, i32 2, i32 7
  store i8 %40, i8* %41, align 1
  %42 = lshr i32 %20, 31
  %43 = trunc i32 %42 to i8
  %44 = getelementptr inbounds %struct.State, %struct.State* %0, i64 0, i32 2, i32 9
  store i8 %43, i8* %44, align 1
  %45 = lshr i32 %17, 31
  %46 = lshr i32 %19, 31
  %47 = xor i32 %42, %45
  %48 = xor i32 %42, %46
  %49 = add i32 %47, %48
  %50 = icmp eq i32 %49, 2
  %51 = zext i1 %50 to i8
  %52 = getelementptr inbounds %struct.State, %struct.State* %0, i64 0, i32 2, i32 13
  store i8 %51, i8* %52, align 1
  ret %struct.Memory* %2
}

define %struct.Memory* @routine_movl__ecx__MINUS0x14__rbp_(%struct.State* dereferenceable(3376), i64, %struct.Memory*) {
block_400488:
  %3 = getelementptr inbounds %struct.State, %struct.State* %0, i32 0, i32 6
  %4 = getelementptr inbounds %struct.GPR, %struct.GPR* %3, i32 0, i32 33
  %5 = getelementptr inbounds %struct.Reg, %struct.Reg* %4, i32 0, i32 0
  %PC = bitcast %union.anon* %5 to i64*
  %6 = getelementptr inbounds %struct.State, %struct.State* %0, i32 0, i32 6
  %7 = getelementptr inbounds %struct.GPR, %struct.GPR* %6, i32 0, i32 5
  %8 = getelementptr inbounds %struct.Reg, %struct.Reg* %7, i32 0, i32 0
  %ECX = bitcast %union.anon* %8 to i32*
  %9 = getelementptr inbounds %struct.State, %struct.State* %0, i32 0, i32 6
  %10 = getelementptr inbounds %struct.GPR, %struct.GPR* %9, i32 0, i32 15
  %11 = getelementptr inbounds %struct.Reg, %struct.Reg* %10, i32 0, i32 0
  %RBP = bitcast %union.anon* %11 to i64*
  %12 = load i64, i64* %RBP
  %13 = sub i64 %12, 20
  %14 = load i32, i32* %ECX
  %15 = zext i32 %14 to i64
  %16 = load i64, i64* %PC
  %17 = add i64 %16, 3
  store i64 %17, i64* %PC
  %18 = inttoptr i64 %13 to i32*
  store i32 %14, i32* %18
  ret %struct.Memory* %2
}

define %struct.Memory* @routine_movl_0xb5b510___r10_4____ecx(%struct.State* dereferenceable(3376), i64, %struct.Memory*) {
block_400488:
  %3 = getelementptr inbounds %struct.State, %struct.State* %0, i32 0, i32 6
  %4 = getelementptr inbounds %struct.GPR, %struct.GPR* %3, i32 0, i32 33
  %5 = getelementptr inbounds %struct.Reg, %struct.Reg* %4, i32 0, i32 0
  %PC = bitcast %union.anon* %5 to i64*
  %6 = getelementptr inbounds %struct.State, %struct.State* %0, i32 0, i32 6
  %7 = getelementptr inbounds %struct.GPR, %struct.GPR* %6, i32 0, i32 5
  %8 = getelementptr inbounds %struct.Reg, %struct.Reg* %7, i32 0, i32 0
  %RCX = bitcast %union.anon* %8 to i64*
  %9 = getelementptr inbounds %struct.State, %struct.State* %0, i32 0, i32 6
  %10 = getelementptr inbounds %struct.GPR, %struct.GPR* %9, i32 0, i32 21
  %11 = getelementptr inbounds %struct.Reg, %struct.Reg* %10, i32 0, i32 0
  %R10 = bitcast %union.anon* %11 to i64*
  %12 = load i64, i64* %R10
  %13 = mul i64 %12, 4
  %14 = add i64 %13, 11908368
  %15 = load i64, i64* %PC
  %16 = add i64 %15, 8
  store i64 %16, i64* %PC
  %17 = inttoptr i64 %14 to i32*
  %18 = load i32, i32* %17
  %19 = zext i32 %18 to i64
  store i64 %19, i64* %RCX, align 8
  ret %struct.Memory* %2
}

define %struct.Memory* @routine_movl__ecx__MINUS0x18__rbp_(%struct.State* dereferenceable(3376), i64, %struct.Memory*) {
block_400488:
  %3 = getelementptr inbounds %struct.State, %struct.State* %0, i32 0, i32 6
  %4 = getelementptr inbounds %struct.GPR, %struct.GPR* %3, i32 0, i32 33
  %5 = getelementptr inbounds %struct.Reg, %struct.Reg* %4, i32 0, i32 0
  %PC = bitcast %union.anon* %5 to i64*
  %6 = getelementptr inbounds %struct.State, %struct.State* %0, i32 0, i32 6
  %7 = getelementptr inbounds %struct.GPR, %struct.GPR* %6, i32 0, i32 5
  %8 = getelementptr inbounds %struct.Reg, %struct.Reg* %7, i32 0, i32 0
  %ECX = bitcast %union.anon* %8 to i32*
  %9 = getelementptr inbounds %struct.State, %struct.State* %0, i32 0, i32 6
  %10 = getelementptr inbounds %struct.GPR, %struct.GPR* %9, i32 0, i32 15
  %11 = getelementptr inbounds %struct.Reg, %struct.Reg* %10, i32 0, i32 0
  %RBP = bitcast %union.anon* %11 to i64*
  %12 = load i64, i64* %RBP
  %13 = sub i64 %12, 24
  %14 = load i32, i32* %ECX
  %15 = zext i32 %14 to i64
  %16 = load i64, i64* %PC
  %17 = add i64 %16, 3
  store i64 %17, i64* %PC
  %18 = inttoptr i64 %13 to i32*
  store i32 %14, i32* %18
  ret %struct.Memory* %2
}

define %struct.Memory* @routine_subl_MINUS0xc__rbp____r9d(%struct.State* dereferenceable(3376), i64, %struct.Memory*) {
block_400488:
  %3 = getelementptr inbounds %struct.State, %struct.State* %0, i32 0, i32 6
  %4 = getelementptr inbounds %struct.GPR, %struct.GPR* %3, i32 0, i32 33
  %5 = getelementptr inbounds %struct.Reg, %struct.Reg* %4, i32 0, i32 0
  %PC = bitcast %union.anon* %5 to i64*
  %6 = getelementptr inbounds %struct.State, %struct.State* %0, i32 0, i32 6
  %7 = getelementptr inbounds %struct.GPR, %struct.GPR* %6, i32 0, i32 19
  %8 = getelementptr inbounds %struct.Reg, %struct.Reg* %7, i32 0, i32 0
  %R9D = bitcast %union.anon* %8 to i32*
  %9 = getelementptr inbounds %struct.State, %struct.State* %0, i32 0, i32 6
  %10 = getelementptr inbounds %struct.GPR, %struct.GPR* %9, i32 0, i32 15
  %11 = getelementptr inbounds %struct.Reg, %struct.Reg* %10, i32 0, i32 0
  %RBP = bitcast %union.anon* %11 to i64*
  %12 = bitcast i32* %R9D to i64*
  %13 = load i32, i32* %R9D
  %14 = zext i32 %13 to i64
  %15 = load i64, i64* %RBP
  %16 = sub i64 %15, 12
  %17 = load i64, i64* %PC
  %18 = add i64 %17, 4
  store i64 %18, i64* %PC
  %19 = inttoptr i64 %16 to i32*
  %20 = load i32, i32* %19
  %21 = sub i32 %13, %20
  %22 = zext i32 %21 to i64
  store i64 %22, i64* %12, align 8
  %23 = icmp ult i32 %13, %20
  %24 = zext i1 %23 to i8
  %25 = getelementptr inbounds %struct.State, %struct.State* %0, i64 0, i32 2, i32 1
  store i8 %24, i8* %25, align 1
  %26 = and i32 %21, 255
  %27 = call i32 @llvm.ctpop.i32(i32 %26)
  %28 = trunc i32 %27 to i8
  %29 = and i8 %28, 1
  %30 = xor i8 %29, 1
  %31 = getelementptr inbounds %struct.State, %struct.State* %0, i64 0, i32 2, i32 3
  store i8 %30, i8* %31, align 1
  %32 = xor i32 %20, %13
  %33 = xor i32 %32, %21
  %34 = lshr i32 %33, 4
  %35 = trunc i32 %34 to i8
  %36 = and i8 %35, 1
  %37 = getelementptr inbounds %struct.State, %struct.State* %0, i64 0, i32 2, i32 5
  store i8 %36, i8* %37, align 1
  %38 = icmp eq i32 %21, 0
  %39 = zext i1 %38 to i8
  %40 = getelementptr inbounds %struct.State, %struct.State* %0, i64 0, i32 2, i32 7
  store i8 %39, i8* %40, align 1
  %41 = lshr i32 %21, 31
  %42 = trunc i32 %41 to i8
  %43 = getelementptr inbounds %struct.State, %struct.State* %0, i64 0, i32 2, i32 9
  store i8 %42, i8* %43, align 1
  %44 = lshr i32 %13, 31
  %45 = lshr i32 %20, 31
  %46 = xor i32 %45, %44
  %47 = xor i32 %41, %44
  %48 = add i32 %47, %46
  %49 = icmp eq i32 %48, 2
  %50 = zext i1 %49 to i8
  %51 = getelementptr inbounds %struct.State, %struct.State* %0, i64 0, i32 2, i32 13
  store i8 %50, i8* %51, align 1
  ret %struct.Memory* %2
}

define %struct.Memory* @routine_movl_MINUS0x14__rbp____ecx(%struct.State* dereferenceable(3376), i64, %struct.Memory*) {
block_400488:
  %3 = getelementptr inbounds %struct.State, %struct.State* %0, i32 0, i32 6
  %4 = getelementptr inbounds %struct.GPR, %struct.GPR* %3, i32 0, i32 33
  %5 = getelementptr inbounds %struct.Reg, %struct.Reg* %4, i32 0, i32 0
  %PC = bitcast %union.anon* %5 to i64*
  %6 = getelementptr inbounds %struct.State, %struct.State* %0, i32 0, i32 6
  %7 = getelementptr inbounds %struct.GPR, %struct.GPR* %6, i32 0, i32 5
  %8 = getelementptr inbounds %struct.Reg, %struct.Reg* %7, i32 0, i32 0
  %RCX = bitcast %union.anon* %8 to i64*
  %9 = getelementptr inbounds %struct.State, %struct.State* %0, i32 0, i32 6
  %10 = getelementptr inbounds %struct.GPR, %struct.GPR* %9, i32 0, i32 15
  %11 = getelementptr inbounds %struct.Reg, %struct.Reg* %10, i32 0, i32 0
  %RBP = bitcast %union.anon* %11 to i64*
  %12 = load i64, i64* %RBP
  %13 = sub i64 %12, 20
  %14 = load i64, i64* %PC
  %15 = add i64 %14, 3
  store i64 %15, i64* %PC
  %16 = inttoptr i64 %13 to i32*
  %17 = load i32, i32* %16
  %18 = zext i32 %17 to i64
  store i64 %18, i64* %RCX, align 8
  ret %struct.Memory* %2
}

define %struct.Memory* @routine_movl_MINUS0x18__rbp____edx(%struct.State* dereferenceable(3376), i64, %struct.Memory*) {
block_400488:
  %3 = getelementptr inbounds %struct.State, %struct.State* %0, i32 0, i32 6
  %4 = getelementptr inbounds %struct.GPR, %struct.GPR* %3, i32 0, i32 33
  %5 = getelementptr inbounds %struct.Reg, %struct.Reg* %4, i32 0, i32 0
  %PC = bitcast %union.anon* %5 to i64*
  %6 = getelementptr inbounds %struct.State, %struct.State* %0, i32 0, i32 6
  %7 = getelementptr inbounds %struct.GPR, %struct.GPR* %6, i32 0, i32 7
  %8 = getelementptr inbounds %struct.Reg, %struct.Reg* %7, i32 0, i32 0
  %RDX = bitcast %union.anon* %8 to i64*
  %9 = getelementptr inbounds %struct.State, %struct.State* %0, i32 0, i32 6
  %10 = getelementptr inbounds %struct.GPR, %struct.GPR* %9, i32 0, i32 15
  %11 = getelementptr inbounds %struct.Reg, %struct.Reg* %10, i32 0, i32 0
  %RBP = bitcast %union.anon* %11 to i64*
  %12 = load i64, i64* %RBP
  %13 = sub i64 %12, 24
  %14 = load i64, i64* %PC
  %15 = add i64 %14, 3
  store i64 %15, i64* %PC
  %16 = inttoptr i64 %13 to i32*
  %17 = load i32, i32* %16
  %18 = zext i32 %17 to i64
  store i64 %18, i64* %RDX, align 8
  ret %struct.Memory* %2
}

define %struct.Memory* @routine_movl__r9d___edi(%struct.State* dereferenceable(3376), i64, %struct.Memory*) {
block_400488:
  %3 = getelementptr inbounds %struct.State, %struct.State* %0, i32 0, i32 6
  %4 = getelementptr inbounds %struct.GPR, %struct.GPR* %3, i32 0, i32 33
  %5 = getelementptr inbounds %struct.Reg, %struct.Reg* %4, i32 0, i32 0
  %PC = bitcast %union.anon* %5 to i64*
  %6 = getelementptr inbounds %struct.State, %struct.State* %0, i32 0, i32 6
  %7 = getelementptr inbounds %struct.GPR, %struct.GPR* %6, i32 0, i32 19
  %8 = getelementptr inbounds %struct.Reg, %struct.Reg* %7, i32 0, i32 0
  %R9D = bitcast %union.anon* %8 to i32*
  %9 = getelementptr inbounds %struct.State, %struct.State* %0, i32 0, i32 6
  %10 = getelementptr inbounds %struct.GPR, %struct.GPR* %9, i32 0, i32 11
  %11 = getelementptr inbounds %struct.Reg, %struct.Reg* %10, i32 0, i32 0
  %RDI = bitcast %union.anon* %11 to i64*
  %12 = load i32, i32* %R9D
  %13 = zext i32 %12 to i64
  %14 = load i64, i64* %PC
  %15 = add i64 %14, 3
  store i64 %15, i64* %PC
  %16 = and i64 %13, 4294967295
  store i64 %16, i64* %RDI, align 8
  ret %struct.Memory* %2
}

define %struct.Memory* @routine_movl__eax___esi(%struct.State* dereferenceable(3376), i64, %struct.Memory*) {
block_400488:
  %3 = getelementptr inbounds %struct.State, %struct.State* %0, i32 0, i32 6
  %4 = getelementptr inbounds %struct.GPR, %struct.GPR* %3, i32 0, i32 33
  %5 = getelementptr inbounds %struct.Reg, %struct.Reg* %4, i32 0, i32 0
  %PC = bitcast %union.anon* %5 to i64*
  %6 = getelementptr inbounds %struct.State, %struct.State* %0, i32 0, i32 6
  %7 = getelementptr inbounds %struct.GPR, %struct.GPR* %6, i32 0, i32 1
  %8 = getelementptr inbounds %struct.Reg, %struct.Reg* %7, i32 0, i32 0
  %EAX = bitcast %union.anon* %8 to i32*
  %9 = getelementptr inbounds %struct.State, %struct.State* %0, i32 0, i32 6
  %10 = getelementptr inbounds %struct.GPR, %struct.GPR* %9, i32 0, i32 9
  %11 = getelementptr inbounds %struct.Reg, %struct.Reg* %10, i32 0, i32 0
  %RSI = bitcast %union.anon* %11 to i64*
  %12 = load i32, i32* %EAX
  %13 = zext i32 %12 to i64
  %14 = load i64, i64* %PC
  %15 = add i64 %14, 2
  store i64 %15, i64* %PC
  %16 = and i64 %13, 4294967295
  store i64 %16, i64* %RSI, align 8
  ret %struct.Memory* %2
}

define %struct.Memory* @routine_movl__edx__MINUS0x1c__rbp_(%struct.State* dereferenceable(3376), i64, %struct.Memory*) {
block_400488:
  %3 = getelementptr inbounds %struct.State, %struct.State* %0, i32 0, i32 6
  %4 = getelementptr inbounds %struct.GPR, %struct.GPR* %3, i32 0, i32 33
  %5 = getelementptr inbounds %struct.Reg, %struct.Reg* %4, i32 0, i32 0
  %PC = bitcast %union.anon* %5 to i64*
  %6 = getelementptr inbounds %struct.State, %struct.State* %0, i32 0, i32 6
  %7 = getelementptr inbounds %struct.GPR, %struct.GPR* %6, i32 0, i32 7
  %8 = getelementptr inbounds %struct.Reg, %struct.Reg* %7, i32 0, i32 0
  %EDX = bitcast %union.anon* %8 to i32*
  %9 = getelementptr inbounds %struct.State, %struct.State* %0, i32 0, i32 6
  %10 = getelementptr inbounds %struct.GPR, %struct.GPR* %9, i32 0, i32 15
  %11 = getelementptr inbounds %struct.Reg, %struct.Reg* %10, i32 0, i32 0
  %RBP = bitcast %union.anon* %11 to i64*
  %12 = load i64, i64* %RBP
  %13 = sub i64 %12, 28
  %14 = load i32, i32* %EDX
  %15 = zext i32 %14 to i64
  %16 = load i64, i64* %PC
  %17 = add i64 %16, 3
  store i64 %17, i64* %PC
  %18 = inttoptr i64 %13 to i32*
  store i32 %14, i32* %18
  ret %struct.Memory* %2
}

define %struct.Memory* @routine_movl__r8d___edx(%struct.State* dereferenceable(3376), i64, %struct.Memory*) {
block_400488:
  %3 = getelementptr inbounds %struct.State, %struct.State* %0, i32 0, i32 6
  %4 = getelementptr inbounds %struct.GPR, %struct.GPR* %3, i32 0, i32 33
  %5 = getelementptr inbounds %struct.Reg, %struct.Reg* %4, i32 0, i32 0
  %PC = bitcast %union.anon* %5 to i64*
  %6 = getelementptr inbounds %struct.State, %struct.State* %0, i32 0, i32 6
  %7 = getelementptr inbounds %struct.GPR, %struct.GPR* %6, i32 0, i32 17
  %8 = getelementptr inbounds %struct.Reg, %struct.Reg* %7, i32 0, i32 0
  %R8D = bitcast %union.anon* %8 to i32*
  %9 = getelementptr inbounds %struct.State, %struct.State* %0, i32 0, i32 6
  %10 = getelementptr inbounds %struct.GPR, %struct.GPR* %9, i32 0, i32 7
  %11 = getelementptr inbounds %struct.Reg, %struct.Reg* %10, i32 0, i32 0
  %RDX = bitcast %union.anon* %11 to i64*
  %12 = load i32, i32* %R8D
  %13 = zext i32 %12 to i64
  %14 = load i64, i64* %PC
  %15 = add i64 %14, 3
  store i64 %15, i64* %PC
  %16 = and i64 %13, 4294967295
  store i64 %16, i64* %RDX, align 8
  ret %struct.Memory* %2
}

define %struct.Memory* @routine_movl_MINUS0x1c__rbp____r8d(%struct.State* dereferenceable(3376), i64, %struct.Memory*) {
block_400488:
  %3 = getelementptr inbounds %struct.State, %struct.State* %0, i32 0, i32 6
  %4 = getelementptr inbounds %struct.GPR, %struct.GPR* %3, i32 0, i32 33
  %5 = getelementptr inbounds %struct.Reg, %struct.Reg* %4, i32 0, i32 0
  %PC = bitcast %union.anon* %5 to i64*
  %6 = getelementptr inbounds %struct.State, %struct.State* %0, i32 0, i32 6
  %7 = getelementptr inbounds %struct.GPR, %struct.GPR* %6, i32 0, i32 17
  %8 = getelementptr inbounds %struct.Reg, %struct.Reg* %7, i32 0, i32 0
  %R8D = bitcast %union.anon* %8 to i32*
  %9 = getelementptr inbounds %struct.State, %struct.State* %0, i32 0, i32 6
  %10 = getelementptr inbounds %struct.GPR, %struct.GPR* %9, i32 0, i32 15
  %11 = getelementptr inbounds %struct.Reg, %struct.Reg* %10, i32 0, i32 0
  %RBP = bitcast %union.anon* %11 to i64*
  %12 = bitcast i32* %R8D to i64*
  %13 = load i64, i64* %RBP
  %14 = sub i64 %13, 28
  %15 = load i64, i64* %PC
  %16 = add i64 %15, 4
  store i64 %16, i64* %PC
  %17 = inttoptr i64 %14 to i32*
  %18 = load i32, i32* %17
  %19 = zext i32 %18 to i64
  store i64 %19, i64* %12, align 8
  ret %struct.Memory* %2
}

define %struct.Memory* @routine_movb__0x0___al(%struct.State* dereferenceable(3376), i64, %struct.Memory*) {
block_400488:
  %3 = getelementptr inbounds %struct.State, %struct.State* %0, i32 0, i32 6
  %4 = getelementptr inbounds %struct.GPR, %struct.GPR* %3, i32 0, i32 33
  %5 = getelementptr inbounds %struct.Reg, %struct.Reg* %4, i32 0, i32 0
  %PC = bitcast %union.anon* %5 to i64*
  %6 = getelementptr inbounds %struct.State, %struct.State* %0, i32 0, i32 6
  %7 = getelementptr inbounds %struct.GPR, %struct.GPR* %6, i32 0, i32 1
  %8 = getelementptr inbounds %struct.Reg, %struct.Reg* %7, i32 0, i32 0
  %9 = bitcast %union.anon* %8 to %struct.anon.2*
  %AL = getelementptr inbounds %struct.anon.2, %struct.anon.2* %9, i32 0, i32 0
  %10 = load i64, i64* %PC
  %11 = add i64 %10, 2
  store i64 %11, i64* %PC
  store i8 0, i8* %AL, align 1
  ret %struct.Memory* %2
}

define %struct.Memory* @routine_callq_.somewhere(%struct.State* dereferenceable(3376), i64, %struct.Memory*, i64 %rel_off1, i64 %rel_off2, i64 %rel_off3) {
block_400488:
  %3 = getelementptr inbounds %struct.State, %struct.State* %0, i32 0, i32 6
  %4 = getelementptr inbounds %struct.GPR, %struct.GPR* %3, i32 0, i32 33
  %5 = getelementptr inbounds %struct.Reg, %struct.Reg* %4, i32 0, i32 0
  %PC = bitcast %union.anon* %5 to i64*
  %6 = load i64, i64* %PC
  %7 = add i64 %6, %rel_off1
  %8 = load i64, i64* %PC
  %9 = add i64 %8, %rel_off2
  %10 = load i64, i64* %PC
  %11 = add i64 %10, %rel_off3
  store i64 %11, i64* %PC
  %12 = getelementptr inbounds %struct.State, %struct.State* %0, i64 0, i32 6, i32 13, i32 0, i32 0
  %13 = load i64, i64* %12, align 8
  %14 = add i64 %13, -8
  %15 = inttoptr i64 %14 to i64*
  store i64 %9, i64* %15
  store i64 %14, i64* %12, align 8
  %16 = getelementptr inbounds %struct.State, %struct.State* %0, i64 0, i32 6, i32 33, i32 0, i32 0
  store i64 %7, i64* %16, align 8
  ret %struct.Memory* %2
}

define %struct.Memory* @routine_addq__0x20___rsp(%struct.State* dereferenceable(3376), i64, %struct.Memory*) {
block_400488:
  %3 = getelementptr inbounds %struct.State, %struct.State* %0, i32 0, i32 6
  %4 = getelementptr inbounds %struct.GPR, %struct.GPR* %3, i32 0, i32 33
  %5 = getelementptr inbounds %struct.Reg, %struct.Reg* %4, i32 0, i32 0
  %PC = bitcast %union.anon* %5 to i64*
  %6 = getelementptr inbounds %struct.State, %struct.State* %0, i32 0, i32 6
  %7 = getelementptr inbounds %struct.GPR, %struct.GPR* %6, i32 0, i32 13
  %8 = getelementptr inbounds %struct.Reg, %struct.Reg* %7, i32 0, i32 0
  %RSP = bitcast %union.anon* %8 to i64*
  %9 = load i64, i64* %RSP
  %10 = load i64, i64* %PC
  %11 = add i64 %10, 4
  store i64 %11, i64* %PC
  %12 = add i64 32, %9
  store i64 %12, i64* %RSP, align 8
  %13 = icmp ult i64 %12, %9
  %14 = icmp ult i64 %12, 32
  %15 = or i1 %13, %14
  %16 = zext i1 %15 to i8
  %17 = getelementptr inbounds %struct.State, %struct.State* %0, i64 0, i32 2, i32 1
  store i8 %16, i8* %17, align 1
  %18 = trunc i64 %12 to i32
  %19 = and i32 %18, 255
  %20 = call i32 @llvm.ctpop.i32(i32 %19)
  %21 = trunc i32 %20 to i8
  %22 = and i8 %21, 1
  %23 = xor i8 %22, 1
  %24 = getelementptr inbounds %struct.State, %struct.State* %0, i64 0, i32 2, i32 3
  store i8 %23, i8* %24, align 1
  %25 = xor i64 32, %9
  %26 = xor i64 %25, %12
  %27 = lshr i64 %26, 4
  %28 = trunc i64 %27 to i8
  %29 = and i8 %28, 1
  %30 = getelementptr inbounds %struct.State, %struct.State* %0, i64 0, i32 2, i32 5
  store i8 %29, i8* %30, align 1
  %31 = icmp eq i64 %12, 0
  %32 = zext i1 %31 to i8
  %33 = getelementptr inbounds %struct.State, %struct.State* %0, i64 0, i32 2, i32 7
  store i8 %32, i8* %33, align 1
  %34 = lshr i64 %12, 63
  %35 = trunc i64 %34 to i8
  %36 = getelementptr inbounds %struct.State, %struct.State* %0, i64 0, i32 2, i32 9
  store i8 %35, i8* %36, align 1
  %37 = lshr i64 %9, 63
  %38 = xor i64 %34, %37
  %39 = add i64 %38, %34
  %40 = icmp eq i64 %39, 2
  %41 = zext i1 %40 to i8
  %42 = getelementptr inbounds %struct.State, %struct.State* %0, i64 0, i32 2, i32 13
  store i8 %41, i8* %42, align 1
  ret %struct.Memory* %2
}

define %struct.Memory* @routine_popq__rbp(%struct.State* dereferenceable(3376), i64, %struct.Memory*) {
block_400488:
  %3 = getelementptr inbounds %struct.State, %struct.State* %0, i32 0, i32 6
  %4 = getelementptr inbounds %struct.GPR, %struct.GPR* %3, i32 0, i32 33
  %5 = getelementptr inbounds %struct.Reg, %struct.Reg* %4, i32 0, i32 0
  %PC = bitcast %union.anon* %5 to i64*
  %6 = getelementptr inbounds %struct.State, %struct.State* %0, i32 0, i32 6
  %7 = getelementptr inbounds %struct.GPR, %struct.GPR* %6, i32 0, i32 15
  %8 = getelementptr inbounds %struct.Reg, %struct.Reg* %7, i32 0, i32 0
  %RBP = bitcast %union.anon* %8 to i64*
  %9 = load i64, i64* %PC
  %10 = add i64 %9, 1
  store i64 %10, i64* %PC
  %11 = getelementptr inbounds %struct.State, %struct.State* %0, i64 0, i32 6, i32 13, i32 0, i32 0
  %12 = load i64, i64* %11, align 8
  %13 = add i64 %12, 8
  %14 = inttoptr i64 %12 to i64*
  %15 = load i64, i64* %14
  store i64 %15, i64* %RBP, align 8
  store i64 %13, i64* %11, align 8
  ret %struct.Memory* %2
}

define %struct.Memory* @routine_retq(%struct.State* dereferenceable(3376), i64, %struct.Memory*) {
block_400488:
  %3 = getelementptr inbounds %struct.State, %struct.State* %0, i32 0, i32 6
  %4 = getelementptr inbounds %struct.GPR, %struct.GPR* %3, i32 0, i32 33
  %5 = getelementptr inbounds %struct.Reg, %struct.Reg* %4, i32 0, i32 0
  %PC = bitcast %union.anon* %5 to i64*
  %6 = load i64, i64* %PC
  %7 = add i64 %6, 1
  store i64 %7, i64* %PC
  %8 = getelementptr inbounds %struct.State, %struct.State* %0, i64 0, i32 6, i32 33, i32 0, i32 0
  %9 = getelementptr inbounds %struct.State, %struct.State* %0, i64 0, i32 6, i32 13, i32 0, i32 0
  %10 = load i64, i64* %9, align 8
  %11 = inttoptr i64 %10 to i64*
  %12 = load i64, i64* %11
  store i64 %12, i64* %8, align 8
  %13 = add i64 %10, 8
  store i64 %13, i64* %9, align 8
  ret %struct.Memory* %2
}

attributes #0 = { argmemonly nounwind }
attributes #1 = { nounwind readnone }
attributes #2 = { alwaysinline }
