; ModuleID = 'test.bc'
source_filename = "llvm-link"
target datalayout = "e-m:e-i64:64-f80:128-n8:16:32:64-S128"
target triple = "x86_64-pc-linux-gnu-elf"
%union.anon = type { i64 }
%seg_4f8__init_type = type <{ [23 x i8] }>
%seg_510__plt_type = type <{ [16 x i8] }>
%seg_520__plt_got_type = type <{ [8 x i8] }>
%seg_530__text_type = type <{ [434 x i8] }>
%seg_6e4__fini_type = type <{ [9 x i8] }>
%seg_6f0__rodata_type = type <{ [4 x i8] }>
%seg_6f4__eh_frame_hdr_type = type <{ [60 x i8] }>
%seg_730__eh_frame_type = type <{ [256 x i8] }>
%seg_200de0__init_array_type = type <{ i64, i64 }>
%seg_200df0__jcr_type = type <{ [8 x i8] }>
%seg_201000__data_type = type <{ [8 x i8], i64 }>
%__bss_start_type = type <{ [8 x i8] }>
%struct.State = type { %struct.ArchState, [32 x %union.VectorReg], %struct.ArithFlags, %union.anon, %struct.Segments, %struct.AddressSpace, %struct.GPR, %struct.X87Stack, %struct.MMX, %struct.FPUStatusFlags, %union.anon, %union.FPU, %struct.SegmentCaches }
%struct.ArchState = type { i32, i32, %union.anon }
%union.VectorReg = type { %union.vec512_t }
%union.vec512_t = type { %struct.uint64v8_t }
%struct.uint64v8_t = type { [8 x i64] }
%struct.ArithFlags = type { i8, i8, i8, i8, i8, i8, i8, i8, i8, i8, i8, i8, i8, i8, i8, i8 }
%struct.Segments = type { i16, %union.SegmentSelector, i16, %union.SegmentSelector, i16, %union.SegmentSelector, i16, %union.SegmentSelector, i16, %union.SegmentSelector, i16, %union.SegmentSelector }
%union.SegmentSelector = type { i16 }
%struct.AddressSpace = type { i64, %struct.Reg, i64, %struct.Reg, i64, %struct.Reg, i64, %struct.Reg, i64, %struct.Reg, i64, %struct.Reg }
%struct.Reg = type { %union.anon }
%struct.GPR = type { i64, %struct.Reg, i64, %struct.Reg, i64, %struct.Reg, i64, %struct.Reg, i64, %struct.Reg, i64, %struct.Reg, i64, %struct.Reg, i64, %struct.Reg, i64, %struct.Reg, i64, %struct.Reg, i64, %struct.Reg, i64, %struct.Reg, i64, %struct.Reg, i64, %struct.Reg, i64, %struct.Reg, i64, %struct.Reg, i64, %struct.Reg }
%struct.X87Stack = type { [8 x %struct.anon.3] }
%struct.anon.3 = type { i64, double }
%struct.MMX = type { [8 x %struct.anon.4] }
%struct.anon.4 = type { i64, %union.vec64_t }
%union.vec64_t = type { %struct.uint64v1_t }
%struct.uint64v1_t = type { [1 x i64] }
%struct.FPUStatusFlags = type { i8, i8, i8, i8, i8, i8, i8, i8, i8, i8, i8, i8, i8, i8, i8, i8, i8, i8, i8, i8, [4 x i8] }
%union.FPU = type { %struct.anon.13 }
%struct.anon.13 = type { %struct.FpuFXSAVE, [96 x i8] }
%struct.FpuFXSAVE = type { %union.SegmentSelector, %union.SegmentSelector, %union.FPUAbridgedTagWord, i8, i16, i32, %union.SegmentSelector, i16, i32, %union.SegmentSelector, i16, %union.FPUControlStatus, %union.FPUControlStatus, [8 x %struct.FPUStackElem], [16 x %union.vec128_t] }
%union.FPUAbridgedTagWord = type { i8 }
%union.FPUControlStatus = type { i32 }
%struct.FPUStackElem = type { %union.anon.11, [6 x i8] }
%union.anon.11 = type { %struct.float80_t }
%struct.float80_t = type { [10 x i8] }
%union.vec128_t = type { %struct.uint128v1_t }
%struct.uint128v1_t = type { [1 x i128] }
%struct.SegmentCaches = type { %struct.SegmentShadow, %struct.SegmentShadow, %struct.SegmentShadow, %struct.SegmentShadow, %struct.SegmentShadow, %struct.SegmentShadow }
%struct.SegmentShadow = type { %union.anon, i32, i32 }
%struct.Memory = type { i64 }
%struct.uint8v32_t = type { [32 x i8] }
%struct.anon.2 = type { i8, i8 }
%struct.int32v8_t = type { [8 x i32] }
%struct.float32v8_t = type { [8 x float] }
%struct.uint8v8_t = type { [8 x i8] }
%struct.uint8v16_t = type { [16 x i8] }
%struct.uint16v8_t = type { [8 x i16] }
%struct.uint8v4_t = type { [4 x i8] }
%struct.int16v4_t = type { [4 x i16] }
%struct.int32v4_t = type { [4 x i32] }
%struct.uint64v2_t = type { [2 x i64] }
%struct.uint64v4_t = type { [4 x i64] }
%struct.uint128v2_t = type { [2 x i128] }
%struct.uint16v16_t = type { [16 x i16] }
%struct.float64v4_t = type { [4 x double] }
%"class.(anonymous namespace)__BitMatrix" = type { %"class.std__bitset", [16 x [16 x i8]] }
%"class.std__bitset" = type { %struct.uint64v4_t }
%struct.bcd80_t = type { [9 x %union.FPUAbridgedTagWord], %union.FPUAbridgedTagWord }
%struct.FpuFSAVE = type { %union.SegmentSelector, i16, %union.SegmentSelector, i16, %union.SegmentSelector, i16, i32, %union.SegmentSelector, i16, i32, %union.SegmentSelector, i16, [8 x %struct.FPUStackElem] }
%struct.anon.5 = type { i32, i32 }

define i32 @my.ctpop.i32(i32 %x) {
entry:
  %and = and i32 %x, 1
  %shr123 = lshr i32 %x, 1
  %and1 = and i32 %shr123, 1
  %shr2124 = lshr i32 %x, 2
  %and3 = and i32 %shr2124, 1
  %shr5125 = lshr i32 %x, 3
  %and6 = and i32 %shr5125, 1
  %shr8126 = lshr i32 %x, 4
  %and9 = and i32 %shr8126, 1
  %shr11127 = lshr i32 %x, 5
  %and12 = and i32 %shr11127, 1
  %shr14128 = lshr i32 %x, 6
  %and15 = and i32 %shr14128, 1
  %shr17129 = lshr i32 %x, 7
  %and18 = and i32 %shr17129, 1
  %shr20130 = lshr i32 %x, 8
  %and21 = and i32 %shr20130, 1
  %shr23131 = lshr i32 %x, 9
  %and24 = and i32 %shr23131, 1
  %shr26132 = lshr i32 %x, 10
  %and27 = and i32 %shr26132, 1
  %shr29133 = lshr i32 %x, 11
  %and30 = and i32 %shr29133, 1
  %shr32134 = lshr i32 %x, 12
  %and33 = and i32 %shr32134, 1
  %shr35135 = lshr i32 %x, 13
  %and36 = and i32 %shr35135, 1
  %shr38136 = lshr i32 %x, 14
  %and39 = and i32 %shr38136, 1
  %shr41137 = lshr i32 %x, 15
  %and42 = and i32 %shr41137, 1
  %shr44138 = lshr i32 %x, 16
  %and45 = and i32 %shr44138, 1
  %shr47139 = lshr i32 %x, 17
  %and48 = and i32 %shr47139, 1
  %shr50140 = lshr i32 %x, 18
  %and51 = and i32 %shr50140, 1
  %shr53141 = lshr i32 %x, 19
  %and54 = and i32 %shr53141, 1
  %shr56142 = lshr i32 %x, 20
  %and57 = and i32 %shr56142, 1
  %shr59143 = lshr i32 %x, 21
  %and60 = and i32 %shr59143, 1
  %shr62144 = lshr i32 %x, 22
  %and63 = and i32 %shr62144, 1
  %shr65145 = lshr i32 %x, 23
  %and66 = and i32 %shr65145, 1
  %shr68146 = lshr i32 %x, 24
  %and69 = and i32 %shr68146, 1
  %shr71147 = lshr i32 %x, 25
  %and72 = and i32 %shr71147, 1
  %shr74148 = lshr i32 %x, 26
  %and75 = and i32 %shr74148, 1
  %shr77149 = lshr i32 %x, 27
  %and78 = and i32 %shr77149, 1
  %shr80150 = lshr i32 %x, 28
  %and81 = and i32 %shr80150, 1
  %shr83151 = lshr i32 %x, 29
  %and84 = and i32 %shr83151, 1
  %shr86152 = lshr i32 %x, 30
  %and87 = and i32 %shr86152, 1
  %shr89153 = lshr i32 %x, 31
  %add = add i32 %shr89153, %and
  %add4 = add i32 %add, %and1
  %add7 = add i32 %add4, %and3
  %add10 = add i32 %add7, %and6
  %add13 = add i32 %add10, %and9
  %add16 = add i32 %add13, %and12
  %add19 = add i32 %add16, %and15
  %add22 = add i32 %add19, %and18
  %add25 = add i32 %add22, %and21
  %add28 = add i32 %add25, %and24
  %add31 = add i32 %add28, %and27
  %add34 = add i32 %add31, %and30
  %add37 = add i32 %add34, %and33
  %add40 = add i32 %add37, %and36
  %add43 = add i32 %add40, %and39
  %add46 = add i32 %add43, %and42
  %add49 = add i32 %add46, %and45
  %add52 = add i32 %add49, %and48
  %add55 = add i32 %add52, %and51
  %add58 = add i32 %add55, %and54
  %add61 = add i32 %add58, %and57
  %add64 = add i32 %add61, %and60
  %add67 = add i32 %add64, %and63
  %add70 = add i32 %add67, %and66
  %add73 = add i32 %add70, %and69
  %add76 = add i32 %add73, %and72
  %add79 = add i32 %add76, %and75
  %add82 = add i32 %add79, %and78
  %add85 = add i32 %add82, %and81
  %add88 = add i32 %add85, %and84
  %add91 = add i32 %add88, %and87
  ret i32 %add91
}

define %struct.Memory* @__remill_atomic_begin(%struct.Memory*) {
  ret %struct.Memory* %0
}

define %struct.Memory* @__remill_atomic_end(%struct.Memory*) {
  ret %struct.Memory* %0
}


define internal %struct.Memory* @_ZN12_GLOBAL__N_1L7PCMPEQBI3VnWI8vec128_tE2VnIS2_ES5_EEP6MemoryS7_R5StateT_T0_T1_(%struct.Memory* readnone returned, %struct.State* nocapture readnone dereferenceable(3376), i8* nocapture, i8* nocapture readonly, i8* nocapture readonly) #0 {
  %6 = alloca <2 x i64>, align 16
  %7 = bitcast <2 x i64>* %6 to { i64, i64 }*
  %8 = alloca <2 x i64>, align 16
  %9 = bitcast <2 x i64>* %8 to { i64, i64 }*
  %10 = bitcast <2 x i64>* %8 to %struct.uint8v16_t*
  %11 = alloca <2 x i64>, align 16
  %12 = bitcast <2 x i64>* %11 to { i64, i64 }*
  %13 = bitcast <2 x i64>* %11 to %struct.uint8v16_t*
  %14 = bitcast <2 x i64>* %8 to i8*
  call void @my.lifetime.start(i64 16, i8* nonnull %14) #22
  %15 = bitcast i8* %3 to <2 x i64>*
  %16 = load <2 x i64>, <2 x i64>* %15, align 1
  store <2 x i64> %16, <2 x i64>* %8, align 16
  %17 = bitcast <2 x i64>* %11 to i8*
  call void @my.lifetime.start(i64 16, i8* nonnull %17) #22
  %18 = bitcast i8* %4 to <2 x i64>*
  %19 = load <2 x i64>, <2 x i64>* %18, align 1
  store <2 x i64> %19, <2 x i64>* %11, align 16
  %20 = bitcast <2 x i64>* %6 to i8*
  %21 = getelementptr inbounds <2 x i64>, <2 x i64>* %6, i64 0, i64 0
  %22 = getelementptr inbounds { i64, i64 }, { i64, i64 }* %7, i64 0, i32 1
  %23 = bitcast <2 x i64>* %6 to [16 x i8]*
  %24 = extractelement <2 x i64> %16, i32 0
  %25 = trunc i64 %24 to i8
  %26 = extractelement <2 x i64> %19, i32 0
  %27 = trunc i64 %26 to i8
  %28 = icmp eq i8 %25, %27
  %29 = sext i1 %28 to i8
  call void @my.lifetime.start(i64 16, i8* nonnull %20)
  store <2 x i64> zeroinitializer, <2 x i64>* %6, align 16
  %30 = bitcast <2 x i64>* %6 to i8*
  store i8 %29, i8* %30, align 16
  %31 = load i64, i64* %21, align 16
  call void @my.lifetime.end(i64 16, i8* nonnull %20)
  %32 = lshr i64 %24, 8
  %33 = trunc i64 %32 to i8
  %34 = lshr i64 %26, 8
  %35 = trunc i64 %34 to i8
  %36 = icmp eq i8 %33, %35
  %37 = sext i1 %36 to i8
  call void @my.lifetime.start(i64 16, i8* nonnull %20)
  store i64 %31, i64* %21, align 16
  store i64 0, i64* %22, align 8
  %38 = getelementptr inbounds [16 x i8], [16 x i8]* %23, i64 0, i64 1
  store i8 %37, i8* %38, align 1
  %39 = load i64, i64* %21, align 16
  call void @my.lifetime.end(i64 16, i8* nonnull %20)
  %40 = lshr i64 %24, 16
  %41 = trunc i64 %40 to i8
  %42 = lshr i64 %26, 16
  %43 = trunc i64 %42 to i8
  %44 = icmp eq i8 %41, %43
  %45 = sext i1 %44 to i8
  call void @my.lifetime.start(i64 16, i8* nonnull %20)
  store i64 %39, i64* %21, align 16
  store i64 0, i64* %22, align 8
  %46 = getelementptr inbounds [16 x i8], [16 x i8]* %23, i64 0, i64 2
  store i8 %45, i8* %46, align 2
  %47 = load i64, i64* %21, align 16
  call void @my.lifetime.end(i64 16, i8* nonnull %20)
  %48 = getelementptr inbounds %struct.uint8v16_t, %struct.uint8v16_t* %10, i64 0, i32 0, i64 3
  %49 = load i8, i8* %48, align 1
  %50 = getelementptr inbounds %struct.uint8v16_t, %struct.uint8v16_t* %13, i64 0, i32 0, i64 3
  %51 = load i8, i8* %50, align 1
  %52 = icmp eq i8 %49, %51
  %53 = sext i1 %52 to i8
  call void @my.lifetime.start(i64 16, i8* nonnull %20)
  store i64 %47, i64* %21, align 16
  store i64 0, i64* %22, align 8
  %54 = getelementptr inbounds [16 x i8], [16 x i8]* %23, i64 0, i64 3
  store i8 %53, i8* %54, align 1
  %55 = load i64, i64* %21, align 16
  call void @my.lifetime.end(i64 16, i8* nonnull %20)
  %56 = getelementptr inbounds %struct.uint8v16_t, %struct.uint8v16_t* %10, i64 0, i32 0, i64 4
  %57 = load i8, i8* %56, align 4
  %58 = getelementptr inbounds %struct.uint8v16_t, %struct.uint8v16_t* %13, i64 0, i32 0, i64 4
  %59 = load i8, i8* %58, align 4
  %60 = icmp eq i8 %57, %59
  %61 = sext i1 %60 to i8
  call void @my.lifetime.start(i64 16, i8* nonnull %20)
  store i64 %55, i64* %21, align 16
  store i64 0, i64* %22, align 8
  %62 = getelementptr inbounds [16 x i8], [16 x i8]* %23, i64 0, i64 4
  store i8 %61, i8* %62, align 4
  %63 = load i64, i64* %21, align 16
  call void @my.lifetime.end(i64 16, i8* nonnull %20)
  %64 = getelementptr inbounds %struct.uint8v16_t, %struct.uint8v16_t* %10, i64 0, i32 0, i64 5
  %65 = load i8, i8* %64, align 1
  %66 = getelementptr inbounds %struct.uint8v16_t, %struct.uint8v16_t* %13, i64 0, i32 0, i64 5
  %67 = load i8, i8* %66, align 1
  %68 = icmp eq i8 %65, %67
  %69 = sext i1 %68 to i8
  call void @my.lifetime.start(i64 16, i8* nonnull %20)
  store i64 %63, i64* %21, align 16
  store i64 0, i64* %22, align 8
  %70 = getelementptr inbounds [16 x i8], [16 x i8]* %23, i64 0, i64 5
  store i8 %69, i8* %70, align 1
  %71 = load i64, i64* %21, align 16
  call void @my.lifetime.end(i64 16, i8* nonnull %20)
  %72 = getelementptr inbounds %struct.uint8v16_t, %struct.uint8v16_t* %10, i64 0, i32 0, i64 6
  %73 = load i8, i8* %72, align 2
  %74 = getelementptr inbounds %struct.uint8v16_t, %struct.uint8v16_t* %13, i64 0, i32 0, i64 6
  %75 = load i8, i8* %74, align 2
  %76 = icmp eq i8 %73, %75
  %77 = sext i1 %76 to i8
  call void @my.lifetime.start(i64 16, i8* nonnull %20)
  store i64 %71, i64* %21, align 16
  store i64 0, i64* %22, align 8
  %78 = getelementptr inbounds [16 x i8], [16 x i8]* %23, i64 0, i64 6
  store i8 %77, i8* %78, align 2
  %79 = load i64, i64* %21, align 16
  call void @my.lifetime.end(i64 16, i8* nonnull %20)
  %80 = getelementptr inbounds %struct.uint8v16_t, %struct.uint8v16_t* %10, i64 0, i32 0, i64 7
  %81 = load i8, i8* %80, align 1
  %82 = getelementptr inbounds %struct.uint8v16_t, %struct.uint8v16_t* %13, i64 0, i32 0, i64 7
  %83 = load i8, i8* %82, align 1
  %84 = icmp eq i8 %81, %83
  %85 = sext i1 %84 to i8
  call void @my.lifetime.start(i64 16, i8* nonnull %20)
  store i64 %79, i64* %21, align 16
  store i64 0, i64* %22, align 8
  %86 = getelementptr inbounds [16 x i8], [16 x i8]* %23, i64 0, i64 7
  store i8 %85, i8* %86, align 1
  %87 = load i64, i64* %21, align 16
  call void @my.lifetime.end(i64 16, i8* nonnull %20)
  %88 = getelementptr inbounds { i64, i64 }, { i64, i64 }* %9, i64 0, i32 1
  %89 = bitcast i64* %88 to i8*
  %90 = load i8, i8* %89, align 8
  %91 = getelementptr inbounds { i64, i64 }, { i64, i64 }* %12, i64 0, i32 1
  %92 = bitcast i64* %91 to i8*
  %93 = load i8, i8* %92, align 8
  %94 = icmp eq i8 %90, %93
  %95 = sext i1 %94 to i8
  call void @my.lifetime.start(i64 16, i8* nonnull %20)
  store i64 %87, i64* %21, align 16
  store i64 0, i64* %22, align 8
  %96 = getelementptr inbounds { i64, i64 }, { i64, i64 }* %7, i64 0, i32 1
  %97 = bitcast i64* %96 to i8*
  store i8 %95, i8* %97, align 8
  %98 = load i64, i64* %22, align 8
  call void @my.lifetime.end(i64 16, i8* nonnull %20)
  %99 = getelementptr inbounds %struct.uint8v16_t, %struct.uint8v16_t* %10, i64 0, i32 0, i64 9
  %100 = load i8, i8* %99, align 1
  %101 = getelementptr inbounds %struct.uint8v16_t, %struct.uint8v16_t* %13, i64 0, i32 0, i64 9
  %102 = load i8, i8* %101, align 1
  %103 = icmp eq i8 %100, %102
  %104 = sext i1 %103 to i8
  call void @my.lifetime.start(i64 16, i8* nonnull %20)
  store i64 %87, i64* %21, align 16
  store i64 %98, i64* %22, align 8
  %105 = getelementptr inbounds [16 x i8], [16 x i8]* %23, i64 0, i64 9
  store i8 %104, i8* %105, align 1
  %106 = load i64, i64* %22, align 8
  call void @my.lifetime.end(i64 16, i8* nonnull %20)
  %107 = getelementptr inbounds %struct.uint8v16_t, %struct.uint8v16_t* %10, i64 0, i32 0, i64 10
  %108 = load i8, i8* %107, align 2
  %109 = getelementptr inbounds %struct.uint8v16_t, %struct.uint8v16_t* %13, i64 0, i32 0, i64 10
  %110 = load i8, i8* %109, align 2
  %111 = icmp eq i8 %108, %110
  %112 = sext i1 %111 to i8
  call void @my.lifetime.start(i64 16, i8* nonnull %20)
  store i64 %87, i64* %21, align 16
  store i64 %106, i64* %22, align 8
  %113 = getelementptr inbounds [16 x i8], [16 x i8]* %23, i64 0, i64 10
  store i8 %112, i8* %113, align 2
  %114 = load i64, i64* %22, align 8
  call void @my.lifetime.end(i64 16, i8* nonnull %20)
  %115 = getelementptr inbounds %struct.uint8v16_t, %struct.uint8v16_t* %10, i64 0, i32 0, i64 11
  %116 = load i8, i8* %115, align 1
  %117 = getelementptr inbounds %struct.uint8v16_t, %struct.uint8v16_t* %13, i64 0, i32 0, i64 11
  %118 = load i8, i8* %117, align 1
  %119 = icmp eq i8 %116, %118
  %120 = sext i1 %119 to i8
  call void @my.lifetime.start(i64 16, i8* nonnull %20)
  store i64 %87, i64* %21, align 16
  store i64 %114, i64* %22, align 8
  %121 = getelementptr inbounds [16 x i8], [16 x i8]* %23, i64 0, i64 11
  store i8 %120, i8* %121, align 1
  %122 = load i64, i64* %22, align 8
  call void @my.lifetime.end(i64 16, i8* nonnull %20)
  %123 = getelementptr inbounds %struct.uint8v16_t, %struct.uint8v16_t* %10, i64 0, i32 0, i64 12
  %124 = load i8, i8* %123, align 4
  %125 = getelementptr inbounds %struct.uint8v16_t, %struct.uint8v16_t* %13, i64 0, i32 0, i64 12
  %126 = load i8, i8* %125, align 4
  %127 = icmp eq i8 %124, %126
  %128 = sext i1 %127 to i8
  call void @my.lifetime.start(i64 16, i8* nonnull %20)
  store i64 %87, i64* %21, align 16
  store i64 %122, i64* %22, align 8
  %129 = getelementptr inbounds [16 x i8], [16 x i8]* %23, i64 0, i64 12
  store i8 %128, i8* %129, align 4
  %130 = load i64, i64* %22, align 8
  call void @my.lifetime.end(i64 16, i8* nonnull %20)
  %131 = getelementptr inbounds %struct.uint8v16_t, %struct.uint8v16_t* %10, i64 0, i32 0, i64 13
  %132 = load i8, i8* %131, align 1
  %133 = getelementptr inbounds %struct.uint8v16_t, %struct.uint8v16_t* %13, i64 0, i32 0, i64 13
  %134 = load i8, i8* %133, align 1
  %135 = icmp eq i8 %132, %134
  %136 = sext i1 %135 to i8
  call void @my.lifetime.start(i64 16, i8* nonnull %20)
  store i64 %87, i64* %21, align 16
  store i64 %130, i64* %22, align 8
  %137 = getelementptr inbounds [16 x i8], [16 x i8]* %23, i64 0, i64 13
  store i8 %136, i8* %137, align 1
  %138 = load i64, i64* %22, align 8
  call void @my.lifetime.end(i64 16, i8* nonnull %20)
  %139 = getelementptr inbounds %struct.uint8v16_t, %struct.uint8v16_t* %10, i64 0, i32 0, i64 14
  %140 = load i8, i8* %139, align 2
  %141 = getelementptr inbounds %struct.uint8v16_t, %struct.uint8v16_t* %13, i64 0, i32 0, i64 14
  %142 = load i8, i8* %141, align 2
  %143 = icmp eq i8 %140, %142
  %144 = sext i1 %143 to i8
  call void @my.lifetime.start(i64 16, i8* nonnull %20)
  store i64 %87, i64* %21, align 16
  store i64 %138, i64* %22, align 8
  %145 = getelementptr inbounds [16 x i8], [16 x i8]* %23, i64 0, i64 14
  store i8 %144, i8* %145, align 2
  %146 = load i64, i64* %22, align 8
  call void @my.lifetime.end(i64 16, i8* nonnull %20)
  %147 = getelementptr inbounds %struct.uint8v16_t, %struct.uint8v16_t* %10, i64 0, i32 0, i64 15
  %148 = load i8, i8* %147, align 1
  %149 = getelementptr inbounds %struct.uint8v16_t, %struct.uint8v16_t* %13, i64 0, i32 0, i64 15
  %150 = load i8, i8* %149, align 1
  %151 = icmp eq i8 %148, %150
  %152 = sext i1 %151 to i8
  call void @my.lifetime.start(i64 16, i8* nonnull %20)
  store i64 %87, i64* %21, align 16
  store i64 %146, i64* %22, align 8
  %153 = getelementptr inbounds [16 x i8], [16 x i8]* %23, i64 0, i64 15
  store i8 %152, i8* %153, align 1
  %154 = load i64, i64* %22, align 8
  call void @my.lifetime.end(i64 16, i8* nonnull %20)
  %155 = lshr i64 %87, 8
  %156 = lshr i64 %87, 16
  %157 = lshr i64 %87, 24
  %158 = lshr i64 %87, 32
  %159 = lshr i64 %87, 40
  %160 = lshr i64 %87, 48
  %161 = lshr i64 %87, 56
  %162 = trunc i64 %87 to i8
  %163 = trunc i64 %155 to i8
  %164 = trunc i64 %156 to i8
  %165 = trunc i64 %157 to i8
  %166 = trunc i64 %158 to i8
  %167 = trunc i64 %159 to i8
  %168 = trunc i64 %160 to i8
  %169 = trunc i64 %161 to i8
  store i8 %162, i8* %2, align 1
  %170 = getelementptr inbounds i8, i8* %2, i64 1
  store i8 %163, i8* %170, align 1
  %171 = getelementptr inbounds i8, i8* %2, i64 2
  store i8 %164, i8* %171, align 1
  %172 = getelementptr inbounds i8, i8* %2, i64 3
  store i8 %165, i8* %172, align 1
  %173 = getelementptr inbounds i8, i8* %2, i64 4
  store i8 %166, i8* %173, align 1
  %174 = getelementptr inbounds i8, i8* %2, i64 5
  store i8 %167, i8* %174, align 1
  %175 = getelementptr inbounds i8, i8* %2, i64 6
  store i8 %168, i8* %175, align 1
  %176 = getelementptr inbounds i8, i8* %2, i64 7
  store i8 %169, i8* %176, align 1
  %177 = trunc i64 %154 to i8
  %178 = getelementptr inbounds i8, i8* %2, i64 8
  store i8 %177, i8* %178, align 1
  %179 = lshr i64 %154, 8
  %180 = trunc i64 %179 to i8
  %181 = getelementptr inbounds i8, i8* %2, i64 9
  store i8 %180, i8* %181, align 1
  %182 = lshr i64 %154, 16
  %183 = trunc i64 %182 to i8
  %184 = getelementptr inbounds i8, i8* %2, i64 10
  store i8 %183, i8* %184, align 1
  %185 = lshr i64 %154, 24
  %186 = trunc i64 %185 to i8
  %187 = getelementptr inbounds i8, i8* %2, i64 11
  store i8 %186, i8* %187, align 1
  %188 = lshr i64 %154, 32
  %189 = trunc i64 %188 to i8
  %190 = getelementptr inbounds i8, i8* %2, i64 12
  store i8 %189, i8* %190, align 1
  %191 = lshr i64 %154, 40
  %192 = trunc i64 %191 to i8
  %193 = getelementptr inbounds i8, i8* %2, i64 13
  store i8 %192, i8* %193, align 1
  %194 = lshr i64 %154, 48
  %195 = trunc i64 %194 to i8
  %196 = getelementptr inbounds i8, i8* %2, i64 14
  store i8 %195, i8* %196, align 1
  %197 = lshr i64 %154, 56
  %198 = trunc i64 %197 to i8
  %199 = getelementptr inbounds i8, i8* %2, i64 15
  store i8 %198, i8* %199, align 1
  call void @my.lifetime.end(i64 16, i8* nonnull %17) #22
  call void @my.lifetime.end(i64 16, i8* nonnull %14) #22
  ret %struct.Memory* %0
}

define %struct.Memory* @routine_pcmpeqb_xmm_xmm(%struct.State*  dereferenceable(3376), i64, %struct.Memory* ) #19 {
block_530:
  %3 = getelementptr inbounds %struct.State, %struct.State* %0, i32 0, i32 6
  %4 = getelementptr inbounds %struct.GPR, %struct.GPR* %3, i32 0, i32 33
  %5 = getelementptr inbounds %struct.Reg, %struct.Reg* %4, i32 0, i32 0
  %PC = bitcast %union.anon* %5 to i64*
  %6 = getelementptr inbounds %struct.State, %struct.State* %0, i32 0, i32 1
  %7 = getelementptr inbounds [32 x %union.VectorReg], [32 x %union.VectorReg]* %6, i64 0, i64 1
  %YMM1 = bitcast %union.VectorReg* %7 to %"class.std__bitset"*
  %8 = getelementptr inbounds %struct.State, %struct.State* %0, i32 0, i32 1
  %9 = getelementptr inbounds [32 x %union.VectorReg], [32 x %union.VectorReg]* %8, i64 0, i64 2
  %XMM2 = bitcast %union.VectorReg* %9 to %union.vec128_t*
  %10 = bitcast %"class.std__bitset"* %YMM1 to i8*
  %11 = bitcast %"class.std__bitset"* %YMM1 to i8*
  %12 = bitcast %union.vec128_t* %XMM2 to i8*
  %13 = load i64, i64* %PC
  %14 = add i64 %13, 4
  store i64 %14, i64* %PC
  %15 = call %struct.Memory* @_ZN12_GLOBAL__N_1L7PCMPEQBI3VnWI8vec128_tE2VnIS2_ES5_EEP6MemoryS7_R5StateT_T0_T1_(%struct.Memory* %2, %struct.State* %0, i8* %10, i8* %11, i8* %12)
  ret %struct.Memory* %15
}

define i32 @main() {
entry:
  %state = alloca %struct.State

  %mem = alloca %struct.Memory
  %memf0 = getelementptr inbounds %struct.Memory, %struct.Memory* %mem, i32 0, i32 0
  store i64 51, i64* %memf0, align 8
  
  %addr1 = getelementptr inbounds %struct.State, %struct.State* %state, i64 0, i32 6, i32 1, i32 0, i32 0
  %addr2 = getelementptr inbounds %struct.State, %struct.State* %state, i64 0, i32 6, i32 3, i32 0, i32 0
  %addr3 = getelementptr inbounds %struct.State, %struct.State* %state, i64 0, i32 6, i32 5, i32 0, i32 0
  %addr4 = getelementptr inbounds %struct.State, %struct.State* %state, i64 0, i32 6, i32 7, i32 0, i32 0
  %addr5 = getelementptr inbounds %struct.State, %struct.State* %state, i64 0, i32 6, i32 9, i32 0, i32 0
  %addr6 = getelementptr inbounds %struct.State, %struct.State* %state, i64 0, i32 6, i32 11, i32 0, i32 0
  %addr7 = getelementptr inbounds %struct.State, %struct.State* %state, i64 0, i32 6, i32 13, i32 0, i32 0
  %addr8 = getelementptr inbounds %struct.State, %struct.State* %state, i64 0, i32 6, i32 15, i32 0, i32 0
  %addr9 = getelementptr inbounds %struct.State, %struct.State* %state, i64 0, i32 6, i32 33, i32 0, i32 0

  %cf = getelementptr inbounds %struct.State, %struct.State* %state, i64 0, i32 2, i32 1
  %pf = getelementptr inbounds %struct.State, %struct.State* %state, i64 0, i32 2, i32 3
  %af = getelementptr inbounds %struct.State, %struct.State* %state, i64 0, i32 2, i32 5
  %zf = getelementptr inbounds %struct.State, %struct.State* %state, i64 0, i32 2, i32 7
  %sf = getelementptr inbounds %struct.State, %struct.State* %state, i64 0, i32 2, i32 9
  %df = getelementptr inbounds %struct.State, %struct.State* %state, i64 0, i32 2, i32 11
  %of = getelementptr inbounds %struct.State, %struct.State* %state, i64 0, i32 2, i32 13

  store i64 100, i64* %addr1, align 8
  store i64 200, i64* %addr2, align 8
  store i64 300, i64* %addr3, align 8
  store i64 400, i64* %addr4, align 8
  store i64 500, i64* %addr5, align 8
  store i64 600, i64* %addr6, align 8
  store i64 700, i64* %addr7, align 8
  store i64 800, i64* %addr8, align 8
  store i64 900, i64* %addr9, align 8

  store i8 10, i8* %cf, align 1
  store i8 20, i8* %pf, align 1
  store i8 30, i8* %af, align 1
  store i8 40, i8* %zf, align 1
  store i8 50, i8* %sf, align 1
  store i8 60, i8* %df, align 1
  store i8 70, i8* %of, align 1

  %call = call %struct.Memory* @routine_pcmpeqb_xmm_xmm(%struct.State* %state, i64 0, %struct.Memory* %mem)
  ret i32 0
}