[     1s]    INFO tuneNormalizer:  Search Space: ['-mem2reg', '-licm', '-gvn', '-early-cse', '-globalopt', '-simplifycfg', '-basicaa', '-aa', '-memdep', '-dse', '-deadargelim', '-libcalls-shrinkwrap', '-tailcallelim', '-instcombine', '-memcpyopt', '-early-cse-memssa']


[    61s]    INFO opentuner.search.plugin.DisplayPlugin: tests=4, best #212, cost time=0.0092, found by UniformGreedyMutation
[    61s] WARNING opentuner.search.simplextechniques: only 1 point in simplex, will not use RandomNelderMead
[   113s]    INFO opentuner.search.plugin.DisplayPlugin: tests=8, best #212, cost time=0.0092, found by UniformGreedyMutation
[   163s]    INFO opentuner.search.plugin.DisplayPlugin: tests=11, best #212, cost time=0.0092, found by UniformGreedyMutation
[   223s]    INFO opentuner.search.plugin.DisplayPlugin: tests=15, best #212, cost time=0.0092, found by UniformGreedyMutation
[   281s]    INFO opentuner.search.plugin.DisplayPlugin: tests=19, best #212, cost time=0.0092, found by UniformGreedyMutation
[   357s]    INFO opentuner.search.plugin.DisplayPlugin: tests=23, best #212, cost time=0.0092, found by UniformGreedyMutation
[   418s]    INFO opentuner.search.plugin.DisplayPlugin: tests=27, best #212, cost time=0.0092, found by UniformGreedyMutation
[   485s]    INFO opentuner.search.plugin.DisplayPlugin: tests=31, best #212, cost time=0.0092, found by UniformGreedyMutation
[   550s]    INFO opentuner.search.plugin.DisplayPlugin: tests=35, best #212, cost time=0.0092, found by UniformGreedyMutation
[   601s]    INFO opentuner.search.plugin.DisplayPlugin: tests=39, best #212, cost time=0.0092, found by UniformGreedyMutation
[   627s]    INFO tuneNormalizer: run_precompiled: Early Exit: Optimal pass sequence written to mcsema//normalizer_final_config.json: [ -mem2reg -gvn -globalopt -simplifycfg -dse -deadargelim -tailcallelim]
[   655s]    INFO opentuner.search.plugin.DisplayPlugin: tests=43, best #242, cost time=0.0000, found by NormalGreedyMutation
[   674s]    INFO tuneNormalizer: run_precompiled: Early Exit: Optimal pass sequence written to mcsema//normalizer_final_config.json: [ -mem2reg -gvn -early-cse -globalopt -simplifycfg -dse -deadargelim -tailcallelim]
[   703s]    INFO tuneNormalizer: run_precompiled: Early Exit: Optimal pass sequence written to mcsema//normalizer_final_config.json: [ -mem2reg -gvn -globalopt -dse -deadargelim -tailcallelim -early-cse-memssa]
[   703s]    INFO opentuner.search.plugin.DisplayPlugin: tests=47, best #242, cost time=0.0000, found by NormalGreedyMutation
[   741s]    INFO tuneNormalizer: run_precompiled: Early Exit: Optimal pass sequence written to mcsema//normalizer_final_config.json: [ -mem2reg -gvn -globalopt -simplifycfg -dse -deadargelim -tailcallelim -instcombine]
[   765s]    INFO opentuner.search.plugin.DisplayPlugin: tests=51, best #242, cost time=0.0000, found by NormalGreedyMutation
[   788s]    INFO tuneNormalizer: run_precompiled: Early Exit: Optimal pass sequence written to mcsema//normalizer_final_config.json: [ -mem2reg -gvn -globalopt -simplifycfg -memdep -dse -deadargelim -tailcallelim]
[   815s]    INFO tuneNormalizer: run_precompiled: Early Exit: Optimal pass sequence written to mcsema//normalizer_final_config.json: [ -mem2reg -gvn -globalopt -simplifycfg -dse -deadargelim -memcpyopt]
[   815s]    INFO opentuner.search.plugin.DisplayPlugin: tests=55, best #242, cost time=0.0000, found by NormalGreedyMutation
[   878s]    INFO opentuner.search.plugin.DisplayPlugin: tests=59, best #242, cost time=0.0000, found by NormalGreedyMutation
[   929s]    INFO opentuner.search.plugin.DisplayPlugin: tests=63, best #242, cost time=0.0000, found by NormalGreedyMutation
[   947s]    INFO tuneNormalizer: run_precompiled: Early Exit: Optimal pass sequence written to mcsema//normalizer_final_config.json: [ -mem2reg -gvn -globalopt -simplifycfg -dse -deadargelim -tailcallelim]
[   955s]    INFO tuneNormalizer: run_precompiled: Early Exit: Optimal pass sequence written to mcsema//normalizer_final_config.json: [ -mem2reg -licm -gvn -globalopt -simplifycfg -dse]
[   962s]    INFO tuneNormalizer: run_precompiled: Early Exit: Optimal pass sequence written to mcsema//normalizer_final_config.json: [ -mem2reg -gvn -simplifycfg -dse -deadargelim -tailcallelim]
[   969s]    INFO tuneNormalizer: run_precompiled: Early Exit: Optimal pass sequence written to mcsema//normalizer_final_config.json: [ -mem2reg -gvn -globalopt -simplifycfg -dse -deadargelim -tailcallelim]
[   969s]    INFO opentuner.search.plugin.DisplayPlugin: tests=67, best #242, cost time=0.0000, found by NormalGreedyMutation
[   992s]    INFO tuneNormalizer: run_precompiled: Early Exit: Optimal pass sequence written to mcsema//normalizer_final_config.json: [ -mem2reg -gvn -early-cse -globalopt -simplifycfg -dse -deadargelim -tailcallelim -early-cse-memssa]
[  1006s]    INFO tuneNormalizer: run_precompiled: Early Exit: Optimal pass sequence written to mcsema//normalizer_final_config.json: [ -mem2reg -gvn -globalopt -simplifycfg -dse -tailcallelim -memcpyopt]
[  1014s]    INFO tuneNormalizer: run_precompiled: Early Exit: Optimal pass sequence written to mcsema//normalizer_final_config.json: [ -mem2reg -gvn -dse -deadargelim -tailcallelim]
[  1014s]    INFO opentuner.search.plugin.DisplayPlugin: tests=71, best #242, cost time=0.0000, found by NormalGreedyMutation
[  1034s]    INFO tuneNormalizer: run_precompiled: Early Exit: Optimal pass sequence written to mcsema//normalizer_final_config.json: [ -mem2reg -gvn -globalopt -simplifycfg -dse -deadargelim -libcalls-shrinkwrap -tailcallelim]
[  1048s]    INFO tuneNormalizer: run_precompiled: Early Exit: Optimal pass sequence written to mcsema//normalizer_final_config.json: [ -mem2reg -gvn -early-cse -globalopt -simplifycfg -aa -memdep -dse -deadargelim -tailcallelim]
[  1058s]    INFO opentuner.search.plugin.DisplayPlugin: tests=75, best #242, cost time=0.0000, found by NormalGreedyMutation
[  1078s]    INFO tuneNormalizer: run_precompiled: Early Exit: Optimal pass sequence written to mcsema//normalizer_final_config.json: [ -mem2reg -gvn -globalopt -simplifycfg -memdep -dse -tailcallelim -instcombine]
[  1091s]    INFO tuneNormalizer: run_precompiled: Early Exit: Optimal pass sequence written to mcsema//normalizer_final_config.json: [ -mem2reg -gvn -globalopt -simplifycfg -aa -dse -deadargelim -tailcallelim -memcpyopt]
[  1099s]    INFO tuneNormalizer: run_precompiled: Early Exit: Optimal pass sequence written to mcsema//normalizer_final_config.json: [ -mem2reg -gvn -globalopt -simplifycfg -dse -deadargelim -tailcallelim]
[  1100s]    INFO opentuner.search.plugin.DisplayPlugin: tests=79, best #242, cost time=0.0000, found by NormalGreedyMutation
[  1155s]    INFO opentuner.search.plugin.DisplayPlugin: tests=83, best #242, cost time=0.0000, found by NormalGreedyMutation
[  1182s]    INFO tuneNormalizer: run_precompiled: Early Exit: Optimal pass sequence written to mcsema//normalizer_final_config.json: [ -mem2reg -gvn -globalopt -simplifycfg -dse -deadargelim -tailcallelim]
[  1197s]    INFO tuneNormalizer: run_precompiled: Early Exit: Optimal pass sequence written to mcsema//normalizer_final_config.json: [ -mem2reg -gvn -globalopt -simplifycfg -dse]
[  1197s]    INFO opentuner.search.plugin.DisplayPlugin: tests=87, best #242, cost time=0.0000, found by NormalGreedyMutation
[  1242s]    INFO tuneNormalizer: run_precompiled: Early Exit: Optimal pass sequence written to mcsema//normalizer_final_config.json: [ -mem2reg -gvn -globalopt -simplifycfg -dse -deadargelim -tailcallelim -early-cse-memssa]
[  1250s]    INFO opentuner.search.plugin.DisplayPlugin: tests=91, best #242, cost time=0.0000, found by NormalGreedyMutation
[  1302s]    INFO opentuner.search.plugin.DisplayPlugin: tests=95, best #242, cost time=0.0000, found by NormalGreedyMutation
[  1323s]    INFO tuneNormalizer: run_precompiled: Early Exit: Optimal pass sequence written to mcsema//normalizer_final_config.json: [ -mem2reg -gvn -globalopt -simplifycfg -basicaa -dse -tailcallelim -memcpyopt]
[  1356s]    INFO opentuner.search.plugin.DisplayPlugin: tests=99, best #242, cost time=0.0000, found by NormalGreedyMutation
[  1374s]    INFO tuneNormalizer: run_precompiled: Early Exit: Optimal pass sequence written to mcsema//normalizer_final_config.json: [ -mem2reg -gvn -simplifycfg -dse -deadargelim]
[  1380s]    INFO tuneNormalizer: run_precompiled: Early Exit: Optimal pass sequence written to mcsema//normalizer_final_config.json: [ -mem2reg -gvn -globalopt -simplifycfg -dse -deadargelim -tailcallelim]
[  1380s]    INFO opentuner.search.plugin.DisplayPlugin: tests=101, best #242, cost time=0.0000, found by NormalGreedyMutation
[  1380s]    INFO opentuner.search.plugin.DisplayPlugin: tests=101, best #242, cost time=0.0000, found by NormalGreedyMutation
[  1380s]    INFO tuneNormalizer: Optimal pass sequence seen so far: [-globalopt -simplifycfg -dse -mem2reg -tailcallelim -deadargelim -gvn ]
1191.24user 40.55system 23:01.04elapsed 89%CPU (0avgtext+0avgdata 109600maxresident)k
0inputs+2492752outputs (0major+5085126minor)pagefaults 0swaps
