; ModuleID = 'mcsema/test.proposed.ll'
source_filename = "llvm-link"
target datalayout = "e-m:e-i64:64-f80:128-n8:16:32:64-S128"
target triple = "x86_64-pc-linux-gnu-elf"

%union.anon = type { i64 }
%seg_400370__init_type = type <{ [23 x i8] }>
%seg_400390__text_type = type <{ [354 x i8] }>
%seg_4004f4__fini_type = type <{ [9 x i8] }>
%seg_400500__rodata_type = type <{ [4 x i8] }>
%seg_400504__eh_frame_hdr_type = type <{ [52 x i8] }>
%seg_400538__eh_frame_type = type <{ [208 x i8] }>
%seg_601018__data_type = type <{ [16 x i8] }>
%__bss_start_type = type <{ [8 x i8] }>
%struct.State = type { %struct.ArchState, [32 x %union.VectorReg], %struct.ArithFlags, %union.anon, %struct.Segments, %struct.AddressSpace, %struct.GPR, %struct.X87Stack, %struct.MMX, %struct.FPUStatusFlags, %union.anon, %union.FPU, %struct.SegmentCaches }
%struct.ArchState = type { i32, i32, %union.anon }
%union.VectorReg = type { %union.vec512_t }
%union.vec512_t = type { %struct.uint64v8_t }
%struct.uint64v8_t = type { [8 x i64] }
%struct.ArithFlags = type { i8, i8, i8, i8, i8, i8, i8, i8, i8, i8, i8, i8, i8, i8, i8, i8 }
%struct.Segments = type { i16, %union.SegmentSelector, i16, %union.SegmentSelector, i16, %union.SegmentSelector, i16, %union.SegmentSelector, i16, %union.SegmentSelector, i16, %union.SegmentSelector }
%union.SegmentSelector = type { i16 }
%struct.AddressSpace = type { i64, %struct.Reg, i64, %struct.Reg, i64, %struct.Reg, i64, %struct.Reg, i64, %struct.Reg, i64, %struct.Reg }
%struct.Reg = type { %union.anon }
%struct.GPR = type { i64, %struct.Reg, i64, %struct.Reg, i64, %struct.Reg, i64, %struct.Reg, i64, %struct.Reg, i64, %struct.Reg, i64, %struct.Reg, i64, %struct.Reg, i64, %struct.Reg, i64, %struct.Reg, i64, %struct.Reg, i64, %struct.Reg, i64, %struct.Reg, i64, %struct.Reg, i64, %struct.Reg, i64, %struct.Reg, i64, %struct.Reg }
%struct.X87Stack = type { [8 x %struct.anon.3] }
%struct.anon.3 = type { i64, double }
%struct.MMX = type { [8 x %struct.anon.4] }
%struct.anon.4 = type { i64, %union.vec64_t }
%union.vec64_t = type { %struct.uint64v1_t }
%struct.uint64v1_t = type { [1 x i64] }
%struct.FPUStatusFlags = type { i8, i8, i8, i8, i8, i8, i8, i8, i8, i8, i8, i8, i8, i8, i8, i8, i8, i8, i8, i8, [4 x i8] }
%union.FPU = type { %struct.anon.13 }
%struct.anon.13 = type { %struct.FpuFXSAVE, [96 x i8] }
%struct.FpuFXSAVE = type { %union.SegmentSelector, %union.SegmentSelector, %union.FPUAbridgedTagWord, i8, i16, i32, %union.SegmentSelector, i16, i32, %union.SegmentSelector, i16, %union.FPUControlStatus, %union.FPUControlStatus, [8 x %struct.FPUStackElem], [16 x %union.vec128_t] }
%union.FPUAbridgedTagWord = type { i8 }
%union.FPUControlStatus = type { i32 }
%struct.FPUStackElem = type { %union.anon.11, [6 x i8] }
%union.anon.11 = type { %struct.float80_t }
%struct.float80_t = type { [10 x i8] }
%union.vec128_t = type { %struct.uint128v1_t }
%struct.uint128v1_t = type { [1 x i128] }
%struct.SegmentCaches = type { %struct.SegmentShadow, %struct.SegmentShadow, %struct.SegmentShadow, %struct.SegmentShadow, %struct.SegmentShadow, %struct.SegmentShadow }
%struct.SegmentShadow = type { %union.anon, i32, i32 }
%struct.Memory = type opaque

@switch.table = private unnamed_addr constant [4 x i32] [i32 2048, i32 3072, i32 0, i32 1024]
@DR0 = external global i64, align 8
@DR1 = external global i64, align 8
@DR2 = external global i64, align 8
@DR3 = external global i64, align 8
@DR4 = external global i64, align 8
@DR5 = external global i64, align 8
@DR6 = external global i64, align 8
@DR7 = external global i64, align 8
@gCR0 = external global %union.anon, align 1
@gCR1 = external global %union.anon, align 1
@gCR2 = external global %union.anon, align 1
@gCR3 = external global %union.anon, align 1
@gCR4 = external global %union.anon, align 1
@gCR8 = external global %union.anon, align 1
@seg_400370__init = internal constant %seg_400370__init_type <{ [23 x i8] c"H\83\EC\08H\8B\05}\0C \00H\85\C0t\02\FF\D0H\83\C4\08\C3" }>
@seg_400390__text = internal constant %seg_400390__text_type <{ [354 x i8] c"1\EDI\89\D1^H\89\E2H\83\E4\F0PTI\C7\C0\F0\04@\00H\C7\C1\80\04@\00H\C7\C7x\04@\00\FF\156\0C \00\F4\0F\1FD\00\00\F3\C3f.\0F\1F\84\00\00\00\00\00\0F\1F@\00U\B8(\10`\00H=(\10`\00H\89\E5t\17\B8\00\00\00\00H\85\C0t\0D]\BF(\10`\00\FF\E0\0F\1FD\00\00]\C3f\0F\1FD\00\00\BE(\10`\00UH\81\EE(\10`\00H\89\E5H\C1\FE\03H\89\F0H\C1\E8?H\01\C6H\D1\FEt\15\B8\00\00\00\00H\85\C0t\0B]\BF(\10`\00\FF\E0\0F\1F\00]\C3f\0F\1FD\00\00\80=\E1\0B \00\00u\17UH\89\E5\E8~\FF\FF\FF\C6\05\CF\0B \00\01]\C3\0F\1FD\00\00\F3\C3\0F\1F@\00f.\0F\1F\84\00\00\00\00\00UH\89\E5]\EB\89\90U\C3f\0F\1FD\00\00AWAVI\89\D7AUATL\8D%\BE\09 \00UH\8D-\BE\09 \00SA\89\FDI\89\F6L)\E5H\83\EC\08H\C1\FD\03\E8\BF\FE\FF\FFH\85\EDt 1\DB\0F\1F\84\00\00\00\00\00L\89\FAL\89\F6D\89\EFA\FF\14\DCH\83\C3\01H9\DDu\EAH\83\C4\08[]A\5CA]A^A_\C3\90f.\0F\1F\84\00\00\00\00\00\F3\C3" }>
@seg_4004f4__fini = internal constant %seg_4004f4__fini_type <{ [9 x i8] c"H\83\EC\08H\83\C4\08\C3" }>
@seg_400500__rodata = internal constant %seg_400500__rodata_type <{ [4 x i8] c"\01\00\02\00" }>
@seg_400504__eh_frame_hdr = internal constant %seg_400504__eh_frame_hdr_type <{ [52 x i8] c"\01\1B\03;0\00\00\00\05\00\00\00\8C\FE\FF\FFL\00\00\00\BC\FE\FF\FFx\00\00\00t\FF\FF\FF\8C\00\00\00|\FF\FF\FF\A4\00\00\00\EC\FF\FF\FF\EC\00\00\00" }>
@seg_400538__eh_frame = internal constant %seg_400538__eh_frame_type <{ [208 x i8] c"\14\00\00\00\00\00\00\00\01zR\00\01x\10\01\1B\0C\07\08\90\01\07\10\10\00\00\00\1C\00\00\008\FE\FF\FF+\00\00\00\00\00\00\00\14\00\00\00\00\00\00\00\01zR\00\01x\10\01\1B\0C\07\08\90\01\00\00\10\00\00\00\1C\00\00\00<\FE\FF\FF\02\00\00\00\00\00\00\00\14\00\00\000\00\00\00\E0\FE\FF\FF\02\00\00\00\00\00\00\00\00\00\00\00D\00\00\00H\00\00\00\D0\FE\FF\FFe\00\00\00\00B\0E\10\8F\02B\0E\18\8E\03E\0E \8D\04B\0E(\8C\05H\0E0\86\06H\0E8\83\07M\0E@r\0E8A\0E0A\0E(B\0E B\0E\18B\0E\10B\0E\08\00\10\00\00\00\90\00\00\00\F8\FE\FF\FF\02\00\00\00\00\00\00\00\00\00\00\00" }>
@seg_601018__data = internal global %seg_601018__data_type zeroinitializer
@__bss_start = global %__bss_start_type zeroinitializer
@0 = internal global i1 false

declare %struct.Memory* @__remill_error(%struct.State* dereferenceable(3376), i64, %struct.Memory*)

declare i32 @__remill_fpu_exception_test_and_clear(i32, i32)

; Function Attrs: argmemonly nounwind
declare void @llvm.lifetime.start(i64, i8* nocapture) #0

; Function Attrs: argmemonly nounwind
declare void @llvm.lifetime.end(i64, i8* nocapture) #0

; Function Attrs: nounwind readnone
declare i32 @llvm.ctpop.i32(i32) #1

; Function Attrs: nounwind readnone
declare i32 @llvm.bswap.i32(i32) #1

; Function Attrs: nounwind readnone
declare i64 @llvm.bswap.i64(i64) #1

; Function Attrs: nounwind readnone
declare i32 @llvm.cttz.i32(i32, i1) #1

; Function Attrs: nounwind readnone
declare i64 @llvm.cttz.i64(i64, i1) #1

; Function Attrs: nounwind readnone
declare i32 @llvm.ctlz.i32(i32, i1) #1

; Function Attrs: nounwind readnone
declare i64 @llvm.ctlz.i64(i64, i1) #1

; Function Attrs: argmemonly nounwind
declare void @llvm.memcpy.p0i8.p0i8.i64(i8* nocapture writeonly, i8* nocapture readonly, i64, i32, i1) #0

; Function Attrs: nounwind readnone
declare double @llvm.nearbyint.f64(double) #1

; Function Attrs: nounwind readnone
declare double @llvm.fabs.f64(double) #1

; Function Attrs: nounwind readnone
declare <4 x double> @llvm.nearbyint.v4f64(<4 x double>) #1

; Function Attrs: nounwind readnone
declare <4 x double> @llvm.fabs.v4f64(<4 x double>) #1

; Function Attrs: nounwind readnone
declare double @llvm.trunc.f64(double) #1

; Function Attrs: nounwind readnone
declare <4 x double> @llvm.trunc.v4f64(<4 x double>) #1

; Function Attrs: nounwind readnone
declare float @llvm.nearbyint.f32(float) #1

; Function Attrs: nounwind readnone
declare float @llvm.fabs.f32(float) #1

; Function Attrs: nounwind readnone
declare <4 x float> @llvm.nearbyint.v4f32(<4 x float>) #1

; Function Attrs: nounwind readnone
declare <4 x float> @llvm.fabs.v4f32(<4 x float>) #1

; Function Attrs: nounwind readnone
declare float @llvm.trunc.f32(float) #1

; Function Attrs: nounwind readnone
declare <4 x float> @llvm.trunc.v4f32(<4 x float>) #1

; Function Attrs: argmemonly nounwind
declare void @llvm.memset.p0i8.i64(i8* nocapture writeonly, i8, i64, i32, i1) #0

declare double @atan(double) local_unnamed_addr

declare double @cos(double) local_unnamed_addr

declare double @sin(double) local_unnamed_addr

declare double @sqrt(double) local_unnamed_addr

declare double @tan(double) local_unnamed_addr

declare extern_weak x86_64_sysvcc i64 @abort()

declare extern_weak x86_64_sysvcc i64 @abs(i64)

declare extern_weak x86_64_sysvcc i64 @asin(i64)

declare extern_weak x86_64_sysvcc i64 @atof(i64)

declare extern_weak x86_64_sysvcc i64 @atoi(i64)

declare extern_weak x86_64_sysvcc i64 @atol(i64)

declare extern_weak x86_64_sysvcc i64 @calloc(i64, i64)

declare extern_weak x86_64_sysvcc i64 @clock()

declare extern_weak x86_64_sysvcc i64 @cosf(i64)

declare extern_weak x86_64_sysvcc i64 @exit(i64)

declare extern_weak x86_64_sysvcc i64 @exp(i64)

declare extern_weak x86_64_sysvcc i64 @fflush(i64)

declare extern_weak x86_64_sysvcc i64 @floor(i64)

declare extern_weak x86_64_sysvcc i64 @fprintf(i64, i64, i64, i64, i64, i64, i64, i64, i64, i64, i64, i64, i64, i64, i64, i64)

declare extern_weak x86_64_sysvcc i64 @fputs(i64, i64)

declare extern_weak x86_64_sysvcc i64 @free(i64)

declare extern_weak x86_64_sysvcc i64 @fwrite(i64, i64, i64, i64)

declare extern_weak x86_64_sysvcc i64 @getchar()

declare extern_weak x86_64_sysvcc i64 @gettimeofday(i64, i64)

declare extern_weak x86_64_sysvcc i64 @__isoc99_fscanf(i64, i64, i64, i64, i64, i64, i64, i64, i64, i64, i64, i64, i64, i64, i64, i64)

declare extern_weak x86_64_sysvcc i64 @__isoc99_scanf(i64, i64, i64, i64, i64, i64, i64, i64, i64, i64, i64, i64, i64, i64, i64, i64)

declare extern_weak x86_64_sysvcc i64 @__isoc99_sscanf(i64, i64, i64, i64, i64, i64, i64, i64, i64, i64, i64, i64, i64, i64, i64, i64)

declare extern_weak x86_64_sysvcc i64 @log(i64)

declare extern_weak x86_64_sysvcc i64 @lrand48()

declare extern_weak x86_64_sysvcc i64 @malloc(i64)

declare extern_weak x86_64_sysvcc i64 @memalign(i64, i64)

declare extern_weak x86_64_sysvcc i64 @memcpy(i64, i64, i64)

declare extern_weak x86_64_sysvcc i64 @memset(i64, i64, i64)

declare extern_weak x86_64_sysvcc i64 @perror(i64)

declare extern_weak x86_64_sysvcc i64 @posix_memalign(i64, i64, i64)

declare extern_weak x86_64_sysvcc i64 @pow(i64, i64)

declare extern_weak x86_64_sysvcc i64 @printf(i64, i64, i64, i64, i64, i64, i64, i64, i64, i64, i64, i64, i64, i64, i64, i64)

declare extern_weak x86_64_sysvcc i64 @putchar(i64)

declare extern_weak x86_64_sysvcc i64 @puts(i64)

declare extern_weak x86_64_sysvcc i64 @rand()

declare extern_weak x86_64_sysvcc i64 @random()

declare extern_weak x86_64_sysvcc i64 @realloc(i64, i64)

declare extern_weak x86_64_sysvcc i64 @seed48(i64)

declare extern_weak x86_64_sysvcc i64 @sinf(i64)

declare extern_weak x86_64_sysvcc i64 @sprintf(i64, i64, i64, i64, i64, i64, i64, i64, i64, i64, i64, i64, i64, i64, i64, i64)

declare extern_weak x86_64_sysvcc i64 @srand(i64)

declare extern_weak x86_64_sysvcc i64 @strcat(i64, i64)

declare extern_weak x86_64_sysvcc i64 @strcmp(i64, i64)

declare extern_weak x86_64_sysvcc i64 @strcpy(i64, i64)

declare extern_weak x86_64_sysvcc i64 @strdup(i64)

declare extern_weak x86_64_sysvcc i64 @strlen(i64)

declare extern_weak x86_64_sysvcc i64 @strncmp(i64, i64, i64)

declare extern_weak x86_64_sysvcc i64 @strtoll(i64, i64, i64)

declare extern_weak x86_64_sysvcc i64 @time(i64)

declare extern_weak x86_64_sysvcc i64 @ungetc(i64, i64)

declare extern_weak x86_64_sysvcc i64 @pthread_join(i64, i64)

declare extern_weak x86_64_sysvcc i64 @pthread_create(i64, i64, i64, i64)

declare %struct.Memory* @__remill_function_call(%struct.State* dereferenceable(3376), i64, %struct.Memory*)

declare %struct.Memory* @ext_sqrt(%struct.State* noalias dereferenceable(3376), i64, %struct.Memory* noalias)

declare %struct.Memory* @ext_atan(%struct.State* noalias dereferenceable(3376), i64, %struct.Memory* noalias)

declare %struct.Memory* @ext_cos(%struct.State* noalias dereferenceable(3376), i64, %struct.Memory* noalias)

declare %struct.Memory* @ext_tan(%struct.State* noalias dereferenceable(3376), i64, %struct.Memory* noalias)

declare %struct.Memory* @ext_sin(%struct.State* noalias dereferenceable(3376), i64, %struct.Memory* noalias)

; Function Attrs: alwaysinline
define %struct.Memory* @_ZN31custom_multiple_constant_divideIiE8do_shiftEi(%struct.State* noalias, i64, %struct.Memory* noalias) #2 {
entry:
  %3 = getelementptr inbounds %struct.State, %struct.State* %0, i64 0, i32 6, i32 33, i32 0, i32 0
  store i64 %1, i64* %3, align 8
  %BRANCH_TAKEN = alloca i8, align 1
  store i8 0, i8* %BRANCH_TAKEN, align 1
  %MEMORY = alloca %struct.Memory*, align 8
  store %struct.Memory* %2, %struct.Memory** %MEMORY, align 8
  %loadMem_4132d0 = load %struct.Memory*, %struct.Memory** %MEMORY
  %4 = getelementptr inbounds %struct.State, %struct.State* %0, i32 0, i32 6
  %5 = getelementptr inbounds %struct.GPR, %struct.GPR* %4, i32 0, i32 33
  %6 = getelementptr inbounds %struct.Reg, %struct.Reg* %5, i32 0, i32 0
  %PC.i = bitcast %union.anon* %6 to i64*
  %7 = getelementptr inbounds %struct.State, %struct.State* %0, i32 0, i32 6
  %8 = getelementptr inbounds %struct.GPR, %struct.GPR* %7, i32 0, i32 15
  %9 = getelementptr inbounds %struct.Reg, %struct.Reg* %8, i32 0, i32 0
  %RBP.i = bitcast %union.anon* %9 to i64*
  %10 = load i64, i64* %RBP.i
  %11 = load i64, i64* %PC.i
  %12 = add i64 %11, 1
  store i64 %12, i64* %PC.i
  %13 = getelementptr inbounds %struct.State, %struct.State* %0, i64 0, i32 6, i32 13, i32 0, i32 0
  %14 = load i64, i64* %13, align 8
  %15 = add i64 %14, -8
  %16 = inttoptr i64 %15 to i64*
  store i64 %10, i64* %16
  store i64 %15, i64* %13, align 8
  store %struct.Memory* %loadMem_4132d0, %struct.Memory** %MEMORY
  %loadMem_4132d1 = load %struct.Memory*, %struct.Memory** %MEMORY
  %17 = getelementptr inbounds %struct.State, %struct.State* %0, i32 0, i32 6
  %18 = getelementptr inbounds %struct.GPR, %struct.GPR* %17, i32 0, i32 33
  %19 = getelementptr inbounds %struct.Reg, %struct.Reg* %18, i32 0, i32 0
  %PC.i5 = bitcast %union.anon* %19 to i64*
  %20 = getelementptr inbounds %struct.State, %struct.State* %0, i32 0, i32 6
  %21 = getelementptr inbounds %struct.GPR, %struct.GPR* %20, i32 0, i32 13
  %22 = getelementptr inbounds %struct.Reg, %struct.Reg* %21, i32 0, i32 0
  %RSP.i = bitcast %union.anon* %22 to i64*
  %23 = getelementptr inbounds %struct.State, %struct.State* %0, i32 0, i32 6
  %24 = getelementptr inbounds %struct.GPR, %struct.GPR* %23, i32 0, i32 15
  %25 = getelementptr inbounds %struct.Reg, %struct.Reg* %24, i32 0, i32 0
  %RBP.i6 = bitcast %union.anon* %25 to i64*
  %26 = load i64, i64* %RSP.i
  %27 = load i64, i64* %PC.i5
  %28 = add i64 %27, 3
  store i64 %28, i64* %PC.i5
  store i64 %26, i64* %RBP.i6, align 8
  store %struct.Memory* %loadMem_4132d1, %struct.Memory** %MEMORY
  %loadMem_4132d4 = load %struct.Memory*, %struct.Memory** %MEMORY
  %29 = getelementptr inbounds %struct.State, %struct.State* %0, i32 0, i32 6
  %30 = getelementptr inbounds %struct.GPR, %struct.GPR* %29, i32 0, i32 33
  %31 = getelementptr inbounds %struct.Reg, %struct.Reg* %30, i32 0, i32 0
  %PC.i13 = bitcast %union.anon* %31 to i64*
  %32 = getelementptr inbounds %struct.State, %struct.State* %0, i32 0, i32 6
  %33 = getelementptr inbounds %struct.GPR, %struct.GPR* %32, i32 0, i32 1
  %34 = getelementptr inbounds %struct.Reg, %struct.Reg* %33, i32 0, i32 0
  %RAX.i = bitcast %union.anon* %34 to i64*
  %35 = load i64, i64* %PC.i13
  %36 = add i64 %35, 5
  store i64 %36, i64* %PC.i13
  store i64 5, i64* %RAX.i, align 8
  store %struct.Memory* %loadMem_4132d4, %struct.Memory** %MEMORY
  %loadMem_4132d9 = load %struct.Memory*, %struct.Memory** %MEMORY
  %37 = getelementptr inbounds %struct.State, %struct.State* %0, i32 0, i32 6
  %38 = getelementptr inbounds %struct.GPR, %struct.GPR* %37, i32 0, i32 33
  %39 = getelementptr inbounds %struct.Reg, %struct.Reg* %38, i32 0, i32 0
  %PC.i16 = bitcast %union.anon* %39 to i64*
  %40 = getelementptr inbounds %struct.State, %struct.State* %0, i32 0, i32 6
  %41 = getelementptr inbounds %struct.GPR, %struct.GPR* %40, i32 0, i32 5
  %42 = getelementptr inbounds %struct.Reg, %struct.Reg* %41, i32 0, i32 0
  %RCX.i17 = bitcast %union.anon* %42 to i64*
  %43 = load i64, i64* %PC.i16
  %44 = add i64 %43, 5
  store i64 %44, i64* %PC.i16
  store i64 4, i64* %RCX.i17, align 8
  store %struct.Memory* %loadMem_4132d9, %struct.Memory** %MEMORY
  %loadMem_4132de = load %struct.Memory*, %struct.Memory** %MEMORY
  %45 = getelementptr inbounds %struct.State, %struct.State* %0, i32 0, i32 6
  %46 = getelementptr inbounds %struct.GPR, %struct.GPR* %45, i32 0, i32 33
  %47 = getelementptr inbounds %struct.Reg, %struct.Reg* %46, i32 0, i32 0
  %PC.i24 = bitcast %union.anon* %47 to i64*
  %48 = getelementptr inbounds %struct.State, %struct.State* %0, i32 0, i32 6
  %49 = getelementptr inbounds %struct.GPR, %struct.GPR* %48, i32 0, i32 7
  %50 = getelementptr inbounds %struct.Reg, %struct.Reg* %49, i32 0, i32 0
  %RDX.i = bitcast %union.anon* %50 to i64*
  %51 = load i64, i64* %PC.i24
  %52 = add i64 %51, 5
  store i64 %52, i64* %PC.i24
  store i64 3, i64* %RDX.i, align 8
  store %struct.Memory* %loadMem_4132de, %struct.Memory** %MEMORY
  %loadMem_4132e3 = load %struct.Memory*, %struct.Memory** %MEMORY
  %53 = getelementptr inbounds %struct.State, %struct.State* %0, i32 0, i32 6
  %54 = getelementptr inbounds %struct.GPR, %struct.GPR* %53, i32 0, i32 33
  %55 = getelementptr inbounds %struct.Reg, %struct.Reg* %54, i32 0, i32 0
  %PC.i37 = bitcast %union.anon* %55 to i64*
  %56 = getelementptr inbounds %struct.State, %struct.State* %0, i32 0, i32 6
  %57 = getelementptr inbounds %struct.GPR, %struct.GPR* %56, i32 0, i32 9
  %58 = getelementptr inbounds %struct.Reg, %struct.Reg* %57, i32 0, i32 0
  %RSI.i38 = bitcast %union.anon* %58 to i64*
  %59 = load i64, i64* %PC.i37
  %60 = add i64 %59, 5
  store i64 %60, i64* %PC.i37
  store i64 2, i64* %RSI.i38, align 8
  store %struct.Memory* %loadMem_4132e3, %struct.Memory** %MEMORY
  %loadMem_4132e8 = load %struct.Memory*, %struct.Memory** %MEMORY
  %61 = getelementptr inbounds %struct.State, %struct.State* %0, i32 0, i32 6
  %62 = getelementptr inbounds %struct.GPR, %struct.GPR* %61, i32 0, i32 33
  %63 = getelementptr inbounds %struct.Reg, %struct.Reg* %62, i32 0, i32 0
  %PC.i34 = bitcast %union.anon* %63 to i64*
  %64 = getelementptr inbounds %struct.State, %struct.State* %0, i32 0, i32 6
  %65 = getelementptr inbounds %struct.GPR, %struct.GPR* %64, i32 0, i32 11
  %66 = getelementptr inbounds %struct.Reg, %struct.Reg* %65, i32 0, i32 0
  %EDI.i35 = bitcast %union.anon* %66 to i32*
  %67 = getelementptr inbounds %struct.State, %struct.State* %0, i32 0, i32 6
  %68 = getelementptr inbounds %struct.GPR, %struct.GPR* %67, i32 0, i32 15
  %69 = getelementptr inbounds %struct.Reg, %struct.Reg* %68, i32 0, i32 0
  %RBP.i36 = bitcast %union.anon* %69 to i64*
  %70 = load i64, i64* %RBP.i36
  %71 = sub i64 %70, 4
  %72 = load i32, i32* %EDI.i35
  %73 = zext i32 %72 to i64
  %74 = load i64, i64* %PC.i34
  %75 = add i64 %74, 3
  store i64 %75, i64* %PC.i34
  %76 = inttoptr i64 %71 to i32*
  store i32 %72, i32* %76
  store %struct.Memory* %loadMem_4132e8, %struct.Memory** %MEMORY
  %loadMem_4132eb = load %struct.Memory*, %struct.Memory** %MEMORY
  %77 = getelementptr inbounds %struct.State, %struct.State* %0, i32 0, i32 6
  %78 = getelementptr inbounds %struct.GPR, %struct.GPR* %77, i32 0, i32 33
  %79 = getelementptr inbounds %struct.Reg, %struct.Reg* %78, i32 0, i32 0
  %PC.i32 = bitcast %union.anon* %79 to i64*
  %80 = getelementptr inbounds %struct.State, %struct.State* %0, i32 0, i32 6
  %81 = getelementptr inbounds %struct.GPR, %struct.GPR* %80, i32 0, i32 11
  %82 = getelementptr inbounds %struct.Reg, %struct.Reg* %81, i32 0, i32 0
  %RDI.i = bitcast %union.anon* %82 to i64*
  %83 = getelementptr inbounds %struct.State, %struct.State* %0, i32 0, i32 6
  %84 = getelementptr inbounds %struct.GPR, %struct.GPR* %83, i32 0, i32 15
  %85 = getelementptr inbounds %struct.Reg, %struct.Reg* %84, i32 0, i32 0
  %RBP.i33 = bitcast %union.anon* %85 to i64*
  %86 = load i64, i64* %RBP.i33
  %87 = sub i64 %86, 4
  %88 = load i64, i64* %PC.i32
  %89 = add i64 %88, 3
  store i64 %89, i64* %PC.i32
  %90 = inttoptr i64 %87 to i32*
  %91 = load i32, i32* %90
  %92 = zext i32 %91 to i64
  store i64 %92, i64* %RDI.i, align 8
  store %struct.Memory* %loadMem_4132eb, %struct.Memory** %MEMORY
  %loadMem_4132ee = load %struct.Memory*, %struct.Memory** %MEMORY
  %93 = getelementptr inbounds %struct.State, %struct.State* %0, i32 0, i32 6
  %94 = getelementptr inbounds %struct.GPR, %struct.GPR* %93, i32 0, i32 33
  %95 = getelementptr inbounds %struct.Reg, %struct.Reg* %94, i32 0, i32 0
  %PC.i30 = bitcast %union.anon* %95 to i64*
  %96 = getelementptr inbounds %struct.State, %struct.State* %0, i32 0, i32 6
  %97 = getelementptr inbounds %struct.GPR, %struct.GPR* %96, i32 0, i32 1
  %98 = getelementptr inbounds %struct.Reg, %struct.Reg* %97, i32 0, i32 0
  %EAX.i = bitcast %union.anon* %98 to i32*
  %99 = getelementptr inbounds %struct.State, %struct.State* %0, i32 0, i32 6
  %100 = getelementptr inbounds %struct.GPR, %struct.GPR* %99, i32 0, i32 15
  %101 = getelementptr inbounds %struct.Reg, %struct.Reg* %100, i32 0, i32 0
  %RBP.i31 = bitcast %union.anon* %101 to i64*
  %102 = load i64, i64* %RBP.i31
  %103 = sub i64 %102, 8
  %104 = load i32, i32* %EAX.i
  %105 = zext i32 %104 to i64
  %106 = load i64, i64* %PC.i30
  %107 = add i64 %106, 3
  store i64 %107, i64* %PC.i30
  %108 = inttoptr i64 %103 to i32*
  store i32 %104, i32* %108
  store %struct.Memory* %loadMem_4132ee, %struct.Memory** %MEMORY
  %loadMem_4132f1 = load %struct.Memory*, %struct.Memory** %MEMORY
  %109 = getelementptr inbounds %struct.State, %struct.State* %0, i32 0, i32 6
  %110 = getelementptr inbounds %struct.GPR, %struct.GPR* %109, i32 0, i32 33
  %111 = getelementptr inbounds %struct.Reg, %struct.Reg* %110, i32 0, i32 0
  %PC.i28 = bitcast %union.anon* %111 to i64*
  %112 = getelementptr inbounds %struct.State, %struct.State* %0, i32 0, i32 6
  %113 = getelementptr inbounds %struct.GPR, %struct.GPR* %112, i32 0, i32 11
  %114 = getelementptr inbounds %struct.Reg, %struct.Reg* %113, i32 0, i32 0
  %EDI.i = bitcast %union.anon* %114 to i32*
  %115 = getelementptr inbounds %struct.State, %struct.State* %0, i32 0, i32 6
  %116 = getelementptr inbounds %struct.GPR, %struct.GPR* %115, i32 0, i32 1
  %117 = getelementptr inbounds %struct.Reg, %struct.Reg* %116, i32 0, i32 0
  %RAX.i29 = bitcast %union.anon* %117 to i64*
  %118 = load i32, i32* %EDI.i
  %119 = zext i32 %118 to i64
  %120 = load i64, i64* %PC.i28
  %121 = add i64 %120, 2
  store i64 %121, i64* %PC.i28
  %122 = and i64 %119, 4294967295
  store i64 %122, i64* %RAX.i29, align 8
  store %struct.Memory* %loadMem_4132f1, %struct.Memory** %MEMORY
  %loadMem_4132f3 = load %struct.Memory*, %struct.Memory** %MEMORY
  %123 = getelementptr inbounds %struct.State, %struct.State* %0, i32 0, i32 6
  %124 = getelementptr inbounds %struct.GPR, %struct.GPR* %123, i32 0, i32 33
  %125 = getelementptr inbounds %struct.Reg, %struct.Reg* %124, i32 0, i32 0
  %PC.i26 = bitcast %union.anon* %125 to i64*
  %126 = getelementptr inbounds %struct.State, %struct.State* %0, i32 0, i32 6
  %127 = getelementptr inbounds %struct.GPR, %struct.GPR* %126, i32 0, i32 7
  %128 = getelementptr inbounds %struct.Reg, %struct.Reg* %127, i32 0, i32 0
  %EDX.i = bitcast %union.anon* %128 to i32*
  %129 = getelementptr inbounds %struct.State, %struct.State* %0, i32 0, i32 6
  %130 = getelementptr inbounds %struct.GPR, %struct.GPR* %129, i32 0, i32 15
  %131 = getelementptr inbounds %struct.Reg, %struct.Reg* %130, i32 0, i32 0
  %RBP.i27 = bitcast %union.anon* %131 to i64*
  %132 = load i64, i64* %RBP.i27
  %133 = sub i64 %132, 12
  %134 = load i32, i32* %EDX.i
  %135 = zext i32 %134 to i64
  %136 = load i64, i64* %PC.i26
  %137 = add i64 %136, 3
  store i64 %137, i64* %PC.i26
  %138 = inttoptr i64 %133 to i32*
  store i32 %134, i32* %138
  store %struct.Memory* %loadMem_4132f3, %struct.Memory** %MEMORY
  %loadMem_4132f6 = load %struct.Memory*, %struct.Memory** %MEMORY
  %139 = getelementptr inbounds %struct.State, %struct.State* %0, i32 0, i32 6
  %140 = getelementptr inbounds %struct.GPR, %struct.GPR* %139, i32 0, i32 33
  %141 = getelementptr inbounds %struct.Reg, %struct.Reg* %140, i32 0, i32 0
  %PC.i25 = bitcast %union.anon* %141 to i64*
  %142 = load i64, i64* %PC.i25
  %143 = add i64 %142, 1
  store i64 %143, i64* %PC.i25
  %144 = getelementptr inbounds %struct.State, %struct.State* %0, i64 0, i32 6, i32 7, i32 0, i32 0
  %145 = getelementptr inbounds %struct.State, %struct.State* %0, i64 0, i32 6, i32 1, i32 0
  %146 = bitcast %union.anon* %145 to i32*
  %147 = load i32, i32* %146, align 8
  %148 = sext i32 %147 to i64
  %149 = lshr i64 %148, 32
  store i64 %149, i64* %144, align 8
  store %struct.Memory* %loadMem_4132f6, %struct.Memory** %MEMORY
  %loadMem_4132f7 = load %struct.Memory*, %struct.Memory** %MEMORY
  %150 = getelementptr inbounds %struct.State, %struct.State* %0, i32 0, i32 6
  %151 = getelementptr inbounds %struct.GPR, %struct.GPR* %150, i32 0, i32 33
  %152 = getelementptr inbounds %struct.Reg, %struct.Reg* %151, i32 0, i32 0
  %PC.i21 = bitcast %union.anon* %152 to i64*
  %153 = getelementptr inbounds %struct.State, %struct.State* %0, i32 0, i32 6
  %154 = getelementptr inbounds %struct.GPR, %struct.GPR* %153, i32 0, i32 9
  %155 = getelementptr inbounds %struct.Reg, %struct.Reg* %154, i32 0, i32 0
  %ESI.i22 = bitcast %union.anon* %155 to i32*
  %156 = load i32, i32* %ESI.i22
  %157 = zext i32 %156 to i64
  %158 = load i64, i64* %PC.i21
  %159 = add i64 %158, 2
  store i64 %159, i64* %PC.i21
  %160 = getelementptr inbounds %struct.State, %struct.State* %0, i64 0, i32 6, i32 1, i32 0
  %161 = bitcast %union.anon* %160 to i32*
  %162 = load i32, i32* %161, align 8
  %163 = zext i32 %162 to i64
  %164 = getelementptr inbounds %struct.State, %struct.State* %0, i64 0, i32 6, i32 7, i32 0
  %165 = bitcast %union.anon* %164 to i32*
  %166 = load i32, i32* %165, align 8
  %167 = zext i32 %166 to i64
  %168 = shl i64 %157, 32
  %169 = ashr exact i64 %168, 32
  %170 = shl i64 %167, 32
  %171 = or i64 %170, %163
  %172 = sdiv i64 %171, %169
  %173 = shl i64 %172, 32
  %174 = ashr exact i64 %173, 32
  %175 = icmp eq i64 %172, %174
  br i1 %175, label %180, label %176

; <label>:176:                                    ; preds = %entry
  %177 = getelementptr inbounds %struct.State, %struct.State* %0, i64 0, i32 6, i32 33, i32 0, i32 0
  %178 = load i64, i64* %177, align 8
  %179 = call %struct.Memory* @__remill_error(%struct.State* nonnull dereferenceable(3376) %0, i64 %178, %struct.Memory* %loadMem_4132f7)
  br label %routine_idivl__esi.exit23

; <label>:180:                                    ; preds = %entry
  %181 = srem i64 %171, %169
  %182 = getelementptr inbounds %union.anon, %union.anon* %160, i64 0, i32 0
  %183 = and i64 %172, 4294967295
  store i64 %183, i64* %182, align 8
  %184 = getelementptr inbounds %union.anon, %union.anon* %164, i64 0, i32 0
  %185 = and i64 %181, 4294967295
  store i64 %185, i64* %184, align 8
  %186 = getelementptr inbounds %struct.State, %struct.State* %0, i64 0, i32 2, i32 1
  store i8 0, i8* %186, align 1
  %187 = getelementptr inbounds %struct.State, %struct.State* %0, i64 0, i32 2, i32 3
  store i8 0, i8* %187, align 1
  %188 = getelementptr inbounds %struct.State, %struct.State* %0, i64 0, i32 2, i32 5
  store i8 0, i8* %188, align 1
  %189 = getelementptr inbounds %struct.State, %struct.State* %0, i64 0, i32 2, i32 7
  store i8 0, i8* %189, align 1
  %190 = getelementptr inbounds %struct.State, %struct.State* %0, i64 0, i32 2, i32 9
  store i8 0, i8* %190, align 1
  %191 = getelementptr inbounds %struct.State, %struct.State* %0, i64 0, i32 2, i32 13
  store i8 0, i8* %191, align 1
  br label %routine_idivl__esi.exit23

routine_idivl__esi.exit23:                        ; preds = %176, %180
  %192 = phi %struct.Memory* [ %179, %176 ], [ %loadMem_4132f7, %180 ]
  store %struct.Memory* %192, %struct.Memory** %MEMORY
  %loadMem_4132f9 = load %struct.Memory*, %struct.Memory** %MEMORY
  %193 = getelementptr inbounds %struct.State, %struct.State* %0, i32 0, i32 6
  %194 = getelementptr inbounds %struct.GPR, %struct.GPR* %193, i32 0, i32 33
  %195 = getelementptr inbounds %struct.Reg, %struct.Reg* %194, i32 0, i32 0
  %PC.i20 = bitcast %union.anon* %195 to i64*
  %196 = load i64, i64* %PC.i20
  %197 = add i64 %196, 1
  store i64 %197, i64* %PC.i20
  %198 = getelementptr inbounds %struct.State, %struct.State* %0, i64 0, i32 6, i32 7, i32 0, i32 0
  %199 = getelementptr inbounds %struct.State, %struct.State* %0, i64 0, i32 6, i32 1, i32 0
  %200 = bitcast %union.anon* %199 to i32*
  %201 = load i32, i32* %200, align 8
  %202 = sext i32 %201 to i64
  %203 = lshr i64 %202, 32
  store i64 %203, i64* %198, align 8
  store %struct.Memory* %loadMem_4132f9, %struct.Memory** %MEMORY
  %loadMem_4132fa = load %struct.Memory*, %struct.Memory** %MEMORY
  %204 = getelementptr inbounds %struct.State, %struct.State* %0, i32 0, i32 6
  %205 = getelementptr inbounds %struct.GPR, %struct.GPR* %204, i32 0, i32 33
  %206 = getelementptr inbounds %struct.Reg, %struct.Reg* %205, i32 0, i32 0
  %PC.i18 = bitcast %union.anon* %206 to i64*
  %207 = getelementptr inbounds %struct.State, %struct.State* %0, i32 0, i32 6
  %208 = getelementptr inbounds %struct.GPR, %struct.GPR* %207, i32 0, i32 9
  %209 = getelementptr inbounds %struct.Reg, %struct.Reg* %208, i32 0, i32 0
  %RSI.i = bitcast %union.anon* %209 to i64*
  %210 = getelementptr inbounds %struct.State, %struct.State* %0, i32 0, i32 6
  %211 = getelementptr inbounds %struct.GPR, %struct.GPR* %210, i32 0, i32 15
  %212 = getelementptr inbounds %struct.Reg, %struct.Reg* %211, i32 0, i32 0
  %RBP.i19 = bitcast %union.anon* %212 to i64*
  %213 = load i64, i64* %RBP.i19
  %214 = sub i64 %213, 12
  %215 = load i64, i64* %PC.i18
  %216 = add i64 %215, 3
  store i64 %216, i64* %PC.i18
  %217 = inttoptr i64 %214 to i32*
  %218 = load i32, i32* %217
  %219 = zext i32 %218 to i64
  store i64 %219, i64* %RSI.i, align 8
  store %struct.Memory* %loadMem_4132fa, %struct.Memory** %MEMORY
  %loadMem_4132fd = load %struct.Memory*, %struct.Memory** %MEMORY
  %220 = getelementptr inbounds %struct.State, %struct.State* %0, i32 0, i32 6
  %221 = getelementptr inbounds %struct.GPR, %struct.GPR* %220, i32 0, i32 33
  %222 = getelementptr inbounds %struct.Reg, %struct.Reg* %221, i32 0, i32 0
  %PC.i15 = bitcast %union.anon* %222 to i64*
  %223 = getelementptr inbounds %struct.State, %struct.State* %0, i32 0, i32 6
  %224 = getelementptr inbounds %struct.GPR, %struct.GPR* %223, i32 0, i32 9
  %225 = getelementptr inbounds %struct.Reg, %struct.Reg* %224, i32 0, i32 0
  %ESI.i = bitcast %union.anon* %225 to i32*
  %226 = load i32, i32* %ESI.i
  %227 = zext i32 %226 to i64
  %228 = load i64, i64* %PC.i15
  %229 = add i64 %228, 2
  store i64 %229, i64* %PC.i15
  %230 = getelementptr inbounds %struct.State, %struct.State* %0, i64 0, i32 6, i32 1, i32 0
  %231 = bitcast %union.anon* %230 to i32*
  %232 = load i32, i32* %231, align 8
  %233 = zext i32 %232 to i64
  %234 = getelementptr inbounds %struct.State, %struct.State* %0, i64 0, i32 6, i32 7, i32 0
  %235 = bitcast %union.anon* %234 to i32*
  %236 = load i32, i32* %235, align 8
  %237 = zext i32 %236 to i64
  %238 = shl i64 %227, 32
  %239 = ashr exact i64 %238, 32
  %240 = shl i64 %237, 32
  %241 = or i64 %240, %233
  %242 = sdiv i64 %241, %239
  %243 = shl i64 %242, 32
  %244 = ashr exact i64 %243, 32
  %245 = icmp eq i64 %242, %244
  br i1 %245, label %250, label %246

; <label>:246:                                    ; preds = %routine_idivl__esi.exit23
  %247 = getelementptr inbounds %struct.State, %struct.State* %0, i64 0, i32 6, i32 33, i32 0, i32 0
  %248 = load i64, i64* %247, align 8
  %249 = call %struct.Memory* @__remill_error(%struct.State* nonnull dereferenceable(3376) %0, i64 %248, %struct.Memory* %loadMem_4132fd)
  br label %routine_idivl__esi.exit

; <label>:250:                                    ; preds = %routine_idivl__esi.exit23
  %251 = srem i64 %241, %239
  %252 = getelementptr inbounds %union.anon, %union.anon* %230, i64 0, i32 0
  %253 = and i64 %242, 4294967295
  store i64 %253, i64* %252, align 8
  %254 = getelementptr inbounds %union.anon, %union.anon* %234, i64 0, i32 0
  %255 = and i64 %251, 4294967295
  store i64 %255, i64* %254, align 8
  %256 = getelementptr inbounds %struct.State, %struct.State* %0, i64 0, i32 2, i32 1
  store i8 0, i8* %256, align 1
  %257 = getelementptr inbounds %struct.State, %struct.State* %0, i64 0, i32 2, i32 3
  store i8 0, i8* %257, align 1
  %258 = getelementptr inbounds %struct.State, %struct.State* %0, i64 0, i32 2, i32 5
  store i8 0, i8* %258, align 1
  %259 = getelementptr inbounds %struct.State, %struct.State* %0, i64 0, i32 2, i32 7
  store i8 0, i8* %259, align 1
  %260 = getelementptr inbounds %struct.State, %struct.State* %0, i64 0, i32 2, i32 9
  store i8 0, i8* %260, align 1
  %261 = getelementptr inbounds %struct.State, %struct.State* %0, i64 0, i32 2, i32 13
  store i8 0, i8* %261, align 1
  br label %routine_idivl__esi.exit

routine_idivl__esi.exit:                          ; preds = %246, %250
  %262 = phi %struct.Memory* [ %249, %246 ], [ %loadMem_4132fd, %250 ]
  store %struct.Memory* %262, %struct.Memory** %MEMORY
  %loadMem_4132ff = load %struct.Memory*, %struct.Memory** %MEMORY
  %263 = getelementptr inbounds %struct.State, %struct.State* %0, i32 0, i32 6
  %264 = getelementptr inbounds %struct.GPR, %struct.GPR* %263, i32 0, i32 33
  %265 = getelementptr inbounds %struct.Reg, %struct.Reg* %264, i32 0, i32 0
  %PC.i14 = bitcast %union.anon* %265 to i64*
  %266 = load i64, i64* %PC.i14
  %267 = add i64 %266, 1
  store i64 %267, i64* %PC.i14
  %268 = getelementptr inbounds %struct.State, %struct.State* %0, i64 0, i32 6, i32 7, i32 0, i32 0
  %269 = getelementptr inbounds %struct.State, %struct.State* %0, i64 0, i32 6, i32 1, i32 0
  %270 = bitcast %union.anon* %269 to i32*
  %271 = load i32, i32* %270, align 8
  %272 = sext i32 %271 to i64
  %273 = lshr i64 %272, 32
  store i64 %273, i64* %268, align 8
  store %struct.Memory* %loadMem_4132ff, %struct.Memory** %MEMORY
  %loadMem_413300 = load %struct.Memory*, %struct.Memory** %MEMORY
  %274 = getelementptr inbounds %struct.State, %struct.State* %0, i32 0, i32 6
  %275 = getelementptr inbounds %struct.GPR, %struct.GPR* %274, i32 0, i32 33
  %276 = getelementptr inbounds %struct.Reg, %struct.Reg* %275, i32 0, i32 0
  %PC.i10 = bitcast %union.anon* %276 to i64*
  %277 = getelementptr inbounds %struct.State, %struct.State* %0, i32 0, i32 6
  %278 = getelementptr inbounds %struct.GPR, %struct.GPR* %277, i32 0, i32 5
  %279 = getelementptr inbounds %struct.Reg, %struct.Reg* %278, i32 0, i32 0
  %ECX.i11 = bitcast %union.anon* %279 to i32*
  %280 = load i32, i32* %ECX.i11
  %281 = zext i32 %280 to i64
  %282 = load i64, i64* %PC.i10
  %283 = add i64 %282, 2
  store i64 %283, i64* %PC.i10
  %284 = getelementptr inbounds %struct.State, %struct.State* %0, i64 0, i32 6, i32 1, i32 0
  %285 = bitcast %union.anon* %284 to i32*
  %286 = load i32, i32* %285, align 8
  %287 = zext i32 %286 to i64
  %288 = getelementptr inbounds %struct.State, %struct.State* %0, i64 0, i32 6, i32 7, i32 0
  %289 = bitcast %union.anon* %288 to i32*
  %290 = load i32, i32* %289, align 8
  %291 = zext i32 %290 to i64
  %292 = shl i64 %281, 32
  %293 = ashr exact i64 %292, 32
  %294 = shl i64 %291, 32
  %295 = or i64 %294, %287
  %296 = sdiv i64 %295, %293
  %297 = shl i64 %296, 32
  %298 = ashr exact i64 %297, 32
  %299 = icmp eq i64 %296, %298
  br i1 %299, label %304, label %300

; <label>:300:                                    ; preds = %routine_idivl__esi.exit
  %301 = getelementptr inbounds %struct.State, %struct.State* %0, i64 0, i32 6, i32 33, i32 0, i32 0
  %302 = load i64, i64* %301, align 8
  %303 = call %struct.Memory* @__remill_error(%struct.State* nonnull dereferenceable(3376) %0, i64 %302, %struct.Memory* %loadMem_413300)
  br label %routine_idivl__ecx.exit12

; <label>:304:                                    ; preds = %routine_idivl__esi.exit
  %305 = srem i64 %295, %293
  %306 = getelementptr inbounds %union.anon, %union.anon* %284, i64 0, i32 0
  %307 = and i64 %296, 4294967295
  store i64 %307, i64* %306, align 8
  %308 = getelementptr inbounds %union.anon, %union.anon* %288, i64 0, i32 0
  %309 = and i64 %305, 4294967295
  store i64 %309, i64* %308, align 8
  %310 = getelementptr inbounds %struct.State, %struct.State* %0, i64 0, i32 2, i32 1
  store i8 0, i8* %310, align 1
  %311 = getelementptr inbounds %struct.State, %struct.State* %0, i64 0, i32 2, i32 3
  store i8 0, i8* %311, align 1
  %312 = getelementptr inbounds %struct.State, %struct.State* %0, i64 0, i32 2, i32 5
  store i8 0, i8* %312, align 1
  %313 = getelementptr inbounds %struct.State, %struct.State* %0, i64 0, i32 2, i32 7
  store i8 0, i8* %313, align 1
  %314 = getelementptr inbounds %struct.State, %struct.State* %0, i64 0, i32 2, i32 9
  store i8 0, i8* %314, align 1
  %315 = getelementptr inbounds %struct.State, %struct.State* %0, i64 0, i32 2, i32 13
  store i8 0, i8* %315, align 1
  br label %routine_idivl__ecx.exit12

routine_idivl__ecx.exit12:                        ; preds = %300, %304
  %316 = phi %struct.Memory* [ %303, %300 ], [ %loadMem_413300, %304 ]
  store %struct.Memory* %316, %struct.Memory** %MEMORY
  %loadMem_413302 = load %struct.Memory*, %struct.Memory** %MEMORY
  %317 = getelementptr inbounds %struct.State, %struct.State* %0, i32 0, i32 6
  %318 = getelementptr inbounds %struct.GPR, %struct.GPR* %317, i32 0, i32 33
  %319 = getelementptr inbounds %struct.Reg, %struct.Reg* %318, i32 0, i32 0
  %PC.i9 = bitcast %union.anon* %319 to i64*
  %320 = load i64, i64* %PC.i9
  %321 = add i64 %320, 1
  store i64 %321, i64* %PC.i9
  %322 = getelementptr inbounds %struct.State, %struct.State* %0, i64 0, i32 6, i32 7, i32 0, i32 0
  %323 = getelementptr inbounds %struct.State, %struct.State* %0, i64 0, i32 6, i32 1, i32 0
  %324 = bitcast %union.anon* %323 to i32*
  %325 = load i32, i32* %324, align 8
  %326 = sext i32 %325 to i64
  %327 = lshr i64 %326, 32
  store i64 %327, i64* %322, align 8
  store %struct.Memory* %loadMem_413302, %struct.Memory** %MEMORY
  %loadMem_413303 = load %struct.Memory*, %struct.Memory** %MEMORY
  %328 = getelementptr inbounds %struct.State, %struct.State* %0, i32 0, i32 6
  %329 = getelementptr inbounds %struct.GPR, %struct.GPR* %328, i32 0, i32 33
  %330 = getelementptr inbounds %struct.Reg, %struct.Reg* %329, i32 0, i32 0
  %PC.i7 = bitcast %union.anon* %330 to i64*
  %331 = getelementptr inbounds %struct.State, %struct.State* %0, i32 0, i32 6
  %332 = getelementptr inbounds %struct.GPR, %struct.GPR* %331, i32 0, i32 5
  %333 = getelementptr inbounds %struct.Reg, %struct.Reg* %332, i32 0, i32 0
  %RCX.i = bitcast %union.anon* %333 to i64*
  %334 = getelementptr inbounds %struct.State, %struct.State* %0, i32 0, i32 6
  %335 = getelementptr inbounds %struct.GPR, %struct.GPR* %334, i32 0, i32 15
  %336 = getelementptr inbounds %struct.Reg, %struct.Reg* %335, i32 0, i32 0
  %RBP.i8 = bitcast %union.anon* %336 to i64*
  %337 = load i64, i64* %RBP.i8
  %338 = sub i64 %337, 8
  %339 = load i64, i64* %PC.i7
  %340 = add i64 %339, 3
  store i64 %340, i64* %PC.i7
  %341 = inttoptr i64 %338 to i32*
  %342 = load i32, i32* %341
  %343 = zext i32 %342 to i64
  store i64 %343, i64* %RCX.i, align 8
  store %struct.Memory* %loadMem_413303, %struct.Memory** %MEMORY
  %loadMem_413306 = load %struct.Memory*, %struct.Memory** %MEMORY
  %344 = getelementptr inbounds %struct.State, %struct.State* %0, i32 0, i32 6
  %345 = getelementptr inbounds %struct.GPR, %struct.GPR* %344, i32 0, i32 33
  %346 = getelementptr inbounds %struct.Reg, %struct.Reg* %345, i32 0, i32 0
  %PC.i4 = bitcast %union.anon* %346 to i64*
  %347 = getelementptr inbounds %struct.State, %struct.State* %0, i32 0, i32 6
  %348 = getelementptr inbounds %struct.GPR, %struct.GPR* %347, i32 0, i32 5
  %349 = getelementptr inbounds %struct.Reg, %struct.Reg* %348, i32 0, i32 0
  %ECX.i = bitcast %union.anon* %349 to i32*
  %350 = load i32, i32* %ECX.i
  %351 = zext i32 %350 to i64
  %352 = load i64, i64* %PC.i4
  %353 = add i64 %352, 2
  store i64 %353, i64* %PC.i4
  %354 = getelementptr inbounds %struct.State, %struct.State* %0, i64 0, i32 6, i32 1, i32 0
  %355 = bitcast %union.anon* %354 to i32*
  %356 = load i32, i32* %355, align 8
  %357 = zext i32 %356 to i64
  %358 = getelementptr inbounds %struct.State, %struct.State* %0, i64 0, i32 6, i32 7, i32 0
  %359 = bitcast %union.anon* %358 to i32*
  %360 = load i32, i32* %359, align 8
  %361 = zext i32 %360 to i64
  %362 = shl i64 %351, 32
  %363 = ashr exact i64 %362, 32
  %364 = shl i64 %361, 32
  %365 = or i64 %364, %357
  %366 = sdiv i64 %365, %363
  %367 = shl i64 %366, 32
  %368 = ashr exact i64 %367, 32
  %369 = icmp eq i64 %366, %368
  br i1 %369, label %374, label %370

; <label>:370:                                    ; preds = %routine_idivl__ecx.exit12
  %371 = getelementptr inbounds %struct.State, %struct.State* %0, i64 0, i32 6, i32 33, i32 0, i32 0
  %372 = load i64, i64* %371, align 8
  %373 = call %struct.Memory* @__remill_error(%struct.State* nonnull dereferenceable(3376) %0, i64 %372, %struct.Memory* %loadMem_413306)
  br label %routine_idivl__ecx.exit

; <label>:374:                                    ; preds = %routine_idivl__ecx.exit12
  %375 = srem i64 %365, %363
  %376 = getelementptr inbounds %union.anon, %union.anon* %354, i64 0, i32 0
  %377 = and i64 %366, 4294967295
  store i64 %377, i64* %376, align 8
  %378 = getelementptr inbounds %union.anon, %union.anon* %358, i64 0, i32 0
  %379 = and i64 %375, 4294967295
  store i64 %379, i64* %378, align 8
  %380 = getelementptr inbounds %struct.State, %struct.State* %0, i64 0, i32 2, i32 1
  store i8 0, i8* %380, align 1
  %381 = getelementptr inbounds %struct.State, %struct.State* %0, i64 0, i32 2, i32 3
  store i8 0, i8* %381, align 1
  %382 = getelementptr inbounds %struct.State, %struct.State* %0, i64 0, i32 2, i32 5
  store i8 0, i8* %382, align 1
  %383 = getelementptr inbounds %struct.State, %struct.State* %0, i64 0, i32 2, i32 7
  store i8 0, i8* %383, align 1
  %384 = getelementptr inbounds %struct.State, %struct.State* %0, i64 0, i32 2, i32 9
  store i8 0, i8* %384, align 1
  %385 = getelementptr inbounds %struct.State, %struct.State* %0, i64 0, i32 2, i32 13
  store i8 0, i8* %385, align 1
  br label %routine_idivl__ecx.exit

routine_idivl__ecx.exit:                          ; preds = %370, %374
  %386 = phi %struct.Memory* [ %373, %370 ], [ %loadMem_413306, %374 ]
  store %struct.Memory* %386, %struct.Memory** %MEMORY
  %loadMem_413308 = load %struct.Memory*, %struct.Memory** %MEMORY
  %387 = getelementptr inbounds %struct.State, %struct.State* %0, i32 0, i32 6
  %388 = getelementptr inbounds %struct.GPR, %struct.GPR* %387, i32 0, i32 33
  %389 = getelementptr inbounds %struct.Reg, %struct.Reg* %388, i32 0, i32 0
  %PC.i2 = bitcast %union.anon* %389 to i64*
  %390 = getelementptr inbounds %struct.State, %struct.State* %0, i32 0, i32 6
  %391 = getelementptr inbounds %struct.GPR, %struct.GPR* %390, i32 0, i32 15
  %392 = getelementptr inbounds %struct.Reg, %struct.Reg* %391, i32 0, i32 0
  %RBP.i3 = bitcast %union.anon* %392 to i64*
  %393 = load i64, i64* %PC.i2
  %394 = add i64 %393, 1
  store i64 %394, i64* %PC.i2
  %395 = getelementptr inbounds %struct.State, %struct.State* %0, i64 0, i32 6, i32 13, i32 0, i32 0
  %396 = load i64, i64* %395, align 8
  %397 = add i64 %396, 8
  %398 = inttoptr i64 %396 to i64*
  %399 = load i64, i64* %398
  store i64 %399, i64* %RBP.i3, align 8
  store i64 %397, i64* %395, align 8
  store %struct.Memory* %loadMem_413308, %struct.Memory** %MEMORY
  %loadMem_413309 = load %struct.Memory*, %struct.Memory** %MEMORY
  %400 = getelementptr inbounds %struct.State, %struct.State* %0, i32 0, i32 6
  %401 = getelementptr inbounds %struct.GPR, %struct.GPR* %400, i32 0, i32 33
  %402 = getelementptr inbounds %struct.Reg, %struct.Reg* %401, i32 0, i32 0
  %PC.i1 = bitcast %union.anon* %402 to i64*
  %403 = load i64, i64* %PC.i1
  %404 = add i64 %403, 1
  store i64 %404, i64* %PC.i1
  %405 = getelementptr inbounds %struct.State, %struct.State* %0, i64 0, i32 6, i32 33, i32 0, i32 0
  %406 = getelementptr inbounds %struct.State, %struct.State* %0, i64 0, i32 6, i32 13, i32 0, i32 0
  %407 = load i64, i64* %406, align 8
  %408 = inttoptr i64 %407 to i64*
  %409 = load i64, i64* %408
  store i64 %409, i64* %405, align 8
  %410 = add i64 %407, 8
  store i64 %410, i64* %406, align 8
  store %struct.Memory* %loadMem_413309, %struct.Memory** %MEMORY
  ret %struct.Memory* %loadMem_413309
}

define %struct.Memory* @routine_pushq__rbp(%struct.State* dereferenceable(3376), i64, %struct.Memory*) {
block_400478:
  %3 = getelementptr inbounds %struct.State, %struct.State* %0, i32 0, i32 6
  %4 = getelementptr inbounds %struct.GPR, %struct.GPR* %3, i32 0, i32 33
  %5 = getelementptr inbounds %struct.Reg, %struct.Reg* %4, i32 0, i32 0
  %PC = bitcast %union.anon* %5 to i64*
  %6 = getelementptr inbounds %struct.State, %struct.State* %0, i32 0, i32 6
  %7 = getelementptr inbounds %struct.GPR, %struct.GPR* %6, i32 0, i32 15
  %8 = getelementptr inbounds %struct.Reg, %struct.Reg* %7, i32 0, i32 0
  %RBP = bitcast %union.anon* %8 to i64*
  %9 = load i64, i64* %RBP
  %10 = load i64, i64* %PC
  %11 = add i64 %10, 1
  store i64 %11, i64* %PC
  %12 = getelementptr inbounds %struct.State, %struct.State* %0, i64 0, i32 6, i32 13, i32 0, i32 0
  %13 = load i64, i64* %12, align 8
  %14 = add i64 %13, -8
  %15 = inttoptr i64 %14 to i64*
  store i64 %9, i64* %15
  store i64 %14, i64* %12, align 8
  ret %struct.Memory* %2
}

define %struct.Memory* @routine_movq__rsp___rbp(%struct.State* dereferenceable(3376), i64, %struct.Memory*) {
block_400478:
  %3 = getelementptr inbounds %struct.State, %struct.State* %0, i32 0, i32 6
  %4 = getelementptr inbounds %struct.GPR, %struct.GPR* %3, i32 0, i32 33
  %5 = getelementptr inbounds %struct.Reg, %struct.Reg* %4, i32 0, i32 0
  %PC = bitcast %union.anon* %5 to i64*
  %6 = getelementptr inbounds %struct.State, %struct.State* %0, i32 0, i32 6
  %7 = getelementptr inbounds %struct.GPR, %struct.GPR* %6, i32 0, i32 13
  %8 = getelementptr inbounds %struct.Reg, %struct.Reg* %7, i32 0, i32 0
  %RSP = bitcast %union.anon* %8 to i64*
  %9 = getelementptr inbounds %struct.State, %struct.State* %0, i32 0, i32 6
  %10 = getelementptr inbounds %struct.GPR, %struct.GPR* %9, i32 0, i32 15
  %11 = getelementptr inbounds %struct.Reg, %struct.Reg* %10, i32 0, i32 0
  %RBP = bitcast %union.anon* %11 to i64*
  %12 = load i64, i64* %RSP
  %13 = load i64, i64* %PC
  %14 = add i64 %13, 3
  store i64 %14, i64* %PC
  store i64 %12, i64* %RBP, align 8
  ret %struct.Memory* %2
}

define %struct.Memory* @routine_movl__0x5___eax(%struct.State* dereferenceable(3376), i64, %struct.Memory*) {
block_400478:
  %3 = getelementptr inbounds %struct.State, %struct.State* %0, i32 0, i32 6
  %4 = getelementptr inbounds %struct.GPR, %struct.GPR* %3, i32 0, i32 33
  %5 = getelementptr inbounds %struct.Reg, %struct.Reg* %4, i32 0, i32 0
  %PC = bitcast %union.anon* %5 to i64*
  %6 = getelementptr inbounds %struct.State, %struct.State* %0, i32 0, i32 6
  %7 = getelementptr inbounds %struct.GPR, %struct.GPR* %6, i32 0, i32 1
  %8 = getelementptr inbounds %struct.Reg, %struct.Reg* %7, i32 0, i32 0
  %RAX = bitcast %union.anon* %8 to i64*
  %9 = load i64, i64* %PC
  %10 = add i64 %9, 5
  store i64 %10, i64* %PC
  store i64 5, i64* %RAX, align 8
  ret %struct.Memory* %2
}

define %struct.Memory* @routine_movl__0x4___ecx(%struct.State* dereferenceable(3376), i64, %struct.Memory*) {
block_400478:
  %3 = getelementptr inbounds %struct.State, %struct.State* %0, i32 0, i32 6
  %4 = getelementptr inbounds %struct.GPR, %struct.GPR* %3, i32 0, i32 33
  %5 = getelementptr inbounds %struct.Reg, %struct.Reg* %4, i32 0, i32 0
  %PC = bitcast %union.anon* %5 to i64*
  %6 = getelementptr inbounds %struct.State, %struct.State* %0, i32 0, i32 6
  %7 = getelementptr inbounds %struct.GPR, %struct.GPR* %6, i32 0, i32 5
  %8 = getelementptr inbounds %struct.Reg, %struct.Reg* %7, i32 0, i32 0
  %RCX = bitcast %union.anon* %8 to i64*
  %9 = load i64, i64* %PC
  %10 = add i64 %9, 5
  store i64 %10, i64* %PC
  store i64 4, i64* %RCX, align 8
  ret %struct.Memory* %2
}

define %struct.Memory* @routine_movl__0x3___edx(%struct.State* dereferenceable(3376), i64, %struct.Memory*) {
block_400478:
  %3 = getelementptr inbounds %struct.State, %struct.State* %0, i32 0, i32 6
  %4 = getelementptr inbounds %struct.GPR, %struct.GPR* %3, i32 0, i32 33
  %5 = getelementptr inbounds %struct.Reg, %struct.Reg* %4, i32 0, i32 0
  %PC = bitcast %union.anon* %5 to i64*
  %6 = getelementptr inbounds %struct.State, %struct.State* %0, i32 0, i32 6
  %7 = getelementptr inbounds %struct.GPR, %struct.GPR* %6, i32 0, i32 7
  %8 = getelementptr inbounds %struct.Reg, %struct.Reg* %7, i32 0, i32 0
  %RDX = bitcast %union.anon* %8 to i64*
  %9 = load i64, i64* %PC
  %10 = add i64 %9, 5
  store i64 %10, i64* %PC
  store i64 3, i64* %RDX, align 8
  ret %struct.Memory* %2
}

define %struct.Memory* @routine_movl__0x2___esi(%struct.State* dereferenceable(3376), i64, %struct.Memory*) {
block_400478:
  %3 = getelementptr inbounds %struct.State, %struct.State* %0, i32 0, i32 6
  %4 = getelementptr inbounds %struct.GPR, %struct.GPR* %3, i32 0, i32 33
  %5 = getelementptr inbounds %struct.Reg, %struct.Reg* %4, i32 0, i32 0
  %PC = bitcast %union.anon* %5 to i64*
  %6 = getelementptr inbounds %struct.State, %struct.State* %0, i32 0, i32 6
  %7 = getelementptr inbounds %struct.GPR, %struct.GPR* %6, i32 0, i32 9
  %8 = getelementptr inbounds %struct.Reg, %struct.Reg* %7, i32 0, i32 0
  %RSI = bitcast %union.anon* %8 to i64*
  %9 = load i64, i64* %PC
  %10 = add i64 %9, 5
  store i64 %10, i64* %PC
  store i64 2, i64* %RSI, align 8
  ret %struct.Memory* %2
}

define %struct.Memory* @routine_movl__edi__MINUS0x4__rbp_(%struct.State* dereferenceable(3376), i64, %struct.Memory*) {
block_400478:
  %3 = getelementptr inbounds %struct.State, %struct.State* %0, i32 0, i32 6
  %4 = getelementptr inbounds %struct.GPR, %struct.GPR* %3, i32 0, i32 33
  %5 = getelementptr inbounds %struct.Reg, %struct.Reg* %4, i32 0, i32 0
  %PC = bitcast %union.anon* %5 to i64*
  %6 = getelementptr inbounds %struct.State, %struct.State* %0, i32 0, i32 6
  %7 = getelementptr inbounds %struct.GPR, %struct.GPR* %6, i32 0, i32 11
  %8 = getelementptr inbounds %struct.Reg, %struct.Reg* %7, i32 0, i32 0
  %EDI = bitcast %union.anon* %8 to i32*
  %9 = getelementptr inbounds %struct.State, %struct.State* %0, i32 0, i32 6
  %10 = getelementptr inbounds %struct.GPR, %struct.GPR* %9, i32 0, i32 15
  %11 = getelementptr inbounds %struct.Reg, %struct.Reg* %10, i32 0, i32 0
  %RBP = bitcast %union.anon* %11 to i64*
  %12 = load i64, i64* %RBP
  %13 = sub i64 %12, 4
  %14 = load i32, i32* %EDI
  %15 = zext i32 %14 to i64
  %16 = load i64, i64* %PC
  %17 = add i64 %16, 3
  store i64 %17, i64* %PC
  %18 = inttoptr i64 %13 to i32*
  store i32 %14, i32* %18
  ret %struct.Memory* %2
}

define %struct.Memory* @routine_movl_MINUS0x4__rbp____edi(%struct.State* dereferenceable(3376), i64, %struct.Memory*) {
block_400478:
  %3 = getelementptr inbounds %struct.State, %struct.State* %0, i32 0, i32 6
  %4 = getelementptr inbounds %struct.GPR, %struct.GPR* %3, i32 0, i32 33
  %5 = getelementptr inbounds %struct.Reg, %struct.Reg* %4, i32 0, i32 0
  %PC = bitcast %union.anon* %5 to i64*
  %6 = getelementptr inbounds %struct.State, %struct.State* %0, i32 0, i32 6
  %7 = getelementptr inbounds %struct.GPR, %struct.GPR* %6, i32 0, i32 11
  %8 = getelementptr inbounds %struct.Reg, %struct.Reg* %7, i32 0, i32 0
  %RDI = bitcast %union.anon* %8 to i64*
  %9 = getelementptr inbounds %struct.State, %struct.State* %0, i32 0, i32 6
  %10 = getelementptr inbounds %struct.GPR, %struct.GPR* %9, i32 0, i32 15
  %11 = getelementptr inbounds %struct.Reg, %struct.Reg* %10, i32 0, i32 0
  %RBP = bitcast %union.anon* %11 to i64*
  %12 = load i64, i64* %RBP
  %13 = sub i64 %12, 4
  %14 = load i64, i64* %PC
  %15 = add i64 %14, 3
  store i64 %15, i64* %PC
  %16 = inttoptr i64 %13 to i32*
  %17 = load i32, i32* %16
  %18 = zext i32 %17 to i64
  store i64 %18, i64* %RDI, align 8
  ret %struct.Memory* %2
}

define %struct.Memory* @routine_movl__eax__MINUS0x8__rbp_(%struct.State* dereferenceable(3376), i64, %struct.Memory*) {
block_400478:
  %3 = getelementptr inbounds %struct.State, %struct.State* %0, i32 0, i32 6
  %4 = getelementptr inbounds %struct.GPR, %struct.GPR* %3, i32 0, i32 33
  %5 = getelementptr inbounds %struct.Reg, %struct.Reg* %4, i32 0, i32 0
  %PC = bitcast %union.anon* %5 to i64*
  %6 = getelementptr inbounds %struct.State, %struct.State* %0, i32 0, i32 6
  %7 = getelementptr inbounds %struct.GPR, %struct.GPR* %6, i32 0, i32 1
  %8 = getelementptr inbounds %struct.Reg, %struct.Reg* %7, i32 0, i32 0
  %EAX = bitcast %union.anon* %8 to i32*
  %9 = getelementptr inbounds %struct.State, %struct.State* %0, i32 0, i32 6
  %10 = getelementptr inbounds %struct.GPR, %struct.GPR* %9, i32 0, i32 15
  %11 = getelementptr inbounds %struct.Reg, %struct.Reg* %10, i32 0, i32 0
  %RBP = bitcast %union.anon* %11 to i64*
  %12 = load i64, i64* %RBP
  %13 = sub i64 %12, 8
  %14 = load i32, i32* %EAX
  %15 = zext i32 %14 to i64
  %16 = load i64, i64* %PC
  %17 = add i64 %16, 3
  store i64 %17, i64* %PC
  %18 = inttoptr i64 %13 to i32*
  store i32 %14, i32* %18
  ret %struct.Memory* %2
}

define %struct.Memory* @routine_movl__edi___eax(%struct.State* dereferenceable(3376), i64, %struct.Memory*) {
block_400478:
  %3 = getelementptr inbounds %struct.State, %struct.State* %0, i32 0, i32 6
  %4 = getelementptr inbounds %struct.GPR, %struct.GPR* %3, i32 0, i32 33
  %5 = getelementptr inbounds %struct.Reg, %struct.Reg* %4, i32 0, i32 0
  %PC = bitcast %union.anon* %5 to i64*
  %6 = getelementptr inbounds %struct.State, %struct.State* %0, i32 0, i32 6
  %7 = getelementptr inbounds %struct.GPR, %struct.GPR* %6, i32 0, i32 11
  %8 = getelementptr inbounds %struct.Reg, %struct.Reg* %7, i32 0, i32 0
  %EDI = bitcast %union.anon* %8 to i32*
  %9 = getelementptr inbounds %struct.State, %struct.State* %0, i32 0, i32 6
  %10 = getelementptr inbounds %struct.GPR, %struct.GPR* %9, i32 0, i32 1
  %11 = getelementptr inbounds %struct.Reg, %struct.Reg* %10, i32 0, i32 0
  %RAX = bitcast %union.anon* %11 to i64*
  %12 = load i32, i32* %EDI
  %13 = zext i32 %12 to i64
  %14 = load i64, i64* %PC
  %15 = add i64 %14, 2
  store i64 %15, i64* %PC
  %16 = and i64 %13, 4294967295
  store i64 %16, i64* %RAX, align 8
  ret %struct.Memory* %2
}

define %struct.Memory* @routine_movl__edx__MINUS0xc__rbp_(%struct.State* dereferenceable(3376), i64, %struct.Memory*) {
block_400478:
  %3 = getelementptr inbounds %struct.State, %struct.State* %0, i32 0, i32 6
  %4 = getelementptr inbounds %struct.GPR, %struct.GPR* %3, i32 0, i32 33
  %5 = getelementptr inbounds %struct.Reg, %struct.Reg* %4, i32 0, i32 0
  %PC = bitcast %union.anon* %5 to i64*
  %6 = getelementptr inbounds %struct.State, %struct.State* %0, i32 0, i32 6
  %7 = getelementptr inbounds %struct.GPR, %struct.GPR* %6, i32 0, i32 7
  %8 = getelementptr inbounds %struct.Reg, %struct.Reg* %7, i32 0, i32 0
  %EDX = bitcast %union.anon* %8 to i32*
  %9 = getelementptr inbounds %struct.State, %struct.State* %0, i32 0, i32 6
  %10 = getelementptr inbounds %struct.GPR, %struct.GPR* %9, i32 0, i32 15
  %11 = getelementptr inbounds %struct.Reg, %struct.Reg* %10, i32 0, i32 0
  %RBP = bitcast %union.anon* %11 to i64*
  %12 = load i64, i64* %RBP
  %13 = sub i64 %12, 12
  %14 = load i32, i32* %EDX
  %15 = zext i32 %14 to i64
  %16 = load i64, i64* %PC
  %17 = add i64 %16, 3
  store i64 %17, i64* %PC
  %18 = inttoptr i64 %13 to i32*
  store i32 %14, i32* %18
  ret %struct.Memory* %2
}

define %struct.Memory* @routine_cltd(%struct.State* dereferenceable(3376), i64, %struct.Memory*) {
block_400478:
  %3 = getelementptr inbounds %struct.State, %struct.State* %0, i32 0, i32 6
  %4 = getelementptr inbounds %struct.GPR, %struct.GPR* %3, i32 0, i32 33
  %5 = getelementptr inbounds %struct.Reg, %struct.Reg* %4, i32 0, i32 0
  %PC = bitcast %union.anon* %5 to i64*
  %6 = load i64, i64* %PC
  %7 = add i64 %6, 1
  store i64 %7, i64* %PC
  %8 = getelementptr inbounds %struct.State, %struct.State* %0, i64 0, i32 6, i32 7, i32 0, i32 0
  %9 = getelementptr inbounds %struct.State, %struct.State* %0, i64 0, i32 6, i32 1, i32 0
  %10 = bitcast %union.anon* %9 to i32*
  %11 = load i32, i32* %10, align 8
  %12 = sext i32 %11 to i64
  %13 = lshr i64 %12, 32
  store i64 %13, i64* %8, align 8
  ret %struct.Memory* %2
}

define %struct.Memory* @routine_idivl__esi(%struct.State* dereferenceable(3376), i64, %struct.Memory*) {
block_400478:
  %3 = getelementptr inbounds %struct.State, %struct.State* %0, i32 0, i32 6
  %4 = getelementptr inbounds %struct.GPR, %struct.GPR* %3, i32 0, i32 33
  %5 = getelementptr inbounds %struct.Reg, %struct.Reg* %4, i32 0, i32 0
  %PC = bitcast %union.anon* %5 to i64*
  %6 = getelementptr inbounds %struct.State, %struct.State* %0, i32 0, i32 6
  %7 = getelementptr inbounds %struct.GPR, %struct.GPR* %6, i32 0, i32 9
  %8 = getelementptr inbounds %struct.Reg, %struct.Reg* %7, i32 0, i32 0
  %ESI = bitcast %union.anon* %8 to i32*
  %9 = load i32, i32* %ESI
  %10 = zext i32 %9 to i64
  %11 = load i64, i64* %PC
  %12 = add i64 %11, 2
  store i64 %12, i64* %PC
  %13 = getelementptr inbounds %struct.State, %struct.State* %0, i64 0, i32 6, i32 1, i32 0
  %14 = bitcast %union.anon* %13 to i32*
  %15 = load i32, i32* %14, align 8
  %16 = zext i32 %15 to i64
  %17 = getelementptr inbounds %struct.State, %struct.State* %0, i64 0, i32 6, i32 7, i32 0
  %18 = bitcast %union.anon* %17 to i32*
  %19 = load i32, i32* %18, align 8
  %20 = zext i32 %19 to i64
  %21 = shl i64 %10, 32
  %22 = ashr exact i64 %21, 32
  %23 = shl i64 %20, 32
  %24 = or i64 %23, %16
  %25 = sdiv i64 %24, %22
  %26 = shl i64 %25, 32
  %27 = ashr exact i64 %26, 32
  %28 = icmp eq i64 %25, %27
  br i1 %28, label %33, label %29

; <label>:29:                                     ; preds = %block_400478
  %30 = getelementptr inbounds %struct.State, %struct.State* %0, i64 0, i32 6, i32 33, i32 0, i32 0
  %31 = load i64, i64* %30, align 8
  %32 = call %struct.Memory* @__remill_error(%struct.State* nonnull dereferenceable(3376) %0, i64 %31, %struct.Memory* %2)
  br label %_ZN12_GLOBAL__N_1L10IDIVedxeaxI2RnIjEEEP6MemoryS4_R5StateT_.exit

; <label>:33:                                     ; preds = %block_400478
  %34 = srem i64 %24, %22
  %35 = getelementptr inbounds %union.anon, %union.anon* %13, i64 0, i32 0
  %36 = and i64 %25, 4294967295
  store i64 %36, i64* %35, align 8
  %37 = getelementptr inbounds %union.anon, %union.anon* %17, i64 0, i32 0
  %38 = and i64 %34, 4294967295
  store i64 %38, i64* %37, align 8
  %39 = getelementptr inbounds %struct.State, %struct.State* %0, i64 0, i32 2, i32 1
  store i8 0, i8* %39, align 1
  %40 = getelementptr inbounds %struct.State, %struct.State* %0, i64 0, i32 2, i32 3
  store i8 0, i8* %40, align 1
  %41 = getelementptr inbounds %struct.State, %struct.State* %0, i64 0, i32 2, i32 5
  store i8 0, i8* %41, align 1
  %42 = getelementptr inbounds %struct.State, %struct.State* %0, i64 0, i32 2, i32 7
  store i8 0, i8* %42, align 1
  %43 = getelementptr inbounds %struct.State, %struct.State* %0, i64 0, i32 2, i32 9
  store i8 0, i8* %43, align 1
  %44 = getelementptr inbounds %struct.State, %struct.State* %0, i64 0, i32 2, i32 13
  store i8 0, i8* %44, align 1
  br label %_ZN12_GLOBAL__N_1L10IDIVedxeaxI2RnIjEEEP6MemoryS4_R5StateT_.exit

_ZN12_GLOBAL__N_1L10IDIVedxeaxI2RnIjEEEP6MemoryS4_R5StateT_.exit: ; preds = %29, %33
  %45 = phi %struct.Memory* [ %32, %29 ], [ %2, %33 ]
  ret %struct.Memory* %45
}

define %struct.Memory* @routine_movl_MINUS0xc__rbp____esi(%struct.State* dereferenceable(3376), i64, %struct.Memory*) {
block_400478:
  %3 = getelementptr inbounds %struct.State, %struct.State* %0, i32 0, i32 6
  %4 = getelementptr inbounds %struct.GPR, %struct.GPR* %3, i32 0, i32 33
  %5 = getelementptr inbounds %struct.Reg, %struct.Reg* %4, i32 0, i32 0
  %PC = bitcast %union.anon* %5 to i64*
  %6 = getelementptr inbounds %struct.State, %struct.State* %0, i32 0, i32 6
  %7 = getelementptr inbounds %struct.GPR, %struct.GPR* %6, i32 0, i32 9
  %8 = getelementptr inbounds %struct.Reg, %struct.Reg* %7, i32 0, i32 0
  %RSI = bitcast %union.anon* %8 to i64*
  %9 = getelementptr inbounds %struct.State, %struct.State* %0, i32 0, i32 6
  %10 = getelementptr inbounds %struct.GPR, %struct.GPR* %9, i32 0, i32 15
  %11 = getelementptr inbounds %struct.Reg, %struct.Reg* %10, i32 0, i32 0
  %RBP = bitcast %union.anon* %11 to i64*
  %12 = load i64, i64* %RBP
  %13 = sub i64 %12, 12
  %14 = load i64, i64* %PC
  %15 = add i64 %14, 3
  store i64 %15, i64* %PC
  %16 = inttoptr i64 %13 to i32*
  %17 = load i32, i32* %16
  %18 = zext i32 %17 to i64
  store i64 %18, i64* %RSI, align 8
  ret %struct.Memory* %2
}

define %struct.Memory* @routine_idivl__ecx(%struct.State* dereferenceable(3376), i64, %struct.Memory*) {
block_400478:
  %3 = getelementptr inbounds %struct.State, %struct.State* %0, i32 0, i32 6
  %4 = getelementptr inbounds %struct.GPR, %struct.GPR* %3, i32 0, i32 33
  %5 = getelementptr inbounds %struct.Reg, %struct.Reg* %4, i32 0, i32 0
  %PC = bitcast %union.anon* %5 to i64*
  %6 = getelementptr inbounds %struct.State, %struct.State* %0, i32 0, i32 6
  %7 = getelementptr inbounds %struct.GPR, %struct.GPR* %6, i32 0, i32 5
  %8 = getelementptr inbounds %struct.Reg, %struct.Reg* %7, i32 0, i32 0
  %ECX = bitcast %union.anon* %8 to i32*
  %9 = load i32, i32* %ECX
  %10 = zext i32 %9 to i64
  %11 = load i64, i64* %PC
  %12 = add i64 %11, 2
  store i64 %12, i64* %PC
  %13 = getelementptr inbounds %struct.State, %struct.State* %0, i64 0, i32 6, i32 1, i32 0
  %14 = bitcast %union.anon* %13 to i32*
  %15 = load i32, i32* %14, align 8
  %16 = zext i32 %15 to i64
  %17 = getelementptr inbounds %struct.State, %struct.State* %0, i64 0, i32 6, i32 7, i32 0
  %18 = bitcast %union.anon* %17 to i32*
  %19 = load i32, i32* %18, align 8
  %20 = zext i32 %19 to i64
  %21 = shl i64 %10, 32
  %22 = ashr exact i64 %21, 32
  %23 = shl i64 %20, 32
  %24 = or i64 %23, %16
  %25 = sdiv i64 %24, %22
  %26 = shl i64 %25, 32
  %27 = ashr exact i64 %26, 32
  %28 = icmp eq i64 %25, %27
  br i1 %28, label %33, label %29

; <label>:29:                                     ; preds = %block_400478
  %30 = getelementptr inbounds %struct.State, %struct.State* %0, i64 0, i32 6, i32 33, i32 0, i32 0
  %31 = load i64, i64* %30, align 8
  %32 = call %struct.Memory* @__remill_error(%struct.State* nonnull dereferenceable(3376) %0, i64 %31, %struct.Memory* %2)
  br label %_ZN12_GLOBAL__N_1L10IDIVedxeaxI2RnIjEEEP6MemoryS4_R5StateT_.exit

; <label>:33:                                     ; preds = %block_400478
  %34 = srem i64 %24, %22
  %35 = getelementptr inbounds %union.anon, %union.anon* %13, i64 0, i32 0
  %36 = and i64 %25, 4294967295
  store i64 %36, i64* %35, align 8
  %37 = getelementptr inbounds %union.anon, %union.anon* %17, i64 0, i32 0
  %38 = and i64 %34, 4294967295
  store i64 %38, i64* %37, align 8
  %39 = getelementptr inbounds %struct.State, %struct.State* %0, i64 0, i32 2, i32 1
  store i8 0, i8* %39, align 1
  %40 = getelementptr inbounds %struct.State, %struct.State* %0, i64 0, i32 2, i32 3
  store i8 0, i8* %40, align 1
  %41 = getelementptr inbounds %struct.State, %struct.State* %0, i64 0, i32 2, i32 5
  store i8 0, i8* %41, align 1
  %42 = getelementptr inbounds %struct.State, %struct.State* %0, i64 0, i32 2, i32 7
  store i8 0, i8* %42, align 1
  %43 = getelementptr inbounds %struct.State, %struct.State* %0, i64 0, i32 2, i32 9
  store i8 0, i8* %43, align 1
  %44 = getelementptr inbounds %struct.State, %struct.State* %0, i64 0, i32 2, i32 13
  store i8 0, i8* %44, align 1
  br label %_ZN12_GLOBAL__N_1L10IDIVedxeaxI2RnIjEEEP6MemoryS4_R5StateT_.exit

_ZN12_GLOBAL__N_1L10IDIVedxeaxI2RnIjEEEP6MemoryS4_R5StateT_.exit: ; preds = %29, %33
  %45 = phi %struct.Memory* [ %32, %29 ], [ %2, %33 ]
  ret %struct.Memory* %45
}

define %struct.Memory* @routine_movl_MINUS0x8__rbp____ecx(%struct.State* dereferenceable(3376), i64, %struct.Memory*) {
block_400478:
  %3 = getelementptr inbounds %struct.State, %struct.State* %0, i32 0, i32 6
  %4 = getelementptr inbounds %struct.GPR, %struct.GPR* %3, i32 0, i32 33
  %5 = getelementptr inbounds %struct.Reg, %struct.Reg* %4, i32 0, i32 0
  %PC = bitcast %union.anon* %5 to i64*
  %6 = getelementptr inbounds %struct.State, %struct.State* %0, i32 0, i32 6
  %7 = getelementptr inbounds %struct.GPR, %struct.GPR* %6, i32 0, i32 5
  %8 = getelementptr inbounds %struct.Reg, %struct.Reg* %7, i32 0, i32 0
  %RCX = bitcast %union.anon* %8 to i64*
  %9 = getelementptr inbounds %struct.State, %struct.State* %0, i32 0, i32 6
  %10 = getelementptr inbounds %struct.GPR, %struct.GPR* %9, i32 0, i32 15
  %11 = getelementptr inbounds %struct.Reg, %struct.Reg* %10, i32 0, i32 0
  %RBP = bitcast %union.anon* %11 to i64*
  %12 = load i64, i64* %RBP
  %13 = sub i64 %12, 8
  %14 = load i64, i64* %PC
  %15 = add i64 %14, 3
  store i64 %15, i64* %PC
  %16 = inttoptr i64 %13 to i32*
  %17 = load i32, i32* %16
  %18 = zext i32 %17 to i64
  store i64 %18, i64* %RCX, align 8
  ret %struct.Memory* %2
}

define %struct.Memory* @routine_popq__rbp(%struct.State* dereferenceable(3376), i64, %struct.Memory*) {
block_400478:
  %3 = getelementptr inbounds %struct.State, %struct.State* %0, i32 0, i32 6
  %4 = getelementptr inbounds %struct.GPR, %struct.GPR* %3, i32 0, i32 33
  %5 = getelementptr inbounds %struct.Reg, %struct.Reg* %4, i32 0, i32 0
  %PC = bitcast %union.anon* %5 to i64*
  %6 = getelementptr inbounds %struct.State, %struct.State* %0, i32 0, i32 6
  %7 = getelementptr inbounds %struct.GPR, %struct.GPR* %6, i32 0, i32 15
  %8 = getelementptr inbounds %struct.Reg, %struct.Reg* %7, i32 0, i32 0
  %RBP = bitcast %union.anon* %8 to i64*
  %9 = load i64, i64* %PC
  %10 = add i64 %9, 1
  store i64 %10, i64* %PC
  %11 = getelementptr inbounds %struct.State, %struct.State* %0, i64 0, i32 6, i32 13, i32 0, i32 0
  %12 = load i64, i64* %11, align 8
  %13 = add i64 %12, 8
  %14 = inttoptr i64 %12 to i64*
  %15 = load i64, i64* %14
  store i64 %15, i64* %RBP, align 8
  store i64 %13, i64* %11, align 8
  ret %struct.Memory* %2
}

define %struct.Memory* @routine_retq(%struct.State* dereferenceable(3376), i64, %struct.Memory*) {
block_400478:
  %3 = getelementptr inbounds %struct.State, %struct.State* %0, i32 0, i32 6
  %4 = getelementptr inbounds %struct.GPR, %struct.GPR* %3, i32 0, i32 33
  %5 = getelementptr inbounds %struct.Reg, %struct.Reg* %4, i32 0, i32 0
  %PC = bitcast %union.anon* %5 to i64*
  %6 = load i64, i64* %PC
  %7 = add i64 %6, 1
  store i64 %7, i64* %PC
  %8 = getelementptr inbounds %struct.State, %struct.State* %0, i64 0, i32 6, i32 33, i32 0, i32 0
  %9 = getelementptr inbounds %struct.State, %struct.State* %0, i64 0, i32 6, i32 13, i32 0, i32 0
  %10 = load i64, i64* %9, align 8
  %11 = inttoptr i64 %10 to i64*
  %12 = load i64, i64* %11
  store i64 %12, i64* %8, align 8
  %13 = add i64 %10, 8
  store i64 %13, i64* %9, align 8
  ret %struct.Memory* %2
}

attributes #0 = { argmemonly nounwind }
attributes #1 = { nounwind readnone }
attributes #2 = { alwaysinline }
