; ModuleID = 'mcsema/test.proposed.inline.ll'
source_filename = "llvm-link"
target datalayout = "e-m:e-i64:64-f80:128-n8:16:32:64-S128"
target triple = "x86_64-pc-linux-gnu-elf"

%__bss_start_type = type <{ [8 x i8] }>
%G_0x14ff6__rip__4199818__type = type <{ [16 x i8] }>
%G_0x1500a__rip__4199830__type = type <{ [16 x i8] }>
%G_0x1503e__rip__4199778__type = type <{ [16 x i8] }>
%G_0x1504c__rip__4199724__type = type <{ [16 x i8] }>
%struct.State = type { %struct.ArchState, [32 x %union.VectorReg], %struct.ArithFlags, %union.anon, %struct.Segments, %struct.AddressSpace, %struct.GPR, %struct.X87Stack, %struct.MMX, %struct.FPUStatusFlags, %union.anon, %union.FPU, %struct.SegmentCaches }
%struct.ArchState = type { i32, i32, %union.anon }
%union.VectorReg = type { %union.vec512_t }
%union.vec512_t = type { %struct.uint64v8_t }
%struct.uint64v8_t = type { [8 x i64] }
%struct.ArithFlags = type { i8, i8, i8, i8, i8, i8, i8, i8, i8, i8, i8, i8, i8, i8, i8, i8 }
%struct.Segments = type { i16, %union.SegmentSelector, i16, %union.SegmentSelector, i16, %union.SegmentSelector, i16, %union.SegmentSelector, i16, %union.SegmentSelector, i16, %union.SegmentSelector }
%union.SegmentSelector = type { i16 }
%struct.AddressSpace = type { i64, %struct.Reg, i64, %struct.Reg, i64, %struct.Reg, i64, %struct.Reg, i64, %struct.Reg, i64, %struct.Reg }
%struct.Reg = type { %union.anon }
%struct.GPR = type { i64, %struct.Reg, i64, %struct.Reg, i64, %struct.Reg, i64, %struct.Reg, i64, %struct.Reg, i64, %struct.Reg, i64, %struct.Reg, i64, %struct.Reg, i64, %struct.Reg, i64, %struct.Reg, i64, %struct.Reg, i64, %struct.Reg, i64, %struct.Reg, i64, %struct.Reg, i64, %struct.Reg, i64, %struct.Reg, i64, %struct.Reg }
%struct.X87Stack = type { [8 x %struct.anon.3] }
%struct.anon.3 = type { i64, double }
%struct.MMX = type { [8 x %struct.anon.4] }
%struct.anon.4 = type { i64, %union.vec64_t }
%union.vec64_t = type { %struct.uint64v1_t }
%struct.uint64v1_t = type { [1 x i64] }
%struct.FPUStatusFlags = type { i8, i8, i8, i8, i8, i8, i8, i8, i8, i8, i8, i8, i8, i8, i8, i8, i8, i8, i8, i8, [4 x i8] }
%union.anon = type { i64 }
%union.FPU = type { %struct.anon.13 }
%struct.anon.13 = type { %struct.FpuFXSAVE, [96 x i8] }
%struct.FpuFXSAVE = type { %union.SegmentSelector, %union.SegmentSelector, %union.FPUAbridgedTagWord, i8, i16, i32, %union.SegmentSelector, i16, i32, %union.SegmentSelector, i16, %union.FPUControlStatus, %union.FPUControlStatus, [8 x %struct.FPUStackElem], [16 x %union.vec128_t] }
%union.FPUAbridgedTagWord = type { i8 }
%union.FPUControlStatus = type { i32 }
%struct.FPUStackElem = type { %union.anon.11, [6 x i8] }
%union.anon.11 = type { %struct.float80_t }
%struct.float80_t = type { [10 x i8] }
%union.vec128_t = type { %struct.uint128v1_t }
%struct.uint128v1_t = type { [1 x i128] }
%struct.SegmentCaches = type { %struct.SegmentShadow, %struct.SegmentShadow, %struct.SegmentShadow, %struct.SegmentShadow, %struct.SegmentShadow, %struct.SegmentShadow }
%struct.SegmentShadow = type { %union.anon, i32, i32 }
%struct.Memory = type opaque

@__bss_start = local_unnamed_addr global %__bss_start_type zeroinitializer
@G_0x14ff6__rip__4199818_ = local_unnamed_addr global %G_0x14ff6__rip__4199818__type zeroinitializer
@G_0x1500a__rip__4199830_ = global %G_0x1500a__rip__4199830__type zeroinitializer
@G_0x1503e__rip__4199778_ = global %G_0x1503e__rip__4199778__type zeroinitializer
@G_0x1504c__rip__4199724_ = local_unnamed_addr global %G_0x1504c__rip__4199724__type zeroinitializer

declare %struct.Memory* @__remill_error(%struct.State* dereferenceable(3376), i64, %struct.Memory*) local_unnamed_addr

; Function Attrs: nounwind readnone
declare i32 @llvm.ctpop.i32(i32) #0

; Function Attrs: alwaysinline
define %struct.Memory* @_Z15tolerance_equalIdEbRT_S1_(%struct.State* noalias, i64, %struct.Memory* noalias) local_unnamed_addr #1 {
entry:
  %3 = getelementptr inbounds %struct.State, %struct.State* %0, i64 0, i32 6, i32 33, i32 0, i32 0
  %RBP.i = getelementptr inbounds %struct.State, %struct.State* %0, i64 0, i32 6, i32 15, i32 0, i32 0
  %4 = load i64, i64* %RBP.i, align 8
  %5 = add i64 %1, 1
  store i64 %5, i64* %3, align 8
  %6 = getelementptr inbounds %struct.State, %struct.State* %0, i64 0, i32 6, i32 13, i32 0, i32 0
  %7 = load i64, i64* %6, align 8
  %8 = add i64 %7, -8
  %9 = inttoptr i64 %8 to i64*
  store i64 %4, i64* %9, align 8
  store i64 %8, i64* %6, align 8
  %10 = load i64, i64* %3, align 8
  store i64 %8, i64* %RBP.i, align 8
  %11 = getelementptr inbounds %struct.State, %struct.State* %0, i64 0, i32 1
  %12 = load i64, i64* bitcast (%G_0x1504c__rip__4199724__type* @G_0x1504c__rip__4199724_ to i64*), align 8
  %13 = bitcast [32 x %union.VectorReg]* %11 to double*
  %14 = getelementptr inbounds [32 x %union.VectorReg], [32 x %union.VectorReg]* %11, i64 0, i64 0, i32 0, i32 0, i32 0, i64 0
  store i64 %12, i64* %14, align 1
  %15 = getelementptr inbounds %struct.State, %struct.State* %0, i64 0, i32 1, i64 0, i32 0, i32 0, i32 0, i64 1
  %16 = bitcast i64* %15 to double*
  store double 0.000000e+00, double* %16, align 1
  %RDI.i = getelementptr inbounds %struct.State, %struct.State* %0, i64 0, i32 6, i32 11, i32 0, i32 0
  %17 = add i64 %7, -16
  %18 = load i64, i64* %RDI.i, align 8
  %19 = add i64 %10, 15
  store i64 %19, i64* %3, align 8
  %20 = inttoptr i64 %17 to i64*
  store i64 %18, i64* %20, align 8
  %RSI.i68 = getelementptr inbounds %struct.State, %struct.State* %0, i64 0, i32 6, i32 9, i32 0, i32 0
  %21 = load i64, i64* %RBP.i, align 8
  %22 = add i64 %21, -16
  %23 = load i64, i64* %RSI.i68, align 8
  %24 = load i64, i64* %3, align 8
  %25 = add i64 %24, 4
  store i64 %25, i64* %3, align 8
  %26 = inttoptr i64 %22 to i64*
  store i64 %23, i64* %26, align 8
  %27 = load i64, i64* %RBP.i, align 8
  %28 = add i64 %27, -8
  %29 = load i64, i64* %3, align 8
  %30 = add i64 %29, 4
  store i64 %30, i64* %3, align 8
  %31 = inttoptr i64 %28 to i64*
  %32 = load i64, i64* %31, align 8
  store i64 %32, i64* %RSI.i68, align 8
  %33 = getelementptr inbounds %struct.State, %struct.State* %0, i64 0, i32 1, i64 1
  %34 = bitcast %union.VectorReg* %33 to i8*
  %35 = add i64 %29, 8
  store i64 %35, i64* %3, align 8
  %36 = inttoptr i64 %32 to double*
  %37 = load double, double* %36, align 8
  %38 = bitcast %union.VectorReg* %33 to double*
  store double %37, double* %38, align 1
  %39 = getelementptr inbounds %struct.State, %struct.State* %0, i64 0, i32 1, i64 1, i32 0, i32 0, i32 0, i64 1
  %40 = bitcast i64* %39 to double*
  store double 0.000000e+00, double* %40, align 1
  %41 = add i64 %27, -16
  %42 = add i64 %29, 12
  store i64 %42, i64* %3, align 8
  %43 = inttoptr i64 %41 to i64*
  %44 = load i64, i64* %43, align 8
  store i64 %44, i64* %RSI.i68, align 8
  %45 = add i64 %29, 16
  store i64 %45, i64* %3, align 8
  %46 = inttoptr i64 %44 to double*
  %47 = load double, double* %46, align 8
  %48 = fsub double %37, %47
  store double %48, double* %38, align 1
  store i64 0, i64* %39, align 1
  %49 = add i64 %27, -24
  %50 = add i64 %29, 21
  store i64 %50, i64* %3, align 8
  %51 = inttoptr i64 %49 to double*
  store double %48, double* %51, align 8
  %52 = load i64, i64* %RBP.i, align 8
  %53 = add i64 %52, -24
  %54 = load i64, i64* %3, align 8
  %55 = add i64 %54, 5
  store i64 %55, i64* %3, align 8
  %56 = inttoptr i64 %53 to i64*
  %57 = load i64, i64* %56, align 8
  %58 = getelementptr inbounds %union.VectorReg, %union.VectorReg* %33, i64 0, i32 0, i32 0, i32 0, i64 0
  store i64 %57, i64* %58, align 1
  store double 0.000000e+00, double* %40, align 1
  %59 = add i64 %52, -32
  %60 = add i64 %54, 10
  store i64 %60, i64* %3, align 8
  %61 = inttoptr i64 %59 to i64*
  store i64 %57, i64* %61, align 8
  %62 = load i64, i64* %RBP.i, align 8
  %63 = add i64 %62, -8
  %64 = load i64, i64* %3, align 8
  %65 = add i64 %64, 4
  store i64 %65, i64* %3, align 8
  %66 = inttoptr i64 %63 to i64*
  %67 = load i64, i64* %66, align 8
  store i64 %67, i64* %RSI.i68, align 8
  %68 = add i64 %64, 8
  store i64 %68, i64* %3, align 8
  %69 = inttoptr i64 %67 to i64*
  %70 = load i64, i64* %69, align 8
  %71 = getelementptr inbounds %struct.State, %struct.State* %0, i64 0, i32 1, i64 2
  %72 = bitcast %union.VectorReg* %71 to i8*
  %73 = load i32, i32* bitcast (%G_0x1503e__rip__4199778__type* @G_0x1503e__rip__4199778_ to i32*), align 8
  %74 = load i32, i32* inttoptr (i64 add (i64 ptrtoint (%G_0x1503e__rip__4199778__type* @G_0x1503e__rip__4199778_ to i64), i64 4) to i32*), align 4
  %75 = load i32, i32* inttoptr (i64 add (i64 ptrtoint (%G_0x1503e__rip__4199778__type* @G_0x1503e__rip__4199778_ to i64), i64 8) to i32*), align 8
  %76 = load i32, i32* inttoptr (i64 add (i64 ptrtoint (%G_0x1503e__rip__4199778__type* @G_0x1503e__rip__4199778_ to i64), i64 12) to i32*), align 4
  %77 = bitcast %union.VectorReg* %71 to i32*
  store i32 %73, i32* %77, align 1
  %78 = getelementptr inbounds i8, i8* %72, i64 4
  %79 = bitcast i8* %78 to i32*
  store i32 %74, i32* %79, align 1
  %80 = getelementptr inbounds %struct.State, %struct.State* %0, i64 0, i32 1, i64 2, i32 0, i32 0, i32 0, i64 1
  %81 = bitcast i64* %80 to i32*
  store i32 %75, i32* %81, align 1
  %82 = getelementptr inbounds i8, i8* %72, i64 12
  %83 = bitcast i8* %82 to i32*
  store i32 %76, i32* %83, align 1
  %84 = getelementptr inbounds %union.VectorReg, %union.VectorReg* %71, i64 0, i32 0, i32 0, i32 0, i64 0
  %85 = load i64, i64* %84, align 1
  %86 = and i64 %85, %70
  %87 = trunc i64 %86 to i32
  %88 = lshr i64 %86, 32
  %89 = trunc i64 %88 to i32
  %90 = bitcast %union.VectorReg* %33 to i32*
  store i32 %87, i32* %90, align 1
  %91 = getelementptr inbounds i8, i8* %34, i64 4
  %92 = bitcast i8* %91 to i32*
  store i32 %89, i32* %92, align 1
  %93 = bitcast i64* %39 to i32*
  store i32 0, i32* %93, align 1
  %94 = getelementptr inbounds i8, i8* %34, i64 12
  %95 = bitcast i8* %94 to i32*
  store i32 0, i32* %95, align 1
  %96 = add i64 %64, 23
  store i64 %96, i64* %3, align 8
  %97 = load double, double* %38, align 1
  %98 = load double, double* %13, align 1
  %99 = fcmp uno double %97, %98
  br i1 %99, label %100, label %110

; <label>:100:                                    ; preds = %entry
  %101 = fadd double %97, %98
  %102 = bitcast double %101 to i64
  %103 = and i64 %102, 9221120237041090560
  %104 = icmp eq i64 %103, 9218868437227405312
  %105 = and i64 %102, 2251799813685247
  %106 = icmp ne i64 %105, 0
  %107 = and i1 %104, %106
  br i1 %107, label %108, label %116

; <label>:108:                                    ; preds = %100
  %109 = tail call %struct.Memory* @__remill_error(%struct.State* nonnull dereferenceable(3376) %0, i64 %96, %struct.Memory* %2)
  %.pre = load i64, i64* %3, align 8
  br label %routine_ucomisd__xmm0___xmm1.exit

; <label>:110:                                    ; preds = %entry
  %111 = fcmp ogt double %97, %98
  br i1 %111, label %116, label %112

; <label>:112:                                    ; preds = %110
  %113 = fcmp olt double %97, %98
  br i1 %113, label %116, label %114

; <label>:114:                                    ; preds = %112
  %115 = fcmp oeq double %97, %98
  br i1 %115, label %116, label %123

; <label>:116:                                    ; preds = %114, %112, %110, %100
  %117 = phi i8 [ 0, %110 ], [ 0, %112 ], [ 1, %114 ], [ 1, %100 ]
  %118 = phi i8 [ 0, %110 ], [ 0, %112 ], [ 0, %114 ], [ 1, %100 ]
  %119 = phi i8 [ 0, %110 ], [ 1, %112 ], [ 0, %114 ], [ 1, %100 ]
  %120 = getelementptr inbounds %struct.State, %struct.State* %0, i64 0, i32 2, i32 7
  store i8 %117, i8* %120, align 1
  %121 = getelementptr inbounds %struct.State, %struct.State* %0, i64 0, i32 2, i32 3
  store i8 %118, i8* %121, align 1
  %122 = getelementptr inbounds %struct.State, %struct.State* %0, i64 0, i32 2, i32 1
  store i8 %119, i8* %122, align 1
  br label %123

; <label>:123:                                    ; preds = %116, %114
  %124 = getelementptr inbounds %struct.State, %struct.State* %0, i64 0, i32 2, i32 13
  store i8 0, i8* %124, align 1
  %125 = getelementptr inbounds %struct.State, %struct.State* %0, i64 0, i32 2, i32 9
  store i8 0, i8* %125, align 1
  %126 = getelementptr inbounds %struct.State, %struct.State* %0, i64 0, i32 2, i32 5
  store i8 0, i8* %126, align 1
  br label %routine_ucomisd__xmm0___xmm1.exit

routine_ucomisd__xmm0___xmm1.exit:                ; preds = %123, %108
  %127 = phi i64 [ %.pre, %108 ], [ %96, %123 ]
  %128 = phi %struct.Memory* [ %109, %108 ], [ %2, %123 ]
  %129 = getelementptr inbounds %struct.State, %struct.State* %0, i64 0, i32 2, i32 1
  %130 = load i8, i8* %129, align 1
  %131 = getelementptr inbounds %struct.State, %struct.State* %0, i64 0, i32 2, i32 7
  %132 = load i8, i8* %131, align 1
  %133 = or i8 %132, %130
  %134 = icmp ne i8 %133, 0
  %.v = select i1 %134, i64 24, i64 6
  %135 = add i64 %127, %.v
  store i64 %135, i64* %3, align 8
  br i1 %134, label %block_.L_401582, label %block_401570

block_401570:                                     ; preds = %routine_ucomisd__xmm0___xmm1.exit
  %136 = load i64, i64* %RBP.i, align 8
  %137 = add i64 %136, -24
  %138 = add i64 %135, 5
  store i64 %138, i64* %3, align 8
  %139 = inttoptr i64 %137 to double*
  %140 = load double, double* %139, align 8
  store double %140, double* %13, align 1
  store double 0.000000e+00, double* %16, align 1
  %RAX.i25 = getelementptr inbounds %struct.State, %struct.State* %0, i64 0, i32 6, i32 1, i32 0, i32 0
  %141 = add i64 %136, -8
  %142 = add i64 %135, 9
  store i64 %142, i64* %3, align 8
  %143 = inttoptr i64 %141 to i64*
  %144 = load i64, i64* %143, align 8
  store i64 %144, i64* %RAX.i25, align 8
  %145 = add i64 %135, 13
  store i64 %145, i64* %3, align 8
  %146 = inttoptr i64 %144 to double*
  %147 = load double, double* %146, align 8
  %148 = fdiv double %140, %147
  store double %148, double* %13, align 1
  store i64 0, i64* %15, align 1
  %149 = add i64 %136, -32
  %150 = add i64 %135, 18
  store i64 %150, i64* %3, align 8
  %151 = inttoptr i64 %149 to double*
  store double %148, double* %151, align 8
  %.pre1 = load i64, i64* %3, align 8
  br label %block_.L_401582

block_.L_401582:                                  ; preds = %block_401570, %routine_ucomisd__xmm0___xmm1.exit
  %152 = phi i64 [ %.pre1, %block_401570 ], [ %135, %routine_ucomisd__xmm0___xmm1.exit ]
  %153 = load double, double* bitcast (%G_0x14ff6__rip__4199818__type* @G_0x14ff6__rip__4199818_ to double*), align 8
  store double %153, double* %13, align 1
  store double 0.000000e+00, double* %16, align 1
  %154 = load i64, i64* %RBP.i, align 8
  %155 = add i64 %154, -32
  %156 = add i64 %152, 13
  store i64 %156, i64* %3, align 8
  %157 = inttoptr i64 %155 to i64*
  %158 = load i64, i64* %157, align 8
  %159 = load i32, i32* bitcast (%G_0x1500a__rip__4199830__type* @G_0x1500a__rip__4199830_ to i32*), align 8
  %160 = load i32, i32* inttoptr (i64 add (i64 ptrtoint (%G_0x1500a__rip__4199830__type* @G_0x1500a__rip__4199830_ to i64), i64 4) to i32*), align 4
  %161 = load i32, i32* inttoptr (i64 add (i64 ptrtoint (%G_0x1500a__rip__4199830__type* @G_0x1500a__rip__4199830_ to i64), i64 8) to i32*), align 8
  %162 = load i32, i32* inttoptr (i64 add (i64 ptrtoint (%G_0x1500a__rip__4199830__type* @G_0x1500a__rip__4199830_ to i64), i64 12) to i32*), align 4
  store i32 %159, i32* %77, align 1
  store i32 %160, i32* %79, align 1
  store i32 %161, i32* %81, align 1
  store i32 %162, i32* %83, align 1
  %163 = load i64, i64* %84, align 1
  %164 = and i64 %163, %158
  %165 = trunc i64 %164 to i32
  %166 = lshr i64 %164, 32
  %167 = trunc i64 %166 to i32
  store i32 %165, i32* %90, align 1
  store i32 %167, i32* %92, align 1
  store i32 0, i32* %93, align 1
  store i32 0, i32* %95, align 1
  %168 = add i64 %152, 28
  store i64 %168, i64* %3, align 8
  %169 = load double, double* %38, align 1
  %170 = fcmp uno double %153, %169
  br i1 %170, label %171, label %181

; <label>:171:                                    ; preds = %block_.L_401582
  %172 = fadd double %153, %169
  %173 = bitcast double %172 to i64
  %174 = and i64 %173, 9221120237041090560
  %175 = icmp eq i64 %174, 9218868437227405312
  %176 = and i64 %173, 2251799813685247
  %177 = icmp ne i64 %176, 0
  %178 = and i1 %175, %177
  br i1 %178, label %179, label %187

; <label>:179:                                    ; preds = %171
  %180 = tail call %struct.Memory* @__remill_error(%struct.State* nonnull dereferenceable(3376) %0, i64 %168, %struct.Memory* %128)
  %.pre2 = load i64, i64* %3, align 8
  %.pre3 = getelementptr inbounds %struct.State, %struct.State* %0, i64 0, i32 2, i32 9
  %.pre4 = getelementptr inbounds %struct.State, %struct.State* %0, i64 0, i32 2, i32 13
  %.pre6 = getelementptr inbounds %struct.State, %struct.State* %0, i64 0, i32 2, i32 5
  br label %routine_ucomisd__xmm1___xmm0.exit

; <label>:181:                                    ; preds = %block_.L_401582
  %182 = fcmp ogt double %153, %169
  br i1 %182, label %187, label %183

; <label>:183:                                    ; preds = %181
  %184 = fcmp olt double %153, %169
  br i1 %184, label %187, label %185

; <label>:185:                                    ; preds = %183
  %186 = fcmp oeq double %153, %169
  br i1 %186, label %187, label %192

; <label>:187:                                    ; preds = %185, %183, %181, %171
  %188 = phi i8 [ 0, %181 ], [ 0, %183 ], [ 1, %185 ], [ 1, %171 ]
  %189 = phi i8 [ 0, %181 ], [ 0, %183 ], [ 0, %185 ], [ 1, %171 ]
  %190 = phi i8 [ 0, %181 ], [ 1, %183 ], [ 0, %185 ], [ 1, %171 ]
  store i8 %188, i8* %131, align 1
  %191 = getelementptr inbounds %struct.State, %struct.State* %0, i64 0, i32 2, i32 3
  store i8 %189, i8* %191, align 1
  store i8 %190, i8* %129, align 1
  br label %192

; <label>:192:                                    ; preds = %187, %185
  %193 = getelementptr inbounds %struct.State, %struct.State* %0, i64 0, i32 2, i32 13
  store i8 0, i8* %193, align 1
  %194 = getelementptr inbounds %struct.State, %struct.State* %0, i64 0, i32 2, i32 9
  store i8 0, i8* %194, align 1
  %195 = getelementptr inbounds %struct.State, %struct.State* %0, i64 0, i32 2, i32 5
  store i8 0, i8* %195, align 1
  br label %routine_ucomisd__xmm1___xmm0.exit

routine_ucomisd__xmm1___xmm0.exit:                ; preds = %192, %179
  %.pre-phi7 = phi i8* [ %195, %192 ], [ %.pre6, %179 ]
  %.pre-phi5 = phi i8* [ %193, %192 ], [ %.pre4, %179 ]
  %.pre-phi = phi i8* [ %194, %192 ], [ %.pre3, %179 ]
  %196 = phi i64 [ %168, %192 ], [ %.pre2, %179 ]
  %197 = phi %struct.Memory* [ %128, %192 ], [ %180, %179 ]
  %198 = load i8, i8* %129, align 1
  %199 = load i8, i8* %131, align 1
  %200 = or i8 %199, %198
  %201 = icmp eq i8 %200, 0
  store i8 0, i8* %129, align 1
  %202 = zext i1 %201 to i32
  %203 = tail call i32 @llvm.ctpop.i32(i32 %202)
  %204 = trunc i32 %203 to i8
  %205 = xor i8 %204, 1
  %206 = getelementptr inbounds %struct.State, %struct.State* %0, i64 0, i32 2, i32 3
  store i8 %205, i8* %206, align 1
  %207 = xor i1 %201, true
  %208 = zext i1 %207 to i8
  store i8 %208, i8* %131, align 1
  store i8 0, i8* %.pre-phi, align 1
  store i8 0, i8* %.pre-phi5, align 1
  store i8 0, i8* %.pre-phi7, align 1
  %RAX.i = getelementptr inbounds %struct.State, %struct.State* %0, i64 0, i32 6, i32 1, i32 0, i32 0
  %209 = zext i1 %201 to i64
  store i64 %209, i64* %RAX.i, align 8
  %210 = add i64 %196, 9
  store i64 %210, i64* %3, align 8
  %211 = load i64, i64* %6, align 8
  %212 = add i64 %211, 8
  %213 = inttoptr i64 %211 to i64*
  %214 = load i64, i64* %213, align 8
  store i64 %214, i64* %RBP.i, align 8
  store i64 %212, i64* %6, align 8
  %215 = add i64 %196, 10
  store i64 %215, i64* %3, align 8
  %216 = inttoptr i64 %212 to i64*
  %217 = load i64, i64* %216, align 8
  store i64 %217, i64* %3, align 8
  %218 = add i64 %211, 16
  store i64 %218, i64* %6, align 8
  ret %struct.Memory* %197
}

define %struct.Memory* @routine_pushq__rbp(%struct.State* dereferenceable(3376), i64, %struct.Memory*) local_unnamed_addr {
block_400478:
  %PC = getelementptr inbounds %struct.State, %struct.State* %0, i64 0, i32 6, i32 33, i32 0, i32 0
  %RBP = getelementptr inbounds %struct.State, %struct.State* %0, i64 0, i32 6, i32 15, i32 0, i32 0
  %3 = load i64, i64* %RBP, align 8
  %4 = load i64, i64* %PC, align 8
  %5 = add i64 %4, 1
  store i64 %5, i64* %PC, align 8
  %6 = getelementptr inbounds %struct.State, %struct.State* %0, i64 0, i32 6, i32 13, i32 0, i32 0
  %7 = load i64, i64* %6, align 8
  %8 = add i64 %7, -8
  %9 = inttoptr i64 %8 to i64*
  store i64 %3, i64* %9, align 8
  store i64 %8, i64* %6, align 8
  ret %struct.Memory* %2
}

define %struct.Memory* @routine_movq__rsp___rbp(%struct.State* dereferenceable(3376), i64, %struct.Memory*) local_unnamed_addr {
block_400478:
  %PC = getelementptr inbounds %struct.State, %struct.State* %0, i64 0, i32 6, i32 33, i32 0, i32 0
  %RSP = getelementptr inbounds %struct.State, %struct.State* %0, i64 0, i32 6, i32 13, i32 0, i32 0
  %RBP = getelementptr inbounds %struct.State, %struct.State* %0, i64 0, i32 6, i32 15, i32 0, i32 0
  %3 = load i64, i64* %RSP, align 8
  %4 = load i64, i64* %PC, align 8
  %5 = add i64 %4, 3
  store i64 %5, i64* %PC, align 8
  store i64 %3, i64* %RBP, align 8
  ret %struct.Memory* %2
}

define %struct.Memory* @routine_movsd_0x1504c__rip____xmm0(%struct.State* dereferenceable(3376), i64, %struct.Memory*) local_unnamed_addr {
block_400478:
  %PC = getelementptr inbounds %struct.State, %struct.State* %0, i64 0, i32 6, i32 33, i32 0, i32 0
  %3 = load i64, i64* %PC, align 8
  %4 = add i64 %3, 8
  store i64 %4, i64* %PC, align 8
  %5 = load i64, i64* bitcast (%G_0x1504c__rip__4199724__type* @G_0x1504c__rip__4199724_ to i64*), align 8
  %6 = getelementptr inbounds %struct.State, %struct.State* %0, i64 0, i32 1, i64 0, i32 0, i32 0, i32 0, i64 0
  store i64 %5, i64* %6, align 1
  %7 = getelementptr inbounds %struct.State, %struct.State* %0, i64 0, i32 1, i64 0, i32 0, i32 0, i32 0, i64 1
  %8 = bitcast i64* %7 to double*
  store double 0.000000e+00, double* %8, align 1
  ret %struct.Memory* %2
}

define %struct.Memory* @routine_movq__rdi__MINUS0x8__rbp_(%struct.State* dereferenceable(3376), i64, %struct.Memory*) local_unnamed_addr {
block_400478:
  %PC = getelementptr inbounds %struct.State, %struct.State* %0, i64 0, i32 6, i32 33, i32 0, i32 0
  %RDI = getelementptr inbounds %struct.State, %struct.State* %0, i64 0, i32 6, i32 11, i32 0, i32 0
  %RBP = getelementptr inbounds %struct.State, %struct.State* %0, i64 0, i32 6, i32 15, i32 0, i32 0
  %3 = load i64, i64* %RBP, align 8
  %4 = add i64 %3, -8
  %5 = load i64, i64* %RDI, align 8
  %6 = load i64, i64* %PC, align 8
  %7 = add i64 %6, 4
  store i64 %7, i64* %PC, align 8
  %8 = inttoptr i64 %4 to i64*
  store i64 %5, i64* %8, align 8
  ret %struct.Memory* %2
}

define %struct.Memory* @routine_movq__rsi__MINUS0x10__rbp_(%struct.State* dereferenceable(3376), i64, %struct.Memory*) local_unnamed_addr {
block_400478:
  %PC = getelementptr inbounds %struct.State, %struct.State* %0, i64 0, i32 6, i32 33, i32 0, i32 0
  %RSI = getelementptr inbounds %struct.State, %struct.State* %0, i64 0, i32 6, i32 9, i32 0, i32 0
  %RBP = getelementptr inbounds %struct.State, %struct.State* %0, i64 0, i32 6, i32 15, i32 0, i32 0
  %3 = load i64, i64* %RBP, align 8
  %4 = add i64 %3, -16
  %5 = load i64, i64* %RSI, align 8
  %6 = load i64, i64* %PC, align 8
  %7 = add i64 %6, 4
  store i64 %7, i64* %PC, align 8
  %8 = inttoptr i64 %4 to i64*
  store i64 %5, i64* %8, align 8
  ret %struct.Memory* %2
}

define %struct.Memory* @routine_movq_MINUS0x8__rbp____rsi(%struct.State* dereferenceable(3376), i64, %struct.Memory*) local_unnamed_addr {
block_400478:
  %PC = getelementptr inbounds %struct.State, %struct.State* %0, i64 0, i32 6, i32 33, i32 0, i32 0
  %RSI = getelementptr inbounds %struct.State, %struct.State* %0, i64 0, i32 6, i32 9, i32 0, i32 0
  %RBP = getelementptr inbounds %struct.State, %struct.State* %0, i64 0, i32 6, i32 15, i32 0, i32 0
  %3 = load i64, i64* %RBP, align 8
  %4 = add i64 %3, -8
  %5 = load i64, i64* %PC, align 8
  %6 = add i64 %5, 4
  store i64 %6, i64* %PC, align 8
  %7 = inttoptr i64 %4 to i64*
  %8 = load i64, i64* %7, align 8
  store i64 %8, i64* %RSI, align 8
  ret %struct.Memory* %2
}

define %struct.Memory* @routine_movsd___rsi____xmm1(%struct.State* dereferenceable(3376), i64, %struct.Memory*) local_unnamed_addr {
block_400478:
  %PC = getelementptr inbounds %struct.State, %struct.State* %0, i64 0, i32 6, i32 33, i32 0, i32 0
  %RSI = getelementptr inbounds %struct.State, %struct.State* %0, i64 0, i32 6, i32 9, i32 0, i32 0
  %3 = bitcast i64* %RSI to i64**
  %4 = load i64*, i64** %3, align 8
  %5 = load i64, i64* %PC, align 8
  %6 = add i64 %5, 4
  store i64 %6, i64* %PC, align 8
  %7 = load i64, i64* %4, align 8
  %8 = getelementptr inbounds %struct.State, %struct.State* %0, i64 0, i32 1, i64 1, i32 0, i32 0, i32 0, i64 0
  store i64 %7, i64* %8, align 1
  %9 = getelementptr inbounds %struct.State, %struct.State* %0, i64 0, i32 1, i64 1, i32 0, i32 0, i32 0, i64 1
  %10 = bitcast i64* %9 to double*
  store double 0.000000e+00, double* %10, align 1
  ret %struct.Memory* %2
}

define %struct.Memory* @routine_movq_MINUS0x10__rbp____rsi(%struct.State* dereferenceable(3376), i64, %struct.Memory*) local_unnamed_addr {
block_400478:
  %PC = getelementptr inbounds %struct.State, %struct.State* %0, i64 0, i32 6, i32 33, i32 0, i32 0
  %RSI = getelementptr inbounds %struct.State, %struct.State* %0, i64 0, i32 6, i32 9, i32 0, i32 0
  %RBP = getelementptr inbounds %struct.State, %struct.State* %0, i64 0, i32 6, i32 15, i32 0, i32 0
  %3 = load i64, i64* %RBP, align 8
  %4 = add i64 %3, -16
  %5 = load i64, i64* %PC, align 8
  %6 = add i64 %5, 4
  store i64 %6, i64* %PC, align 8
  %7 = inttoptr i64 %4 to i64*
  %8 = load i64, i64* %7, align 8
  store i64 %8, i64* %RSI, align 8
  ret %struct.Memory* %2
}

define %struct.Memory* @routine_subsd___rsi____xmm1(%struct.State* dereferenceable(3376), i64, %struct.Memory*) local_unnamed_addr {
block_400478:
  %PC = getelementptr inbounds %struct.State, %struct.State* %0, i64 0, i32 6, i32 33, i32 0, i32 0
  %RSI = getelementptr inbounds %struct.State, %struct.State* %0, i64 0, i32 6, i32 9, i32 0, i32 0
  %3 = getelementptr inbounds %struct.State, %struct.State* %0, i64 0, i32 1, i64 1
  %4 = bitcast i64* %RSI to double**
  %5 = load double*, double** %4, align 8
  %6 = load i64, i64* %PC, align 8
  %7 = add i64 %6, 4
  store i64 %7, i64* %PC, align 8
  %8 = bitcast %union.VectorReg* %3 to double*
  %9 = load double, double* %8, align 1
  %10 = load double, double* %5, align 8
  %11 = fsub double %9, %10
  store double %11, double* %8, align 1
  ret %struct.Memory* %2
}

define %struct.Memory* @routine_movsd__xmm1__MINUS0x18__rbp_(%struct.State* dereferenceable(3376), i64, %struct.Memory*) local_unnamed_addr {
block_400478:
  %PC = getelementptr inbounds %struct.State, %struct.State* %0, i64 0, i32 6, i32 33, i32 0, i32 0
  %RBP = getelementptr inbounds %struct.State, %struct.State* %0, i64 0, i32 6, i32 15, i32 0, i32 0
  %3 = load i64, i64* %RBP, align 8
  %4 = add i64 %3, -24
  %5 = load i64, i64* %PC, align 8
  %6 = add i64 %5, 5
  store i64 %6, i64* %PC, align 8
  %7 = getelementptr inbounds %struct.State, %struct.State* %0, i64 0, i32 1, i64 1, i32 0, i32 0, i32 0, i64 0
  %8 = load i64, i64* %7, align 1
  %9 = inttoptr i64 %4 to i64*
  store i64 %8, i64* %9, align 8
  ret %struct.Memory* %2
}

define %struct.Memory* @routine_movsd_MINUS0x18__rbp____xmm1(%struct.State* dereferenceable(3376), i64, %struct.Memory*) local_unnamed_addr {
block_400478:
  %PC = getelementptr inbounds %struct.State, %struct.State* %0, i64 0, i32 6, i32 33, i32 0, i32 0
  %RBP = getelementptr inbounds %struct.State, %struct.State* %0, i64 0, i32 6, i32 15, i32 0, i32 0
  %3 = load i64, i64* %RBP, align 8
  %4 = add i64 %3, -24
  %5 = load i64, i64* %PC, align 8
  %6 = add i64 %5, 5
  store i64 %6, i64* %PC, align 8
  %7 = inttoptr i64 %4 to i64*
  %8 = load i64, i64* %7, align 8
  %9 = getelementptr inbounds %struct.State, %struct.State* %0, i64 0, i32 1, i64 1, i32 0, i32 0, i32 0, i64 0
  store i64 %8, i64* %9, align 1
  %10 = getelementptr inbounds %struct.State, %struct.State* %0, i64 0, i32 1, i64 1, i32 0, i32 0, i32 0, i64 1
  %11 = bitcast i64* %10 to double*
  store double 0.000000e+00, double* %11, align 1
  ret %struct.Memory* %2
}

define %struct.Memory* @routine_movsd__xmm1__MINUS0x20__rbp_(%struct.State* dereferenceable(3376), i64, %struct.Memory*) local_unnamed_addr {
block_400478:
  %PC = getelementptr inbounds %struct.State, %struct.State* %0, i64 0, i32 6, i32 33, i32 0, i32 0
  %RBP = getelementptr inbounds %struct.State, %struct.State* %0, i64 0, i32 6, i32 15, i32 0, i32 0
  %3 = load i64, i64* %RBP, align 8
  %4 = add i64 %3, -32
  %5 = load i64, i64* %PC, align 8
  %6 = add i64 %5, 5
  store i64 %6, i64* %PC, align 8
  %7 = getelementptr inbounds %struct.State, %struct.State* %0, i64 0, i32 1, i64 1, i32 0, i32 0, i32 0, i64 0
  %8 = load i64, i64* %7, align 1
  %9 = inttoptr i64 %4 to i64*
  store i64 %8, i64* %9, align 8
  ret %struct.Memory* %2
}

define %struct.Memory* @routine_movaps_0x1503e__rip____xmm2(%struct.State* dereferenceable(3376), i64, %struct.Memory*) local_unnamed_addr {
block_400478:
  %PC = getelementptr inbounds %struct.State, %struct.State* %0, i64 0, i32 6, i32 33, i32 0, i32 0
  %3 = getelementptr inbounds %struct.State, %struct.State* %0, i64 0, i32 1, i64 2
  %4 = bitcast %union.VectorReg* %3 to i8*
  %5 = load i64, i64* %PC, align 8
  %6 = add i64 %5, 7
  store i64 %6, i64* %PC, align 8
  %7 = load i32, i32* bitcast (%G_0x1503e__rip__4199778__type* @G_0x1503e__rip__4199778_ to i32*), align 8
  %8 = load i32, i32* inttoptr (i64 add (i64 ptrtoint (%G_0x1503e__rip__4199778__type* @G_0x1503e__rip__4199778_ to i64), i64 4) to i32*), align 4
  %9 = load i32, i32* inttoptr (i64 add (i64 ptrtoint (%G_0x1503e__rip__4199778__type* @G_0x1503e__rip__4199778_ to i64), i64 8) to i32*), align 8
  %10 = load i32, i32* inttoptr (i64 add (i64 ptrtoint (%G_0x1503e__rip__4199778__type* @G_0x1503e__rip__4199778_ to i64), i64 12) to i32*), align 4
  %11 = bitcast %union.VectorReg* %3 to i32*
  store i32 %7, i32* %11, align 1
  %12 = getelementptr inbounds i8, i8* %4, i64 4
  %13 = bitcast i8* %12 to i32*
  store i32 %8, i32* %13, align 1
  %14 = getelementptr inbounds %struct.State, %struct.State* %0, i64 0, i32 1, i64 2, i32 0, i32 0, i32 0, i64 1
  %15 = bitcast i64* %14 to i32*
  store i32 %9, i32* %15, align 1
  %16 = getelementptr inbounds i8, i8* %4, i64 12
  %17 = bitcast i8* %16 to i32*
  store i32 %10, i32* %17, align 1
  ret %struct.Memory* %2
}

define %struct.Memory* @routine_pand__xmm2___xmm1(%struct.State* dereferenceable(3376), i64, %struct.Memory*) local_unnamed_addr {
block_400478:
  %PC = getelementptr inbounds %struct.State, %struct.State* %0, i64 0, i32 6, i32 33, i32 0, i32 0
  %3 = getelementptr inbounds %struct.State, %struct.State* %0, i64 0, i32 1, i64 1
  %4 = bitcast %union.VectorReg* %3 to i8*
  %5 = load i64, i64* %PC, align 8
  %6 = add i64 %5, 4
  store i64 %6, i64* %PC, align 8
  %7 = getelementptr inbounds %union.VectorReg, %union.VectorReg* %3, i64 0, i32 0, i32 0, i32 0, i64 0
  %8 = load i64, i64* %7, align 1
  %9 = getelementptr inbounds %struct.State, %struct.State* %0, i64 0, i32 1, i64 1, i32 0, i32 0, i32 0, i64 1
  %10 = load i64, i64* %9, align 1
  %11 = getelementptr inbounds %struct.State, %struct.State* %0, i64 0, i32 1, i64 2, i32 0, i32 0, i32 0, i64 0
  %12 = load i64, i64* %11, align 1
  %13 = getelementptr inbounds %struct.State, %struct.State* %0, i64 0, i32 1, i64 2, i32 0, i32 0, i32 0, i64 1
  %14 = load i64, i64* %13, align 1
  %15 = and i64 %12, %8
  %16 = and i64 %14, %10
  %17 = trunc i64 %15 to i32
  %18 = lshr i64 %15, 32
  %19 = trunc i64 %18 to i32
  %20 = bitcast %union.VectorReg* %3 to i32*
  store i32 %17, i32* %20, align 1
  %21 = getelementptr inbounds i8, i8* %4, i64 4
  %22 = bitcast i8* %21 to i32*
  store i32 %19, i32* %22, align 1
  %23 = trunc i64 %16 to i32
  %24 = bitcast i64* %9 to i32*
  store i32 %23, i32* %24, align 1
  %25 = lshr i64 %16, 32
  %26 = trunc i64 %25 to i32
  %27 = getelementptr inbounds i8, i8* %4, i64 12
  %28 = bitcast i8* %27 to i32*
  store i32 %26, i32* %28, align 1
  ret %struct.Memory* %2
}

define %struct.Memory* @routine_ucomisd__xmm0___xmm1(%struct.State* dereferenceable(3376), i64, %struct.Memory*) local_unnamed_addr {
block_400478:
  %PC = getelementptr inbounds %struct.State, %struct.State* %0, i64 0, i32 6, i32 33, i32 0, i32 0
  %3 = getelementptr inbounds %struct.State, %struct.State* %0, i64 0, i32 1
  %4 = getelementptr inbounds %struct.State, %struct.State* %0, i64 0, i32 1, i64 1
  %5 = load i64, i64* %PC, align 8
  %6 = add i64 %5, 4
  store i64 %6, i64* %PC, align 8
  %7 = bitcast %union.VectorReg* %4 to double*
  %8 = load double, double* %7, align 1
  %9 = bitcast [32 x %union.VectorReg]* %3 to double*
  %10 = load double, double* %9, align 1
  %11 = fcmp uno double %8, %10
  br i1 %11, label %12, label %22

; <label>:12:                                     ; preds = %block_400478
  %13 = fadd double %8, %10
  %14 = bitcast double %13 to i64
  %15 = and i64 %14, 9221120237041090560
  %16 = icmp eq i64 %15, 9218868437227405312
  %17 = and i64 %14, 2251799813685247
  %18 = icmp ne i64 %17, 0
  %19 = and i1 %16, %18
  br i1 %19, label %20, label %28

; <label>:20:                                     ; preds = %12
  %21 = tail call %struct.Memory* @__remill_error(%struct.State* nonnull dereferenceable(3376) %0, i64 %6, %struct.Memory* %2)
  br label %_ZN12_GLOBAL__N_1L6COMISDI2VnI8vec128_tES3_EEP6MemoryS5_R5StateT_T0_.exit

; <label>:22:                                     ; preds = %block_400478
  %23 = fcmp ogt double %8, %10
  br i1 %23, label %28, label %24

; <label>:24:                                     ; preds = %22
  %25 = fcmp olt double %8, %10
  br i1 %25, label %28, label %26

; <label>:26:                                     ; preds = %24
  %27 = fcmp oeq double %8, %10
  br i1 %27, label %28, label %35

; <label>:28:                                     ; preds = %26, %24, %22, %12
  %29 = phi i8 [ 0, %22 ], [ 0, %24 ], [ 1, %26 ], [ 1, %12 ]
  %30 = phi i8 [ 0, %22 ], [ 0, %24 ], [ 0, %26 ], [ 1, %12 ]
  %31 = phi i8 [ 0, %22 ], [ 1, %24 ], [ 0, %26 ], [ 1, %12 ]
  %32 = getelementptr inbounds %struct.State, %struct.State* %0, i64 0, i32 2, i32 7
  store i8 %29, i8* %32, align 1
  %33 = getelementptr inbounds %struct.State, %struct.State* %0, i64 0, i32 2, i32 3
  store i8 %30, i8* %33, align 1
  %34 = getelementptr inbounds %struct.State, %struct.State* %0, i64 0, i32 2, i32 1
  store i8 %31, i8* %34, align 1
  br label %35

; <label>:35:                                     ; preds = %28, %26
  %36 = getelementptr inbounds %struct.State, %struct.State* %0, i64 0, i32 2, i32 13
  store i8 0, i8* %36, align 1
  %37 = getelementptr inbounds %struct.State, %struct.State* %0, i64 0, i32 2, i32 9
  store i8 0, i8* %37, align 1
  %38 = getelementptr inbounds %struct.State, %struct.State* %0, i64 0, i32 2, i32 5
  store i8 0, i8* %38, align 1
  br label %_ZN12_GLOBAL__N_1L6COMISDI2VnI8vec128_tES3_EEP6MemoryS5_R5StateT_T0_.exit

_ZN12_GLOBAL__N_1L6COMISDI2VnI8vec128_tES3_EEP6MemoryS5_R5StateT_T0_.exit: ; preds = %35, %20
  %39 = phi %struct.Memory* [ %21, %20 ], [ %2, %35 ]
  ret %struct.Memory* %39
}

define %struct.Memory* @routine_jbe_.L_401582(%struct.State* dereferenceable(3376), i64, %struct.Memory*, i8* %BRANCH_TAKEN, i64 %rel_off1, i64 %rel_off2, i64 %rel_off3) local_unnamed_addr {
block_400478:
  %PC = getelementptr inbounds %struct.State, %struct.State* %0, i64 0, i32 6, i32 33, i32 0, i32 0
  %3 = load i64, i64* %PC, align 8
  %4 = getelementptr inbounds %struct.State, %struct.State* %0, i64 0, i32 2, i32 1
  %5 = load i8, i8* %4, align 1
  %6 = getelementptr inbounds %struct.State, %struct.State* %0, i64 0, i32 2, i32 7
  %7 = load i8, i8* %6, align 1
  %8 = or i8 %7, %5
  %9 = icmp ne i8 %8, 0
  %10 = zext i1 %9 to i8
  store i8 %10, i8* %BRANCH_TAKEN, align 1
  %.v = select i1 %9, i64 %rel_off1, i64 %rel_off2
  %11 = add i64 %3, %.v
  store i64 %11, i64* %PC, align 8
  ret %struct.Memory* %2
}

define %struct.Memory* @routine_movsd_MINUS0x18__rbp____xmm0(%struct.State* dereferenceable(3376), i64, %struct.Memory*) local_unnamed_addr {
block_400478:
  %PC = getelementptr inbounds %struct.State, %struct.State* %0, i64 0, i32 6, i32 33, i32 0, i32 0
  %RBP = getelementptr inbounds %struct.State, %struct.State* %0, i64 0, i32 6, i32 15, i32 0, i32 0
  %3 = load i64, i64* %RBP, align 8
  %4 = add i64 %3, -24
  %5 = load i64, i64* %PC, align 8
  %6 = add i64 %5, 5
  store i64 %6, i64* %PC, align 8
  %7 = inttoptr i64 %4 to i64*
  %8 = load i64, i64* %7, align 8
  %9 = getelementptr inbounds %struct.State, %struct.State* %0, i64 0, i32 1, i64 0, i32 0, i32 0, i32 0, i64 0
  store i64 %8, i64* %9, align 1
  %10 = getelementptr inbounds %struct.State, %struct.State* %0, i64 0, i32 1, i64 0, i32 0, i32 0, i32 0, i64 1
  %11 = bitcast i64* %10 to double*
  store double 0.000000e+00, double* %11, align 1
  ret %struct.Memory* %2
}

define %struct.Memory* @routine_movq_MINUS0x8__rbp____rax(%struct.State* dereferenceable(3376), i64, %struct.Memory*) local_unnamed_addr {
block_400478:
  %PC = getelementptr inbounds %struct.State, %struct.State* %0, i64 0, i32 6, i32 33, i32 0, i32 0
  %RAX = getelementptr inbounds %struct.State, %struct.State* %0, i64 0, i32 6, i32 1, i32 0, i32 0
  %RBP = getelementptr inbounds %struct.State, %struct.State* %0, i64 0, i32 6, i32 15, i32 0, i32 0
  %3 = load i64, i64* %RBP, align 8
  %4 = add i64 %3, -8
  %5 = load i64, i64* %PC, align 8
  %6 = add i64 %5, 4
  store i64 %6, i64* %PC, align 8
  %7 = inttoptr i64 %4 to i64*
  %8 = load i64, i64* %7, align 8
  store i64 %8, i64* %RAX, align 8
  ret %struct.Memory* %2
}

define %struct.Memory* @routine_divsd___rax____xmm0(%struct.State* dereferenceable(3376), i64, %struct.Memory*) local_unnamed_addr {
block_400478:
  %PC = getelementptr inbounds %struct.State, %struct.State* %0, i64 0, i32 6, i32 33, i32 0, i32 0
  %RAX = getelementptr inbounds %struct.State, %struct.State* %0, i64 0, i32 6, i32 1, i32 0, i32 0
  %3 = getelementptr inbounds %struct.State, %struct.State* %0, i64 0, i32 1, i64 0
  %4 = bitcast i64* %RAX to double**
  %5 = load double*, double** %4, align 8
  %6 = load i64, i64* %PC, align 8
  %7 = add i64 %6, 4
  store i64 %7, i64* %PC, align 8
  %8 = bitcast %union.VectorReg* %3 to double*
  %9 = load double, double* %8, align 1
  %10 = load double, double* %5, align 8
  %11 = fdiv double %9, %10
  store double %11, double* %8, align 1
  ret %struct.Memory* %2
}

define %struct.Memory* @routine_movsd__xmm0__MINUS0x20__rbp_(%struct.State* dereferenceable(3376), i64, %struct.Memory*) local_unnamed_addr {
block_400478:
  %PC = getelementptr inbounds %struct.State, %struct.State* %0, i64 0, i32 6, i32 33, i32 0, i32 0
  %RBP = getelementptr inbounds %struct.State, %struct.State* %0, i64 0, i32 6, i32 15, i32 0, i32 0
  %3 = load i64, i64* %RBP, align 8
  %4 = add i64 %3, -32
  %5 = load i64, i64* %PC, align 8
  %6 = add i64 %5, 5
  store i64 %6, i64* %PC, align 8
  %7 = getelementptr inbounds %struct.State, %struct.State* %0, i64 0, i32 1, i64 0, i32 0, i32 0, i32 0, i64 0
  %8 = load i64, i64* %7, align 1
  %9 = inttoptr i64 %4 to i64*
  store i64 %8, i64* %9, align 8
  ret %struct.Memory* %2
}

define %struct.Memory* @routine_movsd_0x14ff6__rip____xmm0(%struct.State* dereferenceable(3376), i64, %struct.Memory*) local_unnamed_addr {
block_400478:
  %PC = getelementptr inbounds %struct.State, %struct.State* %0, i64 0, i32 6, i32 33, i32 0, i32 0
  %3 = load i64, i64* %PC, align 8
  %4 = add i64 %3, 8
  store i64 %4, i64* %PC, align 8
  %5 = load i64, i64* bitcast (%G_0x14ff6__rip__4199818__type* @G_0x14ff6__rip__4199818_ to i64*), align 8
  %6 = getelementptr inbounds %struct.State, %struct.State* %0, i64 0, i32 1, i64 0, i32 0, i32 0, i32 0, i64 0
  store i64 %5, i64* %6, align 1
  %7 = getelementptr inbounds %struct.State, %struct.State* %0, i64 0, i32 1, i64 0, i32 0, i32 0, i32 0, i64 1
  %8 = bitcast i64* %7 to double*
  store double 0.000000e+00, double* %8, align 1
  ret %struct.Memory* %2
}

define %struct.Memory* @routine_movsd_MINUS0x20__rbp____xmm1(%struct.State* dereferenceable(3376), i64, %struct.Memory*) local_unnamed_addr {
block_400478:
  %PC = getelementptr inbounds %struct.State, %struct.State* %0, i64 0, i32 6, i32 33, i32 0, i32 0
  %RBP = getelementptr inbounds %struct.State, %struct.State* %0, i64 0, i32 6, i32 15, i32 0, i32 0
  %3 = load i64, i64* %RBP, align 8
  %4 = add i64 %3, -32
  %5 = load i64, i64* %PC, align 8
  %6 = add i64 %5, 5
  store i64 %6, i64* %PC, align 8
  %7 = inttoptr i64 %4 to i64*
  %8 = load i64, i64* %7, align 8
  %9 = getelementptr inbounds %struct.State, %struct.State* %0, i64 0, i32 1, i64 1, i32 0, i32 0, i32 0, i64 0
  store i64 %8, i64* %9, align 1
  %10 = getelementptr inbounds %struct.State, %struct.State* %0, i64 0, i32 1, i64 1, i32 0, i32 0, i32 0, i64 1
  %11 = bitcast i64* %10 to double*
  store double 0.000000e+00, double* %11, align 1
  ret %struct.Memory* %2
}

define %struct.Memory* @routine_movaps_0x1500a__rip____xmm2(%struct.State* dereferenceable(3376), i64, %struct.Memory*) local_unnamed_addr {
block_400478:
  %PC = getelementptr inbounds %struct.State, %struct.State* %0, i64 0, i32 6, i32 33, i32 0, i32 0
  %3 = getelementptr inbounds %struct.State, %struct.State* %0, i64 0, i32 1, i64 2
  %4 = bitcast %union.VectorReg* %3 to i8*
  %5 = load i64, i64* %PC, align 8
  %6 = add i64 %5, 7
  store i64 %6, i64* %PC, align 8
  %7 = load i32, i32* bitcast (%G_0x1500a__rip__4199830__type* @G_0x1500a__rip__4199830_ to i32*), align 8
  %8 = load i32, i32* inttoptr (i64 add (i64 ptrtoint (%G_0x1500a__rip__4199830__type* @G_0x1500a__rip__4199830_ to i64), i64 4) to i32*), align 4
  %9 = load i32, i32* inttoptr (i64 add (i64 ptrtoint (%G_0x1500a__rip__4199830__type* @G_0x1500a__rip__4199830_ to i64), i64 8) to i32*), align 8
  %10 = load i32, i32* inttoptr (i64 add (i64 ptrtoint (%G_0x1500a__rip__4199830__type* @G_0x1500a__rip__4199830_ to i64), i64 12) to i32*), align 4
  %11 = bitcast %union.VectorReg* %3 to i32*
  store i32 %7, i32* %11, align 1
  %12 = getelementptr inbounds i8, i8* %4, i64 4
  %13 = bitcast i8* %12 to i32*
  store i32 %8, i32* %13, align 1
  %14 = getelementptr inbounds %struct.State, %struct.State* %0, i64 0, i32 1, i64 2, i32 0, i32 0, i32 0, i64 1
  %15 = bitcast i64* %14 to i32*
  store i32 %9, i32* %15, align 1
  %16 = getelementptr inbounds i8, i8* %4, i64 12
  %17 = bitcast i8* %16 to i32*
  store i32 %10, i32* %17, align 1
  ret %struct.Memory* %2
}

define %struct.Memory* @routine_ucomisd__xmm1___xmm0(%struct.State* dereferenceable(3376), i64, %struct.Memory*) local_unnamed_addr {
block_400478:
  %PC = getelementptr inbounds %struct.State, %struct.State* %0, i64 0, i32 6, i32 33, i32 0, i32 0
  %3 = getelementptr inbounds %struct.State, %struct.State* %0, i64 0, i32 1
  %4 = getelementptr inbounds %struct.State, %struct.State* %0, i64 0, i32 1, i64 1
  %5 = load i64, i64* %PC, align 8
  %6 = add i64 %5, 4
  store i64 %6, i64* %PC, align 8
  %7 = bitcast [32 x %union.VectorReg]* %3 to double*
  %8 = load double, double* %7, align 1
  %9 = bitcast %union.VectorReg* %4 to double*
  %10 = load double, double* %9, align 1
  %11 = fcmp uno double %8, %10
  br i1 %11, label %12, label %22

; <label>:12:                                     ; preds = %block_400478
  %13 = fadd double %8, %10
  %14 = bitcast double %13 to i64
  %15 = and i64 %14, 9221120237041090560
  %16 = icmp eq i64 %15, 9218868437227405312
  %17 = and i64 %14, 2251799813685247
  %18 = icmp ne i64 %17, 0
  %19 = and i1 %16, %18
  br i1 %19, label %20, label %28

; <label>:20:                                     ; preds = %12
  %21 = tail call %struct.Memory* @__remill_error(%struct.State* nonnull dereferenceable(3376) %0, i64 %6, %struct.Memory* %2)
  br label %_ZN12_GLOBAL__N_1L6COMISDI2VnI8vec128_tES3_EEP6MemoryS5_R5StateT_T0_.exit

; <label>:22:                                     ; preds = %block_400478
  %23 = fcmp ogt double %8, %10
  br i1 %23, label %28, label %24

; <label>:24:                                     ; preds = %22
  %25 = fcmp olt double %8, %10
  br i1 %25, label %28, label %26

; <label>:26:                                     ; preds = %24
  %27 = fcmp oeq double %8, %10
  br i1 %27, label %28, label %35

; <label>:28:                                     ; preds = %26, %24, %22, %12
  %29 = phi i8 [ 0, %22 ], [ 0, %24 ], [ 1, %26 ], [ 1, %12 ]
  %30 = phi i8 [ 0, %22 ], [ 0, %24 ], [ 0, %26 ], [ 1, %12 ]
  %31 = phi i8 [ 0, %22 ], [ 1, %24 ], [ 0, %26 ], [ 1, %12 ]
  %32 = getelementptr inbounds %struct.State, %struct.State* %0, i64 0, i32 2, i32 7
  store i8 %29, i8* %32, align 1
  %33 = getelementptr inbounds %struct.State, %struct.State* %0, i64 0, i32 2, i32 3
  store i8 %30, i8* %33, align 1
  %34 = getelementptr inbounds %struct.State, %struct.State* %0, i64 0, i32 2, i32 1
  store i8 %31, i8* %34, align 1
  br label %35

; <label>:35:                                     ; preds = %28, %26
  %36 = getelementptr inbounds %struct.State, %struct.State* %0, i64 0, i32 2, i32 13
  store i8 0, i8* %36, align 1
  %37 = getelementptr inbounds %struct.State, %struct.State* %0, i64 0, i32 2, i32 9
  store i8 0, i8* %37, align 1
  %38 = getelementptr inbounds %struct.State, %struct.State* %0, i64 0, i32 2, i32 5
  store i8 0, i8* %38, align 1
  br label %_ZN12_GLOBAL__N_1L6COMISDI2VnI8vec128_tES3_EEP6MemoryS5_R5StateT_T0_.exit

_ZN12_GLOBAL__N_1L6COMISDI2VnI8vec128_tES3_EEP6MemoryS5_R5StateT_T0_.exit: ; preds = %35, %20
  %39 = phi %struct.Memory* [ %21, %20 ], [ %2, %35 ]
  ret %struct.Memory* %39
}

define %struct.Memory* @routine_seta__al(%struct.State* dereferenceable(3376), i64, %struct.Memory*) local_unnamed_addr {
block_400478:
  %PC = getelementptr inbounds %struct.State, %struct.State* %0, i64 0, i32 6, i32 33, i32 0, i32 0
  %3 = getelementptr inbounds %struct.State, %struct.State* %0, i64 0, i32 6, i32 1, i32 0
  %AL = bitcast %union.anon* %3 to i8*
  %4 = load i64, i64* %PC, align 8
  %5 = add i64 %4, 3
  store i64 %5, i64* %PC, align 8
  %6 = getelementptr inbounds %struct.State, %struct.State* %0, i64 0, i32 2, i32 1
  %7 = load i8, i8* %6, align 1
  %8 = getelementptr inbounds %struct.State, %struct.State* %0, i64 0, i32 2, i32 7
  %9 = load i8, i8* %8, align 1
  %10 = or i8 %9, %7
  %11 = icmp eq i8 %10, 0
  %12 = zext i1 %11 to i8
  store i8 %12, i8* %AL, align 1
  ret %struct.Memory* %2
}

define %struct.Memory* @routine_andb__0x1___al(%struct.State* dereferenceable(3376), i64, %struct.Memory*) local_unnamed_addr {
block_400478:
  %PC = getelementptr inbounds %struct.State, %struct.State* %0, i64 0, i32 6, i32 33, i32 0, i32 0
  %3 = getelementptr inbounds %struct.State, %struct.State* %0, i64 0, i32 6, i32 1, i32 0
  %AL = bitcast %union.anon* %3 to i8*
  %4 = load i8, i8* %AL, align 1
  %5 = load i64, i64* %PC, align 8
  %6 = add i64 %5, 2
  store i64 %6, i64* %PC, align 8
  %7 = and i8 %4, 1
  store i8 %7, i8* %AL, align 1
  %8 = getelementptr inbounds %struct.State, %struct.State* %0, i64 0, i32 2, i32 1
  store i8 0, i8* %8, align 1
  %9 = zext i8 %7 to i32
  %10 = tail call i32 @llvm.ctpop.i32(i32 %9)
  %11 = trunc i32 %10 to i8
  %12 = xor i8 %11, 1
  %13 = getelementptr inbounds %struct.State, %struct.State* %0, i64 0, i32 2, i32 3
  store i8 %12, i8* %13, align 1
  %14 = xor i8 %7, 1
  %15 = getelementptr inbounds %struct.State, %struct.State* %0, i64 0, i32 2, i32 7
  store i8 %14, i8* %15, align 1
  %16 = getelementptr inbounds %struct.State, %struct.State* %0, i64 0, i32 2, i32 9
  store i8 0, i8* %16, align 1
  %17 = getelementptr inbounds %struct.State, %struct.State* %0, i64 0, i32 2, i32 13
  store i8 0, i8* %17, align 1
  %18 = getelementptr inbounds %struct.State, %struct.State* %0, i64 0, i32 2, i32 5
  store i8 0, i8* %18, align 1
  ret %struct.Memory* %2
}

define %struct.Memory* @routine_movzbl__al___eax(%struct.State* dereferenceable(3376), i64, %struct.Memory*) local_unnamed_addr {
block_400478:
  %PC = getelementptr inbounds %struct.State, %struct.State* %0, i64 0, i32 6, i32 33, i32 0, i32 0
  %3 = getelementptr inbounds %struct.State, %struct.State* %0, i64 0, i32 6, i32 1, i32 0
  %AL = bitcast %union.anon* %3 to i8*
  %RAX = getelementptr inbounds %union.anon, %union.anon* %3, i64 0, i32 0
  %4 = load i8, i8* %AL, align 1
  %5 = zext i8 %4 to i64
  %6 = load i64, i64* %PC, align 8
  %7 = add i64 %6, 3
  store i64 %7, i64* %PC, align 8
  store i64 %5, i64* %RAX, align 8
  ret %struct.Memory* %2
}

define %struct.Memory* @routine_popq__rbp(%struct.State* dereferenceable(3376), i64, %struct.Memory*) local_unnamed_addr {
block_400478:
  %PC = getelementptr inbounds %struct.State, %struct.State* %0, i64 0, i32 6, i32 33, i32 0, i32 0
  %RBP = getelementptr inbounds %struct.State, %struct.State* %0, i64 0, i32 6, i32 15, i32 0, i32 0
  %3 = load i64, i64* %PC, align 8
  %4 = add i64 %3, 1
  store i64 %4, i64* %PC, align 8
  %5 = getelementptr inbounds %struct.State, %struct.State* %0, i64 0, i32 6, i32 13, i32 0, i32 0
  %6 = load i64, i64* %5, align 8
  %7 = add i64 %6, 8
  %8 = inttoptr i64 %6 to i64*
  %9 = load i64, i64* %8, align 8
  store i64 %9, i64* %RBP, align 8
  store i64 %7, i64* %5, align 8
  ret %struct.Memory* %2
}

define %struct.Memory* @routine_retq(%struct.State* dereferenceable(3376), i64, %struct.Memory*) local_unnamed_addr {
block_400478:
  %PC = getelementptr inbounds %struct.State, %struct.State* %0, i64 0, i32 6, i32 33, i32 0, i32 0
  %3 = load i64, i64* %PC, align 8
  %4 = add i64 %3, 1
  store i64 %4, i64* %PC, align 8
  %5 = getelementptr inbounds %struct.State, %struct.State* %0, i64 0, i32 6, i32 13, i32 0, i32 0
  %6 = load i64, i64* %5, align 8
  %7 = inttoptr i64 %6 to i64*
  %8 = load i64, i64* %7, align 8
  store i64 %8, i64* %PC, align 8
  %9 = add i64 %6, 8
  store i64 %9, i64* %5, align 8
  ret %struct.Memory* %2
}

attributes #0 = { nounwind readnone }
attributes #1 = { alwaysinline }
