; ModuleID = './output//test.query.ll'
source_filename = "llvm-link"
target datalayout = "e-m:e-i64:64-f80:128-n8:16:32:64-S128"
target triple = "x86_64-unknown-linux-gnu"

; Function Attrs: noinline nounwind uwtable
define hidden i32 @_rev(i32 %v) #0 {
entry:
  %v.addr = alloca i32, align 4
  %r = alloca i32, align 4
  %s = alloca i32, align 4
  store i32 %v, i32* %v.addr, align 4
  %0 = load i32, i32* %v.addr, align 4
  store i32 %0, i32* %r, align 4
  store i32 31, i32* %s, align 4
  %1 = load i32, i32* %v.addr, align 4
  %shr = lshr i32 %1, 1
  store i32 %shr, i32* %v.addr, align 4
  br label %for.cond

for.cond:                                         ; preds = %for.inc, %entry
  %2 = load i32, i32* %v.addr, align 4
  %tobool = icmp ne i32 %2, 0
  br i1 %tobool, label %for.body, label %for.end

for.body:                                         ; preds = %for.cond
  %3 = load i32, i32* %r, align 4
  %shl = shl i32 %3, 1
  store i32 %shl, i32* %r, align 4
  %4 = load i32, i32* %v.addr, align 4
  %and = and i32 %4, 1
  %5 = load i32, i32* %r, align 4
  %or = or i32 %5, %and
  store i32 %or, i32* %r, align 4
  %6 = load i32, i32* %s, align 4
  %dec = add nsw i32 %6, -1
  store i32 %dec, i32* %s, align 4
  br label %for.inc

for.inc:                                          ; preds = %for.body
  %7 = load i32, i32* %v.addr, align 4
  %shr1 = lshr i32 %7, 1
  store i32 %shr1, i32* %v.addr, align 4
  br label %for.cond

for.end:                                          ; preds = %for.cond
  %8 = load i32, i32* %s, align 4
  %9 = load i32, i32* %r, align 4
  %shl2 = shl i32 %9, %8
  store i32 %shl2, i32* %r, align 4
  %10 = load i32, i32* %r, align 4
  ret i32 %10
}

attributes #0 = { noinline nounwind uwtable "correctly-rounded-divide-sqrt-fp-math"="false" "disable-tail-calls"="false" "less-precise-fpmad"="false" "no-frame-pointer-elim"="true" "no-frame-pointer-elim-non-leaf" "no-infs-fp-math"="false" "no-jump-tables"="false" "no-nans-fp-math"="false" "no-signed-zeros-fp-math"="false" "no-trapping-math"="false" "stack-protector-buffer-size"="8" "target-cpu"="x86-64" "target-features"="+fxsr,+mmx,+sse,+sse2,+x87" "unsafe-fp-math"="false" "use-soft-float"="false" }

!llvm.dbg.cu = !{!0, !440, !445, !449}
!llvm.ident = !{!452, !452, !452, !452, !452, !452, !452}
!llvm.module.flags = !{!453, !454}

!0 = distinct !DICompileUnit(language: DW_LANG_C99, file: !1, producer: "clang version 4.0.0 (tags/RELEASE_400/final)", isOptimized: true, runtimeVersion: 0, emissionKind: FullDebug, enums: !2, retainedTypes: !45, globals: !439)
!1 = !DIFile(filename: "kernels_api.c", directory: "/home/sdasgup3/Github/epochs/mini-era")
!2 = !{!3, !8, !12, !23, !31, !38}
!3 = !DICompositeType(tag: DW_TAG_enumeration_type, file: !4, line: 31, size: 32, elements: !5)
!4 = !DIFile(filename: "./kernels_api.h", directory: "/home/sdasgup3/Github/epochs/mini-era")
!5 = !{!6, !7}
!6 = !DIEnumerator(name: "false", value: 0)
!7 = !DIEnumerator(name: "true", value: 1)
!8 = !DICompositeType(tag: DW_TAG_enumeration_type, file: !4, line: 32, size: 32, elements: !9)
!9 = !{!10, !11}
!10 = !DIEnumerator(name: "error", value: 0)
!11 = !DIEnumerator(name: "success", value: 1)
!12 = !DICompositeType(tag: DW_TAG_enumeration_type, name: "Encoding", file: !13, line: 20, size: 32, elements: !14)
!13 = !DIFile(filename: "./viterbi/utils.h", directory: "/home/sdasgup3/Github/epochs/mini-era")
!14 = !{!15, !16, !17, !18, !19, !20, !21, !22}
!15 = !DIEnumerator(name: "BPSK_1_2", value: 0)
!16 = !DIEnumerator(name: "BPSK_3_4", value: 1)
!17 = !DIEnumerator(name: "QPSK_1_2", value: 2)
!18 = !DIEnumerator(name: "QPSK_3_4", value: 3)
!19 = !DIEnumerator(name: "QAM16_1_2", value: 4)
!20 = !DIEnumerator(name: "QAM16_3_4", value: 5)
!21 = !DIEnumerator(name: "QAM64_2_3", value: 6)
!22 = !DIEnumerator(name: "QAM64_3_4", value: 7)
!23 = !DICompositeType(tag: DW_TAG_enumeration_type, file: !4, line: 78, size: 32, elements: !24)
!24 = !{!25, !26, !27, !28, !29, !30}
!25 = !DIEnumerator(name: "myself", value: -1)
!26 = !DIEnumerator(name: "no_label", value: 0)
!27 = !DIEnumerator(name: "car", value: 1)
!28 = !DIEnumerator(name: "truck", value: 2)
!29 = !DIEnumerator(name: "pedestrian", value: 3)
!30 = !DIEnumerator(name: "bicycle", value: 4)
!31 = !DICompositeType(tag: DW_TAG_enumeration_type, file: !4, line: 89, size: 32, elements: !32)
!32 = !{!33, !34, !35, !36, !37}
!33 = !DIEnumerator(name: "lhazard", value: 0)
!34 = !DIEnumerator(name: "left", value: 1)
!35 = !DIEnumerator(name: "center", value: 2)
!36 = !DIEnumerator(name: "right", value: 3)
!37 = !DIEnumerator(name: "rhazard", value: 4)
!38 = !DICompositeType(tag: DW_TAG_enumeration_type, file: !4, line: 109, size: 32, elements: !39)
!39 = !{!40, !41, !42, !43, !44}
!40 = !DIEnumerator(name: "safe_to_move_right_or_left", value: 0)
!41 = !DIEnumerator(name: "safe_to_move_right_only", value: 1)
!42 = !DIEnumerator(name: "safe_to_move_left_only", value: 2)
!43 = !DIEnumerator(name: "unsafe_to_move_left_or_right", value: 3)
!44 = !DIEnumerator(name: "num_message_t", value: 4)
!45 = !{!46, !59, !60, !88, !93, !437, !51, !74, !438}
!46 = !DIDerivedType(tag: DW_TAG_pointer_type, baseType: !47, size: 64)
!47 = !DIDerivedType(tag: DW_TAG_typedef, name: "radar_dict_entry_t", file: !4, line: 43, baseType: !48)
!48 = distinct !DICompositeType(tag: DW_TAG_structure_type, file: !4, line: 38, size: 1048672, elements: !49)
!49 = !{!50, !52, !53, !55}
!50 = !DIDerivedType(tag: DW_TAG_member, name: "index", scope: !48, file: !4, line: 39, baseType: !51, size: 32)
!51 = !DIBasicType(name: "unsigned int", size: 32, encoding: DW_ATE_unsigned)
!52 = !DIDerivedType(tag: DW_TAG_member, name: "return_id", scope: !48, file: !4, line: 40, baseType: !51, size: 32, offset: 32)
!53 = !DIDerivedType(tag: DW_TAG_member, name: "distance", scope: !48, file: !4, line: 41, baseType: !54, size: 32, offset: 64)
!54 = !DIBasicType(name: "float", size: 32, encoding: DW_ATE_float)
!55 = !DIDerivedType(tag: DW_TAG_member, name: "return_data", scope: !48, file: !4, line: 42, baseType: !56, size: 1048576, offset: 96)
!56 = !DICompositeType(tag: DW_TAG_array_type, baseType: !54, size: 1048576, elements: !57)
!57 = !{!58}
!58 = !DISubrange(count: 32768)
!59 = !DIDerivedType(tag: DW_TAG_pointer_type, baseType: null, size: 64)
!60 = !DIDerivedType(tag: DW_TAG_pointer_type, baseType: !61, size: 64)
!61 = !DIDerivedType(tag: DW_TAG_typedef, name: "vit_dict_entry_t", file: !4, line: 52, baseType: !62)
!62 = distinct !DICompositeType(tag: DW_TAG_structure_type, file: !4, line: 46, size: 198624, elements: !63)
!63 = !{!64, !65, !66, !77, !86}
!64 = !DIDerivedType(tag: DW_TAG_member, name: "msg_num", scope: !62, file: !4, line: 47, baseType: !51, size: 32)
!65 = !DIDerivedType(tag: DW_TAG_member, name: "msg_id", scope: !62, file: !4, line: 48, baseType: !51, size: 32, offset: 32)
!66 = !DIDerivedType(tag: DW_TAG_member, name: "ofdm_p", scope: !62, file: !4, line: 49, baseType: !67, size: 160, offset: 64)
!67 = !DIDerivedType(tag: DW_TAG_typedef, name: "ofdm_param", file: !13, line: 59, baseType: !68)
!68 = distinct !DICompositeType(tag: DW_TAG_structure_type, file: !13, line: 44, size: 160, elements: !69)
!69 = !{!70, !71, !73, !75, !76}
!70 = !DIDerivedType(tag: DW_TAG_member, name: "encoding", scope: !68, file: !13, line: 48, baseType: !12, size: 32)
!71 = !DIDerivedType(tag: DW_TAG_member, name: "rate_field", scope: !68, file: !13, line: 50, baseType: !72, size: 8, offset: 32)
!72 = !DIBasicType(name: "char", size: 8, encoding: DW_ATE_signed_char)
!73 = !DIDerivedType(tag: DW_TAG_member, name: "n_bpsc", scope: !68, file: !13, line: 52, baseType: !74, size: 32, offset: 64)
!74 = !DIBasicType(name: "int", size: 32, encoding: DW_ATE_signed)
!75 = !DIDerivedType(tag: DW_TAG_member, name: "n_cbps", scope: !68, file: !13, line: 54, baseType: !74, size: 32, offset: 96)
!76 = !DIDerivedType(tag: DW_TAG_member, name: "n_dbps", scope: !68, file: !13, line: 56, baseType: !74, size: 32, offset: 128)
!77 = !DIDerivedType(tag: DW_TAG_member, name: "frame_p", scope: !62, file: !4, line: 50, baseType: !78, size: 160, offset: 224)
!78 = !DIDerivedType(tag: DW_TAG_typedef, name: "frame_param", file: !13, line: 77, baseType: !79)
!79 = distinct !DICompositeType(tag: DW_TAG_structure_type, file: !13, line: 64, size: 160, elements: !80)
!80 = !{!81, !82, !83, !84, !85}
!81 = !DIDerivedType(tag: DW_TAG_member, name: "psdu_size", scope: !79, file: !13, line: 67, baseType: !74, size: 32)
!82 = !DIDerivedType(tag: DW_TAG_member, name: "n_sym", scope: !79, file: !13, line: 69, baseType: !74, size: 32, offset: 32)
!83 = !DIDerivedType(tag: DW_TAG_member, name: "n_pad", scope: !79, file: !13, line: 71, baseType: !74, size: 32, offset: 64)
!84 = !DIDerivedType(tag: DW_TAG_member, name: "n_encoded_bits", scope: !79, file: !13, line: 72, baseType: !74, size: 32, offset: 96)
!85 = !DIDerivedType(tag: DW_TAG_member, name: "n_data_bits", scope: !79, file: !13, line: 74, baseType: !74, size: 32, offset: 128)
!86 = !DIDerivedType(tag: DW_TAG_member, name: "in_bits", scope: !62, file: !4, line: 51, baseType: !87, size: 198240, offset: 384)
!87 = !DICompositeType(tag: DW_TAG_array_type, baseType: !88, size: 198240, elements: !91)
!88 = !DIDerivedType(tag: DW_TAG_typedef, name: "uint8_t", file: !89, line: 48, baseType: !90)
!89 = !DIFile(filename: "/usr/include/stdint.h", directory: "/home/sdasgup3/Github/epochs/mini-era")
!90 = !DIBasicType(name: "unsigned char", size: 8, encoding: DW_ATE_unsigned_char)
!91 = !{!92}
!92 = !DISubrange(count: 24780)
!93 = !DIDerivedType(tag: DW_TAG_pointer_type, baseType: !94, size: 64)
!94 = !DIDerivedType(tag: DW_TAG_typedef, name: "PyObject", file: !95, line: 110, baseType: !96)
!95 = !DIFile(filename: "/usr/include/python3.5m/object.h", directory: "/home/sdasgup3/Github/epochs/mini-era")
!96 = distinct !DICompositeType(tag: DW_TAG_structure_type, name: "_object", file: !95, line: 106, size: 128, elements: !97)
!97 = !{!98, !106}
!98 = !DIDerivedType(tag: DW_TAG_member, name: "ob_refcnt", scope: !96, file: !95, line: 108, baseType: !99, size: 64)
!99 = !DIDerivedType(tag: DW_TAG_typedef, name: "Py_ssize_t", file: !100, line: 177, baseType: !101)
!100 = !DIFile(filename: "/usr/include/python3.5m/pyport.h", directory: "/home/sdasgup3/Github/epochs/mini-era")
!101 = !DIDerivedType(tag: DW_TAG_typedef, name: "ssize_t", file: !102, line: 104, baseType: !103)
!102 = !DIFile(filename: "/usr/include/stdio.h", directory: "/home/sdasgup3/Github/epochs/mini-era")
!103 = !DIDerivedType(tag: DW_TAG_typedef, name: "__ssize_t", file: !104, line: 172, baseType: !105)
!104 = !DIFile(filename: "/usr/include/x86_64-linux-gnu/bits/types.h", directory: "/home/sdasgup3/Github/epochs/mini-era")
!105 = !DIBasicType(name: "long int", size: 64, encoding: DW_ATE_signed)
!106 = !DIDerivedType(tag: DW_TAG_member, name: "ob_type", scope: !96, file: !95, line: 109, baseType: !107, size: 64, offset: 64)
!107 = !DIDerivedType(tag: DW_TAG_pointer_type, baseType: !108, size: 64)
!108 = distinct !DICompositeType(tag: DW_TAG_structure_type, name: "_typeobject", file: !95, line: 343, size: 3200, elements: !109)
!109 = !{!110, !116, !119, !120, !121, !126, !188, !193, !198, !210, !212, !265, !296, !308, !314, !315, !316, !318, !320, !351, !352, !353, !362, !363, !368, !369, !371, !373, !383, !386, !404, !405, !406, !408, !410, !411, !413, !418, !423, !428, !429, !430, !431, !432, !433, !434, !435, !436}
!110 = !DIDerivedType(tag: DW_TAG_member, name: "ob_base", scope: !108, file: !95, line: 344, baseType: !111, size: 192)
!111 = !DIDerivedType(tag: DW_TAG_typedef, name: "PyVarObject", file: !95, line: 115, baseType: !112)
!112 = distinct !DICompositeType(tag: DW_TAG_structure_type, file: !95, line: 112, size: 192, elements: !113)
!113 = !{!114, !115}
!114 = !DIDerivedType(tag: DW_TAG_member, name: "ob_base", scope: !112, file: !95, line: 113, baseType: !94, size: 128)
!115 = !DIDerivedType(tag: DW_TAG_member, name: "ob_size", scope: !112, file: !95, line: 114, baseType: !99, size: 64, offset: 128)
!116 = !DIDerivedType(tag: DW_TAG_member, name: "tp_name", scope: !108, file: !95, line: 345, baseType: !117, size: 64, offset: 192)
!117 = !DIDerivedType(tag: DW_TAG_pointer_type, baseType: !118, size: 64)
!118 = !DIDerivedType(tag: DW_TAG_const_type, baseType: !72)
!119 = !DIDerivedType(tag: DW_TAG_member, name: "tp_basicsize", scope: !108, file: !95, line: 346, baseType: !99, size: 64, offset: 256)
!120 = !DIDerivedType(tag: DW_TAG_member, name: "tp_itemsize", scope: !108, file: !95, line: 346, baseType: !99, size: 64, offset: 320)
!121 = !DIDerivedType(tag: DW_TAG_member, name: "tp_dealloc", scope: !108, file: !95, line: 350, baseType: !122, size: 64, offset: 384)
!122 = !DIDerivedType(tag: DW_TAG_typedef, name: "destructor", file: !95, line: 317, baseType: !123)
!123 = !DIDerivedType(tag: DW_TAG_pointer_type, baseType: !124, size: 64)
!124 = !DISubroutineType(types: !125)
!125 = !{null, !93}
!126 = !DIDerivedType(tag: DW_TAG_member, name: "tp_print", scope: !108, file: !95, line: 351, baseType: !127, size: 64, offset: 448)
!127 = !DIDerivedType(tag: DW_TAG_typedef, name: "printfunc", file: !95, line: 323, baseType: !128)
!128 = !DIDerivedType(tag: DW_TAG_pointer_type, baseType: !129, size: 64)
!129 = !DISubroutineType(types: !130)
!130 = !{!74, !93, !131, !74}
!131 = !DIDerivedType(tag: DW_TAG_pointer_type, baseType: !132, size: 64)
!132 = !DIDerivedType(tag: DW_TAG_typedef, name: "FILE", file: !102, line: 48, baseType: !133)
!133 = distinct !DICompositeType(tag: DW_TAG_structure_type, name: "_IO_FILE", file: !134, line: 241, size: 1728, elements: !135)
!134 = !DIFile(filename: "/usr/include/libio.h", directory: "/home/sdasgup3/Github/epochs/mini-era")
!135 = !{!136, !137, !139, !140, !141, !142, !143, !144, !145, !146, !147, !148, !149, !157, !158, !159, !160, !162, !164, !166, !170, !173, !175, !176, !177, !178, !179, !183, !184}
!136 = !DIDerivedType(tag: DW_TAG_member, name: "_flags", scope: !133, file: !134, line: 242, baseType: !74, size: 32)
!137 = !DIDerivedType(tag: DW_TAG_member, name: "_IO_read_ptr", scope: !133, file: !134, line: 247, baseType: !138, size: 64, offset: 64)
!138 = !DIDerivedType(tag: DW_TAG_pointer_type, baseType: !72, size: 64)
!139 = !DIDerivedType(tag: DW_TAG_member, name: "_IO_read_end", scope: !133, file: !134, line: 248, baseType: !138, size: 64, offset: 128)
!140 = !DIDerivedType(tag: DW_TAG_member, name: "_IO_read_base", scope: !133, file: !134, line: 249, baseType: !138, size: 64, offset: 192)
!141 = !DIDerivedType(tag: DW_TAG_member, name: "_IO_write_base", scope: !133, file: !134, line: 250, baseType: !138, size: 64, offset: 256)
!142 = !DIDerivedType(tag: DW_TAG_member, name: "_IO_write_ptr", scope: !133, file: !134, line: 251, baseType: !138, size: 64, offset: 320)
!143 = !DIDerivedType(tag: DW_TAG_member, name: "_IO_write_end", scope: !133, file: !134, line: 252, baseType: !138, size: 64, offset: 384)
!144 = !DIDerivedType(tag: DW_TAG_member, name: "_IO_buf_base", scope: !133, file: !134, line: 253, baseType: !138, size: 64, offset: 448)
!145 = !DIDerivedType(tag: DW_TAG_member, name: "_IO_buf_end", scope: !133, file: !134, line: 254, baseType: !138, size: 64, offset: 512)
!146 = !DIDerivedType(tag: DW_TAG_member, name: "_IO_save_base", scope: !133, file: !134, line: 256, baseType: !138, size: 64, offset: 576)
!147 = !DIDerivedType(tag: DW_TAG_member, name: "_IO_backup_base", scope: !133, file: !134, line: 257, baseType: !138, size: 64, offset: 640)
!148 = !DIDerivedType(tag: DW_TAG_member, name: "_IO_save_end", scope: !133, file: !134, line: 258, baseType: !138, size: 64, offset: 704)
!149 = !DIDerivedType(tag: DW_TAG_member, name: "_markers", scope: !133, file: !134, line: 260, baseType: !150, size: 64, offset: 768)
!150 = !DIDerivedType(tag: DW_TAG_pointer_type, baseType: !151, size: 64)
!151 = distinct !DICompositeType(tag: DW_TAG_structure_type, name: "_IO_marker", file: !134, line: 156, size: 192, elements: !152)
!152 = !{!153, !154, !156}
!153 = !DIDerivedType(tag: DW_TAG_member, name: "_next", scope: !151, file: !134, line: 157, baseType: !150, size: 64)
!154 = !DIDerivedType(tag: DW_TAG_member, name: "_sbuf", scope: !151, file: !134, line: 158, baseType: !155, size: 64, offset: 64)
!155 = !DIDerivedType(tag: DW_TAG_pointer_type, baseType: !133, size: 64)
!156 = !DIDerivedType(tag: DW_TAG_member, name: "_pos", scope: !151, file: !134, line: 162, baseType: !74, size: 32, offset: 128)
!157 = !DIDerivedType(tag: DW_TAG_member, name: "_chain", scope: !133, file: !134, line: 262, baseType: !155, size: 64, offset: 832)
!158 = !DIDerivedType(tag: DW_TAG_member, name: "_fileno", scope: !133, file: !134, line: 264, baseType: !74, size: 32, offset: 896)
!159 = !DIDerivedType(tag: DW_TAG_member, name: "_flags2", scope: !133, file: !134, line: 268, baseType: !74, size: 32, offset: 928)
!160 = !DIDerivedType(tag: DW_TAG_member, name: "_old_offset", scope: !133, file: !134, line: 270, baseType: !161, size: 64, offset: 960)
!161 = !DIDerivedType(tag: DW_TAG_typedef, name: "__off_t", file: !104, line: 131, baseType: !105)
!162 = !DIDerivedType(tag: DW_TAG_member, name: "_cur_column", scope: !133, file: !134, line: 274, baseType: !163, size: 16, offset: 1024)
!163 = !DIBasicType(name: "unsigned short", size: 16, encoding: DW_ATE_unsigned)
!164 = !DIDerivedType(tag: DW_TAG_member, name: "_vtable_offset", scope: !133, file: !134, line: 275, baseType: !165, size: 8, offset: 1040)
!165 = !DIBasicType(name: "signed char", size: 8, encoding: DW_ATE_signed_char)
!166 = !DIDerivedType(tag: DW_TAG_member, name: "_shortbuf", scope: !133, file: !134, line: 276, baseType: !167, size: 8, offset: 1048)
!167 = !DICompositeType(tag: DW_TAG_array_type, baseType: !72, size: 8, elements: !168)
!168 = !{!169}
!169 = !DISubrange(count: 1)
!170 = !DIDerivedType(tag: DW_TAG_member, name: "_lock", scope: !133, file: !134, line: 280, baseType: !171, size: 64, offset: 1088)
!171 = !DIDerivedType(tag: DW_TAG_pointer_type, baseType: !172, size: 64)
!172 = !DIDerivedType(tag: DW_TAG_typedef, name: "_IO_lock_t", file: !134, line: 150, baseType: null)
!173 = !DIDerivedType(tag: DW_TAG_member, name: "_offset", scope: !133, file: !134, line: 289, baseType: !174, size: 64, offset: 1152)
!174 = !DIDerivedType(tag: DW_TAG_typedef, name: "__off64_t", file: !104, line: 132, baseType: !105)
!175 = !DIDerivedType(tag: DW_TAG_member, name: "__pad1", scope: !133, file: !134, line: 297, baseType: !59, size: 64, offset: 1216)
!176 = !DIDerivedType(tag: DW_TAG_member, name: "__pad2", scope: !133, file: !134, line: 298, baseType: !59, size: 64, offset: 1280)
!177 = !DIDerivedType(tag: DW_TAG_member, name: "__pad3", scope: !133, file: !134, line: 299, baseType: !59, size: 64, offset: 1344)
!178 = !DIDerivedType(tag: DW_TAG_member, name: "__pad4", scope: !133, file: !134, line: 300, baseType: !59, size: 64, offset: 1408)
!179 = !DIDerivedType(tag: DW_TAG_member, name: "__pad5", scope: !133, file: !134, line: 302, baseType: !180, size: 64, offset: 1472)
!180 = !DIDerivedType(tag: DW_TAG_typedef, name: "size_t", file: !181, line: 62, baseType: !182)
!181 = !DIFile(filename: "/home/sdasgup3/Install/llvm/llvm.4.0.0.install/bin/../lib/clang/4.0.0/include/stddef.h", directory: "/home/sdasgup3/Github/epochs/mini-era")
!182 = !DIBasicType(name: "long unsigned int", size: 64, encoding: DW_ATE_unsigned)
!183 = !DIDerivedType(tag: DW_TAG_member, name: "_mode", scope: !133, file: !134, line: 303, baseType: !74, size: 32, offset: 1536)
!184 = !DIDerivedType(tag: DW_TAG_member, name: "_unused2", scope: !133, file: !134, line: 305, baseType: !185, size: 160, offset: 1568)
!185 = !DICompositeType(tag: DW_TAG_array_type, baseType: !72, size: 160, elements: !186)
!186 = !{!187}
!187 = !DISubrange(count: 20)
!188 = !DIDerivedType(tag: DW_TAG_member, name: "tp_getattr", scope: !108, file: !95, line: 352, baseType: !189, size: 64, offset: 512)
!189 = !DIDerivedType(tag: DW_TAG_typedef, name: "getattrfunc", file: !95, line: 325, baseType: !190)
!190 = !DIDerivedType(tag: DW_TAG_pointer_type, baseType: !191, size: 64)
!191 = !DISubroutineType(types: !192)
!192 = !{!93, !93, !138}
!193 = !DIDerivedType(tag: DW_TAG_member, name: "tp_setattr", scope: !108, file: !95, line: 353, baseType: !194, size: 64, offset: 576)
!194 = !DIDerivedType(tag: DW_TAG_typedef, name: "setattrfunc", file: !95, line: 327, baseType: !195)
!195 = !DIDerivedType(tag: DW_TAG_pointer_type, baseType: !196, size: 64)
!196 = !DISubroutineType(types: !197)
!197 = !{!74, !93, !138, !93}
!198 = !DIDerivedType(tag: DW_TAG_member, name: "tp_as_async", scope: !108, file: !95, line: 354, baseType: !199, size: 64, offset: 640)
!199 = !DIDerivedType(tag: DW_TAG_pointer_type, baseType: !200, size: 64)
!200 = !DIDerivedType(tag: DW_TAG_typedef, name: "PyAsyncMethods", file: !95, line: 308, baseType: !201)
!201 = distinct !DICompositeType(tag: DW_TAG_structure_type, file: !95, line: 304, size: 192, elements: !202)
!202 = !{!203, !208, !209}
!203 = !DIDerivedType(tag: DW_TAG_member, name: "am_await", scope: !201, file: !95, line: 305, baseType: !204, size: 64)
!204 = !DIDerivedType(tag: DW_TAG_typedef, name: "unaryfunc", file: !95, line: 166, baseType: !205)
!205 = !DIDerivedType(tag: DW_TAG_pointer_type, baseType: !206, size: 64)
!206 = !DISubroutineType(types: !207)
!207 = !{!93, !93}
!208 = !DIDerivedType(tag: DW_TAG_member, name: "am_aiter", scope: !201, file: !95, line: 306, baseType: !204, size: 64, offset: 64)
!209 = !DIDerivedType(tag: DW_TAG_member, name: "am_anext", scope: !201, file: !95, line: 307, baseType: !204, size: 64, offset: 128)
!210 = !DIDerivedType(tag: DW_TAG_member, name: "tp_repr", scope: !108, file: !95, line: 356, baseType: !211, size: 64, offset: 704)
!211 = !DIDerivedType(tag: DW_TAG_typedef, name: "reprfunc", file: !95, line: 329, baseType: !205)
!212 = !DIDerivedType(tag: DW_TAG_member, name: "tp_as_number", scope: !108, file: !95, line: 360, baseType: !213, size: 64, offset: 768)
!213 = !DIDerivedType(tag: DW_TAG_pointer_type, baseType: !214, size: 64)
!214 = !DIDerivedType(tag: DW_TAG_typedef, name: "PyNumberMethods", file: !95, line: 282, baseType: !215)
!215 = distinct !DICompositeType(tag: DW_TAG_structure_type, file: !95, line: 237, size: 2304, elements: !216)
!216 = !{!217, !222, !223, !224, !225, !226, !231, !232, !233, !234, !239, !240, !241, !242, !243, !244, !245, !246, !247, !248, !249, !250, !251, !252, !253, !254, !255, !256, !257, !258, !259, !260, !261, !262, !263, !264}
!217 = !DIDerivedType(tag: DW_TAG_member, name: "nb_add", scope: !215, file: !95, line: 242, baseType: !218, size: 64)
!218 = !DIDerivedType(tag: DW_TAG_typedef, name: "binaryfunc", file: !95, line: 167, baseType: !219)
!219 = !DIDerivedType(tag: DW_TAG_pointer_type, baseType: !220, size: 64)
!220 = !DISubroutineType(types: !221)
!221 = !{!93, !93, !93}
!222 = !DIDerivedType(tag: DW_TAG_member, name: "nb_subtract", scope: !215, file: !95, line: 243, baseType: !218, size: 64, offset: 64)
!223 = !DIDerivedType(tag: DW_TAG_member, name: "nb_multiply", scope: !215, file: !95, line: 244, baseType: !218, size: 64, offset: 128)
!224 = !DIDerivedType(tag: DW_TAG_member, name: "nb_remainder", scope: !215, file: !95, line: 245, baseType: !218, size: 64, offset: 192)
!225 = !DIDerivedType(tag: DW_TAG_member, name: "nb_divmod", scope: !215, file: !95, line: 246, baseType: !218, size: 64, offset: 256)
!226 = !DIDerivedType(tag: DW_TAG_member, name: "nb_power", scope: !215, file: !95, line: 247, baseType: !227, size: 64, offset: 320)
!227 = !DIDerivedType(tag: DW_TAG_typedef, name: "ternaryfunc", file: !95, line: 168, baseType: !228)
!228 = !DIDerivedType(tag: DW_TAG_pointer_type, baseType: !229, size: 64)
!229 = !DISubroutineType(types: !230)
!230 = !{!93, !93, !93, !93}
!231 = !DIDerivedType(tag: DW_TAG_member, name: "nb_negative", scope: !215, file: !95, line: 248, baseType: !204, size: 64, offset: 384)
!232 = !DIDerivedType(tag: DW_TAG_member, name: "nb_positive", scope: !215, file: !95, line: 249, baseType: !204, size: 64, offset: 448)
!233 = !DIDerivedType(tag: DW_TAG_member, name: "nb_absolute", scope: !215, file: !95, line: 250, baseType: !204, size: 64, offset: 512)
!234 = !DIDerivedType(tag: DW_TAG_member, name: "nb_bool", scope: !215, file: !95, line: 251, baseType: !235, size: 64, offset: 576)
!235 = !DIDerivedType(tag: DW_TAG_typedef, name: "inquiry", file: !95, line: 169, baseType: !236)
!236 = !DIDerivedType(tag: DW_TAG_pointer_type, baseType: !237, size: 64)
!237 = !DISubroutineType(types: !238)
!238 = !{!74, !93}
!239 = !DIDerivedType(tag: DW_TAG_member, name: "nb_invert", scope: !215, file: !95, line: 252, baseType: !204, size: 64, offset: 640)
!240 = !DIDerivedType(tag: DW_TAG_member, name: "nb_lshift", scope: !215, file: !95, line: 253, baseType: !218, size: 64, offset: 704)
!241 = !DIDerivedType(tag: DW_TAG_member, name: "nb_rshift", scope: !215, file: !95, line: 254, baseType: !218, size: 64, offset: 768)
!242 = !DIDerivedType(tag: DW_TAG_member, name: "nb_and", scope: !215, file: !95, line: 255, baseType: !218, size: 64, offset: 832)
!243 = !DIDerivedType(tag: DW_TAG_member, name: "nb_xor", scope: !215, file: !95, line: 256, baseType: !218, size: 64, offset: 896)
!244 = !DIDerivedType(tag: DW_TAG_member, name: "nb_or", scope: !215, file: !95, line: 257, baseType: !218, size: 64, offset: 960)
!245 = !DIDerivedType(tag: DW_TAG_member, name: "nb_int", scope: !215, file: !95, line: 258, baseType: !204, size: 64, offset: 1024)
!246 = !DIDerivedType(tag: DW_TAG_member, name: "nb_reserved", scope: !215, file: !95, line: 259, baseType: !59, size: 64, offset: 1088)
!247 = !DIDerivedType(tag: DW_TAG_member, name: "nb_float", scope: !215, file: !95, line: 260, baseType: !204, size: 64, offset: 1152)
!248 = !DIDerivedType(tag: DW_TAG_member, name: "nb_inplace_add", scope: !215, file: !95, line: 262, baseType: !218, size: 64, offset: 1216)
!249 = !DIDerivedType(tag: DW_TAG_member, name: "nb_inplace_subtract", scope: !215, file: !95, line: 263, baseType: !218, size: 64, offset: 1280)
!250 = !DIDerivedType(tag: DW_TAG_member, name: "nb_inplace_multiply", scope: !215, file: !95, line: 264, baseType: !218, size: 64, offset: 1344)
!251 = !DIDerivedType(tag: DW_TAG_member, name: "nb_inplace_remainder", scope: !215, file: !95, line: 265, baseType: !218, size: 64, offset: 1408)
!252 = !DIDerivedType(tag: DW_TAG_member, name: "nb_inplace_power", scope: !215, file: !95, line: 266, baseType: !227, size: 64, offset: 1472)
!253 = !DIDerivedType(tag: DW_TAG_member, name: "nb_inplace_lshift", scope: !215, file: !95, line: 267, baseType: !218, size: 64, offset: 1536)
!254 = !DIDerivedType(tag: DW_TAG_member, name: "nb_inplace_rshift", scope: !215, file: !95, line: 268, baseType: !218, size: 64, offset: 1600)
!255 = !DIDerivedType(tag: DW_TAG_member, name: "nb_inplace_and", scope: !215, file: !95, line: 269, baseType: !218, size: 64, offset: 1664)
!256 = !DIDerivedType(tag: DW_TAG_member, name: "nb_inplace_xor", scope: !215, file: !95, line: 270, baseType: !218, size: 64, offset: 1728)
!257 = !DIDerivedType(tag: DW_TAG_member, name: "nb_inplace_or", scope: !215, file: !95, line: 271, baseType: !218, size: 64, offset: 1792)
!258 = !DIDerivedType(tag: DW_TAG_member, name: "nb_floor_divide", scope: !215, file: !95, line: 273, baseType: !218, size: 64, offset: 1856)
!259 = !DIDerivedType(tag: DW_TAG_member, name: "nb_true_divide", scope: !215, file: !95, line: 274, baseType: !218, size: 64, offset: 1920)
!260 = !DIDerivedType(tag: DW_TAG_member, name: "nb_inplace_floor_divide", scope: !215, file: !95, line: 275, baseType: !218, size: 64, offset: 1984)
!261 = !DIDerivedType(tag: DW_TAG_member, name: "nb_inplace_true_divide", scope: !215, file: !95, line: 276, baseType: !218, size: 64, offset: 2048)
!262 = !DIDerivedType(tag: DW_TAG_member, name: "nb_index", scope: !215, file: !95, line: 278, baseType: !204, size: 64, offset: 2112)
!263 = !DIDerivedType(tag: DW_TAG_member, name: "nb_matrix_multiply", scope: !215, file: !95, line: 280, baseType: !218, size: 64, offset: 2176)
!264 = !DIDerivedType(tag: DW_TAG_member, name: "nb_inplace_matrix_multiply", scope: !215, file: !95, line: 281, baseType: !218, size: 64, offset: 2240)
!265 = !DIDerivedType(tag: DW_TAG_member, name: "tp_as_sequence", scope: !108, file: !95, line: 361, baseType: !266, size: 64, offset: 832)
!266 = !DIDerivedType(tag: DW_TAG_pointer_type, baseType: !267, size: 64)
!267 = !DIDerivedType(tag: DW_TAG_typedef, name: "PySequenceMethods", file: !95, line: 296, baseType: !268)
!268 = distinct !DICompositeType(tag: DW_TAG_structure_type, file: !95, line: 284, size: 640, elements: !269)
!269 = !{!270, !275, !276, !281, !282, !283, !288, !289, !294, !295}
!270 = !DIDerivedType(tag: DW_TAG_member, name: "sq_length", scope: !268, file: !95, line: 285, baseType: !271, size: 64)
!271 = !DIDerivedType(tag: DW_TAG_typedef, name: "lenfunc", file: !95, line: 170, baseType: !272)
!272 = !DIDerivedType(tag: DW_TAG_pointer_type, baseType: !273, size: 64)
!273 = !DISubroutineType(types: !274)
!274 = !{!99, !93}
!275 = !DIDerivedType(tag: DW_TAG_member, name: "sq_concat", scope: !268, file: !95, line: 286, baseType: !218, size: 64, offset: 64)
!276 = !DIDerivedType(tag: DW_TAG_member, name: "sq_repeat", scope: !268, file: !95, line: 287, baseType: !277, size: 64, offset: 128)
!277 = !DIDerivedType(tag: DW_TAG_typedef, name: "ssizeargfunc", file: !95, line: 171, baseType: !278)
!278 = !DIDerivedType(tag: DW_TAG_pointer_type, baseType: !279, size: 64)
!279 = !DISubroutineType(types: !280)
!280 = !{!93, !93, !99}
!281 = !DIDerivedType(tag: DW_TAG_member, name: "sq_item", scope: !268, file: !95, line: 288, baseType: !277, size: 64, offset: 192)
!282 = !DIDerivedType(tag: DW_TAG_member, name: "was_sq_slice", scope: !268, file: !95, line: 289, baseType: !59, size: 64, offset: 256)
!283 = !DIDerivedType(tag: DW_TAG_member, name: "sq_ass_item", scope: !268, file: !95, line: 290, baseType: !284, size: 64, offset: 320)
!284 = !DIDerivedType(tag: DW_TAG_typedef, name: "ssizeobjargproc", file: !95, line: 173, baseType: !285)
!285 = !DIDerivedType(tag: DW_TAG_pointer_type, baseType: !286, size: 64)
!286 = !DISubroutineType(types: !287)
!287 = !{!74, !93, !99, !93}
!288 = !DIDerivedType(tag: DW_TAG_member, name: "was_sq_ass_slice", scope: !268, file: !95, line: 291, baseType: !59, size: 64, offset: 384)
!289 = !DIDerivedType(tag: DW_TAG_member, name: "sq_contains", scope: !268, file: !95, line: 292, baseType: !290, size: 64, offset: 448)
!290 = !DIDerivedType(tag: DW_TAG_typedef, name: "objobjproc", file: !95, line: 232, baseType: !291)
!291 = !DIDerivedType(tag: DW_TAG_pointer_type, baseType: !292, size: 64)
!292 = !DISubroutineType(types: !293)
!293 = !{!74, !93, !93}
!294 = !DIDerivedType(tag: DW_TAG_member, name: "sq_inplace_concat", scope: !268, file: !95, line: 294, baseType: !218, size: 64, offset: 512)
!295 = !DIDerivedType(tag: DW_TAG_member, name: "sq_inplace_repeat", scope: !268, file: !95, line: 295, baseType: !277, size: 64, offset: 576)
!296 = !DIDerivedType(tag: DW_TAG_member, name: "tp_as_mapping", scope: !108, file: !95, line: 362, baseType: !297, size: 64, offset: 896)
!297 = !DIDerivedType(tag: DW_TAG_pointer_type, baseType: !298, size: 64)
!298 = !DIDerivedType(tag: DW_TAG_typedef, name: "PyMappingMethods", file: !95, line: 302, baseType: !299)
!299 = distinct !DICompositeType(tag: DW_TAG_structure_type, file: !95, line: 298, size: 192, elements: !300)
!300 = !{!301, !302, !303}
!301 = !DIDerivedType(tag: DW_TAG_member, name: "mp_length", scope: !299, file: !95, line: 299, baseType: !271, size: 64)
!302 = !DIDerivedType(tag: DW_TAG_member, name: "mp_subscript", scope: !299, file: !95, line: 300, baseType: !218, size: 64, offset: 64)
!303 = !DIDerivedType(tag: DW_TAG_member, name: "mp_ass_subscript", scope: !299, file: !95, line: 301, baseType: !304, size: 64, offset: 128)
!304 = !DIDerivedType(tag: DW_TAG_typedef, name: "objobjargproc", file: !95, line: 175, baseType: !305)
!305 = !DIDerivedType(tag: DW_TAG_pointer_type, baseType: !306, size: 64)
!306 = !DISubroutineType(types: !307)
!307 = !{!74, !93, !93, !93}
!308 = !DIDerivedType(tag: DW_TAG_member, name: "tp_hash", scope: !108, file: !95, line: 366, baseType: !309, size: 64, offset: 960)
!309 = !DIDerivedType(tag: DW_TAG_typedef, name: "hashfunc", file: !95, line: 330, baseType: !310)
!310 = !DIDerivedType(tag: DW_TAG_pointer_type, baseType: !311, size: 64)
!311 = !DISubroutineType(types: !312)
!312 = !{!313, !93}
!313 = !DIDerivedType(tag: DW_TAG_typedef, name: "Py_hash_t", file: !100, line: 186, baseType: !99)
!314 = !DIDerivedType(tag: DW_TAG_member, name: "tp_call", scope: !108, file: !95, line: 367, baseType: !227, size: 64, offset: 1024)
!315 = !DIDerivedType(tag: DW_TAG_member, name: "tp_str", scope: !108, file: !95, line: 368, baseType: !211, size: 64, offset: 1088)
!316 = !DIDerivedType(tag: DW_TAG_member, name: "tp_getattro", scope: !108, file: !95, line: 369, baseType: !317, size: 64, offset: 1152)
!317 = !DIDerivedType(tag: DW_TAG_typedef, name: "getattrofunc", file: !95, line: 326, baseType: !219)
!318 = !DIDerivedType(tag: DW_TAG_member, name: "tp_setattro", scope: !108, file: !95, line: 370, baseType: !319, size: 64, offset: 1216)
!319 = !DIDerivedType(tag: DW_TAG_typedef, name: "setattrofunc", file: !95, line: 328, baseType: !305)
!320 = !DIDerivedType(tag: DW_TAG_member, name: "tp_as_buffer", scope: !108, file: !95, line: 373, baseType: !321, size: 64, offset: 1280)
!321 = !DIDerivedType(tag: DW_TAG_pointer_type, baseType: !322, size: 64)
!322 = !DIDerivedType(tag: DW_TAG_typedef, name: "PyBufferProcs", file: !95, line: 313, baseType: !323)
!323 = distinct !DICompositeType(tag: DW_TAG_structure_type, file: !95, line: 310, size: 128, elements: !324)
!324 = !{!325, !346}
!325 = !DIDerivedType(tag: DW_TAG_member, name: "bf_getbuffer", scope: !323, file: !95, line: 311, baseType: !326, size: 64)
!326 = !DIDerivedType(tag: DW_TAG_typedef, name: "getbufferproc", file: !95, line: 194, baseType: !327)
!327 = !DIDerivedType(tag: DW_TAG_pointer_type, baseType: !328, size: 64)
!328 = !DISubroutineType(types: !329)
!329 = !{!74, !93, !330, !74}
!330 = !DIDerivedType(tag: DW_TAG_pointer_type, baseType: !331, size: 64)
!331 = !DIDerivedType(tag: DW_TAG_typedef, name: "Py_buffer", file: !95, line: 192, baseType: !332)
!332 = distinct !DICompositeType(tag: DW_TAG_structure_type, name: "bufferinfo", file: !95, line: 179, size: 640, elements: !333)
!333 = !{!334, !335, !336, !337, !338, !339, !340, !341, !343, !344, !345}
!334 = !DIDerivedType(tag: DW_TAG_member, name: "buf", scope: !332, file: !95, line: 180, baseType: !59, size: 64)
!335 = !DIDerivedType(tag: DW_TAG_member, name: "obj", scope: !332, file: !95, line: 181, baseType: !93, size: 64, offset: 64)
!336 = !DIDerivedType(tag: DW_TAG_member, name: "len", scope: !332, file: !95, line: 182, baseType: !99, size: 64, offset: 128)
!337 = !DIDerivedType(tag: DW_TAG_member, name: "itemsize", scope: !332, file: !95, line: 183, baseType: !99, size: 64, offset: 192)
!338 = !DIDerivedType(tag: DW_TAG_member, name: "readonly", scope: !332, file: !95, line: 185, baseType: !74, size: 32, offset: 256)
!339 = !DIDerivedType(tag: DW_TAG_member, name: "ndim", scope: !332, file: !95, line: 186, baseType: !74, size: 32, offset: 288)
!340 = !DIDerivedType(tag: DW_TAG_member, name: "format", scope: !332, file: !95, line: 187, baseType: !138, size: 64, offset: 320)
!341 = !DIDerivedType(tag: DW_TAG_member, name: "shape", scope: !332, file: !95, line: 188, baseType: !342, size: 64, offset: 384)
!342 = !DIDerivedType(tag: DW_TAG_pointer_type, baseType: !99, size: 64)
!343 = !DIDerivedType(tag: DW_TAG_member, name: "strides", scope: !332, file: !95, line: 189, baseType: !342, size: 64, offset: 448)
!344 = !DIDerivedType(tag: DW_TAG_member, name: "suboffsets", scope: !332, file: !95, line: 190, baseType: !342, size: 64, offset: 512)
!345 = !DIDerivedType(tag: DW_TAG_member, name: "internal", scope: !332, file: !95, line: 191, baseType: !59, size: 64, offset: 576)
!346 = !DIDerivedType(tag: DW_TAG_member, name: "bf_releasebuffer", scope: !323, file: !95, line: 312, baseType: !347, size: 64, offset: 64)
!347 = !DIDerivedType(tag: DW_TAG_typedef, name: "releasebufferproc", file: !95, line: 195, baseType: !348)
!348 = !DIDerivedType(tag: DW_TAG_pointer_type, baseType: !349, size: 64)
!349 = !DISubroutineType(types: !350)
!350 = !{null, !93, !330}
!351 = !DIDerivedType(tag: DW_TAG_member, name: "tp_flags", scope: !108, file: !95, line: 376, baseType: !182, size: 64, offset: 1344)
!352 = !DIDerivedType(tag: DW_TAG_member, name: "tp_doc", scope: !108, file: !95, line: 378, baseType: !117, size: 64, offset: 1408)
!353 = !DIDerivedType(tag: DW_TAG_member, name: "tp_traverse", scope: !108, file: !95, line: 382, baseType: !354, size: 64, offset: 1472)
!354 = !DIDerivedType(tag: DW_TAG_typedef, name: "traverseproc", file: !95, line: 234, baseType: !355)
!355 = !DIDerivedType(tag: DW_TAG_pointer_type, baseType: !356, size: 64)
!356 = !DISubroutineType(types: !357)
!357 = !{!74, !93, !358, !59}
!358 = !DIDerivedType(tag: DW_TAG_typedef, name: "visitproc", file: !95, line: 233, baseType: !359)
!359 = !DIDerivedType(tag: DW_TAG_pointer_type, baseType: !360, size: 64)
!360 = !DISubroutineType(types: !361)
!361 = !{!74, !93, !59}
!362 = !DIDerivedType(tag: DW_TAG_member, name: "tp_clear", scope: !108, file: !95, line: 385, baseType: !235, size: 64, offset: 1536)
!363 = !DIDerivedType(tag: DW_TAG_member, name: "tp_richcompare", scope: !108, file: !95, line: 389, baseType: !364, size: 64, offset: 1600)
!364 = !DIDerivedType(tag: DW_TAG_typedef, name: "richcmpfunc", file: !95, line: 331, baseType: !365)
!365 = !DIDerivedType(tag: DW_TAG_pointer_type, baseType: !366, size: 64)
!366 = !DISubroutineType(types: !367)
!367 = !{!93, !93, !93, !74}
!368 = !DIDerivedType(tag: DW_TAG_member, name: "tp_weaklistoffset", scope: !108, file: !95, line: 392, baseType: !99, size: 64, offset: 1664)
!369 = !DIDerivedType(tag: DW_TAG_member, name: "tp_iter", scope: !108, file: !95, line: 395, baseType: !370, size: 64, offset: 1728)
!370 = !DIDerivedType(tag: DW_TAG_typedef, name: "getiterfunc", file: !95, line: 332, baseType: !205)
!371 = !DIDerivedType(tag: DW_TAG_member, name: "tp_iternext", scope: !108, file: !95, line: 396, baseType: !372, size: 64, offset: 1792)
!372 = !DIDerivedType(tag: DW_TAG_typedef, name: "iternextfunc", file: !95, line: 333, baseType: !205)
!373 = !DIDerivedType(tag: DW_TAG_member, name: "tp_methods", scope: !108, file: !95, line: 399, baseType: !374, size: 64, offset: 1856)
!374 = !DIDerivedType(tag: DW_TAG_pointer_type, baseType: !375, size: 64)
!375 = distinct !DICompositeType(tag: DW_TAG_structure_type, name: "PyMethodDef", file: !376, line: 40, size: 256, elements: !377)
!376 = !DIFile(filename: "/usr/include/python3.5m/methodobject.h", directory: "/home/sdasgup3/Github/epochs/mini-era")
!377 = !{!378, !379, !381, !382}
!378 = !DIDerivedType(tag: DW_TAG_member, name: "ml_name", scope: !375, file: !376, line: 41, baseType: !117, size: 64)
!379 = !DIDerivedType(tag: DW_TAG_member, name: "ml_meth", scope: !375, file: !376, line: 42, baseType: !380, size: 64, offset: 64)
!380 = !DIDerivedType(tag: DW_TAG_typedef, name: "PyCFunction", file: !376, line: 18, baseType: !219)
!381 = !DIDerivedType(tag: DW_TAG_member, name: "ml_flags", scope: !375, file: !376, line: 43, baseType: !74, size: 32, offset: 128)
!382 = !DIDerivedType(tag: DW_TAG_member, name: "ml_doc", scope: !375, file: !376, line: 45, baseType: !117, size: 64, offset: 192)
!383 = !DIDerivedType(tag: DW_TAG_member, name: "tp_members", scope: !108, file: !95, line: 400, baseType: !384, size: 64, offset: 1920)
!384 = !DIDerivedType(tag: DW_TAG_pointer_type, baseType: !385, size: 64)
!385 = !DICompositeType(tag: DW_TAG_structure_type, name: "PyMemberDef", file: !95, line: 400, flags: DIFlagFwdDecl)
!386 = !DIDerivedType(tag: DW_TAG_member, name: "tp_getset", scope: !108, file: !95, line: 401, baseType: !387, size: 64, offset: 1984)
!387 = !DIDerivedType(tag: DW_TAG_pointer_type, baseType: !388, size: 64)
!388 = distinct !DICompositeType(tag: DW_TAG_structure_type, name: "PyGetSetDef", file: !389, line: 11, size: 320, elements: !390)
!389 = !DIFile(filename: "/usr/include/python3.5m/descrobject.h", directory: "/home/sdasgup3/Github/epochs/mini-era")
!390 = !{!391, !392, !397, !402, !403}
!391 = !DIDerivedType(tag: DW_TAG_member, name: "name", scope: !388, file: !389, line: 12, baseType: !138, size: 64)
!392 = !DIDerivedType(tag: DW_TAG_member, name: "get", scope: !388, file: !389, line: 13, baseType: !393, size: 64, offset: 64)
!393 = !DIDerivedType(tag: DW_TAG_typedef, name: "getter", file: !389, line: 8, baseType: !394)
!394 = !DIDerivedType(tag: DW_TAG_pointer_type, baseType: !395, size: 64)
!395 = !DISubroutineType(types: !396)
!396 = !{!93, !93, !59}
!397 = !DIDerivedType(tag: DW_TAG_member, name: "set", scope: !388, file: !389, line: 14, baseType: !398, size: 64, offset: 128)
!398 = !DIDerivedType(tag: DW_TAG_typedef, name: "setter", file: !389, line: 9, baseType: !399)
!399 = !DIDerivedType(tag: DW_TAG_pointer_type, baseType: !400, size: 64)
!400 = !DISubroutineType(types: !401)
!401 = !{!74, !93, !93, !59}
!402 = !DIDerivedType(tag: DW_TAG_member, name: "doc", scope: !388, file: !389, line: 15, baseType: !138, size: 64, offset: 192)
!403 = !DIDerivedType(tag: DW_TAG_member, name: "closure", scope: !388, file: !389, line: 16, baseType: !59, size: 64, offset: 256)
!404 = !DIDerivedType(tag: DW_TAG_member, name: "tp_base", scope: !108, file: !95, line: 402, baseType: !107, size: 64, offset: 2048)
!405 = !DIDerivedType(tag: DW_TAG_member, name: "tp_dict", scope: !108, file: !95, line: 403, baseType: !93, size: 64, offset: 2112)
!406 = !DIDerivedType(tag: DW_TAG_member, name: "tp_descr_get", scope: !108, file: !95, line: 404, baseType: !407, size: 64, offset: 2176)
!407 = !DIDerivedType(tag: DW_TAG_typedef, name: "descrgetfunc", file: !95, line: 334, baseType: !228)
!408 = !DIDerivedType(tag: DW_TAG_member, name: "tp_descr_set", scope: !108, file: !95, line: 405, baseType: !409, size: 64, offset: 2240)
!409 = !DIDerivedType(tag: DW_TAG_typedef, name: "descrsetfunc", file: !95, line: 335, baseType: !305)
!410 = !DIDerivedType(tag: DW_TAG_member, name: "tp_dictoffset", scope: !108, file: !95, line: 406, baseType: !99, size: 64, offset: 2304)
!411 = !DIDerivedType(tag: DW_TAG_member, name: "tp_init", scope: !108, file: !95, line: 407, baseType: !412, size: 64, offset: 2368)
!412 = !DIDerivedType(tag: DW_TAG_typedef, name: "initproc", file: !95, line: 336, baseType: !305)
!413 = !DIDerivedType(tag: DW_TAG_member, name: "tp_alloc", scope: !108, file: !95, line: 408, baseType: !414, size: 64, offset: 2432)
!414 = !DIDerivedType(tag: DW_TAG_typedef, name: "allocfunc", file: !95, line: 338, baseType: !415)
!415 = !DIDerivedType(tag: DW_TAG_pointer_type, baseType: !416, size: 64)
!416 = !DISubroutineType(types: !417)
!417 = !{!93, !107, !99}
!418 = !DIDerivedType(tag: DW_TAG_member, name: "tp_new", scope: !108, file: !95, line: 409, baseType: !419, size: 64, offset: 2496)
!419 = !DIDerivedType(tag: DW_TAG_typedef, name: "newfunc", file: !95, line: 337, baseType: !420)
!420 = !DIDerivedType(tag: DW_TAG_pointer_type, baseType: !421, size: 64)
!421 = !DISubroutineType(types: !422)
!422 = !{!93, !107, !93, !93}
!423 = !DIDerivedType(tag: DW_TAG_member, name: "tp_free", scope: !108, file: !95, line: 410, baseType: !424, size: 64, offset: 2560)
!424 = !DIDerivedType(tag: DW_TAG_typedef, name: "freefunc", file: !95, line: 316, baseType: !425)
!425 = !DIDerivedType(tag: DW_TAG_pointer_type, baseType: !426, size: 64)
!426 = !DISubroutineType(types: !427)
!427 = !{null, !59}
!428 = !DIDerivedType(tag: DW_TAG_member, name: "tp_is_gc", scope: !108, file: !95, line: 411, baseType: !235, size: 64, offset: 2624)
!429 = !DIDerivedType(tag: DW_TAG_member, name: "tp_bases", scope: !108, file: !95, line: 412, baseType: !93, size: 64, offset: 2688)
!430 = !DIDerivedType(tag: DW_TAG_member, name: "tp_mro", scope: !108, file: !95, line: 413, baseType: !93, size: 64, offset: 2752)
!431 = !DIDerivedType(tag: DW_TAG_member, name: "tp_cache", scope: !108, file: !95, line: 414, baseType: !93, size: 64, offset: 2816)
!432 = !DIDerivedType(tag: DW_TAG_member, name: "tp_subclasses", scope: !108, file: !95, line: 415, baseType: !93, size: 64, offset: 2880)
!433 = !DIDerivedType(tag: DW_TAG_member, name: "tp_weaklist", scope: !108, file: !95, line: 416, baseType: !93, size: 64, offset: 2944)
!434 = !DIDerivedType(tag: DW_TAG_member, name: "tp_del", scope: !108, file: !95, line: 417, baseType: !122, size: 64, offset: 3008)
!435 = !DIDerivedType(tag: DW_TAG_member, name: "tp_version_tag", scope: !108, file: !95, line: 420, baseType: !51, size: 32, offset: 3072)
!436 = !DIDerivedType(tag: DW_TAG_member, name: "tp_finalize", scope: !108, file: !95, line: 422, baseType: !122, size: 64, offset: 3136)
!437 = !DIDerivedType(tag: DW_TAG_typedef, name: "label_t", file: !4, line: 85, baseType: !23)
!438 = !DIDerivedType(tag: DW_TAG_pointer_type, baseType: !138, size: 64)
!439 = !{}
!440 = distinct !DICompileUnit(language: DW_LANG_C99, file: !441, producer: "clang version 4.0.0 (tags/RELEASE_400/final)", isOptimized: true, runtimeVersion: 0, emissionKind: FullDebug, enums: !442, retainedTypes: !443, globals: !439)
!441 = !DIFile(filename: "main.c", directory: "/home/sdasgup3/Github/epochs/mini-era")
!442 = !{!3, !31, !23, !38, !12}
!443 = !{!444, !74, !438, !59}
!444 = !DIDerivedType(tag: DW_TAG_typedef, name: "uint64_t", file: !89, line: 55, baseType: !182)
!445 = distinct !DICompileUnit(language: DW_LANG_C99, file: !446, producer: "clang version 4.0.0 (tags/RELEASE_400/final)", isOptimized: true, runtimeVersion: 0, emissionKind: FullDebug, enums: !447, retainedTypes: !448, globals: !439)
!446 = !DIFile(filename: "read_trace.c", directory: "/home/sdasgup3/Github/epochs/mini-era")
!447 = !{!8, !3, !31}
!448 = !{!59}
!449 = distinct !DICompileUnit(language: DW_LANG_C99, file: !450, producer: "clang version 4.0.0 (tags/RELEASE_400/final)", isOptimized: false, runtimeVersion: 0, emissionKind: FullDebug, enums: !439, retainedTypes: !451, globals: !439)
!450 = !DIFile(filename: "calculate_dist_from_fmcw.c", directory: "/home/sdasgup3/Github/epochs/mini-era/radar")
!451 = !{!54}
!452 = !{!"clang version 4.0.0 (tags/RELEASE_400/final)"}
!453 = !{i32 2, !"Dwarf Version", i32 4}
!454 = !{i32 2, !"Debug Info Version", i32 3}
