[     1s]    INFO tuneNormalizer:  Search Space: ['-mem2reg', '-licm', '-gvn', '-early-cse', '-globalopt', '-simplifycfg', '-basicaa', '-aa', '-memdep', '-dse', '-deadargelim', '-libcalls-shrinkwrap', '-tailcallelim', '-instcombine', '-memcpyopt', '-early-cse-memssa']


[     1s] WARNING opentuner.search.simplextechniques: only 1 point in simplex, will not use RandomNelderMead
[    21s]    INFO tuneNormalizer: run_precompiled: Early Exit: Optimal pass sequence written to mcsema//normalizer_final_config.json: [ -mem2reg -licm -gvn -globalopt -deadargelim -instcombine -memcpyopt -early-cse-memssa]
[    52s]    INFO opentuner.search.plugin.DisplayPlugin: tests=4, best #216, cost time=0.0000, found by NormalGreedyMutation
[    72s]    INFO tuneNormalizer: run_precompiled: Early Exit: Optimal pass sequence written to mcsema//normalizer_final_config.json: [ -gvn -globalopt -deadargelim -instcombine -memcpyopt -early-cse-memssa]
[    90s]    INFO tuneNormalizer: run_precompiled: Early Exit: Optimal pass sequence written to mcsema//normalizer_final_config.json: [ -licm -gvn -deadargelim -tailcallelim -instcombine -memcpyopt -early-cse-memssa]
[    99s]    INFO opentuner.search.plugin.DisplayPlugin: tests=8, best #216, cost time=0.0000, found by NormalGreedyMutation
[   154s]    INFO opentuner.search.plugin.DisplayPlugin: tests=12, best #216, cost time=0.0000, found by NormalGreedyMutation
[   184s]    INFO tuneNormalizer: run_precompiled: Early Exit: Optimal pass sequence written to mcsema//normalizer_final_config.json: [ -licm -gvn -globalopt -deadargelim -instcombine -memcpyopt -early-cse-memssa]
[   201s]    INFO tuneNormalizer: run_precompiled: Early Exit: Optimal pass sequence written to mcsema//normalizer_final_config.json: [ -mem2reg -licm -gvn -globalopt -simplifycfg -deadargelim -tailcallelim -instcombine -early-cse-memssa]
[   201s]    INFO opentuner.search.plugin.DisplayPlugin: tests=16, best #216, cost time=0.0000, found by NormalGreedyMutation
[   222s]    INFO tuneNormalizer: run_precompiled: Early Exit: Optimal pass sequence written to mcsema//normalizer_final_config.json: [ -mem2reg -licm -gvn -globalopt -deadargelim -instcombine -memcpyopt -early-cse-memssa]
[   230s]    INFO tuneNormalizer: run_precompiled: Early Exit: Optimal pass sequence written to mcsema//normalizer_final_config.json: [ -mem2reg -licm -gvn -globalopt -deadargelim -instcombine -memcpyopt -early-cse-memssa]
[   239s]    INFO tuneNormalizer: run_precompiled: Early Exit: Optimal pass sequence written to mcsema//normalizer_final_config.json: [ -mem2reg -licm -gvn -globalopt -simplifycfg -deadargelim -instcombine -memcpyopt -early-cse-memssa]
[   248s]    INFO opentuner.search.plugin.DisplayPlugin: tests=20, best #216, cost time=0.0000, found by NormalGreedyMutation
[   279s]    INFO tuneNormalizer: run_precompiled: Early Exit: Optimal pass sequence written to mcsema//normalizer_final_config.json: [ -mem2reg -licm -gvn -deadargelim -libcalls-shrinkwrap -instcombine -memcpyopt -early-cse-memssa]
[   298s]    INFO opentuner.search.plugin.DisplayPlugin: tests=24, best #216, cost time=0.0000, found by NormalGreedyMutation
[   349s]    INFO opentuner.search.plugin.DisplayPlugin: tests=28, best #216, cost time=0.0000, found by NormalGreedyMutation
[   379s]    INFO tuneNormalizer: run_precompiled: Early Exit: Optimal pass sequence written to mcsema//normalizer_final_config.json: [ -mem2reg -licm -gvn -globalopt -deadargelim -instcombine -memcpyopt -early-cse-memssa]
[   397s]    INFO opentuner.search.plugin.DisplayPlugin: tests=32, best #216, cost time=0.0000, found by NormalGreedyMutation
[   419s]    INFO tuneNormalizer: run_precompiled: Early Exit: Optimal pass sequence written to mcsema//normalizer_final_config.json: [ -mem2reg -licm -gvn -globalopt -dse -deadargelim -instcombine -early-cse-memssa]
[   428s]    INFO tuneNormalizer: run_precompiled: Early Exit: Optimal pass sequence written to mcsema//normalizer_final_config.json: [ -mem2reg -licm -gvn -globalopt -basicaa -deadargelim -libcalls-shrinkwrap -instcombine -memcpyopt -early-cse-memssa]
[   445s]    INFO tuneNormalizer: run_precompiled: Early Exit: Optimal pass sequence written to mcsema//normalizer_final_config.json: [ -mem2reg -licm -gvn -globalopt -deadargelim -instcombine -memcpyopt -early-cse-memssa]
[   445s]    INFO opentuner.search.plugin.DisplayPlugin: tests=36, best #216, cost time=0.0000, found by NormalGreedyMutation
[   496s]    INFO opentuner.search.plugin.DisplayPlugin: tests=40, best #216, cost time=0.0000, found by NormalGreedyMutation
[   518s]    INFO tuneNormalizer: run_precompiled: Early Exit: Optimal pass sequence written to mcsema//normalizer_final_config.json: [ -mem2reg -licm -gvn -early-cse -globalopt -deadargelim -instcombine -memcpyopt -early-cse-memssa]
[   528s]    INFO tuneNormalizer: run_precompiled: Early Exit: Optimal pass sequence written to mcsema//normalizer_final_config.json: [ -mem2reg -licm -gvn -globalopt -deadargelim -instcombine -memcpyopt -early-cse-memssa]
[   537s]    INFO tuneNormalizer: run_precompiled: Early Exit: Optimal pass sequence written to mcsema//normalizer_final_config.json: [ -mem2reg -licm -gvn -globalopt -deadargelim -instcombine -early-cse-memssa]
[   545s]    INFO opentuner.search.plugin.DisplayPlugin: tests=44, best #216, cost time=0.0000, found by NormalGreedyMutation
[   576s]    INFO tuneNormalizer: run_precompiled: Early Exit: Optimal pass sequence written to mcsema//normalizer_final_config.json: [ -mem2reg -licm -gvn -early-cse -globalopt -deadargelim -instcombine -memcpyopt -early-cse-memssa]
[   594s]    INFO opentuner.search.plugin.DisplayPlugin: tests=48, best #216, cost time=0.0000, found by NormalGreedyMutation
[   641s]    INFO opentuner.search.plugin.DisplayPlugin: tests=52, best #216, cost time=0.0000, found by NormalGreedyMutation
[   662s]    INFO tuneNormalizer: run_precompiled: Early Exit: Optimal pass sequence written to mcsema//normalizer_final_config.json: [ -licm -gvn -globalopt -deadargelim -instcombine -memcpyopt -early-cse-memssa]
[   669s]    INFO tuneNormalizer: run_precompiled: Early Exit: Optimal pass sequence written to mcsema//normalizer_final_config.json: [ -mem2reg -licm -gvn -memdep -dse -deadargelim -instcombine -memcpyopt]
[   687s]    INFO opentuner.search.plugin.DisplayPlugin: tests=56, best #216, cost time=0.0000, found by NormalGreedyMutation
[   708s]    INFO tuneNormalizer: run_precompiled: Early Exit: Optimal pass sequence written to mcsema//normalizer_final_config.json: [ -mem2reg -licm -gvn -early-cse -globalopt -simplifycfg -deadargelim -libcalls-shrinkwrap -instcombine -memcpyopt -early-cse-memssa]
[   717s]    INFO tuneNormalizer: run_precompiled: Early Exit: Optimal pass sequence written to mcsema//normalizer_final_config.json: [ -mem2reg -licm -gvn -globalopt -simplifycfg -memdep -deadargelim -instcombine -memcpyopt -early-cse-memssa]
[   725s]    INFO tuneNormalizer: run_precompiled: Early Exit: Optimal pass sequence written to mcsema//normalizer_final_config.json: [ -licm -gvn -globalopt -deadargelim -instcombine -memcpyopt -early-cse-memssa]
[   734s]    INFO tuneNormalizer: run_precompiled: Early Exit: Optimal pass sequence written to mcsema//normalizer_final_config.json: [ -mem2reg -licm -gvn -globalopt -basicaa -deadargelim -tailcallelim -instcombine -memcpyopt -early-cse-memssa]
[   734s]    INFO opentuner.search.plugin.DisplayPlugin: tests=60, best #216, cost time=0.0000, found by NormalGreedyMutation
[   790s]    INFO opentuner.search.plugin.DisplayPlugin: tests=64, best #216, cost time=0.0000, found by NormalGreedyMutation
[   840s]    INFO tuneNormalizer: run_precompiled: Early Exit: Optimal pass sequence written to mcsema//normalizer_final_config.json: [ -mem2reg -licm -gvn -globalopt -memdep -deadargelim -instcombine -memcpyopt -early-cse-memssa]
[   840s]    INFO opentuner.search.plugin.DisplayPlugin: tests=68, best #216, cost time=0.0000, found by NormalGreedyMutation
[   894s]    INFO opentuner.search.plugin.DisplayPlugin: tests=72, best #216, cost time=0.0000, found by NormalGreedyMutation
[   939s]    INFO opentuner.search.plugin.DisplayPlugin: tests=76, best #216, cost time=0.0000, found by NormalGreedyMutation
[   961s]    INFO tuneNormalizer: run_precompiled: Early Exit: Optimal pass sequence written to mcsema//normalizer_final_config.json: [ -mem2reg -licm -gvn -globalopt -deadargelim -instcombine -memcpyopt -early-cse-memssa]
[   970s]    INFO tuneNormalizer: run_precompiled: Early Exit: Optimal pass sequence written to mcsema//normalizer_final_config.json: [ -mem2reg -licm -gvn -globalopt -simplifycfg -deadargelim -instcombine -memcpyopt -early-cse-memssa]
[   979s]    INFO tuneNormalizer: run_precompiled: Early Exit: Optimal pass sequence written to mcsema//normalizer_final_config.json: [ -mem2reg -licm -gvn -globalopt -basicaa -deadargelim -instcombine -memcpyopt -early-cse-memssa]
[   987s]    INFO tuneNormalizer: run_precompiled: Early Exit: Optimal pass sequence written to mcsema//normalizer_final_config.json: [ -mem2reg -licm -gvn -deadargelim -instcombine -memcpyopt -early-cse-memssa]
[   987s]    INFO opentuner.search.plugin.DisplayPlugin: tests=80, best #216, cost time=0.0000, found by NormalGreedyMutation
[  1037s]    INFO opentuner.search.plugin.DisplayPlugin: tests=84, best #216, cost time=0.0000, found by NormalGreedyMutation
[  1068s]    INFO tuneNormalizer: run_precompiled: Early Exit: Optimal pass sequence written to mcsema//normalizer_final_config.json: [ -mem2reg -licm -gvn -deadargelim -instcombine -memcpyopt -early-cse-memssa]
[  1087s]    INFO opentuner.search.plugin.DisplayPlugin: tests=88, best #216, cost time=0.0000, found by NormalGreedyMutation
[  1108s]    INFO tuneNormalizer: run_precompiled: Early Exit: Optimal pass sequence written to mcsema//normalizer_final_config.json: [ -mem2reg -licm -gvn -deadargelim -instcombine -memcpyopt -early-cse-memssa]
[  1116s]    INFO tuneNormalizer: run_precompiled: Early Exit: Optimal pass sequence written to mcsema//normalizer_final_config.json: [ -mem2reg -gvn -globalopt -deadargelim -instcombine -memcpyopt -early-cse-memssa]
[  1126s]    INFO opentuner.search.plugin.DisplayPlugin: tests=91, best #216, cost time=0.0000, found by NormalGreedyMutation
[  1187s]    INFO opentuner.search.plugin.DisplayPlugin: tests=95, best #216, cost time=0.0000, found by NormalGreedyMutation
[  1207s]    INFO tuneNormalizer: run_precompiled: Early Exit: Optimal pass sequence written to mcsema//normalizer_final_config.json: [ -gvn -globalopt -deadargelim -libcalls-shrinkwrap -instcombine -early-cse-memssa]
[  1235s]    INFO tuneNormalizer: run_precompiled: Early Exit: Optimal pass sequence written to mcsema//normalizer_final_config.json: [ -mem2reg -licm -gvn -globalopt -memdep -deadargelim -tailcallelim -instcombine -memcpyopt -early-cse-memssa]
[  1235s]    INFO opentuner.search.plugin.DisplayPlugin: tests=99, best #216, cost time=0.0000, found by NormalGreedyMutation
[  1256s]    INFO tuneNormalizer: run_precompiled: Early Exit: Optimal pass sequence written to mcsema//normalizer_final_config.json: [ -mem2reg -licm -gvn -globalopt -deadargelim -instcombine -memcpyopt -early-cse-memssa]
[  1273s]    INFO tuneNormalizer: run_precompiled: Early Exit: Optimal pass sequence written to mcsema//normalizer_final_config.json: [ -mem2reg -licm -gvn -globalopt -aa -deadargelim -instcombine -memcpyopt -early-cse-memssa]
[  1283s]    INFO opentuner.search.plugin.DisplayPlugin: tests=103, best #216, cost time=0.0000, found by NormalGreedyMutation
[  1283s]    INFO opentuner.search.plugin.DisplayPlugin: tests=103, best #216, cost time=0.0000, found by NormalGreedyMutation
[  1283s]    INFO tuneNormalizer: Optimal pass sequence seen so far: [-mem2reg -globalopt -instcombine -memcpyopt -early-cse-memssa -licm -deadargelim -gvn ]
1701.41user 41.86system 21:23.17elapsed 135%CPU (0avgtext+0avgdata 116376maxresident)k
0inputs+2689176outputs (0major+5535260minor)pagefaults 0swaps
