; ModuleID = 'mcsema/test.proposed.ll'
source_filename = "llvm-link"
target datalayout = "e-m:e-i64:64-f80:128-n8:16:32:64-S128"
target triple = "x86_64-pc-linux-gnu-elf"

%union.anon = type { i64 }
%seg_400370__init_type = type <{ [23 x i8] }>
%seg_400390__text_type = type <{ [354 x i8] }>
%seg_4004f4__fini_type = type <{ [9 x i8] }>
%seg_400500__rodata_type = type <{ [4 x i8] }>
%seg_400504__eh_frame_hdr_type = type <{ [52 x i8] }>
%seg_400538__eh_frame_type = type <{ [208 x i8] }>
%seg_601018__data_type = type <{ [16 x i8] }>
%__bss_start_type = type <{ [8 x i8] }>
%seg_400504__fini_type = type <{ [9 x i8] }>
%seg_400510__rodata_type = type <{ [4 x i8] }>
%seg_400514__eh_frame_hdr_type = type <{ [52 x i8] }>
%seg_400548__eh_frame_type = type <{ [208 x i8] }>
%G_0x9468__rip__4257308__type = type <{ [16 x i8] }>
%G_0x9478__rip__4257316__type = type <{ [16 x i8] }>
%G_0x9480__rip__4257300__type = type <{ [16 x i8] }>
%G_0x9484__rip__4257292__type = type <{ [16 x i8] }>
%struct.State = type { %struct.ArchState, [32 x %union.VectorReg], %struct.ArithFlags, %union.anon, %struct.Segments, %struct.AddressSpace, %struct.GPR, %struct.X87Stack, %struct.MMX, %struct.FPUStatusFlags, %union.anon, %union.FPU, %struct.SegmentCaches }
%struct.ArchState = type { i32, i32, %union.anon }
%union.VectorReg = type { %union.vec512_t }
%union.vec512_t = type { %struct.uint64v8_t }
%struct.uint64v8_t = type { [8 x i64] }
%struct.ArithFlags = type { i8, i8, i8, i8, i8, i8, i8, i8, i8, i8, i8, i8, i8, i8, i8, i8 }
%struct.Segments = type { i16, %union.SegmentSelector, i16, %union.SegmentSelector, i16, %union.SegmentSelector, i16, %union.SegmentSelector, i16, %union.SegmentSelector, i16, %union.SegmentSelector }
%union.SegmentSelector = type { i16 }
%struct.AddressSpace = type { i64, %struct.Reg, i64, %struct.Reg, i64, %struct.Reg, i64, %struct.Reg, i64, %struct.Reg, i64, %struct.Reg }
%struct.Reg = type { %union.anon }
%struct.GPR = type { i64, %struct.Reg, i64, %struct.Reg, i64, %struct.Reg, i64, %struct.Reg, i64, %struct.Reg, i64, %struct.Reg, i64, %struct.Reg, i64, %struct.Reg, i64, %struct.Reg, i64, %struct.Reg, i64, %struct.Reg, i64, %struct.Reg, i64, %struct.Reg, i64, %struct.Reg, i64, %struct.Reg, i64, %struct.Reg, i64, %struct.Reg }
%struct.X87Stack = type { [8 x %struct.anon.3] }
%struct.anon.3 = type { i64, double }
%struct.MMX = type { [8 x %struct.anon.4] }
%struct.anon.4 = type { i64, %union.vec64_t }
%union.vec64_t = type { %struct.uint64v1_t }
%struct.uint64v1_t = type { [1 x i64] }
%struct.FPUStatusFlags = type { i8, i8, i8, i8, i8, i8, i8, i8, i8, i8, i8, i8, i8, i8, i8, i8, i8, i8, i8, i8, [4 x i8] }
%union.FPU = type { %struct.anon.13 }
%struct.anon.13 = type { %struct.FpuFXSAVE, [96 x i8] }
%struct.FpuFXSAVE = type { %union.SegmentSelector, %union.SegmentSelector, %union.FPUAbridgedTagWord, i8, i16, i32, %union.SegmentSelector, i16, i32, %union.SegmentSelector, i16, %union.FPUControlStatus, %union.FPUControlStatus, [8 x %struct.FPUStackElem], [16 x %union.vec128_t] }
%union.FPUAbridgedTagWord = type { i8 }
%union.FPUControlStatus = type { i32 }
%struct.FPUStackElem = type { %union.anon.11, [6 x i8] }
%union.anon.11 = type { %struct.float80_t }
%struct.float80_t = type { [10 x i8] }
%union.vec128_t = type { %struct.uint128v1_t }
%struct.uint128v1_t = type { [1 x i128] }
%struct.SegmentCaches = type { %struct.SegmentShadow, %struct.SegmentShadow, %struct.SegmentShadow, %struct.SegmentShadow, %struct.SegmentShadow, %struct.SegmentShadow }
%struct.SegmentShadow = type { %union.anon, i32, i32 }
%struct.Memory = type opaque
%"class.std::bitset" = type { %struct.uint64v4_t }
%struct.uint64v4_t = type { [4 x i64] }

@switch.table = private unnamed_addr constant [4 x i32] [i32 2048, i32 3072, i32 0, i32 1024]
@DR0 = external global i64, align 8
@DR1 = external global i64, align 8
@DR2 = external global i64, align 8
@DR3 = external global i64, align 8
@DR4 = external global i64, align 8
@DR5 = external global i64, align 8
@DR6 = external global i64, align 8
@DR7 = external global i64, align 8
@gCR0 = external global %union.anon, align 1
@gCR1 = external global %union.anon, align 1
@gCR2 = external global %union.anon, align 1
@gCR3 = external global %union.anon, align 1
@gCR4 = external global %union.anon, align 1
@gCR8 = external global %union.anon, align 1
@seg_400370__init = internal constant %seg_400370__init_type <{ [23 x i8] c"H\83\EC\08H\8B\05}\0C \00H\85\C0t\02\FF\D0H\83\C4\08\C3" }>
@seg_400390__text = internal constant %seg_400390__text_type <{ [354 x i8] c"1\EDI\89\D1^H\89\E2H\83\E4\F0PTI\C7\C0\F0\04@\00H\C7\C1\80\04@\00H\C7\C7x\04@\00\FF\156\0C \00\F4\0F\1FD\00\00\F3\C3f.\0F\1F\84\00\00\00\00\00\0F\1F@\00U\B8(\10`\00H=(\10`\00H\89\E5t\17\B8\00\00\00\00H\85\C0t\0D]\BF(\10`\00\FF\E0\0F\1FD\00\00]\C3f\0F\1FD\00\00\BE(\10`\00UH\81\EE(\10`\00H\89\E5H\C1\FE\03H\89\F0H\C1\E8?H\01\C6H\D1\FEt\15\B8\00\00\00\00H\85\C0t\0B]\BF(\10`\00\FF\E0\0F\1F\00]\C3f\0F\1FD\00\00\80=\E1\0B \00\00u\17UH\89\E5\E8~\FF\FF\FF\C6\05\CF\0B \00\01]\C3\0F\1FD\00\00\F3\C3\0F\1F@\00f.\0F\1F\84\00\00\00\00\00UH\89\E5]\EB\89\90U\C3f\0F\1FD\00\00AWAVI\89\D7AUATL\8D%\BE\09 \00UH\8D-\BE\09 \00SA\89\FDI\89\F6L)\E5H\83\EC\08H\C1\FD\03\E8\BF\FE\FF\FFH\85\EDt 1\DB\0F\1F\84\00\00\00\00\00L\89\FAL\89\F6D\89\EFA\FF\14\DCH\83\C3\01H9\DDu\EAH\83\C4\08[]A\5CA]A^A_\C3\90f.\0F\1F\84\00\00\00\00\00\F3\C3" }>
@seg_4004f4__fini = internal constant %seg_4004f4__fini_type <{ [9 x i8] c"H\83\EC\08H\83\C4\08\C3" }>
@seg_400500__rodata = internal constant %seg_400500__rodata_type <{ [4 x i8] c"\01\00\02\00" }>
@seg_400504__eh_frame_hdr = internal constant %seg_400504__eh_frame_hdr_type <{ [52 x i8] c"\01\1B\03;0\00\00\00\05\00\00\00\8C\FE\FF\FFL\00\00\00\BC\FE\FF\FFx\00\00\00t\FF\FF\FF\8C\00\00\00|\FF\FF\FF\A4\00\00\00\EC\FF\FF\FF\EC\00\00\00" }>
@seg_400538__eh_frame = internal constant %seg_400538__eh_frame_type <{ [208 x i8] c"\14\00\00\00\00\00\00\00\01zR\00\01x\10\01\1B\0C\07\08\90\01\07\10\10\00\00\00\1C\00\00\008\FE\FF\FF+\00\00\00\00\00\00\00\14\00\00\00\00\00\00\00\01zR\00\01x\10\01\1B\0C\07\08\90\01\00\00\10\00\00\00\1C\00\00\00<\FE\FF\FF\02\00\00\00\00\00\00\00\14\00\00\000\00\00\00\E0\FE\FF\FF\02\00\00\00\00\00\00\00\00\00\00\00D\00\00\00H\00\00\00\D0\FE\FF\FFe\00\00\00\00B\0E\10\8F\02B\0E\18\8E\03E\0E \8D\04B\0E(\8C\05H\0E0\86\06H\0E8\83\07M\0E@r\0E8A\0E0A\0E(B\0E B\0E\18B\0E\10B\0E\08\00\10\00\00\00\90\00\00\00\F8\FE\FF\FF\02\00\00\00\00\00\00\00\00\00\00\00" }>
@seg_601018__data = internal global %seg_601018__data_type zeroinitializer
@__bss_start = global %__bss_start_type zeroinitializer
@0 = internal global i1 false
@seg_400504__fini = internal constant %seg_400504__fini_type <{ [9 x i8] c"H\83\EC\08H\83\C4\08\C3" }>
@seg_400510__rodata = internal constant %seg_400510__rodata_type <{ [4 x i8] c"\01\00\02\00" }>
@seg_400514__eh_frame_hdr = internal constant %seg_400514__eh_frame_hdr_type <{ [52 x i8] c"\01\1B\03;0\00\00\00\05\00\00\00|\FE\FF\FFL\00\00\00\AC\FE\FF\FFx\00\00\00d\FF\FF\FF\8C\00\00\00|\FF\FF\FF\A4\00\00\00\EC\FF\FF\FF\EC\00\00\00" }>
@seg_400548__eh_frame = internal constant %seg_400548__eh_frame_type <{ [208 x i8] c"\14\00\00\00\00\00\00\00\01zR\00\01x\10\01\1B\0C\07\08\90\01\07\10\10\00\00\00\1C\00\00\00(\FE\FF\FF+\00\00\00\00\00\00\00\14\00\00\00\00\00\00\00\01zR\00\01x\10\01\1B\0C\07\08\90\01\00\00\10\00\00\00\1C\00\00\00,\FE\FF\FF\02\00\00\00\00\00\00\00\14\00\00\000\00\00\00\D0\FE\FF\FF\09\00\00\00\00\00\00\00\00\00\00\00D\00\00\00H\00\00\00\D0\FE\FF\FFe\00\00\00\00B\0E\10\8F\02B\0E\18\8E\03E\0E \8D\04B\0E(\8C\05H\0E0\86\06H\0E8\83\07M\0E@r\0E8A\0E0A\0E(B\0E B\0E\18B\0E\10B\0E\08\00\10\00\00\00\90\00\00\00\F8\FE\FF\FF\02\00\00\00\00\00\00\00\00\00\00\00" }>
@G_0x9468__rip__4257308_ = global %G_0x9468__rip__4257308__type zeroinitializer
@G_0x9478__rip__4257316_ = global %G_0x9478__rip__4257316__type zeroinitializer
@G_0x9480__rip__4257300_ = global %G_0x9480__rip__4257300__type zeroinitializer
@G_0x9484__rip__4257292_ = global %G_0x9484__rip__4257292__type zeroinitializer

declare %struct.Memory* @__remill_error(%struct.State* dereferenceable(3376), i64, %struct.Memory*)

declare i32 @__remill_fpu_exception_test_and_clear(i32, i32)

; Function Attrs: argmemonly nounwind
declare void @llvm.lifetime.start(i64, i8* nocapture) #0

; Function Attrs: argmemonly nounwind
declare void @llvm.lifetime.end(i64, i8* nocapture) #0

; Function Attrs: nounwind readnone
declare i32 @llvm.ctpop.i32(i32) #1

; Function Attrs: nounwind readnone
declare i32 @llvm.bswap.i32(i32) #1

; Function Attrs: nounwind readnone
declare i64 @llvm.bswap.i64(i64) #1

; Function Attrs: nounwind readnone
declare i32 @llvm.cttz.i32(i32, i1) #1

; Function Attrs: nounwind readnone
declare i64 @llvm.cttz.i64(i64, i1) #1

; Function Attrs: nounwind readnone
declare i32 @llvm.ctlz.i32(i32, i1) #1

; Function Attrs: nounwind readnone
declare i64 @llvm.ctlz.i64(i64, i1) #1

; Function Attrs: argmemonly nounwind
declare void @llvm.memcpy.p0i8.p0i8.i64(i8* nocapture writeonly, i8* nocapture readonly, i64, i32, i1) #0

; Function Attrs: nounwind readnone
declare double @llvm.nearbyint.f64(double) #1

; Function Attrs: nounwind readnone
declare double @llvm.fabs.f64(double) #1

; Function Attrs: nounwind readnone
declare <4 x double> @llvm.nearbyint.v4f64(<4 x double>) #1

; Function Attrs: nounwind readnone
declare <4 x double> @llvm.fabs.v4f64(<4 x double>) #1

; Function Attrs: nounwind readnone
declare double @llvm.trunc.f64(double) #1

; Function Attrs: nounwind readnone
declare <4 x double> @llvm.trunc.v4f64(<4 x double>) #1

; Function Attrs: nounwind readnone
declare float @llvm.nearbyint.f32(float) #1

; Function Attrs: nounwind readnone
declare float @llvm.fabs.f32(float) #1

; Function Attrs: nounwind readnone
declare <4 x float> @llvm.nearbyint.v4f32(<4 x float>) #1

; Function Attrs: nounwind readnone
declare <4 x float> @llvm.fabs.v4f32(<4 x float>) #1

; Function Attrs: nounwind readnone
declare float @llvm.trunc.f32(float) #1

; Function Attrs: nounwind readnone
declare <4 x float> @llvm.trunc.v4f32(<4 x float>) #1

; Function Attrs: argmemonly nounwind
declare void @llvm.memset.p0i8.i64(i8* nocapture writeonly, i8, i64, i32, i1) #0

declare double @atan(double) local_unnamed_addr

declare double @cos(double) local_unnamed_addr

declare double @sin(double) local_unnamed_addr

declare double @sqrt(double) local_unnamed_addr

declare double @tan(double) local_unnamed_addr

declare extern_weak x86_64_sysvcc i64 @abort()

declare extern_weak x86_64_sysvcc i64 @abs(i64)

declare extern_weak x86_64_sysvcc i64 @asin(i64)

declare extern_weak x86_64_sysvcc i64 @atof(i64)

declare extern_weak x86_64_sysvcc i64 @atoi(i64)

declare extern_weak x86_64_sysvcc i64 @atol(i64)

declare extern_weak x86_64_sysvcc i64 @calloc(i64, i64)

declare extern_weak x86_64_sysvcc i64 @clock()

declare extern_weak x86_64_sysvcc i64 @cosf(i64)

declare extern_weak x86_64_sysvcc i64 @exit(i64)

declare extern_weak x86_64_sysvcc i64 @exp(i64)

declare extern_weak x86_64_sysvcc i64 @fflush(i64)

declare extern_weak x86_64_sysvcc i64 @floor(i64)

declare extern_weak x86_64_sysvcc i64 @fprintf(i64, i64, i64, i64, i64, i64, i64, i64, i64, i64, i64, i64, i64, i64, i64, i64)

declare extern_weak x86_64_sysvcc i64 @fputs(i64, i64)

declare extern_weak x86_64_sysvcc i64 @free(i64)

declare extern_weak x86_64_sysvcc i64 @fwrite(i64, i64, i64, i64)

declare extern_weak x86_64_sysvcc i64 @getchar()

declare extern_weak x86_64_sysvcc i64 @gettimeofday(i64, i64)

declare extern_weak x86_64_sysvcc i64 @__isoc99_fscanf(i64, i64, i64, i64, i64, i64, i64, i64, i64, i64, i64, i64, i64, i64, i64, i64)

declare extern_weak x86_64_sysvcc i64 @__isoc99_scanf(i64, i64, i64, i64, i64, i64, i64, i64, i64, i64, i64, i64, i64, i64, i64, i64)

declare extern_weak x86_64_sysvcc i64 @__isoc99_sscanf(i64, i64, i64, i64, i64, i64, i64, i64, i64, i64, i64, i64, i64, i64, i64, i64)

declare extern_weak x86_64_sysvcc i64 @log(i64)

declare extern_weak x86_64_sysvcc i64 @lrand48()

declare extern_weak x86_64_sysvcc i64 @malloc(i64)

declare extern_weak x86_64_sysvcc i64 @memalign(i64, i64)

declare extern_weak x86_64_sysvcc i64 @memcpy(i64, i64, i64)

declare extern_weak x86_64_sysvcc i64 @memset(i64, i64, i64)

declare extern_weak x86_64_sysvcc i64 @perror(i64)

declare extern_weak x86_64_sysvcc i64 @posix_memalign(i64, i64, i64)

declare extern_weak x86_64_sysvcc i64 @pow(i64, i64)

declare extern_weak x86_64_sysvcc i64 @printf(i64, i64, i64, i64, i64, i64, i64, i64, i64, i64, i64, i64, i64, i64, i64, i64)

declare extern_weak x86_64_sysvcc i64 @putchar(i64)

declare extern_weak x86_64_sysvcc i64 @puts(i64)

declare extern_weak x86_64_sysvcc i64 @rand()

declare extern_weak x86_64_sysvcc i64 @random()

declare extern_weak x86_64_sysvcc i64 @realloc(i64, i64)

declare extern_weak x86_64_sysvcc i64 @seed48(i64)

declare extern_weak x86_64_sysvcc i64 @sinf(i64)

declare extern_weak x86_64_sysvcc i64 @sprintf(i64, i64, i64, i64, i64, i64, i64, i64, i64, i64, i64, i64, i64, i64, i64, i64)

declare extern_weak x86_64_sysvcc i64 @srand(i64)

declare extern_weak x86_64_sysvcc i64 @strcat(i64, i64)

declare extern_weak x86_64_sysvcc i64 @strcmp(i64, i64)

declare extern_weak x86_64_sysvcc i64 @strcpy(i64, i64)

declare extern_weak x86_64_sysvcc i64 @strdup(i64)

declare extern_weak x86_64_sysvcc i64 @strlen(i64)

declare extern_weak x86_64_sysvcc i64 @strncmp(i64, i64, i64)

declare extern_weak x86_64_sysvcc i64 @strtoll(i64, i64, i64)

declare extern_weak x86_64_sysvcc i64 @time(i64)

declare extern_weak x86_64_sysvcc i64 @ungetc(i64, i64)

declare extern_weak x86_64_sysvcc i64 @pthread_join(i64, i64)

declare extern_weak x86_64_sysvcc i64 @pthread_create(i64, i64, i64, i64)

declare %struct.Memory* @__remill_function_call(%struct.State* dereferenceable(3376), i64, %struct.Memory*)

declare %struct.Memory* @ext_sqrt(%struct.State* noalias dereferenceable(3376), i64, %struct.Memory* noalias)

declare %struct.Memory* @ext_atan(%struct.State* noalias dereferenceable(3376), i64, %struct.Memory* noalias)

declare %struct.Memory* @ext_cos(%struct.State* noalias dereferenceable(3376), i64, %struct.Memory* noalias)

declare %struct.Memory* @ext_tan(%struct.State* noalias dereferenceable(3376), i64, %struct.Memory* noalias)

declare %struct.Memory* @ext_sin(%struct.State* noalias dereferenceable(3376), i64, %struct.Memory* noalias)

; Function Attrs: alwaysinline
define %struct.Memory* @_ZN28custom_multiple_constant_addIfE8do_shiftEf(%struct.State* noalias, i64, %struct.Memory* noalias) #2 {
entry:
  %3 = getelementptr inbounds %struct.State, %struct.State* %0, i64 0, i32 6, i32 33, i32 0, i32 0
  store i64 %1, i64* %3, align 8
  %BRANCH_TAKEN = alloca i8, align 1
  store i8 0, i8* %BRANCH_TAKEN, align 1
  %MEMORY = alloca %struct.Memory*, align 8
  store %struct.Memory* %2, %struct.Memory** %MEMORY, align 8
  %loadMem_40f600 = load %struct.Memory*, %struct.Memory** %MEMORY
  %4 = getelementptr inbounds %struct.State, %struct.State* %0, i32 0, i32 6
  %5 = getelementptr inbounds %struct.GPR, %struct.GPR* %4, i32 0, i32 33
  %6 = getelementptr inbounds %struct.Reg, %struct.Reg* %5, i32 0, i32 0
  %PC.i = bitcast %union.anon* %6 to i64*
  %7 = getelementptr inbounds %struct.State, %struct.State* %0, i32 0, i32 6
  %8 = getelementptr inbounds %struct.GPR, %struct.GPR* %7, i32 0, i32 15
  %9 = getelementptr inbounds %struct.Reg, %struct.Reg* %8, i32 0, i32 0
  %RBP.i = bitcast %union.anon* %9 to i64*
  %10 = load i64, i64* %RBP.i
  %11 = load i64, i64* %PC.i
  %12 = add i64 %11, 1
  store i64 %12, i64* %PC.i
  %13 = getelementptr inbounds %struct.State, %struct.State* %0, i64 0, i32 6, i32 13, i32 0, i32 0
  %14 = load i64, i64* %13, align 8
  %15 = add i64 %14, -8
  %16 = inttoptr i64 %15 to i64*
  store i64 %10, i64* %16
  store i64 %15, i64* %13, align 8
  store %struct.Memory* %loadMem_40f600, %struct.Memory** %MEMORY
  %loadMem_40f601 = load %struct.Memory*, %struct.Memory** %MEMORY
  %17 = getelementptr inbounds %struct.State, %struct.State* %0, i32 0, i32 6
  %18 = getelementptr inbounds %struct.GPR, %struct.GPR* %17, i32 0, i32 33
  %19 = getelementptr inbounds %struct.Reg, %struct.Reg* %18, i32 0, i32 0
  %PC.i20 = bitcast %union.anon* %19 to i64*
  %20 = getelementptr inbounds %struct.State, %struct.State* %0, i32 0, i32 6
  %21 = getelementptr inbounds %struct.GPR, %struct.GPR* %20, i32 0, i32 13
  %22 = getelementptr inbounds %struct.Reg, %struct.Reg* %21, i32 0, i32 0
  %RSP.i = bitcast %union.anon* %22 to i64*
  %23 = getelementptr inbounds %struct.State, %struct.State* %0, i32 0, i32 6
  %24 = getelementptr inbounds %struct.GPR, %struct.GPR* %23, i32 0, i32 15
  %25 = getelementptr inbounds %struct.Reg, %struct.Reg* %24, i32 0, i32 0
  %RBP.i21 = bitcast %union.anon* %25 to i64*
  %26 = load i64, i64* %RSP.i
  %27 = load i64, i64* %PC.i20
  %28 = add i64 %27, 3
  store i64 %28, i64* %PC.i20
  store i64 %26, i64* %RBP.i21, align 8
  store %struct.Memory* %loadMem_40f601, %struct.Memory** %MEMORY
  %loadMem_40f604 = load %struct.Memory*, %struct.Memory** %MEMORY
  %29 = getelementptr inbounds %struct.State, %struct.State* %0, i32 0, i32 6
  %30 = getelementptr inbounds %struct.GPR, %struct.GPR* %29, i32 0, i32 33
  %31 = getelementptr inbounds %struct.Reg, %struct.Reg* %30, i32 0, i32 0
  %PC.i19 = bitcast %union.anon* %31 to i64*
  %32 = getelementptr inbounds %struct.State, %struct.State* %0, i32 0, i32 1
  %33 = getelementptr inbounds [32 x %union.VectorReg], [32 x %union.VectorReg]* %32, i64 0, i64 1
  %YMM1.i = bitcast %union.VectorReg* %33 to %"class.std::bitset"*
  %34 = bitcast %"class.std::bitset"* %YMM1.i to i8*
  %35 = load i64, i64* %PC.i19
  %36 = load i64, i64* %PC.i19
  %37 = add i64 %36, 8
  store i64 %37, i64* %PC.i19
  %38 = load float, float* bitcast (%G_0x9484__rip__4257292__type* @G_0x9484__rip__4257292_ to float*)
  %39 = bitcast i8* %34 to float*
  store float %38, float* %39, align 1
  %40 = getelementptr inbounds i8, i8* %34, i64 4
  %41 = bitcast i8* %40 to float*
  store float 0.000000e+00, float* %41, align 1
  %42 = getelementptr inbounds i8, i8* %34, i64 8
  %43 = bitcast i8* %42 to float*
  store float 0.000000e+00, float* %43, align 1
  %44 = getelementptr inbounds i8, i8* %34, i64 12
  %45 = bitcast i8* %44 to float*
  store float 0.000000e+00, float* %45, align 1
  store %struct.Memory* %loadMem_40f604, %struct.Memory** %MEMORY
  %loadMem_40f60c = load %struct.Memory*, %struct.Memory** %MEMORY
  %46 = getelementptr inbounds %struct.State, %struct.State* %0, i32 0, i32 6
  %47 = getelementptr inbounds %struct.GPR, %struct.GPR* %46, i32 0, i32 33
  %48 = getelementptr inbounds %struct.Reg, %struct.Reg* %47, i32 0, i32 0
  %PC.i18 = bitcast %union.anon* %48 to i64*
  %49 = getelementptr inbounds %struct.State, %struct.State* %0, i32 0, i32 1
  %50 = getelementptr inbounds [32 x %union.VectorReg], [32 x %union.VectorReg]* %49, i64 0, i64 2
  %YMM2.i = bitcast %union.VectorReg* %50 to %"class.std::bitset"*
  %51 = bitcast %"class.std::bitset"* %YMM2.i to i8*
  %52 = load i64, i64* %PC.i18
  %53 = load i64, i64* %PC.i18
  %54 = add i64 %53, 8
  store i64 %54, i64* %PC.i18
  %55 = load float, float* bitcast (%G_0x9480__rip__4257300__type* @G_0x9480__rip__4257300_ to float*)
  %56 = bitcast i8* %51 to float*
  store float %55, float* %56, align 1
  %57 = getelementptr inbounds i8, i8* %51, i64 4
  %58 = bitcast i8* %57 to float*
  store float 0.000000e+00, float* %58, align 1
  %59 = getelementptr inbounds i8, i8* %51, i64 8
  %60 = bitcast i8* %59 to float*
  store float 0.000000e+00, float* %60, align 1
  %61 = getelementptr inbounds i8, i8* %51, i64 12
  %62 = bitcast i8* %61 to float*
  store float 0.000000e+00, float* %62, align 1
  store %struct.Memory* %loadMem_40f60c, %struct.Memory** %MEMORY
  %loadMem_40f614 = load %struct.Memory*, %struct.Memory** %MEMORY
  %63 = getelementptr inbounds %struct.State, %struct.State* %0, i32 0, i32 6
  %64 = getelementptr inbounds %struct.GPR, %struct.GPR* %63, i32 0, i32 33
  %65 = getelementptr inbounds %struct.Reg, %struct.Reg* %64, i32 0, i32 0
  %PC.i17 = bitcast %union.anon* %65 to i64*
  %66 = getelementptr inbounds %struct.State, %struct.State* %0, i32 0, i32 1
  %67 = getelementptr inbounds [32 x %union.VectorReg], [32 x %union.VectorReg]* %66, i64 0, i64 3
  %YMM3.i = bitcast %union.VectorReg* %67 to %"class.std::bitset"*
  %68 = bitcast %"class.std::bitset"* %YMM3.i to i8*
  %69 = load i64, i64* %PC.i17
  %70 = load i64, i64* %PC.i17
  %71 = add i64 %70, 8
  store i64 %71, i64* %PC.i17
  %72 = load float, float* bitcast (%G_0x9468__rip__4257308__type* @G_0x9468__rip__4257308_ to float*)
  %73 = bitcast i8* %68 to float*
  store float %72, float* %73, align 1
  %74 = getelementptr inbounds i8, i8* %68, i64 4
  %75 = bitcast i8* %74 to float*
  store float 0.000000e+00, float* %75, align 1
  %76 = getelementptr inbounds i8, i8* %68, i64 8
  %77 = bitcast i8* %76 to float*
  store float 0.000000e+00, float* %77, align 1
  %78 = getelementptr inbounds i8, i8* %68, i64 12
  %79 = bitcast i8* %78 to float*
  store float 0.000000e+00, float* %79, align 1
  store %struct.Memory* %loadMem_40f614, %struct.Memory** %MEMORY
  %loadMem_40f61c = load %struct.Memory*, %struct.Memory** %MEMORY
  %80 = getelementptr inbounds %struct.State, %struct.State* %0, i32 0, i32 6
  %81 = getelementptr inbounds %struct.GPR, %struct.GPR* %80, i32 0, i32 33
  %82 = getelementptr inbounds %struct.Reg, %struct.Reg* %81, i32 0, i32 0
  %PC.i15 = bitcast %union.anon* %82 to i64*
  %83 = getelementptr inbounds %struct.State, %struct.State* %0, i32 0, i32 1
  %84 = getelementptr inbounds [32 x %union.VectorReg], [32 x %union.VectorReg]* %83, i64 0, i64 4
  %YMM4.i16 = bitcast %union.VectorReg* %84 to %"class.std::bitset"*
  %85 = bitcast %"class.std::bitset"* %YMM4.i16 to i8*
  %86 = load i64, i64* %PC.i15
  %87 = load i64, i64* %PC.i15
  %88 = add i64 %87, 8
  store i64 %88, i64* %PC.i15
  %89 = load float, float* bitcast (%G_0x9478__rip__4257316__type* @G_0x9478__rip__4257316_ to float*)
  %90 = bitcast i8* %85 to float*
  store float %89, float* %90, align 1
  %91 = getelementptr inbounds i8, i8* %85, i64 4
  %92 = bitcast i8* %91 to float*
  store float 0.000000e+00, float* %92, align 1
  %93 = getelementptr inbounds i8, i8* %85, i64 8
  %94 = bitcast i8* %93 to float*
  store float 0.000000e+00, float* %94, align 1
  %95 = getelementptr inbounds i8, i8* %85, i64 12
  %96 = bitcast i8* %95 to float*
  store float 0.000000e+00, float* %96, align 1
  store %struct.Memory* %loadMem_40f61c, %struct.Memory** %MEMORY
  %loadMem_40f624 = load %struct.Memory*, %struct.Memory** %MEMORY
  %97 = getelementptr inbounds %struct.State, %struct.State* %0, i32 0, i32 6
  %98 = getelementptr inbounds %struct.GPR, %struct.GPR* %97, i32 0, i32 33
  %99 = getelementptr inbounds %struct.Reg, %struct.Reg* %98, i32 0, i32 0
  %PC.i13 = bitcast %union.anon* %99 to i64*
  %100 = getelementptr inbounds %struct.State, %struct.State* %0, i32 0, i32 6
  %101 = getelementptr inbounds %struct.GPR, %struct.GPR* %100, i32 0, i32 15
  %102 = getelementptr inbounds %struct.Reg, %struct.Reg* %101, i32 0, i32 0
  %RBP.i14 = bitcast %union.anon* %102 to i64*
  %103 = getelementptr inbounds %struct.State, %struct.State* %0, i32 0, i32 1
  %104 = getelementptr inbounds [32 x %union.VectorReg], [32 x %union.VectorReg]* %103, i64 0, i64 0
  %XMM0.i = bitcast %union.VectorReg* %104 to %union.vec128_t*
  %105 = load i64, i64* %RBP.i14
  %106 = sub i64 %105, 4
  %107 = bitcast %union.vec128_t* %XMM0.i to i8*
  %108 = load i64, i64* %PC.i13
  %109 = add i64 %108, 5
  store i64 %109, i64* %PC.i13
  %110 = bitcast i8* %107 to <2 x float>*
  %111 = load <2 x float>, <2 x float>* %110, align 1
  %112 = extractelement <2 x float> %111, i32 0
  %113 = inttoptr i64 %106 to float*
  store float %112, float* %113
  store %struct.Memory* %loadMem_40f624, %struct.Memory** %MEMORY
  %loadMem_40f629 = load %struct.Memory*, %struct.Memory** %MEMORY
  %114 = getelementptr inbounds %struct.State, %struct.State* %0, i32 0, i32 6
  %115 = getelementptr inbounds %struct.GPR, %struct.GPR* %114, i32 0, i32 33
  %116 = getelementptr inbounds %struct.Reg, %struct.Reg* %115, i32 0, i32 0
  %PC.i10 = bitcast %union.anon* %116 to i64*
  %117 = getelementptr inbounds %struct.State, %struct.State* %0, i32 0, i32 6
  %118 = getelementptr inbounds %struct.GPR, %struct.GPR* %117, i32 0, i32 15
  %119 = getelementptr inbounds %struct.Reg, %struct.Reg* %118, i32 0, i32 0
  %RBP.i11 = bitcast %union.anon* %119 to i64*
  %120 = getelementptr inbounds %struct.State, %struct.State* %0, i32 0, i32 1
  %121 = getelementptr inbounds [32 x %union.VectorReg], [32 x %union.VectorReg]* %120, i64 0, i64 4
  %YMM4.i12 = bitcast %union.VectorReg* %121 to %"class.std::bitset"*
  %122 = bitcast %"class.std::bitset"* %YMM4.i12 to i8*
  %123 = bitcast %"class.std::bitset"* %YMM4.i12 to i8*
  %124 = load i64, i64* %RBP.i11
  %125 = sub i64 %124, 4
  %126 = load i64, i64* %PC.i10
  %127 = add i64 %126, 5
  store i64 %127, i64* %PC.i10
  %128 = bitcast i8* %123 to <2 x float>*
  %129 = load <2 x float>, <2 x float>* %128, align 1
  %130 = getelementptr inbounds i8, i8* %123, i64 8
  %131 = bitcast i8* %130 to <2 x i32>*
  %132 = load <2 x i32>, <2 x i32>* %131, align 1
  %133 = inttoptr i64 %125 to float*
  %134 = load float, float* %133
  %135 = extractelement <2 x float> %129, i32 0
  %136 = fadd float %135, %134
  %137 = bitcast i8* %122 to float*
  store float %136, float* %137, align 1
  %138 = bitcast <2 x float> %129 to <2 x i32>
  %139 = extractelement <2 x i32> %138, i32 1
  %140 = getelementptr inbounds i8, i8* %122, i64 4
  %141 = bitcast i8* %140 to i32*
  store i32 %139, i32* %141, align 1
  %142 = extractelement <2 x i32> %132, i32 0
  %143 = getelementptr inbounds i8, i8* %122, i64 8
  %144 = bitcast i8* %143 to i32*
  store i32 %142, i32* %144, align 1
  %145 = extractelement <2 x i32> %132, i32 1
  %146 = getelementptr inbounds i8, i8* %122, i64 12
  %147 = bitcast i8* %146 to i32*
  store i32 %145, i32* %147, align 1
  store %struct.Memory* %loadMem_40f629, %struct.Memory** %MEMORY
  %loadMem_40f62e = load %struct.Memory*, %struct.Memory** %MEMORY
  %148 = getelementptr inbounds %struct.State, %struct.State* %0, i32 0, i32 6
  %149 = getelementptr inbounds %struct.GPR, %struct.GPR* %148, i32 0, i32 33
  %150 = getelementptr inbounds %struct.Reg, %struct.Reg* %149, i32 0, i32 0
  %PC.i8 = bitcast %union.anon* %150 to i64*
  %151 = getelementptr inbounds %struct.State, %struct.State* %0, i32 0, i32 1
  %152 = getelementptr inbounds [32 x %union.VectorReg], [32 x %union.VectorReg]* %151, i64 0, i64 4
  %YMM4.i9 = bitcast %union.VectorReg* %152 to %"class.std::bitset"*
  %153 = getelementptr inbounds %struct.State, %struct.State* %0, i32 0, i32 1
  %154 = getelementptr inbounds [32 x %union.VectorReg], [32 x %union.VectorReg]* %153, i64 0, i64 3
  %XMM3.i = bitcast %union.VectorReg* %154 to %union.vec128_t*
  %155 = bitcast %"class.std::bitset"* %YMM4.i9 to i8*
  %156 = bitcast %"class.std::bitset"* %YMM4.i9 to i8*
  %157 = bitcast %union.vec128_t* %XMM3.i to i8*
  %158 = load i64, i64* %PC.i8
  %159 = add i64 %158, 4
  store i64 %159, i64* %PC.i8
  %160 = bitcast i8* %156 to <2 x float>*
  %161 = load <2 x float>, <2 x float>* %160, align 1
  %162 = getelementptr inbounds i8, i8* %156, i64 8
  %163 = bitcast i8* %162 to <2 x i32>*
  %164 = load <2 x i32>, <2 x i32>* %163, align 1
  %165 = bitcast i8* %157 to <2 x float>*
  %166 = load <2 x float>, <2 x float>* %165, align 1
  %167 = extractelement <2 x float> %161, i32 0
  %168 = extractelement <2 x float> %166, i32 0
  %169 = fadd float %167, %168
  %170 = bitcast i8* %155 to float*
  store float %169, float* %170, align 1
  %171 = bitcast <2 x float> %161 to <2 x i32>
  %172 = extractelement <2 x i32> %171, i32 1
  %173 = getelementptr inbounds i8, i8* %155, i64 4
  %174 = bitcast i8* %173 to i32*
  store i32 %172, i32* %174, align 1
  %175 = extractelement <2 x i32> %164, i32 0
  %176 = getelementptr inbounds i8, i8* %155, i64 8
  %177 = bitcast i8* %176 to i32*
  store i32 %175, i32* %177, align 1
  %178 = extractelement <2 x i32> %164, i32 1
  %179 = getelementptr inbounds i8, i8* %155, i64 12
  %180 = bitcast i8* %179 to i32*
  store i32 %178, i32* %180, align 1
  store %struct.Memory* %loadMem_40f62e, %struct.Memory** %MEMORY
  %loadMem_40f632 = load %struct.Memory*, %struct.Memory** %MEMORY
  %181 = getelementptr inbounds %struct.State, %struct.State* %0, i32 0, i32 6
  %182 = getelementptr inbounds %struct.GPR, %struct.GPR* %181, i32 0, i32 33
  %183 = getelementptr inbounds %struct.Reg, %struct.Reg* %182, i32 0, i32 0
  %PC.i6 = bitcast %union.anon* %183 to i64*
  %184 = getelementptr inbounds %struct.State, %struct.State* %0, i32 0, i32 1
  %185 = getelementptr inbounds [32 x %union.VectorReg], [32 x %union.VectorReg]* %184, i64 0, i64 4
  %YMM4.i7 = bitcast %union.VectorReg* %185 to %"class.std::bitset"*
  %186 = getelementptr inbounds %struct.State, %struct.State* %0, i32 0, i32 1
  %187 = getelementptr inbounds [32 x %union.VectorReg], [32 x %union.VectorReg]* %186, i64 0, i64 2
  %XMM2.i = bitcast %union.VectorReg* %187 to %union.vec128_t*
  %188 = bitcast %"class.std::bitset"* %YMM4.i7 to i8*
  %189 = bitcast %"class.std::bitset"* %YMM4.i7 to i8*
  %190 = bitcast %union.vec128_t* %XMM2.i to i8*
  %191 = load i64, i64* %PC.i6
  %192 = add i64 %191, 4
  store i64 %192, i64* %PC.i6
  %193 = bitcast i8* %189 to <2 x float>*
  %194 = load <2 x float>, <2 x float>* %193, align 1
  %195 = getelementptr inbounds i8, i8* %189, i64 8
  %196 = bitcast i8* %195 to <2 x i32>*
  %197 = load <2 x i32>, <2 x i32>* %196, align 1
  %198 = bitcast i8* %190 to <2 x float>*
  %199 = load <2 x float>, <2 x float>* %198, align 1
  %200 = extractelement <2 x float> %194, i32 0
  %201 = extractelement <2 x float> %199, i32 0
  %202 = fadd float %200, %201
  %203 = bitcast i8* %188 to float*
  store float %202, float* %203, align 1
  %204 = bitcast <2 x float> %194 to <2 x i32>
  %205 = extractelement <2 x i32> %204, i32 1
  %206 = getelementptr inbounds i8, i8* %188, i64 4
  %207 = bitcast i8* %206 to i32*
  store i32 %205, i32* %207, align 1
  %208 = extractelement <2 x i32> %197, i32 0
  %209 = getelementptr inbounds i8, i8* %188, i64 8
  %210 = bitcast i8* %209 to i32*
  store i32 %208, i32* %210, align 1
  %211 = extractelement <2 x i32> %197, i32 1
  %212 = getelementptr inbounds i8, i8* %188, i64 12
  %213 = bitcast i8* %212 to i32*
  store i32 %211, i32* %213, align 1
  store %struct.Memory* %loadMem_40f632, %struct.Memory** %MEMORY
  %loadMem_40f636 = load %struct.Memory*, %struct.Memory** %MEMORY
  %214 = getelementptr inbounds %struct.State, %struct.State* %0, i32 0, i32 6
  %215 = getelementptr inbounds %struct.GPR, %struct.GPR* %214, i32 0, i32 33
  %216 = getelementptr inbounds %struct.Reg, %struct.Reg* %215, i32 0, i32 0
  %PC.i5 = bitcast %union.anon* %216 to i64*
  %217 = getelementptr inbounds %struct.State, %struct.State* %0, i32 0, i32 1
  %218 = getelementptr inbounds [32 x %union.VectorReg], [32 x %union.VectorReg]* %217, i64 0, i64 4
  %YMM4.i = bitcast %union.VectorReg* %218 to %"class.std::bitset"*
  %219 = getelementptr inbounds %struct.State, %struct.State* %0, i32 0, i32 1
  %220 = getelementptr inbounds [32 x %union.VectorReg], [32 x %union.VectorReg]* %219, i64 0, i64 1
  %XMM1.i = bitcast %union.VectorReg* %220 to %union.vec128_t*
  %221 = bitcast %"class.std::bitset"* %YMM4.i to i8*
  %222 = bitcast %"class.std::bitset"* %YMM4.i to i8*
  %223 = bitcast %union.vec128_t* %XMM1.i to i8*
  %224 = load i64, i64* %PC.i5
  %225 = add i64 %224, 4
  store i64 %225, i64* %PC.i5
  %226 = bitcast i8* %222 to <2 x float>*
  %227 = load <2 x float>, <2 x float>* %226, align 1
  %228 = getelementptr inbounds i8, i8* %222, i64 8
  %229 = bitcast i8* %228 to <2 x i32>*
  %230 = load <2 x i32>, <2 x i32>* %229, align 1
  %231 = bitcast i8* %223 to <2 x float>*
  %232 = load <2 x float>, <2 x float>* %231, align 1
  %233 = extractelement <2 x float> %227, i32 0
  %234 = extractelement <2 x float> %232, i32 0
  %235 = fadd float %233, %234
  %236 = bitcast i8* %221 to float*
  store float %235, float* %236, align 1
  %237 = bitcast <2 x float> %227 to <2 x i32>
  %238 = extractelement <2 x i32> %237, i32 1
  %239 = getelementptr inbounds i8, i8* %221, i64 4
  %240 = bitcast i8* %239 to i32*
  store i32 %238, i32* %240, align 1
  %241 = extractelement <2 x i32> %230, i32 0
  %242 = getelementptr inbounds i8, i8* %221, i64 8
  %243 = bitcast i8* %242 to i32*
  store i32 %241, i32* %243, align 1
  %244 = extractelement <2 x i32> %230, i32 1
  %245 = getelementptr inbounds i8, i8* %221, i64 12
  %246 = bitcast i8* %245 to i32*
  store i32 %244, i32* %246, align 1
  store %struct.Memory* %loadMem_40f636, %struct.Memory** %MEMORY
  %loadMem_40f63a = load %struct.Memory*, %struct.Memory** %MEMORY
  %247 = getelementptr inbounds %struct.State, %struct.State* %0, i32 0, i32 6
  %248 = getelementptr inbounds %struct.GPR, %struct.GPR* %247, i32 0, i32 33
  %249 = getelementptr inbounds %struct.Reg, %struct.Reg* %248, i32 0, i32 0
  %PC.i4 = bitcast %union.anon* %249 to i64*
  %250 = getelementptr inbounds %struct.State, %struct.State* %0, i32 0, i32 1
  %251 = getelementptr inbounds [32 x %union.VectorReg], [32 x %union.VectorReg]* %250, i64 0, i64 0
  %YMM0.i = bitcast %union.VectorReg* %251 to %"class.std::bitset"*
  %252 = getelementptr inbounds %struct.State, %struct.State* %0, i32 0, i32 1
  %253 = getelementptr inbounds [32 x %union.VectorReg], [32 x %union.VectorReg]* %252, i64 0, i64 4
  %XMM4.i = bitcast %union.VectorReg* %253 to %union.vec128_t*
  %254 = bitcast %"class.std::bitset"* %YMM0.i to i8*
  %255 = bitcast %union.vec128_t* %XMM4.i to i8*
  %256 = load i64, i64* %PC.i4
  %257 = add i64 %256, 3
  store i64 %257, i64* %PC.i4
  %258 = bitcast i8* %255 to <2 x i32>*
  %259 = load <2 x i32>, <2 x i32>* %258, align 1
  %260 = getelementptr inbounds i8, i8* %255, i64 8
  %261 = bitcast i8* %260 to <2 x i32>*
  %262 = load <2 x i32>, <2 x i32>* %261, align 1
  %263 = extractelement <2 x i32> %259, i32 0
  %264 = bitcast i8* %254 to i32*
  store i32 %263, i32* %264, align 1
  %265 = extractelement <2 x i32> %259, i32 1
  %266 = getelementptr inbounds i8, i8* %254, i64 4
  %267 = bitcast i8* %266 to i32*
  store i32 %265, i32* %267, align 1
  %268 = extractelement <2 x i32> %262, i32 0
  %269 = getelementptr inbounds i8, i8* %254, i64 8
  %270 = bitcast i8* %269 to i32*
  store i32 %268, i32* %270, align 1
  %271 = extractelement <2 x i32> %262, i32 1
  %272 = getelementptr inbounds i8, i8* %254, i64 12
  %273 = bitcast i8* %272 to i32*
  store i32 %271, i32* %273, align 1
  store %struct.Memory* %loadMem_40f63a, %struct.Memory** %MEMORY
  %loadMem_40f63d = load %struct.Memory*, %struct.Memory** %MEMORY
  %274 = getelementptr inbounds %struct.State, %struct.State* %0, i32 0, i32 6
  %275 = getelementptr inbounds %struct.GPR, %struct.GPR* %274, i32 0, i32 33
  %276 = getelementptr inbounds %struct.Reg, %struct.Reg* %275, i32 0, i32 0
  %PC.i2 = bitcast %union.anon* %276 to i64*
  %277 = getelementptr inbounds %struct.State, %struct.State* %0, i32 0, i32 6
  %278 = getelementptr inbounds %struct.GPR, %struct.GPR* %277, i32 0, i32 15
  %279 = getelementptr inbounds %struct.Reg, %struct.Reg* %278, i32 0, i32 0
  %RBP.i3 = bitcast %union.anon* %279 to i64*
  %280 = load i64, i64* %PC.i2
  %281 = add i64 %280, 1
  store i64 %281, i64* %PC.i2
  %282 = getelementptr inbounds %struct.State, %struct.State* %0, i64 0, i32 6, i32 13, i32 0, i32 0
  %283 = load i64, i64* %282, align 8
  %284 = add i64 %283, 8
  %285 = inttoptr i64 %283 to i64*
  %286 = load i64, i64* %285
  store i64 %286, i64* %RBP.i3, align 8
  store i64 %284, i64* %282, align 8
  store %struct.Memory* %loadMem_40f63d, %struct.Memory** %MEMORY
  %loadMem_40f63e = load %struct.Memory*, %struct.Memory** %MEMORY
  %287 = getelementptr inbounds %struct.State, %struct.State* %0, i32 0, i32 6
  %288 = getelementptr inbounds %struct.GPR, %struct.GPR* %287, i32 0, i32 33
  %289 = getelementptr inbounds %struct.Reg, %struct.Reg* %288, i32 0, i32 0
  %PC.i1 = bitcast %union.anon* %289 to i64*
  %290 = load i64, i64* %PC.i1
  %291 = add i64 %290, 1
  store i64 %291, i64* %PC.i1
  %292 = getelementptr inbounds %struct.State, %struct.State* %0, i64 0, i32 6, i32 33, i32 0, i32 0
  %293 = getelementptr inbounds %struct.State, %struct.State* %0, i64 0, i32 6, i32 13, i32 0, i32 0
  %294 = load i64, i64* %293, align 8
  %295 = inttoptr i64 %294 to i64*
  %296 = load i64, i64* %295
  store i64 %296, i64* %292, align 8
  %297 = add i64 %294, 8
  store i64 %297, i64* %293, align 8
  store %struct.Memory* %loadMem_40f63e, %struct.Memory** %MEMORY
  ret %struct.Memory* %loadMem_40f63e
}

define %struct.Memory* @routine_pushq__rbp(%struct.State* dereferenceable(3376), i64, %struct.Memory*) {
block_400478:
  %3 = getelementptr inbounds %struct.State, %struct.State* %0, i32 0, i32 6
  %4 = getelementptr inbounds %struct.GPR, %struct.GPR* %3, i32 0, i32 33
  %5 = getelementptr inbounds %struct.Reg, %struct.Reg* %4, i32 0, i32 0
  %PC = bitcast %union.anon* %5 to i64*
  %6 = getelementptr inbounds %struct.State, %struct.State* %0, i32 0, i32 6
  %7 = getelementptr inbounds %struct.GPR, %struct.GPR* %6, i32 0, i32 15
  %8 = getelementptr inbounds %struct.Reg, %struct.Reg* %7, i32 0, i32 0
  %RBP = bitcast %union.anon* %8 to i64*
  %9 = load i64, i64* %RBP
  %10 = load i64, i64* %PC
  %11 = add i64 %10, 1
  store i64 %11, i64* %PC
  %12 = getelementptr inbounds %struct.State, %struct.State* %0, i64 0, i32 6, i32 13, i32 0, i32 0
  %13 = load i64, i64* %12, align 8
  %14 = add i64 %13, -8
  %15 = inttoptr i64 %14 to i64*
  store i64 %9, i64* %15
  store i64 %14, i64* %12, align 8
  ret %struct.Memory* %2
}

define %struct.Memory* @routine_movq__rsp___rbp(%struct.State* dereferenceable(3376), i64, %struct.Memory*) {
block_400478:
  %3 = getelementptr inbounds %struct.State, %struct.State* %0, i32 0, i32 6
  %4 = getelementptr inbounds %struct.GPR, %struct.GPR* %3, i32 0, i32 33
  %5 = getelementptr inbounds %struct.Reg, %struct.Reg* %4, i32 0, i32 0
  %PC = bitcast %union.anon* %5 to i64*
  %6 = getelementptr inbounds %struct.State, %struct.State* %0, i32 0, i32 6
  %7 = getelementptr inbounds %struct.GPR, %struct.GPR* %6, i32 0, i32 13
  %8 = getelementptr inbounds %struct.Reg, %struct.Reg* %7, i32 0, i32 0
  %RSP = bitcast %union.anon* %8 to i64*
  %9 = getelementptr inbounds %struct.State, %struct.State* %0, i32 0, i32 6
  %10 = getelementptr inbounds %struct.GPR, %struct.GPR* %9, i32 0, i32 15
  %11 = getelementptr inbounds %struct.Reg, %struct.Reg* %10, i32 0, i32 0
  %RBP = bitcast %union.anon* %11 to i64*
  %12 = load i64, i64* %RSP
  %13 = load i64, i64* %PC
  %14 = add i64 %13, 3
  store i64 %14, i64* %PC
  store i64 %12, i64* %RBP, align 8
  ret %struct.Memory* %2
}

define %struct.Memory* @routine_movss_0x9484__rip____xmm1(%struct.State* dereferenceable(3376), i64, %struct.Memory*) {
block_400478:
  %3 = getelementptr inbounds %struct.State, %struct.State* %0, i32 0, i32 6
  %4 = getelementptr inbounds %struct.GPR, %struct.GPR* %3, i32 0, i32 33
  %5 = getelementptr inbounds %struct.Reg, %struct.Reg* %4, i32 0, i32 0
  %PC = bitcast %union.anon* %5 to i64*
  %6 = getelementptr inbounds %struct.State, %struct.State* %0, i32 0, i32 1
  %7 = getelementptr inbounds [32 x %union.VectorReg], [32 x %union.VectorReg]* %6, i64 0, i64 1
  %YMM1 = bitcast %union.VectorReg* %7 to %"class.std::bitset"*
  %8 = bitcast %"class.std::bitset"* %YMM1 to i8*
  %9 = load i64, i64* %PC
  %10 = ptrtoint %G_0x9484__rip__4257292__type* @G_0x9484__rip__4257292_ to i64
  %11 = load i64, i64* %PC
  %12 = add i64 %11, 8
  store i64 %12, i64* %PC
  %13 = inttoptr i64 %10 to float*
  %14 = load float, float* %13
  %15 = bitcast i8* %8 to float*
  store float %14, float* %15, align 1
  %16 = getelementptr inbounds i8, i8* %8, i64 4
  %17 = bitcast i8* %16 to float*
  store float 0.000000e+00, float* %17, align 1
  %18 = getelementptr inbounds i8, i8* %8, i64 8
  %19 = bitcast i8* %18 to float*
  store float 0.000000e+00, float* %19, align 1
  %20 = getelementptr inbounds i8, i8* %8, i64 12
  %21 = bitcast i8* %20 to float*
  store float 0.000000e+00, float* %21, align 1
  ret %struct.Memory* %2
}

define %struct.Memory* @routine_movss_0x9480__rip____xmm2(%struct.State* dereferenceable(3376), i64, %struct.Memory*) {
block_400478:
  %3 = getelementptr inbounds %struct.State, %struct.State* %0, i32 0, i32 6
  %4 = getelementptr inbounds %struct.GPR, %struct.GPR* %3, i32 0, i32 33
  %5 = getelementptr inbounds %struct.Reg, %struct.Reg* %4, i32 0, i32 0
  %PC = bitcast %union.anon* %5 to i64*
  %6 = getelementptr inbounds %struct.State, %struct.State* %0, i32 0, i32 1
  %7 = getelementptr inbounds [32 x %union.VectorReg], [32 x %union.VectorReg]* %6, i64 0, i64 2
  %YMM2 = bitcast %union.VectorReg* %7 to %"class.std::bitset"*
  %8 = bitcast %"class.std::bitset"* %YMM2 to i8*
  %9 = load i64, i64* %PC
  %10 = ptrtoint %G_0x9480__rip__4257300__type* @G_0x9480__rip__4257300_ to i64
  %11 = load i64, i64* %PC
  %12 = add i64 %11, 8
  store i64 %12, i64* %PC
  %13 = inttoptr i64 %10 to float*
  %14 = load float, float* %13
  %15 = bitcast i8* %8 to float*
  store float %14, float* %15, align 1
  %16 = getelementptr inbounds i8, i8* %8, i64 4
  %17 = bitcast i8* %16 to float*
  store float 0.000000e+00, float* %17, align 1
  %18 = getelementptr inbounds i8, i8* %8, i64 8
  %19 = bitcast i8* %18 to float*
  store float 0.000000e+00, float* %19, align 1
  %20 = getelementptr inbounds i8, i8* %8, i64 12
  %21 = bitcast i8* %20 to float*
  store float 0.000000e+00, float* %21, align 1
  ret %struct.Memory* %2
}

define %struct.Memory* @routine_movss_0x9468__rip____xmm3(%struct.State* dereferenceable(3376), i64, %struct.Memory*) {
block_400478:
  %3 = getelementptr inbounds %struct.State, %struct.State* %0, i32 0, i32 6
  %4 = getelementptr inbounds %struct.GPR, %struct.GPR* %3, i32 0, i32 33
  %5 = getelementptr inbounds %struct.Reg, %struct.Reg* %4, i32 0, i32 0
  %PC = bitcast %union.anon* %5 to i64*
  %6 = getelementptr inbounds %struct.State, %struct.State* %0, i32 0, i32 1
  %7 = getelementptr inbounds [32 x %union.VectorReg], [32 x %union.VectorReg]* %6, i64 0, i64 3
  %YMM3 = bitcast %union.VectorReg* %7 to %"class.std::bitset"*
  %8 = bitcast %"class.std::bitset"* %YMM3 to i8*
  %9 = load i64, i64* %PC
  %10 = ptrtoint %G_0x9468__rip__4257308__type* @G_0x9468__rip__4257308_ to i64
  %11 = load i64, i64* %PC
  %12 = add i64 %11, 8
  store i64 %12, i64* %PC
  %13 = inttoptr i64 %10 to float*
  %14 = load float, float* %13
  %15 = bitcast i8* %8 to float*
  store float %14, float* %15, align 1
  %16 = getelementptr inbounds i8, i8* %8, i64 4
  %17 = bitcast i8* %16 to float*
  store float 0.000000e+00, float* %17, align 1
  %18 = getelementptr inbounds i8, i8* %8, i64 8
  %19 = bitcast i8* %18 to float*
  store float 0.000000e+00, float* %19, align 1
  %20 = getelementptr inbounds i8, i8* %8, i64 12
  %21 = bitcast i8* %20 to float*
  store float 0.000000e+00, float* %21, align 1
  ret %struct.Memory* %2
}

define %struct.Memory* @routine_movss_0x9478__rip____xmm4(%struct.State* dereferenceable(3376), i64, %struct.Memory*) {
block_400478:
  %3 = getelementptr inbounds %struct.State, %struct.State* %0, i32 0, i32 6
  %4 = getelementptr inbounds %struct.GPR, %struct.GPR* %3, i32 0, i32 33
  %5 = getelementptr inbounds %struct.Reg, %struct.Reg* %4, i32 0, i32 0
  %PC = bitcast %union.anon* %5 to i64*
  %6 = getelementptr inbounds %struct.State, %struct.State* %0, i32 0, i32 1
  %7 = getelementptr inbounds [32 x %union.VectorReg], [32 x %union.VectorReg]* %6, i64 0, i64 4
  %YMM4 = bitcast %union.VectorReg* %7 to %"class.std::bitset"*
  %8 = bitcast %"class.std::bitset"* %YMM4 to i8*
  %9 = load i64, i64* %PC
  %10 = ptrtoint %G_0x9478__rip__4257316__type* @G_0x9478__rip__4257316_ to i64
  %11 = load i64, i64* %PC
  %12 = add i64 %11, 8
  store i64 %12, i64* %PC
  %13 = inttoptr i64 %10 to float*
  %14 = load float, float* %13
  %15 = bitcast i8* %8 to float*
  store float %14, float* %15, align 1
  %16 = getelementptr inbounds i8, i8* %8, i64 4
  %17 = bitcast i8* %16 to float*
  store float 0.000000e+00, float* %17, align 1
  %18 = getelementptr inbounds i8, i8* %8, i64 8
  %19 = bitcast i8* %18 to float*
  store float 0.000000e+00, float* %19, align 1
  %20 = getelementptr inbounds i8, i8* %8, i64 12
  %21 = bitcast i8* %20 to float*
  store float 0.000000e+00, float* %21, align 1
  ret %struct.Memory* %2
}

define %struct.Memory* @routine_movss__xmm0__MINUS0x4__rbp_(%struct.State* dereferenceable(3376), i64, %struct.Memory*) {
block_400478:
  %3 = getelementptr inbounds %struct.State, %struct.State* %0, i32 0, i32 6
  %4 = getelementptr inbounds %struct.GPR, %struct.GPR* %3, i32 0, i32 33
  %5 = getelementptr inbounds %struct.Reg, %struct.Reg* %4, i32 0, i32 0
  %PC = bitcast %union.anon* %5 to i64*
  %6 = getelementptr inbounds %struct.State, %struct.State* %0, i32 0, i32 6
  %7 = getelementptr inbounds %struct.GPR, %struct.GPR* %6, i32 0, i32 15
  %8 = getelementptr inbounds %struct.Reg, %struct.Reg* %7, i32 0, i32 0
  %RBP = bitcast %union.anon* %8 to i64*
  %9 = getelementptr inbounds %struct.State, %struct.State* %0, i32 0, i32 1
  %10 = getelementptr inbounds [32 x %union.VectorReg], [32 x %union.VectorReg]* %9, i64 0, i64 0
  %XMM0 = bitcast %union.VectorReg* %10 to %union.vec128_t*
  %11 = load i64, i64* %RBP
  %12 = sub i64 %11, 4
  %13 = bitcast %union.vec128_t* %XMM0 to i8*
  %14 = load i64, i64* %PC
  %15 = add i64 %14, 5
  store i64 %15, i64* %PC
  %16 = bitcast i8* %13 to <2 x float>*
  %17 = load <2 x float>, <2 x float>* %16, align 1
  %18 = extractelement <2 x float> %17, i32 0
  %19 = inttoptr i64 %12 to float*
  store float %18, float* %19
  ret %struct.Memory* %2
}

define %struct.Memory* @routine_addss_MINUS0x4__rbp____xmm4(%struct.State* dereferenceable(3376), i64, %struct.Memory*) {
block_400478:
  %3 = getelementptr inbounds %struct.State, %struct.State* %0, i32 0, i32 6
  %4 = getelementptr inbounds %struct.GPR, %struct.GPR* %3, i32 0, i32 33
  %5 = getelementptr inbounds %struct.Reg, %struct.Reg* %4, i32 0, i32 0
  %PC = bitcast %union.anon* %5 to i64*
  %6 = getelementptr inbounds %struct.State, %struct.State* %0, i32 0, i32 6
  %7 = getelementptr inbounds %struct.GPR, %struct.GPR* %6, i32 0, i32 15
  %8 = getelementptr inbounds %struct.Reg, %struct.Reg* %7, i32 0, i32 0
  %RBP = bitcast %union.anon* %8 to i64*
  %9 = getelementptr inbounds %struct.State, %struct.State* %0, i32 0, i32 1
  %10 = getelementptr inbounds [32 x %union.VectorReg], [32 x %union.VectorReg]* %9, i64 0, i64 4
  %YMM4 = bitcast %union.VectorReg* %10 to %"class.std::bitset"*
  %11 = bitcast %"class.std::bitset"* %YMM4 to i8*
  %12 = bitcast %"class.std::bitset"* %YMM4 to i8*
  %13 = load i64, i64* %RBP
  %14 = sub i64 %13, 4
  %15 = load i64, i64* %PC
  %16 = add i64 %15, 5
  store i64 %16, i64* %PC
  %17 = bitcast i8* %12 to <2 x float>*
  %18 = load <2 x float>, <2 x float>* %17, align 1
  %19 = getelementptr inbounds i8, i8* %12, i64 8
  %20 = bitcast i8* %19 to <2 x i32>*
  %21 = load <2 x i32>, <2 x i32>* %20, align 1
  %22 = inttoptr i64 %14 to float*
  %23 = load float, float* %22
  %24 = extractelement <2 x float> %18, i32 0
  %25 = fadd float %24, %23
  %26 = bitcast i8* %11 to float*
  store float %25, float* %26, align 1
  %27 = bitcast <2 x float> %18 to <2 x i32>
  %28 = extractelement <2 x i32> %27, i32 1
  %29 = getelementptr inbounds i8, i8* %11, i64 4
  %30 = bitcast i8* %29 to i32*
  store i32 %28, i32* %30, align 1
  %31 = extractelement <2 x i32> %21, i32 0
  %32 = getelementptr inbounds i8, i8* %11, i64 8
  %33 = bitcast i8* %32 to i32*
  store i32 %31, i32* %33, align 1
  %34 = extractelement <2 x i32> %21, i32 1
  %35 = getelementptr inbounds i8, i8* %11, i64 12
  %36 = bitcast i8* %35 to i32*
  store i32 %34, i32* %36, align 1
  ret %struct.Memory* %2
}

define %struct.Memory* @routine_addss__xmm3___xmm4(%struct.State* dereferenceable(3376), i64, %struct.Memory*) {
block_400478:
  %3 = getelementptr inbounds %struct.State, %struct.State* %0, i32 0, i32 6
  %4 = getelementptr inbounds %struct.GPR, %struct.GPR* %3, i32 0, i32 33
  %5 = getelementptr inbounds %struct.Reg, %struct.Reg* %4, i32 0, i32 0
  %PC = bitcast %union.anon* %5 to i64*
  %6 = getelementptr inbounds %struct.State, %struct.State* %0, i32 0, i32 1
  %7 = getelementptr inbounds [32 x %union.VectorReg], [32 x %union.VectorReg]* %6, i64 0, i64 4
  %YMM4 = bitcast %union.VectorReg* %7 to %"class.std::bitset"*
  %8 = getelementptr inbounds %struct.State, %struct.State* %0, i32 0, i32 1
  %9 = getelementptr inbounds [32 x %union.VectorReg], [32 x %union.VectorReg]* %8, i64 0, i64 3
  %XMM3 = bitcast %union.VectorReg* %9 to %union.vec128_t*
  %10 = bitcast %"class.std::bitset"* %YMM4 to i8*
  %11 = bitcast %"class.std::bitset"* %YMM4 to i8*
  %12 = bitcast %union.vec128_t* %XMM3 to i8*
  %13 = load i64, i64* %PC
  %14 = add i64 %13, 4
  store i64 %14, i64* %PC
  %15 = bitcast i8* %11 to <2 x float>*
  %16 = load <2 x float>, <2 x float>* %15, align 1
  %17 = getelementptr inbounds i8, i8* %11, i64 8
  %18 = bitcast i8* %17 to <2 x i32>*
  %19 = load <2 x i32>, <2 x i32>* %18, align 1
  %20 = bitcast i8* %12 to <2 x float>*
  %21 = load <2 x float>, <2 x float>* %20, align 1
  %22 = extractelement <2 x float> %16, i32 0
  %23 = extractelement <2 x float> %21, i32 0
  %24 = fadd float %22, %23
  %25 = bitcast i8* %10 to float*
  store float %24, float* %25, align 1
  %26 = bitcast <2 x float> %16 to <2 x i32>
  %27 = extractelement <2 x i32> %26, i32 1
  %28 = getelementptr inbounds i8, i8* %10, i64 4
  %29 = bitcast i8* %28 to i32*
  store i32 %27, i32* %29, align 1
  %30 = extractelement <2 x i32> %19, i32 0
  %31 = getelementptr inbounds i8, i8* %10, i64 8
  %32 = bitcast i8* %31 to i32*
  store i32 %30, i32* %32, align 1
  %33 = extractelement <2 x i32> %19, i32 1
  %34 = getelementptr inbounds i8, i8* %10, i64 12
  %35 = bitcast i8* %34 to i32*
  store i32 %33, i32* %35, align 1
  ret %struct.Memory* %2
}

define %struct.Memory* @routine_addss__xmm2___xmm4(%struct.State* dereferenceable(3376), i64, %struct.Memory*) {
block_400478:
  %3 = getelementptr inbounds %struct.State, %struct.State* %0, i32 0, i32 6
  %4 = getelementptr inbounds %struct.GPR, %struct.GPR* %3, i32 0, i32 33
  %5 = getelementptr inbounds %struct.Reg, %struct.Reg* %4, i32 0, i32 0
  %PC = bitcast %union.anon* %5 to i64*
  %6 = getelementptr inbounds %struct.State, %struct.State* %0, i32 0, i32 1
  %7 = getelementptr inbounds [32 x %union.VectorReg], [32 x %union.VectorReg]* %6, i64 0, i64 4
  %YMM4 = bitcast %union.VectorReg* %7 to %"class.std::bitset"*
  %8 = getelementptr inbounds %struct.State, %struct.State* %0, i32 0, i32 1
  %9 = getelementptr inbounds [32 x %union.VectorReg], [32 x %union.VectorReg]* %8, i64 0, i64 2
  %XMM2 = bitcast %union.VectorReg* %9 to %union.vec128_t*
  %10 = bitcast %"class.std::bitset"* %YMM4 to i8*
  %11 = bitcast %"class.std::bitset"* %YMM4 to i8*
  %12 = bitcast %union.vec128_t* %XMM2 to i8*
  %13 = load i64, i64* %PC
  %14 = add i64 %13, 4
  store i64 %14, i64* %PC
  %15 = bitcast i8* %11 to <2 x float>*
  %16 = load <2 x float>, <2 x float>* %15, align 1
  %17 = getelementptr inbounds i8, i8* %11, i64 8
  %18 = bitcast i8* %17 to <2 x i32>*
  %19 = load <2 x i32>, <2 x i32>* %18, align 1
  %20 = bitcast i8* %12 to <2 x float>*
  %21 = load <2 x float>, <2 x float>* %20, align 1
  %22 = extractelement <2 x float> %16, i32 0
  %23 = extractelement <2 x float> %21, i32 0
  %24 = fadd float %22, %23
  %25 = bitcast i8* %10 to float*
  store float %24, float* %25, align 1
  %26 = bitcast <2 x float> %16 to <2 x i32>
  %27 = extractelement <2 x i32> %26, i32 1
  %28 = getelementptr inbounds i8, i8* %10, i64 4
  %29 = bitcast i8* %28 to i32*
  store i32 %27, i32* %29, align 1
  %30 = extractelement <2 x i32> %19, i32 0
  %31 = getelementptr inbounds i8, i8* %10, i64 8
  %32 = bitcast i8* %31 to i32*
  store i32 %30, i32* %32, align 1
  %33 = extractelement <2 x i32> %19, i32 1
  %34 = getelementptr inbounds i8, i8* %10, i64 12
  %35 = bitcast i8* %34 to i32*
  store i32 %33, i32* %35, align 1
  ret %struct.Memory* %2
}

define %struct.Memory* @routine_addss__xmm1___xmm4(%struct.State* dereferenceable(3376), i64, %struct.Memory*) {
block_400478:
  %3 = getelementptr inbounds %struct.State, %struct.State* %0, i32 0, i32 6
  %4 = getelementptr inbounds %struct.GPR, %struct.GPR* %3, i32 0, i32 33
  %5 = getelementptr inbounds %struct.Reg, %struct.Reg* %4, i32 0, i32 0
  %PC = bitcast %union.anon* %5 to i64*
  %6 = getelementptr inbounds %struct.State, %struct.State* %0, i32 0, i32 1
  %7 = getelementptr inbounds [32 x %union.VectorReg], [32 x %union.VectorReg]* %6, i64 0, i64 4
  %YMM4 = bitcast %union.VectorReg* %7 to %"class.std::bitset"*
  %8 = getelementptr inbounds %struct.State, %struct.State* %0, i32 0, i32 1
  %9 = getelementptr inbounds [32 x %union.VectorReg], [32 x %union.VectorReg]* %8, i64 0, i64 1
  %XMM1 = bitcast %union.VectorReg* %9 to %union.vec128_t*
  %10 = bitcast %"class.std::bitset"* %YMM4 to i8*
  %11 = bitcast %"class.std::bitset"* %YMM4 to i8*
  %12 = bitcast %union.vec128_t* %XMM1 to i8*
  %13 = load i64, i64* %PC
  %14 = add i64 %13, 4
  store i64 %14, i64* %PC
  %15 = bitcast i8* %11 to <2 x float>*
  %16 = load <2 x float>, <2 x float>* %15, align 1
  %17 = getelementptr inbounds i8, i8* %11, i64 8
  %18 = bitcast i8* %17 to <2 x i32>*
  %19 = load <2 x i32>, <2 x i32>* %18, align 1
  %20 = bitcast i8* %12 to <2 x float>*
  %21 = load <2 x float>, <2 x float>* %20, align 1
  %22 = extractelement <2 x float> %16, i32 0
  %23 = extractelement <2 x float> %21, i32 0
  %24 = fadd float %22, %23
  %25 = bitcast i8* %10 to float*
  store float %24, float* %25, align 1
  %26 = bitcast <2 x float> %16 to <2 x i32>
  %27 = extractelement <2 x i32> %26, i32 1
  %28 = getelementptr inbounds i8, i8* %10, i64 4
  %29 = bitcast i8* %28 to i32*
  store i32 %27, i32* %29, align 1
  %30 = extractelement <2 x i32> %19, i32 0
  %31 = getelementptr inbounds i8, i8* %10, i64 8
  %32 = bitcast i8* %31 to i32*
  store i32 %30, i32* %32, align 1
  %33 = extractelement <2 x i32> %19, i32 1
  %34 = getelementptr inbounds i8, i8* %10, i64 12
  %35 = bitcast i8* %34 to i32*
  store i32 %33, i32* %35, align 1
  ret %struct.Memory* %2
}

define %struct.Memory* @routine_movaps__xmm4___xmm0(%struct.State* dereferenceable(3376), i64, %struct.Memory*) {
block_400478:
  %3 = getelementptr inbounds %struct.State, %struct.State* %0, i32 0, i32 6
  %4 = getelementptr inbounds %struct.GPR, %struct.GPR* %3, i32 0, i32 33
  %5 = getelementptr inbounds %struct.Reg, %struct.Reg* %4, i32 0, i32 0
  %PC = bitcast %union.anon* %5 to i64*
  %6 = getelementptr inbounds %struct.State, %struct.State* %0, i32 0, i32 1
  %7 = getelementptr inbounds [32 x %union.VectorReg], [32 x %union.VectorReg]* %6, i64 0, i64 0
  %YMM0 = bitcast %union.VectorReg* %7 to %"class.std::bitset"*
  %8 = getelementptr inbounds %struct.State, %struct.State* %0, i32 0, i32 1
  %9 = getelementptr inbounds [32 x %union.VectorReg], [32 x %union.VectorReg]* %8, i64 0, i64 4
  %XMM4 = bitcast %union.VectorReg* %9 to %union.vec128_t*
  %10 = bitcast %"class.std::bitset"* %YMM0 to i8*
  %11 = bitcast %union.vec128_t* %XMM4 to i8*
  %12 = load i64, i64* %PC
  %13 = add i64 %12, 3
  store i64 %13, i64* %PC
  %14 = bitcast i8* %11 to <2 x i32>*
  %15 = load <2 x i32>, <2 x i32>* %14, align 1
  %16 = getelementptr inbounds i8, i8* %11, i64 8
  %17 = bitcast i8* %16 to <2 x i32>*
  %18 = load <2 x i32>, <2 x i32>* %17, align 1
  %19 = extractelement <2 x i32> %15, i32 0
  %20 = bitcast i8* %10 to i32*
  store i32 %19, i32* %20, align 1
  %21 = extractelement <2 x i32> %15, i32 1
  %22 = getelementptr inbounds i8, i8* %10, i64 4
  %23 = bitcast i8* %22 to i32*
  store i32 %21, i32* %23, align 1
  %24 = extractelement <2 x i32> %18, i32 0
  %25 = getelementptr inbounds i8, i8* %10, i64 8
  %26 = bitcast i8* %25 to i32*
  store i32 %24, i32* %26, align 1
  %27 = extractelement <2 x i32> %18, i32 1
  %28 = getelementptr inbounds i8, i8* %10, i64 12
  %29 = bitcast i8* %28 to i32*
  store i32 %27, i32* %29, align 1
  ret %struct.Memory* %2
}

define %struct.Memory* @routine_popq__rbp(%struct.State* dereferenceable(3376), i64, %struct.Memory*) {
block_400478:
  %3 = getelementptr inbounds %struct.State, %struct.State* %0, i32 0, i32 6
  %4 = getelementptr inbounds %struct.GPR, %struct.GPR* %3, i32 0, i32 33
  %5 = getelementptr inbounds %struct.Reg, %struct.Reg* %4, i32 0, i32 0
  %PC = bitcast %union.anon* %5 to i64*
  %6 = getelementptr inbounds %struct.State, %struct.State* %0, i32 0, i32 6
  %7 = getelementptr inbounds %struct.GPR, %struct.GPR* %6, i32 0, i32 15
  %8 = getelementptr inbounds %struct.Reg, %struct.Reg* %7, i32 0, i32 0
  %RBP = bitcast %union.anon* %8 to i64*
  %9 = load i64, i64* %PC
  %10 = add i64 %9, 1
  store i64 %10, i64* %PC
  %11 = getelementptr inbounds %struct.State, %struct.State* %0, i64 0, i32 6, i32 13, i32 0, i32 0
  %12 = load i64, i64* %11, align 8
  %13 = add i64 %12, 8
  %14 = inttoptr i64 %12 to i64*
  %15 = load i64, i64* %14
  store i64 %15, i64* %RBP, align 8
  store i64 %13, i64* %11, align 8
  ret %struct.Memory* %2
}

define %struct.Memory* @routine_retq(%struct.State* dereferenceable(3376), i64, %struct.Memory*) {
block_400478:
  %3 = getelementptr inbounds %struct.State, %struct.State* %0, i32 0, i32 6
  %4 = getelementptr inbounds %struct.GPR, %struct.GPR* %3, i32 0, i32 33
  %5 = getelementptr inbounds %struct.Reg, %struct.Reg* %4, i32 0, i32 0
  %PC = bitcast %union.anon* %5 to i64*
  %6 = load i64, i64* %PC
  %7 = add i64 %6, 1
  store i64 %7, i64* %PC
  %8 = getelementptr inbounds %struct.State, %struct.State* %0, i64 0, i32 6, i32 33, i32 0, i32 0
  %9 = getelementptr inbounds %struct.State, %struct.State* %0, i64 0, i32 6, i32 13, i32 0, i32 0
  %10 = load i64, i64* %9, align 8
  %11 = inttoptr i64 %10 to i64*
  %12 = load i64, i64* %11
  store i64 %12, i64* %8, align 8
  %13 = add i64 %10, 8
  store i64 %13, i64* %9, align 8
  ret %struct.Memory* %2
}

attributes #0 = { argmemonly nounwind }
attributes #1 = { nounwind readnone }
attributes #2 = { alwaysinline }
