; ModuleID = 'mcsema/test.proposed.inline.ll'
source_filename = "llvm-link"
target datalayout = "e-m:e-i64:64-f80:128-n8:16:32:64-S128"
target triple = "x86_64-pc-linux-gnu-elf"

%__bss_start_type = type <{ [8 x i8] }>
%struct.State = type { %struct.ArchState, [32 x %union.VectorReg], %struct.ArithFlags, %union.anon, %struct.Segments, %struct.AddressSpace, %struct.GPR, %struct.X87Stack, %struct.MMX, %struct.FPUStatusFlags, %union.anon, %union.FPU, %struct.SegmentCaches }
%struct.ArchState = type { i32, i32, %union.anon }
%union.VectorReg = type { %union.vec512_t }
%union.vec512_t = type { %struct.uint64v8_t }
%struct.uint64v8_t = type { [8 x i64] }
%struct.ArithFlags = type { i8, i8, i8, i8, i8, i8, i8, i8, i8, i8, i8, i8, i8, i8, i8, i8 }
%struct.Segments = type { i16, %union.SegmentSelector, i16, %union.SegmentSelector, i16, %union.SegmentSelector, i16, %union.SegmentSelector, i16, %union.SegmentSelector, i16, %union.SegmentSelector }
%union.SegmentSelector = type { i16 }
%struct.AddressSpace = type { i64, %struct.Reg, i64, %struct.Reg, i64, %struct.Reg, i64, %struct.Reg, i64, %struct.Reg, i64, %struct.Reg }
%struct.Reg = type { %union.anon }
%struct.GPR = type { i64, %struct.Reg, i64, %struct.Reg, i64, %struct.Reg, i64, %struct.Reg, i64, %struct.Reg, i64, %struct.Reg, i64, %struct.Reg, i64, %struct.Reg, i64, %struct.Reg, i64, %struct.Reg, i64, %struct.Reg, i64, %struct.Reg, i64, %struct.Reg, i64, %struct.Reg, i64, %struct.Reg, i64, %struct.Reg, i64, %struct.Reg }
%struct.X87Stack = type { [8 x %struct.anon.3] }
%struct.anon.3 = type { i64, double }
%struct.MMX = type { [8 x %struct.anon.4] }
%struct.anon.4 = type { i64, %union.vec64_t }
%union.vec64_t = type { %struct.uint64v1_t }
%struct.uint64v1_t = type { [1 x i64] }
%struct.FPUStatusFlags = type { i8, i8, i8, i8, i8, i8, i8, i8, i8, i8, i8, i8, i8, i8, i8, i8, i8, i8, i8, i8, [4 x i8] }
%union.anon = type { i64 }
%union.FPU = type { %struct.anon.13 }
%struct.anon.13 = type { %struct.FpuFXSAVE, [96 x i8] }
%struct.FpuFXSAVE = type { %union.SegmentSelector, %union.SegmentSelector, %union.FPUAbridgedTagWord, i8, i16, i32, %union.SegmentSelector, i16, i32, %union.SegmentSelector, i16, %union.FPUControlStatus, %union.FPUControlStatus, [8 x %struct.FPUStackElem], [16 x %union.vec128_t] }
%union.FPUAbridgedTagWord = type { i8 }
%union.FPUControlStatus = type { i32 }
%struct.FPUStackElem = type { %union.anon.11, [6 x i8] }
%union.anon.11 = type { %struct.float80_t }
%struct.float80_t = type { [10 x i8] }
%union.vec128_t = type { %struct.uint128v1_t }
%struct.uint128v1_t = type { [1 x i128] }
%struct.SegmentCaches = type { %struct.SegmentShadow, %struct.SegmentShadow, %struct.SegmentShadow, %struct.SegmentShadow, %struct.SegmentShadow, %struct.SegmentShadow }
%struct.SegmentShadow = type { %union.anon, i32, i32 }
%struct.Memory = type opaque

@__bss_start = local_unnamed_addr global %__bss_start_type zeroinitializer

; Function Attrs: nounwind readnone
declare i32 @llvm.ctpop.i32(i32) #0

declare %struct.Memory* @sub_478110.play_attack_defend_n(%struct.State* noalias dereferenceable(3376), i64, %struct.Memory* noalias readnone returned) local_unnamed_addr

; Function Attrs: alwaysinline
define %struct.Memory* @autohelperowl_attackpat18(%struct.State* noalias, i64, %struct.Memory* noalias readnone) local_unnamed_addr #1 {
entry:
  %3 = getelementptr inbounds %struct.State, %struct.State* %0, i64 0, i32 6, i32 33, i32 0, i32 0
  %RBP.i = getelementptr inbounds %struct.State, %struct.State* %0, i64 0, i32 6, i32 15, i32 0, i32 0
  %4 = load i64, i64* %RBP.i, align 8
  %5 = add i64 %1, 1
  store i64 %5, i64* %3, align 8
  %6 = getelementptr inbounds %struct.State, %struct.State* %0, i64 0, i32 6, i32 13, i32 0, i32 0
  %7 = load i64, i64* %6, align 8
  %8 = add i64 %7, -8
  %9 = inttoptr i64 %8 to i64*
  store i64 %4, i64* %9, align 8
  %10 = load i64, i64* %3, align 8
  store i64 %8, i64* %RBP.i, align 8
  %11 = add i64 %7, -72
  store i64 %11, i64* %6, align 8
  %12 = icmp ult i64 %8, 64
  %13 = zext i1 %12 to i8
  %14 = getelementptr inbounds %struct.State, %struct.State* %0, i64 0, i32 2, i32 1
  store i8 %13, i8* %14, align 1
  %15 = trunc i64 %11 to i32
  %16 = and i32 %15, 255
  %17 = tail call i32 @llvm.ctpop.i32(i32 %16)
  %18 = trunc i32 %17 to i8
  %19 = and i8 %18, 1
  %20 = xor i8 %19, 1
  %21 = getelementptr inbounds %struct.State, %struct.State* %0, i64 0, i32 2, i32 3
  store i8 %20, i8* %21, align 1
  %22 = xor i64 %8, %11
  %23 = lshr i64 %22, 4
  %24 = trunc i64 %23 to i8
  %25 = and i8 %24, 1
  %26 = getelementptr inbounds %struct.State, %struct.State* %0, i64 0, i32 2, i32 5
  store i8 %25, i8* %26, align 1
  %27 = icmp eq i64 %11, 0
  %28 = zext i1 %27 to i8
  %29 = getelementptr inbounds %struct.State, %struct.State* %0, i64 0, i32 2, i32 7
  store i8 %28, i8* %29, align 1
  %30 = lshr i64 %11, 63
  %31 = trunc i64 %30 to i8
  %32 = getelementptr inbounds %struct.State, %struct.State* %0, i64 0, i32 2, i32 9
  store i8 %31, i8* %32, align 1
  %33 = lshr i64 %8, 63
  %34 = xor i64 %30, %33
  %35 = add nuw nsw i64 %34, %33
  %36 = icmp eq i64 %35, 2
  %37 = zext i1 %36 to i8
  %38 = getelementptr inbounds %struct.State, %struct.State* %0, i64 0, i32 2, i32 13
  store i8 %37, i8* %38, align 1
  %39 = getelementptr inbounds %struct.State, %struct.State* %0, i64 0, i32 6, i32 1, i32 0
  %RAX.i122 = getelementptr inbounds %union.anon, %union.anon* %39, i64 0, i32 0
  store i64 1, i64* %RAX.i122, align 8
  %40 = getelementptr inbounds %struct.State, %struct.State* %0, i64 0, i32 6, i32 17, i32 0
  %R8D.i120 = bitcast %union.anon* %40 to i32*
  %41 = getelementptr inbounds %union.anon, %union.anon* %40, i64 0, i32 0
  store i64 2, i64* %41, align 8
  %42 = getelementptr inbounds %struct.State, %struct.State* %0, i64 0, i32 6, i32 11, i32 0
  %EDI.i = bitcast %union.anon* %42 to i32*
  %43 = add i64 %7, -12
  %44 = load i32, i32* %EDI.i, align 4
  %45 = add i64 %10, 21
  store i64 %45, i64* %3, align 8
  %46 = inttoptr i64 %43 to i32*
  store i32 %44, i32* %46, align 4
  %47 = getelementptr inbounds %struct.State, %struct.State* %0, i64 0, i32 6, i32 9, i32 0
  %ESI.i = bitcast %union.anon* %47 to i32*
  %48 = load i64, i64* %RBP.i, align 8
  %49 = add i64 %48, -8
  %50 = load i32, i32* %ESI.i, align 4
  %51 = load i64, i64* %3, align 8
  %52 = add i64 %51, 3
  store i64 %52, i64* %3, align 8
  %53 = inttoptr i64 %49 to i32*
  store i32 %50, i32* %53, align 4
  %54 = getelementptr inbounds %struct.State, %struct.State* %0, i64 0, i32 6, i32 7, i32 0
  %EDX.i113 = bitcast %union.anon* %54 to i32*
  %55 = load i64, i64* %RBP.i, align 8
  %56 = add i64 %55, -12
  %57 = load i32, i32* %EDX.i113, align 4
  %58 = load i64, i64* %3, align 8
  %59 = add i64 %58, 3
  store i64 %59, i64* %3, align 8
  %60 = inttoptr i64 %56 to i32*
  store i32 %57, i32* %60, align 4
  %61 = getelementptr inbounds %struct.State, %struct.State* %0, i64 0, i32 6, i32 5, i32 0
  %ECX.i110 = bitcast %union.anon* %61 to i32*
  %62 = load i64, i64* %RBP.i, align 8
  %63 = add i64 %62, -16
  %64 = load i32, i32* %ECX.i110, align 4
  %65 = load i64, i64* %3, align 8
  %66 = add i64 %65, 3
  store i64 %66, i64* %3, align 8
  %67 = inttoptr i64 %63 to i32*
  store i32 %64, i32* %67, align 4
  %R9.i108 = getelementptr inbounds %struct.State, %struct.State* %0, i64 0, i32 6, i32 19, i32 0, i32 0
  %68 = load i64, i64* %RBP.i, align 8
  %69 = add i64 %68, -4
  %70 = load i64, i64* %3, align 8
  %71 = add i64 %70, 4
  store i64 %71, i64* %3, align 8
  %72 = inttoptr i64 %69 to i32*
  %73 = load i32, i32* %72, align 4
  %74 = sext i32 %73 to i64
  store i64 %74, i64* %R9.i108, align 8
  %RCX.i104 = getelementptr inbounds %union.anon, %union.anon* %61, i64 0, i32 0
  %75 = shl nsw i64 %74, 2
  %76 = add nsw i64 %75, 11903568
  %77 = add i64 %70, 12
  store i64 %77, i64* %3, align 8
  %78 = inttoptr i64 %76 to i32*
  %79 = load i32, i32* %78, align 4
  %80 = zext i32 %79 to i64
  store i64 %80, i64* %RCX.i104, align 8
  %81 = add i64 %68, -8
  %82 = add i64 %70, 15
  store i64 %82, i64* %3, align 8
  %83 = inttoptr i64 %81 to i32*
  %84 = load i32, i32* %83, align 4
  %85 = add i32 %84, %79
  %86 = zext i32 %85 to i64
  store i64 %86, i64* %RCX.i104, align 8
  %87 = icmp ult i32 %85, %79
  %88 = icmp ult i32 %85, %84
  %89 = or i1 %87, %88
  %90 = zext i1 %89 to i8
  store i8 %90, i8* %14, align 1
  %91 = and i32 %85, 255
  %92 = tail call i32 @llvm.ctpop.i32(i32 %91)
  %93 = trunc i32 %92 to i8
  %94 = and i8 %93, 1
  %95 = xor i8 %94, 1
  store i8 %95, i8* %21, align 1
  %96 = xor i32 %84, %79
  %97 = xor i32 %96, %85
  %98 = lshr i32 %97, 4
  %99 = trunc i32 %98 to i8
  %100 = and i8 %99, 1
  store i8 %100, i8* %26, align 1
  %101 = icmp eq i32 %85, 0
  %102 = zext i1 %101 to i8
  store i8 %102, i8* %29, align 1
  %103 = lshr i32 %85, 31
  %104 = trunc i32 %103 to i8
  store i8 %104, i8* %32, align 1
  %105 = lshr i32 %79, 31
  %106 = lshr i32 %84, 31
  %107 = xor i32 %103, %105
  %108 = xor i32 %103, %106
  %109 = add nuw nsw i32 %107, %108
  %110 = icmp eq i32 %109, 2
  %111 = zext i1 %110 to i8
  store i8 %111, i8* %38, align 1
  %112 = add i64 %68, -20
  %113 = add i64 %70, 18
  store i64 %113, i64* %3, align 8
  %114 = inttoptr i64 %112 to i32*
  store i32 %85, i32* %114, align 4
  %115 = load i64, i64* %RBP.i, align 8
  %116 = add i64 %115, -4
  %117 = load i64, i64* %3, align 8
  %118 = add i64 %117, 4
  store i64 %118, i64* %3, align 8
  %119 = inttoptr i64 %116 to i32*
  %120 = load i32, i32* %119, align 4
  %121 = sext i32 %120 to i64
  store i64 %121, i64* %R9.i108, align 8
  %122 = shl nsw i64 %121, 2
  %123 = add nsw i64 %122, 11903536
  %124 = add i64 %117, 12
  store i64 %124, i64* %3, align 8
  %125 = inttoptr i64 %123 to i32*
  %126 = load i32, i32* %125, align 4
  %127 = zext i32 %126 to i64
  store i64 %127, i64* %RCX.i104, align 8
  %128 = add i64 %115, -8
  %129 = add i64 %117, 15
  store i64 %129, i64* %3, align 8
  %130 = inttoptr i64 %128 to i32*
  %131 = load i32, i32* %130, align 4
  %132 = add i32 %131, %126
  %133 = zext i32 %132 to i64
  store i64 %133, i64* %RCX.i104, align 8
  %134 = icmp ult i32 %132, %126
  %135 = icmp ult i32 %132, %131
  %136 = or i1 %134, %135
  %137 = zext i1 %136 to i8
  store i8 %137, i8* %14, align 1
  %138 = and i32 %132, 255
  %139 = tail call i32 @llvm.ctpop.i32(i32 %138)
  %140 = trunc i32 %139 to i8
  %141 = and i8 %140, 1
  %142 = xor i8 %141, 1
  store i8 %142, i8* %21, align 1
  %143 = xor i32 %131, %126
  %144 = xor i32 %143, %132
  %145 = lshr i32 %144, 4
  %146 = trunc i32 %145 to i8
  %147 = and i8 %146, 1
  store i8 %147, i8* %26, align 1
  %148 = icmp eq i32 %132, 0
  %149 = zext i1 %148 to i8
  store i8 %149, i8* %29, align 1
  %150 = lshr i32 %132, 31
  %151 = trunc i32 %150 to i8
  store i8 %151, i8* %32, align 1
  %152 = lshr i32 %126, 31
  %153 = lshr i32 %131, 31
  %154 = xor i32 %150, %152
  %155 = xor i32 %150, %153
  %156 = add nuw nsw i32 %154, %155
  %157 = icmp eq i32 %156, 2
  %158 = zext i1 %157 to i8
  store i8 %158, i8* %38, align 1
  %159 = add i64 %115, -24
  %160 = add i64 %117, 18
  store i64 %160, i64* %3, align 8
  %161 = inttoptr i64 %159 to i32*
  store i32 %132, i32* %161, align 4
  %162 = load i64, i64* %RBP.i, align 8
  %163 = add i64 %162, -4
  %164 = load i64, i64* %3, align 8
  %165 = add i64 %164, 4
  store i64 %165, i64* %3, align 8
  %166 = inttoptr i64 %163 to i32*
  %167 = load i32, i32* %166, align 4
  %168 = sext i32 %167 to i64
  store i64 %168, i64* %R9.i108, align 8
  %169 = shl nsw i64 %168, 2
  %170 = add nsw i64 %169, 11901168
  %171 = add i64 %164, 12
  store i64 %171, i64* %3, align 8
  %172 = inttoptr i64 %170 to i32*
  %173 = load i32, i32* %172, align 4
  %174 = zext i32 %173 to i64
  store i64 %174, i64* %RCX.i104, align 8
  %175 = add i64 %162, -8
  %176 = add i64 %164, 15
  store i64 %176, i64* %3, align 8
  %177 = inttoptr i64 %175 to i32*
  %178 = load i32, i32* %177, align 4
  %179 = add i32 %178, %173
  %180 = zext i32 %179 to i64
  store i64 %180, i64* %RCX.i104, align 8
  %181 = icmp ult i32 %179, %173
  %182 = icmp ult i32 %179, %178
  %183 = or i1 %181, %182
  %184 = zext i1 %183 to i8
  store i8 %184, i8* %14, align 1
  %185 = and i32 %179, 255
  %186 = tail call i32 @llvm.ctpop.i32(i32 %185)
  %187 = trunc i32 %186 to i8
  %188 = and i8 %187, 1
  %189 = xor i8 %188, 1
  store i8 %189, i8* %21, align 1
  %190 = xor i32 %178, %173
  %191 = xor i32 %190, %179
  %192 = lshr i32 %191, 4
  %193 = trunc i32 %192 to i8
  %194 = and i8 %193, 1
  store i8 %194, i8* %26, align 1
  %195 = icmp eq i32 %179, 0
  %196 = zext i1 %195 to i8
  store i8 %196, i8* %29, align 1
  %197 = lshr i32 %179, 31
  %198 = trunc i32 %197 to i8
  store i8 %198, i8* %32, align 1
  %199 = lshr i32 %173, 31
  %200 = lshr i32 %178, 31
  %201 = xor i32 %197, %199
  %202 = xor i32 %197, %200
  %203 = add nuw nsw i32 %201, %202
  %204 = icmp eq i32 %203, 2
  %205 = zext i1 %204 to i8
  store i8 %205, i8* %38, align 1
  %206 = add i64 %162, -28
  %207 = add i64 %164, 18
  store i64 %207, i64* %3, align 8
  %208 = inttoptr i64 %206 to i32*
  store i32 %179, i32* %208, align 4
  %RDI.i73 = getelementptr inbounds %union.anon, %union.anon* %42, i64 0, i32 0
  %209 = load i64, i64* %RBP.i, align 8
  %210 = add i64 %209, -12
  %211 = load i64, i64* %3, align 8
  %212 = add i64 %211, 3
  store i64 %212, i64* %3, align 8
  %213 = inttoptr i64 %210 to i32*
  %214 = load i32, i32* %213, align 4
  %215 = zext i32 %214 to i64
  store i64 %215, i64* %RDI.i73, align 8
  %216 = add i64 %209, -8
  %217 = add i64 %211, 6
  store i64 %217, i64* %3, align 8
  %218 = inttoptr i64 %216 to i32*
  %219 = load i32, i32* %218, align 4
  %220 = zext i32 %219 to i64
  store i64 %220, i64* %RCX.i104, align 8
  %RDX.i67 = getelementptr inbounds %union.anon, %union.anon* %54, i64 0, i32 0
  %221 = add i64 %209, -20
  %222 = add i64 %211, 9
  store i64 %222, i64* %3, align 8
  %223 = inttoptr i64 %221 to i32*
  %224 = load i32, i32* %223, align 4
  %225 = zext i32 %224 to i64
  store i64 %225, i64* %RDX.i67, align 8
  %226 = add i64 %211, 13
  store i64 %226, i64* %3, align 8
  %227 = load i32, i32* %223, align 4
  %228 = zext i32 %227 to i64
  store i64 %228, i64* %R9.i108, align 8
  %EAX.i61 = bitcast %union.anon* %39 to i32*
  %RSI.i62 = getelementptr inbounds %union.anon, %union.anon* %47, i64 0, i32 0
  %229 = load i32, i32* %EAX.i61, align 4
  %230 = zext i32 %229 to i64
  store i64 %230, i64* %RSI.i62, align 8
  %231 = add i64 %209, -32
  %232 = add i64 %211, 18
  store i64 %232, i64* %3, align 8
  %233 = inttoptr i64 %231 to i32*
  store i32 %224, i32* %233, align 4
  %234 = load i32, i32* %R8D.i120, align 4
  %235 = zext i32 %234 to i64
  %236 = load i64, i64* %3, align 8
  store i64 %235, i64* %RDX.i67, align 8
  %237 = load i64, i64* %RBP.i, align 8
  %238 = add i64 %237, -32
  %239 = add i64 %236, 7
  store i64 %239, i64* %3, align 8
  %240 = inttoptr i64 %238 to i32*
  %241 = load i32, i32* %240, align 4
  %242 = zext i32 %241 to i64
  store i64 %242, i64* %41, align 8
  %AL.i51 = bitcast %union.anon* %39 to i8*
  store i8 0, i8* %AL.i51, align 1
  %243 = add i64 %236, -240775
  %244 = add i64 %236, 14
  %245 = load i64, i64* %6, align 8
  %246 = add i64 %245, -8
  %247 = inttoptr i64 %246 to i64*
  store i64 %244, i64* %247, align 8
  store i64 %246, i64* %6, align 8
  store i64 %243, i64* %3, align 8
  %call2_4b2da0 = tail call %struct.Memory* @sub_478110.play_attack_defend_n(%struct.State* %0, i64 %243, %struct.Memory* %2)
  %248 = getelementptr inbounds %struct.State, %struct.State* %0, i64 0, i32 6, i32 21, i32 0
  %R10B.i48 = bitcast %union.anon* %248 to i8*
  %249 = load i64, i64* %3, align 8
  store i8 1, i8* %R10B.i48, align 1
  %250 = load i32, i32* %EAX.i61, align 4
  store i8 0, i8* %14, align 1
  %251 = and i32 %250, 255
  %252 = tail call i32 @llvm.ctpop.i32(i32 %251)
  %253 = trunc i32 %252 to i8
  %254 = and i8 %253, 1
  %255 = xor i8 %254, 1
  store i8 %255, i8* %21, align 1
  store i8 0, i8* %26, align 1
  %256 = icmp eq i32 %250, 0
  %257 = zext i1 %256 to i8
  store i8 %257, i8* %29, align 1
  %258 = lshr i32 %250, 31
  %259 = trunc i32 %258 to i8
  store i8 %259, i8* %32, align 1
  store i8 0, i8* %38, align 1
  %260 = load i64, i64* %RBP.i, align 8
  %261 = add i64 %260, -33
  %262 = add i64 %249, 10
  store i64 %262, i64* %3, align 8
  %263 = inttoptr i64 %261 to i8*
  store i8 1, i8* %263, align 1
  %264 = load i64, i64* %3, align 8
  %265 = add i64 %264, 67
  %266 = add i64 %264, 6
  %267 = load i8, i8* %29, align 1
  %268 = icmp eq i8 %267, 0
  %269 = select i1 %268, i64 %265, i64 %266
  store i64 %269, i64* %3, align 8
  br i1 %268, label %block_.L_4b2df2, label %block_4b2db5

block_4b2db5:                                     ; preds = %entry
  store i64 1, i64* %RSI.i62, align 8
  store i64 4, i64* %RDX.i67, align 8
  %270 = load i64, i64* %RBP.i, align 8
  %271 = add i64 %270, -12
  %272 = add i64 %269, 13
  store i64 %272, i64* %3, align 8
  %273 = inttoptr i64 %271 to i32*
  %274 = load i32, i32* %273, align 4
  %275 = zext i32 %274 to i64
  store i64 %275, i64* %RDI.i73, align 8
  %276 = add i64 %270, -8
  %277 = add i64 %269, 16
  store i64 %277, i64* %3, align 8
  %278 = inttoptr i64 %276 to i32*
  %279 = load i32, i32* %278, align 4
  %280 = zext i32 %279 to i64
  store i64 %280, i64* %RCX.i104, align 8
  %281 = add i64 %270, -20
  %282 = add i64 %269, 20
  store i64 %282, i64* %3, align 8
  %283 = inttoptr i64 %281 to i32*
  %284 = load i32, i32* %283, align 4
  %285 = zext i32 %284 to i64
  store i64 %285, i64* %41, align 8
  %286 = add i64 %270, -24
  %287 = add i64 %269, 24
  store i64 %287, i64* %3, align 8
  %288 = inttoptr i64 %286 to i32*
  %289 = load i32, i32* %288, align 4
  %290 = zext i32 %289 to i64
  store i64 %290, i64* %R9.i108, align 8
  %291 = add i64 %270, -28
  %292 = add i64 %269, 27
  store i64 %292, i64* %3, align 8
  %293 = inttoptr i64 %291 to i32*
  %294 = load i32, i32* %293, align 4
  %295 = zext i32 %294 to i64
  store i64 %295, i64* %RAX.i122, align 8
  %R10D.i27 = bitcast %union.anon* %248 to i32*
  %296 = getelementptr inbounds %union.anon, %union.anon* %248, i64 0, i32 0
  %297 = add i64 %269, 31
  store i64 %297, i64* %3, align 8
  %298 = load i32, i32* %278, align 4
  %299 = zext i32 %298 to i64
  store i64 %299, i64* %296, align 8
  %300 = bitcast i64* %6 to i32**
  %301 = load i32*, i32** %300, align 8
  %302 = add i64 %269, 34
  store i64 %302, i64* %3, align 8
  store i32 %294, i32* %301, align 4
  %303 = load i64, i64* %6, align 8
  %304 = add i64 %303, 8
  %305 = load i32, i32* %R10D.i27, align 4
  %306 = load i64, i64* %3, align 8
  %307 = add i64 %306, 5
  store i64 %307, i64* %3, align 8
  %308 = inttoptr i64 %304 to i32*
  store i32 %305, i32* %308, align 4
  %309 = load i64, i64* %3, align 8
  store i8 0, i8* %AL.i51, align 1
  %310 = add i64 %309, -240844
  %311 = add i64 %309, 7
  %312 = load i64, i64* %6, align 8
  %313 = add i64 %312, -8
  %314 = inttoptr i64 %313 to i64*
  store i64 %311, i64* %314, align 8
  store i64 %313, i64* %6, align 8
  store i64 %310, i64* %3, align 8
  %call2_4b2dde = tail call %struct.Memory* @sub_478110.play_attack_defend_n(%struct.State* nonnull %0, i64 %310, %struct.Memory* %call2_4b2da0)
  %315 = load i32, i32* %EAX.i61, align 4
  %316 = load i64, i64* %3, align 8
  %317 = getelementptr inbounds %struct.State, %struct.State* %0, i64 0, i32 6, i32 23, i32 0
  %R11B.i16 = bitcast %union.anon* %317 to i8*
  %318 = icmp ne i32 %315, 0
  %319 = zext i1 %318 to i64
  %320 = xor i64 %319, 255
  %321 = trunc i64 %320 to i8
  store i8 %321, i8* %R11B.i16, align 1
  store i8 0, i8* %14, align 1
  %322 = trunc i64 %320 to i32
  %323 = tail call i32 @llvm.ctpop.i32(i32 %322)
  %324 = trunc i32 %323 to i8
  %325 = and i8 %324, 1
  %326 = xor i8 %325, 1
  store i8 %326, i8* %21, align 1
  store i8 0, i8* %29, align 1
  store i8 1, i8* %32, align 1
  store i8 0, i8* %38, align 1
  store i8 0, i8* %26, align 1
  %327 = load i64, i64* %RBP.i, align 8
  %328 = add i64 %327, -33
  %329 = add i64 %316, 15
  store i64 %329, i64* %3, align 8
  %330 = inttoptr i64 %328 to i8*
  store i8 %321, i8* %330, align 1
  %.pre = load i64, i64* %3, align 8
  br label %block_.L_4b2df2

block_.L_4b2df2:                                  ; preds = %block_4b2db5, %entry
  %331 = phi i64 [ %265, %entry ], [ %.pre, %block_4b2db5 ]
  %MEMORY.0 = phi %struct.Memory* [ %call2_4b2da0, %entry ], [ %call2_4b2dde, %block_4b2db5 ]
  %332 = load i64, i64* %RBP.i, align 8
  %333 = add i64 %332, -33
  %334 = add i64 %331, 3
  store i64 %334, i64* %3, align 8
  %335 = inttoptr i64 %333 to i8*
  %336 = load i8, i8* %335, align 1
  %337 = and i8 %336, 1
  %338 = zext i8 %337 to i64
  store i64 %338, i64* %RAX.i122, align 8
  %339 = load i64, i64* %6, align 8
  %340 = add i64 %339, 64
  store i64 %340, i64* %6, align 8
  %341 = icmp ugt i64 %339, -65
  %342 = zext i1 %341 to i8
  store i8 %342, i8* %14, align 1
  %343 = trunc i64 %340 to i32
  %344 = and i32 %343, 255
  %345 = tail call i32 @llvm.ctpop.i32(i32 %344)
  %346 = trunc i32 %345 to i8
  %347 = and i8 %346, 1
  %348 = xor i8 %347, 1
  store i8 %348, i8* %21, align 1
  %349 = xor i64 %340, %339
  %350 = lshr i64 %349, 4
  %351 = trunc i64 %350 to i8
  %352 = and i8 %351, 1
  store i8 %352, i8* %26, align 1
  %353 = icmp eq i64 %340, 0
  %354 = zext i1 %353 to i8
  store i8 %354, i8* %29, align 1
  %355 = lshr i64 %340, 63
  %356 = trunc i64 %355 to i8
  store i8 %356, i8* %32, align 1
  %357 = lshr i64 %339, 63
  %358 = xor i64 %355, %357
  %359 = add nuw nsw i64 %358, %355
  %360 = icmp eq i64 %359, 2
  %361 = zext i1 %360 to i8
  store i8 %361, i8* %38, align 1
  %362 = add i64 %331, 13
  store i64 %362, i64* %3, align 8
  %363 = add i64 %339, 72
  %364 = inttoptr i64 %340 to i64*
  %365 = load i64, i64* %364, align 8
  store i64 %365, i64* %RBP.i, align 8
  store i64 %363, i64* %6, align 8
  %366 = add i64 %331, 14
  store i64 %366, i64* %3, align 8
  %367 = inttoptr i64 %363 to i64*
  %368 = load i64, i64* %367, align 8
  store i64 %368, i64* %3, align 8
  %369 = add i64 %339, 80
  store i64 %369, i64* %6, align 8
  ret %struct.Memory* %MEMORY.0
}

; Function Attrs: norecurse nounwind
define %struct.Memory* @routine_pushq__rbp(%struct.State* nocapture dereferenceable(3376), i64, %struct.Memory* readnone returned) local_unnamed_addr #2 {
block_400488:
  %PC = getelementptr inbounds %struct.State, %struct.State* %0, i64 0, i32 6, i32 33, i32 0, i32 0
  %RBP = getelementptr inbounds %struct.State, %struct.State* %0, i64 0, i32 6, i32 15, i32 0, i32 0
  %3 = load i64, i64* %RBP, align 8
  %4 = load i64, i64* %PC, align 8
  %5 = add i64 %4, 1
  store i64 %5, i64* %PC, align 8
  %6 = getelementptr inbounds %struct.State, %struct.State* %0, i64 0, i32 6, i32 13, i32 0, i32 0
  %7 = load i64, i64* %6, align 8
  %8 = add i64 %7, -8
  %9 = inttoptr i64 %8 to i64*
  store i64 %3, i64* %9, align 8
  store i64 %8, i64* %6, align 8
  ret %struct.Memory* %2
}

; Function Attrs: norecurse nounwind
define %struct.Memory* @routine_movq__rsp___rbp(%struct.State* nocapture dereferenceable(3376), i64, %struct.Memory* readnone returned) local_unnamed_addr #2 {
block_400488:
  %PC = getelementptr inbounds %struct.State, %struct.State* %0, i64 0, i32 6, i32 33, i32 0, i32 0
  %RSP = getelementptr inbounds %struct.State, %struct.State* %0, i64 0, i32 6, i32 13, i32 0, i32 0
  %RBP = getelementptr inbounds %struct.State, %struct.State* %0, i64 0, i32 6, i32 15, i32 0, i32 0
  %3 = load i64, i64* %RSP, align 8
  %4 = load i64, i64* %PC, align 8
  %5 = add i64 %4, 3
  store i64 %5, i64* %PC, align 8
  store i64 %3, i64* %RBP, align 8
  ret %struct.Memory* %2
}

; Function Attrs: nounwind
define %struct.Memory* @routine_subq__0x40___rsp(%struct.State* nocapture dereferenceable(3376), i64, %struct.Memory* readnone returned) local_unnamed_addr #3 {
block_400488:
  %PC = getelementptr inbounds %struct.State, %struct.State* %0, i64 0, i32 6, i32 33, i32 0, i32 0
  %RSP = getelementptr inbounds %struct.State, %struct.State* %0, i64 0, i32 6, i32 13, i32 0, i32 0
  %3 = load i64, i64* %RSP, align 8
  %4 = load i64, i64* %PC, align 8
  %5 = add i64 %4, 4
  store i64 %5, i64* %PC, align 8
  %6 = add i64 %3, -64
  store i64 %6, i64* %RSP, align 8
  %7 = icmp ult i64 %3, 64
  %8 = zext i1 %7 to i8
  %9 = getelementptr inbounds %struct.State, %struct.State* %0, i64 0, i32 2, i32 1
  store i8 %8, i8* %9, align 1
  %10 = trunc i64 %6 to i32
  %11 = and i32 %10, 255
  %12 = tail call i32 @llvm.ctpop.i32(i32 %11)
  %13 = trunc i32 %12 to i8
  %14 = and i8 %13, 1
  %15 = xor i8 %14, 1
  %16 = getelementptr inbounds %struct.State, %struct.State* %0, i64 0, i32 2, i32 3
  store i8 %15, i8* %16, align 1
  %17 = xor i64 %6, %3
  %18 = lshr i64 %17, 4
  %19 = trunc i64 %18 to i8
  %20 = and i8 %19, 1
  %21 = getelementptr inbounds %struct.State, %struct.State* %0, i64 0, i32 2, i32 5
  store i8 %20, i8* %21, align 1
  %22 = icmp eq i64 %6, 0
  %23 = zext i1 %22 to i8
  %24 = getelementptr inbounds %struct.State, %struct.State* %0, i64 0, i32 2, i32 7
  store i8 %23, i8* %24, align 1
  %25 = lshr i64 %6, 63
  %26 = trunc i64 %25 to i8
  %27 = getelementptr inbounds %struct.State, %struct.State* %0, i64 0, i32 2, i32 9
  store i8 %26, i8* %27, align 1
  %28 = lshr i64 %3, 63
  %29 = xor i64 %25, %28
  %30 = add nuw nsw i64 %29, %28
  %31 = icmp eq i64 %30, 2
  %32 = zext i1 %31 to i8
  %33 = getelementptr inbounds %struct.State, %struct.State* %0, i64 0, i32 2, i32 13
  store i8 %32, i8* %33, align 1
  ret %struct.Memory* %2
}

; Function Attrs: norecurse nounwind
define %struct.Memory* @routine_movl__0x1___eax(%struct.State* nocapture dereferenceable(3376), i64, %struct.Memory* readnone returned) local_unnamed_addr #2 {
block_400488:
  %PC = getelementptr inbounds %struct.State, %struct.State* %0, i64 0, i32 6, i32 33, i32 0, i32 0
  %RAX = getelementptr inbounds %struct.State, %struct.State* %0, i64 0, i32 6, i32 1, i32 0, i32 0
  %3 = load i64, i64* %PC, align 8
  %4 = add i64 %3, 5
  store i64 %4, i64* %PC, align 8
  store i64 1, i64* %RAX, align 8
  ret %struct.Memory* %2
}

; Function Attrs: norecurse nounwind
define %struct.Memory* @routine_movl__0x2___r8d(%struct.State* nocapture dereferenceable(3376), i64, %struct.Memory* readnone returned) local_unnamed_addr #2 {
block_400488:
  %PC = getelementptr inbounds %struct.State, %struct.State* %0, i64 0, i32 6, i32 33, i32 0, i32 0
  %3 = getelementptr inbounds %struct.State, %struct.State* %0, i64 0, i32 6, i32 17, i32 0, i32 0
  %4 = load i64, i64* %PC, align 8
  %5 = add i64 %4, 6
  store i64 %5, i64* %PC, align 8
  store i64 2, i64* %3, align 8
  ret %struct.Memory* %2
}

; Function Attrs: norecurse nounwind
define %struct.Memory* @routine_movl__edi__MINUS0x4__rbp_(%struct.State* nocapture dereferenceable(3376), i64, %struct.Memory* readnone returned) local_unnamed_addr #2 {
block_400488:
  %PC = getelementptr inbounds %struct.State, %struct.State* %0, i64 0, i32 6, i32 33, i32 0, i32 0
  %3 = getelementptr inbounds %struct.State, %struct.State* %0, i64 0, i32 6, i32 11, i32 0
  %EDI = bitcast %union.anon* %3 to i32*
  %RBP = getelementptr inbounds %struct.State, %struct.State* %0, i64 0, i32 6, i32 15, i32 0, i32 0
  %4 = load i64, i64* %RBP, align 8
  %5 = add i64 %4, -4
  %6 = load i32, i32* %EDI, align 4
  %7 = load i64, i64* %PC, align 8
  %8 = add i64 %7, 3
  store i64 %8, i64* %PC, align 8
  %9 = inttoptr i64 %5 to i32*
  store i32 %6, i32* %9, align 4
  ret %struct.Memory* %2
}

; Function Attrs: norecurse nounwind
define %struct.Memory* @routine_movl__esi__MINUS0x8__rbp_(%struct.State* nocapture dereferenceable(3376), i64, %struct.Memory* readnone returned) local_unnamed_addr #2 {
block_400488:
  %PC = getelementptr inbounds %struct.State, %struct.State* %0, i64 0, i32 6, i32 33, i32 0, i32 0
  %3 = getelementptr inbounds %struct.State, %struct.State* %0, i64 0, i32 6, i32 9, i32 0
  %ESI = bitcast %union.anon* %3 to i32*
  %RBP = getelementptr inbounds %struct.State, %struct.State* %0, i64 0, i32 6, i32 15, i32 0, i32 0
  %4 = load i64, i64* %RBP, align 8
  %5 = add i64 %4, -8
  %6 = load i32, i32* %ESI, align 4
  %7 = load i64, i64* %PC, align 8
  %8 = add i64 %7, 3
  store i64 %8, i64* %PC, align 8
  %9 = inttoptr i64 %5 to i32*
  store i32 %6, i32* %9, align 4
  ret %struct.Memory* %2
}

; Function Attrs: norecurse nounwind
define %struct.Memory* @routine_movl__edx__MINUS0xc__rbp_(%struct.State* nocapture dereferenceable(3376), i64, %struct.Memory* readnone returned) local_unnamed_addr #2 {
block_400488:
  %PC = getelementptr inbounds %struct.State, %struct.State* %0, i64 0, i32 6, i32 33, i32 0, i32 0
  %3 = getelementptr inbounds %struct.State, %struct.State* %0, i64 0, i32 6, i32 7, i32 0
  %EDX = bitcast %union.anon* %3 to i32*
  %RBP = getelementptr inbounds %struct.State, %struct.State* %0, i64 0, i32 6, i32 15, i32 0, i32 0
  %4 = load i64, i64* %RBP, align 8
  %5 = add i64 %4, -12
  %6 = load i32, i32* %EDX, align 4
  %7 = load i64, i64* %PC, align 8
  %8 = add i64 %7, 3
  store i64 %8, i64* %PC, align 8
  %9 = inttoptr i64 %5 to i32*
  store i32 %6, i32* %9, align 4
  ret %struct.Memory* %2
}

; Function Attrs: norecurse nounwind
define %struct.Memory* @routine_movl__ecx__MINUS0x10__rbp_(%struct.State* nocapture dereferenceable(3376), i64, %struct.Memory* readnone returned) local_unnamed_addr #2 {
block_400488:
  %PC = getelementptr inbounds %struct.State, %struct.State* %0, i64 0, i32 6, i32 33, i32 0, i32 0
  %3 = getelementptr inbounds %struct.State, %struct.State* %0, i64 0, i32 6, i32 5, i32 0
  %ECX = bitcast %union.anon* %3 to i32*
  %RBP = getelementptr inbounds %struct.State, %struct.State* %0, i64 0, i32 6, i32 15, i32 0, i32 0
  %4 = load i64, i64* %RBP, align 8
  %5 = add i64 %4, -16
  %6 = load i32, i32* %ECX, align 4
  %7 = load i64, i64* %PC, align 8
  %8 = add i64 %7, 3
  store i64 %8, i64* %PC, align 8
  %9 = inttoptr i64 %5 to i32*
  store i32 %6, i32* %9, align 4
  ret %struct.Memory* %2
}

; Function Attrs: norecurse nounwind
define %struct.Memory* @routine_movslq_MINUS0x4__rbp____r9(%struct.State* nocapture dereferenceable(3376), i64, %struct.Memory* readnone returned) local_unnamed_addr #2 {
block_400488:
  %PC = getelementptr inbounds %struct.State, %struct.State* %0, i64 0, i32 6, i32 33, i32 0, i32 0
  %RBP = getelementptr inbounds %struct.State, %struct.State* %0, i64 0, i32 6, i32 15, i32 0, i32 0
  %R9 = getelementptr inbounds %struct.State, %struct.State* %0, i64 0, i32 6, i32 19, i32 0, i32 0
  %3 = load i64, i64* %RBP, align 8
  %4 = add i64 %3, -4
  %5 = load i64, i64* %PC, align 8
  %6 = add i64 %5, 4
  store i64 %6, i64* %PC, align 8
  %7 = inttoptr i64 %4 to i32*
  %8 = load i32, i32* %7, align 4
  %9 = sext i32 %8 to i64
  store i64 %9, i64* %R9, align 8
  ret %struct.Memory* %2
}

; Function Attrs: norecurse nounwind
define %struct.Memory* @routine_movl_0xb5a250___r9_4____ecx(%struct.State* nocapture dereferenceable(3376), i64, %struct.Memory* readnone returned) local_unnamed_addr #2 {
block_400488:
  %PC = getelementptr inbounds %struct.State, %struct.State* %0, i64 0, i32 6, i32 33, i32 0, i32 0
  %RCX = getelementptr inbounds %struct.State, %struct.State* %0, i64 0, i32 6, i32 5, i32 0, i32 0
  %R9 = getelementptr inbounds %struct.State, %struct.State* %0, i64 0, i32 6, i32 19, i32 0, i32 0
  %3 = load i64, i64* %R9, align 8
  %4 = shl i64 %3, 2
  %5 = add i64 %4, 11903568
  %6 = load i64, i64* %PC, align 8
  %7 = add i64 %6, 8
  store i64 %7, i64* %PC, align 8
  %8 = inttoptr i64 %5 to i32*
  %9 = load i32, i32* %8, align 4
  %10 = zext i32 %9 to i64
  store i64 %10, i64* %RCX, align 8
  ret %struct.Memory* %2
}

; Function Attrs: nounwind
define %struct.Memory* @routine_addl_MINUS0x8__rbp____ecx(%struct.State* nocapture dereferenceable(3376), i64, %struct.Memory* readnone returned) local_unnamed_addr #3 {
block_400488:
  %PC = getelementptr inbounds %struct.State, %struct.State* %0, i64 0, i32 6, i32 33, i32 0, i32 0
  %RCX = getelementptr inbounds %struct.State, %struct.State* %0, i64 0, i32 6, i32 5, i32 0, i32 0
  %RBP = getelementptr inbounds %struct.State, %struct.State* %0, i64 0, i32 6, i32 15, i32 0, i32 0
  %3 = load i64, i64* %RCX, align 8
  %4 = load i64, i64* %RBP, align 8
  %5 = add i64 %4, -8
  %6 = load i64, i64* %PC, align 8
  %7 = add i64 %6, 3
  store i64 %7, i64* %PC, align 8
  %8 = trunc i64 %3 to i32
  %9 = inttoptr i64 %5 to i32*
  %10 = load i32, i32* %9, align 4
  %11 = add i32 %10, %8
  %12 = zext i32 %11 to i64
  store i64 %12, i64* %RCX, align 8
  %13 = icmp ult i32 %11, %8
  %14 = icmp ult i32 %11, %10
  %15 = or i1 %13, %14
  %16 = zext i1 %15 to i8
  %17 = getelementptr inbounds %struct.State, %struct.State* %0, i64 0, i32 2, i32 1
  store i8 %16, i8* %17, align 1
  %18 = and i32 %11, 255
  %19 = tail call i32 @llvm.ctpop.i32(i32 %18)
  %20 = trunc i32 %19 to i8
  %21 = and i8 %20, 1
  %22 = xor i8 %21, 1
  %23 = getelementptr inbounds %struct.State, %struct.State* %0, i64 0, i32 2, i32 3
  store i8 %22, i8* %23, align 1
  %24 = xor i32 %10, %8
  %25 = xor i32 %24, %11
  %26 = lshr i32 %25, 4
  %27 = trunc i32 %26 to i8
  %28 = and i8 %27, 1
  %29 = getelementptr inbounds %struct.State, %struct.State* %0, i64 0, i32 2, i32 5
  store i8 %28, i8* %29, align 1
  %30 = icmp eq i32 %11, 0
  %31 = zext i1 %30 to i8
  %32 = getelementptr inbounds %struct.State, %struct.State* %0, i64 0, i32 2, i32 7
  store i8 %31, i8* %32, align 1
  %33 = lshr i32 %11, 31
  %34 = trunc i32 %33 to i8
  %35 = getelementptr inbounds %struct.State, %struct.State* %0, i64 0, i32 2, i32 9
  store i8 %34, i8* %35, align 1
  %36 = lshr i32 %8, 31
  %37 = lshr i32 %10, 31
  %38 = xor i32 %33, %36
  %39 = xor i32 %33, %37
  %40 = add nuw nsw i32 %38, %39
  %41 = icmp eq i32 %40, 2
  %42 = zext i1 %41 to i8
  %43 = getelementptr inbounds %struct.State, %struct.State* %0, i64 0, i32 2, i32 13
  store i8 %42, i8* %43, align 1
  ret %struct.Memory* %2
}

; Function Attrs: norecurse nounwind
define %struct.Memory* @routine_movl__ecx__MINUS0x14__rbp_(%struct.State* nocapture dereferenceable(3376), i64, %struct.Memory* readnone returned) local_unnamed_addr #2 {
block_400488:
  %PC = getelementptr inbounds %struct.State, %struct.State* %0, i64 0, i32 6, i32 33, i32 0, i32 0
  %3 = getelementptr inbounds %struct.State, %struct.State* %0, i64 0, i32 6, i32 5, i32 0
  %ECX = bitcast %union.anon* %3 to i32*
  %RBP = getelementptr inbounds %struct.State, %struct.State* %0, i64 0, i32 6, i32 15, i32 0, i32 0
  %4 = load i64, i64* %RBP, align 8
  %5 = add i64 %4, -20
  %6 = load i32, i32* %ECX, align 4
  %7 = load i64, i64* %PC, align 8
  %8 = add i64 %7, 3
  store i64 %8, i64* %PC, align 8
  %9 = inttoptr i64 %5 to i32*
  store i32 %6, i32* %9, align 4
  ret %struct.Memory* %2
}

; Function Attrs: norecurse nounwind
define %struct.Memory* @routine_movl_0xb5a230___r9_4____ecx(%struct.State* nocapture dereferenceable(3376), i64, %struct.Memory* readnone returned) local_unnamed_addr #2 {
block_400488:
  %PC = getelementptr inbounds %struct.State, %struct.State* %0, i64 0, i32 6, i32 33, i32 0, i32 0
  %RCX = getelementptr inbounds %struct.State, %struct.State* %0, i64 0, i32 6, i32 5, i32 0, i32 0
  %R9 = getelementptr inbounds %struct.State, %struct.State* %0, i64 0, i32 6, i32 19, i32 0, i32 0
  %3 = load i64, i64* %R9, align 8
  %4 = shl i64 %3, 2
  %5 = add i64 %4, 11903536
  %6 = load i64, i64* %PC, align 8
  %7 = add i64 %6, 8
  store i64 %7, i64* %PC, align 8
  %8 = inttoptr i64 %5 to i32*
  %9 = load i32, i32* %8, align 4
  %10 = zext i32 %9 to i64
  store i64 %10, i64* %RCX, align 8
  ret %struct.Memory* %2
}

; Function Attrs: norecurse nounwind
define %struct.Memory* @routine_movl__ecx__MINUS0x18__rbp_(%struct.State* nocapture dereferenceable(3376), i64, %struct.Memory* readnone returned) local_unnamed_addr #2 {
block_400488:
  %PC = getelementptr inbounds %struct.State, %struct.State* %0, i64 0, i32 6, i32 33, i32 0, i32 0
  %3 = getelementptr inbounds %struct.State, %struct.State* %0, i64 0, i32 6, i32 5, i32 0
  %ECX = bitcast %union.anon* %3 to i32*
  %RBP = getelementptr inbounds %struct.State, %struct.State* %0, i64 0, i32 6, i32 15, i32 0, i32 0
  %4 = load i64, i64* %RBP, align 8
  %5 = add i64 %4, -24
  %6 = load i32, i32* %ECX, align 4
  %7 = load i64, i64* %PC, align 8
  %8 = add i64 %7, 3
  store i64 %8, i64* %PC, align 8
  %9 = inttoptr i64 %5 to i32*
  store i32 %6, i32* %9, align 4
  ret %struct.Memory* %2
}

; Function Attrs: norecurse nounwind
define %struct.Memory* @routine_movl_0xb598f0___r9_4____ecx(%struct.State* nocapture dereferenceable(3376), i64, %struct.Memory* readnone returned) local_unnamed_addr #2 {
block_400488:
  %PC = getelementptr inbounds %struct.State, %struct.State* %0, i64 0, i32 6, i32 33, i32 0, i32 0
  %RCX = getelementptr inbounds %struct.State, %struct.State* %0, i64 0, i32 6, i32 5, i32 0, i32 0
  %R9 = getelementptr inbounds %struct.State, %struct.State* %0, i64 0, i32 6, i32 19, i32 0, i32 0
  %3 = load i64, i64* %R9, align 8
  %4 = shl i64 %3, 2
  %5 = add i64 %4, 11901168
  %6 = load i64, i64* %PC, align 8
  %7 = add i64 %6, 8
  store i64 %7, i64* %PC, align 8
  %8 = inttoptr i64 %5 to i32*
  %9 = load i32, i32* %8, align 4
  %10 = zext i32 %9 to i64
  store i64 %10, i64* %RCX, align 8
  ret %struct.Memory* %2
}

; Function Attrs: norecurse nounwind
define %struct.Memory* @routine_movl__ecx__MINUS0x1c__rbp_(%struct.State* nocapture dereferenceable(3376), i64, %struct.Memory* readnone returned) local_unnamed_addr #2 {
block_400488:
  %PC = getelementptr inbounds %struct.State, %struct.State* %0, i64 0, i32 6, i32 33, i32 0, i32 0
  %3 = getelementptr inbounds %struct.State, %struct.State* %0, i64 0, i32 6, i32 5, i32 0
  %ECX = bitcast %union.anon* %3 to i32*
  %RBP = getelementptr inbounds %struct.State, %struct.State* %0, i64 0, i32 6, i32 15, i32 0, i32 0
  %4 = load i64, i64* %RBP, align 8
  %5 = add i64 %4, -28
  %6 = load i32, i32* %ECX, align 4
  %7 = load i64, i64* %PC, align 8
  %8 = add i64 %7, 3
  store i64 %8, i64* %PC, align 8
  %9 = inttoptr i64 %5 to i32*
  store i32 %6, i32* %9, align 4
  ret %struct.Memory* %2
}

; Function Attrs: norecurse nounwind
define %struct.Memory* @routine_movl_MINUS0xc__rbp____edi(%struct.State* nocapture dereferenceable(3376), i64, %struct.Memory* readnone returned) local_unnamed_addr #2 {
block_400488:
  %PC = getelementptr inbounds %struct.State, %struct.State* %0, i64 0, i32 6, i32 33, i32 0, i32 0
  %RDI = getelementptr inbounds %struct.State, %struct.State* %0, i64 0, i32 6, i32 11, i32 0, i32 0
  %RBP = getelementptr inbounds %struct.State, %struct.State* %0, i64 0, i32 6, i32 15, i32 0, i32 0
  %3 = load i64, i64* %RBP, align 8
  %4 = add i64 %3, -12
  %5 = load i64, i64* %PC, align 8
  %6 = add i64 %5, 3
  store i64 %6, i64* %PC, align 8
  %7 = inttoptr i64 %4 to i32*
  %8 = load i32, i32* %7, align 4
  %9 = zext i32 %8 to i64
  store i64 %9, i64* %RDI, align 8
  ret %struct.Memory* %2
}

; Function Attrs: norecurse nounwind
define %struct.Memory* @routine_movl_MINUS0x8__rbp____ecx(%struct.State* nocapture dereferenceable(3376), i64, %struct.Memory* readnone returned) local_unnamed_addr #2 {
block_400488:
  %PC = getelementptr inbounds %struct.State, %struct.State* %0, i64 0, i32 6, i32 33, i32 0, i32 0
  %RCX = getelementptr inbounds %struct.State, %struct.State* %0, i64 0, i32 6, i32 5, i32 0, i32 0
  %RBP = getelementptr inbounds %struct.State, %struct.State* %0, i64 0, i32 6, i32 15, i32 0, i32 0
  %3 = load i64, i64* %RBP, align 8
  %4 = add i64 %3, -8
  %5 = load i64, i64* %PC, align 8
  %6 = add i64 %5, 3
  store i64 %6, i64* %PC, align 8
  %7 = inttoptr i64 %4 to i32*
  %8 = load i32, i32* %7, align 4
  %9 = zext i32 %8 to i64
  store i64 %9, i64* %RCX, align 8
  ret %struct.Memory* %2
}

; Function Attrs: norecurse nounwind
define %struct.Memory* @routine_movl_MINUS0x14__rbp____edx(%struct.State* nocapture dereferenceable(3376), i64, %struct.Memory* readnone returned) local_unnamed_addr #2 {
block_400488:
  %PC = getelementptr inbounds %struct.State, %struct.State* %0, i64 0, i32 6, i32 33, i32 0, i32 0
  %RDX = getelementptr inbounds %struct.State, %struct.State* %0, i64 0, i32 6, i32 7, i32 0, i32 0
  %RBP = getelementptr inbounds %struct.State, %struct.State* %0, i64 0, i32 6, i32 15, i32 0, i32 0
  %3 = load i64, i64* %RBP, align 8
  %4 = add i64 %3, -20
  %5 = load i64, i64* %PC, align 8
  %6 = add i64 %5, 3
  store i64 %6, i64* %PC, align 8
  %7 = inttoptr i64 %4 to i32*
  %8 = load i32, i32* %7, align 4
  %9 = zext i32 %8 to i64
  store i64 %9, i64* %RDX, align 8
  ret %struct.Memory* %2
}

; Function Attrs: norecurse nounwind
define %struct.Memory* @routine_movl_MINUS0x14__rbp____r9d(%struct.State* nocapture dereferenceable(3376), i64, %struct.Memory* readnone returned) local_unnamed_addr #2 {
block_400488:
  %PC = getelementptr inbounds %struct.State, %struct.State* %0, i64 0, i32 6, i32 33, i32 0, i32 0
  %RBP = getelementptr inbounds %struct.State, %struct.State* %0, i64 0, i32 6, i32 15, i32 0, i32 0
  %3 = getelementptr inbounds %struct.State, %struct.State* %0, i64 0, i32 6, i32 19, i32 0, i32 0
  %4 = load i64, i64* %RBP, align 8
  %5 = add i64 %4, -20
  %6 = load i64, i64* %PC, align 8
  %7 = add i64 %6, 4
  store i64 %7, i64* %PC, align 8
  %8 = inttoptr i64 %5 to i32*
  %9 = load i32, i32* %8, align 4
  %10 = zext i32 %9 to i64
  store i64 %10, i64* %3, align 8
  ret %struct.Memory* %2
}

; Function Attrs: norecurse nounwind
define %struct.Memory* @routine_movl__eax___esi(%struct.State* nocapture dereferenceable(3376), i64, %struct.Memory* readnone returned) local_unnamed_addr #2 {
block_400488:
  %PC = getelementptr inbounds %struct.State, %struct.State* %0, i64 0, i32 6, i32 33, i32 0, i32 0
  %3 = getelementptr inbounds %struct.State, %struct.State* %0, i64 0, i32 6, i32 1, i32 0
  %EAX = bitcast %union.anon* %3 to i32*
  %RSI = getelementptr inbounds %struct.State, %struct.State* %0, i64 0, i32 6, i32 9, i32 0, i32 0
  %4 = load i32, i32* %EAX, align 4
  %5 = zext i32 %4 to i64
  %6 = load i64, i64* %PC, align 8
  %7 = add i64 %6, 2
  store i64 %7, i64* %PC, align 8
  store i64 %5, i64* %RSI, align 8
  ret %struct.Memory* %2
}

; Function Attrs: norecurse nounwind
define %struct.Memory* @routine_movl__edx__MINUS0x20__rbp_(%struct.State* nocapture dereferenceable(3376), i64, %struct.Memory* readnone returned) local_unnamed_addr #2 {
block_400488:
  %PC = getelementptr inbounds %struct.State, %struct.State* %0, i64 0, i32 6, i32 33, i32 0, i32 0
  %3 = getelementptr inbounds %struct.State, %struct.State* %0, i64 0, i32 6, i32 7, i32 0
  %EDX = bitcast %union.anon* %3 to i32*
  %RBP = getelementptr inbounds %struct.State, %struct.State* %0, i64 0, i32 6, i32 15, i32 0, i32 0
  %4 = load i64, i64* %RBP, align 8
  %5 = add i64 %4, -32
  %6 = load i32, i32* %EDX, align 4
  %7 = load i64, i64* %PC, align 8
  %8 = add i64 %7, 3
  store i64 %8, i64* %PC, align 8
  %9 = inttoptr i64 %5 to i32*
  store i32 %6, i32* %9, align 4
  ret %struct.Memory* %2
}

; Function Attrs: norecurse nounwind
define %struct.Memory* @routine_movl__r8d___edx(%struct.State* nocapture dereferenceable(3376), i64, %struct.Memory* readnone returned) local_unnamed_addr #2 {
block_400488:
  %PC = getelementptr inbounds %struct.State, %struct.State* %0, i64 0, i32 6, i32 33, i32 0, i32 0
  %3 = getelementptr inbounds %struct.State, %struct.State* %0, i64 0, i32 6, i32 17, i32 0
  %R8D = bitcast %union.anon* %3 to i32*
  %RDX = getelementptr inbounds %struct.State, %struct.State* %0, i64 0, i32 6, i32 7, i32 0, i32 0
  %4 = load i32, i32* %R8D, align 4
  %5 = zext i32 %4 to i64
  %6 = load i64, i64* %PC, align 8
  %7 = add i64 %6, 3
  store i64 %7, i64* %PC, align 8
  store i64 %5, i64* %RDX, align 8
  ret %struct.Memory* %2
}

; Function Attrs: norecurse nounwind
define %struct.Memory* @routine_movl_MINUS0x20__rbp____r8d(%struct.State* nocapture dereferenceable(3376), i64, %struct.Memory* readnone returned) local_unnamed_addr #2 {
block_400488:
  %PC = getelementptr inbounds %struct.State, %struct.State* %0, i64 0, i32 6, i32 33, i32 0, i32 0
  %RBP = getelementptr inbounds %struct.State, %struct.State* %0, i64 0, i32 6, i32 15, i32 0, i32 0
  %3 = getelementptr inbounds %struct.State, %struct.State* %0, i64 0, i32 6, i32 17, i32 0, i32 0
  %4 = load i64, i64* %RBP, align 8
  %5 = add i64 %4, -32
  %6 = load i64, i64* %PC, align 8
  %7 = add i64 %6, 4
  store i64 %7, i64* %PC, align 8
  %8 = inttoptr i64 %5 to i32*
  %9 = load i32, i32* %8, align 4
  %10 = zext i32 %9 to i64
  store i64 %10, i64* %3, align 8
  ret %struct.Memory* %2
}

; Function Attrs: norecurse nounwind
define %struct.Memory* @routine_movb__0x0___al(%struct.State* nocapture dereferenceable(3376), i64, %struct.Memory* readnone returned) local_unnamed_addr #2 {
block_400488:
  %PC = getelementptr inbounds %struct.State, %struct.State* %0, i64 0, i32 6, i32 33, i32 0, i32 0
  %3 = getelementptr inbounds %struct.State, %struct.State* %0, i64 0, i32 6, i32 1, i32 0
  %AL = bitcast %union.anon* %3 to i8*
  %4 = load i64, i64* %PC, align 8
  %5 = add i64 %4, 2
  store i64 %5, i64* %PC, align 8
  store i8 0, i8* %AL, align 1
  ret %struct.Memory* %2
}

; Function Attrs: norecurse nounwind
define %struct.Memory* @routine_callq_.play_attack_defend_n(%struct.State* nocapture dereferenceable(3376), i64, %struct.Memory* readnone returned, i64 %rel_off1, i64 %rel_off2, i64 %rel_off3) local_unnamed_addr #2 {
block_400488:
  %PC = getelementptr inbounds %struct.State, %struct.State* %0, i64 0, i32 6, i32 33, i32 0, i32 0
  %3 = load i64, i64* %PC, align 8
  %4 = add i64 %3, %rel_off1
  %5 = add i64 %3, %rel_off2
  %6 = getelementptr inbounds %struct.State, %struct.State* %0, i64 0, i32 6, i32 13, i32 0, i32 0
  %7 = load i64, i64* %6, align 8
  %8 = add i64 %7, -8
  %9 = inttoptr i64 %8 to i64*
  store i64 %5, i64* %9, align 8
  store i64 %8, i64* %6, align 8
  store i64 %4, i64* %PC, align 8
  ret %struct.Memory* %2
}

; Function Attrs: norecurse nounwind
define %struct.Memory* @routine_movb__0x1___r10b(%struct.State* nocapture dereferenceable(3376), i64, %struct.Memory* readnone returned) local_unnamed_addr #2 {
block_400488:
  %PC = getelementptr inbounds %struct.State, %struct.State* %0, i64 0, i32 6, i32 33, i32 0, i32 0
  %3 = getelementptr inbounds %struct.State, %struct.State* %0, i64 0, i32 6, i32 21, i32 0
  %R10B = bitcast %union.anon* %3 to i8*
  %4 = load i64, i64* %PC, align 8
  %5 = add i64 %4, 3
  store i64 %5, i64* %PC, align 8
  store i8 1, i8* %R10B, align 1
  ret %struct.Memory* %2
}

; Function Attrs: nounwind
define %struct.Memory* @routine_cmpl__0x0___eax(%struct.State* nocapture dereferenceable(3376), i64, %struct.Memory* readnone returned) local_unnamed_addr #3 {
block_400488:
  %PC = getelementptr inbounds %struct.State, %struct.State* %0, i64 0, i32 6, i32 33, i32 0, i32 0
  %3 = getelementptr inbounds %struct.State, %struct.State* %0, i64 0, i32 6, i32 1, i32 0
  %EAX = bitcast %union.anon* %3 to i32*
  %4 = load i32, i32* %EAX, align 4
  %5 = load i64, i64* %PC, align 8
  %6 = add i64 %5, 3
  store i64 %6, i64* %PC, align 8
  %7 = getelementptr inbounds %struct.State, %struct.State* %0, i64 0, i32 2, i32 1
  store i8 0, i8* %7, align 1
  %8 = and i32 %4, 255
  %9 = tail call i32 @llvm.ctpop.i32(i32 %8)
  %10 = trunc i32 %9 to i8
  %11 = and i8 %10, 1
  %12 = xor i8 %11, 1
  %13 = getelementptr inbounds %struct.State, %struct.State* %0, i64 0, i32 2, i32 3
  store i8 %12, i8* %13, align 1
  %14 = getelementptr inbounds %struct.State, %struct.State* %0, i64 0, i32 2, i32 5
  store i8 0, i8* %14, align 1
  %15 = icmp eq i32 %4, 0
  %16 = zext i1 %15 to i8
  %17 = getelementptr inbounds %struct.State, %struct.State* %0, i64 0, i32 2, i32 7
  store i8 %16, i8* %17, align 1
  %18 = lshr i32 %4, 31
  %19 = trunc i32 %18 to i8
  %20 = getelementptr inbounds %struct.State, %struct.State* %0, i64 0, i32 2, i32 9
  store i8 %19, i8* %20, align 1
  %21 = getelementptr inbounds %struct.State, %struct.State* %0, i64 0, i32 2, i32 13
  store i8 0, i8* %21, align 1
  ret %struct.Memory* %2
}

; Function Attrs: norecurse nounwind
define %struct.Memory* @routine_movb__r10b__MINUS0x21__rbp_(%struct.State* nocapture dereferenceable(3376), i64, %struct.Memory* readnone returned) local_unnamed_addr #2 {
block_400488:
  %PC = getelementptr inbounds %struct.State, %struct.State* %0, i64 0, i32 6, i32 33, i32 0, i32 0
  %3 = getelementptr inbounds %struct.State, %struct.State* %0, i64 0, i32 6, i32 21, i32 0
  %R10B = bitcast %union.anon* %3 to i8*
  %RBP = getelementptr inbounds %struct.State, %struct.State* %0, i64 0, i32 6, i32 15, i32 0, i32 0
  %4 = load i64, i64* %RBP, align 8
  %5 = add i64 %4, -33
  %6 = load i8, i8* %R10B, align 1
  %7 = load i64, i64* %PC, align 8
  %8 = add i64 %7, 4
  store i64 %8, i64* %PC, align 8
  %9 = inttoptr i64 %5 to i8*
  store i8 %6, i8* %9, align 1
  ret %struct.Memory* %2
}

; Function Attrs: norecurse nounwind
define %struct.Memory* @routine_jne_.L_4b2df2(%struct.State* nocapture dereferenceable(3376), i64, %struct.Memory* readnone returned, i8* nocapture %BRANCH_TAKEN, i64 %rel_off1, i64 %rel_off2, i64 %rel_off3) local_unnamed_addr #2 {
block_400488:
  %PC = getelementptr inbounds %struct.State, %struct.State* %0, i64 0, i32 6, i32 33, i32 0, i32 0
  %3 = load i64, i64* %PC, align 8
  %4 = getelementptr inbounds %struct.State, %struct.State* %0, i64 0, i32 2, i32 7
  %5 = load i8, i8* %4, align 1
  %6 = icmp eq i8 %5, 0
  %7 = zext i1 %6 to i8
  store i8 %7, i8* %BRANCH_TAKEN, align 1
  %.v = select i1 %6, i64 %rel_off1, i64 %rel_off2
  %8 = add i64 %.v, %3
  store i64 %8, i64* %PC, align 8
  ret %struct.Memory* %2
}

; Function Attrs: norecurse nounwind
define %struct.Memory* @routine_movl__0x1___esi(%struct.State* nocapture dereferenceable(3376), i64, %struct.Memory* readnone returned) local_unnamed_addr #2 {
block_400488:
  %PC = getelementptr inbounds %struct.State, %struct.State* %0, i64 0, i32 6, i32 33, i32 0, i32 0
  %RSI = getelementptr inbounds %struct.State, %struct.State* %0, i64 0, i32 6, i32 9, i32 0, i32 0
  %3 = load i64, i64* %PC, align 8
  %4 = add i64 %3, 5
  store i64 %4, i64* %PC, align 8
  store i64 1, i64* %RSI, align 8
  ret %struct.Memory* %2
}

; Function Attrs: norecurse nounwind
define %struct.Memory* @routine_movl__0x4___edx(%struct.State* nocapture dereferenceable(3376), i64, %struct.Memory* readnone returned) local_unnamed_addr #2 {
block_400488:
  %PC = getelementptr inbounds %struct.State, %struct.State* %0, i64 0, i32 6, i32 33, i32 0, i32 0
  %RDX = getelementptr inbounds %struct.State, %struct.State* %0, i64 0, i32 6, i32 7, i32 0, i32 0
  %3 = load i64, i64* %PC, align 8
  %4 = add i64 %3, 5
  store i64 %4, i64* %PC, align 8
  store i64 4, i64* %RDX, align 8
  ret %struct.Memory* %2
}

; Function Attrs: norecurse nounwind
define %struct.Memory* @routine_movl_MINUS0x14__rbp____r8d(%struct.State* nocapture dereferenceable(3376), i64, %struct.Memory* readnone returned) local_unnamed_addr #2 {
block_400488:
  %PC = getelementptr inbounds %struct.State, %struct.State* %0, i64 0, i32 6, i32 33, i32 0, i32 0
  %RBP = getelementptr inbounds %struct.State, %struct.State* %0, i64 0, i32 6, i32 15, i32 0, i32 0
  %3 = getelementptr inbounds %struct.State, %struct.State* %0, i64 0, i32 6, i32 17, i32 0, i32 0
  %4 = load i64, i64* %RBP, align 8
  %5 = add i64 %4, -20
  %6 = load i64, i64* %PC, align 8
  %7 = add i64 %6, 4
  store i64 %7, i64* %PC, align 8
  %8 = inttoptr i64 %5 to i32*
  %9 = load i32, i32* %8, align 4
  %10 = zext i32 %9 to i64
  store i64 %10, i64* %3, align 8
  ret %struct.Memory* %2
}

; Function Attrs: norecurse nounwind
define %struct.Memory* @routine_movl_MINUS0x18__rbp____r9d(%struct.State* nocapture dereferenceable(3376), i64, %struct.Memory* readnone returned) local_unnamed_addr #2 {
block_400488:
  %PC = getelementptr inbounds %struct.State, %struct.State* %0, i64 0, i32 6, i32 33, i32 0, i32 0
  %RBP = getelementptr inbounds %struct.State, %struct.State* %0, i64 0, i32 6, i32 15, i32 0, i32 0
  %3 = getelementptr inbounds %struct.State, %struct.State* %0, i64 0, i32 6, i32 19, i32 0, i32 0
  %4 = load i64, i64* %RBP, align 8
  %5 = add i64 %4, -24
  %6 = load i64, i64* %PC, align 8
  %7 = add i64 %6, 4
  store i64 %7, i64* %PC, align 8
  %8 = inttoptr i64 %5 to i32*
  %9 = load i32, i32* %8, align 4
  %10 = zext i32 %9 to i64
  store i64 %10, i64* %3, align 8
  ret %struct.Memory* %2
}

; Function Attrs: norecurse nounwind
define %struct.Memory* @routine_movl_MINUS0x1c__rbp____eax(%struct.State* nocapture dereferenceable(3376), i64, %struct.Memory* readnone returned) local_unnamed_addr #2 {
block_400488:
  %PC = getelementptr inbounds %struct.State, %struct.State* %0, i64 0, i32 6, i32 33, i32 0, i32 0
  %RAX = getelementptr inbounds %struct.State, %struct.State* %0, i64 0, i32 6, i32 1, i32 0, i32 0
  %RBP = getelementptr inbounds %struct.State, %struct.State* %0, i64 0, i32 6, i32 15, i32 0, i32 0
  %3 = load i64, i64* %RBP, align 8
  %4 = add i64 %3, -28
  %5 = load i64, i64* %PC, align 8
  %6 = add i64 %5, 3
  store i64 %6, i64* %PC, align 8
  %7 = inttoptr i64 %4 to i32*
  %8 = load i32, i32* %7, align 4
  %9 = zext i32 %8 to i64
  store i64 %9, i64* %RAX, align 8
  ret %struct.Memory* %2
}

; Function Attrs: norecurse nounwind
define %struct.Memory* @routine_movl_MINUS0x8__rbp____r10d(%struct.State* nocapture dereferenceable(3376), i64, %struct.Memory* readnone returned) local_unnamed_addr #2 {
block_400488:
  %PC = getelementptr inbounds %struct.State, %struct.State* %0, i64 0, i32 6, i32 33, i32 0, i32 0
  %RBP = getelementptr inbounds %struct.State, %struct.State* %0, i64 0, i32 6, i32 15, i32 0, i32 0
  %3 = getelementptr inbounds %struct.State, %struct.State* %0, i64 0, i32 6, i32 21, i32 0, i32 0
  %4 = load i64, i64* %RBP, align 8
  %5 = add i64 %4, -8
  %6 = load i64, i64* %PC, align 8
  %7 = add i64 %6, 4
  store i64 %7, i64* %PC, align 8
  %8 = inttoptr i64 %5 to i32*
  %9 = load i32, i32* %8, align 4
  %10 = zext i32 %9 to i64
  store i64 %10, i64* %3, align 8
  ret %struct.Memory* %2
}

; Function Attrs: norecurse nounwind
define %struct.Memory* @routine_movl__eax____rsp_(%struct.State* nocapture dereferenceable(3376), i64, %struct.Memory* readnone returned) local_unnamed_addr #2 {
block_400488:
  %PC = getelementptr inbounds %struct.State, %struct.State* %0, i64 0, i32 6, i32 33, i32 0, i32 0
  %3 = getelementptr inbounds %struct.State, %struct.State* %0, i64 0, i32 6, i32 1, i32 0
  %EAX = bitcast %union.anon* %3 to i32*
  %RSP = getelementptr inbounds %struct.State, %struct.State* %0, i64 0, i32 6, i32 13, i32 0, i32 0
  %4 = bitcast i64* %RSP to i32**
  %5 = load i32*, i32** %4, align 8
  %6 = load i32, i32* %EAX, align 4
  %7 = load i64, i64* %PC, align 8
  %8 = add i64 %7, 3
  store i64 %8, i64* %PC, align 8
  store i32 %6, i32* %5, align 4
  ret %struct.Memory* %2
}

; Function Attrs: norecurse nounwind
define %struct.Memory* @routine_movl__r10d__0x8__rsp_(%struct.State* nocapture dereferenceable(3376), i64, %struct.Memory* readnone returned) local_unnamed_addr #2 {
block_400488:
  %PC = getelementptr inbounds %struct.State, %struct.State* %0, i64 0, i32 6, i32 33, i32 0, i32 0
  %3 = getelementptr inbounds %struct.State, %struct.State* %0, i64 0, i32 6, i32 21, i32 0
  %R10D = bitcast %union.anon* %3 to i32*
  %RSP = getelementptr inbounds %struct.State, %struct.State* %0, i64 0, i32 6, i32 13, i32 0, i32 0
  %4 = load i64, i64* %RSP, align 8
  %5 = add i64 %4, 8
  %6 = load i32, i32* %R10D, align 4
  %7 = load i64, i64* %PC, align 8
  %8 = add i64 %7, 5
  store i64 %8, i64* %PC, align 8
  %9 = inttoptr i64 %5 to i32*
  store i32 %6, i32* %9, align 4
  ret %struct.Memory* %2
}

; Function Attrs: norecurse nounwind
define %struct.Memory* @routine_setne__r11b(%struct.State* nocapture dereferenceable(3376), i64, %struct.Memory* readnone returned) local_unnamed_addr #2 {
block_400488:
  %PC = getelementptr inbounds %struct.State, %struct.State* %0, i64 0, i32 6, i32 33, i32 0, i32 0
  %3 = getelementptr inbounds %struct.State, %struct.State* %0, i64 0, i32 6, i32 23, i32 0
  %R11B = bitcast %union.anon* %3 to i8*
  %4 = load i64, i64* %PC, align 8
  %5 = add i64 %4, 4
  store i64 %5, i64* %PC, align 8
  %6 = getelementptr inbounds %struct.State, %struct.State* %0, i64 0, i32 2, i32 7
  %7 = load i8, i8* %6, align 1
  %8 = icmp eq i8 %7, 0
  %9 = zext i1 %8 to i8
  store i8 %9, i8* %R11B, align 1
  ret %struct.Memory* %2
}

; Function Attrs: nounwind
define %struct.Memory* @routine_xorb__0xff___r11b(%struct.State* nocapture dereferenceable(3376), i64, %struct.Memory* readnone returned) local_unnamed_addr #3 {
block_400488:
  %PC = getelementptr inbounds %struct.State, %struct.State* %0, i64 0, i32 6, i32 33, i32 0, i32 0
  %3 = getelementptr inbounds %struct.State, %struct.State* %0, i64 0, i32 6, i32 23, i32 0
  %R11B = bitcast %union.anon* %3 to i8*
  %4 = load i8, i8* %R11B, align 1
  %5 = load i64, i64* %PC, align 8
  %6 = add i64 %5, 4
  store i64 %6, i64* %PC, align 8
  %7 = xor i8 %4, -1
  store i8 %7, i8* %R11B, align 1
  %8 = getelementptr inbounds %struct.State, %struct.State* %0, i64 0, i32 2, i32 1
  store i8 0, i8* %8, align 1
  %9 = zext i8 %7 to i32
  %10 = tail call i32 @llvm.ctpop.i32(i32 %9)
  %11 = trunc i32 %10 to i8
  %12 = and i8 %11, 1
  %13 = xor i8 %12, 1
  %14 = getelementptr inbounds %struct.State, %struct.State* %0, i64 0, i32 2, i32 3
  store i8 %13, i8* %14, align 1
  %15 = icmp eq i8 %4, -1
  %16 = zext i1 %15 to i8
  %17 = getelementptr inbounds %struct.State, %struct.State* %0, i64 0, i32 2, i32 7
  store i8 %16, i8* %17, align 1
  %18 = lshr i8 %7, 7
  %19 = getelementptr inbounds %struct.State, %struct.State* %0, i64 0, i32 2, i32 9
  store i8 %18, i8* %19, align 1
  %20 = getelementptr inbounds %struct.State, %struct.State* %0, i64 0, i32 2, i32 13
  store i8 0, i8* %20, align 1
  %21 = getelementptr inbounds %struct.State, %struct.State* %0, i64 0, i32 2, i32 5
  store i8 0, i8* %21, align 1
  ret %struct.Memory* %2
}

; Function Attrs: norecurse nounwind
define %struct.Memory* @routine_movb__r11b__MINUS0x21__rbp_(%struct.State* nocapture dereferenceable(3376), i64, %struct.Memory* readnone returned) local_unnamed_addr #2 {
block_400488:
  %PC = getelementptr inbounds %struct.State, %struct.State* %0, i64 0, i32 6, i32 33, i32 0, i32 0
  %3 = getelementptr inbounds %struct.State, %struct.State* %0, i64 0, i32 6, i32 23, i32 0
  %R11B = bitcast %union.anon* %3 to i8*
  %RBP = getelementptr inbounds %struct.State, %struct.State* %0, i64 0, i32 6, i32 15, i32 0, i32 0
  %4 = load i64, i64* %RBP, align 8
  %5 = add i64 %4, -33
  %6 = load i8, i8* %R11B, align 1
  %7 = load i64, i64* %PC, align 8
  %8 = add i64 %7, 4
  store i64 %8, i64* %PC, align 8
  %9 = inttoptr i64 %5 to i8*
  store i8 %6, i8* %9, align 1
  ret %struct.Memory* %2
}

; Function Attrs: norecurse nounwind
define %struct.Memory* @routine_movb_MINUS0x21__rbp____al(%struct.State* nocapture dereferenceable(3376), i64, %struct.Memory* readnone returned) local_unnamed_addr #2 {
block_400488:
  %PC = getelementptr inbounds %struct.State, %struct.State* %0, i64 0, i32 6, i32 33, i32 0, i32 0
  %3 = getelementptr inbounds %struct.State, %struct.State* %0, i64 0, i32 6, i32 1, i32 0
  %AL = bitcast %union.anon* %3 to i8*
  %RBP = getelementptr inbounds %struct.State, %struct.State* %0, i64 0, i32 6, i32 15, i32 0, i32 0
  %4 = load i64, i64* %RBP, align 8
  %5 = add i64 %4, -33
  %6 = load i64, i64* %PC, align 8
  %7 = add i64 %6, 3
  store i64 %7, i64* %PC, align 8
  %8 = inttoptr i64 %5 to i8*
  %9 = load i8, i8* %8, align 1
  store i8 %9, i8* %AL, align 1
  ret %struct.Memory* %2
}

; Function Attrs: nounwind
define %struct.Memory* @routine_andb__0x1___al(%struct.State* nocapture dereferenceable(3376), i64, %struct.Memory* readnone returned) local_unnamed_addr #3 {
block_400488:
  %PC = getelementptr inbounds %struct.State, %struct.State* %0, i64 0, i32 6, i32 33, i32 0, i32 0
  %3 = getelementptr inbounds %struct.State, %struct.State* %0, i64 0, i32 6, i32 1, i32 0
  %AL = bitcast %union.anon* %3 to i8*
  %4 = load i8, i8* %AL, align 1
  %5 = load i64, i64* %PC, align 8
  %6 = add i64 %5, 2
  store i64 %6, i64* %PC, align 8
  %7 = and i8 %4, 1
  store i8 %7, i8* %AL, align 1
  %8 = getelementptr inbounds %struct.State, %struct.State* %0, i64 0, i32 2, i32 1
  store i8 0, i8* %8, align 1
  %9 = zext i8 %7 to i32
  %10 = tail call i32 @llvm.ctpop.i32(i32 %9)
  %11 = trunc i32 %10 to i8
  %12 = xor i8 %11, 1
  %13 = getelementptr inbounds %struct.State, %struct.State* %0, i64 0, i32 2, i32 3
  store i8 %12, i8* %13, align 1
  %14 = xor i8 %7, 1
  %15 = getelementptr inbounds %struct.State, %struct.State* %0, i64 0, i32 2, i32 7
  store i8 %14, i8* %15, align 1
  %16 = getelementptr inbounds %struct.State, %struct.State* %0, i64 0, i32 2, i32 9
  store i8 0, i8* %16, align 1
  %17 = getelementptr inbounds %struct.State, %struct.State* %0, i64 0, i32 2, i32 13
  store i8 0, i8* %17, align 1
  %18 = getelementptr inbounds %struct.State, %struct.State* %0, i64 0, i32 2, i32 5
  store i8 0, i8* %18, align 1
  ret %struct.Memory* %2
}

; Function Attrs: norecurse nounwind
define %struct.Memory* @routine_movzbl__al___eax(%struct.State* nocapture dereferenceable(3376), i64, %struct.Memory* readnone returned) local_unnamed_addr #2 {
block_400488:
  %PC = getelementptr inbounds %struct.State, %struct.State* %0, i64 0, i32 6, i32 33, i32 0, i32 0
  %3 = getelementptr inbounds %struct.State, %struct.State* %0, i64 0, i32 6, i32 1, i32 0
  %AL = bitcast %union.anon* %3 to i8*
  %RAX = getelementptr inbounds %union.anon, %union.anon* %3, i64 0, i32 0
  %4 = load i8, i8* %AL, align 1
  %5 = zext i8 %4 to i64
  %6 = load i64, i64* %PC, align 8
  %7 = add i64 %6, 3
  store i64 %7, i64* %PC, align 8
  store i64 %5, i64* %RAX, align 8
  ret %struct.Memory* %2
}

; Function Attrs: nounwind
define %struct.Memory* @routine_addq__0x40___rsp(%struct.State* nocapture dereferenceable(3376), i64, %struct.Memory* readnone returned) local_unnamed_addr #3 {
block_400488:
  %PC = getelementptr inbounds %struct.State, %struct.State* %0, i64 0, i32 6, i32 33, i32 0, i32 0
  %RSP = getelementptr inbounds %struct.State, %struct.State* %0, i64 0, i32 6, i32 13, i32 0, i32 0
  %3 = load i64, i64* %RSP, align 8
  %4 = load i64, i64* %PC, align 8
  %5 = add i64 %4, 4
  store i64 %5, i64* %PC, align 8
  %6 = add i64 %3, 64
  store i64 %6, i64* %RSP, align 8
  %7 = icmp ugt i64 %3, -65
  %8 = zext i1 %7 to i8
  %9 = getelementptr inbounds %struct.State, %struct.State* %0, i64 0, i32 2, i32 1
  store i8 %8, i8* %9, align 1
  %10 = trunc i64 %6 to i32
  %11 = and i32 %10, 255
  %12 = tail call i32 @llvm.ctpop.i32(i32 %11)
  %13 = trunc i32 %12 to i8
  %14 = and i8 %13, 1
  %15 = xor i8 %14, 1
  %16 = getelementptr inbounds %struct.State, %struct.State* %0, i64 0, i32 2, i32 3
  store i8 %15, i8* %16, align 1
  %17 = xor i64 %6, %3
  %18 = lshr i64 %17, 4
  %19 = trunc i64 %18 to i8
  %20 = and i8 %19, 1
  %21 = getelementptr inbounds %struct.State, %struct.State* %0, i64 0, i32 2, i32 5
  store i8 %20, i8* %21, align 1
  %22 = icmp eq i64 %6, 0
  %23 = zext i1 %22 to i8
  %24 = getelementptr inbounds %struct.State, %struct.State* %0, i64 0, i32 2, i32 7
  store i8 %23, i8* %24, align 1
  %25 = lshr i64 %6, 63
  %26 = trunc i64 %25 to i8
  %27 = getelementptr inbounds %struct.State, %struct.State* %0, i64 0, i32 2, i32 9
  store i8 %26, i8* %27, align 1
  %28 = lshr i64 %3, 63
  %29 = xor i64 %25, %28
  %30 = add nuw nsw i64 %29, %25
  %31 = icmp eq i64 %30, 2
  %32 = zext i1 %31 to i8
  %33 = getelementptr inbounds %struct.State, %struct.State* %0, i64 0, i32 2, i32 13
  store i8 %32, i8* %33, align 1
  ret %struct.Memory* %2
}

; Function Attrs: norecurse nounwind
define %struct.Memory* @routine_popq__rbp(%struct.State* nocapture dereferenceable(3376), i64, %struct.Memory* readnone returned) local_unnamed_addr #2 {
block_400488:
  %PC = getelementptr inbounds %struct.State, %struct.State* %0, i64 0, i32 6, i32 33, i32 0, i32 0
  %RBP = getelementptr inbounds %struct.State, %struct.State* %0, i64 0, i32 6, i32 15, i32 0, i32 0
  %3 = load i64, i64* %PC, align 8
  %4 = add i64 %3, 1
  store i64 %4, i64* %PC, align 8
  %5 = getelementptr inbounds %struct.State, %struct.State* %0, i64 0, i32 6, i32 13, i32 0, i32 0
  %6 = load i64, i64* %5, align 8
  %7 = add i64 %6, 8
  %8 = inttoptr i64 %6 to i64*
  %9 = load i64, i64* %8, align 8
  store i64 %9, i64* %RBP, align 8
  store i64 %7, i64* %5, align 8
  ret %struct.Memory* %2
}

; Function Attrs: norecurse nounwind
define %struct.Memory* @routine_retq(%struct.State* nocapture dereferenceable(3376), i64, %struct.Memory* readnone returned) local_unnamed_addr #2 {
block_400488:
  %PC = getelementptr inbounds %struct.State, %struct.State* %0, i64 0, i32 6, i32 33, i32 0, i32 0
  %3 = load i64, i64* %PC, align 8
  %4 = add i64 %3, 1
  store i64 %4, i64* %PC, align 8
  %5 = getelementptr inbounds %struct.State, %struct.State* %0, i64 0, i32 6, i32 13, i32 0, i32 0
  %6 = load i64, i64* %5, align 8
  %7 = inttoptr i64 %6 to i64*
  %8 = load i64, i64* %7, align 8
  store i64 %8, i64* %PC, align 8
  %9 = add i64 %6, 8
  store i64 %9, i64* %5, align 8
  ret %struct.Memory* %2
}

attributes #0 = { nounwind readnone }
attributes #1 = { alwaysinline }
attributes #2 = { norecurse nounwind }
attributes #3 = { nounwind }
