; ModuleID = 'mcsema/test.proposed.inline.ll'
source_filename = "llvm-link"
target datalayout = "e-m:e-i64:64-f80:128-n8:16:32:64-S128"
target triple = "x86_64-pc-linux-gnu-elf"

%__bss_start_type = type <{ [8 x i8] }>
%struct.State = type { %struct.ArchState, [32 x %union.VectorReg], %struct.ArithFlags, %union.anon, %struct.Segments, %struct.AddressSpace, %struct.GPR, %struct.X87Stack, %struct.MMX, %struct.FPUStatusFlags, %union.anon, %union.FPU, %struct.SegmentCaches }
%struct.ArchState = type { i32, i32, %union.anon }
%union.VectorReg = type { %union.vec512_t }
%union.vec512_t = type { %struct.uint64v8_t }
%struct.uint64v8_t = type { [8 x i64] }
%struct.ArithFlags = type { i8, i8, i8, i8, i8, i8, i8, i8, i8, i8, i8, i8, i8, i8, i8, i8 }
%struct.Segments = type { i16, %union.SegmentSelector, i16, %union.SegmentSelector, i16, %union.SegmentSelector, i16, %union.SegmentSelector, i16, %union.SegmentSelector, i16, %union.SegmentSelector }
%union.SegmentSelector = type { i16 }
%struct.AddressSpace = type { i64, %struct.Reg, i64, %struct.Reg, i64, %struct.Reg, i64, %struct.Reg, i64, %struct.Reg, i64, %struct.Reg }
%struct.Reg = type { %union.anon }
%struct.GPR = type { i64, %struct.Reg, i64, %struct.Reg, i64, %struct.Reg, i64, %struct.Reg, i64, %struct.Reg, i64, %struct.Reg, i64, %struct.Reg, i64, %struct.Reg, i64, %struct.Reg, i64, %struct.Reg, i64, %struct.Reg, i64, %struct.Reg, i64, %struct.Reg, i64, %struct.Reg, i64, %struct.Reg, i64, %struct.Reg, i64, %struct.Reg }
%struct.X87Stack = type { [8 x %struct.anon.3] }
%struct.anon.3 = type { i64, double }
%struct.MMX = type { [8 x %struct.anon.4] }
%struct.anon.4 = type { i64, %union.vec64_t }
%union.vec64_t = type { %struct.uint64v1_t }
%struct.uint64v1_t = type { [1 x i64] }
%struct.FPUStatusFlags = type { i8, i8, i8, i8, i8, i8, i8, i8, i8, i8, i8, i8, i8, i8, i8, i8, i8, i8, i8, i8, [4 x i8] }
%union.anon = type { i64 }
%union.FPU = type { %struct.anon.13 }
%struct.anon.13 = type { %struct.FpuFXSAVE, [96 x i8] }
%struct.FpuFXSAVE = type { %union.SegmentSelector, %union.SegmentSelector, %union.FPUAbridgedTagWord, i8, i16, i32, %union.SegmentSelector, i16, i32, %union.SegmentSelector, i16, %union.FPUControlStatus, %union.FPUControlStatus, [8 x %struct.FPUStackElem], [16 x %union.vec128_t] }
%union.FPUAbridgedTagWord = type { i8 }
%union.FPUControlStatus = type { i32 }
%struct.FPUStackElem = type { %union.anon.11, [6 x i8] }
%union.anon.11 = type { %struct.float80_t }
%struct.float80_t = type { [10 x i8] }
%union.vec128_t = type { %struct.uint128v1_t }
%struct.uint128v1_t = type { [1 x i128] }
%struct.SegmentCaches = type { %struct.SegmentShadow, %struct.SegmentShadow, %struct.SegmentShadow, %struct.SegmentShadow, %struct.SegmentShadow, %struct.SegmentShadow }
%struct.SegmentShadow = type { %union.anon, i32, i32 }
%struct.Memory = type opaque

@__bss_start = local_unnamed_addr global %__bss_start_type zeroinitializer

; Function Attrs: nounwind readnone
declare i32 @llvm.ctpop.i32(i32) #0

declare %struct.Memory* @sub_478110.play_attack_defend_n(%struct.State* noalias dereferenceable(3376), i64, %struct.Memory* noalias readnone returned) local_unnamed_addr

declare %struct.Memory* @sub_477710.somewhere(%struct.State* noalias dereferenceable(3376), i64, %struct.Memory* noalias readnone returned) local_unnamed_addr

; Function Attrs: alwaysinline
define %struct.Memory* @autohelperpat270(%struct.State* noalias, i64, %struct.Memory* noalias readnone) local_unnamed_addr #1 {
entry:
  %3 = getelementptr inbounds %struct.State, %struct.State* %0, i64 0, i32 6, i32 33, i32 0, i32 0
  %RBP.i = getelementptr inbounds %struct.State, %struct.State* %0, i64 0, i32 6, i32 15, i32 0, i32 0
  %4 = load i64, i64* %RBP.i, align 8
  %5 = add i64 %1, 1
  store i64 %5, i64* %3, align 8
  %6 = getelementptr inbounds %struct.State, %struct.State* %0, i64 0, i32 6, i32 13, i32 0, i32 0
  %7 = load i64, i64* %6, align 8
  %8 = add i64 %7, -8
  %9 = inttoptr i64 %8 to i64*
  store i64 %4, i64* %9, align 8
  %10 = load i64, i64* %3, align 8
  store i64 %8, i64* %RBP.i, align 8
  %11 = add i64 %7, -72
  store i64 %11, i64* %6, align 8
  %12 = icmp ult i64 %8, 64
  %13 = zext i1 %12 to i8
  %14 = getelementptr inbounds %struct.State, %struct.State* %0, i64 0, i32 2, i32 1
  store i8 %13, i8* %14, align 1
  %15 = trunc i64 %11 to i32
  %16 = and i32 %15, 255
  %17 = tail call i32 @llvm.ctpop.i32(i32 %16)
  %18 = trunc i32 %17 to i8
  %19 = and i8 %18, 1
  %20 = xor i8 %19, 1
  %21 = getelementptr inbounds %struct.State, %struct.State* %0, i64 0, i32 2, i32 3
  store i8 %20, i8* %21, align 1
  %22 = xor i64 %8, %11
  %23 = lshr i64 %22, 4
  %24 = trunc i64 %23 to i8
  %25 = and i8 %24, 1
  %26 = getelementptr inbounds %struct.State, %struct.State* %0, i64 0, i32 2, i32 5
  store i8 %25, i8* %26, align 1
  %27 = icmp eq i64 %11, 0
  %28 = zext i1 %27 to i8
  %29 = getelementptr inbounds %struct.State, %struct.State* %0, i64 0, i32 2, i32 7
  store i8 %28, i8* %29, align 1
  %30 = lshr i64 %11, 63
  %31 = trunc i64 %30 to i8
  %32 = getelementptr inbounds %struct.State, %struct.State* %0, i64 0, i32 2, i32 9
  store i8 %31, i8* %32, align 1
  %33 = lshr i64 %8, 63
  %34 = xor i64 %30, %33
  %35 = add nuw nsw i64 %34, %33
  %36 = icmp eq i64 %35, 2
  %37 = zext i1 %36 to i8
  %38 = getelementptr inbounds %struct.State, %struct.State* %0, i64 0, i32 2, i32 13
  store i8 %37, i8* %38, align 1
  %39 = getelementptr inbounds %struct.State, %struct.State* %0, i64 0, i32 6, i32 1, i32 0
  %RAX.i155 = getelementptr inbounds %union.anon, %union.anon* %39, i64 0, i32 0
  store i64 1, i64* %RAX.i155, align 8
  %40 = getelementptr inbounds %struct.State, %struct.State* %0, i64 0, i32 6, i32 17, i32 0
  %R8D.i153 = bitcast %union.anon* %40 to i32*
  %41 = getelementptr inbounds %union.anon, %union.anon* %40, i64 0, i32 0
  store i64 4, i64* %41, align 8
  %42 = getelementptr inbounds %struct.State, %struct.State* %0, i64 0, i32 6, i32 11, i32 0
  %EDI.i = bitcast %union.anon* %42 to i32*
  %43 = add i64 %7, -12
  %44 = load i32, i32* %EDI.i, align 4
  %45 = add i64 %10, 21
  store i64 %45, i64* %3, align 8
  %46 = inttoptr i64 %43 to i32*
  store i32 %44, i32* %46, align 4
  %47 = getelementptr inbounds %struct.State, %struct.State* %0, i64 0, i32 6, i32 9, i32 0
  %ESI.i148 = bitcast %union.anon* %47 to i32*
  %48 = load i64, i64* %RBP.i, align 8
  %49 = add i64 %48, -8
  %50 = load i32, i32* %ESI.i148, align 4
  %51 = load i64, i64* %3, align 8
  %52 = add i64 %51, 3
  store i64 %52, i64* %3, align 8
  %53 = inttoptr i64 %49 to i32*
  store i32 %50, i32* %53, align 4
  %54 = getelementptr inbounds %struct.State, %struct.State* %0, i64 0, i32 6, i32 7, i32 0
  %EDX.i145 = bitcast %union.anon* %54 to i32*
  %55 = load i64, i64* %RBP.i, align 8
  %56 = add i64 %55, -12
  %57 = load i32, i32* %EDX.i145, align 4
  %58 = load i64, i64* %3, align 8
  %59 = add i64 %58, 3
  store i64 %59, i64* %3, align 8
  %60 = inttoptr i64 %56 to i32*
  store i32 %57, i32* %60, align 4
  %61 = getelementptr inbounds %struct.State, %struct.State* %0, i64 0, i32 6, i32 5, i32 0
  %ECX.i142 = bitcast %union.anon* %61 to i32*
  %62 = load i64, i64* %RBP.i, align 8
  %63 = add i64 %62, -16
  %64 = load i32, i32* %ECX.i142, align 4
  %65 = load i64, i64* %3, align 8
  %66 = add i64 %65, 3
  store i64 %66, i64* %3, align 8
  %67 = inttoptr i64 %63 to i32*
  store i32 %64, i32* %67, align 4
  %68 = getelementptr inbounds %struct.State, %struct.State* %0, i64 0, i32 6, i32 19, i32 0
  %R9.i140 = getelementptr inbounds %union.anon, %union.anon* %68, i64 0, i32 0
  %69 = load i64, i64* %RBP.i, align 8
  %70 = add i64 %69, -4
  %71 = load i64, i64* %3, align 8
  %72 = add i64 %71, 4
  store i64 %72, i64* %3, align 8
  %73 = inttoptr i64 %70 to i32*
  %74 = load i32, i32* %73, align 4
  %75 = sext i32 %74 to i64
  store i64 %75, i64* %R9.i140, align 8
  %RCX.i136 = getelementptr inbounds %union.anon, %union.anon* %61, i64 0, i32 0
  %76 = shl nsw i64 %75, 2
  %77 = add nsw i64 %76, 11901200
  %78 = add i64 %71, 12
  store i64 %78, i64* %3, align 8
  %79 = inttoptr i64 %77 to i32*
  %80 = load i32, i32* %79, align 4
  %81 = zext i32 %80 to i64
  store i64 %81, i64* %RCX.i136, align 8
  %82 = add i64 %69, -8
  %83 = add i64 %71, 15
  store i64 %83, i64* %3, align 8
  %84 = inttoptr i64 %82 to i32*
  %85 = load i32, i32* %84, align 4
  %86 = add i32 %85, %80
  %87 = zext i32 %86 to i64
  store i64 %87, i64* %RCX.i136, align 8
  %88 = icmp ult i32 %86, %80
  %89 = icmp ult i32 %86, %85
  %90 = or i1 %88, %89
  %91 = zext i1 %90 to i8
  store i8 %91, i8* %14, align 1
  %92 = and i32 %86, 255
  %93 = tail call i32 @llvm.ctpop.i32(i32 %92)
  %94 = trunc i32 %93 to i8
  %95 = and i8 %94, 1
  %96 = xor i8 %95, 1
  store i8 %96, i8* %21, align 1
  %97 = xor i32 %85, %80
  %98 = xor i32 %97, %86
  %99 = lshr i32 %98, 4
  %100 = trunc i32 %99 to i8
  %101 = and i8 %100, 1
  store i8 %101, i8* %26, align 1
  %102 = icmp eq i32 %86, 0
  %103 = zext i1 %102 to i8
  store i8 %103, i8* %29, align 1
  %104 = lshr i32 %86, 31
  %105 = trunc i32 %104 to i8
  store i8 %105, i8* %32, align 1
  %106 = lshr i32 %80, 31
  %107 = lshr i32 %85, 31
  %108 = xor i32 %104, %106
  %109 = xor i32 %104, %107
  %110 = add nuw nsw i32 %108, %109
  %111 = icmp eq i32 %110, 2
  %112 = zext i1 %111 to i8
  store i8 %112, i8* %38, align 1
  %113 = add i64 %69, -20
  %114 = add i64 %71, 18
  store i64 %114, i64* %3, align 8
  %115 = inttoptr i64 %113 to i32*
  store i32 %86, i32* %115, align 4
  %116 = load i64, i64* %RBP.i, align 8
  %117 = add i64 %116, -4
  %118 = load i64, i64* %3, align 8
  %119 = add i64 %118, 4
  store i64 %119, i64* %3, align 8
  %120 = inttoptr i64 %117 to i32*
  %121 = load i32, i32* %120, align 4
  %122 = sext i32 %121 to i64
  store i64 %122, i64* %R9.i140, align 8
  %123 = shl nsw i64 %122, 2
  %124 = add nsw i64 %123, 11901232
  %125 = add i64 %118, 12
  store i64 %125, i64* %3, align 8
  %126 = inttoptr i64 %124 to i32*
  %127 = load i32, i32* %126, align 4
  %128 = zext i32 %127 to i64
  store i64 %128, i64* %RCX.i136, align 8
  %129 = add i64 %116, -8
  %130 = add i64 %118, 15
  store i64 %130, i64* %3, align 8
  %131 = inttoptr i64 %129 to i32*
  %132 = load i32, i32* %131, align 4
  %133 = add i32 %132, %127
  %134 = zext i32 %133 to i64
  store i64 %134, i64* %RCX.i136, align 8
  %135 = icmp ult i32 %133, %127
  %136 = icmp ult i32 %133, %132
  %137 = or i1 %135, %136
  %138 = zext i1 %137 to i8
  store i8 %138, i8* %14, align 1
  %139 = and i32 %133, 255
  %140 = tail call i32 @llvm.ctpop.i32(i32 %139)
  %141 = trunc i32 %140 to i8
  %142 = and i8 %141, 1
  %143 = xor i8 %142, 1
  store i8 %143, i8* %21, align 1
  %144 = xor i32 %132, %127
  %145 = xor i32 %144, %133
  %146 = lshr i32 %145, 4
  %147 = trunc i32 %146 to i8
  %148 = and i8 %147, 1
  store i8 %148, i8* %26, align 1
  %149 = icmp eq i32 %133, 0
  %150 = zext i1 %149 to i8
  store i8 %150, i8* %29, align 1
  %151 = lshr i32 %133, 31
  %152 = trunc i32 %151 to i8
  store i8 %152, i8* %32, align 1
  %153 = lshr i32 %127, 31
  %154 = lshr i32 %132, 31
  %155 = xor i32 %151, %153
  %156 = xor i32 %151, %154
  %157 = add nuw nsw i32 %155, %156
  %158 = icmp eq i32 %157, 2
  %159 = zext i1 %158 to i8
  store i8 %159, i8* %38, align 1
  %160 = add i64 %116, -24
  %161 = add i64 %118, 18
  store i64 %161, i64* %3, align 8
  %162 = inttoptr i64 %160 to i32*
  store i32 %133, i32* %162, align 4
  %163 = load i64, i64* %RBP.i, align 8
  %164 = add i64 %163, -4
  %165 = load i64, i64* %3, align 8
  %166 = add i64 %165, 4
  store i64 %166, i64* %3, align 8
  %167 = inttoptr i64 %164 to i32*
  %168 = load i32, i32* %167, align 4
  %169 = sext i32 %168 to i64
  store i64 %169, i64* %R9.i140, align 8
  %170 = shl nsw i64 %169, 2
  %171 = add nsw i64 %170, 11900048
  %172 = add i64 %165, 12
  store i64 %172, i64* %3, align 8
  %173 = inttoptr i64 %171 to i32*
  %174 = load i32, i32* %173, align 4
  %175 = zext i32 %174 to i64
  store i64 %175, i64* %RCX.i136, align 8
  %176 = add i64 %163, -8
  %177 = add i64 %165, 15
  store i64 %177, i64* %3, align 8
  %178 = inttoptr i64 %176 to i32*
  %179 = load i32, i32* %178, align 4
  %180 = add i32 %179, %174
  %181 = zext i32 %180 to i64
  store i64 %181, i64* %RCX.i136, align 8
  %182 = icmp ult i32 %180, %174
  %183 = icmp ult i32 %180, %179
  %184 = or i1 %182, %183
  %185 = zext i1 %184 to i8
  store i8 %185, i8* %14, align 1
  %186 = and i32 %180, 255
  %187 = tail call i32 @llvm.ctpop.i32(i32 %186)
  %188 = trunc i32 %187 to i8
  %189 = and i8 %188, 1
  %190 = xor i8 %189, 1
  store i8 %190, i8* %21, align 1
  %191 = xor i32 %179, %174
  %192 = xor i32 %191, %180
  %193 = lshr i32 %192, 4
  %194 = trunc i32 %193 to i8
  %195 = and i8 %194, 1
  store i8 %195, i8* %26, align 1
  %196 = icmp eq i32 %180, 0
  %197 = zext i1 %196 to i8
  store i8 %197, i8* %29, align 1
  %198 = lshr i32 %180, 31
  %199 = trunc i32 %198 to i8
  store i8 %199, i8* %32, align 1
  %200 = lshr i32 %174, 31
  %201 = lshr i32 %179, 31
  %202 = xor i32 %198, %200
  %203 = xor i32 %198, %201
  %204 = add nuw nsw i32 %202, %203
  %205 = icmp eq i32 %204, 2
  %206 = zext i1 %205 to i8
  store i8 %206, i8* %38, align 1
  %207 = add i64 %163, -28
  %208 = add i64 %165, 18
  store i64 %208, i64* %3, align 8
  %209 = inttoptr i64 %207 to i32*
  store i32 %180, i32* %209, align 4
  %210 = load i64, i64* %RBP.i, align 8
  %211 = add i64 %210, -4
  %212 = load i64, i64* %3, align 8
  %213 = add i64 %212, 4
  store i64 %213, i64* %3, align 8
  %214 = inttoptr i64 %211 to i32*
  %215 = load i32, i32* %214, align 4
  %216 = sext i32 %215 to i64
  store i64 %216, i64* %R9.i140, align 8
  %217 = shl nsw i64 %216, 2
  %218 = add nsw i64 %217, 11903536
  %219 = add i64 %212, 12
  store i64 %219, i64* %3, align 8
  %220 = inttoptr i64 %218 to i32*
  %221 = load i32, i32* %220, align 4
  %222 = zext i32 %221 to i64
  store i64 %222, i64* %RCX.i136, align 8
  %223 = add i64 %210, -8
  %224 = add i64 %212, 15
  store i64 %224, i64* %3, align 8
  %225 = inttoptr i64 %223 to i32*
  %226 = load i32, i32* %225, align 4
  %227 = add i32 %226, %221
  %228 = zext i32 %227 to i64
  store i64 %228, i64* %RCX.i136, align 8
  %229 = icmp ult i32 %227, %221
  %230 = icmp ult i32 %227, %226
  %231 = or i1 %229, %230
  %232 = zext i1 %231 to i8
  store i8 %232, i8* %14, align 1
  %233 = and i32 %227, 255
  %234 = tail call i32 @llvm.ctpop.i32(i32 %233)
  %235 = trunc i32 %234 to i8
  %236 = and i8 %235, 1
  %237 = xor i8 %236, 1
  store i8 %237, i8* %21, align 1
  %238 = xor i32 %226, %221
  %239 = xor i32 %238, %227
  %240 = lshr i32 %239, 4
  %241 = trunc i32 %240 to i8
  %242 = and i8 %241, 1
  store i8 %242, i8* %26, align 1
  %243 = icmp eq i32 %227, 0
  %244 = zext i1 %243 to i8
  store i8 %244, i8* %29, align 1
  %245 = lshr i32 %227, 31
  %246 = trunc i32 %245 to i8
  store i8 %246, i8* %32, align 1
  %247 = lshr i32 %221, 31
  %248 = lshr i32 %226, 31
  %249 = xor i32 %245, %247
  %250 = xor i32 %245, %248
  %251 = add nuw nsw i32 %249, %250
  %252 = icmp eq i32 %251, 2
  %253 = zext i1 %252 to i8
  store i8 %253, i8* %38, align 1
  %254 = add i64 %210, -32
  %255 = add i64 %212, 18
  store i64 %255, i64* %3, align 8
  %256 = inttoptr i64 %254 to i32*
  store i32 %227, i32* %256, align 4
  %257 = load i64, i64* %RBP.i, align 8
  %258 = add i64 %257, -4
  %259 = load i64, i64* %3, align 8
  %260 = add i64 %259, 4
  store i64 %260, i64* %3, align 8
  %261 = inttoptr i64 %258 to i32*
  %262 = load i32, i32* %261, align 4
  %263 = sext i32 %262 to i64
  store i64 %263, i64* %R9.i140, align 8
  %264 = shl nsw i64 %263, 2
  %265 = add nsw i64 %264, 11904752
  %266 = add i64 %259, 12
  store i64 %266, i64* %3, align 8
  %267 = inttoptr i64 %265 to i32*
  %268 = load i32, i32* %267, align 4
  %269 = zext i32 %268 to i64
  store i64 %269, i64* %RCX.i136, align 8
  %270 = add i64 %257, -8
  %271 = add i64 %259, 15
  store i64 %271, i64* %3, align 8
  %272 = inttoptr i64 %270 to i32*
  %273 = load i32, i32* %272, align 4
  %274 = add i32 %273, %268
  %275 = zext i32 %274 to i64
  store i64 %275, i64* %RCX.i136, align 8
  %276 = icmp ult i32 %274, %268
  %277 = icmp ult i32 %274, %273
  %278 = or i1 %276, %277
  %279 = zext i1 %278 to i8
  store i8 %279, i8* %14, align 1
  %280 = and i32 %274, 255
  %281 = tail call i32 @llvm.ctpop.i32(i32 %280)
  %282 = trunc i32 %281 to i8
  %283 = and i8 %282, 1
  %284 = xor i8 %283, 1
  store i8 %284, i8* %21, align 1
  %285 = xor i32 %273, %268
  %286 = xor i32 %285, %274
  %287 = lshr i32 %286, 4
  %288 = trunc i32 %287 to i8
  %289 = and i8 %288, 1
  store i8 %289, i8* %26, align 1
  %290 = icmp eq i32 %274, 0
  %291 = zext i1 %290 to i8
  store i8 %291, i8* %29, align 1
  %292 = lshr i32 %274, 31
  %293 = trunc i32 %292 to i8
  store i8 %293, i8* %32, align 1
  %294 = lshr i32 %268, 31
  %295 = lshr i32 %273, 31
  %296 = xor i32 %292, %294
  %297 = xor i32 %292, %295
  %298 = add nuw nsw i32 %296, %297
  %299 = icmp eq i32 %298, 2
  %300 = zext i1 %299 to i8
  store i8 %300, i8* %38, align 1
  %301 = add i64 %257, -36
  %302 = add i64 %259, 18
  store i64 %302, i64* %3, align 8
  %303 = inttoptr i64 %301 to i32*
  store i32 %274, i32* %303, align 4
  %RDI.i80 = getelementptr inbounds %union.anon, %union.anon* %42, i64 0, i32 0
  %304 = load i64, i64* %RBP.i, align 8
  %305 = add i64 %304, -12
  %306 = load i64, i64* %3, align 8
  %307 = add i64 %306, 3
  store i64 %307, i64* %3, align 8
  %308 = inttoptr i64 %305 to i32*
  %309 = load i32, i32* %308, align 4
  %310 = zext i32 %309 to i64
  store i64 %310, i64* %RDI.i80, align 8
  %311 = add i64 %304, -8
  %312 = add i64 %306, 6
  store i64 %312, i64* %3, align 8
  %313 = inttoptr i64 %311 to i32*
  %314 = load i32, i32* %313, align 4
  %315 = zext i32 %314 to i64
  store i64 %315, i64* %RCX.i136, align 8
  %RDX.i74 = getelementptr inbounds %union.anon, %union.anon* %54, i64 0, i32 0
  %316 = add i64 %304, -20
  %317 = add i64 %306, 9
  store i64 %317, i64* %3, align 8
  %318 = inttoptr i64 %316 to i32*
  %319 = load i32, i32* %318, align 4
  %320 = zext i32 %319 to i64
  store i64 %320, i64* %RDX.i74, align 8
  %321 = add i64 %304, -24
  %322 = add i64 %306, 13
  store i64 %322, i64* %3, align 8
  %323 = inttoptr i64 %321 to i32*
  %324 = load i32, i32* %323, align 4
  %325 = zext i32 %324 to i64
  store i64 %325, i64* %R9.i140, align 8
  %RSI.i69 = getelementptr inbounds %union.anon, %union.anon* %47, i64 0, i32 0
  %326 = add i64 %304, -28
  %327 = add i64 %306, 16
  store i64 %327, i64* %3, align 8
  %328 = inttoptr i64 %326 to i32*
  %329 = load i32, i32* %328, align 4
  %330 = zext i32 %329 to i64
  store i64 %330, i64* %RSI.i69, align 8
  %331 = getelementptr inbounds %struct.State, %struct.State* %0, i64 0, i32 6, i32 21, i32 0
  %R10D.i66 = bitcast %union.anon* %331 to i32*
  %332 = getelementptr inbounds %union.anon, %union.anon* %331, i64 0, i32 0
  %333 = add i64 %306, 20
  store i64 %333, i64* %3, align 8
  %334 = load i32, i32* %328, align 4
  %335 = zext i32 %334 to i64
  store i64 %335, i64* %332, align 8
  %336 = add i64 %304, -40
  %337 = add i64 %306, 23
  store i64 %337, i64* %3, align 8
  %338 = inttoptr i64 %336 to i32*
  store i32 %329, i32* %338, align 4
  %EAX.i61 = bitcast %union.anon* %39 to i32*
  %339 = load i32, i32* %EAX.i61, align 4
  %340 = zext i32 %339 to i64
  %341 = load i64, i64* %3, align 8
  store i64 %340, i64* %RSI.i69, align 8
  %342 = load i64, i64* %RBP.i, align 8
  %343 = add i64 %342, -44
  %344 = load i32, i32* %EDX.i145, align 4
  %345 = add i64 %341, 5
  store i64 %345, i64* %3, align 8
  %346 = inttoptr i64 %343 to i32*
  store i32 %344, i32* %346, align 4
  %347 = load i32, i32* %R8D.i153, align 4
  %348 = zext i32 %347 to i64
  %349 = load i64, i64* %3, align 8
  store i64 %348, i64* %RDX.i74, align 8
  %350 = load i64, i64* %RBP.i, align 8
  %351 = add i64 %350, -44
  %352 = add i64 %349, 7
  store i64 %352, i64* %3, align 8
  %353 = inttoptr i64 %351 to i32*
  %354 = load i32, i32* %353, align 4
  %355 = zext i32 %354 to i64
  store i64 %355, i64* %41, align 8
  %356 = add i64 %350, -40
  %357 = add i64 %349, 10
  store i64 %357, i64* %3, align 8
  %358 = inttoptr i64 %356 to i32*
  %359 = load i32, i32* %358, align 4
  %360 = zext i32 %359 to i64
  store i64 %360, i64* %RAX.i155, align 8
  %361 = bitcast i64* %6 to i32**
  %362 = load i32*, i32** %361, align 8
  %363 = add i64 %349, 13
  store i64 %363, i64* %3, align 8
  store i32 %359, i32* %362, align 4
  %364 = load i64, i64* %6, align 8
  %365 = add i64 %364, 8
  %366 = load i32, i32* %R10D.i66, align 4
  %367 = load i64, i64* %3, align 8
  %368 = add i64 %367, 5
  store i64 %368, i64* %3, align 8
  %369 = inttoptr i64 %365 to i32*
  store i32 %366, i32* %369, align 4
  %AL.i43 = bitcast %union.anon* %39 to i8*
  %370 = load i64, i64* %3, align 8
  store i8 0, i8* %AL.i43, align 1
  %371 = add i64 %370, -344983
  %372 = add i64 %370, 7
  %373 = load i64, i64* %6, align 8
  %374 = add i64 %373, -8
  %375 = inttoptr i64 %374 to i64*
  store i64 %372, i64* %375, align 8
  store i64 %374, i64* %6, align 8
  store i64 %371, i64* %3, align 8
  %call2_4cc4a9 = tail call %struct.Memory* @sub_478110.play_attack_defend_n(%struct.State* %0, i64 %371, %struct.Memory* %2)
  %376 = load i64, i64* %3, align 8
  store i64 0, i64* %RCX.i136, align 8
  %377 = getelementptr inbounds %struct.State, %struct.State* %0, i64 0, i32 6, i32 23, i32 0
  %R11B.i38 = bitcast %union.anon* %377 to i8*
  store i8 0, i8* %R11B.i38, align 1
  %378 = load i32, i32* %EAX.i61, align 4
  store i8 0, i8* %14, align 1
  %379 = and i32 %378, 255
  %380 = tail call i32 @llvm.ctpop.i32(i32 %379)
  %381 = trunc i32 %380 to i8
  %382 = and i8 %381, 1
  %383 = xor i8 %382, 1
  store i8 %383, i8* %21, align 1
  store i8 0, i8* %26, align 1
  %384 = icmp eq i32 %378, 0
  %385 = zext i1 %384 to i8
  store i8 %385, i8* %29, align 1
  %386 = lshr i32 %378, 31
  %387 = trunc i32 %386 to i8
  store i8 %387, i8* %32, align 1
  store i8 0, i8* %38, align 1
  %388 = load i64, i64* %RBP.i, align 8
  %389 = add i64 %388, -45
  %390 = add i64 %376, 12
  store i64 %390, i64* %3, align 8
  %391 = inttoptr i64 %389 to i8*
  store i8 0, i8* %391, align 1
  %392 = load i64, i64* %3, align 8
  %393 = load i8, i8* %29, align 1
  %394 = icmp ne i8 %393, 0
  %.v = select i1 %394, i64 51, i64 6
  %395 = add i64 %392, %.v
  store i64 %395, i64* %3, align 8
  %cmpBr_4cc4ba = icmp eq i8 %393, 1
  br i1 %cmpBr_4cc4ba, label %block_.L_4cc4ed, label %block_4cc4c0

block_4cc4c0:                                     ; preds = %entry
  store i64 1, i64* %RSI.i69, align 8
  store i64 2, i64* %RDX.i74, align 8
  store i64 3, i64* %RAX.i155, align 8
  %396 = load i64, i64* %RBP.i, align 8
  %397 = add i64 %396, -12
  %398 = add i64 %395, 18
  store i64 %398, i64* %3, align 8
  %399 = inttoptr i64 %397 to i32*
  %400 = load i32, i32* %399, align 4
  %401 = sub i32 3, %400
  %402 = zext i32 %401 to i64
  store i64 %402, i64* %RAX.i155, align 8
  %403 = icmp ugt i32 %400, 3
  %404 = zext i1 %403 to i8
  store i8 %404, i8* %14, align 1
  %405 = and i32 %401, 255
  %406 = tail call i32 @llvm.ctpop.i32(i32 %405)
  %407 = trunc i32 %406 to i8
  %408 = and i8 %407, 1
  %409 = xor i8 %408, 1
  store i8 %409, i8* %21, align 1
  %410 = xor i32 %401, %400
  %411 = lshr i32 %410, 4
  %412 = trunc i32 %411 to i8
  %413 = and i8 %412, 1
  store i8 %413, i8* %26, align 1
  %414 = icmp eq i32 %401, 0
  %415 = zext i1 %414 to i8
  store i8 %415, i8* %29, align 1
  %416 = lshr i32 %401, 31
  %417 = trunc i32 %416 to i8
  store i8 %417, i8* %32, align 1
  %418 = lshr i32 %400, 31
  %419 = add nuw nsw i32 %416, %418
  %420 = icmp eq i32 %419, 2
  %421 = zext i1 %420 to i8
  store i8 %421, i8* %38, align 1
  %422 = add i64 %396, -32
  %423 = add i64 %395, 21
  store i64 %423, i64* %3, align 8
  %424 = inttoptr i64 %422 to i32*
  %425 = load i32, i32* %424, align 4
  %426 = zext i32 %425 to i64
  store i64 %426, i64* %RCX.i136, align 8
  %427 = add i64 %396, -36
  %428 = add i64 %395, 25
  store i64 %428, i64* %3, align 8
  %429 = inttoptr i64 %427 to i32*
  %430 = load i32, i32* %429, align 4
  %431 = zext i32 %430 to i64
  store i64 %431, i64* %41, align 8
  store i64 %402, i64* %RDI.i80, align 8
  store i8 0, i8* %AL.i43, align 1
  %432 = add i64 %395, -347568
  %433 = add i64 %395, 34
  %434 = load i64, i64* %6, align 8
  %435 = add i64 %434, -8
  %436 = inttoptr i64 %435 to i64*
  store i64 %433, i64* %436, align 8
  store i64 %435, i64* %6, align 8
  store i64 %432, i64* %3, align 8
  %call2_4cc4dd = tail call %struct.Memory* @sub_477710.somewhere(%struct.State* nonnull %0, i64 %432, %struct.Memory* %call2_4cc4a9)
  %437 = load i32, i32* %EAX.i61, align 4
  %438 = load i64, i64* %3, align 8
  store i8 0, i8* %14, align 1
  %439 = and i32 %437, 255
  %440 = tail call i32 @llvm.ctpop.i32(i32 %439)
  %441 = trunc i32 %440 to i8
  %442 = and i8 %441, 1
  %443 = xor i8 %442, 1
  store i8 %443, i8* %21, align 1
  store i8 0, i8* %26, align 1
  %444 = icmp eq i32 %437, 0
  %445 = zext i1 %444 to i8
  store i8 %445, i8* %29, align 1
  %446 = lshr i32 %437, 31
  %447 = trunc i32 %446 to i8
  store i8 %447, i8* %32, align 1
  store i8 0, i8* %38, align 1
  %R9B.i14 = bitcast %union.anon* %68 to i8*
  %448 = xor i1 %444, true
  %449 = zext i1 %448 to i8
  store i8 %449, i8* %R9B.i14, align 1
  %450 = load i64, i64* %RBP.i, align 8
  %451 = add i64 %450, -45
  %452 = add i64 %438, 11
  store i64 %452, i64* %3, align 8
  %453 = inttoptr i64 %451 to i8*
  store i8 %449, i8* %453, align 1
  %.pre = load i64, i64* %3, align 8
  br label %block_.L_4cc4ed

block_.L_4cc4ed:                                  ; preds = %block_4cc4c0, %entry
  %454 = phi i64 [ %395, %entry ], [ %.pre, %block_4cc4c0 ]
  %MEMORY.0 = phi %struct.Memory* [ %call2_4cc4a9, %entry ], [ %call2_4cc4dd, %block_4cc4c0 ]
  %455 = load i64, i64* %RBP.i, align 8
  %456 = add i64 %455, -45
  %457 = add i64 %454, 3
  store i64 %457, i64* %3, align 8
  %458 = inttoptr i64 %456 to i8*
  %459 = load i8, i8* %458, align 1
  %460 = and i8 %459, 1
  %461 = zext i8 %460 to i64
  store i64 %461, i64* %RAX.i155, align 8
  %462 = load i64, i64* %6, align 8
  %463 = add i64 %462, 64
  store i64 %463, i64* %6, align 8
  %464 = icmp ugt i64 %462, -65
  %465 = zext i1 %464 to i8
  store i8 %465, i8* %14, align 1
  %466 = trunc i64 %463 to i32
  %467 = and i32 %466, 255
  %468 = tail call i32 @llvm.ctpop.i32(i32 %467)
  %469 = trunc i32 %468 to i8
  %470 = and i8 %469, 1
  %471 = xor i8 %470, 1
  store i8 %471, i8* %21, align 1
  %472 = xor i64 %463, %462
  %473 = lshr i64 %472, 4
  %474 = trunc i64 %473 to i8
  %475 = and i8 %474, 1
  store i8 %475, i8* %26, align 1
  %476 = icmp eq i64 %463, 0
  %477 = zext i1 %476 to i8
  store i8 %477, i8* %29, align 1
  %478 = lshr i64 %463, 63
  %479 = trunc i64 %478 to i8
  store i8 %479, i8* %32, align 1
  %480 = lshr i64 %462, 63
  %481 = xor i64 %478, %480
  %482 = add nuw nsw i64 %481, %478
  %483 = icmp eq i64 %482, 2
  %484 = zext i1 %483 to i8
  store i8 %484, i8* %38, align 1
  %485 = add i64 %454, 13
  store i64 %485, i64* %3, align 8
  %486 = add i64 %462, 72
  %487 = inttoptr i64 %463 to i64*
  %488 = load i64, i64* %487, align 8
  store i64 %488, i64* %RBP.i, align 8
  store i64 %486, i64* %6, align 8
  %489 = add i64 %454, 14
  store i64 %489, i64* %3, align 8
  %490 = inttoptr i64 %486 to i64*
  %491 = load i64, i64* %490, align 8
  store i64 %491, i64* %3, align 8
  %492 = add i64 %462, 80
  store i64 %492, i64* %6, align 8
  ret %struct.Memory* %MEMORY.0
}

; Function Attrs: norecurse nounwind
define %struct.Memory* @routine_pushq__rbp(%struct.State* nocapture dereferenceable(3376), i64, %struct.Memory* readnone returned) local_unnamed_addr #2 {
block_400488:
  %PC = getelementptr inbounds %struct.State, %struct.State* %0, i64 0, i32 6, i32 33, i32 0, i32 0
  %RBP = getelementptr inbounds %struct.State, %struct.State* %0, i64 0, i32 6, i32 15, i32 0, i32 0
  %3 = load i64, i64* %RBP, align 8
  %4 = load i64, i64* %PC, align 8
  %5 = add i64 %4, 1
  store i64 %5, i64* %PC, align 8
  %6 = getelementptr inbounds %struct.State, %struct.State* %0, i64 0, i32 6, i32 13, i32 0, i32 0
  %7 = load i64, i64* %6, align 8
  %8 = add i64 %7, -8
  %9 = inttoptr i64 %8 to i64*
  store i64 %3, i64* %9, align 8
  store i64 %8, i64* %6, align 8
  ret %struct.Memory* %2
}

; Function Attrs: norecurse nounwind
define %struct.Memory* @routine_movq__rsp___rbp(%struct.State* nocapture dereferenceable(3376), i64, %struct.Memory* readnone returned) local_unnamed_addr #2 {
block_400488:
  %PC = getelementptr inbounds %struct.State, %struct.State* %0, i64 0, i32 6, i32 33, i32 0, i32 0
  %RSP = getelementptr inbounds %struct.State, %struct.State* %0, i64 0, i32 6, i32 13, i32 0, i32 0
  %RBP = getelementptr inbounds %struct.State, %struct.State* %0, i64 0, i32 6, i32 15, i32 0, i32 0
  %3 = load i64, i64* %RSP, align 8
  %4 = load i64, i64* %PC, align 8
  %5 = add i64 %4, 3
  store i64 %5, i64* %PC, align 8
  store i64 %3, i64* %RBP, align 8
  ret %struct.Memory* %2
}

; Function Attrs: nounwind
define %struct.Memory* @routine_subq__0x40___rsp(%struct.State* nocapture dereferenceable(3376), i64, %struct.Memory* readnone returned) local_unnamed_addr #3 {
block_400488:
  %PC = getelementptr inbounds %struct.State, %struct.State* %0, i64 0, i32 6, i32 33, i32 0, i32 0
  %RSP = getelementptr inbounds %struct.State, %struct.State* %0, i64 0, i32 6, i32 13, i32 0, i32 0
  %3 = load i64, i64* %RSP, align 8
  %4 = load i64, i64* %PC, align 8
  %5 = add i64 %4, 4
  store i64 %5, i64* %PC, align 8
  %6 = add i64 %3, -64
  store i64 %6, i64* %RSP, align 8
  %7 = icmp ult i64 %3, 64
  %8 = zext i1 %7 to i8
  %9 = getelementptr inbounds %struct.State, %struct.State* %0, i64 0, i32 2, i32 1
  store i8 %8, i8* %9, align 1
  %10 = trunc i64 %6 to i32
  %11 = and i32 %10, 255
  %12 = tail call i32 @llvm.ctpop.i32(i32 %11)
  %13 = trunc i32 %12 to i8
  %14 = and i8 %13, 1
  %15 = xor i8 %14, 1
  %16 = getelementptr inbounds %struct.State, %struct.State* %0, i64 0, i32 2, i32 3
  store i8 %15, i8* %16, align 1
  %17 = xor i64 %6, %3
  %18 = lshr i64 %17, 4
  %19 = trunc i64 %18 to i8
  %20 = and i8 %19, 1
  %21 = getelementptr inbounds %struct.State, %struct.State* %0, i64 0, i32 2, i32 5
  store i8 %20, i8* %21, align 1
  %22 = icmp eq i64 %6, 0
  %23 = zext i1 %22 to i8
  %24 = getelementptr inbounds %struct.State, %struct.State* %0, i64 0, i32 2, i32 7
  store i8 %23, i8* %24, align 1
  %25 = lshr i64 %6, 63
  %26 = trunc i64 %25 to i8
  %27 = getelementptr inbounds %struct.State, %struct.State* %0, i64 0, i32 2, i32 9
  store i8 %26, i8* %27, align 1
  %28 = lshr i64 %3, 63
  %29 = xor i64 %25, %28
  %30 = add nuw nsw i64 %29, %28
  %31 = icmp eq i64 %30, 2
  %32 = zext i1 %31 to i8
  %33 = getelementptr inbounds %struct.State, %struct.State* %0, i64 0, i32 2, i32 13
  store i8 %32, i8* %33, align 1
  ret %struct.Memory* %2
}

; Function Attrs: norecurse nounwind
define %struct.Memory* @routine_movl__0x1___eax(%struct.State* nocapture dereferenceable(3376), i64, %struct.Memory* readnone returned) local_unnamed_addr #2 {
block_400488:
  %PC = getelementptr inbounds %struct.State, %struct.State* %0, i64 0, i32 6, i32 33, i32 0, i32 0
  %RAX = getelementptr inbounds %struct.State, %struct.State* %0, i64 0, i32 6, i32 1, i32 0, i32 0
  %3 = load i64, i64* %PC, align 8
  %4 = add i64 %3, 5
  store i64 %4, i64* %PC, align 8
  store i64 1, i64* %RAX, align 8
  ret %struct.Memory* %2
}

; Function Attrs: norecurse nounwind
define %struct.Memory* @routine_movl__0x4___r8d(%struct.State* nocapture dereferenceable(3376), i64, %struct.Memory* readnone returned) local_unnamed_addr #2 {
block_400488:
  %PC = getelementptr inbounds %struct.State, %struct.State* %0, i64 0, i32 6, i32 33, i32 0, i32 0
  %3 = getelementptr inbounds %struct.State, %struct.State* %0, i64 0, i32 6, i32 17, i32 0, i32 0
  %4 = load i64, i64* %PC, align 8
  %5 = add i64 %4, 6
  store i64 %5, i64* %PC, align 8
  store i64 4, i64* %3, align 8
  ret %struct.Memory* %2
}

; Function Attrs: norecurse nounwind
define %struct.Memory* @routine_movl__edi__MINUS0x4__rbp_(%struct.State* nocapture dereferenceable(3376), i64, %struct.Memory* readnone returned) local_unnamed_addr #2 {
block_400488:
  %PC = getelementptr inbounds %struct.State, %struct.State* %0, i64 0, i32 6, i32 33, i32 0, i32 0
  %3 = getelementptr inbounds %struct.State, %struct.State* %0, i64 0, i32 6, i32 11, i32 0
  %EDI = bitcast %union.anon* %3 to i32*
  %RBP = getelementptr inbounds %struct.State, %struct.State* %0, i64 0, i32 6, i32 15, i32 0, i32 0
  %4 = load i64, i64* %RBP, align 8
  %5 = add i64 %4, -4
  %6 = load i32, i32* %EDI, align 4
  %7 = load i64, i64* %PC, align 8
  %8 = add i64 %7, 3
  store i64 %8, i64* %PC, align 8
  %9 = inttoptr i64 %5 to i32*
  store i32 %6, i32* %9, align 4
  ret %struct.Memory* %2
}

; Function Attrs: norecurse nounwind
define %struct.Memory* @routine_movl__esi__MINUS0x8__rbp_(%struct.State* nocapture dereferenceable(3376), i64, %struct.Memory* readnone returned) local_unnamed_addr #2 {
block_400488:
  %PC = getelementptr inbounds %struct.State, %struct.State* %0, i64 0, i32 6, i32 33, i32 0, i32 0
  %3 = getelementptr inbounds %struct.State, %struct.State* %0, i64 0, i32 6, i32 9, i32 0
  %ESI = bitcast %union.anon* %3 to i32*
  %RBP = getelementptr inbounds %struct.State, %struct.State* %0, i64 0, i32 6, i32 15, i32 0, i32 0
  %4 = load i64, i64* %RBP, align 8
  %5 = add i64 %4, -8
  %6 = load i32, i32* %ESI, align 4
  %7 = load i64, i64* %PC, align 8
  %8 = add i64 %7, 3
  store i64 %8, i64* %PC, align 8
  %9 = inttoptr i64 %5 to i32*
  store i32 %6, i32* %9, align 4
  ret %struct.Memory* %2
}

; Function Attrs: norecurse nounwind
define %struct.Memory* @routine_movl__edx__MINUS0xc__rbp_(%struct.State* nocapture dereferenceable(3376), i64, %struct.Memory* readnone returned) local_unnamed_addr #2 {
block_400488:
  %PC = getelementptr inbounds %struct.State, %struct.State* %0, i64 0, i32 6, i32 33, i32 0, i32 0
  %3 = getelementptr inbounds %struct.State, %struct.State* %0, i64 0, i32 6, i32 7, i32 0
  %EDX = bitcast %union.anon* %3 to i32*
  %RBP = getelementptr inbounds %struct.State, %struct.State* %0, i64 0, i32 6, i32 15, i32 0, i32 0
  %4 = load i64, i64* %RBP, align 8
  %5 = add i64 %4, -12
  %6 = load i32, i32* %EDX, align 4
  %7 = load i64, i64* %PC, align 8
  %8 = add i64 %7, 3
  store i64 %8, i64* %PC, align 8
  %9 = inttoptr i64 %5 to i32*
  store i32 %6, i32* %9, align 4
  ret %struct.Memory* %2
}

; Function Attrs: norecurse nounwind
define %struct.Memory* @routine_movl__ecx__MINUS0x10__rbp_(%struct.State* nocapture dereferenceable(3376), i64, %struct.Memory* readnone returned) local_unnamed_addr #2 {
block_400488:
  %PC = getelementptr inbounds %struct.State, %struct.State* %0, i64 0, i32 6, i32 33, i32 0, i32 0
  %3 = getelementptr inbounds %struct.State, %struct.State* %0, i64 0, i32 6, i32 5, i32 0
  %ECX = bitcast %union.anon* %3 to i32*
  %RBP = getelementptr inbounds %struct.State, %struct.State* %0, i64 0, i32 6, i32 15, i32 0, i32 0
  %4 = load i64, i64* %RBP, align 8
  %5 = add i64 %4, -16
  %6 = load i32, i32* %ECX, align 4
  %7 = load i64, i64* %PC, align 8
  %8 = add i64 %7, 3
  store i64 %8, i64* %PC, align 8
  %9 = inttoptr i64 %5 to i32*
  store i32 %6, i32* %9, align 4
  ret %struct.Memory* %2
}

; Function Attrs: norecurse nounwind
define %struct.Memory* @routine_movslq_MINUS0x4__rbp____r9(%struct.State* nocapture dereferenceable(3376), i64, %struct.Memory* readnone returned) local_unnamed_addr #2 {
block_400488:
  %PC = getelementptr inbounds %struct.State, %struct.State* %0, i64 0, i32 6, i32 33, i32 0, i32 0
  %RBP = getelementptr inbounds %struct.State, %struct.State* %0, i64 0, i32 6, i32 15, i32 0, i32 0
  %R9 = getelementptr inbounds %struct.State, %struct.State* %0, i64 0, i32 6, i32 19, i32 0, i32 0
  %3 = load i64, i64* %RBP, align 8
  %4 = add i64 %3, -4
  %5 = load i64, i64* %PC, align 8
  %6 = add i64 %5, 4
  store i64 %6, i64* %PC, align 8
  %7 = inttoptr i64 %4 to i32*
  %8 = load i32, i32* %7, align 4
  %9 = sext i32 %8 to i64
  store i64 %9, i64* %R9, align 8
  ret %struct.Memory* %2
}

; Function Attrs: norecurse nounwind
define %struct.Memory* @routine_movl_0xb59910___r9_4____ecx(%struct.State* nocapture dereferenceable(3376), i64, %struct.Memory* readnone returned) local_unnamed_addr #2 {
block_400488:
  %PC = getelementptr inbounds %struct.State, %struct.State* %0, i64 0, i32 6, i32 33, i32 0, i32 0
  %RCX = getelementptr inbounds %struct.State, %struct.State* %0, i64 0, i32 6, i32 5, i32 0, i32 0
  %R9 = getelementptr inbounds %struct.State, %struct.State* %0, i64 0, i32 6, i32 19, i32 0, i32 0
  %3 = load i64, i64* %R9, align 8
  %4 = shl i64 %3, 2
  %5 = add i64 %4, 11901200
  %6 = load i64, i64* %PC, align 8
  %7 = add i64 %6, 8
  store i64 %7, i64* %PC, align 8
  %8 = inttoptr i64 %5 to i32*
  %9 = load i32, i32* %8, align 4
  %10 = zext i32 %9 to i64
  store i64 %10, i64* %RCX, align 8
  ret %struct.Memory* %2
}

; Function Attrs: nounwind
define %struct.Memory* @routine_addl_MINUS0x8__rbp____ecx(%struct.State* nocapture dereferenceable(3376), i64, %struct.Memory* readnone returned) local_unnamed_addr #3 {
block_400488:
  %PC = getelementptr inbounds %struct.State, %struct.State* %0, i64 0, i32 6, i32 33, i32 0, i32 0
  %RCX = getelementptr inbounds %struct.State, %struct.State* %0, i64 0, i32 6, i32 5, i32 0, i32 0
  %RBP = getelementptr inbounds %struct.State, %struct.State* %0, i64 0, i32 6, i32 15, i32 0, i32 0
  %3 = load i64, i64* %RCX, align 8
  %4 = load i64, i64* %RBP, align 8
  %5 = add i64 %4, -8
  %6 = load i64, i64* %PC, align 8
  %7 = add i64 %6, 3
  store i64 %7, i64* %PC, align 8
  %8 = trunc i64 %3 to i32
  %9 = inttoptr i64 %5 to i32*
  %10 = load i32, i32* %9, align 4
  %11 = add i32 %10, %8
  %12 = zext i32 %11 to i64
  store i64 %12, i64* %RCX, align 8
  %13 = icmp ult i32 %11, %8
  %14 = icmp ult i32 %11, %10
  %15 = or i1 %13, %14
  %16 = zext i1 %15 to i8
  %17 = getelementptr inbounds %struct.State, %struct.State* %0, i64 0, i32 2, i32 1
  store i8 %16, i8* %17, align 1
  %18 = and i32 %11, 255
  %19 = tail call i32 @llvm.ctpop.i32(i32 %18)
  %20 = trunc i32 %19 to i8
  %21 = and i8 %20, 1
  %22 = xor i8 %21, 1
  %23 = getelementptr inbounds %struct.State, %struct.State* %0, i64 0, i32 2, i32 3
  store i8 %22, i8* %23, align 1
  %24 = xor i32 %10, %8
  %25 = xor i32 %24, %11
  %26 = lshr i32 %25, 4
  %27 = trunc i32 %26 to i8
  %28 = and i8 %27, 1
  %29 = getelementptr inbounds %struct.State, %struct.State* %0, i64 0, i32 2, i32 5
  store i8 %28, i8* %29, align 1
  %30 = icmp eq i32 %11, 0
  %31 = zext i1 %30 to i8
  %32 = getelementptr inbounds %struct.State, %struct.State* %0, i64 0, i32 2, i32 7
  store i8 %31, i8* %32, align 1
  %33 = lshr i32 %11, 31
  %34 = trunc i32 %33 to i8
  %35 = getelementptr inbounds %struct.State, %struct.State* %0, i64 0, i32 2, i32 9
  store i8 %34, i8* %35, align 1
  %36 = lshr i32 %8, 31
  %37 = lshr i32 %10, 31
  %38 = xor i32 %33, %36
  %39 = xor i32 %33, %37
  %40 = add nuw nsw i32 %38, %39
  %41 = icmp eq i32 %40, 2
  %42 = zext i1 %41 to i8
  %43 = getelementptr inbounds %struct.State, %struct.State* %0, i64 0, i32 2, i32 13
  store i8 %42, i8* %43, align 1
  ret %struct.Memory* %2
}

; Function Attrs: norecurse nounwind
define %struct.Memory* @routine_movl__ecx__MINUS0x14__rbp_(%struct.State* nocapture dereferenceable(3376), i64, %struct.Memory* readnone returned) local_unnamed_addr #2 {
block_400488:
  %PC = getelementptr inbounds %struct.State, %struct.State* %0, i64 0, i32 6, i32 33, i32 0, i32 0
  %3 = getelementptr inbounds %struct.State, %struct.State* %0, i64 0, i32 6, i32 5, i32 0
  %ECX = bitcast %union.anon* %3 to i32*
  %RBP = getelementptr inbounds %struct.State, %struct.State* %0, i64 0, i32 6, i32 15, i32 0, i32 0
  %4 = load i64, i64* %RBP, align 8
  %5 = add i64 %4, -20
  %6 = load i32, i32* %ECX, align 4
  %7 = load i64, i64* %PC, align 8
  %8 = add i64 %7, 3
  store i64 %8, i64* %PC, align 8
  %9 = inttoptr i64 %5 to i32*
  store i32 %6, i32* %9, align 4
  ret %struct.Memory* %2
}

; Function Attrs: norecurse nounwind
define %struct.Memory* @routine_movl_0xb59930___r9_4____ecx(%struct.State* nocapture dereferenceable(3376), i64, %struct.Memory* readnone returned) local_unnamed_addr #2 {
block_400488:
  %PC = getelementptr inbounds %struct.State, %struct.State* %0, i64 0, i32 6, i32 33, i32 0, i32 0
  %RCX = getelementptr inbounds %struct.State, %struct.State* %0, i64 0, i32 6, i32 5, i32 0, i32 0
  %R9 = getelementptr inbounds %struct.State, %struct.State* %0, i64 0, i32 6, i32 19, i32 0, i32 0
  %3 = load i64, i64* %R9, align 8
  %4 = shl i64 %3, 2
  %5 = add i64 %4, 11901232
  %6 = load i64, i64* %PC, align 8
  %7 = add i64 %6, 8
  store i64 %7, i64* %PC, align 8
  %8 = inttoptr i64 %5 to i32*
  %9 = load i32, i32* %8, align 4
  %10 = zext i32 %9 to i64
  store i64 %10, i64* %RCX, align 8
  ret %struct.Memory* %2
}

; Function Attrs: norecurse nounwind
define %struct.Memory* @routine_movl__ecx__MINUS0x18__rbp_(%struct.State* nocapture dereferenceable(3376), i64, %struct.Memory* readnone returned) local_unnamed_addr #2 {
block_400488:
  %PC = getelementptr inbounds %struct.State, %struct.State* %0, i64 0, i32 6, i32 33, i32 0, i32 0
  %3 = getelementptr inbounds %struct.State, %struct.State* %0, i64 0, i32 6, i32 5, i32 0
  %ECX = bitcast %union.anon* %3 to i32*
  %RBP = getelementptr inbounds %struct.State, %struct.State* %0, i64 0, i32 6, i32 15, i32 0, i32 0
  %4 = load i64, i64* %RBP, align 8
  %5 = add i64 %4, -24
  %6 = load i32, i32* %ECX, align 4
  %7 = load i64, i64* %PC, align 8
  %8 = add i64 %7, 3
  store i64 %8, i64* %PC, align 8
  %9 = inttoptr i64 %5 to i32*
  store i32 %6, i32* %9, align 4
  ret %struct.Memory* %2
}

; Function Attrs: norecurse nounwind
define %struct.Memory* @routine_movl_0xb59490___r9_4____ecx(%struct.State* nocapture dereferenceable(3376), i64, %struct.Memory* readnone returned) local_unnamed_addr #2 {
block_400488:
  %PC = getelementptr inbounds %struct.State, %struct.State* %0, i64 0, i32 6, i32 33, i32 0, i32 0
  %RCX = getelementptr inbounds %struct.State, %struct.State* %0, i64 0, i32 6, i32 5, i32 0, i32 0
  %R9 = getelementptr inbounds %struct.State, %struct.State* %0, i64 0, i32 6, i32 19, i32 0, i32 0
  %3 = load i64, i64* %R9, align 8
  %4 = shl i64 %3, 2
  %5 = add i64 %4, 11900048
  %6 = load i64, i64* %PC, align 8
  %7 = add i64 %6, 8
  store i64 %7, i64* %PC, align 8
  %8 = inttoptr i64 %5 to i32*
  %9 = load i32, i32* %8, align 4
  %10 = zext i32 %9 to i64
  store i64 %10, i64* %RCX, align 8
  ret %struct.Memory* %2
}

; Function Attrs: norecurse nounwind
define %struct.Memory* @routine_movl__ecx__MINUS0x1c__rbp_(%struct.State* nocapture dereferenceable(3376), i64, %struct.Memory* readnone returned) local_unnamed_addr #2 {
block_400488:
  %PC = getelementptr inbounds %struct.State, %struct.State* %0, i64 0, i32 6, i32 33, i32 0, i32 0
  %3 = getelementptr inbounds %struct.State, %struct.State* %0, i64 0, i32 6, i32 5, i32 0
  %ECX = bitcast %union.anon* %3 to i32*
  %RBP = getelementptr inbounds %struct.State, %struct.State* %0, i64 0, i32 6, i32 15, i32 0, i32 0
  %4 = load i64, i64* %RBP, align 8
  %5 = add i64 %4, -28
  %6 = load i32, i32* %ECX, align 4
  %7 = load i64, i64* %PC, align 8
  %8 = add i64 %7, 3
  store i64 %8, i64* %PC, align 8
  %9 = inttoptr i64 %5 to i32*
  store i32 %6, i32* %9, align 4
  ret %struct.Memory* %2
}

; Function Attrs: norecurse nounwind
define %struct.Memory* @routine_movl_0xb5a230___r9_4____ecx(%struct.State* nocapture dereferenceable(3376), i64, %struct.Memory* readnone returned) local_unnamed_addr #2 {
block_400488:
  %PC = getelementptr inbounds %struct.State, %struct.State* %0, i64 0, i32 6, i32 33, i32 0, i32 0
  %RCX = getelementptr inbounds %struct.State, %struct.State* %0, i64 0, i32 6, i32 5, i32 0, i32 0
  %R9 = getelementptr inbounds %struct.State, %struct.State* %0, i64 0, i32 6, i32 19, i32 0, i32 0
  %3 = load i64, i64* %R9, align 8
  %4 = shl i64 %3, 2
  %5 = add i64 %4, 11903536
  %6 = load i64, i64* %PC, align 8
  %7 = add i64 %6, 8
  store i64 %7, i64* %PC, align 8
  %8 = inttoptr i64 %5 to i32*
  %9 = load i32, i32* %8, align 4
  %10 = zext i32 %9 to i64
  store i64 %10, i64* %RCX, align 8
  ret %struct.Memory* %2
}

; Function Attrs: norecurse nounwind
define %struct.Memory* @routine_movl__ecx__MINUS0x20__rbp_(%struct.State* nocapture dereferenceable(3376), i64, %struct.Memory* readnone returned) local_unnamed_addr #2 {
block_400488:
  %PC = getelementptr inbounds %struct.State, %struct.State* %0, i64 0, i32 6, i32 33, i32 0, i32 0
  %3 = getelementptr inbounds %struct.State, %struct.State* %0, i64 0, i32 6, i32 5, i32 0
  %ECX = bitcast %union.anon* %3 to i32*
  %RBP = getelementptr inbounds %struct.State, %struct.State* %0, i64 0, i32 6, i32 15, i32 0, i32 0
  %4 = load i64, i64* %RBP, align 8
  %5 = add i64 %4, -32
  %6 = load i32, i32* %ECX, align 4
  %7 = load i64, i64* %PC, align 8
  %8 = add i64 %7, 3
  store i64 %8, i64* %PC, align 8
  %9 = inttoptr i64 %5 to i32*
  store i32 %6, i32* %9, align 4
  ret %struct.Memory* %2
}

; Function Attrs: norecurse nounwind
define %struct.Memory* @routine_movl_0xb5a6f0___r9_4____ecx(%struct.State* nocapture dereferenceable(3376), i64, %struct.Memory* readnone returned) local_unnamed_addr #2 {
block_400488:
  %PC = getelementptr inbounds %struct.State, %struct.State* %0, i64 0, i32 6, i32 33, i32 0, i32 0
  %RCX = getelementptr inbounds %struct.State, %struct.State* %0, i64 0, i32 6, i32 5, i32 0, i32 0
  %R9 = getelementptr inbounds %struct.State, %struct.State* %0, i64 0, i32 6, i32 19, i32 0, i32 0
  %3 = load i64, i64* %R9, align 8
  %4 = shl i64 %3, 2
  %5 = add i64 %4, 11904752
  %6 = load i64, i64* %PC, align 8
  %7 = add i64 %6, 8
  store i64 %7, i64* %PC, align 8
  %8 = inttoptr i64 %5 to i32*
  %9 = load i32, i32* %8, align 4
  %10 = zext i32 %9 to i64
  store i64 %10, i64* %RCX, align 8
  ret %struct.Memory* %2
}

; Function Attrs: norecurse nounwind
define %struct.Memory* @routine_movl__ecx__MINUS0x24__rbp_(%struct.State* nocapture dereferenceable(3376), i64, %struct.Memory* readnone returned) local_unnamed_addr #2 {
block_400488:
  %PC = getelementptr inbounds %struct.State, %struct.State* %0, i64 0, i32 6, i32 33, i32 0, i32 0
  %3 = getelementptr inbounds %struct.State, %struct.State* %0, i64 0, i32 6, i32 5, i32 0
  %ECX = bitcast %union.anon* %3 to i32*
  %RBP = getelementptr inbounds %struct.State, %struct.State* %0, i64 0, i32 6, i32 15, i32 0, i32 0
  %4 = load i64, i64* %RBP, align 8
  %5 = add i64 %4, -36
  %6 = load i32, i32* %ECX, align 4
  %7 = load i64, i64* %PC, align 8
  %8 = add i64 %7, 3
  store i64 %8, i64* %PC, align 8
  %9 = inttoptr i64 %5 to i32*
  store i32 %6, i32* %9, align 4
  ret %struct.Memory* %2
}

; Function Attrs: norecurse nounwind
define %struct.Memory* @routine_movl_MINUS0xc__rbp____edi(%struct.State* nocapture dereferenceable(3376), i64, %struct.Memory* readnone returned) local_unnamed_addr #2 {
block_400488:
  %PC = getelementptr inbounds %struct.State, %struct.State* %0, i64 0, i32 6, i32 33, i32 0, i32 0
  %RDI = getelementptr inbounds %struct.State, %struct.State* %0, i64 0, i32 6, i32 11, i32 0, i32 0
  %RBP = getelementptr inbounds %struct.State, %struct.State* %0, i64 0, i32 6, i32 15, i32 0, i32 0
  %3 = load i64, i64* %RBP, align 8
  %4 = add i64 %3, -12
  %5 = load i64, i64* %PC, align 8
  %6 = add i64 %5, 3
  store i64 %6, i64* %PC, align 8
  %7 = inttoptr i64 %4 to i32*
  %8 = load i32, i32* %7, align 4
  %9 = zext i32 %8 to i64
  store i64 %9, i64* %RDI, align 8
  ret %struct.Memory* %2
}

; Function Attrs: norecurse nounwind
define %struct.Memory* @routine_movl_MINUS0x8__rbp____ecx(%struct.State* nocapture dereferenceable(3376), i64, %struct.Memory* readnone returned) local_unnamed_addr #2 {
block_400488:
  %PC = getelementptr inbounds %struct.State, %struct.State* %0, i64 0, i32 6, i32 33, i32 0, i32 0
  %RCX = getelementptr inbounds %struct.State, %struct.State* %0, i64 0, i32 6, i32 5, i32 0, i32 0
  %RBP = getelementptr inbounds %struct.State, %struct.State* %0, i64 0, i32 6, i32 15, i32 0, i32 0
  %3 = load i64, i64* %RBP, align 8
  %4 = add i64 %3, -8
  %5 = load i64, i64* %PC, align 8
  %6 = add i64 %5, 3
  store i64 %6, i64* %PC, align 8
  %7 = inttoptr i64 %4 to i32*
  %8 = load i32, i32* %7, align 4
  %9 = zext i32 %8 to i64
  store i64 %9, i64* %RCX, align 8
  ret %struct.Memory* %2
}

; Function Attrs: norecurse nounwind
define %struct.Memory* @routine_movl_MINUS0x14__rbp____edx(%struct.State* nocapture dereferenceable(3376), i64, %struct.Memory* readnone returned) local_unnamed_addr #2 {
block_400488:
  %PC = getelementptr inbounds %struct.State, %struct.State* %0, i64 0, i32 6, i32 33, i32 0, i32 0
  %RDX = getelementptr inbounds %struct.State, %struct.State* %0, i64 0, i32 6, i32 7, i32 0, i32 0
  %RBP = getelementptr inbounds %struct.State, %struct.State* %0, i64 0, i32 6, i32 15, i32 0, i32 0
  %3 = load i64, i64* %RBP, align 8
  %4 = add i64 %3, -20
  %5 = load i64, i64* %PC, align 8
  %6 = add i64 %5, 3
  store i64 %6, i64* %PC, align 8
  %7 = inttoptr i64 %4 to i32*
  %8 = load i32, i32* %7, align 4
  %9 = zext i32 %8 to i64
  store i64 %9, i64* %RDX, align 8
  ret %struct.Memory* %2
}

; Function Attrs: norecurse nounwind
define %struct.Memory* @routine_movl_MINUS0x18__rbp____r9d(%struct.State* nocapture dereferenceable(3376), i64, %struct.Memory* readnone returned) local_unnamed_addr #2 {
block_400488:
  %PC = getelementptr inbounds %struct.State, %struct.State* %0, i64 0, i32 6, i32 33, i32 0, i32 0
  %RBP = getelementptr inbounds %struct.State, %struct.State* %0, i64 0, i32 6, i32 15, i32 0, i32 0
  %3 = getelementptr inbounds %struct.State, %struct.State* %0, i64 0, i32 6, i32 19, i32 0, i32 0
  %4 = load i64, i64* %RBP, align 8
  %5 = add i64 %4, -24
  %6 = load i64, i64* %PC, align 8
  %7 = add i64 %6, 4
  store i64 %7, i64* %PC, align 8
  %8 = inttoptr i64 %5 to i32*
  %9 = load i32, i32* %8, align 4
  %10 = zext i32 %9 to i64
  store i64 %10, i64* %3, align 8
  ret %struct.Memory* %2
}

; Function Attrs: norecurse nounwind
define %struct.Memory* @routine_movl_MINUS0x1c__rbp____esi(%struct.State* nocapture dereferenceable(3376), i64, %struct.Memory* readnone returned) local_unnamed_addr #2 {
block_400488:
  %PC = getelementptr inbounds %struct.State, %struct.State* %0, i64 0, i32 6, i32 33, i32 0, i32 0
  %RSI = getelementptr inbounds %struct.State, %struct.State* %0, i64 0, i32 6, i32 9, i32 0, i32 0
  %RBP = getelementptr inbounds %struct.State, %struct.State* %0, i64 0, i32 6, i32 15, i32 0, i32 0
  %3 = load i64, i64* %RBP, align 8
  %4 = add i64 %3, -28
  %5 = load i64, i64* %PC, align 8
  %6 = add i64 %5, 3
  store i64 %6, i64* %PC, align 8
  %7 = inttoptr i64 %4 to i32*
  %8 = load i32, i32* %7, align 4
  %9 = zext i32 %8 to i64
  store i64 %9, i64* %RSI, align 8
  ret %struct.Memory* %2
}

; Function Attrs: norecurse nounwind
define %struct.Memory* @routine_movl_MINUS0x1c__rbp____r10d(%struct.State* nocapture dereferenceable(3376), i64, %struct.Memory* readnone returned) local_unnamed_addr #2 {
block_400488:
  %PC = getelementptr inbounds %struct.State, %struct.State* %0, i64 0, i32 6, i32 33, i32 0, i32 0
  %RBP = getelementptr inbounds %struct.State, %struct.State* %0, i64 0, i32 6, i32 15, i32 0, i32 0
  %3 = getelementptr inbounds %struct.State, %struct.State* %0, i64 0, i32 6, i32 21, i32 0, i32 0
  %4 = load i64, i64* %RBP, align 8
  %5 = add i64 %4, -28
  %6 = load i64, i64* %PC, align 8
  %7 = add i64 %6, 4
  store i64 %7, i64* %PC, align 8
  %8 = inttoptr i64 %5 to i32*
  %9 = load i32, i32* %8, align 4
  %10 = zext i32 %9 to i64
  store i64 %10, i64* %3, align 8
  ret %struct.Memory* %2
}

; Function Attrs: norecurse nounwind
define %struct.Memory* @routine_movl__esi__MINUS0x28__rbp_(%struct.State* nocapture dereferenceable(3376), i64, %struct.Memory* readnone returned) local_unnamed_addr #2 {
block_400488:
  %PC = getelementptr inbounds %struct.State, %struct.State* %0, i64 0, i32 6, i32 33, i32 0, i32 0
  %3 = getelementptr inbounds %struct.State, %struct.State* %0, i64 0, i32 6, i32 9, i32 0
  %ESI = bitcast %union.anon* %3 to i32*
  %RBP = getelementptr inbounds %struct.State, %struct.State* %0, i64 0, i32 6, i32 15, i32 0, i32 0
  %4 = load i64, i64* %RBP, align 8
  %5 = add i64 %4, -40
  %6 = load i32, i32* %ESI, align 4
  %7 = load i64, i64* %PC, align 8
  %8 = add i64 %7, 3
  store i64 %8, i64* %PC, align 8
  %9 = inttoptr i64 %5 to i32*
  store i32 %6, i32* %9, align 4
  ret %struct.Memory* %2
}

; Function Attrs: norecurse nounwind
define %struct.Memory* @routine_movl__eax___esi(%struct.State* nocapture dereferenceable(3376), i64, %struct.Memory* readnone returned) local_unnamed_addr #2 {
block_400488:
  %PC = getelementptr inbounds %struct.State, %struct.State* %0, i64 0, i32 6, i32 33, i32 0, i32 0
  %3 = getelementptr inbounds %struct.State, %struct.State* %0, i64 0, i32 6, i32 1, i32 0
  %EAX = bitcast %union.anon* %3 to i32*
  %RSI = getelementptr inbounds %struct.State, %struct.State* %0, i64 0, i32 6, i32 9, i32 0, i32 0
  %4 = load i32, i32* %EAX, align 4
  %5 = zext i32 %4 to i64
  %6 = load i64, i64* %PC, align 8
  %7 = add i64 %6, 2
  store i64 %7, i64* %PC, align 8
  store i64 %5, i64* %RSI, align 8
  ret %struct.Memory* %2
}

; Function Attrs: norecurse nounwind
define %struct.Memory* @routine_movl__edx__MINUS0x2c__rbp_(%struct.State* nocapture dereferenceable(3376), i64, %struct.Memory* readnone returned) local_unnamed_addr #2 {
block_400488:
  %PC = getelementptr inbounds %struct.State, %struct.State* %0, i64 0, i32 6, i32 33, i32 0, i32 0
  %3 = getelementptr inbounds %struct.State, %struct.State* %0, i64 0, i32 6, i32 7, i32 0
  %EDX = bitcast %union.anon* %3 to i32*
  %RBP = getelementptr inbounds %struct.State, %struct.State* %0, i64 0, i32 6, i32 15, i32 0, i32 0
  %4 = load i64, i64* %RBP, align 8
  %5 = add i64 %4, -44
  %6 = load i32, i32* %EDX, align 4
  %7 = load i64, i64* %PC, align 8
  %8 = add i64 %7, 3
  store i64 %8, i64* %PC, align 8
  %9 = inttoptr i64 %5 to i32*
  store i32 %6, i32* %9, align 4
  ret %struct.Memory* %2
}

; Function Attrs: norecurse nounwind
define %struct.Memory* @routine_movl__r8d___edx(%struct.State* nocapture dereferenceable(3376), i64, %struct.Memory* readnone returned) local_unnamed_addr #2 {
block_400488:
  %PC = getelementptr inbounds %struct.State, %struct.State* %0, i64 0, i32 6, i32 33, i32 0, i32 0
  %3 = getelementptr inbounds %struct.State, %struct.State* %0, i64 0, i32 6, i32 17, i32 0
  %R8D = bitcast %union.anon* %3 to i32*
  %RDX = getelementptr inbounds %struct.State, %struct.State* %0, i64 0, i32 6, i32 7, i32 0, i32 0
  %4 = load i32, i32* %R8D, align 4
  %5 = zext i32 %4 to i64
  %6 = load i64, i64* %PC, align 8
  %7 = add i64 %6, 3
  store i64 %7, i64* %PC, align 8
  store i64 %5, i64* %RDX, align 8
  ret %struct.Memory* %2
}

; Function Attrs: norecurse nounwind
define %struct.Memory* @routine_movl_MINUS0x2c__rbp____r8d(%struct.State* nocapture dereferenceable(3376), i64, %struct.Memory* readnone returned) local_unnamed_addr #2 {
block_400488:
  %PC = getelementptr inbounds %struct.State, %struct.State* %0, i64 0, i32 6, i32 33, i32 0, i32 0
  %RBP = getelementptr inbounds %struct.State, %struct.State* %0, i64 0, i32 6, i32 15, i32 0, i32 0
  %3 = getelementptr inbounds %struct.State, %struct.State* %0, i64 0, i32 6, i32 17, i32 0, i32 0
  %4 = load i64, i64* %RBP, align 8
  %5 = add i64 %4, -44
  %6 = load i64, i64* %PC, align 8
  %7 = add i64 %6, 4
  store i64 %7, i64* %PC, align 8
  %8 = inttoptr i64 %5 to i32*
  %9 = load i32, i32* %8, align 4
  %10 = zext i32 %9 to i64
  store i64 %10, i64* %3, align 8
  ret %struct.Memory* %2
}

; Function Attrs: norecurse nounwind
define %struct.Memory* @routine_movl_MINUS0x28__rbp____eax(%struct.State* nocapture dereferenceable(3376), i64, %struct.Memory* readnone returned) local_unnamed_addr #2 {
block_400488:
  %PC = getelementptr inbounds %struct.State, %struct.State* %0, i64 0, i32 6, i32 33, i32 0, i32 0
  %RAX = getelementptr inbounds %struct.State, %struct.State* %0, i64 0, i32 6, i32 1, i32 0, i32 0
  %RBP = getelementptr inbounds %struct.State, %struct.State* %0, i64 0, i32 6, i32 15, i32 0, i32 0
  %3 = load i64, i64* %RBP, align 8
  %4 = add i64 %3, -40
  %5 = load i64, i64* %PC, align 8
  %6 = add i64 %5, 3
  store i64 %6, i64* %PC, align 8
  %7 = inttoptr i64 %4 to i32*
  %8 = load i32, i32* %7, align 4
  %9 = zext i32 %8 to i64
  store i64 %9, i64* %RAX, align 8
  ret %struct.Memory* %2
}

; Function Attrs: norecurse nounwind
define %struct.Memory* @routine_movl__eax____rsp_(%struct.State* nocapture dereferenceable(3376), i64, %struct.Memory* readnone returned) local_unnamed_addr #2 {
block_400488:
  %PC = getelementptr inbounds %struct.State, %struct.State* %0, i64 0, i32 6, i32 33, i32 0, i32 0
  %3 = getelementptr inbounds %struct.State, %struct.State* %0, i64 0, i32 6, i32 1, i32 0
  %EAX = bitcast %union.anon* %3 to i32*
  %RSP = getelementptr inbounds %struct.State, %struct.State* %0, i64 0, i32 6, i32 13, i32 0, i32 0
  %4 = bitcast i64* %RSP to i32**
  %5 = load i32*, i32** %4, align 8
  %6 = load i32, i32* %EAX, align 4
  %7 = load i64, i64* %PC, align 8
  %8 = add i64 %7, 3
  store i64 %8, i64* %PC, align 8
  store i32 %6, i32* %5, align 4
  ret %struct.Memory* %2
}

; Function Attrs: norecurse nounwind
define %struct.Memory* @routine_movl__r10d__0x8__rsp_(%struct.State* nocapture dereferenceable(3376), i64, %struct.Memory* readnone returned) local_unnamed_addr #2 {
block_400488:
  %PC = getelementptr inbounds %struct.State, %struct.State* %0, i64 0, i32 6, i32 33, i32 0, i32 0
  %3 = getelementptr inbounds %struct.State, %struct.State* %0, i64 0, i32 6, i32 21, i32 0
  %R10D = bitcast %union.anon* %3 to i32*
  %RSP = getelementptr inbounds %struct.State, %struct.State* %0, i64 0, i32 6, i32 13, i32 0, i32 0
  %4 = load i64, i64* %RSP, align 8
  %5 = add i64 %4, 8
  %6 = load i32, i32* %R10D, align 4
  %7 = load i64, i64* %PC, align 8
  %8 = add i64 %7, 5
  store i64 %8, i64* %PC, align 8
  %9 = inttoptr i64 %5 to i32*
  store i32 %6, i32* %9, align 4
  ret %struct.Memory* %2
}

; Function Attrs: norecurse nounwind
define %struct.Memory* @routine_movb__0x0___al(%struct.State* nocapture dereferenceable(3376), i64, %struct.Memory* readnone returned) local_unnamed_addr #2 {
block_400488:
  %PC = getelementptr inbounds %struct.State, %struct.State* %0, i64 0, i32 6, i32 33, i32 0, i32 0
  %3 = getelementptr inbounds %struct.State, %struct.State* %0, i64 0, i32 6, i32 1, i32 0
  %AL = bitcast %union.anon* %3 to i8*
  %4 = load i64, i64* %PC, align 8
  %5 = add i64 %4, 2
  store i64 %5, i64* %PC, align 8
  store i8 0, i8* %AL, align 1
  ret %struct.Memory* %2
}

; Function Attrs: norecurse nounwind
define %struct.Memory* @routine_callq_.play_attack_defend_n(%struct.State* nocapture dereferenceable(3376), i64, %struct.Memory* readnone returned, i64 %rel_off1, i64 %rel_off2, i64 %rel_off3) local_unnamed_addr #2 {
block_400488:
  %PC = getelementptr inbounds %struct.State, %struct.State* %0, i64 0, i32 6, i32 33, i32 0, i32 0
  %3 = load i64, i64* %PC, align 8
  %4 = add i64 %3, %rel_off1
  %5 = add i64 %3, %rel_off2
  %6 = getelementptr inbounds %struct.State, %struct.State* %0, i64 0, i32 6, i32 13, i32 0, i32 0
  %7 = load i64, i64* %6, align 8
  %8 = add i64 %7, -8
  %9 = inttoptr i64 %8 to i64*
  store i64 %5, i64* %9, align 8
  store i64 %8, i64* %6, align 8
  store i64 %4, i64* %PC, align 8
  ret %struct.Memory* %2
}

; Function Attrs: nounwind
define %struct.Memory* @routine_xorl__ecx___ecx(%struct.State* nocapture dereferenceable(3376), i64, %struct.Memory* readnone returned) local_unnamed_addr #3 {
block_400488:
  %PC = getelementptr inbounds %struct.State, %struct.State* %0, i64 0, i32 6, i32 33, i32 0, i32 0
  %RCX = getelementptr inbounds %struct.State, %struct.State* %0, i64 0, i32 6, i32 5, i32 0, i32 0
  %3 = load i64, i64* %PC, align 8
  %4 = add i64 %3, 2
  store i64 %4, i64* %PC, align 8
  store i64 0, i64* %RCX, align 8
  %5 = getelementptr inbounds %struct.State, %struct.State* %0, i64 0, i32 2, i32 1
  store i8 0, i8* %5, align 1
  %6 = getelementptr inbounds %struct.State, %struct.State* %0, i64 0, i32 2, i32 3
  store i8 1, i8* %6, align 1
  %7 = getelementptr inbounds %struct.State, %struct.State* %0, i64 0, i32 2, i32 7
  store i8 1, i8* %7, align 1
  %8 = getelementptr inbounds %struct.State, %struct.State* %0, i64 0, i32 2, i32 9
  store i8 0, i8* %8, align 1
  %9 = getelementptr inbounds %struct.State, %struct.State* %0, i64 0, i32 2, i32 13
  store i8 0, i8* %9, align 1
  %10 = getelementptr inbounds %struct.State, %struct.State* %0, i64 0, i32 2, i32 5
  store i8 0, i8* %10, align 1
  ret %struct.Memory* %2
}

; Function Attrs: norecurse nounwind
define %struct.Memory* @routine_movb__cl___r11b(%struct.State* nocapture dereferenceable(3376), i64, %struct.Memory* readnone returned) local_unnamed_addr #2 {
block_400488:
  %PC = getelementptr inbounds %struct.State, %struct.State* %0, i64 0, i32 6, i32 33, i32 0, i32 0
  %3 = getelementptr inbounds %struct.State, %struct.State* %0, i64 0, i32 6, i32 5, i32 0
  %CL = bitcast %union.anon* %3 to i8*
  %4 = getelementptr inbounds %struct.State, %struct.State* %0, i64 0, i32 6, i32 23, i32 0
  %R11B = bitcast %union.anon* %4 to i8*
  %5 = load i8, i8* %CL, align 1
  %6 = load i64, i64* %PC, align 8
  %7 = add i64 %6, 3
  store i64 %7, i64* %PC, align 8
  store i8 %5, i8* %R11B, align 1
  ret %struct.Memory* %2
}

; Function Attrs: nounwind
define %struct.Memory* @routine_cmpl__0x0___eax(%struct.State* nocapture dereferenceable(3376), i64, %struct.Memory* readnone returned) local_unnamed_addr #3 {
block_400488:
  %PC = getelementptr inbounds %struct.State, %struct.State* %0, i64 0, i32 6, i32 33, i32 0, i32 0
  %3 = getelementptr inbounds %struct.State, %struct.State* %0, i64 0, i32 6, i32 1, i32 0
  %EAX = bitcast %union.anon* %3 to i32*
  %4 = load i32, i32* %EAX, align 4
  %5 = load i64, i64* %PC, align 8
  %6 = add i64 %5, 3
  store i64 %6, i64* %PC, align 8
  %7 = getelementptr inbounds %struct.State, %struct.State* %0, i64 0, i32 2, i32 1
  store i8 0, i8* %7, align 1
  %8 = and i32 %4, 255
  %9 = tail call i32 @llvm.ctpop.i32(i32 %8)
  %10 = trunc i32 %9 to i8
  %11 = and i8 %10, 1
  %12 = xor i8 %11, 1
  %13 = getelementptr inbounds %struct.State, %struct.State* %0, i64 0, i32 2, i32 3
  store i8 %12, i8* %13, align 1
  %14 = getelementptr inbounds %struct.State, %struct.State* %0, i64 0, i32 2, i32 5
  store i8 0, i8* %14, align 1
  %15 = icmp eq i32 %4, 0
  %16 = zext i1 %15 to i8
  %17 = getelementptr inbounds %struct.State, %struct.State* %0, i64 0, i32 2, i32 7
  store i8 %16, i8* %17, align 1
  %18 = lshr i32 %4, 31
  %19 = trunc i32 %18 to i8
  %20 = getelementptr inbounds %struct.State, %struct.State* %0, i64 0, i32 2, i32 9
  store i8 %19, i8* %20, align 1
  %21 = getelementptr inbounds %struct.State, %struct.State* %0, i64 0, i32 2, i32 13
  store i8 0, i8* %21, align 1
  ret %struct.Memory* %2
}

; Function Attrs: norecurse nounwind
define %struct.Memory* @routine_movb__r11b__MINUS0x2d__rbp_(%struct.State* nocapture dereferenceable(3376), i64, %struct.Memory* readnone returned) local_unnamed_addr #2 {
block_400488:
  %PC = getelementptr inbounds %struct.State, %struct.State* %0, i64 0, i32 6, i32 33, i32 0, i32 0
  %3 = getelementptr inbounds %struct.State, %struct.State* %0, i64 0, i32 6, i32 23, i32 0
  %R11B = bitcast %union.anon* %3 to i8*
  %RBP = getelementptr inbounds %struct.State, %struct.State* %0, i64 0, i32 6, i32 15, i32 0, i32 0
  %4 = load i64, i64* %RBP, align 8
  %5 = add i64 %4, -45
  %6 = load i8, i8* %R11B, align 1
  %7 = load i64, i64* %PC, align 8
  %8 = add i64 %7, 4
  store i64 %8, i64* %PC, align 8
  %9 = inttoptr i64 %5 to i8*
  store i8 %6, i8* %9, align 1
  ret %struct.Memory* %2
}

; Function Attrs: norecurse nounwind
define %struct.Memory* @routine_je_.L_4cc4ed(%struct.State* nocapture dereferenceable(3376), i64, %struct.Memory* readnone returned, i8* nocapture %BRANCH_TAKEN, i64 %rel_off1, i64 %rel_off2, i64 %rel_off3) local_unnamed_addr #2 {
block_400488:
  %PC = getelementptr inbounds %struct.State, %struct.State* %0, i64 0, i32 6, i32 33, i32 0, i32 0
  %3 = load i64, i64* %PC, align 8
  %4 = getelementptr inbounds %struct.State, %struct.State* %0, i64 0, i32 2, i32 7
  %5 = load i8, i8* %4, align 1
  store i8 %5, i8* %BRANCH_TAKEN, align 1
  %6 = icmp ne i8 %5, 0
  %.v = select i1 %6, i64 %rel_off1, i64 %rel_off2
  %7 = add i64 %.v, %3
  store i64 %7, i64* %PC, align 8
  ret %struct.Memory* %2
}

; Function Attrs: norecurse nounwind
define %struct.Memory* @routine_movl__0x1___esi(%struct.State* nocapture dereferenceable(3376), i64, %struct.Memory* readnone returned) local_unnamed_addr #2 {
block_400488:
  %PC = getelementptr inbounds %struct.State, %struct.State* %0, i64 0, i32 6, i32 33, i32 0, i32 0
  %RSI = getelementptr inbounds %struct.State, %struct.State* %0, i64 0, i32 6, i32 9, i32 0, i32 0
  %3 = load i64, i64* %PC, align 8
  %4 = add i64 %3, 5
  store i64 %4, i64* %PC, align 8
  store i64 1, i64* %RSI, align 8
  ret %struct.Memory* %2
}

; Function Attrs: norecurse nounwind
define %struct.Memory* @routine_movl__0x2___edx(%struct.State* nocapture dereferenceable(3376), i64, %struct.Memory* readnone returned) local_unnamed_addr #2 {
block_400488:
  %PC = getelementptr inbounds %struct.State, %struct.State* %0, i64 0, i32 6, i32 33, i32 0, i32 0
  %RDX = getelementptr inbounds %struct.State, %struct.State* %0, i64 0, i32 6, i32 7, i32 0, i32 0
  %3 = load i64, i64* %PC, align 8
  %4 = add i64 %3, 5
  store i64 %4, i64* %PC, align 8
  store i64 2, i64* %RDX, align 8
  ret %struct.Memory* %2
}

; Function Attrs: norecurse nounwind
define %struct.Memory* @routine_movl__0x3___eax(%struct.State* nocapture dereferenceable(3376), i64, %struct.Memory* readnone returned) local_unnamed_addr #2 {
block_400488:
  %PC = getelementptr inbounds %struct.State, %struct.State* %0, i64 0, i32 6, i32 33, i32 0, i32 0
  %RAX = getelementptr inbounds %struct.State, %struct.State* %0, i64 0, i32 6, i32 1, i32 0, i32 0
  %3 = load i64, i64* %PC, align 8
  %4 = add i64 %3, 5
  store i64 %4, i64* %PC, align 8
  store i64 3, i64* %RAX, align 8
  ret %struct.Memory* %2
}

; Function Attrs: nounwind
define %struct.Memory* @routine_subl_MINUS0xc__rbp____eax(%struct.State* nocapture dereferenceable(3376), i64, %struct.Memory* readnone returned) local_unnamed_addr #3 {
block_400488:
  %PC = getelementptr inbounds %struct.State, %struct.State* %0, i64 0, i32 6, i32 33, i32 0, i32 0
  %RAX = getelementptr inbounds %struct.State, %struct.State* %0, i64 0, i32 6, i32 1, i32 0, i32 0
  %RBP = getelementptr inbounds %struct.State, %struct.State* %0, i64 0, i32 6, i32 15, i32 0, i32 0
  %3 = load i64, i64* %RAX, align 8
  %4 = load i64, i64* %RBP, align 8
  %5 = add i64 %4, -12
  %6 = load i64, i64* %PC, align 8
  %7 = add i64 %6, 3
  store i64 %7, i64* %PC, align 8
  %8 = trunc i64 %3 to i32
  %9 = inttoptr i64 %5 to i32*
  %10 = load i32, i32* %9, align 4
  %11 = sub i32 %8, %10
  %12 = zext i32 %11 to i64
  store i64 %12, i64* %RAX, align 8
  %13 = icmp ult i32 %8, %10
  %14 = zext i1 %13 to i8
  %15 = getelementptr inbounds %struct.State, %struct.State* %0, i64 0, i32 2, i32 1
  store i8 %14, i8* %15, align 1
  %16 = and i32 %11, 255
  %17 = tail call i32 @llvm.ctpop.i32(i32 %16)
  %18 = trunc i32 %17 to i8
  %19 = and i8 %18, 1
  %20 = xor i8 %19, 1
  %21 = getelementptr inbounds %struct.State, %struct.State* %0, i64 0, i32 2, i32 3
  store i8 %20, i8* %21, align 1
  %22 = xor i32 %10, %8
  %23 = xor i32 %22, %11
  %24 = lshr i32 %23, 4
  %25 = trunc i32 %24 to i8
  %26 = and i8 %25, 1
  %27 = getelementptr inbounds %struct.State, %struct.State* %0, i64 0, i32 2, i32 5
  store i8 %26, i8* %27, align 1
  %28 = icmp eq i32 %11, 0
  %29 = zext i1 %28 to i8
  %30 = getelementptr inbounds %struct.State, %struct.State* %0, i64 0, i32 2, i32 7
  store i8 %29, i8* %30, align 1
  %31 = lshr i32 %11, 31
  %32 = trunc i32 %31 to i8
  %33 = getelementptr inbounds %struct.State, %struct.State* %0, i64 0, i32 2, i32 9
  store i8 %32, i8* %33, align 1
  %34 = lshr i32 %8, 31
  %35 = lshr i32 %10, 31
  %36 = xor i32 %35, %34
  %37 = xor i32 %31, %34
  %38 = add nuw nsw i32 %37, %36
  %39 = icmp eq i32 %38, 2
  %40 = zext i1 %39 to i8
  %41 = getelementptr inbounds %struct.State, %struct.State* %0, i64 0, i32 2, i32 13
  store i8 %40, i8* %41, align 1
  ret %struct.Memory* %2
}

; Function Attrs: norecurse nounwind
define %struct.Memory* @routine_movl_MINUS0x20__rbp____ecx(%struct.State* nocapture dereferenceable(3376), i64, %struct.Memory* readnone returned) local_unnamed_addr #2 {
block_400488:
  %PC = getelementptr inbounds %struct.State, %struct.State* %0, i64 0, i32 6, i32 33, i32 0, i32 0
  %RCX = getelementptr inbounds %struct.State, %struct.State* %0, i64 0, i32 6, i32 5, i32 0, i32 0
  %RBP = getelementptr inbounds %struct.State, %struct.State* %0, i64 0, i32 6, i32 15, i32 0, i32 0
  %3 = load i64, i64* %RBP, align 8
  %4 = add i64 %3, -32
  %5 = load i64, i64* %PC, align 8
  %6 = add i64 %5, 3
  store i64 %6, i64* %PC, align 8
  %7 = inttoptr i64 %4 to i32*
  %8 = load i32, i32* %7, align 4
  %9 = zext i32 %8 to i64
  store i64 %9, i64* %RCX, align 8
  ret %struct.Memory* %2
}

; Function Attrs: norecurse nounwind
define %struct.Memory* @routine_movl_MINUS0x24__rbp____r8d(%struct.State* nocapture dereferenceable(3376), i64, %struct.Memory* readnone returned) local_unnamed_addr #2 {
block_400488:
  %PC = getelementptr inbounds %struct.State, %struct.State* %0, i64 0, i32 6, i32 33, i32 0, i32 0
  %RBP = getelementptr inbounds %struct.State, %struct.State* %0, i64 0, i32 6, i32 15, i32 0, i32 0
  %3 = getelementptr inbounds %struct.State, %struct.State* %0, i64 0, i32 6, i32 17, i32 0, i32 0
  %4 = load i64, i64* %RBP, align 8
  %5 = add i64 %4, -36
  %6 = load i64, i64* %PC, align 8
  %7 = add i64 %6, 4
  store i64 %7, i64* %PC, align 8
  %8 = inttoptr i64 %5 to i32*
  %9 = load i32, i32* %8, align 4
  %10 = zext i32 %9 to i64
  store i64 %10, i64* %3, align 8
  ret %struct.Memory* %2
}

; Function Attrs: norecurse nounwind
define %struct.Memory* @routine_movl__eax___edi(%struct.State* nocapture dereferenceable(3376), i64, %struct.Memory* readnone returned) local_unnamed_addr #2 {
block_400488:
  %PC = getelementptr inbounds %struct.State, %struct.State* %0, i64 0, i32 6, i32 33, i32 0, i32 0
  %3 = getelementptr inbounds %struct.State, %struct.State* %0, i64 0, i32 6, i32 1, i32 0
  %EAX = bitcast %union.anon* %3 to i32*
  %RDI = getelementptr inbounds %struct.State, %struct.State* %0, i64 0, i32 6, i32 11, i32 0, i32 0
  %4 = load i32, i32* %EAX, align 4
  %5 = zext i32 %4 to i64
  %6 = load i64, i64* %PC, align 8
  %7 = add i64 %6, 2
  store i64 %7, i64* %PC, align 8
  store i64 %5, i64* %RDI, align 8
  ret %struct.Memory* %2
}

; Function Attrs: norecurse nounwind
define %struct.Memory* @routine_callq_.somewhere(%struct.State* nocapture dereferenceable(3376), i64, %struct.Memory* readnone returned, i64 %rel_off1, i64 %rel_off2, i64 %rel_off3) local_unnamed_addr #2 {
block_400488:
  %PC = getelementptr inbounds %struct.State, %struct.State* %0, i64 0, i32 6, i32 33, i32 0, i32 0
  %3 = load i64, i64* %PC, align 8
  %4 = add i64 %3, %rel_off1
  %5 = add i64 %3, %rel_off2
  %6 = getelementptr inbounds %struct.State, %struct.State* %0, i64 0, i32 6, i32 13, i32 0, i32 0
  %7 = load i64, i64* %6, align 8
  %8 = add i64 %7, -8
  %9 = inttoptr i64 %8 to i64*
  store i64 %5, i64* %9, align 8
  store i64 %8, i64* %6, align 8
  store i64 %4, i64* %PC, align 8
  ret %struct.Memory* %2
}

; Function Attrs: norecurse nounwind
define %struct.Memory* @routine_setne__r9b(%struct.State* nocapture dereferenceable(3376), i64, %struct.Memory* readnone returned) local_unnamed_addr #2 {
block_400488:
  %PC = getelementptr inbounds %struct.State, %struct.State* %0, i64 0, i32 6, i32 33, i32 0, i32 0
  %3 = getelementptr inbounds %struct.State, %struct.State* %0, i64 0, i32 6, i32 19, i32 0
  %R9B = bitcast %union.anon* %3 to i8*
  %4 = load i64, i64* %PC, align 8
  %5 = add i64 %4, 4
  store i64 %5, i64* %PC, align 8
  %6 = getelementptr inbounds %struct.State, %struct.State* %0, i64 0, i32 2, i32 7
  %7 = load i8, i8* %6, align 1
  %8 = icmp eq i8 %7, 0
  %9 = zext i1 %8 to i8
  store i8 %9, i8* %R9B, align 1
  ret %struct.Memory* %2
}

; Function Attrs: norecurse nounwind
define %struct.Memory* @routine_movb__r9b__MINUS0x2d__rbp_(%struct.State* nocapture dereferenceable(3376), i64, %struct.Memory* readnone returned) local_unnamed_addr #2 {
block_400488:
  %PC = getelementptr inbounds %struct.State, %struct.State* %0, i64 0, i32 6, i32 33, i32 0, i32 0
  %3 = getelementptr inbounds %struct.State, %struct.State* %0, i64 0, i32 6, i32 19, i32 0
  %R9B = bitcast %union.anon* %3 to i8*
  %RBP = getelementptr inbounds %struct.State, %struct.State* %0, i64 0, i32 6, i32 15, i32 0, i32 0
  %4 = load i64, i64* %RBP, align 8
  %5 = add i64 %4, -45
  %6 = load i8, i8* %R9B, align 1
  %7 = load i64, i64* %PC, align 8
  %8 = add i64 %7, 4
  store i64 %8, i64* %PC, align 8
  %9 = inttoptr i64 %5 to i8*
  store i8 %6, i8* %9, align 1
  ret %struct.Memory* %2
}

; Function Attrs: norecurse nounwind
define %struct.Memory* @routine_movb_MINUS0x2d__rbp____al(%struct.State* nocapture dereferenceable(3376), i64, %struct.Memory* readnone returned) local_unnamed_addr #2 {
block_400488:
  %PC = getelementptr inbounds %struct.State, %struct.State* %0, i64 0, i32 6, i32 33, i32 0, i32 0
  %3 = getelementptr inbounds %struct.State, %struct.State* %0, i64 0, i32 6, i32 1, i32 0
  %AL = bitcast %union.anon* %3 to i8*
  %RBP = getelementptr inbounds %struct.State, %struct.State* %0, i64 0, i32 6, i32 15, i32 0, i32 0
  %4 = load i64, i64* %RBP, align 8
  %5 = add i64 %4, -45
  %6 = load i64, i64* %PC, align 8
  %7 = add i64 %6, 3
  store i64 %7, i64* %PC, align 8
  %8 = inttoptr i64 %5 to i8*
  %9 = load i8, i8* %8, align 1
  store i8 %9, i8* %AL, align 1
  ret %struct.Memory* %2
}

; Function Attrs: nounwind
define %struct.Memory* @routine_andb__0x1___al(%struct.State* nocapture dereferenceable(3376), i64, %struct.Memory* readnone returned) local_unnamed_addr #3 {
block_400488:
  %PC = getelementptr inbounds %struct.State, %struct.State* %0, i64 0, i32 6, i32 33, i32 0, i32 0
  %3 = getelementptr inbounds %struct.State, %struct.State* %0, i64 0, i32 6, i32 1, i32 0
  %AL = bitcast %union.anon* %3 to i8*
  %4 = load i8, i8* %AL, align 1
  %5 = load i64, i64* %PC, align 8
  %6 = add i64 %5, 2
  store i64 %6, i64* %PC, align 8
  %7 = and i8 %4, 1
  store i8 %7, i8* %AL, align 1
  %8 = getelementptr inbounds %struct.State, %struct.State* %0, i64 0, i32 2, i32 1
  store i8 0, i8* %8, align 1
  %9 = zext i8 %7 to i32
  %10 = tail call i32 @llvm.ctpop.i32(i32 %9)
  %11 = trunc i32 %10 to i8
  %12 = xor i8 %11, 1
  %13 = getelementptr inbounds %struct.State, %struct.State* %0, i64 0, i32 2, i32 3
  store i8 %12, i8* %13, align 1
  %14 = xor i8 %7, 1
  %15 = getelementptr inbounds %struct.State, %struct.State* %0, i64 0, i32 2, i32 7
  store i8 %14, i8* %15, align 1
  %16 = getelementptr inbounds %struct.State, %struct.State* %0, i64 0, i32 2, i32 9
  store i8 0, i8* %16, align 1
  %17 = getelementptr inbounds %struct.State, %struct.State* %0, i64 0, i32 2, i32 13
  store i8 0, i8* %17, align 1
  %18 = getelementptr inbounds %struct.State, %struct.State* %0, i64 0, i32 2, i32 5
  store i8 0, i8* %18, align 1
  ret %struct.Memory* %2
}

; Function Attrs: norecurse nounwind
define %struct.Memory* @routine_movzbl__al___eax(%struct.State* nocapture dereferenceable(3376), i64, %struct.Memory* readnone returned) local_unnamed_addr #2 {
block_400488:
  %PC = getelementptr inbounds %struct.State, %struct.State* %0, i64 0, i32 6, i32 33, i32 0, i32 0
  %3 = getelementptr inbounds %struct.State, %struct.State* %0, i64 0, i32 6, i32 1, i32 0
  %AL = bitcast %union.anon* %3 to i8*
  %RAX = getelementptr inbounds %union.anon, %union.anon* %3, i64 0, i32 0
  %4 = load i8, i8* %AL, align 1
  %5 = zext i8 %4 to i64
  %6 = load i64, i64* %PC, align 8
  %7 = add i64 %6, 3
  store i64 %7, i64* %PC, align 8
  store i64 %5, i64* %RAX, align 8
  ret %struct.Memory* %2
}

; Function Attrs: nounwind
define %struct.Memory* @routine_addq__0x40___rsp(%struct.State* nocapture dereferenceable(3376), i64, %struct.Memory* readnone returned) local_unnamed_addr #3 {
block_400488:
  %PC = getelementptr inbounds %struct.State, %struct.State* %0, i64 0, i32 6, i32 33, i32 0, i32 0
  %RSP = getelementptr inbounds %struct.State, %struct.State* %0, i64 0, i32 6, i32 13, i32 0, i32 0
  %3 = load i64, i64* %RSP, align 8
  %4 = load i64, i64* %PC, align 8
  %5 = add i64 %4, 4
  store i64 %5, i64* %PC, align 8
  %6 = add i64 %3, 64
  store i64 %6, i64* %RSP, align 8
  %7 = icmp ugt i64 %3, -65
  %8 = zext i1 %7 to i8
  %9 = getelementptr inbounds %struct.State, %struct.State* %0, i64 0, i32 2, i32 1
  store i8 %8, i8* %9, align 1
  %10 = trunc i64 %6 to i32
  %11 = and i32 %10, 255
  %12 = tail call i32 @llvm.ctpop.i32(i32 %11)
  %13 = trunc i32 %12 to i8
  %14 = and i8 %13, 1
  %15 = xor i8 %14, 1
  %16 = getelementptr inbounds %struct.State, %struct.State* %0, i64 0, i32 2, i32 3
  store i8 %15, i8* %16, align 1
  %17 = xor i64 %6, %3
  %18 = lshr i64 %17, 4
  %19 = trunc i64 %18 to i8
  %20 = and i8 %19, 1
  %21 = getelementptr inbounds %struct.State, %struct.State* %0, i64 0, i32 2, i32 5
  store i8 %20, i8* %21, align 1
  %22 = icmp eq i64 %6, 0
  %23 = zext i1 %22 to i8
  %24 = getelementptr inbounds %struct.State, %struct.State* %0, i64 0, i32 2, i32 7
  store i8 %23, i8* %24, align 1
  %25 = lshr i64 %6, 63
  %26 = trunc i64 %25 to i8
  %27 = getelementptr inbounds %struct.State, %struct.State* %0, i64 0, i32 2, i32 9
  store i8 %26, i8* %27, align 1
  %28 = lshr i64 %3, 63
  %29 = xor i64 %25, %28
  %30 = add nuw nsw i64 %29, %25
  %31 = icmp eq i64 %30, 2
  %32 = zext i1 %31 to i8
  %33 = getelementptr inbounds %struct.State, %struct.State* %0, i64 0, i32 2, i32 13
  store i8 %32, i8* %33, align 1
  ret %struct.Memory* %2
}

; Function Attrs: norecurse nounwind
define %struct.Memory* @routine_popq__rbp(%struct.State* nocapture dereferenceable(3376), i64, %struct.Memory* readnone returned) local_unnamed_addr #2 {
block_400488:
  %PC = getelementptr inbounds %struct.State, %struct.State* %0, i64 0, i32 6, i32 33, i32 0, i32 0
  %RBP = getelementptr inbounds %struct.State, %struct.State* %0, i64 0, i32 6, i32 15, i32 0, i32 0
  %3 = load i64, i64* %PC, align 8
  %4 = add i64 %3, 1
  store i64 %4, i64* %PC, align 8
  %5 = getelementptr inbounds %struct.State, %struct.State* %0, i64 0, i32 6, i32 13, i32 0, i32 0
  %6 = load i64, i64* %5, align 8
  %7 = add i64 %6, 8
  %8 = inttoptr i64 %6 to i64*
  %9 = load i64, i64* %8, align 8
  store i64 %9, i64* %RBP, align 8
  store i64 %7, i64* %5, align 8
  ret %struct.Memory* %2
}

; Function Attrs: norecurse nounwind
define %struct.Memory* @routine_retq(%struct.State* nocapture dereferenceable(3376), i64, %struct.Memory* readnone returned) local_unnamed_addr #2 {
block_400488:
  %PC = getelementptr inbounds %struct.State, %struct.State* %0, i64 0, i32 6, i32 33, i32 0, i32 0
  %3 = load i64, i64* %PC, align 8
  %4 = add i64 %3, 1
  store i64 %4, i64* %PC, align 8
  %5 = getelementptr inbounds %struct.State, %struct.State* %0, i64 0, i32 6, i32 13, i32 0, i32 0
  %6 = load i64, i64* %5, align 8
  %7 = inttoptr i64 %6 to i64*
  %8 = load i64, i64* %7, align 8
  store i64 %8, i64* %PC, align 8
  %9 = add i64 %6, 8
  store i64 %9, i64* %5, align 8
  ret %struct.Memory* %2
}

attributes #0 = { nounwind readnone }
attributes #1 = { alwaysinline }
attributes #2 = { norecurse nounwind }
attributes #3 = { nounwind }
