; ModuleID = 'mcsema/test.proposed.inline.ll'
source_filename = "llvm-link"
target datalayout = "e-m:e-i64:64-f80:128-n8:16:32:64-S128"
target triple = "x86_64-pc-linux-gnu-elf"

%__bss_start_type = type <{ [8 x i8] }>
%G__0x4c2055_type = type <{ [8 x i8] }>
%struct.State = type { %struct.ArchState, [32 x %union.VectorReg], %struct.ArithFlags, %union.anon, %struct.Segments, %struct.AddressSpace, %struct.GPR, %struct.X87Stack, %struct.MMX, %struct.FPUStatusFlags, %union.anon, %union.FPU, %struct.SegmentCaches }
%struct.ArchState = type { i32, i32, %union.anon }
%union.VectorReg = type { %union.vec512_t }
%union.vec512_t = type { %struct.uint64v8_t }
%struct.uint64v8_t = type { [8 x i64] }
%struct.ArithFlags = type { i8, i8, i8, i8, i8, i8, i8, i8, i8, i8, i8, i8, i8, i8, i8, i8 }
%struct.Segments = type { i16, %union.SegmentSelector, i16, %union.SegmentSelector, i16, %union.SegmentSelector, i16, %union.SegmentSelector, i16, %union.SegmentSelector, i16, %union.SegmentSelector }
%union.SegmentSelector = type { i16 }
%struct.AddressSpace = type { i64, %struct.Reg, i64, %struct.Reg, i64, %struct.Reg, i64, %struct.Reg, i64, %struct.Reg, i64, %struct.Reg }
%struct.Reg = type { %union.anon }
%struct.GPR = type { i64, %struct.Reg, i64, %struct.Reg, i64, %struct.Reg, i64, %struct.Reg, i64, %struct.Reg, i64, %struct.Reg, i64, %struct.Reg, i64, %struct.Reg, i64, %struct.Reg, i64, %struct.Reg, i64, %struct.Reg, i64, %struct.Reg, i64, %struct.Reg, i64, %struct.Reg, i64, %struct.Reg, i64, %struct.Reg, i64, %struct.Reg }
%struct.X87Stack = type { [8 x %struct.anon.3] }
%struct.anon.3 = type { i64, double }
%struct.MMX = type { [8 x %struct.anon.4] }
%struct.anon.4 = type { i64, %union.vec64_t }
%union.vec64_t = type { %struct.uint64v1_t }
%struct.uint64v1_t = type { [1 x i64] }
%struct.FPUStatusFlags = type { i8, i8, i8, i8, i8, i8, i8, i8, i8, i8, i8, i8, i8, i8, i8, i8, i8, i8, i8, i8, [4 x i8] }
%union.anon = type { i64 }
%union.FPU = type { %struct.anon.13 }
%struct.anon.13 = type { %struct.FpuFXSAVE, [96 x i8] }
%struct.FpuFXSAVE = type { %union.SegmentSelector, %union.SegmentSelector, %union.FPUAbridgedTagWord, i8, i16, i32, %union.SegmentSelector, i16, i32, %union.SegmentSelector, i16, %union.FPUControlStatus, %union.FPUControlStatus, [8 x %struct.FPUStackElem], [16 x %union.vec128_t] }
%union.FPUAbridgedTagWord = type { i8 }
%union.FPUControlStatus = type { i32 }
%struct.FPUStackElem = type { %union.anon.11, [6 x i8] }
%union.anon.11 = type { %struct.float80_t }
%struct.float80_t = type { [10 x i8] }
%union.vec128_t = type { %struct.uint128v1_t }
%struct.uint128v1_t = type { [1 x i128] }
%struct.SegmentCaches = type { %struct.SegmentShadow, %struct.SegmentShadow, %struct.SegmentShadow, %struct.SegmentShadow, %struct.SegmentShadow, %struct.SegmentShadow }
%struct.SegmentShadow = type { %union.anon, i32, i32 }
%struct.Memory = type opaque

@__bss_start = local_unnamed_addr global %__bss_start_type zeroinitializer
@G__0x4c2055 = global %G__0x4c2055_type zeroinitializer

; Function Attrs: nounwind readnone
declare i32 @llvm.ctpop.i32(i32) #0

declare extern_weak x86_64_sysvcc i64 @calloc(i64, i64)

declare %struct.Memory* @__remill_function_call(%struct.State* dereferenceable(3376), i64, %struct.Memory*) local_unnamed_addr

declare %struct.Memory* @sub_4593f0.no_mem_exit(%struct.State* noalias dereferenceable(3376), i64, %struct.Memory* noalias readnone returned) local_unnamed_addr

; Function Attrs: alwaysinline
define %struct.Memory* @get_mem2Dshort(%struct.State* noalias, i64, %struct.Memory* noalias) local_unnamed_addr #1 {
entry:
  %3 = getelementptr inbounds %struct.State, %struct.State* %0, i64 0, i32 6, i32 33, i32 0, i32 0
  %RBP.i = getelementptr inbounds %struct.State, %struct.State* %0, i64 0, i32 6, i32 15, i32 0, i32 0
  %4 = load i64, i64* %RBP.i, align 8
  %5 = add i64 %1, 1
  store i64 %5, i64* %3, align 8
  %6 = getelementptr inbounds %struct.State, %struct.State* %0, i64 0, i32 6, i32 13, i32 0, i32 0
  %7 = load i64, i64* %6, align 8
  %8 = add i64 %7, -8
  %9 = inttoptr i64 %8 to i64*
  store i64 %4, i64* %9, align 8
  %10 = load i64, i64* %3, align 8
  store i64 %8, i64* %RBP.i, align 8
  %11 = add i64 %7, -40
  store i64 %11, i64* %6, align 8
  %12 = icmp ult i64 %8, 32
  %13 = zext i1 %12 to i8
  %14 = getelementptr inbounds %struct.State, %struct.State* %0, i64 0, i32 2, i32 1
  store i8 %13, i8* %14, align 1
  %15 = trunc i64 %11 to i32
  %16 = and i32 %15, 255
  %17 = tail call i32 @llvm.ctpop.i32(i32 %16)
  %18 = trunc i32 %17 to i8
  %19 = and i8 %18, 1
  %20 = xor i8 %19, 1
  %21 = getelementptr inbounds %struct.State, %struct.State* %0, i64 0, i32 2, i32 3
  store i8 %20, i8* %21, align 1
  %22 = xor i64 %8, %11
  %23 = lshr i64 %22, 4
  %24 = trunc i64 %23 to i8
  %25 = and i8 %24, 1
  %26 = getelementptr inbounds %struct.State, %struct.State* %0, i64 0, i32 2, i32 5
  store i8 %25, i8* %26, align 1
  %27 = icmp eq i64 %11, 0
  %28 = zext i1 %27 to i8
  %29 = getelementptr inbounds %struct.State, %struct.State* %0, i64 0, i32 2, i32 7
  store i8 %28, i8* %29, align 1
  %30 = lshr i64 %11, 63
  %31 = trunc i64 %30 to i8
  %32 = getelementptr inbounds %struct.State, %struct.State* %0, i64 0, i32 2, i32 9
  store i8 %31, i8* %32, align 1
  %33 = lshr i64 %8, 63
  %34 = xor i64 %30, %33
  %35 = add nuw nsw i64 %34, %33
  %36 = icmp eq i64 %35, 2
  %37 = zext i1 %36 to i8
  %38 = getelementptr inbounds %struct.State, %struct.State* %0, i64 0, i32 2, i32 13
  store i8 %37, i8* %38, align 1
  %RAX.i130 = getelementptr inbounds %struct.State, %struct.State* %0, i64 0, i32 6, i32 1, i32 0, i32 0
  store i64 8, i64* %RAX.i130, align 8
  %RCX.i128 = getelementptr inbounds %struct.State, %struct.State* %0, i64 0, i32 6, i32 5, i32 0, i32 0
  store i64 8, i64* %RCX.i128, align 8
  %RDI.i124 = getelementptr inbounds %struct.State, %struct.State* %0, i64 0, i32 6, i32 11, i32 0, i32 0
  %39 = add i64 %7, -16
  %40 = load i64, i64* %RDI.i124, align 8
  %41 = add i64 %10, 18
  store i64 %41, i64* %3, align 8
  %42 = inttoptr i64 %39 to i64*
  store i64 %40, i64* %42, align 8
  %43 = getelementptr inbounds %struct.State, %struct.State* %0, i64 0, i32 6, i32 9, i32 0
  %ESI.i = bitcast %union.anon* %43 to i32*
  %44 = load i64, i64* %RBP.i, align 8
  %45 = add i64 %44, -12
  %46 = load i32, i32* %ESI.i, align 4
  %47 = load i64, i64* %3, align 8
  %48 = add i64 %47, 3
  store i64 %48, i64* %3, align 8
  %49 = inttoptr i64 %45 to i32*
  store i32 %46, i32* %49, align 4
  %50 = getelementptr inbounds %struct.State, %struct.State* %0, i64 0, i32 6, i32 7, i32 0
  %EDX.i = bitcast %union.anon* %50 to i32*
  %51 = load i64, i64* %RBP.i, align 8
  %52 = add i64 %51, -16
  %53 = load i32, i32* %EDX.i, align 4
  %54 = load i64, i64* %3, align 8
  %55 = add i64 %54, 3
  store i64 %55, i64* %3, align 8
  %56 = inttoptr i64 %52 to i32*
  store i32 %53, i32* %56, align 4
  %57 = load i64, i64* %RBP.i, align 8
  %58 = add i64 %57, -12
  %59 = load i64, i64* %3, align 8
  %60 = add i64 %59, 4
  store i64 %60, i64* %3, align 8
  %61 = inttoptr i64 %58 to i32*
  %62 = load i32, i32* %61, align 4
  %63 = sext i32 %62 to i64
  store i64 %63, i64* %RDI.i124, align 8
  %RSI.i115 = getelementptr inbounds %union.anon, %union.anon* %43, i64 0, i32 0
  %64 = load i64, i64* %RCX.i128, align 8
  store i64 %64, i64* %RSI.i115, align 8
  %65 = add i64 %59, -364377
  %66 = add i64 %59, 12
  %67 = load i64, i64* %6, align 8
  %68 = add i64 %67, -8
  %69 = inttoptr i64 %68 to i64*
  store i64 %66, i64* %69, align 8
  store i64 %68, i64* %6, align 8
  store i64 %65, i64* %3, align 8
  %70 = tail call %struct.Memory* @__remill_function_call(%struct.State* %0, i64 ptrtoint (i64 (i64, i64)* @calloc to i64), %struct.Memory* %2)
  %71 = load i64, i64* %RBP.i, align 8
  %72 = add i64 %71, -8
  %73 = load i64, i64* %3, align 8
  %74 = add i64 %73, 4
  store i64 %74, i64* %3, align 8
  %75 = inttoptr i64 %72 to i64*
  %76 = load i64, i64* %75, align 8
  store i64 %76, i64* %RCX.i128, align 8
  %77 = load i64, i64* %RAX.i130, align 8
  %78 = add i64 %73, 7
  store i64 %78, i64* %3, align 8
  %79 = inttoptr i64 %76 to i64*
  store i64 %77, i64* %79, align 8
  %80 = load i64, i64* %RAX.i130, align 8
  %81 = load i64, i64* %3, align 8
  store i8 0, i8* %14, align 1
  %82 = trunc i64 %80 to i32
  %83 = and i32 %82, 255
  %84 = tail call i32 @llvm.ctpop.i32(i32 %83)
  %85 = trunc i32 %84 to i8
  %86 = and i8 %85, 1
  %87 = xor i8 %86, 1
  store i8 %87, i8* %21, align 1
  store i8 0, i8* %26, align 1
  %88 = icmp eq i64 %80, 0
  %89 = zext i1 %88 to i8
  store i8 %89, i8* %29, align 1
  %90 = lshr i64 %80, 63
  %91 = trunc i64 %90 to i8
  store i8 %91, i8* %32, align 1
  store i8 0, i8* %38, align 1
  %.v = select i1 %88, i64 10, i64 25
  %92 = add i64 %81, %.v
  store i64 %92, i64* %3, align 8
  br i1 %88, label %block_45a056, label %block_.L_45a065

block_45a056:                                     ; preds = %entry
  store i64 ptrtoint (%G__0x4c2055_type* @G__0x4c2055 to i64), i64* %RDI.i124, align 8
  %93 = add i64 %92, -3174
  %94 = add i64 %92, 15
  %95 = load i64, i64* %6, align 8
  %96 = add i64 %95, -8
  %97 = inttoptr i64 %96 to i64*
  store i64 %94, i64* %97, align 8
  store i64 %96, i64* %6, align 8
  store i64 %93, i64* %3, align 8
  %call2_45a060 = tail call %struct.Memory* @sub_4593f0.no_mem_exit(%struct.State* nonnull %0, i64 %93, %struct.Memory* %70)
  %.pre = load i64, i64* %3, align 8
  br label %block_.L_45a065

block_.L_45a065:                                  ; preds = %entry, %block_45a056
  %98 = phi i64 [ %92, %entry ], [ %.pre, %block_45a056 ]
  %MEMORY.0 = phi %struct.Memory* [ %70, %entry ], [ %call2_45a060, %block_45a056 ]
  store i64 2, i64* %RAX.i130, align 8
  store i64 2, i64* %RSI.i115, align 8
  %99 = load i64, i64* %RBP.i, align 8
  %100 = add i64 %99, -12
  %101 = add i64 %98, 10
  store i64 %101, i64* %3, align 8
  %102 = inttoptr i64 %100 to i32*
  %103 = load i32, i32* %102, align 4
  %104 = zext i32 %103 to i64
  store i64 %104, i64* %RAX.i130, align 8
  %105 = add i64 %99, -16
  %106 = add i64 %98, 14
  store i64 %106, i64* %3, align 8
  %107 = inttoptr i64 %105 to i32*
  %108 = load i32, i32* %107, align 4
  %109 = sext i32 %103 to i64
  %110 = sext i32 %108 to i64
  %111 = mul nsw i64 %110, %109
  %112 = trunc i64 %111 to i32
  %113 = and i64 %111, 4294967295
  store i64 %113, i64* %RAX.i130, align 8
  %114 = shl i64 %111, 32
  %115 = ashr exact i64 %114, 32
  %116 = icmp ne i64 %115, %111
  %117 = zext i1 %116 to i8
  store i8 %117, i8* %14, align 1
  %118 = and i32 %112, 255
  %119 = tail call i32 @llvm.ctpop.i32(i32 %118)
  %120 = trunc i32 %119 to i8
  %121 = and i8 %120, 1
  %122 = xor i8 %121, 1
  store i8 %122, i8* %21, align 1
  store i8 0, i8* %26, align 1
  store i8 0, i8* %29, align 1
  %123 = lshr i32 %112, 31
  %124 = trunc i32 %123 to i8
  store i8 %124, i8* %32, align 1
  store i8 %117, i8* %38, align 1
  %sext = shl i64 %111, 32
  %125 = ashr exact i64 %sext, 32
  store i64 %125, i64* %RDI.i124, align 8
  %126 = add i64 %98, -364421
  %127 = add i64 %98, 22
  %128 = load i64, i64* %6, align 8
  %129 = add i64 %128, -8
  %130 = inttoptr i64 %129 to i64*
  store i64 %127, i64* %130, align 8
  store i64 %129, i64* %6, align 8
  store i64 %126, i64* %3, align 8
  %131 = tail call %struct.Memory* @__remill_function_call(%struct.State* nonnull %0, i64 ptrtoint (i64 (i64, i64)* @calloc to i64), %struct.Memory* %MEMORY.0)
  %132 = load i64, i64* %RBP.i, align 8
  %133 = add i64 %132, -8
  %134 = load i64, i64* %3, align 8
  %135 = add i64 %134, 4
  store i64 %135, i64* %3, align 8
  %136 = inttoptr i64 %133 to i64*
  %137 = load i64, i64* %136, align 8
  store i64 %137, i64* %RSI.i115, align 8
  %138 = add i64 %134, 7
  store i64 %138, i64* %3, align 8
  %139 = inttoptr i64 %137 to i64*
  %140 = load i64, i64* %139, align 8
  store i64 %140, i64* %RSI.i115, align 8
  %141 = load i64, i64* %RAX.i130, align 8
  %142 = add i64 %134, 10
  store i64 %142, i64* %3, align 8
  %143 = inttoptr i64 %140 to i64*
  store i64 %141, i64* %143, align 8
  %144 = load i64, i64* %RAX.i130, align 8
  %145 = load i64, i64* %3, align 8
  store i8 0, i8* %14, align 1
  %146 = trunc i64 %144 to i32
  %147 = and i32 %146, 255
  %148 = tail call i32 @llvm.ctpop.i32(i32 %147)
  %149 = trunc i32 %148 to i8
  %150 = and i8 %149, 1
  %151 = xor i8 %150, 1
  store i8 %151, i8* %21, align 1
  store i8 0, i8* %26, align 1
  %152 = icmp eq i64 %144, 0
  %153 = zext i1 %152 to i8
  store i8 %153, i8* %29, align 1
  %154 = lshr i64 %144, 63
  %155 = trunc i64 %154 to i8
  store i8 %155, i8* %32, align 1
  store i8 0, i8* %38, align 1
  %.v9 = select i1 %152, i64 10, i64 25
  %156 = add i64 %145, %.v9
  store i64 %156, i64* %3, align 8
  br i1 %152, label %block_45a08f, label %block_.L_45a09e

block_45a08f:                                     ; preds = %block_.L_45a065
  store i64 ptrtoint (%G__0x4c2055_type* @G__0x4c2055 to i64), i64* %RDI.i124, align 8
  %157 = add i64 %156, -3231
  %158 = add i64 %156, 15
  %159 = load i64, i64* %6, align 8
  %160 = add i64 %159, -8
  %161 = inttoptr i64 %160 to i64*
  store i64 %158, i64* %161, align 8
  store i64 %160, i64* %6, align 8
  store i64 %157, i64* %3, align 8
  %call2_45a099 = tail call %struct.Memory* @sub_4593f0.no_mem_exit(%struct.State* nonnull %0, i64 %157, %struct.Memory* %131)
  %.pre6 = load i64, i64* %3, align 8
  br label %block_.L_45a09e

block_.L_45a09e:                                  ; preds = %block_.L_45a065, %block_45a08f
  %162 = phi i64 [ %156, %block_.L_45a065 ], [ %.pre6, %block_45a08f ]
  %MEMORY.1 = phi %struct.Memory* [ %131, %block_.L_45a065 ], [ %call2_45a099, %block_45a08f ]
  %163 = load i64, i64* %RBP.i, align 8
  %164 = add i64 %163, -20
  %165 = add i64 %162, 7
  store i64 %165, i64* %3, align 8
  %166 = inttoptr i64 %164 to i32*
  store i32 1, i32* %166, align 4
  %RDX.i47 = getelementptr inbounds %union.anon, %union.anon* %50, i64 0, i32 0
  %.pre7 = load i64, i64* %3, align 8
  br label %block_.L_45a0a5

block_.L_45a0a5:                                  ; preds = %block_45a0b1, %block_.L_45a09e
  %167 = phi i64 [ %324, %block_45a0b1 ], [ %.pre7, %block_.L_45a09e ]
  %168 = load i64, i64* %RBP.i, align 8
  %169 = add i64 %168, -20
  %170 = add i64 %167, 3
  store i64 %170, i64* %3, align 8
  %171 = inttoptr i64 %169 to i32*
  %172 = load i32, i32* %171, align 4
  %173 = zext i32 %172 to i64
  store i64 %173, i64* %RAX.i130, align 8
  %174 = add i64 %168, -12
  %175 = add i64 %167, 6
  store i64 %175, i64* %3, align 8
  %176 = inttoptr i64 %174 to i32*
  %177 = load i32, i32* %176, align 4
  %178 = sub i32 %172, %177
  %179 = icmp ult i32 %172, %177
  %180 = zext i1 %179 to i8
  store i8 %180, i8* %14, align 1
  %181 = and i32 %178, 255
  %182 = tail call i32 @llvm.ctpop.i32(i32 %181)
  %183 = trunc i32 %182 to i8
  %184 = and i8 %183, 1
  %185 = xor i8 %184, 1
  store i8 %185, i8* %21, align 1
  %186 = xor i32 %177, %172
  %187 = xor i32 %186, %178
  %188 = lshr i32 %187, 4
  %189 = trunc i32 %188 to i8
  %190 = and i8 %189, 1
  store i8 %190, i8* %26, align 1
  %191 = icmp eq i32 %178, 0
  %192 = zext i1 %191 to i8
  store i8 %192, i8* %29, align 1
  %193 = lshr i32 %178, 31
  %194 = trunc i32 %193 to i8
  store i8 %194, i8* %32, align 1
  %195 = lshr i32 %172, 31
  %196 = lshr i32 %177, 31
  %197 = xor i32 %196, %195
  %198 = xor i32 %193, %195
  %199 = add nuw nsw i32 %198, %197
  %200 = icmp eq i32 %199, 2
  %201 = zext i1 %200 to i8
  store i8 %201, i8* %38, align 1
  %202 = icmp ne i8 %194, 0
  %203 = xor i1 %202, %200
  %.v10 = select i1 %203, i64 12, i64 72
  %204 = add i64 %167, %.v10
  store i64 %204, i64* %3, align 8
  br i1 %203, label %block_45a0b1, label %block_.L_45a0ed

block_45a0b1:                                     ; preds = %block_.L_45a0a5
  %205 = add i64 %168, -8
  %206 = add i64 %204, 4
  store i64 %206, i64* %3, align 8
  %207 = inttoptr i64 %205 to i64*
  %208 = load i64, i64* %207, align 8
  store i64 %208, i64* %RAX.i130, align 8
  %209 = add i64 %204, 7
  store i64 %209, i64* %3, align 8
  %210 = inttoptr i64 %208 to i64*
  %211 = load i64, i64* %210, align 8
  store i64 %211, i64* %RAX.i130, align 8
  %212 = add i64 %204, 10
  store i64 %212, i64* %3, align 8
  %213 = load i32, i32* %171, align 4
  %214 = add i32 %213, -1
  %215 = zext i32 %214 to i64
  store i64 %215, i64* %RCX.i128, align 8
  %216 = icmp eq i32 %213, 0
  %217 = zext i1 %216 to i8
  store i8 %217, i8* %14, align 1
  %218 = and i32 %214, 255
  %219 = tail call i32 @llvm.ctpop.i32(i32 %218)
  %220 = trunc i32 %219 to i8
  %221 = and i8 %220, 1
  %222 = xor i8 %221, 1
  store i8 %222, i8* %21, align 1
  %223 = xor i32 %214, %213
  %224 = lshr i32 %223, 4
  %225 = trunc i32 %224 to i8
  %226 = and i8 %225, 1
  store i8 %226, i8* %26, align 1
  %227 = icmp eq i32 %214, 0
  %228 = zext i1 %227 to i8
  store i8 %228, i8* %29, align 1
  %229 = lshr i32 %214, 31
  %230 = trunc i32 %229 to i8
  store i8 %230, i8* %32, align 1
  %231 = lshr i32 %213, 31
  %232 = xor i32 %229, %231
  %233 = add nuw nsw i32 %232, %231
  %234 = icmp eq i32 %233, 2
  %235 = zext i1 %234 to i8
  store i8 %235, i8* %38, align 1
  %236 = sext i32 %214 to i64
  store i64 %236, i64* %RDX.i47, align 8
  %237 = shl nsw i64 %236, 3
  %238 = add i64 %211, %237
  %239 = add i64 %204, 20
  store i64 %239, i64* %3, align 8
  %240 = inttoptr i64 %238 to i64*
  %241 = load i64, i64* %240, align 8
  store i64 %241, i64* %RAX.i130, align 8
  %242 = add i64 %168, -16
  %243 = add i64 %204, 24
  store i64 %243, i64* %3, align 8
  %244 = inttoptr i64 %242 to i32*
  %245 = load i32, i32* %244, align 4
  %246 = sext i32 %245 to i64
  %247 = shl nsw i64 %246, 1
  store i64 %247, i64* %RDX.i47, align 8
  %248 = add i64 %247, %241
  store i64 %248, i64* %RAX.i130, align 8
  %249 = icmp ult i64 %248, %241
  %250 = icmp ult i64 %248, %247
  %251 = or i1 %249, %250
  %252 = zext i1 %251 to i8
  store i8 %252, i8* %14, align 1
  %253 = trunc i64 %248 to i32
  %254 = and i32 %253, 255
  %255 = tail call i32 @llvm.ctpop.i32(i32 %254)
  %256 = trunc i32 %255 to i8
  %257 = and i8 %256, 1
  %258 = xor i8 %257, 1
  store i8 %258, i8* %21, align 1
  %259 = xor i64 %247, %241
  %260 = xor i64 %259, %248
  %261 = lshr i64 %260, 4
  %262 = trunc i64 %261 to i8
  %263 = and i8 %262, 1
  store i8 %263, i8* %26, align 1
  %264 = icmp eq i64 %248, 0
  %265 = zext i1 %264 to i8
  store i8 %265, i8* %29, align 1
  %266 = lshr i64 %248, 63
  %267 = trunc i64 %266 to i8
  store i8 %267, i8* %32, align 1
  %268 = lshr i64 %241, 63
  %269 = lshr i64 %246, 62
  %270 = and i64 %269, 1
  %271 = xor i64 %266, %268
  %272 = xor i64 %266, %270
  %273 = add nuw nsw i64 %271, %272
  %274 = icmp eq i64 %273, 2
  %275 = zext i1 %274 to i8
  store i8 %275, i8* %38, align 1
  %276 = load i64, i64* %RBP.i, align 8
  %277 = add i64 %276, -8
  %278 = add i64 %204, 34
  store i64 %278, i64* %3, align 8
  %279 = inttoptr i64 %277 to i64*
  %280 = load i64, i64* %279, align 8
  store i64 %280, i64* %RDX.i47, align 8
  %281 = add i64 %204, 37
  store i64 %281, i64* %3, align 8
  %282 = inttoptr i64 %280 to i64*
  %283 = load i64, i64* %282, align 8
  store i64 %283, i64* %RDX.i47, align 8
  %284 = add i64 %276, -20
  %285 = add i64 %204, 41
  store i64 %285, i64* %3, align 8
  %286 = inttoptr i64 %284 to i32*
  %287 = load i32, i32* %286, align 4
  %288 = sext i32 %287 to i64
  store i64 %288, i64* %RSI.i115, align 8
  %289 = shl nsw i64 %288, 3
  %290 = add i64 %289, %283
  %291 = add i64 %204, 45
  store i64 %291, i64* %3, align 8
  %292 = inttoptr i64 %290 to i64*
  store i64 %248, i64* %292, align 8
  %293 = load i64, i64* %RBP.i, align 8
  %294 = add i64 %293, -20
  %295 = load i64, i64* %3, align 8
  %296 = add i64 %295, 3
  store i64 %296, i64* %3, align 8
  %297 = inttoptr i64 %294 to i32*
  %298 = load i32, i32* %297, align 4
  %299 = add i32 %298, 1
  %300 = zext i32 %299 to i64
  store i64 %300, i64* %RAX.i130, align 8
  %301 = icmp eq i32 %298, -1
  %302 = icmp eq i32 %299, 0
  %303 = or i1 %301, %302
  %304 = zext i1 %303 to i8
  store i8 %304, i8* %14, align 1
  %305 = and i32 %299, 255
  %306 = tail call i32 @llvm.ctpop.i32(i32 %305)
  %307 = trunc i32 %306 to i8
  %308 = and i8 %307, 1
  %309 = xor i8 %308, 1
  store i8 %309, i8* %21, align 1
  %310 = xor i32 %299, %298
  %311 = lshr i32 %310, 4
  %312 = trunc i32 %311 to i8
  %313 = and i8 %312, 1
  store i8 %313, i8* %26, align 1
  %314 = zext i1 %302 to i8
  store i8 %314, i8* %29, align 1
  %315 = lshr i32 %299, 31
  %316 = trunc i32 %315 to i8
  store i8 %316, i8* %32, align 1
  %317 = lshr i32 %298, 31
  %318 = xor i32 %315, %317
  %319 = add nuw nsw i32 %318, %315
  %320 = icmp eq i32 %319, 2
  %321 = zext i1 %320 to i8
  store i8 %321, i8* %38, align 1
  %322 = add i64 %295, 9
  store i64 %322, i64* %3, align 8
  store i32 %299, i32* %297, align 4
  %323 = load i64, i64* %3, align 8
  %324 = add i64 %323, -67
  store i64 %324, i64* %3, align 8
  br label %block_.L_45a0a5

block_.L_45a0ed:                                  ; preds = %block_.L_45a0a5
  %325 = add i64 %204, 3
  store i64 %325, i64* %3, align 8
  %326 = load i32, i32* %176, align 4
  %327 = zext i32 %326 to i64
  store i64 %327, i64* %RAX.i130, align 8
  %328 = add i64 %168, -16
  %329 = add i64 %204, 7
  store i64 %329, i64* %3, align 8
  %330 = inttoptr i64 %328 to i32*
  %331 = load i32, i32* %330, align 4
  %332 = sext i32 %326 to i64
  %333 = sext i32 %331 to i64
  %334 = mul nsw i64 %333, %332
  %sext8 = shl i64 %334, 32
  %335 = ashr exact i64 %sext8, 31
  store i64 %335, i64* %RCX.i128, align 8
  %336 = and i64 %335, 4294967294
  store i64 %336, i64* %RAX.i130, align 8
  %337 = load i64, i64* %6, align 8
  %338 = add i64 %337, 32
  store i64 %338, i64* %6, align 8
  %339 = icmp ugt i64 %337, -33
  %340 = zext i1 %339 to i8
  store i8 %340, i8* %14, align 1
  %341 = trunc i64 %338 to i32
  %342 = and i32 %341, 255
  %343 = tail call i32 @llvm.ctpop.i32(i32 %342)
  %344 = trunc i32 %343 to i8
  %345 = and i8 %344, 1
  %346 = xor i8 %345, 1
  store i8 %346, i8* %21, align 1
  %347 = xor i64 %338, %337
  %348 = lshr i64 %347, 4
  %349 = trunc i64 %348 to i8
  %350 = and i8 %349, 1
  store i8 %350, i8* %26, align 1
  %351 = icmp eq i64 %338, 0
  %352 = zext i1 %351 to i8
  store i8 %352, i8* %29, align 1
  %353 = lshr i64 %338, 63
  %354 = trunc i64 %353 to i8
  store i8 %354, i8* %32, align 1
  %355 = lshr i64 %337, 63
  %356 = xor i64 %353, %355
  %357 = add nuw nsw i64 %356, %353
  %358 = icmp eq i64 %357, 2
  %359 = zext i1 %358 to i8
  store i8 %359, i8* %38, align 1
  %360 = add i64 %204, 20
  store i64 %360, i64* %3, align 8
  %361 = add i64 %337, 40
  %362 = inttoptr i64 %338 to i64*
  %363 = load i64, i64* %362, align 8
  store i64 %363, i64* %RBP.i, align 8
  store i64 %361, i64* %6, align 8
  %364 = add i64 %204, 21
  store i64 %364, i64* %3, align 8
  %365 = inttoptr i64 %361 to i64*
  %366 = load i64, i64* %365, align 8
  store i64 %366, i64* %3, align 8
  %367 = add i64 %337, 48
  store i64 %367, i64* %6, align 8
  ret %struct.Memory* %MEMORY.1
}

; Function Attrs: norecurse nounwind
define %struct.Memory* @routine_pushq__rbp(%struct.State* nocapture dereferenceable(3376), i64, %struct.Memory* readnone returned) local_unnamed_addr #2 {
block_400488:
  %PC = getelementptr inbounds %struct.State, %struct.State* %0, i64 0, i32 6, i32 33, i32 0, i32 0
  %RBP = getelementptr inbounds %struct.State, %struct.State* %0, i64 0, i32 6, i32 15, i32 0, i32 0
  %3 = load i64, i64* %RBP, align 8
  %4 = load i64, i64* %PC, align 8
  %5 = add i64 %4, 1
  store i64 %5, i64* %PC, align 8
  %6 = getelementptr inbounds %struct.State, %struct.State* %0, i64 0, i32 6, i32 13, i32 0, i32 0
  %7 = load i64, i64* %6, align 8
  %8 = add i64 %7, -8
  %9 = inttoptr i64 %8 to i64*
  store i64 %3, i64* %9, align 8
  store i64 %8, i64* %6, align 8
  ret %struct.Memory* %2
}

; Function Attrs: norecurse nounwind
define %struct.Memory* @routine_movq__rsp___rbp(%struct.State* nocapture dereferenceable(3376), i64, %struct.Memory* readnone returned) local_unnamed_addr #2 {
block_400488:
  %PC = getelementptr inbounds %struct.State, %struct.State* %0, i64 0, i32 6, i32 33, i32 0, i32 0
  %RSP = getelementptr inbounds %struct.State, %struct.State* %0, i64 0, i32 6, i32 13, i32 0, i32 0
  %RBP = getelementptr inbounds %struct.State, %struct.State* %0, i64 0, i32 6, i32 15, i32 0, i32 0
  %3 = load i64, i64* %RSP, align 8
  %4 = load i64, i64* %PC, align 8
  %5 = add i64 %4, 3
  store i64 %5, i64* %PC, align 8
  store i64 %3, i64* %RBP, align 8
  ret %struct.Memory* %2
}

; Function Attrs: nounwind
define %struct.Memory* @routine_subq__0x20___rsp(%struct.State* nocapture dereferenceable(3376), i64, %struct.Memory* readnone returned) local_unnamed_addr #3 {
block_400488:
  %PC = getelementptr inbounds %struct.State, %struct.State* %0, i64 0, i32 6, i32 33, i32 0, i32 0
  %RSP = getelementptr inbounds %struct.State, %struct.State* %0, i64 0, i32 6, i32 13, i32 0, i32 0
  %3 = load i64, i64* %RSP, align 8
  %4 = load i64, i64* %PC, align 8
  %5 = add i64 %4, 4
  store i64 %5, i64* %PC, align 8
  %6 = add i64 %3, -32
  store i64 %6, i64* %RSP, align 8
  %7 = icmp ult i64 %3, 32
  %8 = zext i1 %7 to i8
  %9 = getelementptr inbounds %struct.State, %struct.State* %0, i64 0, i32 2, i32 1
  store i8 %8, i8* %9, align 1
  %10 = trunc i64 %6 to i32
  %11 = and i32 %10, 255
  %12 = tail call i32 @llvm.ctpop.i32(i32 %11)
  %13 = trunc i32 %12 to i8
  %14 = and i8 %13, 1
  %15 = xor i8 %14, 1
  %16 = getelementptr inbounds %struct.State, %struct.State* %0, i64 0, i32 2, i32 3
  store i8 %15, i8* %16, align 1
  %17 = xor i64 %6, %3
  %18 = lshr i64 %17, 4
  %19 = trunc i64 %18 to i8
  %20 = and i8 %19, 1
  %21 = getelementptr inbounds %struct.State, %struct.State* %0, i64 0, i32 2, i32 5
  store i8 %20, i8* %21, align 1
  %22 = icmp eq i64 %6, 0
  %23 = zext i1 %22 to i8
  %24 = getelementptr inbounds %struct.State, %struct.State* %0, i64 0, i32 2, i32 7
  store i8 %23, i8* %24, align 1
  %25 = lshr i64 %6, 63
  %26 = trunc i64 %25 to i8
  %27 = getelementptr inbounds %struct.State, %struct.State* %0, i64 0, i32 2, i32 9
  store i8 %26, i8* %27, align 1
  %28 = lshr i64 %3, 63
  %29 = xor i64 %25, %28
  %30 = add nuw nsw i64 %29, %28
  %31 = icmp eq i64 %30, 2
  %32 = zext i1 %31 to i8
  %33 = getelementptr inbounds %struct.State, %struct.State* %0, i64 0, i32 2, i32 13
  store i8 %32, i8* %33, align 1
  ret %struct.Memory* %2
}

; Function Attrs: norecurse nounwind
define %struct.Memory* @routine_movl__0x8___eax(%struct.State* nocapture dereferenceable(3376), i64, %struct.Memory* readnone returned) local_unnamed_addr #2 {
block_400488:
  %PC = getelementptr inbounds %struct.State, %struct.State* %0, i64 0, i32 6, i32 33, i32 0, i32 0
  %RAX = getelementptr inbounds %struct.State, %struct.State* %0, i64 0, i32 6, i32 1, i32 0, i32 0
  %3 = load i64, i64* %PC, align 8
  %4 = add i64 %3, 5
  store i64 %4, i64* %PC, align 8
  store i64 8, i64* %RAX, align 8
  ret %struct.Memory* %2
}

; Function Attrs: norecurse nounwind
define %struct.Memory* @routine_movl__eax___ecx(%struct.State* nocapture dereferenceable(3376), i64, %struct.Memory* readnone returned) local_unnamed_addr #2 {
block_400488:
  %PC = getelementptr inbounds %struct.State, %struct.State* %0, i64 0, i32 6, i32 33, i32 0, i32 0
  %3 = getelementptr inbounds %struct.State, %struct.State* %0, i64 0, i32 6, i32 1, i32 0
  %EAX = bitcast %union.anon* %3 to i32*
  %RCX = getelementptr inbounds %struct.State, %struct.State* %0, i64 0, i32 6, i32 5, i32 0, i32 0
  %4 = load i32, i32* %EAX, align 4
  %5 = zext i32 %4 to i64
  %6 = load i64, i64* %PC, align 8
  %7 = add i64 %6, 2
  store i64 %7, i64* %PC, align 8
  store i64 %5, i64* %RCX, align 8
  ret %struct.Memory* %2
}

; Function Attrs: norecurse nounwind
define %struct.Memory* @routine_movq__rdi__MINUS0x8__rbp_(%struct.State* nocapture dereferenceable(3376), i64, %struct.Memory* readnone returned) local_unnamed_addr #2 {
block_400488:
  %PC = getelementptr inbounds %struct.State, %struct.State* %0, i64 0, i32 6, i32 33, i32 0, i32 0
  %RDI = getelementptr inbounds %struct.State, %struct.State* %0, i64 0, i32 6, i32 11, i32 0, i32 0
  %RBP = getelementptr inbounds %struct.State, %struct.State* %0, i64 0, i32 6, i32 15, i32 0, i32 0
  %3 = load i64, i64* %RBP, align 8
  %4 = add i64 %3, -8
  %5 = load i64, i64* %RDI, align 8
  %6 = load i64, i64* %PC, align 8
  %7 = add i64 %6, 4
  store i64 %7, i64* %PC, align 8
  %8 = inttoptr i64 %4 to i64*
  store i64 %5, i64* %8, align 8
  ret %struct.Memory* %2
}

; Function Attrs: norecurse nounwind
define %struct.Memory* @routine_movl__esi__MINUS0xc__rbp_(%struct.State* nocapture dereferenceable(3376), i64, %struct.Memory* readnone returned) local_unnamed_addr #2 {
block_400488:
  %PC = getelementptr inbounds %struct.State, %struct.State* %0, i64 0, i32 6, i32 33, i32 0, i32 0
  %3 = getelementptr inbounds %struct.State, %struct.State* %0, i64 0, i32 6, i32 9, i32 0
  %ESI = bitcast %union.anon* %3 to i32*
  %RBP = getelementptr inbounds %struct.State, %struct.State* %0, i64 0, i32 6, i32 15, i32 0, i32 0
  %4 = load i64, i64* %RBP, align 8
  %5 = add i64 %4, -12
  %6 = load i32, i32* %ESI, align 4
  %7 = load i64, i64* %PC, align 8
  %8 = add i64 %7, 3
  store i64 %8, i64* %PC, align 8
  %9 = inttoptr i64 %5 to i32*
  store i32 %6, i32* %9, align 4
  ret %struct.Memory* %2
}

; Function Attrs: norecurse nounwind
define %struct.Memory* @routine_movl__edx__MINUS0x10__rbp_(%struct.State* nocapture dereferenceable(3376), i64, %struct.Memory* readnone returned) local_unnamed_addr #2 {
block_400488:
  %PC = getelementptr inbounds %struct.State, %struct.State* %0, i64 0, i32 6, i32 33, i32 0, i32 0
  %3 = getelementptr inbounds %struct.State, %struct.State* %0, i64 0, i32 6, i32 7, i32 0
  %EDX = bitcast %union.anon* %3 to i32*
  %RBP = getelementptr inbounds %struct.State, %struct.State* %0, i64 0, i32 6, i32 15, i32 0, i32 0
  %4 = load i64, i64* %RBP, align 8
  %5 = add i64 %4, -16
  %6 = load i32, i32* %EDX, align 4
  %7 = load i64, i64* %PC, align 8
  %8 = add i64 %7, 3
  store i64 %8, i64* %PC, align 8
  %9 = inttoptr i64 %5 to i32*
  store i32 %6, i32* %9, align 4
  ret %struct.Memory* %2
}

; Function Attrs: norecurse nounwind
define %struct.Memory* @routine_movslq_MINUS0xc__rbp____rdi(%struct.State* nocapture dereferenceable(3376), i64, %struct.Memory* readnone returned) local_unnamed_addr #2 {
block_400488:
  %PC = getelementptr inbounds %struct.State, %struct.State* %0, i64 0, i32 6, i32 33, i32 0, i32 0
  %RDI = getelementptr inbounds %struct.State, %struct.State* %0, i64 0, i32 6, i32 11, i32 0, i32 0
  %RBP = getelementptr inbounds %struct.State, %struct.State* %0, i64 0, i32 6, i32 15, i32 0, i32 0
  %3 = load i64, i64* %RBP, align 8
  %4 = add i64 %3, -12
  %5 = load i64, i64* %PC, align 8
  %6 = add i64 %5, 4
  store i64 %6, i64* %PC, align 8
  %7 = inttoptr i64 %4 to i32*
  %8 = load i32, i32* %7, align 4
  %9 = sext i32 %8 to i64
  store i64 %9, i64* %RDI, align 8
  ret %struct.Memory* %2
}

; Function Attrs: norecurse nounwind
define %struct.Memory* @routine_movq__rcx___rsi(%struct.State* nocapture dereferenceable(3376), i64, %struct.Memory* readnone returned) local_unnamed_addr #2 {
block_400488:
  %PC = getelementptr inbounds %struct.State, %struct.State* %0, i64 0, i32 6, i32 33, i32 0, i32 0
  %RCX = getelementptr inbounds %struct.State, %struct.State* %0, i64 0, i32 6, i32 5, i32 0, i32 0
  %RSI = getelementptr inbounds %struct.State, %struct.State* %0, i64 0, i32 6, i32 9, i32 0, i32 0
  %3 = load i64, i64* %RCX, align 8
  %4 = load i64, i64* %PC, align 8
  %5 = add i64 %4, 3
  store i64 %5, i64* %PC, align 8
  store i64 %3, i64* %RSI, align 8
  ret %struct.Memory* %2
}

; Function Attrs: norecurse nounwind
define %struct.Memory* @routine_callq_.calloc_plt(%struct.State* nocapture dereferenceable(3376), i64, %struct.Memory* readnone returned, i64 %rel_off1, i64 %rel_off2, i64 %rel_off3) local_unnamed_addr #2 {
block_400488:
  %PC = getelementptr inbounds %struct.State, %struct.State* %0, i64 0, i32 6, i32 33, i32 0, i32 0
  %3 = load i64, i64* %PC, align 8
  %4 = add i64 %3, %rel_off1
  %5 = add i64 %3, %rel_off2
  %6 = getelementptr inbounds %struct.State, %struct.State* %0, i64 0, i32 6, i32 13, i32 0, i32 0
  %7 = load i64, i64* %6, align 8
  %8 = add i64 %7, -8
  %9 = inttoptr i64 %8 to i64*
  store i64 %5, i64* %9, align 8
  store i64 %8, i64* %6, align 8
  store i64 %4, i64* %PC, align 8
  ret %struct.Memory* %2
}

; Function Attrs: norecurse nounwind
define %struct.Memory* @routine_movq_MINUS0x8__rbp____rcx(%struct.State* nocapture dereferenceable(3376), i64, %struct.Memory* readnone returned) local_unnamed_addr #2 {
block_400488:
  %PC = getelementptr inbounds %struct.State, %struct.State* %0, i64 0, i32 6, i32 33, i32 0, i32 0
  %RCX = getelementptr inbounds %struct.State, %struct.State* %0, i64 0, i32 6, i32 5, i32 0, i32 0
  %RBP = getelementptr inbounds %struct.State, %struct.State* %0, i64 0, i32 6, i32 15, i32 0, i32 0
  %3 = load i64, i64* %RBP, align 8
  %4 = add i64 %3, -8
  %5 = load i64, i64* %PC, align 8
  %6 = add i64 %5, 4
  store i64 %6, i64* %PC, align 8
  %7 = inttoptr i64 %4 to i64*
  %8 = load i64, i64* %7, align 8
  store i64 %8, i64* %RCX, align 8
  ret %struct.Memory* %2
}

; Function Attrs: norecurse nounwind
define %struct.Memory* @routine_movq__rax____rcx_(%struct.State* nocapture dereferenceable(3376), i64, %struct.Memory* readnone returned) local_unnamed_addr #2 {
block_400488:
  %PC = getelementptr inbounds %struct.State, %struct.State* %0, i64 0, i32 6, i32 33, i32 0, i32 0
  %RAX = getelementptr inbounds %struct.State, %struct.State* %0, i64 0, i32 6, i32 1, i32 0, i32 0
  %RCX = getelementptr inbounds %struct.State, %struct.State* %0, i64 0, i32 6, i32 5, i32 0, i32 0
  %3 = bitcast i64* %RCX to i64**
  %4 = load i64*, i64** %3, align 8
  %5 = load i64, i64* %RAX, align 8
  %6 = load i64, i64* %PC, align 8
  %7 = add i64 %6, 3
  store i64 %7, i64* %PC, align 8
  store i64 %5, i64* %4, align 8
  ret %struct.Memory* %2
}

; Function Attrs: nounwind
define %struct.Memory* @routine_cmpq__0x0___rax(%struct.State* nocapture dereferenceable(3376), i64, %struct.Memory* readnone returned) local_unnamed_addr #3 {
block_400488:
  %PC = getelementptr inbounds %struct.State, %struct.State* %0, i64 0, i32 6, i32 33, i32 0, i32 0
  %RAX = getelementptr inbounds %struct.State, %struct.State* %0, i64 0, i32 6, i32 1, i32 0, i32 0
  %3 = load i64, i64* %RAX, align 8
  %4 = load i64, i64* %PC, align 8
  %5 = add i64 %4, 4
  store i64 %5, i64* %PC, align 8
  %6 = getelementptr inbounds %struct.State, %struct.State* %0, i64 0, i32 2, i32 1
  store i8 0, i8* %6, align 1
  %7 = trunc i64 %3 to i32
  %8 = and i32 %7, 255
  %9 = tail call i32 @llvm.ctpop.i32(i32 %8)
  %10 = trunc i32 %9 to i8
  %11 = and i8 %10, 1
  %12 = xor i8 %11, 1
  %13 = getelementptr inbounds %struct.State, %struct.State* %0, i64 0, i32 2, i32 3
  store i8 %12, i8* %13, align 1
  %14 = getelementptr inbounds %struct.State, %struct.State* %0, i64 0, i32 2, i32 5
  store i8 0, i8* %14, align 1
  %15 = icmp eq i64 %3, 0
  %16 = zext i1 %15 to i8
  %17 = getelementptr inbounds %struct.State, %struct.State* %0, i64 0, i32 2, i32 7
  store i8 %16, i8* %17, align 1
  %18 = lshr i64 %3, 63
  %19 = trunc i64 %18 to i8
  %20 = getelementptr inbounds %struct.State, %struct.State* %0, i64 0, i32 2, i32 9
  store i8 %19, i8* %20, align 1
  %21 = getelementptr inbounds %struct.State, %struct.State* %0, i64 0, i32 2, i32 13
  store i8 0, i8* %21, align 1
  ret %struct.Memory* %2
}

; Function Attrs: norecurse nounwind
define %struct.Memory* @routine_jne_.L_45a065(%struct.State* nocapture dereferenceable(3376), i64, %struct.Memory* readnone returned, i8* nocapture %BRANCH_TAKEN, i64 %rel_off1, i64 %rel_off2, i64 %rel_off3) local_unnamed_addr #2 {
block_400488:
  %PC = getelementptr inbounds %struct.State, %struct.State* %0, i64 0, i32 6, i32 33, i32 0, i32 0
  %3 = load i64, i64* %PC, align 8
  %4 = getelementptr inbounds %struct.State, %struct.State* %0, i64 0, i32 2, i32 7
  %5 = load i8, i8* %4, align 1
  %6 = icmp eq i8 %5, 0
  %7 = zext i1 %6 to i8
  store i8 %7, i8* %BRANCH_TAKEN, align 1
  %.v = select i1 %6, i64 %rel_off1, i64 %rel_off2
  %8 = add i64 %.v, %3
  store i64 %8, i64* %PC, align 8
  ret %struct.Memory* %2
}

; Function Attrs: norecurse nounwind
define %struct.Memory* @routine_movq__0x4c2055___rdi(%struct.State* nocapture dereferenceable(3376), i64, %struct.Memory* readnone returned) local_unnamed_addr #2 {
block_400488:
  %PC = getelementptr inbounds %struct.State, %struct.State* %0, i64 0, i32 6, i32 33, i32 0, i32 0
  %RDI = getelementptr inbounds %struct.State, %struct.State* %0, i64 0, i32 6, i32 11, i32 0, i32 0
  %3 = load i64, i64* %PC, align 8
  %4 = add i64 %3, 10
  store i64 %4, i64* %PC, align 8
  store i64 ptrtoint (%G__0x4c2055_type* @G__0x4c2055 to i64), i64* %RDI, align 8
  ret %struct.Memory* %2
}

; Function Attrs: norecurse nounwind
define %struct.Memory* @routine_callq_.no_mem_exit(%struct.State* nocapture dereferenceable(3376), i64, %struct.Memory* readnone returned, i64 %rel_off1, i64 %rel_off2, i64 %rel_off3) local_unnamed_addr #2 {
block_400488:
  %PC = getelementptr inbounds %struct.State, %struct.State* %0, i64 0, i32 6, i32 33, i32 0, i32 0
  %3 = load i64, i64* %PC, align 8
  %4 = add i64 %3, %rel_off1
  %5 = add i64 %3, %rel_off2
  %6 = getelementptr inbounds %struct.State, %struct.State* %0, i64 0, i32 6, i32 13, i32 0, i32 0
  %7 = load i64, i64* %6, align 8
  %8 = add i64 %7, -8
  %9 = inttoptr i64 %8 to i64*
  store i64 %5, i64* %9, align 8
  store i64 %8, i64* %6, align 8
  store i64 %4, i64* %PC, align 8
  ret %struct.Memory* %2
}

; Function Attrs: norecurse nounwind
define %struct.Memory* @routine_movl__0x2___eax(%struct.State* nocapture dereferenceable(3376), i64, %struct.Memory* readnone returned) local_unnamed_addr #2 {
block_400488:
  %PC = getelementptr inbounds %struct.State, %struct.State* %0, i64 0, i32 6, i32 33, i32 0, i32 0
  %RAX = getelementptr inbounds %struct.State, %struct.State* %0, i64 0, i32 6, i32 1, i32 0, i32 0
  %3 = load i64, i64* %PC, align 8
  %4 = add i64 %3, 5
  store i64 %4, i64* %PC, align 8
  store i64 2, i64* %RAX, align 8
  ret %struct.Memory* %2
}

; Function Attrs: norecurse nounwind
define %struct.Memory* @routine_movl__eax___esi(%struct.State* nocapture dereferenceable(3376), i64, %struct.Memory* readnone returned) local_unnamed_addr #2 {
block_400488:
  %PC = getelementptr inbounds %struct.State, %struct.State* %0, i64 0, i32 6, i32 33, i32 0, i32 0
  %3 = getelementptr inbounds %struct.State, %struct.State* %0, i64 0, i32 6, i32 1, i32 0
  %EAX = bitcast %union.anon* %3 to i32*
  %RSI = getelementptr inbounds %struct.State, %struct.State* %0, i64 0, i32 6, i32 9, i32 0, i32 0
  %4 = load i32, i32* %EAX, align 4
  %5 = zext i32 %4 to i64
  %6 = load i64, i64* %PC, align 8
  %7 = add i64 %6, 2
  store i64 %7, i64* %PC, align 8
  store i64 %5, i64* %RSI, align 8
  ret %struct.Memory* %2
}

; Function Attrs: norecurse nounwind
define %struct.Memory* @routine_movl_MINUS0xc__rbp____eax(%struct.State* nocapture dereferenceable(3376), i64, %struct.Memory* readnone returned) local_unnamed_addr #2 {
block_400488:
  %PC = getelementptr inbounds %struct.State, %struct.State* %0, i64 0, i32 6, i32 33, i32 0, i32 0
  %RAX = getelementptr inbounds %struct.State, %struct.State* %0, i64 0, i32 6, i32 1, i32 0, i32 0
  %RBP = getelementptr inbounds %struct.State, %struct.State* %0, i64 0, i32 6, i32 15, i32 0, i32 0
  %3 = load i64, i64* %RBP, align 8
  %4 = add i64 %3, -12
  %5 = load i64, i64* %PC, align 8
  %6 = add i64 %5, 3
  store i64 %6, i64* %PC, align 8
  %7 = inttoptr i64 %4 to i32*
  %8 = load i32, i32* %7, align 4
  %9 = zext i32 %8 to i64
  store i64 %9, i64* %RAX, align 8
  ret %struct.Memory* %2
}

; Function Attrs: nounwind
define %struct.Memory* @routine_imull_MINUS0x10__rbp____eax(%struct.State* nocapture dereferenceable(3376), i64, %struct.Memory* readnone returned) local_unnamed_addr #3 {
block_400488:
  %PC = getelementptr inbounds %struct.State, %struct.State* %0, i64 0, i32 6, i32 33, i32 0, i32 0
  %RAX = getelementptr inbounds %struct.State, %struct.State* %0, i64 0, i32 6, i32 1, i32 0, i32 0
  %RBP = getelementptr inbounds %struct.State, %struct.State* %0, i64 0, i32 6, i32 15, i32 0, i32 0
  %3 = load i64, i64* %RAX, align 8
  %4 = load i64, i64* %RBP, align 8
  %5 = add i64 %4, -16
  %6 = load i64, i64* %PC, align 8
  %7 = add i64 %6, 4
  store i64 %7, i64* %PC, align 8
  %8 = inttoptr i64 %5 to i32*
  %9 = load i32, i32* %8, align 4
  %10 = shl i64 %3, 32
  %11 = ashr exact i64 %10, 32
  %12 = sext i32 %9 to i64
  %13 = mul nsw i64 %12, %11
  %14 = trunc i64 %13 to i32
  %15 = and i64 %13, 4294967295
  store i64 %15, i64* %RAX, align 8
  %16 = shl i64 %13, 32
  %17 = ashr exact i64 %16, 32
  %18 = icmp ne i64 %17, %13
  %19 = zext i1 %18 to i8
  %20 = getelementptr inbounds %struct.State, %struct.State* %0, i64 0, i32 2, i32 1
  store i8 %19, i8* %20, align 1
  %21 = and i32 %14, 255
  %22 = tail call i32 @llvm.ctpop.i32(i32 %21)
  %23 = trunc i32 %22 to i8
  %24 = and i8 %23, 1
  %25 = xor i8 %24, 1
  %26 = getelementptr inbounds %struct.State, %struct.State* %0, i64 0, i32 2, i32 3
  store i8 %25, i8* %26, align 1
  %27 = getelementptr inbounds %struct.State, %struct.State* %0, i64 0, i32 2, i32 5
  store i8 0, i8* %27, align 1
  %28 = getelementptr inbounds %struct.State, %struct.State* %0, i64 0, i32 2, i32 7
  store i8 0, i8* %28, align 1
  %29 = lshr i32 %14, 31
  %30 = trunc i32 %29 to i8
  %31 = getelementptr inbounds %struct.State, %struct.State* %0, i64 0, i32 2, i32 9
  store i8 %30, i8* %31, align 1
  %32 = getelementptr inbounds %struct.State, %struct.State* %0, i64 0, i32 2, i32 13
  store i8 %19, i8* %32, align 1
  ret %struct.Memory* %2
}

; Function Attrs: norecurse nounwind
define %struct.Memory* @routine_movslq__eax___rdi(%struct.State* nocapture dereferenceable(3376), i64, %struct.Memory* readnone returned) local_unnamed_addr #2 {
block_400488:
  %PC = getelementptr inbounds %struct.State, %struct.State* %0, i64 0, i32 6, i32 33, i32 0, i32 0
  %3 = getelementptr inbounds %struct.State, %struct.State* %0, i64 0, i32 6, i32 1, i32 0
  %EAX = bitcast %union.anon* %3 to i32*
  %RDI = getelementptr inbounds %struct.State, %struct.State* %0, i64 0, i32 6, i32 11, i32 0, i32 0
  %4 = load i32, i32* %EAX, align 4
  %5 = load i64, i64* %PC, align 8
  %6 = add i64 %5, 3
  store i64 %6, i64* %PC, align 8
  %7 = sext i32 %4 to i64
  store i64 %7, i64* %RDI, align 8
  ret %struct.Memory* %2
}

; Function Attrs: norecurse nounwind
define %struct.Memory* @routine_movq_MINUS0x8__rbp____rsi(%struct.State* nocapture dereferenceable(3376), i64, %struct.Memory* readnone returned) local_unnamed_addr #2 {
block_400488:
  %PC = getelementptr inbounds %struct.State, %struct.State* %0, i64 0, i32 6, i32 33, i32 0, i32 0
  %RSI = getelementptr inbounds %struct.State, %struct.State* %0, i64 0, i32 6, i32 9, i32 0, i32 0
  %RBP = getelementptr inbounds %struct.State, %struct.State* %0, i64 0, i32 6, i32 15, i32 0, i32 0
  %3 = load i64, i64* %RBP, align 8
  %4 = add i64 %3, -8
  %5 = load i64, i64* %PC, align 8
  %6 = add i64 %5, 4
  store i64 %6, i64* %PC, align 8
  %7 = inttoptr i64 %4 to i64*
  %8 = load i64, i64* %7, align 8
  store i64 %8, i64* %RSI, align 8
  ret %struct.Memory* %2
}

; Function Attrs: norecurse nounwind
define %struct.Memory* @routine_movq___rsi____rsi(%struct.State* nocapture dereferenceable(3376), i64, %struct.Memory* readnone returned) local_unnamed_addr #2 {
block_400488:
  %PC = getelementptr inbounds %struct.State, %struct.State* %0, i64 0, i32 6, i32 33, i32 0, i32 0
  %RSI = getelementptr inbounds %struct.State, %struct.State* %0, i64 0, i32 6, i32 9, i32 0, i32 0
  %3 = bitcast i64* %RSI to i64**
  %4 = load i64*, i64** %3, align 8
  %5 = load i64, i64* %PC, align 8
  %6 = add i64 %5, 3
  store i64 %6, i64* %PC, align 8
  %7 = load i64, i64* %4, align 8
  store i64 %7, i64* %RSI, align 8
  ret %struct.Memory* %2
}

; Function Attrs: norecurse nounwind
define %struct.Memory* @routine_movq__rax____rsi_(%struct.State* nocapture dereferenceable(3376), i64, %struct.Memory* readnone returned) local_unnamed_addr #2 {
block_400488:
  %PC = getelementptr inbounds %struct.State, %struct.State* %0, i64 0, i32 6, i32 33, i32 0, i32 0
  %RAX = getelementptr inbounds %struct.State, %struct.State* %0, i64 0, i32 6, i32 1, i32 0, i32 0
  %RSI = getelementptr inbounds %struct.State, %struct.State* %0, i64 0, i32 6, i32 9, i32 0, i32 0
  %3 = bitcast i64* %RSI to i64**
  %4 = load i64*, i64** %3, align 8
  %5 = load i64, i64* %RAX, align 8
  %6 = load i64, i64* %PC, align 8
  %7 = add i64 %6, 3
  store i64 %7, i64* %PC, align 8
  store i64 %5, i64* %4, align 8
  ret %struct.Memory* %2
}

; Function Attrs: norecurse nounwind
define %struct.Memory* @routine_jne_.L_45a09e(%struct.State* nocapture dereferenceable(3376), i64, %struct.Memory* readnone returned, i8* nocapture %BRANCH_TAKEN, i64 %rel_off1, i64 %rel_off2, i64 %rel_off3) local_unnamed_addr #2 {
block_400488:
  %PC = getelementptr inbounds %struct.State, %struct.State* %0, i64 0, i32 6, i32 33, i32 0, i32 0
  %3 = load i64, i64* %PC, align 8
  %4 = getelementptr inbounds %struct.State, %struct.State* %0, i64 0, i32 2, i32 7
  %5 = load i8, i8* %4, align 1
  %6 = icmp eq i8 %5, 0
  %7 = zext i1 %6 to i8
  store i8 %7, i8* %BRANCH_TAKEN, align 1
  %.v = select i1 %6, i64 %rel_off1, i64 %rel_off2
  %8 = add i64 %.v, %3
  store i64 %8, i64* %PC, align 8
  ret %struct.Memory* %2
}

; Function Attrs: norecurse nounwind
define %struct.Memory* @routine_movl__0x1__MINUS0x14__rbp_(%struct.State* nocapture dereferenceable(3376), i64, %struct.Memory* readnone returned) local_unnamed_addr #2 {
block_400488:
  %PC = getelementptr inbounds %struct.State, %struct.State* %0, i64 0, i32 6, i32 33, i32 0, i32 0
  %RBP = getelementptr inbounds %struct.State, %struct.State* %0, i64 0, i32 6, i32 15, i32 0, i32 0
  %3 = load i64, i64* %RBP, align 8
  %4 = add i64 %3, -20
  %5 = load i64, i64* %PC, align 8
  %6 = add i64 %5, 7
  store i64 %6, i64* %PC, align 8
  %7 = inttoptr i64 %4 to i32*
  store i32 1, i32* %7, align 4
  ret %struct.Memory* %2
}

; Function Attrs: norecurse nounwind
define %struct.Memory* @routine_movl_MINUS0x14__rbp____eax(%struct.State* nocapture dereferenceable(3376), i64, %struct.Memory* readnone returned) local_unnamed_addr #2 {
block_400488:
  %PC = getelementptr inbounds %struct.State, %struct.State* %0, i64 0, i32 6, i32 33, i32 0, i32 0
  %RAX = getelementptr inbounds %struct.State, %struct.State* %0, i64 0, i32 6, i32 1, i32 0, i32 0
  %RBP = getelementptr inbounds %struct.State, %struct.State* %0, i64 0, i32 6, i32 15, i32 0, i32 0
  %3 = load i64, i64* %RBP, align 8
  %4 = add i64 %3, -20
  %5 = load i64, i64* %PC, align 8
  %6 = add i64 %5, 3
  store i64 %6, i64* %PC, align 8
  %7 = inttoptr i64 %4 to i32*
  %8 = load i32, i32* %7, align 4
  %9 = zext i32 %8 to i64
  store i64 %9, i64* %RAX, align 8
  ret %struct.Memory* %2
}

; Function Attrs: nounwind
define %struct.Memory* @routine_cmpl_MINUS0xc__rbp____eax(%struct.State* nocapture dereferenceable(3376), i64, %struct.Memory* readnone returned) local_unnamed_addr #3 {
block_400488:
  %PC = getelementptr inbounds %struct.State, %struct.State* %0, i64 0, i32 6, i32 33, i32 0, i32 0
  %3 = getelementptr inbounds %struct.State, %struct.State* %0, i64 0, i32 6, i32 1, i32 0
  %EAX = bitcast %union.anon* %3 to i32*
  %RBP = getelementptr inbounds %struct.State, %struct.State* %0, i64 0, i32 6, i32 15, i32 0, i32 0
  %4 = load i32, i32* %EAX, align 4
  %5 = load i64, i64* %RBP, align 8
  %6 = add i64 %5, -12
  %7 = load i64, i64* %PC, align 8
  %8 = add i64 %7, 3
  store i64 %8, i64* %PC, align 8
  %9 = inttoptr i64 %6 to i32*
  %10 = load i32, i32* %9, align 4
  %11 = sub i32 %4, %10
  %12 = icmp ult i32 %4, %10
  %13 = zext i1 %12 to i8
  %14 = getelementptr inbounds %struct.State, %struct.State* %0, i64 0, i32 2, i32 1
  store i8 %13, i8* %14, align 1
  %15 = and i32 %11, 255
  %16 = tail call i32 @llvm.ctpop.i32(i32 %15)
  %17 = trunc i32 %16 to i8
  %18 = and i8 %17, 1
  %19 = xor i8 %18, 1
  %20 = getelementptr inbounds %struct.State, %struct.State* %0, i64 0, i32 2, i32 3
  store i8 %19, i8* %20, align 1
  %21 = xor i32 %10, %4
  %22 = xor i32 %21, %11
  %23 = lshr i32 %22, 4
  %24 = trunc i32 %23 to i8
  %25 = and i8 %24, 1
  %26 = getelementptr inbounds %struct.State, %struct.State* %0, i64 0, i32 2, i32 5
  store i8 %25, i8* %26, align 1
  %27 = icmp eq i32 %11, 0
  %28 = zext i1 %27 to i8
  %29 = getelementptr inbounds %struct.State, %struct.State* %0, i64 0, i32 2, i32 7
  store i8 %28, i8* %29, align 1
  %30 = lshr i32 %11, 31
  %31 = trunc i32 %30 to i8
  %32 = getelementptr inbounds %struct.State, %struct.State* %0, i64 0, i32 2, i32 9
  store i8 %31, i8* %32, align 1
  %33 = lshr i32 %4, 31
  %34 = lshr i32 %10, 31
  %35 = xor i32 %34, %33
  %36 = xor i32 %30, %33
  %37 = add nuw nsw i32 %36, %35
  %38 = icmp eq i32 %37, 2
  %39 = zext i1 %38 to i8
  %40 = getelementptr inbounds %struct.State, %struct.State* %0, i64 0, i32 2, i32 13
  store i8 %39, i8* %40, align 1
  ret %struct.Memory* %2
}

; Function Attrs: norecurse nounwind
define %struct.Memory* @routine_jge_.L_45a0ed(%struct.State* nocapture dereferenceable(3376), i64, %struct.Memory* readnone returned, i8* nocapture %BRANCH_TAKEN, i64 %rel_off1, i64 %rel_off2, i64 %rel_off3) local_unnamed_addr #2 {
block_400488:
  %PC = getelementptr inbounds %struct.State, %struct.State* %0, i64 0, i32 6, i32 33, i32 0, i32 0
  %3 = load i64, i64* %PC, align 8
  %4 = getelementptr inbounds %struct.State, %struct.State* %0, i64 0, i32 2, i32 9
  %5 = load i8, i8* %4, align 1
  %6 = icmp ne i8 %5, 0
  %7 = getelementptr inbounds %struct.State, %struct.State* %0, i64 0, i32 2, i32 13
  %8 = load i8, i8* %7, align 1
  %9 = icmp ne i8 %8, 0
  %10 = xor i1 %6, %9
  %11 = xor i1 %10, true
  %12 = zext i1 %11 to i8
  store i8 %12, i8* %BRANCH_TAKEN, align 1
  %.v = select i1 %10, i64 %rel_off2, i64 %rel_off1
  %13 = add i64 %.v, %3
  store i64 %13, i64* %PC, align 8
  ret %struct.Memory* %2
}

; Function Attrs: norecurse nounwind
define %struct.Memory* @routine_movq_MINUS0x8__rbp____rax(%struct.State* nocapture dereferenceable(3376), i64, %struct.Memory* readnone returned) local_unnamed_addr #2 {
block_400488:
  %PC = getelementptr inbounds %struct.State, %struct.State* %0, i64 0, i32 6, i32 33, i32 0, i32 0
  %RAX = getelementptr inbounds %struct.State, %struct.State* %0, i64 0, i32 6, i32 1, i32 0, i32 0
  %RBP = getelementptr inbounds %struct.State, %struct.State* %0, i64 0, i32 6, i32 15, i32 0, i32 0
  %3 = load i64, i64* %RBP, align 8
  %4 = add i64 %3, -8
  %5 = load i64, i64* %PC, align 8
  %6 = add i64 %5, 4
  store i64 %6, i64* %PC, align 8
  %7 = inttoptr i64 %4 to i64*
  %8 = load i64, i64* %7, align 8
  store i64 %8, i64* %RAX, align 8
  ret %struct.Memory* %2
}

; Function Attrs: norecurse nounwind
define %struct.Memory* @routine_movq___rax____rax(%struct.State* nocapture dereferenceable(3376), i64, %struct.Memory* readnone returned) local_unnamed_addr #2 {
block_400488:
  %PC = getelementptr inbounds %struct.State, %struct.State* %0, i64 0, i32 6, i32 33, i32 0, i32 0
  %RAX = getelementptr inbounds %struct.State, %struct.State* %0, i64 0, i32 6, i32 1, i32 0, i32 0
  %3 = bitcast i64* %RAX to i64**
  %4 = load i64*, i64** %3, align 8
  %5 = load i64, i64* %PC, align 8
  %6 = add i64 %5, 3
  store i64 %6, i64* %PC, align 8
  %7 = load i64, i64* %4, align 8
  store i64 %7, i64* %RAX, align 8
  ret %struct.Memory* %2
}

; Function Attrs: norecurse nounwind
define %struct.Memory* @routine_movl_MINUS0x14__rbp____ecx(%struct.State* nocapture dereferenceable(3376), i64, %struct.Memory* readnone returned) local_unnamed_addr #2 {
block_400488:
  %PC = getelementptr inbounds %struct.State, %struct.State* %0, i64 0, i32 6, i32 33, i32 0, i32 0
  %RCX = getelementptr inbounds %struct.State, %struct.State* %0, i64 0, i32 6, i32 5, i32 0, i32 0
  %RBP = getelementptr inbounds %struct.State, %struct.State* %0, i64 0, i32 6, i32 15, i32 0, i32 0
  %3 = load i64, i64* %RBP, align 8
  %4 = add i64 %3, -20
  %5 = load i64, i64* %PC, align 8
  %6 = add i64 %5, 3
  store i64 %6, i64* %PC, align 8
  %7 = inttoptr i64 %4 to i32*
  %8 = load i32, i32* %7, align 4
  %9 = zext i32 %8 to i64
  store i64 %9, i64* %RCX, align 8
  ret %struct.Memory* %2
}

; Function Attrs: nounwind
define %struct.Memory* @routine_subl__0x1___ecx(%struct.State* nocapture dereferenceable(3376), i64, %struct.Memory* readnone returned) local_unnamed_addr #3 {
block_400488:
  %PC = getelementptr inbounds %struct.State, %struct.State* %0, i64 0, i32 6, i32 33, i32 0, i32 0
  %RCX = getelementptr inbounds %struct.State, %struct.State* %0, i64 0, i32 6, i32 5, i32 0, i32 0
  %3 = load i64, i64* %RCX, align 8
  %4 = load i64, i64* %PC, align 8
  %5 = add i64 %4, 3
  store i64 %5, i64* %PC, align 8
  %6 = trunc i64 %3 to i32
  %7 = add i32 %6, -1
  %8 = zext i32 %7 to i64
  store i64 %8, i64* %RCX, align 8
  %9 = icmp eq i32 %6, 0
  %10 = zext i1 %9 to i8
  %11 = getelementptr inbounds %struct.State, %struct.State* %0, i64 0, i32 2, i32 1
  store i8 %10, i8* %11, align 1
  %12 = and i32 %7, 255
  %13 = tail call i32 @llvm.ctpop.i32(i32 %12)
  %14 = trunc i32 %13 to i8
  %15 = and i8 %14, 1
  %16 = xor i8 %15, 1
  %17 = getelementptr inbounds %struct.State, %struct.State* %0, i64 0, i32 2, i32 3
  store i8 %16, i8* %17, align 1
  %18 = xor i32 %7, %6
  %19 = lshr i32 %18, 4
  %20 = trunc i32 %19 to i8
  %21 = and i8 %20, 1
  %22 = getelementptr inbounds %struct.State, %struct.State* %0, i64 0, i32 2, i32 5
  store i8 %21, i8* %22, align 1
  %23 = icmp eq i32 %7, 0
  %24 = zext i1 %23 to i8
  %25 = getelementptr inbounds %struct.State, %struct.State* %0, i64 0, i32 2, i32 7
  store i8 %24, i8* %25, align 1
  %26 = lshr i32 %7, 31
  %27 = trunc i32 %26 to i8
  %28 = getelementptr inbounds %struct.State, %struct.State* %0, i64 0, i32 2, i32 9
  store i8 %27, i8* %28, align 1
  %29 = lshr i32 %6, 31
  %30 = xor i32 %26, %29
  %31 = add nuw nsw i32 %30, %29
  %32 = icmp eq i32 %31, 2
  %33 = zext i1 %32 to i8
  %34 = getelementptr inbounds %struct.State, %struct.State* %0, i64 0, i32 2, i32 13
  store i8 %33, i8* %34, align 1
  ret %struct.Memory* %2
}

; Function Attrs: norecurse nounwind
define %struct.Memory* @routine_movslq__ecx___rdx(%struct.State* nocapture dereferenceable(3376), i64, %struct.Memory* readnone returned) local_unnamed_addr #2 {
block_400488:
  %PC = getelementptr inbounds %struct.State, %struct.State* %0, i64 0, i32 6, i32 33, i32 0, i32 0
  %3 = getelementptr inbounds %struct.State, %struct.State* %0, i64 0, i32 6, i32 5, i32 0
  %ECX = bitcast %union.anon* %3 to i32*
  %RDX = getelementptr inbounds %struct.State, %struct.State* %0, i64 0, i32 6, i32 7, i32 0, i32 0
  %4 = load i32, i32* %ECX, align 4
  %5 = load i64, i64* %PC, align 8
  %6 = add i64 %5, 3
  store i64 %6, i64* %PC, align 8
  %7 = sext i32 %4 to i64
  store i64 %7, i64* %RDX, align 8
  ret %struct.Memory* %2
}

; Function Attrs: norecurse nounwind
define %struct.Memory* @routine_movq___rax__rdx_8____rax(%struct.State* nocapture dereferenceable(3376), i64, %struct.Memory* readnone returned) local_unnamed_addr #2 {
block_400488:
  %PC = getelementptr inbounds %struct.State, %struct.State* %0, i64 0, i32 6, i32 33, i32 0, i32 0
  %RAX = getelementptr inbounds %struct.State, %struct.State* %0, i64 0, i32 6, i32 1, i32 0, i32 0
  %RDX = getelementptr inbounds %struct.State, %struct.State* %0, i64 0, i32 6, i32 7, i32 0, i32 0
  %3 = load i64, i64* %RAX, align 8
  %4 = load i64, i64* %RDX, align 8
  %5 = shl i64 %4, 3
  %6 = add i64 %5, %3
  %7 = load i64, i64* %PC, align 8
  %8 = add i64 %7, 4
  store i64 %8, i64* %PC, align 8
  %9 = inttoptr i64 %6 to i64*
  %10 = load i64, i64* %9, align 8
  store i64 %10, i64* %RAX, align 8
  ret %struct.Memory* %2
}

; Function Attrs: norecurse nounwind
define %struct.Memory* @routine_movslq_MINUS0x10__rbp____rdx(%struct.State* nocapture dereferenceable(3376), i64, %struct.Memory* readnone returned) local_unnamed_addr #2 {
block_400488:
  %PC = getelementptr inbounds %struct.State, %struct.State* %0, i64 0, i32 6, i32 33, i32 0, i32 0
  %RDX = getelementptr inbounds %struct.State, %struct.State* %0, i64 0, i32 6, i32 7, i32 0, i32 0
  %RBP = getelementptr inbounds %struct.State, %struct.State* %0, i64 0, i32 6, i32 15, i32 0, i32 0
  %3 = load i64, i64* %RBP, align 8
  %4 = add i64 %3, -16
  %5 = load i64, i64* %PC, align 8
  %6 = add i64 %5, 4
  store i64 %6, i64* %PC, align 8
  %7 = inttoptr i64 %4 to i32*
  %8 = load i32, i32* %7, align 4
  %9 = sext i32 %8 to i64
  store i64 %9, i64* %RDX, align 8
  ret %struct.Memory* %2
}

; Function Attrs: nounwind
define %struct.Memory* @routine_shlq__0x1___rdx(%struct.State* nocapture dereferenceable(3376), i64, %struct.Memory* readnone returned) local_unnamed_addr #3 {
block_400488:
  %PC = getelementptr inbounds %struct.State, %struct.State* %0, i64 0, i32 6, i32 33, i32 0, i32 0
  %RDX = getelementptr inbounds %struct.State, %struct.State* %0, i64 0, i32 6, i32 7, i32 0, i32 0
  %3 = load i64, i64* %RDX, align 8
  %4 = load i64, i64* %PC, align 8
  %5 = add i64 %4, 3
  store i64 %5, i64* %PC, align 8
  %6 = shl i64 %3, 1
  %7 = icmp slt i64 %3, 0
  %8 = icmp slt i64 %6, 0
  %9 = xor i1 %7, %8
  store i64 %6, i64* %RDX, align 8
  %10 = getelementptr inbounds %struct.State, %struct.State* %0, i64 0, i32 2, i32 1
  %.lobit = lshr i64 %3, 63
  %11 = trunc i64 %.lobit to i8
  store i8 %11, i8* %10, align 1
  %12 = getelementptr inbounds %struct.State, %struct.State* %0, i64 0, i32 2, i32 3
  %13 = trunc i64 %6 to i32
  %14 = and i32 %13, 254
  %15 = tail call i32 @llvm.ctpop.i32(i32 %14)
  %16 = trunc i32 %15 to i8
  %17 = and i8 %16, 1
  %18 = xor i8 %17, 1
  store i8 %18, i8* %12, align 1
  %19 = getelementptr inbounds %struct.State, %struct.State* %0, i64 0, i32 2, i32 5
  store i8 0, i8* %19, align 1
  %20 = getelementptr inbounds %struct.State, %struct.State* %0, i64 0, i32 2, i32 7
  %21 = icmp eq i64 %6, 0
  %22 = zext i1 %21 to i8
  store i8 %22, i8* %20, align 1
  %23 = getelementptr inbounds %struct.State, %struct.State* %0, i64 0, i32 2, i32 9
  %24 = lshr i64 %3, 62
  %25 = trunc i64 %24 to i8
  %26 = and i8 %25, 1
  store i8 %26, i8* %23, align 1
  %27 = getelementptr inbounds %struct.State, %struct.State* %0, i64 0, i32 2, i32 13
  %28 = zext i1 %9 to i8
  store i8 %28, i8* %27, align 1
  ret %struct.Memory* %2
}

; Function Attrs: nounwind
define %struct.Memory* @routine_addq__rdx___rax(%struct.State* nocapture dereferenceable(3376), i64, %struct.Memory* readnone returned) local_unnamed_addr #3 {
block_400488:
  %PC = getelementptr inbounds %struct.State, %struct.State* %0, i64 0, i32 6, i32 33, i32 0, i32 0
  %RAX = getelementptr inbounds %struct.State, %struct.State* %0, i64 0, i32 6, i32 1, i32 0, i32 0
  %RDX = getelementptr inbounds %struct.State, %struct.State* %0, i64 0, i32 6, i32 7, i32 0, i32 0
  %3 = load i64, i64* %RAX, align 8
  %4 = load i64, i64* %RDX, align 8
  %5 = load i64, i64* %PC, align 8
  %6 = add i64 %5, 3
  store i64 %6, i64* %PC, align 8
  %7 = add i64 %4, %3
  store i64 %7, i64* %RAX, align 8
  %8 = icmp ult i64 %7, %3
  %9 = icmp ult i64 %7, %4
  %10 = or i1 %8, %9
  %11 = zext i1 %10 to i8
  %12 = getelementptr inbounds %struct.State, %struct.State* %0, i64 0, i32 2, i32 1
  store i8 %11, i8* %12, align 1
  %13 = trunc i64 %7 to i32
  %14 = and i32 %13, 255
  %15 = tail call i32 @llvm.ctpop.i32(i32 %14)
  %16 = trunc i32 %15 to i8
  %17 = and i8 %16, 1
  %18 = xor i8 %17, 1
  %19 = getelementptr inbounds %struct.State, %struct.State* %0, i64 0, i32 2, i32 3
  store i8 %18, i8* %19, align 1
  %20 = xor i64 %4, %3
  %21 = xor i64 %20, %7
  %22 = lshr i64 %21, 4
  %23 = trunc i64 %22 to i8
  %24 = and i8 %23, 1
  %25 = getelementptr inbounds %struct.State, %struct.State* %0, i64 0, i32 2, i32 5
  store i8 %24, i8* %25, align 1
  %26 = icmp eq i64 %7, 0
  %27 = zext i1 %26 to i8
  %28 = getelementptr inbounds %struct.State, %struct.State* %0, i64 0, i32 2, i32 7
  store i8 %27, i8* %28, align 1
  %29 = lshr i64 %7, 63
  %30 = trunc i64 %29 to i8
  %31 = getelementptr inbounds %struct.State, %struct.State* %0, i64 0, i32 2, i32 9
  store i8 %30, i8* %31, align 1
  %32 = lshr i64 %3, 63
  %33 = lshr i64 %4, 63
  %34 = xor i64 %29, %32
  %35 = xor i64 %29, %33
  %36 = add nuw nsw i64 %34, %35
  %37 = icmp eq i64 %36, 2
  %38 = zext i1 %37 to i8
  %39 = getelementptr inbounds %struct.State, %struct.State* %0, i64 0, i32 2, i32 13
  store i8 %38, i8* %39, align 1
  ret %struct.Memory* %2
}

; Function Attrs: norecurse nounwind
define %struct.Memory* @routine_movq_MINUS0x8__rbp____rdx(%struct.State* nocapture dereferenceable(3376), i64, %struct.Memory* readnone returned) local_unnamed_addr #2 {
block_400488:
  %PC = getelementptr inbounds %struct.State, %struct.State* %0, i64 0, i32 6, i32 33, i32 0, i32 0
  %RDX = getelementptr inbounds %struct.State, %struct.State* %0, i64 0, i32 6, i32 7, i32 0, i32 0
  %RBP = getelementptr inbounds %struct.State, %struct.State* %0, i64 0, i32 6, i32 15, i32 0, i32 0
  %3 = load i64, i64* %RBP, align 8
  %4 = add i64 %3, -8
  %5 = load i64, i64* %PC, align 8
  %6 = add i64 %5, 4
  store i64 %6, i64* %PC, align 8
  %7 = inttoptr i64 %4 to i64*
  %8 = load i64, i64* %7, align 8
  store i64 %8, i64* %RDX, align 8
  ret %struct.Memory* %2
}

; Function Attrs: norecurse nounwind
define %struct.Memory* @routine_movq___rdx____rdx(%struct.State* nocapture dereferenceable(3376), i64, %struct.Memory* readnone returned) local_unnamed_addr #2 {
block_400488:
  %PC = getelementptr inbounds %struct.State, %struct.State* %0, i64 0, i32 6, i32 33, i32 0, i32 0
  %RDX = getelementptr inbounds %struct.State, %struct.State* %0, i64 0, i32 6, i32 7, i32 0, i32 0
  %3 = bitcast i64* %RDX to i64**
  %4 = load i64*, i64** %3, align 8
  %5 = load i64, i64* %PC, align 8
  %6 = add i64 %5, 3
  store i64 %6, i64* %PC, align 8
  %7 = load i64, i64* %4, align 8
  store i64 %7, i64* %RDX, align 8
  ret %struct.Memory* %2
}

; Function Attrs: norecurse nounwind
define %struct.Memory* @routine_movslq_MINUS0x14__rbp____rsi(%struct.State* nocapture dereferenceable(3376), i64, %struct.Memory* readnone returned) local_unnamed_addr #2 {
block_400488:
  %PC = getelementptr inbounds %struct.State, %struct.State* %0, i64 0, i32 6, i32 33, i32 0, i32 0
  %RSI = getelementptr inbounds %struct.State, %struct.State* %0, i64 0, i32 6, i32 9, i32 0, i32 0
  %RBP = getelementptr inbounds %struct.State, %struct.State* %0, i64 0, i32 6, i32 15, i32 0, i32 0
  %3 = load i64, i64* %RBP, align 8
  %4 = add i64 %3, -20
  %5 = load i64, i64* %PC, align 8
  %6 = add i64 %5, 4
  store i64 %6, i64* %PC, align 8
  %7 = inttoptr i64 %4 to i32*
  %8 = load i32, i32* %7, align 4
  %9 = sext i32 %8 to i64
  store i64 %9, i64* %RSI, align 8
  ret %struct.Memory* %2
}

; Function Attrs: norecurse nounwind
define %struct.Memory* @routine_movq__rax____rdx__rsi_8_(%struct.State* nocapture dereferenceable(3376), i64, %struct.Memory* readnone returned) local_unnamed_addr #2 {
block_400488:
  %PC = getelementptr inbounds %struct.State, %struct.State* %0, i64 0, i32 6, i32 33, i32 0, i32 0
  %RAX = getelementptr inbounds %struct.State, %struct.State* %0, i64 0, i32 6, i32 1, i32 0, i32 0
  %RDX = getelementptr inbounds %struct.State, %struct.State* %0, i64 0, i32 6, i32 7, i32 0, i32 0
  %RSI = getelementptr inbounds %struct.State, %struct.State* %0, i64 0, i32 6, i32 9, i32 0, i32 0
  %3 = load i64, i64* %RDX, align 8
  %4 = load i64, i64* %RSI, align 8
  %5 = shl i64 %4, 3
  %6 = add i64 %5, %3
  %7 = load i64, i64* %RAX, align 8
  %8 = load i64, i64* %PC, align 8
  %9 = add i64 %8, 4
  store i64 %9, i64* %PC, align 8
  %10 = inttoptr i64 %6 to i64*
  store i64 %7, i64* %10, align 8
  ret %struct.Memory* %2
}

; Function Attrs: nounwind
define %struct.Memory* @routine_addl__0x1___eax(%struct.State* nocapture dereferenceable(3376), i64, %struct.Memory* readnone returned) local_unnamed_addr #3 {
block_400488:
  %PC = getelementptr inbounds %struct.State, %struct.State* %0, i64 0, i32 6, i32 33, i32 0, i32 0
  %RAX = getelementptr inbounds %struct.State, %struct.State* %0, i64 0, i32 6, i32 1, i32 0, i32 0
  %3 = load i64, i64* %RAX, align 8
  %4 = load i64, i64* %PC, align 8
  %5 = add i64 %4, 3
  store i64 %5, i64* %PC, align 8
  %6 = trunc i64 %3 to i32
  %7 = add i32 %6, 1
  %8 = zext i32 %7 to i64
  store i64 %8, i64* %RAX, align 8
  %9 = icmp eq i32 %6, -1
  %10 = icmp eq i32 %7, 0
  %11 = or i1 %9, %10
  %12 = zext i1 %11 to i8
  %13 = getelementptr inbounds %struct.State, %struct.State* %0, i64 0, i32 2, i32 1
  store i8 %12, i8* %13, align 1
  %14 = and i32 %7, 255
  %15 = tail call i32 @llvm.ctpop.i32(i32 %14)
  %16 = trunc i32 %15 to i8
  %17 = and i8 %16, 1
  %18 = xor i8 %17, 1
  %19 = getelementptr inbounds %struct.State, %struct.State* %0, i64 0, i32 2, i32 3
  store i8 %18, i8* %19, align 1
  %20 = xor i32 %7, %6
  %21 = lshr i32 %20, 4
  %22 = trunc i32 %21 to i8
  %23 = and i8 %22, 1
  %24 = getelementptr inbounds %struct.State, %struct.State* %0, i64 0, i32 2, i32 5
  store i8 %23, i8* %24, align 1
  %25 = zext i1 %10 to i8
  %26 = getelementptr inbounds %struct.State, %struct.State* %0, i64 0, i32 2, i32 7
  store i8 %25, i8* %26, align 1
  %27 = lshr i32 %7, 31
  %28 = trunc i32 %27 to i8
  %29 = getelementptr inbounds %struct.State, %struct.State* %0, i64 0, i32 2, i32 9
  store i8 %28, i8* %29, align 1
  %30 = lshr i32 %6, 31
  %31 = xor i32 %27, %30
  %32 = add nuw nsw i32 %31, %27
  %33 = icmp eq i32 %32, 2
  %34 = zext i1 %33 to i8
  %35 = getelementptr inbounds %struct.State, %struct.State* %0, i64 0, i32 2, i32 13
  store i8 %34, i8* %35, align 1
  ret %struct.Memory* %2
}

; Function Attrs: norecurse nounwind
define %struct.Memory* @routine_movl__eax__MINUS0x14__rbp_(%struct.State* nocapture dereferenceable(3376), i64, %struct.Memory* readnone returned) local_unnamed_addr #2 {
block_400488:
  %PC = getelementptr inbounds %struct.State, %struct.State* %0, i64 0, i32 6, i32 33, i32 0, i32 0
  %3 = getelementptr inbounds %struct.State, %struct.State* %0, i64 0, i32 6, i32 1, i32 0
  %EAX = bitcast %union.anon* %3 to i32*
  %RBP = getelementptr inbounds %struct.State, %struct.State* %0, i64 0, i32 6, i32 15, i32 0, i32 0
  %4 = load i64, i64* %RBP, align 8
  %5 = add i64 %4, -20
  %6 = load i32, i32* %EAX, align 4
  %7 = load i64, i64* %PC, align 8
  %8 = add i64 %7, 3
  store i64 %8, i64* %PC, align 8
  %9 = inttoptr i64 %5 to i32*
  store i32 %6, i32* %9, align 4
  ret %struct.Memory* %2
}

; Function Attrs: norecurse nounwind
define %struct.Memory* @routine_jmpq_.L_45a0a5(%struct.State* nocapture dereferenceable(3376), i64, %struct.Memory* readnone returned, i64 %rel_off1, i64 %rel_off2) local_unnamed_addr #2 {
block_400488:
  %PC = getelementptr inbounds %struct.State, %struct.State* %0, i64 0, i32 6, i32 33, i32 0, i32 0
  %3 = load i64, i64* %PC, align 8
  %4 = add i64 %3, %rel_off1
  store i64 %4, i64* %PC, align 8
  ret %struct.Memory* %2
}

; Function Attrs: norecurse nounwind
define %struct.Memory* @routine_movslq__eax___rcx(%struct.State* nocapture dereferenceable(3376), i64, %struct.Memory* readnone returned) local_unnamed_addr #2 {
block_400488:
  %PC = getelementptr inbounds %struct.State, %struct.State* %0, i64 0, i32 6, i32 33, i32 0, i32 0
  %3 = getelementptr inbounds %struct.State, %struct.State* %0, i64 0, i32 6, i32 1, i32 0
  %EAX = bitcast %union.anon* %3 to i32*
  %RCX = getelementptr inbounds %struct.State, %struct.State* %0, i64 0, i32 6, i32 5, i32 0, i32 0
  %4 = load i32, i32* %EAX, align 4
  %5 = load i64, i64* %PC, align 8
  %6 = add i64 %5, 3
  store i64 %6, i64* %PC, align 8
  %7 = sext i32 %4 to i64
  store i64 %7, i64* %RCX, align 8
  ret %struct.Memory* %2
}

; Function Attrs: nounwind
define %struct.Memory* @routine_shlq__0x1___rcx(%struct.State* nocapture dereferenceable(3376), i64, %struct.Memory* readnone returned) local_unnamed_addr #3 {
block_400488:
  %PC = getelementptr inbounds %struct.State, %struct.State* %0, i64 0, i32 6, i32 33, i32 0, i32 0
  %RCX = getelementptr inbounds %struct.State, %struct.State* %0, i64 0, i32 6, i32 5, i32 0, i32 0
  %3 = load i64, i64* %RCX, align 8
  %4 = load i64, i64* %PC, align 8
  %5 = add i64 %4, 3
  store i64 %5, i64* %PC, align 8
  %6 = shl i64 %3, 1
  %7 = icmp slt i64 %3, 0
  %8 = icmp slt i64 %6, 0
  %9 = xor i1 %7, %8
  store i64 %6, i64* %RCX, align 8
  %10 = getelementptr inbounds %struct.State, %struct.State* %0, i64 0, i32 2, i32 1
  %.lobit = lshr i64 %3, 63
  %11 = trunc i64 %.lobit to i8
  store i8 %11, i8* %10, align 1
  %12 = getelementptr inbounds %struct.State, %struct.State* %0, i64 0, i32 2, i32 3
  %13 = trunc i64 %6 to i32
  %14 = and i32 %13, 254
  %15 = tail call i32 @llvm.ctpop.i32(i32 %14)
  %16 = trunc i32 %15 to i8
  %17 = and i8 %16, 1
  %18 = xor i8 %17, 1
  store i8 %18, i8* %12, align 1
  %19 = getelementptr inbounds %struct.State, %struct.State* %0, i64 0, i32 2, i32 5
  store i8 0, i8* %19, align 1
  %20 = getelementptr inbounds %struct.State, %struct.State* %0, i64 0, i32 2, i32 7
  %21 = icmp eq i64 %6, 0
  %22 = zext i1 %21 to i8
  store i8 %22, i8* %20, align 1
  %23 = getelementptr inbounds %struct.State, %struct.State* %0, i64 0, i32 2, i32 9
  %24 = lshr i64 %3, 62
  %25 = trunc i64 %24 to i8
  %26 = and i8 %25, 1
  store i8 %26, i8* %23, align 1
  %27 = getelementptr inbounds %struct.State, %struct.State* %0, i64 0, i32 2, i32 13
  %28 = zext i1 %9 to i8
  store i8 %28, i8* %27, align 1
  ret %struct.Memory* %2
}

; Function Attrs: norecurse nounwind
define %struct.Memory* @routine_movl__ecx___eax(%struct.State* nocapture dereferenceable(3376), i64, %struct.Memory* readnone returned) local_unnamed_addr #2 {
block_400488:
  %PC = getelementptr inbounds %struct.State, %struct.State* %0, i64 0, i32 6, i32 33, i32 0, i32 0
  %3 = getelementptr inbounds %struct.State, %struct.State* %0, i64 0, i32 6, i32 5, i32 0
  %ECX = bitcast %union.anon* %3 to i32*
  %RAX = getelementptr inbounds %struct.State, %struct.State* %0, i64 0, i32 6, i32 1, i32 0, i32 0
  %4 = load i32, i32* %ECX, align 4
  %5 = zext i32 %4 to i64
  %6 = load i64, i64* %PC, align 8
  %7 = add i64 %6, 2
  store i64 %7, i64* %PC, align 8
  store i64 %5, i64* %RAX, align 8
  ret %struct.Memory* %2
}

; Function Attrs: nounwind
define %struct.Memory* @routine_addq__0x20___rsp(%struct.State* nocapture dereferenceable(3376), i64, %struct.Memory* readnone returned) local_unnamed_addr #3 {
block_400488:
  %PC = getelementptr inbounds %struct.State, %struct.State* %0, i64 0, i32 6, i32 33, i32 0, i32 0
  %RSP = getelementptr inbounds %struct.State, %struct.State* %0, i64 0, i32 6, i32 13, i32 0, i32 0
  %3 = load i64, i64* %RSP, align 8
  %4 = load i64, i64* %PC, align 8
  %5 = add i64 %4, 4
  store i64 %5, i64* %PC, align 8
  %6 = add i64 %3, 32
  store i64 %6, i64* %RSP, align 8
  %7 = icmp ugt i64 %3, -33
  %8 = zext i1 %7 to i8
  %9 = getelementptr inbounds %struct.State, %struct.State* %0, i64 0, i32 2, i32 1
  store i8 %8, i8* %9, align 1
  %10 = trunc i64 %6 to i32
  %11 = and i32 %10, 255
  %12 = tail call i32 @llvm.ctpop.i32(i32 %11)
  %13 = trunc i32 %12 to i8
  %14 = and i8 %13, 1
  %15 = xor i8 %14, 1
  %16 = getelementptr inbounds %struct.State, %struct.State* %0, i64 0, i32 2, i32 3
  store i8 %15, i8* %16, align 1
  %17 = xor i64 %6, %3
  %18 = lshr i64 %17, 4
  %19 = trunc i64 %18 to i8
  %20 = and i8 %19, 1
  %21 = getelementptr inbounds %struct.State, %struct.State* %0, i64 0, i32 2, i32 5
  store i8 %20, i8* %21, align 1
  %22 = icmp eq i64 %6, 0
  %23 = zext i1 %22 to i8
  %24 = getelementptr inbounds %struct.State, %struct.State* %0, i64 0, i32 2, i32 7
  store i8 %23, i8* %24, align 1
  %25 = lshr i64 %6, 63
  %26 = trunc i64 %25 to i8
  %27 = getelementptr inbounds %struct.State, %struct.State* %0, i64 0, i32 2, i32 9
  store i8 %26, i8* %27, align 1
  %28 = lshr i64 %3, 63
  %29 = xor i64 %25, %28
  %30 = add nuw nsw i64 %29, %25
  %31 = icmp eq i64 %30, 2
  %32 = zext i1 %31 to i8
  %33 = getelementptr inbounds %struct.State, %struct.State* %0, i64 0, i32 2, i32 13
  store i8 %32, i8* %33, align 1
  ret %struct.Memory* %2
}

; Function Attrs: norecurse nounwind
define %struct.Memory* @routine_popq__rbp(%struct.State* nocapture dereferenceable(3376), i64, %struct.Memory* readnone returned) local_unnamed_addr #2 {
block_400488:
  %PC = getelementptr inbounds %struct.State, %struct.State* %0, i64 0, i32 6, i32 33, i32 0, i32 0
  %RBP = getelementptr inbounds %struct.State, %struct.State* %0, i64 0, i32 6, i32 15, i32 0, i32 0
  %3 = load i64, i64* %PC, align 8
  %4 = add i64 %3, 1
  store i64 %4, i64* %PC, align 8
  %5 = getelementptr inbounds %struct.State, %struct.State* %0, i64 0, i32 6, i32 13, i32 0, i32 0
  %6 = load i64, i64* %5, align 8
  %7 = add i64 %6, 8
  %8 = inttoptr i64 %6 to i64*
  %9 = load i64, i64* %8, align 8
  store i64 %9, i64* %RBP, align 8
  store i64 %7, i64* %5, align 8
  ret %struct.Memory* %2
}

; Function Attrs: norecurse nounwind
define %struct.Memory* @routine_retq(%struct.State* nocapture dereferenceable(3376), i64, %struct.Memory* readnone returned) local_unnamed_addr #2 {
block_400488:
  %PC = getelementptr inbounds %struct.State, %struct.State* %0, i64 0, i32 6, i32 33, i32 0, i32 0
  %3 = load i64, i64* %PC, align 8
  %4 = add i64 %3, 1
  store i64 %4, i64* %PC, align 8
  %5 = getelementptr inbounds %struct.State, %struct.State* %0, i64 0, i32 6, i32 13, i32 0, i32 0
  %6 = load i64, i64* %5, align 8
  %7 = inttoptr i64 %6 to i64*
  %8 = load i64, i64* %7, align 8
  store i64 %8, i64* %PC, align 8
  %9 = add i64 %6, 8
  store i64 %9, i64* %5, align 8
  ret %struct.Memory* %2
}

attributes #0 = { nounwind readnone }
attributes #1 = { alwaysinline }
attributes #2 = { norecurse nounwind }
attributes #3 = { nounwind }
