; ModuleID = 'mcsema/test.proposed.ll'
source_filename = "llvm-link"
target datalayout = "e-m:e-i64:64-f80:128-n8:16:32:64-S128"
target triple = "x86_64-pc-linux-gnu-elf"

%union.anon = type { i64 }
%seg_400370__init_type = type <{ [23 x i8] }>
%seg_400390__text_type = type <{ [354 x i8] }>
%seg_4004f4__fini_type = type <{ [9 x i8] }>
%seg_400500__rodata_type = type <{ [4 x i8] }>
%seg_400504__eh_frame_hdr_type = type <{ [52 x i8] }>
%seg_400538__eh_frame_type = type <{ [208 x i8] }>
%seg_601018__data_type = type <{ [16 x i8] }>
%__bss_start_type = type <{ [8 x i8] }>
%struct.State = type { %struct.ArchState, [32 x %union.VectorReg], %struct.ArithFlags, %union.anon, %struct.Segments, %struct.AddressSpace, %struct.GPR, %struct.X87Stack, %struct.MMX, %struct.FPUStatusFlags, %union.anon, %union.FPU, %struct.SegmentCaches }
%struct.ArchState = type { i32, i32, %union.anon }
%union.VectorReg = type { %union.vec512_t }
%union.vec512_t = type { %struct.uint64v8_t }
%struct.uint64v8_t = type { [8 x i64] }
%struct.ArithFlags = type { i8, i8, i8, i8, i8, i8, i8, i8, i8, i8, i8, i8, i8, i8, i8, i8 }
%struct.Segments = type { i16, %union.SegmentSelector, i16, %union.SegmentSelector, i16, %union.SegmentSelector, i16, %union.SegmentSelector, i16, %union.SegmentSelector, i16, %union.SegmentSelector }
%union.SegmentSelector = type { i16 }
%struct.AddressSpace = type { i64, %struct.Reg, i64, %struct.Reg, i64, %struct.Reg, i64, %struct.Reg, i64, %struct.Reg, i64, %struct.Reg }
%struct.Reg = type { %union.anon }
%struct.GPR = type { i64, %struct.Reg, i64, %struct.Reg, i64, %struct.Reg, i64, %struct.Reg, i64, %struct.Reg, i64, %struct.Reg, i64, %struct.Reg, i64, %struct.Reg, i64, %struct.Reg, i64, %struct.Reg, i64, %struct.Reg, i64, %struct.Reg, i64, %struct.Reg, i64, %struct.Reg, i64, %struct.Reg, i64, %struct.Reg, i64, %struct.Reg }
%struct.X87Stack = type { [8 x %struct.anon.3] }
%struct.anon.3 = type { i64, double }
%struct.MMX = type { [8 x %struct.anon.4] }
%struct.anon.4 = type { i64, %union.vec64_t }
%union.vec64_t = type { %struct.uint64v1_t }
%struct.uint64v1_t = type { [1 x i64] }
%struct.FPUStatusFlags = type { i8, i8, i8, i8, i8, i8, i8, i8, i8, i8, i8, i8, i8, i8, i8, i8, i8, i8, i8, i8, [4 x i8] }
%union.FPU = type { %struct.anon.13 }
%struct.anon.13 = type { %struct.FpuFXSAVE, [96 x i8] }
%struct.FpuFXSAVE = type { %union.SegmentSelector, %union.SegmentSelector, %union.FPUAbridgedTagWord, i8, i16, i32, %union.SegmentSelector, i16, i32, %union.SegmentSelector, i16, %union.FPUControlStatus, %union.FPUControlStatus, [8 x %struct.FPUStackElem], [16 x %union.vec128_t] }
%union.FPUAbridgedTagWord = type { i8 }
%union.FPUControlStatus = type { i32 }
%struct.FPUStackElem = type { %union.anon.11, [6 x i8] }
%union.anon.11 = type { %struct.float80_t }
%struct.float80_t = type { [10 x i8] }
%union.vec128_t = type { %struct.uint128v1_t }
%struct.uint128v1_t = type { [1 x i128] }
%struct.SegmentCaches = type { %struct.SegmentShadow, %struct.SegmentShadow, %struct.SegmentShadow, %struct.SegmentShadow, %struct.SegmentShadow, %struct.SegmentShadow }
%struct.SegmentShadow = type { %union.anon, i32, i32 }
%struct.Memory = type opaque

@switch.table = private unnamed_addr constant [4 x i32] [i32 2048, i32 3072, i32 0, i32 1024]
@DR0 = external global i64, align 8
@DR1 = external global i64, align 8
@DR2 = external global i64, align 8
@DR3 = external global i64, align 8
@DR4 = external global i64, align 8
@DR5 = external global i64, align 8
@DR6 = external global i64, align 8
@DR7 = external global i64, align 8
@gCR0 = external global %union.anon, align 1
@gCR1 = external global %union.anon, align 1
@gCR2 = external global %union.anon, align 1
@gCR3 = external global %union.anon, align 1
@gCR4 = external global %union.anon, align 1
@gCR8 = external global %union.anon, align 1
@seg_400370__init = internal constant %seg_400370__init_type <{ [23 x i8] c"H\83\EC\08H\8B\05}\0C \00H\85\C0t\02\FF\D0H\83\C4\08\C3" }>
@seg_400390__text = internal constant %seg_400390__text_type <{ [354 x i8] c"1\EDI\89\D1^H\89\E2H\83\E4\F0PTI\C7\C0\F0\04@\00H\C7\C1\80\04@\00H\C7\C7x\04@\00\FF\156\0C \00\F4\0F\1FD\00\00\F3\C3f.\0F\1F\84\00\00\00\00\00\0F\1F@\00U\B8(\10`\00H=(\10`\00H\89\E5t\17\B8\00\00\00\00H\85\C0t\0D]\BF(\10`\00\FF\E0\0F\1FD\00\00]\C3f\0F\1FD\00\00\BE(\10`\00UH\81\EE(\10`\00H\89\E5H\C1\FE\03H\89\F0H\C1\E8?H\01\C6H\D1\FEt\15\B8\00\00\00\00H\85\C0t\0B]\BF(\10`\00\FF\E0\0F\1F\00]\C3f\0F\1FD\00\00\80=\E1\0B \00\00u\17UH\89\E5\E8~\FF\FF\FF\C6\05\CF\0B \00\01]\C3\0F\1FD\00\00\F3\C3\0F\1F@\00f.\0F\1F\84\00\00\00\00\00UH\89\E5]\EB\89\90U\C3f\0F\1FD\00\00AWAVI\89\D7AUATL\8D%\BE\09 \00UH\8D-\BE\09 \00SA\89\FDI\89\F6L)\E5H\83\EC\08H\C1\FD\03\E8\BF\FE\FF\FFH\85\EDt 1\DB\0F\1F\84\00\00\00\00\00L\89\FAL\89\F6D\89\EFA\FF\14\DCH\83\C3\01H9\DDu\EAH\83\C4\08[]A\5CA]A^A_\C3\90f.\0F\1F\84\00\00\00\00\00\F3\C3" }>
@seg_4004f4__fini = internal constant %seg_4004f4__fini_type <{ [9 x i8] c"H\83\EC\08H\83\C4\08\C3" }>
@seg_400500__rodata = internal constant %seg_400500__rodata_type <{ [4 x i8] c"\01\00\02\00" }>
@seg_400504__eh_frame_hdr = internal constant %seg_400504__eh_frame_hdr_type <{ [52 x i8] c"\01\1B\03;0\00\00\00\05\00\00\00\8C\FE\FF\FFL\00\00\00\BC\FE\FF\FFx\00\00\00t\FF\FF\FF\8C\00\00\00|\FF\FF\FF\A4\00\00\00\EC\FF\FF\FF\EC\00\00\00" }>
@seg_400538__eh_frame = internal constant %seg_400538__eh_frame_type <{ [208 x i8] c"\14\00\00\00\00\00\00\00\01zR\00\01x\10\01\1B\0C\07\08\90\01\07\10\10\00\00\00\1C\00\00\008\FE\FF\FF+\00\00\00\00\00\00\00\14\00\00\00\00\00\00\00\01zR\00\01x\10\01\1B\0C\07\08\90\01\00\00\10\00\00\00\1C\00\00\00<\FE\FF\FF\02\00\00\00\00\00\00\00\14\00\00\000\00\00\00\E0\FE\FF\FF\02\00\00\00\00\00\00\00\00\00\00\00D\00\00\00H\00\00\00\D0\FE\FF\FFe\00\00\00\00B\0E\10\8F\02B\0E\18\8E\03E\0E \8D\04B\0E(\8C\05H\0E0\86\06H\0E8\83\07M\0E@r\0E8A\0E0A\0E(B\0E B\0E\18B\0E\10B\0E\08\00\10\00\00\00\90\00\00\00\F8\FE\FF\FF\02\00\00\00\00\00\00\00\00\00\00\00" }>
@seg_601018__data = internal global %seg_601018__data_type zeroinitializer
@__bss_start = global %__bss_start_type zeroinitializer
@0 = internal global i1 false

declare %struct.Memory* @__remill_error(%struct.State* dereferenceable(3376), i64, %struct.Memory*)

declare i32 @__remill_fpu_exception_test_and_clear(i32, i32)

; Function Attrs: argmemonly nounwind
declare void @llvm.lifetime.start(i64, i8* nocapture) #0

; Function Attrs: argmemonly nounwind
declare void @llvm.lifetime.end(i64, i8* nocapture) #0

; Function Attrs: nounwind readnone
declare i32 @llvm.ctpop.i32(i32) #1

; Function Attrs: nounwind readnone
declare i32 @llvm.bswap.i32(i32) #1

; Function Attrs: nounwind readnone
declare i64 @llvm.bswap.i64(i64) #1

; Function Attrs: nounwind readnone
declare i32 @llvm.cttz.i32(i32, i1) #1

; Function Attrs: nounwind readnone
declare i64 @llvm.cttz.i64(i64, i1) #1

; Function Attrs: nounwind readnone
declare i32 @llvm.ctlz.i32(i32, i1) #1

; Function Attrs: nounwind readnone
declare i64 @llvm.ctlz.i64(i64, i1) #1

; Function Attrs: argmemonly nounwind
declare void @llvm.memcpy.p0i8.p0i8.i64(i8* nocapture writeonly, i8* nocapture readonly, i64, i32, i1) #0

; Function Attrs: nounwind readnone
declare double @llvm.nearbyint.f64(double) #1

; Function Attrs: nounwind readnone
declare double @llvm.fabs.f64(double) #1

; Function Attrs: nounwind readnone
declare <4 x double> @llvm.nearbyint.v4f64(<4 x double>) #1

; Function Attrs: nounwind readnone
declare <4 x double> @llvm.fabs.v4f64(<4 x double>) #1

; Function Attrs: nounwind readnone
declare double @llvm.trunc.f64(double) #1

; Function Attrs: nounwind readnone
declare <4 x double> @llvm.trunc.v4f64(<4 x double>) #1

; Function Attrs: nounwind readnone
declare float @llvm.nearbyint.f32(float) #1

; Function Attrs: nounwind readnone
declare float @llvm.fabs.f32(float) #1

; Function Attrs: nounwind readnone
declare <4 x float> @llvm.nearbyint.v4f32(<4 x float>) #1

; Function Attrs: nounwind readnone
declare <4 x float> @llvm.fabs.v4f32(<4 x float>) #1

; Function Attrs: nounwind readnone
declare float @llvm.trunc.f32(float) #1

; Function Attrs: nounwind readnone
declare <4 x float> @llvm.trunc.v4f32(<4 x float>) #1

; Function Attrs: argmemonly nounwind
declare void @llvm.memset.p0i8.i64(i8* nocapture writeonly, i8, i64, i32, i1) #0

declare double @atan(double) local_unnamed_addr

declare double @cos(double) local_unnamed_addr

declare double @sin(double) local_unnamed_addr

declare double @sqrt(double) local_unnamed_addr

declare double @tan(double) local_unnamed_addr

declare extern_weak x86_64_sysvcc i64 @abort()

declare extern_weak x86_64_sysvcc i64 @abs(i64)

declare extern_weak x86_64_sysvcc i64 @asin(i64)

declare extern_weak x86_64_sysvcc i64 @atof(i64)

declare extern_weak x86_64_sysvcc i64 @atoi(i64)

declare extern_weak x86_64_sysvcc i64 @atol(i64)

declare extern_weak x86_64_sysvcc i64 @calloc(i64, i64)

declare extern_weak x86_64_sysvcc i64 @clock()

declare extern_weak x86_64_sysvcc i64 @cosf(i64)

declare extern_weak x86_64_sysvcc i64 @exit(i64)

declare extern_weak x86_64_sysvcc i64 @exp(i64)

declare extern_weak x86_64_sysvcc i64 @fflush(i64)

declare extern_weak x86_64_sysvcc i64 @floor(i64)

declare extern_weak x86_64_sysvcc i64 @fprintf(i64, i64, i64, i64, i64, i64, i64, i64, i64, i64, i64, i64, i64, i64, i64, i64)

declare extern_weak x86_64_sysvcc i64 @fputs(i64, i64)

declare extern_weak x86_64_sysvcc i64 @free(i64)

declare extern_weak x86_64_sysvcc i64 @fwrite(i64, i64, i64, i64)

declare extern_weak x86_64_sysvcc i64 @getchar()

declare extern_weak x86_64_sysvcc i64 @gettimeofday(i64, i64)

declare extern_weak x86_64_sysvcc i64 @__isoc99_fscanf(i64, i64, i64, i64, i64, i64, i64, i64, i64, i64, i64, i64, i64, i64, i64, i64)

declare extern_weak x86_64_sysvcc i64 @__isoc99_scanf(i64, i64, i64, i64, i64, i64, i64, i64, i64, i64, i64, i64, i64, i64, i64, i64)

declare extern_weak x86_64_sysvcc i64 @__isoc99_sscanf(i64, i64, i64, i64, i64, i64, i64, i64, i64, i64, i64, i64, i64, i64, i64, i64)

declare extern_weak x86_64_sysvcc i64 @log(i64)

declare extern_weak x86_64_sysvcc i64 @lrand48()

declare extern_weak x86_64_sysvcc i64 @malloc(i64)

declare extern_weak x86_64_sysvcc i64 @memalign(i64, i64)

declare extern_weak x86_64_sysvcc i64 @memcpy(i64, i64, i64)

declare extern_weak x86_64_sysvcc i64 @memset(i64, i64, i64)

declare extern_weak x86_64_sysvcc i64 @perror(i64)

declare extern_weak x86_64_sysvcc i64 @posix_memalign(i64, i64, i64)

declare extern_weak x86_64_sysvcc i64 @pow(i64, i64)

declare extern_weak x86_64_sysvcc i64 @printf(i64, i64, i64, i64, i64, i64, i64, i64, i64, i64, i64, i64, i64, i64, i64, i64)

declare extern_weak x86_64_sysvcc i64 @putchar(i64)

declare extern_weak x86_64_sysvcc i64 @puts(i64)

declare extern_weak x86_64_sysvcc i64 @rand()

declare extern_weak x86_64_sysvcc i64 @random()

declare extern_weak x86_64_sysvcc i64 @realloc(i64, i64)

declare extern_weak x86_64_sysvcc i64 @seed48(i64)

declare extern_weak x86_64_sysvcc i64 @sinf(i64)

declare extern_weak x86_64_sysvcc i64 @sprintf(i64, i64, i64, i64, i64, i64, i64, i64, i64, i64, i64, i64, i64, i64, i64, i64)

declare extern_weak x86_64_sysvcc i64 @srand(i64)

declare extern_weak x86_64_sysvcc i64 @strcat(i64, i64)

declare extern_weak x86_64_sysvcc i64 @strcmp(i64, i64)

declare extern_weak x86_64_sysvcc i64 @strcpy(i64, i64)

declare extern_weak x86_64_sysvcc i64 @strdup(i64)

declare extern_weak x86_64_sysvcc i64 @strlen(i64)

declare extern_weak x86_64_sysvcc i64 @strncmp(i64, i64, i64)

declare extern_weak x86_64_sysvcc i64 @strtoll(i64, i64, i64)

declare extern_weak x86_64_sysvcc i64 @time(i64)

declare extern_weak x86_64_sysvcc i64 @ungetc(i64, i64)

declare extern_weak x86_64_sysvcc i64 @pthread_join(i64, i64)

declare extern_weak x86_64_sysvcc i64 @pthread_create(i64, i64, i64, i64)

declare %struct.Memory* @__remill_function_call(%struct.State* dereferenceable(3376), i64, %struct.Memory*)

declare %struct.Memory* @ext_sqrt(%struct.State* noalias dereferenceable(3376), i64, %struct.Memory* noalias)

declare %struct.Memory* @ext_atan(%struct.State* noalias dereferenceable(3376), i64, %struct.Memory* noalias)

declare %struct.Memory* @ext_cos(%struct.State* noalias dereferenceable(3376), i64, %struct.Memory* noalias)

declare %struct.Memory* @ext_tan(%struct.State* noalias dereferenceable(3376), i64, %struct.Memory* noalias)

declare %struct.Memory* @ext_sin(%struct.State* noalias dereferenceable(3376), i64, %struct.Memory* noalias)

; Function Attrs: alwaysinline
define %struct.Memory* @_ZN31custom_divide_multiple_variableItE8do_shiftEttttt(%struct.State* noalias, i64, %struct.Memory* noalias) #2 {
entry:
  %3 = getelementptr inbounds %struct.State, %struct.State* %0, i64 0, i32 6, i32 33, i32 0, i32 0
  store i64 %1, i64* %3, align 8
  %BRANCH_TAKEN = alloca i8, align 1
  store i8 0, i8* %BRANCH_TAKEN, align 1
  %MEMORY = alloca %struct.Memory*, align 8
  store %struct.Memory* %2, %struct.Memory** %MEMORY, align 8
  %loadMem_4108e0 = load %struct.Memory*, %struct.Memory** %MEMORY
  %4 = getelementptr inbounds %struct.State, %struct.State* %0, i32 0, i32 6
  %5 = getelementptr inbounds %struct.GPR, %struct.GPR* %4, i32 0, i32 33
  %6 = getelementptr inbounds %struct.Reg, %struct.Reg* %5, i32 0, i32 0
  %PC.i = bitcast %union.anon* %6 to i64*
  %7 = getelementptr inbounds %struct.State, %struct.State* %0, i32 0, i32 6
  %8 = getelementptr inbounds %struct.GPR, %struct.GPR* %7, i32 0, i32 15
  %9 = getelementptr inbounds %struct.Reg, %struct.Reg* %8, i32 0, i32 0
  %RBP.i = bitcast %union.anon* %9 to i64*
  %10 = load i64, i64* %RBP.i
  %11 = load i64, i64* %PC.i
  %12 = add i64 %11, 1
  store i64 %12, i64* %PC.i
  %13 = getelementptr inbounds %struct.State, %struct.State* %0, i64 0, i32 6, i32 13, i32 0, i32 0
  %14 = load i64, i64* %13, align 8
  %15 = add i64 %14, -8
  %16 = inttoptr i64 %15 to i64*
  store i64 %10, i64* %16
  store i64 %15, i64* %13, align 8
  store %struct.Memory* %loadMem_4108e0, %struct.Memory** %MEMORY
  %loadMem_4108e1 = load %struct.Memory*, %struct.Memory** %MEMORY
  %17 = getelementptr inbounds %struct.State, %struct.State* %0, i32 0, i32 6
  %18 = getelementptr inbounds %struct.GPR, %struct.GPR* %17, i32 0, i32 33
  %19 = getelementptr inbounds %struct.Reg, %struct.Reg* %18, i32 0, i32 0
  %PC.i9 = bitcast %union.anon* %19 to i64*
  %20 = getelementptr inbounds %struct.State, %struct.State* %0, i32 0, i32 6
  %21 = getelementptr inbounds %struct.GPR, %struct.GPR* %20, i32 0, i32 13
  %22 = getelementptr inbounds %struct.Reg, %struct.Reg* %21, i32 0, i32 0
  %RSP.i = bitcast %union.anon* %22 to i64*
  %23 = getelementptr inbounds %struct.State, %struct.State* %0, i32 0, i32 6
  %24 = getelementptr inbounds %struct.GPR, %struct.GPR* %23, i32 0, i32 15
  %25 = getelementptr inbounds %struct.Reg, %struct.Reg* %24, i32 0, i32 0
  %RBP.i10 = bitcast %union.anon* %25 to i64*
  %26 = load i64, i64* %RSP.i
  %27 = load i64, i64* %PC.i9
  %28 = add i64 %27, 3
  store i64 %28, i64* %PC.i9
  store i64 %26, i64* %RBP.i10, align 8
  store %struct.Memory* %loadMem_4108e1, %struct.Memory** %MEMORY
  %loadMem_4108e4 = load %struct.Memory*, %struct.Memory** %MEMORY
  %29 = getelementptr inbounds %struct.State, %struct.State* %0, i32 0, i32 6
  %30 = getelementptr inbounds %struct.GPR, %struct.GPR* %29, i32 0, i32 33
  %31 = getelementptr inbounds %struct.Reg, %struct.Reg* %30, i32 0, i32 0
  %PC.i17 = bitcast %union.anon* %31 to i64*
  %32 = getelementptr inbounds %struct.State, %struct.State* %0, i32 0, i32 6
  %33 = getelementptr inbounds %struct.GPR, %struct.GPR* %32, i32 0, i32 3
  %34 = getelementptr inbounds %struct.Reg, %struct.Reg* %33, i32 0, i32 0
  %RBX.i18 = bitcast %union.anon* %34 to i64*
  %35 = load i64, i64* %RBX.i18
  %36 = load i64, i64* %PC.i17
  %37 = add i64 %36, 1
  store i64 %37, i64* %PC.i17
  %38 = getelementptr inbounds %struct.State, %struct.State* %0, i64 0, i32 6, i32 13, i32 0, i32 0
  %39 = load i64, i64* %38, align 8
  %40 = add i64 %39, -8
  %41 = inttoptr i64 %40 to i64*
  store i64 %35, i64* %41
  store i64 %40, i64* %38, align 8
  store %struct.Memory* %loadMem_4108e4, %struct.Memory** %MEMORY
  %loadMem_4108e5 = load %struct.Memory*, %struct.Memory** %MEMORY
  %42 = getelementptr inbounds %struct.State, %struct.State* %0, i32 0, i32 6
  %43 = getelementptr inbounds %struct.GPR, %struct.GPR* %42, i32 0, i32 33
  %44 = getelementptr inbounds %struct.Reg, %struct.Reg* %43, i32 0, i32 0
  %PC.i26 = bitcast %union.anon* %44 to i64*
  %45 = getelementptr inbounds %struct.State, %struct.State* %0, i32 0, i32 6
  %46 = getelementptr inbounds %struct.GPR, %struct.GPR* %45, i32 0, i32 1
  %47 = getelementptr inbounds %struct.Reg, %struct.Reg* %46, i32 0, i32 0
  %AX.i27 = bitcast %union.anon* %47 to i16*
  %48 = getelementptr inbounds %struct.State, %struct.State* %0, i32 0, i32 6
  %49 = getelementptr inbounds %struct.GPR, %struct.GPR* %48, i32 0, i32 17
  %50 = getelementptr inbounds %struct.Reg, %struct.Reg* %49, i32 0, i32 0
  %R8W.i = bitcast %union.anon* %50 to i16*
  %51 = load i16, i16* %R8W.i
  %52 = zext i16 %51 to i64
  %53 = load i64, i64* %PC.i26
  %54 = add i64 %53, 4
  store i64 %54, i64* %PC.i26
  store i16 %51, i16* %AX.i27, align 2
  store %struct.Memory* %loadMem_4108e5, %struct.Memory** %MEMORY
  %loadMem_4108e9 = load %struct.Memory*, %struct.Memory** %MEMORY
  %55 = getelementptr inbounds %struct.State, %struct.State* %0, i32 0, i32 6
  %56 = getelementptr inbounds %struct.GPR, %struct.GPR* %55, i32 0, i32 33
  %57 = getelementptr inbounds %struct.Reg, %struct.Reg* %56, i32 0, i32 0
  %PC.i35 = bitcast %union.anon* %57 to i64*
  %58 = getelementptr inbounds %struct.State, %struct.State* %0, i32 0, i32 6
  %59 = getelementptr inbounds %struct.GPR, %struct.GPR* %58, i32 0, i32 5
  %60 = getelementptr inbounds %struct.Reg, %struct.Reg* %59, i32 0, i32 0
  %CX.i = bitcast %union.anon* %60 to i16*
  %61 = getelementptr inbounds %struct.State, %struct.State* %0, i32 0, i32 6
  %62 = getelementptr inbounds %struct.GPR, %struct.GPR* %61, i32 0, i32 19
  %63 = getelementptr inbounds %struct.Reg, %struct.Reg* %62, i32 0, i32 0
  %R9W.i36 = bitcast %union.anon* %63 to i16*
  %64 = load i16, i16* %CX.i
  %65 = zext i16 %64 to i64
  %66 = load i64, i64* %PC.i35
  %67 = add i64 %66, 4
  store i64 %67, i64* %PC.i35
  store i16 %64, i16* %R9W.i36, align 2
  store %struct.Memory* %loadMem_4108e9, %struct.Memory** %MEMORY
  %loadMem_4108ed = load %struct.Memory*, %struct.Memory** %MEMORY
  %68 = getelementptr inbounds %struct.State, %struct.State* %0, i32 0, i32 6
  %69 = getelementptr inbounds %struct.GPR, %struct.GPR* %68, i32 0, i32 33
  %70 = getelementptr inbounds %struct.Reg, %struct.Reg* %69, i32 0, i32 0
  %PC.i60 = bitcast %union.anon* %70 to i64*
  %71 = getelementptr inbounds %struct.State, %struct.State* %0, i32 0, i32 6
  %72 = getelementptr inbounds %struct.GPR, %struct.GPR* %71, i32 0, i32 7
  %73 = getelementptr inbounds %struct.Reg, %struct.Reg* %72, i32 0, i32 0
  %DX.i = bitcast %union.anon* %73 to i16*
  %74 = getelementptr inbounds %struct.State, %struct.State* %0, i32 0, i32 6
  %75 = getelementptr inbounds %struct.GPR, %struct.GPR* %74, i32 0, i32 21
  %76 = getelementptr inbounds %struct.Reg, %struct.Reg* %75, i32 0, i32 0
  %R10W.i61 = bitcast %union.anon* %76 to i16*
  %77 = load i16, i16* %DX.i
  %78 = zext i16 %77 to i64
  %79 = load i64, i64* %PC.i60
  %80 = add i64 %79, 4
  store i64 %80, i64* %PC.i60
  store i16 %77, i16* %R10W.i61, align 2
  store %struct.Memory* %loadMem_4108ed, %struct.Memory** %MEMORY
  %loadMem_4108f1 = load %struct.Memory*, %struct.Memory** %MEMORY
  %81 = getelementptr inbounds %struct.State, %struct.State* %0, i32 0, i32 6
  %82 = getelementptr inbounds %struct.GPR, %struct.GPR* %81, i32 0, i32 33
  %83 = getelementptr inbounds %struct.Reg, %struct.Reg* %82, i32 0, i32 0
  %PC.i58 = bitcast %union.anon* %83 to i64*
  %84 = getelementptr inbounds %struct.State, %struct.State* %0, i32 0, i32 6
  %85 = getelementptr inbounds %struct.GPR, %struct.GPR* %84, i32 0, i32 9
  %86 = getelementptr inbounds %struct.Reg, %struct.Reg* %85, i32 0, i32 0
  %SI.i = bitcast %union.anon* %86 to i16*
  %87 = getelementptr inbounds %struct.State, %struct.State* %0, i32 0, i32 6
  %88 = getelementptr inbounds %struct.GPR, %struct.GPR* %87, i32 0, i32 23
  %89 = getelementptr inbounds %struct.Reg, %struct.Reg* %88, i32 0, i32 0
  %R11W.i59 = bitcast %union.anon* %89 to i16*
  %90 = load i16, i16* %SI.i
  %91 = zext i16 %90 to i64
  %92 = load i64, i64* %PC.i58
  %93 = add i64 %92, 4
  store i64 %93, i64* %PC.i58
  store i16 %90, i16* %R11W.i59, align 2
  store %struct.Memory* %loadMem_4108f1, %struct.Memory** %MEMORY
  %loadMem_4108f5 = load %struct.Memory*, %struct.Memory** %MEMORY
  %94 = getelementptr inbounds %struct.State, %struct.State* %0, i32 0, i32 6
  %95 = getelementptr inbounds %struct.GPR, %struct.GPR* %94, i32 0, i32 33
  %96 = getelementptr inbounds %struct.Reg, %struct.Reg* %95, i32 0, i32 0
  %PC.i56 = bitcast %union.anon* %96 to i64*
  %97 = getelementptr inbounds %struct.State, %struct.State* %0, i32 0, i32 6
  %98 = getelementptr inbounds %struct.GPR, %struct.GPR* %97, i32 0, i32 3
  %99 = getelementptr inbounds %struct.Reg, %struct.Reg* %98, i32 0, i32 0
  %BX.i57 = bitcast %union.anon* %99 to i16*
  %100 = getelementptr inbounds %struct.State, %struct.State* %0, i32 0, i32 6
  %101 = getelementptr inbounds %struct.GPR, %struct.GPR* %100, i32 0, i32 11
  %102 = getelementptr inbounds %struct.Reg, %struct.Reg* %101, i32 0, i32 0
  %DI.i = bitcast %union.anon* %102 to i16*
  %103 = load i16, i16* %DI.i
  %104 = zext i16 %103 to i64
  %105 = load i64, i64* %PC.i56
  %106 = add i64 %105, 3
  store i64 %106, i64* %PC.i56
  store i16 %103, i16* %BX.i57, align 2
  store %struct.Memory* %loadMem_4108f5, %struct.Memory** %MEMORY
  %loadMem_4108f8 = load %struct.Memory*, %struct.Memory** %MEMORY
  %107 = getelementptr inbounds %struct.State, %struct.State* %0, i32 0, i32 6
  %108 = getelementptr inbounds %struct.GPR, %struct.GPR* %107, i32 0, i32 33
  %109 = getelementptr inbounds %struct.Reg, %struct.Reg* %108, i32 0, i32 0
  %PC.i54 = bitcast %union.anon* %109 to i64*
  %110 = getelementptr inbounds %struct.State, %struct.State* %0, i32 0, i32 6
  %111 = getelementptr inbounds %struct.GPR, %struct.GPR* %110, i32 0, i32 3
  %112 = getelementptr inbounds %struct.Reg, %struct.Reg* %111, i32 0, i32 0
  %BX.i = bitcast %union.anon* %112 to i16*
  %113 = getelementptr inbounds %struct.State, %struct.State* %0, i32 0, i32 6
  %114 = getelementptr inbounds %struct.GPR, %struct.GPR* %113, i32 0, i32 15
  %115 = getelementptr inbounds %struct.Reg, %struct.Reg* %114, i32 0, i32 0
  %RBP.i55 = bitcast %union.anon* %115 to i64*
  %116 = load i64, i64* %RBP.i55
  %117 = sub i64 %116, 10
  %118 = load i16, i16* %BX.i
  %119 = zext i16 %118 to i64
  %120 = load i64, i64* %PC.i54
  %121 = add i64 %120, 4
  store i64 %121, i64* %PC.i54
  %122 = inttoptr i64 %117 to i16*
  store i16 %118, i16* %122
  store %struct.Memory* %loadMem_4108f8, %struct.Memory** %MEMORY
  %loadMem_4108fc = load %struct.Memory*, %struct.Memory** %MEMORY
  %123 = getelementptr inbounds %struct.State, %struct.State* %0, i32 0, i32 6
  %124 = getelementptr inbounds %struct.GPR, %struct.GPR* %123, i32 0, i32 33
  %125 = getelementptr inbounds %struct.Reg, %struct.Reg* %124, i32 0, i32 0
  %PC.i52 = bitcast %union.anon* %125 to i64*
  %126 = getelementptr inbounds %struct.State, %struct.State* %0, i32 0, i32 6
  %127 = getelementptr inbounds %struct.GPR, %struct.GPR* %126, i32 0, i32 23
  %128 = getelementptr inbounds %struct.Reg, %struct.Reg* %127, i32 0, i32 0
  %R11W.i = bitcast %union.anon* %128 to i16*
  %129 = getelementptr inbounds %struct.State, %struct.State* %0, i32 0, i32 6
  %130 = getelementptr inbounds %struct.GPR, %struct.GPR* %129, i32 0, i32 15
  %131 = getelementptr inbounds %struct.Reg, %struct.Reg* %130, i32 0, i32 0
  %RBP.i53 = bitcast %union.anon* %131 to i64*
  %132 = load i64, i64* %RBP.i53
  %133 = sub i64 %132, 12
  %134 = load i16, i16* %R11W.i
  %135 = zext i16 %134 to i64
  %136 = load i64, i64* %PC.i52
  %137 = add i64 %136, 5
  store i64 %137, i64* %PC.i52
  %138 = inttoptr i64 %133 to i16*
  store i16 %134, i16* %138
  store %struct.Memory* %loadMem_4108fc, %struct.Memory** %MEMORY
  %loadMem_410901 = load %struct.Memory*, %struct.Memory** %MEMORY
  %139 = getelementptr inbounds %struct.State, %struct.State* %0, i32 0, i32 6
  %140 = getelementptr inbounds %struct.GPR, %struct.GPR* %139, i32 0, i32 33
  %141 = getelementptr inbounds %struct.Reg, %struct.Reg* %140, i32 0, i32 0
  %PC.i50 = bitcast %union.anon* %141 to i64*
  %142 = getelementptr inbounds %struct.State, %struct.State* %0, i32 0, i32 6
  %143 = getelementptr inbounds %struct.GPR, %struct.GPR* %142, i32 0, i32 21
  %144 = getelementptr inbounds %struct.Reg, %struct.Reg* %143, i32 0, i32 0
  %R10W.i = bitcast %union.anon* %144 to i16*
  %145 = getelementptr inbounds %struct.State, %struct.State* %0, i32 0, i32 6
  %146 = getelementptr inbounds %struct.GPR, %struct.GPR* %145, i32 0, i32 15
  %147 = getelementptr inbounds %struct.Reg, %struct.Reg* %146, i32 0, i32 0
  %RBP.i51 = bitcast %union.anon* %147 to i64*
  %148 = load i64, i64* %RBP.i51
  %149 = sub i64 %148, 14
  %150 = load i16, i16* %R10W.i
  %151 = zext i16 %150 to i64
  %152 = load i64, i64* %PC.i50
  %153 = add i64 %152, 5
  store i64 %153, i64* %PC.i50
  %154 = inttoptr i64 %149 to i16*
  store i16 %150, i16* %154
  store %struct.Memory* %loadMem_410901, %struct.Memory** %MEMORY
  %loadMem_410906 = load %struct.Memory*, %struct.Memory** %MEMORY
  %155 = getelementptr inbounds %struct.State, %struct.State* %0, i32 0, i32 6
  %156 = getelementptr inbounds %struct.GPR, %struct.GPR* %155, i32 0, i32 33
  %157 = getelementptr inbounds %struct.Reg, %struct.Reg* %156, i32 0, i32 0
  %PC.i47 = bitcast %union.anon* %157 to i64*
  %158 = getelementptr inbounds %struct.State, %struct.State* %0, i32 0, i32 6
  %159 = getelementptr inbounds %struct.GPR, %struct.GPR* %158, i32 0, i32 19
  %160 = getelementptr inbounds %struct.Reg, %struct.Reg* %159, i32 0, i32 0
  %R9W.i48 = bitcast %union.anon* %160 to i16*
  %161 = getelementptr inbounds %struct.State, %struct.State* %0, i32 0, i32 6
  %162 = getelementptr inbounds %struct.GPR, %struct.GPR* %161, i32 0, i32 15
  %163 = getelementptr inbounds %struct.Reg, %struct.Reg* %162, i32 0, i32 0
  %RBP.i49 = bitcast %union.anon* %163 to i64*
  %164 = load i64, i64* %RBP.i49
  %165 = sub i64 %164, 16
  %166 = load i16, i16* %R9W.i48
  %167 = zext i16 %166 to i64
  %168 = load i64, i64* %PC.i47
  %169 = add i64 %168, 5
  store i64 %169, i64* %PC.i47
  %170 = inttoptr i64 %165 to i16*
  store i16 %166, i16* %170
  store %struct.Memory* %loadMem_410906, %struct.Memory** %MEMORY
  %loadMem_41090b = load %struct.Memory*, %struct.Memory** %MEMORY
  %171 = getelementptr inbounds %struct.State, %struct.State* %0, i32 0, i32 6
  %172 = getelementptr inbounds %struct.GPR, %struct.GPR* %171, i32 0, i32 33
  %173 = getelementptr inbounds %struct.Reg, %struct.Reg* %172, i32 0, i32 0
  %PC.i44 = bitcast %union.anon* %173 to i64*
  %174 = getelementptr inbounds %struct.State, %struct.State* %0, i32 0, i32 6
  %175 = getelementptr inbounds %struct.GPR, %struct.GPR* %174, i32 0, i32 1
  %176 = getelementptr inbounds %struct.Reg, %struct.Reg* %175, i32 0, i32 0
  %AX.i45 = bitcast %union.anon* %176 to i16*
  %177 = getelementptr inbounds %struct.State, %struct.State* %0, i32 0, i32 6
  %178 = getelementptr inbounds %struct.GPR, %struct.GPR* %177, i32 0, i32 15
  %179 = getelementptr inbounds %struct.Reg, %struct.Reg* %178, i32 0, i32 0
  %RBP.i46 = bitcast %union.anon* %179 to i64*
  %180 = load i64, i64* %RBP.i46
  %181 = sub i64 %180, 18
  %182 = load i16, i16* %AX.i45
  %183 = zext i16 %182 to i64
  %184 = load i64, i64* %PC.i44
  %185 = add i64 %184, 4
  store i64 %185, i64* %PC.i44
  %186 = inttoptr i64 %181 to i16*
  store i16 %182, i16* %186
  store %struct.Memory* %loadMem_41090b, %struct.Memory** %MEMORY
  %loadMem_41090f = load %struct.Memory*, %struct.Memory** %MEMORY
  %187 = getelementptr inbounds %struct.State, %struct.State* %0, i32 0, i32 6
  %188 = getelementptr inbounds %struct.GPR, %struct.GPR* %187, i32 0, i32 33
  %189 = getelementptr inbounds %struct.Reg, %struct.Reg* %188, i32 0, i32 0
  %PC.i41 = bitcast %union.anon* %189 to i64*
  %190 = getelementptr inbounds %struct.State, %struct.State* %0, i32 0, i32 6
  %191 = getelementptr inbounds %struct.GPR, %struct.GPR* %190, i32 0, i32 1
  %192 = getelementptr inbounds %struct.Reg, %struct.Reg* %191, i32 0, i32 0
  %RAX.i42 = bitcast %union.anon* %192 to i64*
  %193 = getelementptr inbounds %struct.State, %struct.State* %0, i32 0, i32 6
  %194 = getelementptr inbounds %struct.GPR, %struct.GPR* %193, i32 0, i32 15
  %195 = getelementptr inbounds %struct.Reg, %struct.Reg* %194, i32 0, i32 0
  %RBP.i43 = bitcast %union.anon* %195 to i64*
  %196 = load i64, i64* %RBP.i43
  %197 = sub i64 %196, 10
  %198 = load i64, i64* %PC.i41
  %199 = add i64 %198, 4
  store i64 %199, i64* %PC.i41
  %200 = inttoptr i64 %197 to i16*
  %201 = load i16, i16* %200
  %202 = zext i16 %201 to i64
  store i64 %202, i64* %RAX.i42, align 8
  store %struct.Memory* %loadMem_41090f, %struct.Memory** %MEMORY
  %loadMem_410913 = load %struct.Memory*, %struct.Memory** %MEMORY
  %203 = getelementptr inbounds %struct.State, %struct.State* %0, i32 0, i32 6
  %204 = getelementptr inbounds %struct.GPR, %struct.GPR* %203, i32 0, i32 33
  %205 = getelementptr inbounds %struct.Reg, %struct.Reg* %204, i32 0, i32 0
  %PC.i38 = bitcast %union.anon* %205 to i64*
  %206 = getelementptr inbounds %struct.State, %struct.State* %0, i32 0, i32 6
  %207 = getelementptr inbounds %struct.GPR, %struct.GPR* %206, i32 0, i32 5
  %208 = getelementptr inbounds %struct.Reg, %struct.Reg* %207, i32 0, i32 0
  %RCX.i39 = bitcast %union.anon* %208 to i64*
  %209 = getelementptr inbounds %struct.State, %struct.State* %0, i32 0, i32 6
  %210 = getelementptr inbounds %struct.GPR, %struct.GPR* %209, i32 0, i32 15
  %211 = getelementptr inbounds %struct.Reg, %struct.Reg* %210, i32 0, i32 0
  %RBP.i40 = bitcast %union.anon* %211 to i64*
  %212 = load i64, i64* %RBP.i40
  %213 = sub i64 %212, 12
  %214 = load i64, i64* %PC.i38
  %215 = add i64 %214, 4
  store i64 %215, i64* %PC.i38
  %216 = inttoptr i64 %213 to i16*
  %217 = load i16, i16* %216
  %218 = zext i16 %217 to i64
  store i64 %218, i64* %RCX.i39, align 8
  store %struct.Memory* %loadMem_410913, %struct.Memory** %MEMORY
  %loadMem_410917 = load %struct.Memory*, %struct.Memory** %MEMORY
  %219 = getelementptr inbounds %struct.State, %struct.State* %0, i32 0, i32 6
  %220 = getelementptr inbounds %struct.GPR, %struct.GPR* %219, i32 0, i32 33
  %221 = getelementptr inbounds %struct.Reg, %struct.Reg* %220, i32 0, i32 0
  %PC.i37 = bitcast %union.anon* %221 to i64*
  %222 = load i64, i64* %PC.i37
  %223 = add i64 %222, 1
  store i64 %223, i64* %PC.i37
  %224 = getelementptr inbounds %struct.State, %struct.State* %0, i64 0, i32 6, i32 7, i32 0, i32 0
  %225 = getelementptr inbounds %struct.State, %struct.State* %0, i64 0, i32 6, i32 1, i32 0
  %226 = bitcast %union.anon* %225 to i32*
  %227 = load i32, i32* %226, align 8
  %228 = sext i32 %227 to i64
  %229 = lshr i64 %228, 32
  store i64 %229, i64* %224, align 8
  store %struct.Memory* %loadMem_410917, %struct.Memory** %MEMORY
  %loadMem_410918 = load %struct.Memory*, %struct.Memory** %MEMORY
  %230 = getelementptr inbounds %struct.State, %struct.State* %0, i32 0, i32 6
  %231 = getelementptr inbounds %struct.GPR, %struct.GPR* %230, i32 0, i32 33
  %232 = getelementptr inbounds %struct.Reg, %struct.Reg* %231, i32 0, i32 0
  %PC.i32 = bitcast %union.anon* %232 to i64*
  %233 = getelementptr inbounds %struct.State, %struct.State* %0, i32 0, i32 6
  %234 = getelementptr inbounds %struct.GPR, %struct.GPR* %233, i32 0, i32 5
  %235 = getelementptr inbounds %struct.Reg, %struct.Reg* %234, i32 0, i32 0
  %ECX.i33 = bitcast %union.anon* %235 to i32*
  %236 = load i32, i32* %ECX.i33
  %237 = zext i32 %236 to i64
  %238 = load i64, i64* %PC.i32
  %239 = add i64 %238, 2
  store i64 %239, i64* %PC.i32
  %240 = getelementptr inbounds %struct.State, %struct.State* %0, i64 0, i32 6, i32 1, i32 0
  %241 = bitcast %union.anon* %240 to i32*
  %242 = load i32, i32* %241, align 8
  %243 = zext i32 %242 to i64
  %244 = getelementptr inbounds %struct.State, %struct.State* %0, i64 0, i32 6, i32 7, i32 0
  %245 = bitcast %union.anon* %244 to i32*
  %246 = load i32, i32* %245, align 8
  %247 = zext i32 %246 to i64
  %248 = shl i64 %237, 32
  %249 = ashr exact i64 %248, 32
  %250 = shl i64 %247, 32
  %251 = or i64 %250, %243
  %252 = sdiv i64 %251, %249
  %253 = shl i64 %252, 32
  %254 = ashr exact i64 %253, 32
  %255 = icmp eq i64 %252, %254
  br i1 %255, label %260, label %256

; <label>:256:                                    ; preds = %entry
  %257 = getelementptr inbounds %struct.State, %struct.State* %0, i64 0, i32 6, i32 33, i32 0, i32 0
  %258 = load i64, i64* %257, align 8
  %259 = call %struct.Memory* @__remill_error(%struct.State* nonnull dereferenceable(3376) %0, i64 %258, %struct.Memory* %loadMem_410918)
  br label %routine_idivl__ecx.exit34

; <label>:260:                                    ; preds = %entry
  %261 = srem i64 %251, %249
  %262 = getelementptr inbounds %union.anon, %union.anon* %240, i64 0, i32 0
  %263 = and i64 %252, 4294967295
  store i64 %263, i64* %262, align 8
  %264 = getelementptr inbounds %union.anon, %union.anon* %244, i64 0, i32 0
  %265 = and i64 %261, 4294967295
  store i64 %265, i64* %264, align 8
  %266 = getelementptr inbounds %struct.State, %struct.State* %0, i64 0, i32 2, i32 1
  store i8 0, i8* %266, align 1
  %267 = getelementptr inbounds %struct.State, %struct.State* %0, i64 0, i32 2, i32 3
  store i8 0, i8* %267, align 1
  %268 = getelementptr inbounds %struct.State, %struct.State* %0, i64 0, i32 2, i32 5
  store i8 0, i8* %268, align 1
  %269 = getelementptr inbounds %struct.State, %struct.State* %0, i64 0, i32 2, i32 7
  store i8 0, i8* %269, align 1
  %270 = getelementptr inbounds %struct.State, %struct.State* %0, i64 0, i32 2, i32 9
  store i8 0, i8* %270, align 1
  %271 = getelementptr inbounds %struct.State, %struct.State* %0, i64 0, i32 2, i32 13
  store i8 0, i8* %271, align 1
  br label %routine_idivl__ecx.exit34

routine_idivl__ecx.exit34:                        ; preds = %256, %260
  %272 = phi %struct.Memory* [ %259, %256 ], [ %loadMem_410918, %260 ]
  store %struct.Memory* %272, %struct.Memory** %MEMORY
  %loadMem_41091a = load %struct.Memory*, %struct.Memory** %MEMORY
  %273 = getelementptr inbounds %struct.State, %struct.State* %0, i32 0, i32 6
  %274 = getelementptr inbounds %struct.GPR, %struct.GPR* %273, i32 0, i32 33
  %275 = getelementptr inbounds %struct.Reg, %struct.Reg* %274, i32 0, i32 0
  %PC.i29 = bitcast %union.anon* %275 to i64*
  %276 = getelementptr inbounds %struct.State, %struct.State* %0, i32 0, i32 6
  %277 = getelementptr inbounds %struct.GPR, %struct.GPR* %276, i32 0, i32 5
  %278 = getelementptr inbounds %struct.Reg, %struct.Reg* %277, i32 0, i32 0
  %RCX.i30 = bitcast %union.anon* %278 to i64*
  %279 = getelementptr inbounds %struct.State, %struct.State* %0, i32 0, i32 6
  %280 = getelementptr inbounds %struct.GPR, %struct.GPR* %279, i32 0, i32 15
  %281 = getelementptr inbounds %struct.Reg, %struct.Reg* %280, i32 0, i32 0
  %RBP.i31 = bitcast %union.anon* %281 to i64*
  %282 = load i64, i64* %RBP.i31
  %283 = sub i64 %282, 14
  %284 = load i64, i64* %PC.i29
  %285 = add i64 %284, 4
  store i64 %285, i64* %PC.i29
  %286 = inttoptr i64 %283 to i16*
  %287 = load i16, i16* %286
  %288 = zext i16 %287 to i64
  store i64 %288, i64* %RCX.i30, align 8
  store %struct.Memory* %loadMem_41091a, %struct.Memory** %MEMORY
  %loadMem_41091e = load %struct.Memory*, %struct.Memory** %MEMORY
  %289 = getelementptr inbounds %struct.State, %struct.State* %0, i32 0, i32 6
  %290 = getelementptr inbounds %struct.GPR, %struct.GPR* %289, i32 0, i32 33
  %291 = getelementptr inbounds %struct.Reg, %struct.Reg* %290, i32 0, i32 0
  %PC.i28 = bitcast %union.anon* %291 to i64*
  %292 = load i64, i64* %PC.i28
  %293 = add i64 %292, 1
  store i64 %293, i64* %PC.i28
  %294 = getelementptr inbounds %struct.State, %struct.State* %0, i64 0, i32 6, i32 7, i32 0, i32 0
  %295 = getelementptr inbounds %struct.State, %struct.State* %0, i64 0, i32 6, i32 1, i32 0
  %296 = bitcast %union.anon* %295 to i32*
  %297 = load i32, i32* %296, align 8
  %298 = sext i32 %297 to i64
  %299 = lshr i64 %298, 32
  store i64 %299, i64* %294, align 8
  store %struct.Memory* %loadMem_41091e, %struct.Memory** %MEMORY
  %loadMem_41091f = load %struct.Memory*, %struct.Memory** %MEMORY
  %300 = getelementptr inbounds %struct.State, %struct.State* %0, i32 0, i32 6
  %301 = getelementptr inbounds %struct.GPR, %struct.GPR* %300, i32 0, i32 33
  %302 = getelementptr inbounds %struct.Reg, %struct.Reg* %301, i32 0, i32 0
  %PC.i23 = bitcast %union.anon* %302 to i64*
  %303 = getelementptr inbounds %struct.State, %struct.State* %0, i32 0, i32 6
  %304 = getelementptr inbounds %struct.GPR, %struct.GPR* %303, i32 0, i32 5
  %305 = getelementptr inbounds %struct.Reg, %struct.Reg* %304, i32 0, i32 0
  %ECX.i24 = bitcast %union.anon* %305 to i32*
  %306 = load i32, i32* %ECX.i24
  %307 = zext i32 %306 to i64
  %308 = load i64, i64* %PC.i23
  %309 = add i64 %308, 2
  store i64 %309, i64* %PC.i23
  %310 = getelementptr inbounds %struct.State, %struct.State* %0, i64 0, i32 6, i32 1, i32 0
  %311 = bitcast %union.anon* %310 to i32*
  %312 = load i32, i32* %311, align 8
  %313 = zext i32 %312 to i64
  %314 = getelementptr inbounds %struct.State, %struct.State* %0, i64 0, i32 6, i32 7, i32 0
  %315 = bitcast %union.anon* %314 to i32*
  %316 = load i32, i32* %315, align 8
  %317 = zext i32 %316 to i64
  %318 = shl i64 %307, 32
  %319 = ashr exact i64 %318, 32
  %320 = shl i64 %317, 32
  %321 = or i64 %320, %313
  %322 = sdiv i64 %321, %319
  %323 = shl i64 %322, 32
  %324 = ashr exact i64 %323, 32
  %325 = icmp eq i64 %322, %324
  br i1 %325, label %330, label %326

; <label>:326:                                    ; preds = %routine_idivl__ecx.exit34
  %327 = getelementptr inbounds %struct.State, %struct.State* %0, i64 0, i32 6, i32 33, i32 0, i32 0
  %328 = load i64, i64* %327, align 8
  %329 = call %struct.Memory* @__remill_error(%struct.State* nonnull dereferenceable(3376) %0, i64 %328, %struct.Memory* %loadMem_41091f)
  br label %routine_idivl__ecx.exit25

; <label>:330:                                    ; preds = %routine_idivl__ecx.exit34
  %331 = srem i64 %321, %319
  %332 = getelementptr inbounds %union.anon, %union.anon* %310, i64 0, i32 0
  %333 = and i64 %322, 4294967295
  store i64 %333, i64* %332, align 8
  %334 = getelementptr inbounds %union.anon, %union.anon* %314, i64 0, i32 0
  %335 = and i64 %331, 4294967295
  store i64 %335, i64* %334, align 8
  %336 = getelementptr inbounds %struct.State, %struct.State* %0, i64 0, i32 2, i32 1
  store i8 0, i8* %336, align 1
  %337 = getelementptr inbounds %struct.State, %struct.State* %0, i64 0, i32 2, i32 3
  store i8 0, i8* %337, align 1
  %338 = getelementptr inbounds %struct.State, %struct.State* %0, i64 0, i32 2, i32 5
  store i8 0, i8* %338, align 1
  %339 = getelementptr inbounds %struct.State, %struct.State* %0, i64 0, i32 2, i32 7
  store i8 0, i8* %339, align 1
  %340 = getelementptr inbounds %struct.State, %struct.State* %0, i64 0, i32 2, i32 9
  store i8 0, i8* %340, align 1
  %341 = getelementptr inbounds %struct.State, %struct.State* %0, i64 0, i32 2, i32 13
  store i8 0, i8* %341, align 1
  br label %routine_idivl__ecx.exit25

routine_idivl__ecx.exit25:                        ; preds = %326, %330
  %342 = phi %struct.Memory* [ %329, %326 ], [ %loadMem_41091f, %330 ]
  store %struct.Memory* %342, %struct.Memory** %MEMORY
  %loadMem_410921 = load %struct.Memory*, %struct.Memory** %MEMORY
  %343 = getelementptr inbounds %struct.State, %struct.State* %0, i32 0, i32 6
  %344 = getelementptr inbounds %struct.GPR, %struct.GPR* %343, i32 0, i32 33
  %345 = getelementptr inbounds %struct.Reg, %struct.Reg* %344, i32 0, i32 0
  %PC.i20 = bitcast %union.anon* %345 to i64*
  %346 = getelementptr inbounds %struct.State, %struct.State* %0, i32 0, i32 6
  %347 = getelementptr inbounds %struct.GPR, %struct.GPR* %346, i32 0, i32 5
  %348 = getelementptr inbounds %struct.Reg, %struct.Reg* %347, i32 0, i32 0
  %RCX.i21 = bitcast %union.anon* %348 to i64*
  %349 = getelementptr inbounds %struct.State, %struct.State* %0, i32 0, i32 6
  %350 = getelementptr inbounds %struct.GPR, %struct.GPR* %349, i32 0, i32 15
  %351 = getelementptr inbounds %struct.Reg, %struct.Reg* %350, i32 0, i32 0
  %RBP.i22 = bitcast %union.anon* %351 to i64*
  %352 = load i64, i64* %RBP.i22
  %353 = sub i64 %352, 16
  %354 = load i64, i64* %PC.i20
  %355 = add i64 %354, 4
  store i64 %355, i64* %PC.i20
  %356 = inttoptr i64 %353 to i16*
  %357 = load i16, i16* %356
  %358 = zext i16 %357 to i64
  store i64 %358, i64* %RCX.i21, align 8
  store %struct.Memory* %loadMem_410921, %struct.Memory** %MEMORY
  %loadMem_410925 = load %struct.Memory*, %struct.Memory** %MEMORY
  %359 = getelementptr inbounds %struct.State, %struct.State* %0, i32 0, i32 6
  %360 = getelementptr inbounds %struct.GPR, %struct.GPR* %359, i32 0, i32 33
  %361 = getelementptr inbounds %struct.Reg, %struct.Reg* %360, i32 0, i32 0
  %PC.i19 = bitcast %union.anon* %361 to i64*
  %362 = load i64, i64* %PC.i19
  %363 = add i64 %362, 1
  store i64 %363, i64* %PC.i19
  %364 = getelementptr inbounds %struct.State, %struct.State* %0, i64 0, i32 6, i32 7, i32 0, i32 0
  %365 = getelementptr inbounds %struct.State, %struct.State* %0, i64 0, i32 6, i32 1, i32 0
  %366 = bitcast %union.anon* %365 to i32*
  %367 = load i32, i32* %366, align 8
  %368 = sext i32 %367 to i64
  %369 = lshr i64 %368, 32
  store i64 %369, i64* %364, align 8
  store %struct.Memory* %loadMem_410925, %struct.Memory** %MEMORY
  %loadMem_410926 = load %struct.Memory*, %struct.Memory** %MEMORY
  %370 = getelementptr inbounds %struct.State, %struct.State* %0, i32 0, i32 6
  %371 = getelementptr inbounds %struct.GPR, %struct.GPR* %370, i32 0, i32 33
  %372 = getelementptr inbounds %struct.Reg, %struct.Reg* %371, i32 0, i32 0
  %PC.i14 = bitcast %union.anon* %372 to i64*
  %373 = getelementptr inbounds %struct.State, %struct.State* %0, i32 0, i32 6
  %374 = getelementptr inbounds %struct.GPR, %struct.GPR* %373, i32 0, i32 5
  %375 = getelementptr inbounds %struct.Reg, %struct.Reg* %374, i32 0, i32 0
  %ECX.i15 = bitcast %union.anon* %375 to i32*
  %376 = load i32, i32* %ECX.i15
  %377 = zext i32 %376 to i64
  %378 = load i64, i64* %PC.i14
  %379 = add i64 %378, 2
  store i64 %379, i64* %PC.i14
  %380 = getelementptr inbounds %struct.State, %struct.State* %0, i64 0, i32 6, i32 1, i32 0
  %381 = bitcast %union.anon* %380 to i32*
  %382 = load i32, i32* %381, align 8
  %383 = zext i32 %382 to i64
  %384 = getelementptr inbounds %struct.State, %struct.State* %0, i64 0, i32 6, i32 7, i32 0
  %385 = bitcast %union.anon* %384 to i32*
  %386 = load i32, i32* %385, align 8
  %387 = zext i32 %386 to i64
  %388 = shl i64 %377, 32
  %389 = ashr exact i64 %388, 32
  %390 = shl i64 %387, 32
  %391 = or i64 %390, %383
  %392 = sdiv i64 %391, %389
  %393 = shl i64 %392, 32
  %394 = ashr exact i64 %393, 32
  %395 = icmp eq i64 %392, %394
  br i1 %395, label %400, label %396

; <label>:396:                                    ; preds = %routine_idivl__ecx.exit25
  %397 = getelementptr inbounds %struct.State, %struct.State* %0, i64 0, i32 6, i32 33, i32 0, i32 0
  %398 = load i64, i64* %397, align 8
  %399 = call %struct.Memory* @__remill_error(%struct.State* nonnull dereferenceable(3376) %0, i64 %398, %struct.Memory* %loadMem_410926)
  br label %routine_idivl__ecx.exit16

; <label>:400:                                    ; preds = %routine_idivl__ecx.exit25
  %401 = srem i64 %391, %389
  %402 = getelementptr inbounds %union.anon, %union.anon* %380, i64 0, i32 0
  %403 = and i64 %392, 4294967295
  store i64 %403, i64* %402, align 8
  %404 = getelementptr inbounds %union.anon, %union.anon* %384, i64 0, i32 0
  %405 = and i64 %401, 4294967295
  store i64 %405, i64* %404, align 8
  %406 = getelementptr inbounds %struct.State, %struct.State* %0, i64 0, i32 2, i32 1
  store i8 0, i8* %406, align 1
  %407 = getelementptr inbounds %struct.State, %struct.State* %0, i64 0, i32 2, i32 3
  store i8 0, i8* %407, align 1
  %408 = getelementptr inbounds %struct.State, %struct.State* %0, i64 0, i32 2, i32 5
  store i8 0, i8* %408, align 1
  %409 = getelementptr inbounds %struct.State, %struct.State* %0, i64 0, i32 2, i32 7
  store i8 0, i8* %409, align 1
  %410 = getelementptr inbounds %struct.State, %struct.State* %0, i64 0, i32 2, i32 9
  store i8 0, i8* %410, align 1
  %411 = getelementptr inbounds %struct.State, %struct.State* %0, i64 0, i32 2, i32 13
  store i8 0, i8* %411, align 1
  br label %routine_idivl__ecx.exit16

routine_idivl__ecx.exit16:                        ; preds = %396, %400
  %412 = phi %struct.Memory* [ %399, %396 ], [ %loadMem_410926, %400 ]
  store %struct.Memory* %412, %struct.Memory** %MEMORY
  %loadMem_410928 = load %struct.Memory*, %struct.Memory** %MEMORY
  %413 = getelementptr inbounds %struct.State, %struct.State* %0, i32 0, i32 6
  %414 = getelementptr inbounds %struct.GPR, %struct.GPR* %413, i32 0, i32 33
  %415 = getelementptr inbounds %struct.Reg, %struct.Reg* %414, i32 0, i32 0
  %PC.i12 = bitcast %union.anon* %415 to i64*
  %416 = getelementptr inbounds %struct.State, %struct.State* %0, i32 0, i32 6
  %417 = getelementptr inbounds %struct.GPR, %struct.GPR* %416, i32 0, i32 5
  %418 = getelementptr inbounds %struct.Reg, %struct.Reg* %417, i32 0, i32 0
  %RCX.i = bitcast %union.anon* %418 to i64*
  %419 = getelementptr inbounds %struct.State, %struct.State* %0, i32 0, i32 6
  %420 = getelementptr inbounds %struct.GPR, %struct.GPR* %419, i32 0, i32 15
  %421 = getelementptr inbounds %struct.Reg, %struct.Reg* %420, i32 0, i32 0
  %RBP.i13 = bitcast %union.anon* %421 to i64*
  %422 = load i64, i64* %RBP.i13
  %423 = sub i64 %422, 18
  %424 = load i64, i64* %PC.i12
  %425 = add i64 %424, 4
  store i64 %425, i64* %PC.i12
  %426 = inttoptr i64 %423 to i16*
  %427 = load i16, i16* %426
  %428 = zext i16 %427 to i64
  store i64 %428, i64* %RCX.i, align 8
  store %struct.Memory* %loadMem_410928, %struct.Memory** %MEMORY
  %loadMem_41092c = load %struct.Memory*, %struct.Memory** %MEMORY
  %429 = getelementptr inbounds %struct.State, %struct.State* %0, i32 0, i32 6
  %430 = getelementptr inbounds %struct.GPR, %struct.GPR* %429, i32 0, i32 33
  %431 = getelementptr inbounds %struct.Reg, %struct.Reg* %430, i32 0, i32 0
  %PC.i11 = bitcast %union.anon* %431 to i64*
  %432 = load i64, i64* %PC.i11
  %433 = add i64 %432, 1
  store i64 %433, i64* %PC.i11
  %434 = getelementptr inbounds %struct.State, %struct.State* %0, i64 0, i32 6, i32 7, i32 0, i32 0
  %435 = getelementptr inbounds %struct.State, %struct.State* %0, i64 0, i32 6, i32 1, i32 0
  %436 = bitcast %union.anon* %435 to i32*
  %437 = load i32, i32* %436, align 8
  %438 = sext i32 %437 to i64
  %439 = lshr i64 %438, 32
  store i64 %439, i64* %434, align 8
  store %struct.Memory* %loadMem_41092c, %struct.Memory** %MEMORY
  %loadMem_41092d = load %struct.Memory*, %struct.Memory** %MEMORY
  %440 = getelementptr inbounds %struct.State, %struct.State* %0, i32 0, i32 6
  %441 = getelementptr inbounds %struct.GPR, %struct.GPR* %440, i32 0, i32 33
  %442 = getelementptr inbounds %struct.Reg, %struct.Reg* %441, i32 0, i32 0
  %PC.i8 = bitcast %union.anon* %442 to i64*
  %443 = getelementptr inbounds %struct.State, %struct.State* %0, i32 0, i32 6
  %444 = getelementptr inbounds %struct.GPR, %struct.GPR* %443, i32 0, i32 5
  %445 = getelementptr inbounds %struct.Reg, %struct.Reg* %444, i32 0, i32 0
  %ECX.i = bitcast %union.anon* %445 to i32*
  %446 = load i32, i32* %ECX.i
  %447 = zext i32 %446 to i64
  %448 = load i64, i64* %PC.i8
  %449 = add i64 %448, 2
  store i64 %449, i64* %PC.i8
  %450 = getelementptr inbounds %struct.State, %struct.State* %0, i64 0, i32 6, i32 1, i32 0
  %451 = bitcast %union.anon* %450 to i32*
  %452 = load i32, i32* %451, align 8
  %453 = zext i32 %452 to i64
  %454 = getelementptr inbounds %struct.State, %struct.State* %0, i64 0, i32 6, i32 7, i32 0
  %455 = bitcast %union.anon* %454 to i32*
  %456 = load i32, i32* %455, align 8
  %457 = zext i32 %456 to i64
  %458 = shl i64 %447, 32
  %459 = ashr exact i64 %458, 32
  %460 = shl i64 %457, 32
  %461 = or i64 %460, %453
  %462 = sdiv i64 %461, %459
  %463 = shl i64 %462, 32
  %464 = ashr exact i64 %463, 32
  %465 = icmp eq i64 %462, %464
  br i1 %465, label %470, label %466

; <label>:466:                                    ; preds = %routine_idivl__ecx.exit16
  %467 = getelementptr inbounds %struct.State, %struct.State* %0, i64 0, i32 6, i32 33, i32 0, i32 0
  %468 = load i64, i64* %467, align 8
  %469 = call %struct.Memory* @__remill_error(%struct.State* nonnull dereferenceable(3376) %0, i64 %468, %struct.Memory* %loadMem_41092d)
  br label %routine_idivl__ecx.exit

; <label>:470:                                    ; preds = %routine_idivl__ecx.exit16
  %471 = srem i64 %461, %459
  %472 = getelementptr inbounds %union.anon, %union.anon* %450, i64 0, i32 0
  %473 = and i64 %462, 4294967295
  store i64 %473, i64* %472, align 8
  %474 = getelementptr inbounds %union.anon, %union.anon* %454, i64 0, i32 0
  %475 = and i64 %471, 4294967295
  store i64 %475, i64* %474, align 8
  %476 = getelementptr inbounds %struct.State, %struct.State* %0, i64 0, i32 2, i32 1
  store i8 0, i8* %476, align 1
  %477 = getelementptr inbounds %struct.State, %struct.State* %0, i64 0, i32 2, i32 3
  store i8 0, i8* %477, align 1
  %478 = getelementptr inbounds %struct.State, %struct.State* %0, i64 0, i32 2, i32 5
  store i8 0, i8* %478, align 1
  %479 = getelementptr inbounds %struct.State, %struct.State* %0, i64 0, i32 2, i32 7
  store i8 0, i8* %479, align 1
  %480 = getelementptr inbounds %struct.State, %struct.State* %0, i64 0, i32 2, i32 9
  store i8 0, i8* %480, align 1
  %481 = getelementptr inbounds %struct.State, %struct.State* %0, i64 0, i32 2, i32 13
  store i8 0, i8* %481, align 1
  br label %routine_idivl__ecx.exit

routine_idivl__ecx.exit:                          ; preds = %466, %470
  %482 = phi %struct.Memory* [ %469, %466 ], [ %loadMem_41092d, %470 ]
  store %struct.Memory* %482, %struct.Memory** %MEMORY
  %loadMem_41092f = load %struct.Memory*, %struct.Memory** %MEMORY
  %483 = getelementptr inbounds %struct.State, %struct.State* %0, i32 0, i32 6
  %484 = getelementptr inbounds %struct.GPR, %struct.GPR* %483, i32 0, i32 33
  %485 = getelementptr inbounds %struct.Reg, %struct.Reg* %484, i32 0, i32 0
  %PC.i6 = bitcast %union.anon* %485 to i64*
  %486 = getelementptr inbounds %struct.State, %struct.State* %0, i32 0, i32 6
  %487 = getelementptr inbounds %struct.GPR, %struct.GPR* %486, i32 0, i32 1
  %488 = getelementptr inbounds %struct.Reg, %struct.Reg* %487, i32 0, i32 0
  %AX.i = bitcast %union.anon* %488 to i16*
  %489 = getelementptr inbounds %struct.State, %struct.State* %0, i32 0, i32 6
  %490 = getelementptr inbounds %struct.GPR, %struct.GPR* %489, i32 0, i32 19
  %491 = getelementptr inbounds %struct.Reg, %struct.Reg* %490, i32 0, i32 0
  %R9W.i7 = bitcast %union.anon* %491 to i16*
  %492 = load i16, i16* %AX.i
  %493 = zext i16 %492 to i64
  %494 = load i64, i64* %PC.i6
  %495 = add i64 %494, 4
  store i64 %495, i64* %PC.i6
  store i16 %492, i16* %R9W.i7, align 2
  store %struct.Memory* %loadMem_41092f, %struct.Memory** %MEMORY
  %loadMem_410933 = load %struct.Memory*, %struct.Memory** %MEMORY
  %496 = getelementptr inbounds %struct.State, %struct.State* %0, i32 0, i32 6
  %497 = getelementptr inbounds %struct.GPR, %struct.GPR* %496, i32 0, i32 33
  %498 = getelementptr inbounds %struct.Reg, %struct.Reg* %497, i32 0, i32 0
  %PC.i5 = bitcast %union.anon* %498 to i64*
  %499 = getelementptr inbounds %struct.State, %struct.State* %0, i32 0, i32 6
  %500 = getelementptr inbounds %struct.GPR, %struct.GPR* %499, i32 0, i32 19
  %501 = getelementptr inbounds %struct.Reg, %struct.Reg* %500, i32 0, i32 0
  %R9W.i = bitcast %union.anon* %501 to i16*
  %502 = getelementptr inbounds %struct.State, %struct.State* %0, i32 0, i32 6
  %503 = getelementptr inbounds %struct.GPR, %struct.GPR* %502, i32 0, i32 1
  %504 = getelementptr inbounds %struct.Reg, %struct.Reg* %503, i32 0, i32 0
  %RAX.i = bitcast %union.anon* %504 to i64*
  %505 = load i16, i16* %R9W.i
  %506 = zext i16 %505 to i64
  %507 = load i64, i64* %PC.i5
  %508 = add i64 %507, 4
  store i64 %508, i64* %PC.i5
  %509 = and i64 %506, 65535
  store i64 %509, i64* %RAX.i, align 8
  store %struct.Memory* %loadMem_410933, %struct.Memory** %MEMORY
  %loadMem_410937 = load %struct.Memory*, %struct.Memory** %MEMORY
  %510 = getelementptr inbounds %struct.State, %struct.State* %0, i32 0, i32 6
  %511 = getelementptr inbounds %struct.GPR, %struct.GPR* %510, i32 0, i32 33
  %512 = getelementptr inbounds %struct.Reg, %struct.Reg* %511, i32 0, i32 0
  %PC.i4 = bitcast %union.anon* %512 to i64*
  %513 = getelementptr inbounds %struct.State, %struct.State* %0, i32 0, i32 6
  %514 = getelementptr inbounds %struct.GPR, %struct.GPR* %513, i32 0, i32 3
  %515 = getelementptr inbounds %struct.Reg, %struct.Reg* %514, i32 0, i32 0
  %RBX.i = bitcast %union.anon* %515 to i64*
  %516 = load i64, i64* %PC.i4
  %517 = add i64 %516, 1
  store i64 %517, i64* %PC.i4
  %518 = getelementptr inbounds %struct.State, %struct.State* %0, i64 0, i32 6, i32 13, i32 0, i32 0
  %519 = load i64, i64* %518, align 8
  %520 = add i64 %519, 8
  %521 = inttoptr i64 %519 to i64*
  %522 = load i64, i64* %521
  store i64 %522, i64* %RBX.i, align 8
  store i64 %520, i64* %518, align 8
  store %struct.Memory* %loadMem_410937, %struct.Memory** %MEMORY
  %loadMem_410938 = load %struct.Memory*, %struct.Memory** %MEMORY
  %523 = getelementptr inbounds %struct.State, %struct.State* %0, i32 0, i32 6
  %524 = getelementptr inbounds %struct.GPR, %struct.GPR* %523, i32 0, i32 33
  %525 = getelementptr inbounds %struct.Reg, %struct.Reg* %524, i32 0, i32 0
  %PC.i2 = bitcast %union.anon* %525 to i64*
  %526 = getelementptr inbounds %struct.State, %struct.State* %0, i32 0, i32 6
  %527 = getelementptr inbounds %struct.GPR, %struct.GPR* %526, i32 0, i32 15
  %528 = getelementptr inbounds %struct.Reg, %struct.Reg* %527, i32 0, i32 0
  %RBP.i3 = bitcast %union.anon* %528 to i64*
  %529 = load i64, i64* %PC.i2
  %530 = add i64 %529, 1
  store i64 %530, i64* %PC.i2
  %531 = getelementptr inbounds %struct.State, %struct.State* %0, i64 0, i32 6, i32 13, i32 0, i32 0
  %532 = load i64, i64* %531, align 8
  %533 = add i64 %532, 8
  %534 = inttoptr i64 %532 to i64*
  %535 = load i64, i64* %534
  store i64 %535, i64* %RBP.i3, align 8
  store i64 %533, i64* %531, align 8
  store %struct.Memory* %loadMem_410938, %struct.Memory** %MEMORY
  %loadMem_410939 = load %struct.Memory*, %struct.Memory** %MEMORY
  %536 = getelementptr inbounds %struct.State, %struct.State* %0, i32 0, i32 6
  %537 = getelementptr inbounds %struct.GPR, %struct.GPR* %536, i32 0, i32 33
  %538 = getelementptr inbounds %struct.Reg, %struct.Reg* %537, i32 0, i32 0
  %PC.i1 = bitcast %union.anon* %538 to i64*
  %539 = load i64, i64* %PC.i1
  %540 = add i64 %539, 1
  store i64 %540, i64* %PC.i1
  %541 = getelementptr inbounds %struct.State, %struct.State* %0, i64 0, i32 6, i32 33, i32 0, i32 0
  %542 = getelementptr inbounds %struct.State, %struct.State* %0, i64 0, i32 6, i32 13, i32 0, i32 0
  %543 = load i64, i64* %542, align 8
  %544 = inttoptr i64 %543 to i64*
  %545 = load i64, i64* %544
  store i64 %545, i64* %541, align 8
  %546 = add i64 %543, 8
  store i64 %546, i64* %542, align 8
  store %struct.Memory* %loadMem_410939, %struct.Memory** %MEMORY
  ret %struct.Memory* %loadMem_410939
}

define %struct.Memory* @routine_pushq__rbp(%struct.State* dereferenceable(3376), i64, %struct.Memory*) {
block_400478:
  %3 = getelementptr inbounds %struct.State, %struct.State* %0, i32 0, i32 6
  %4 = getelementptr inbounds %struct.GPR, %struct.GPR* %3, i32 0, i32 33
  %5 = getelementptr inbounds %struct.Reg, %struct.Reg* %4, i32 0, i32 0
  %PC = bitcast %union.anon* %5 to i64*
  %6 = getelementptr inbounds %struct.State, %struct.State* %0, i32 0, i32 6
  %7 = getelementptr inbounds %struct.GPR, %struct.GPR* %6, i32 0, i32 15
  %8 = getelementptr inbounds %struct.Reg, %struct.Reg* %7, i32 0, i32 0
  %RBP = bitcast %union.anon* %8 to i64*
  %9 = load i64, i64* %RBP
  %10 = load i64, i64* %PC
  %11 = add i64 %10, 1
  store i64 %11, i64* %PC
  %12 = getelementptr inbounds %struct.State, %struct.State* %0, i64 0, i32 6, i32 13, i32 0, i32 0
  %13 = load i64, i64* %12, align 8
  %14 = add i64 %13, -8
  %15 = inttoptr i64 %14 to i64*
  store i64 %9, i64* %15
  store i64 %14, i64* %12, align 8
  ret %struct.Memory* %2
}

define %struct.Memory* @routine_movq__rsp___rbp(%struct.State* dereferenceable(3376), i64, %struct.Memory*) {
block_400478:
  %3 = getelementptr inbounds %struct.State, %struct.State* %0, i32 0, i32 6
  %4 = getelementptr inbounds %struct.GPR, %struct.GPR* %3, i32 0, i32 33
  %5 = getelementptr inbounds %struct.Reg, %struct.Reg* %4, i32 0, i32 0
  %PC = bitcast %union.anon* %5 to i64*
  %6 = getelementptr inbounds %struct.State, %struct.State* %0, i32 0, i32 6
  %7 = getelementptr inbounds %struct.GPR, %struct.GPR* %6, i32 0, i32 13
  %8 = getelementptr inbounds %struct.Reg, %struct.Reg* %7, i32 0, i32 0
  %RSP = bitcast %union.anon* %8 to i64*
  %9 = getelementptr inbounds %struct.State, %struct.State* %0, i32 0, i32 6
  %10 = getelementptr inbounds %struct.GPR, %struct.GPR* %9, i32 0, i32 15
  %11 = getelementptr inbounds %struct.Reg, %struct.Reg* %10, i32 0, i32 0
  %RBP = bitcast %union.anon* %11 to i64*
  %12 = load i64, i64* %RSP
  %13 = load i64, i64* %PC
  %14 = add i64 %13, 3
  store i64 %14, i64* %PC
  store i64 %12, i64* %RBP, align 8
  ret %struct.Memory* %2
}

define %struct.Memory* @routine_pushq__rbx(%struct.State* dereferenceable(3376), i64, %struct.Memory*) {
block_400478:
  %3 = getelementptr inbounds %struct.State, %struct.State* %0, i32 0, i32 6
  %4 = getelementptr inbounds %struct.GPR, %struct.GPR* %3, i32 0, i32 33
  %5 = getelementptr inbounds %struct.Reg, %struct.Reg* %4, i32 0, i32 0
  %PC = bitcast %union.anon* %5 to i64*
  %6 = getelementptr inbounds %struct.State, %struct.State* %0, i32 0, i32 6
  %7 = getelementptr inbounds %struct.GPR, %struct.GPR* %6, i32 0, i32 3
  %8 = getelementptr inbounds %struct.Reg, %struct.Reg* %7, i32 0, i32 0
  %RBX = bitcast %union.anon* %8 to i64*
  %9 = load i64, i64* %RBX
  %10 = load i64, i64* %PC
  %11 = add i64 %10, 1
  store i64 %11, i64* %PC
  %12 = getelementptr inbounds %struct.State, %struct.State* %0, i64 0, i32 6, i32 13, i32 0, i32 0
  %13 = load i64, i64* %12, align 8
  %14 = add i64 %13, -8
  %15 = inttoptr i64 %14 to i64*
  store i64 %9, i64* %15
  store i64 %14, i64* %12, align 8
  ret %struct.Memory* %2
}

define %struct.Memory* @routine_movw__r8w___ax(%struct.State* dereferenceable(3376), i64, %struct.Memory*) {
block_400478:
  %3 = getelementptr inbounds %struct.State, %struct.State* %0, i32 0, i32 6
  %4 = getelementptr inbounds %struct.GPR, %struct.GPR* %3, i32 0, i32 33
  %5 = getelementptr inbounds %struct.Reg, %struct.Reg* %4, i32 0, i32 0
  %PC = bitcast %union.anon* %5 to i64*
  %6 = getelementptr inbounds %struct.State, %struct.State* %0, i32 0, i32 6
  %7 = getelementptr inbounds %struct.GPR, %struct.GPR* %6, i32 0, i32 1
  %8 = getelementptr inbounds %struct.Reg, %struct.Reg* %7, i32 0, i32 0
  %AX = bitcast %union.anon* %8 to i16*
  %9 = getelementptr inbounds %struct.State, %struct.State* %0, i32 0, i32 6
  %10 = getelementptr inbounds %struct.GPR, %struct.GPR* %9, i32 0, i32 17
  %11 = getelementptr inbounds %struct.Reg, %struct.Reg* %10, i32 0, i32 0
  %R8W = bitcast %union.anon* %11 to i16*
  %12 = load i16, i16* %R8W
  %13 = zext i16 %12 to i64
  %14 = load i64, i64* %PC
  %15 = add i64 %14, 4
  store i64 %15, i64* %PC
  store i16 %12, i16* %AX, align 2
  ret %struct.Memory* %2
}

define %struct.Memory* @routine_movw__cx___r9w(%struct.State* dereferenceable(3376), i64, %struct.Memory*) {
block_400478:
  %3 = getelementptr inbounds %struct.State, %struct.State* %0, i32 0, i32 6
  %4 = getelementptr inbounds %struct.GPR, %struct.GPR* %3, i32 0, i32 33
  %5 = getelementptr inbounds %struct.Reg, %struct.Reg* %4, i32 0, i32 0
  %PC = bitcast %union.anon* %5 to i64*
  %6 = getelementptr inbounds %struct.State, %struct.State* %0, i32 0, i32 6
  %7 = getelementptr inbounds %struct.GPR, %struct.GPR* %6, i32 0, i32 5
  %8 = getelementptr inbounds %struct.Reg, %struct.Reg* %7, i32 0, i32 0
  %CX = bitcast %union.anon* %8 to i16*
  %9 = getelementptr inbounds %struct.State, %struct.State* %0, i32 0, i32 6
  %10 = getelementptr inbounds %struct.GPR, %struct.GPR* %9, i32 0, i32 19
  %11 = getelementptr inbounds %struct.Reg, %struct.Reg* %10, i32 0, i32 0
  %R9W = bitcast %union.anon* %11 to i16*
  %12 = load i16, i16* %CX
  %13 = zext i16 %12 to i64
  %14 = load i64, i64* %PC
  %15 = add i64 %14, 4
  store i64 %15, i64* %PC
  store i16 %12, i16* %R9W, align 2
  ret %struct.Memory* %2
}

define %struct.Memory* @routine_movw__dx___r10w(%struct.State* dereferenceable(3376), i64, %struct.Memory*) {
block_400478:
  %3 = getelementptr inbounds %struct.State, %struct.State* %0, i32 0, i32 6
  %4 = getelementptr inbounds %struct.GPR, %struct.GPR* %3, i32 0, i32 33
  %5 = getelementptr inbounds %struct.Reg, %struct.Reg* %4, i32 0, i32 0
  %PC = bitcast %union.anon* %5 to i64*
  %6 = getelementptr inbounds %struct.State, %struct.State* %0, i32 0, i32 6
  %7 = getelementptr inbounds %struct.GPR, %struct.GPR* %6, i32 0, i32 7
  %8 = getelementptr inbounds %struct.Reg, %struct.Reg* %7, i32 0, i32 0
  %DX = bitcast %union.anon* %8 to i16*
  %9 = getelementptr inbounds %struct.State, %struct.State* %0, i32 0, i32 6
  %10 = getelementptr inbounds %struct.GPR, %struct.GPR* %9, i32 0, i32 21
  %11 = getelementptr inbounds %struct.Reg, %struct.Reg* %10, i32 0, i32 0
  %R10W = bitcast %union.anon* %11 to i16*
  %12 = load i16, i16* %DX
  %13 = zext i16 %12 to i64
  %14 = load i64, i64* %PC
  %15 = add i64 %14, 4
  store i64 %15, i64* %PC
  store i16 %12, i16* %R10W, align 2
  ret %struct.Memory* %2
}

define %struct.Memory* @routine_movw__si___r11w(%struct.State* dereferenceable(3376), i64, %struct.Memory*) {
block_400478:
  %3 = getelementptr inbounds %struct.State, %struct.State* %0, i32 0, i32 6
  %4 = getelementptr inbounds %struct.GPR, %struct.GPR* %3, i32 0, i32 33
  %5 = getelementptr inbounds %struct.Reg, %struct.Reg* %4, i32 0, i32 0
  %PC = bitcast %union.anon* %5 to i64*
  %6 = getelementptr inbounds %struct.State, %struct.State* %0, i32 0, i32 6
  %7 = getelementptr inbounds %struct.GPR, %struct.GPR* %6, i32 0, i32 9
  %8 = getelementptr inbounds %struct.Reg, %struct.Reg* %7, i32 0, i32 0
  %SI = bitcast %union.anon* %8 to i16*
  %9 = getelementptr inbounds %struct.State, %struct.State* %0, i32 0, i32 6
  %10 = getelementptr inbounds %struct.GPR, %struct.GPR* %9, i32 0, i32 23
  %11 = getelementptr inbounds %struct.Reg, %struct.Reg* %10, i32 0, i32 0
  %R11W = bitcast %union.anon* %11 to i16*
  %12 = load i16, i16* %SI
  %13 = zext i16 %12 to i64
  %14 = load i64, i64* %PC
  %15 = add i64 %14, 4
  store i64 %15, i64* %PC
  store i16 %12, i16* %R11W, align 2
  ret %struct.Memory* %2
}

define %struct.Memory* @routine_movw__di___bx(%struct.State* dereferenceable(3376), i64, %struct.Memory*) {
block_400478:
  %3 = getelementptr inbounds %struct.State, %struct.State* %0, i32 0, i32 6
  %4 = getelementptr inbounds %struct.GPR, %struct.GPR* %3, i32 0, i32 33
  %5 = getelementptr inbounds %struct.Reg, %struct.Reg* %4, i32 0, i32 0
  %PC = bitcast %union.anon* %5 to i64*
  %6 = getelementptr inbounds %struct.State, %struct.State* %0, i32 0, i32 6
  %7 = getelementptr inbounds %struct.GPR, %struct.GPR* %6, i32 0, i32 3
  %8 = getelementptr inbounds %struct.Reg, %struct.Reg* %7, i32 0, i32 0
  %BX = bitcast %union.anon* %8 to i16*
  %9 = getelementptr inbounds %struct.State, %struct.State* %0, i32 0, i32 6
  %10 = getelementptr inbounds %struct.GPR, %struct.GPR* %9, i32 0, i32 11
  %11 = getelementptr inbounds %struct.Reg, %struct.Reg* %10, i32 0, i32 0
  %DI = bitcast %union.anon* %11 to i16*
  %12 = load i16, i16* %DI
  %13 = zext i16 %12 to i64
  %14 = load i64, i64* %PC
  %15 = add i64 %14, 3
  store i64 %15, i64* %PC
  store i16 %12, i16* %BX, align 2
  ret %struct.Memory* %2
}

define %struct.Memory* @routine_movw__bx__MINUS0xa__rbp_(%struct.State* dereferenceable(3376), i64, %struct.Memory*) {
block_400478:
  %3 = getelementptr inbounds %struct.State, %struct.State* %0, i32 0, i32 6
  %4 = getelementptr inbounds %struct.GPR, %struct.GPR* %3, i32 0, i32 33
  %5 = getelementptr inbounds %struct.Reg, %struct.Reg* %4, i32 0, i32 0
  %PC = bitcast %union.anon* %5 to i64*
  %6 = getelementptr inbounds %struct.State, %struct.State* %0, i32 0, i32 6
  %7 = getelementptr inbounds %struct.GPR, %struct.GPR* %6, i32 0, i32 3
  %8 = getelementptr inbounds %struct.Reg, %struct.Reg* %7, i32 0, i32 0
  %BX = bitcast %union.anon* %8 to i16*
  %9 = getelementptr inbounds %struct.State, %struct.State* %0, i32 0, i32 6
  %10 = getelementptr inbounds %struct.GPR, %struct.GPR* %9, i32 0, i32 15
  %11 = getelementptr inbounds %struct.Reg, %struct.Reg* %10, i32 0, i32 0
  %RBP = bitcast %union.anon* %11 to i64*
  %12 = load i64, i64* %RBP
  %13 = sub i64 %12, 10
  %14 = load i16, i16* %BX
  %15 = zext i16 %14 to i64
  %16 = load i64, i64* %PC
  %17 = add i64 %16, 4
  store i64 %17, i64* %PC
  %18 = inttoptr i64 %13 to i16*
  store i16 %14, i16* %18
  ret %struct.Memory* %2
}

define %struct.Memory* @routine_movw__r11w__MINUS0xc__rbp_(%struct.State* dereferenceable(3376), i64, %struct.Memory*) {
block_400478:
  %3 = getelementptr inbounds %struct.State, %struct.State* %0, i32 0, i32 6
  %4 = getelementptr inbounds %struct.GPR, %struct.GPR* %3, i32 0, i32 33
  %5 = getelementptr inbounds %struct.Reg, %struct.Reg* %4, i32 0, i32 0
  %PC = bitcast %union.anon* %5 to i64*
  %6 = getelementptr inbounds %struct.State, %struct.State* %0, i32 0, i32 6
  %7 = getelementptr inbounds %struct.GPR, %struct.GPR* %6, i32 0, i32 23
  %8 = getelementptr inbounds %struct.Reg, %struct.Reg* %7, i32 0, i32 0
  %R11W = bitcast %union.anon* %8 to i16*
  %9 = getelementptr inbounds %struct.State, %struct.State* %0, i32 0, i32 6
  %10 = getelementptr inbounds %struct.GPR, %struct.GPR* %9, i32 0, i32 15
  %11 = getelementptr inbounds %struct.Reg, %struct.Reg* %10, i32 0, i32 0
  %RBP = bitcast %union.anon* %11 to i64*
  %12 = load i64, i64* %RBP
  %13 = sub i64 %12, 12
  %14 = load i16, i16* %R11W
  %15 = zext i16 %14 to i64
  %16 = load i64, i64* %PC
  %17 = add i64 %16, 5
  store i64 %17, i64* %PC
  %18 = inttoptr i64 %13 to i16*
  store i16 %14, i16* %18
  ret %struct.Memory* %2
}

define %struct.Memory* @routine_movw__r10w__MINUS0xe__rbp_(%struct.State* dereferenceable(3376), i64, %struct.Memory*) {
block_400478:
  %3 = getelementptr inbounds %struct.State, %struct.State* %0, i32 0, i32 6
  %4 = getelementptr inbounds %struct.GPR, %struct.GPR* %3, i32 0, i32 33
  %5 = getelementptr inbounds %struct.Reg, %struct.Reg* %4, i32 0, i32 0
  %PC = bitcast %union.anon* %5 to i64*
  %6 = getelementptr inbounds %struct.State, %struct.State* %0, i32 0, i32 6
  %7 = getelementptr inbounds %struct.GPR, %struct.GPR* %6, i32 0, i32 21
  %8 = getelementptr inbounds %struct.Reg, %struct.Reg* %7, i32 0, i32 0
  %R10W = bitcast %union.anon* %8 to i16*
  %9 = getelementptr inbounds %struct.State, %struct.State* %0, i32 0, i32 6
  %10 = getelementptr inbounds %struct.GPR, %struct.GPR* %9, i32 0, i32 15
  %11 = getelementptr inbounds %struct.Reg, %struct.Reg* %10, i32 0, i32 0
  %RBP = bitcast %union.anon* %11 to i64*
  %12 = load i64, i64* %RBP
  %13 = sub i64 %12, 14
  %14 = load i16, i16* %R10W
  %15 = zext i16 %14 to i64
  %16 = load i64, i64* %PC
  %17 = add i64 %16, 5
  store i64 %17, i64* %PC
  %18 = inttoptr i64 %13 to i16*
  store i16 %14, i16* %18
  ret %struct.Memory* %2
}

define %struct.Memory* @routine_movw__r9w__MINUS0x10__rbp_(%struct.State* dereferenceable(3376), i64, %struct.Memory*) {
block_400478:
  %3 = getelementptr inbounds %struct.State, %struct.State* %0, i32 0, i32 6
  %4 = getelementptr inbounds %struct.GPR, %struct.GPR* %3, i32 0, i32 33
  %5 = getelementptr inbounds %struct.Reg, %struct.Reg* %4, i32 0, i32 0
  %PC = bitcast %union.anon* %5 to i64*
  %6 = getelementptr inbounds %struct.State, %struct.State* %0, i32 0, i32 6
  %7 = getelementptr inbounds %struct.GPR, %struct.GPR* %6, i32 0, i32 19
  %8 = getelementptr inbounds %struct.Reg, %struct.Reg* %7, i32 0, i32 0
  %R9W = bitcast %union.anon* %8 to i16*
  %9 = getelementptr inbounds %struct.State, %struct.State* %0, i32 0, i32 6
  %10 = getelementptr inbounds %struct.GPR, %struct.GPR* %9, i32 0, i32 15
  %11 = getelementptr inbounds %struct.Reg, %struct.Reg* %10, i32 0, i32 0
  %RBP = bitcast %union.anon* %11 to i64*
  %12 = load i64, i64* %RBP
  %13 = sub i64 %12, 16
  %14 = load i16, i16* %R9W
  %15 = zext i16 %14 to i64
  %16 = load i64, i64* %PC
  %17 = add i64 %16, 5
  store i64 %17, i64* %PC
  %18 = inttoptr i64 %13 to i16*
  store i16 %14, i16* %18
  ret %struct.Memory* %2
}

define %struct.Memory* @routine_movw__ax__MINUS0x12__rbp_(%struct.State* dereferenceable(3376), i64, %struct.Memory*) {
block_400478:
  %3 = getelementptr inbounds %struct.State, %struct.State* %0, i32 0, i32 6
  %4 = getelementptr inbounds %struct.GPR, %struct.GPR* %3, i32 0, i32 33
  %5 = getelementptr inbounds %struct.Reg, %struct.Reg* %4, i32 0, i32 0
  %PC = bitcast %union.anon* %5 to i64*
  %6 = getelementptr inbounds %struct.State, %struct.State* %0, i32 0, i32 6
  %7 = getelementptr inbounds %struct.GPR, %struct.GPR* %6, i32 0, i32 1
  %8 = getelementptr inbounds %struct.Reg, %struct.Reg* %7, i32 0, i32 0
  %AX = bitcast %union.anon* %8 to i16*
  %9 = getelementptr inbounds %struct.State, %struct.State* %0, i32 0, i32 6
  %10 = getelementptr inbounds %struct.GPR, %struct.GPR* %9, i32 0, i32 15
  %11 = getelementptr inbounds %struct.Reg, %struct.Reg* %10, i32 0, i32 0
  %RBP = bitcast %union.anon* %11 to i64*
  %12 = load i64, i64* %RBP
  %13 = sub i64 %12, 18
  %14 = load i16, i16* %AX
  %15 = zext i16 %14 to i64
  %16 = load i64, i64* %PC
  %17 = add i64 %16, 4
  store i64 %17, i64* %PC
  %18 = inttoptr i64 %13 to i16*
  store i16 %14, i16* %18
  ret %struct.Memory* %2
}

define %struct.Memory* @routine_movzwl_MINUS0xa__rbp____eax(%struct.State* dereferenceable(3376), i64, %struct.Memory*) {
block_400478:
  %3 = getelementptr inbounds %struct.State, %struct.State* %0, i32 0, i32 6
  %4 = getelementptr inbounds %struct.GPR, %struct.GPR* %3, i32 0, i32 33
  %5 = getelementptr inbounds %struct.Reg, %struct.Reg* %4, i32 0, i32 0
  %PC = bitcast %union.anon* %5 to i64*
  %6 = getelementptr inbounds %struct.State, %struct.State* %0, i32 0, i32 6
  %7 = getelementptr inbounds %struct.GPR, %struct.GPR* %6, i32 0, i32 1
  %8 = getelementptr inbounds %struct.Reg, %struct.Reg* %7, i32 0, i32 0
  %RAX = bitcast %union.anon* %8 to i64*
  %9 = getelementptr inbounds %struct.State, %struct.State* %0, i32 0, i32 6
  %10 = getelementptr inbounds %struct.GPR, %struct.GPR* %9, i32 0, i32 15
  %11 = getelementptr inbounds %struct.Reg, %struct.Reg* %10, i32 0, i32 0
  %RBP = bitcast %union.anon* %11 to i64*
  %12 = load i64, i64* %RBP
  %13 = sub i64 %12, 10
  %14 = load i64, i64* %PC
  %15 = add i64 %14, 4
  store i64 %15, i64* %PC
  %16 = inttoptr i64 %13 to i16*
  %17 = load i16, i16* %16
  %18 = zext i16 %17 to i64
  store i64 %18, i64* %RAX, align 8
  ret %struct.Memory* %2
}

define %struct.Memory* @routine_movzwl_MINUS0xc__rbp____ecx(%struct.State* dereferenceable(3376), i64, %struct.Memory*) {
block_400478:
  %3 = getelementptr inbounds %struct.State, %struct.State* %0, i32 0, i32 6
  %4 = getelementptr inbounds %struct.GPR, %struct.GPR* %3, i32 0, i32 33
  %5 = getelementptr inbounds %struct.Reg, %struct.Reg* %4, i32 0, i32 0
  %PC = bitcast %union.anon* %5 to i64*
  %6 = getelementptr inbounds %struct.State, %struct.State* %0, i32 0, i32 6
  %7 = getelementptr inbounds %struct.GPR, %struct.GPR* %6, i32 0, i32 5
  %8 = getelementptr inbounds %struct.Reg, %struct.Reg* %7, i32 0, i32 0
  %RCX = bitcast %union.anon* %8 to i64*
  %9 = getelementptr inbounds %struct.State, %struct.State* %0, i32 0, i32 6
  %10 = getelementptr inbounds %struct.GPR, %struct.GPR* %9, i32 0, i32 15
  %11 = getelementptr inbounds %struct.Reg, %struct.Reg* %10, i32 0, i32 0
  %RBP = bitcast %union.anon* %11 to i64*
  %12 = load i64, i64* %RBP
  %13 = sub i64 %12, 12
  %14 = load i64, i64* %PC
  %15 = add i64 %14, 4
  store i64 %15, i64* %PC
  %16 = inttoptr i64 %13 to i16*
  %17 = load i16, i16* %16
  %18 = zext i16 %17 to i64
  store i64 %18, i64* %RCX, align 8
  ret %struct.Memory* %2
}

define %struct.Memory* @routine_cltd(%struct.State* dereferenceable(3376), i64, %struct.Memory*) {
block_400478:
  %3 = getelementptr inbounds %struct.State, %struct.State* %0, i32 0, i32 6
  %4 = getelementptr inbounds %struct.GPR, %struct.GPR* %3, i32 0, i32 33
  %5 = getelementptr inbounds %struct.Reg, %struct.Reg* %4, i32 0, i32 0
  %PC = bitcast %union.anon* %5 to i64*
  %6 = load i64, i64* %PC
  %7 = add i64 %6, 1
  store i64 %7, i64* %PC
  %8 = getelementptr inbounds %struct.State, %struct.State* %0, i64 0, i32 6, i32 7, i32 0, i32 0
  %9 = getelementptr inbounds %struct.State, %struct.State* %0, i64 0, i32 6, i32 1, i32 0
  %10 = bitcast %union.anon* %9 to i32*
  %11 = load i32, i32* %10, align 8
  %12 = sext i32 %11 to i64
  %13 = lshr i64 %12, 32
  store i64 %13, i64* %8, align 8
  ret %struct.Memory* %2
}

define %struct.Memory* @routine_idivl__ecx(%struct.State* dereferenceable(3376), i64, %struct.Memory*) {
block_400478:
  %3 = getelementptr inbounds %struct.State, %struct.State* %0, i32 0, i32 6
  %4 = getelementptr inbounds %struct.GPR, %struct.GPR* %3, i32 0, i32 33
  %5 = getelementptr inbounds %struct.Reg, %struct.Reg* %4, i32 0, i32 0
  %PC = bitcast %union.anon* %5 to i64*
  %6 = getelementptr inbounds %struct.State, %struct.State* %0, i32 0, i32 6
  %7 = getelementptr inbounds %struct.GPR, %struct.GPR* %6, i32 0, i32 5
  %8 = getelementptr inbounds %struct.Reg, %struct.Reg* %7, i32 0, i32 0
  %ECX = bitcast %union.anon* %8 to i32*
  %9 = load i32, i32* %ECX
  %10 = zext i32 %9 to i64
  %11 = load i64, i64* %PC
  %12 = add i64 %11, 2
  store i64 %12, i64* %PC
  %13 = getelementptr inbounds %struct.State, %struct.State* %0, i64 0, i32 6, i32 1, i32 0
  %14 = bitcast %union.anon* %13 to i32*
  %15 = load i32, i32* %14, align 8
  %16 = zext i32 %15 to i64
  %17 = getelementptr inbounds %struct.State, %struct.State* %0, i64 0, i32 6, i32 7, i32 0
  %18 = bitcast %union.anon* %17 to i32*
  %19 = load i32, i32* %18, align 8
  %20 = zext i32 %19 to i64
  %21 = shl i64 %10, 32
  %22 = ashr exact i64 %21, 32
  %23 = shl i64 %20, 32
  %24 = or i64 %23, %16
  %25 = sdiv i64 %24, %22
  %26 = shl i64 %25, 32
  %27 = ashr exact i64 %26, 32
  %28 = icmp eq i64 %25, %27
  br i1 %28, label %33, label %29

; <label>:29:                                     ; preds = %block_400478
  %30 = getelementptr inbounds %struct.State, %struct.State* %0, i64 0, i32 6, i32 33, i32 0, i32 0
  %31 = load i64, i64* %30, align 8
  %32 = call %struct.Memory* @__remill_error(%struct.State* nonnull dereferenceable(3376) %0, i64 %31, %struct.Memory* %2)
  br label %_ZN12_GLOBAL__N_1L10IDIVedxeaxI2RnIjEEEP6MemoryS4_R5StateT_.exit

; <label>:33:                                     ; preds = %block_400478
  %34 = srem i64 %24, %22
  %35 = getelementptr inbounds %union.anon, %union.anon* %13, i64 0, i32 0
  %36 = and i64 %25, 4294967295
  store i64 %36, i64* %35, align 8
  %37 = getelementptr inbounds %union.anon, %union.anon* %17, i64 0, i32 0
  %38 = and i64 %34, 4294967295
  store i64 %38, i64* %37, align 8
  %39 = getelementptr inbounds %struct.State, %struct.State* %0, i64 0, i32 2, i32 1
  store i8 0, i8* %39, align 1
  %40 = getelementptr inbounds %struct.State, %struct.State* %0, i64 0, i32 2, i32 3
  store i8 0, i8* %40, align 1
  %41 = getelementptr inbounds %struct.State, %struct.State* %0, i64 0, i32 2, i32 5
  store i8 0, i8* %41, align 1
  %42 = getelementptr inbounds %struct.State, %struct.State* %0, i64 0, i32 2, i32 7
  store i8 0, i8* %42, align 1
  %43 = getelementptr inbounds %struct.State, %struct.State* %0, i64 0, i32 2, i32 9
  store i8 0, i8* %43, align 1
  %44 = getelementptr inbounds %struct.State, %struct.State* %0, i64 0, i32 2, i32 13
  store i8 0, i8* %44, align 1
  br label %_ZN12_GLOBAL__N_1L10IDIVedxeaxI2RnIjEEEP6MemoryS4_R5StateT_.exit

_ZN12_GLOBAL__N_1L10IDIVedxeaxI2RnIjEEEP6MemoryS4_R5StateT_.exit: ; preds = %29, %33
  %45 = phi %struct.Memory* [ %32, %29 ], [ %2, %33 ]
  ret %struct.Memory* %45
}

define %struct.Memory* @routine_movzwl_MINUS0xe__rbp____ecx(%struct.State* dereferenceable(3376), i64, %struct.Memory*) {
block_400478:
  %3 = getelementptr inbounds %struct.State, %struct.State* %0, i32 0, i32 6
  %4 = getelementptr inbounds %struct.GPR, %struct.GPR* %3, i32 0, i32 33
  %5 = getelementptr inbounds %struct.Reg, %struct.Reg* %4, i32 0, i32 0
  %PC = bitcast %union.anon* %5 to i64*
  %6 = getelementptr inbounds %struct.State, %struct.State* %0, i32 0, i32 6
  %7 = getelementptr inbounds %struct.GPR, %struct.GPR* %6, i32 0, i32 5
  %8 = getelementptr inbounds %struct.Reg, %struct.Reg* %7, i32 0, i32 0
  %RCX = bitcast %union.anon* %8 to i64*
  %9 = getelementptr inbounds %struct.State, %struct.State* %0, i32 0, i32 6
  %10 = getelementptr inbounds %struct.GPR, %struct.GPR* %9, i32 0, i32 15
  %11 = getelementptr inbounds %struct.Reg, %struct.Reg* %10, i32 0, i32 0
  %RBP = bitcast %union.anon* %11 to i64*
  %12 = load i64, i64* %RBP
  %13 = sub i64 %12, 14
  %14 = load i64, i64* %PC
  %15 = add i64 %14, 4
  store i64 %15, i64* %PC
  %16 = inttoptr i64 %13 to i16*
  %17 = load i16, i16* %16
  %18 = zext i16 %17 to i64
  store i64 %18, i64* %RCX, align 8
  ret %struct.Memory* %2
}

define %struct.Memory* @routine_movzwl_MINUS0x10__rbp____ecx(%struct.State* dereferenceable(3376), i64, %struct.Memory*) {
block_400478:
  %3 = getelementptr inbounds %struct.State, %struct.State* %0, i32 0, i32 6
  %4 = getelementptr inbounds %struct.GPR, %struct.GPR* %3, i32 0, i32 33
  %5 = getelementptr inbounds %struct.Reg, %struct.Reg* %4, i32 0, i32 0
  %PC = bitcast %union.anon* %5 to i64*
  %6 = getelementptr inbounds %struct.State, %struct.State* %0, i32 0, i32 6
  %7 = getelementptr inbounds %struct.GPR, %struct.GPR* %6, i32 0, i32 5
  %8 = getelementptr inbounds %struct.Reg, %struct.Reg* %7, i32 0, i32 0
  %RCX = bitcast %union.anon* %8 to i64*
  %9 = getelementptr inbounds %struct.State, %struct.State* %0, i32 0, i32 6
  %10 = getelementptr inbounds %struct.GPR, %struct.GPR* %9, i32 0, i32 15
  %11 = getelementptr inbounds %struct.Reg, %struct.Reg* %10, i32 0, i32 0
  %RBP = bitcast %union.anon* %11 to i64*
  %12 = load i64, i64* %RBP
  %13 = sub i64 %12, 16
  %14 = load i64, i64* %PC
  %15 = add i64 %14, 4
  store i64 %15, i64* %PC
  %16 = inttoptr i64 %13 to i16*
  %17 = load i16, i16* %16
  %18 = zext i16 %17 to i64
  store i64 %18, i64* %RCX, align 8
  ret %struct.Memory* %2
}

define %struct.Memory* @routine_movzwl_MINUS0x12__rbp____ecx(%struct.State* dereferenceable(3376), i64, %struct.Memory*) {
block_400478:
  %3 = getelementptr inbounds %struct.State, %struct.State* %0, i32 0, i32 6
  %4 = getelementptr inbounds %struct.GPR, %struct.GPR* %3, i32 0, i32 33
  %5 = getelementptr inbounds %struct.Reg, %struct.Reg* %4, i32 0, i32 0
  %PC = bitcast %union.anon* %5 to i64*
  %6 = getelementptr inbounds %struct.State, %struct.State* %0, i32 0, i32 6
  %7 = getelementptr inbounds %struct.GPR, %struct.GPR* %6, i32 0, i32 5
  %8 = getelementptr inbounds %struct.Reg, %struct.Reg* %7, i32 0, i32 0
  %RCX = bitcast %union.anon* %8 to i64*
  %9 = getelementptr inbounds %struct.State, %struct.State* %0, i32 0, i32 6
  %10 = getelementptr inbounds %struct.GPR, %struct.GPR* %9, i32 0, i32 15
  %11 = getelementptr inbounds %struct.Reg, %struct.Reg* %10, i32 0, i32 0
  %RBP = bitcast %union.anon* %11 to i64*
  %12 = load i64, i64* %RBP
  %13 = sub i64 %12, 18
  %14 = load i64, i64* %PC
  %15 = add i64 %14, 4
  store i64 %15, i64* %PC
  %16 = inttoptr i64 %13 to i16*
  %17 = load i16, i16* %16
  %18 = zext i16 %17 to i64
  store i64 %18, i64* %RCX, align 8
  ret %struct.Memory* %2
}

define %struct.Memory* @routine_movw__ax___r9w(%struct.State* dereferenceable(3376), i64, %struct.Memory*) {
block_400478:
  %3 = getelementptr inbounds %struct.State, %struct.State* %0, i32 0, i32 6
  %4 = getelementptr inbounds %struct.GPR, %struct.GPR* %3, i32 0, i32 33
  %5 = getelementptr inbounds %struct.Reg, %struct.Reg* %4, i32 0, i32 0
  %PC = bitcast %union.anon* %5 to i64*
  %6 = getelementptr inbounds %struct.State, %struct.State* %0, i32 0, i32 6
  %7 = getelementptr inbounds %struct.GPR, %struct.GPR* %6, i32 0, i32 1
  %8 = getelementptr inbounds %struct.Reg, %struct.Reg* %7, i32 0, i32 0
  %AX = bitcast %union.anon* %8 to i16*
  %9 = getelementptr inbounds %struct.State, %struct.State* %0, i32 0, i32 6
  %10 = getelementptr inbounds %struct.GPR, %struct.GPR* %9, i32 0, i32 19
  %11 = getelementptr inbounds %struct.Reg, %struct.Reg* %10, i32 0, i32 0
  %R9W = bitcast %union.anon* %11 to i16*
  %12 = load i16, i16* %AX
  %13 = zext i16 %12 to i64
  %14 = load i64, i64* %PC
  %15 = add i64 %14, 4
  store i64 %15, i64* %PC
  store i16 %12, i16* %R9W, align 2
  ret %struct.Memory* %2
}

define %struct.Memory* @routine_movzwl__r9w___eax(%struct.State* dereferenceable(3376), i64, %struct.Memory*) {
block_400478:
  %3 = getelementptr inbounds %struct.State, %struct.State* %0, i32 0, i32 6
  %4 = getelementptr inbounds %struct.GPR, %struct.GPR* %3, i32 0, i32 33
  %5 = getelementptr inbounds %struct.Reg, %struct.Reg* %4, i32 0, i32 0
  %PC = bitcast %union.anon* %5 to i64*
  %6 = getelementptr inbounds %struct.State, %struct.State* %0, i32 0, i32 6
  %7 = getelementptr inbounds %struct.GPR, %struct.GPR* %6, i32 0, i32 19
  %8 = getelementptr inbounds %struct.Reg, %struct.Reg* %7, i32 0, i32 0
  %R9W = bitcast %union.anon* %8 to i16*
  %9 = getelementptr inbounds %struct.State, %struct.State* %0, i32 0, i32 6
  %10 = getelementptr inbounds %struct.GPR, %struct.GPR* %9, i32 0, i32 1
  %11 = getelementptr inbounds %struct.Reg, %struct.Reg* %10, i32 0, i32 0
  %RAX = bitcast %union.anon* %11 to i64*
  %12 = load i16, i16* %R9W
  %13 = zext i16 %12 to i64
  %14 = load i64, i64* %PC
  %15 = add i64 %14, 4
  store i64 %15, i64* %PC
  %16 = and i64 %13, 65535
  store i64 %16, i64* %RAX, align 8
  ret %struct.Memory* %2
}

define %struct.Memory* @routine_popq__rbx(%struct.State* dereferenceable(3376), i64, %struct.Memory*) {
block_400478:
  %3 = getelementptr inbounds %struct.State, %struct.State* %0, i32 0, i32 6
  %4 = getelementptr inbounds %struct.GPR, %struct.GPR* %3, i32 0, i32 33
  %5 = getelementptr inbounds %struct.Reg, %struct.Reg* %4, i32 0, i32 0
  %PC = bitcast %union.anon* %5 to i64*
  %6 = getelementptr inbounds %struct.State, %struct.State* %0, i32 0, i32 6
  %7 = getelementptr inbounds %struct.GPR, %struct.GPR* %6, i32 0, i32 3
  %8 = getelementptr inbounds %struct.Reg, %struct.Reg* %7, i32 0, i32 0
  %RBX = bitcast %union.anon* %8 to i64*
  %9 = load i64, i64* %PC
  %10 = add i64 %9, 1
  store i64 %10, i64* %PC
  %11 = getelementptr inbounds %struct.State, %struct.State* %0, i64 0, i32 6, i32 13, i32 0, i32 0
  %12 = load i64, i64* %11, align 8
  %13 = add i64 %12, 8
  %14 = inttoptr i64 %12 to i64*
  %15 = load i64, i64* %14
  store i64 %15, i64* %RBX, align 8
  store i64 %13, i64* %11, align 8
  ret %struct.Memory* %2
}

define %struct.Memory* @routine_popq__rbp(%struct.State* dereferenceable(3376), i64, %struct.Memory*) {
block_400478:
  %3 = getelementptr inbounds %struct.State, %struct.State* %0, i32 0, i32 6
  %4 = getelementptr inbounds %struct.GPR, %struct.GPR* %3, i32 0, i32 33
  %5 = getelementptr inbounds %struct.Reg, %struct.Reg* %4, i32 0, i32 0
  %PC = bitcast %union.anon* %5 to i64*
  %6 = getelementptr inbounds %struct.State, %struct.State* %0, i32 0, i32 6
  %7 = getelementptr inbounds %struct.GPR, %struct.GPR* %6, i32 0, i32 15
  %8 = getelementptr inbounds %struct.Reg, %struct.Reg* %7, i32 0, i32 0
  %RBP = bitcast %union.anon* %8 to i64*
  %9 = load i64, i64* %PC
  %10 = add i64 %9, 1
  store i64 %10, i64* %PC
  %11 = getelementptr inbounds %struct.State, %struct.State* %0, i64 0, i32 6, i32 13, i32 0, i32 0
  %12 = load i64, i64* %11, align 8
  %13 = add i64 %12, 8
  %14 = inttoptr i64 %12 to i64*
  %15 = load i64, i64* %14
  store i64 %15, i64* %RBP, align 8
  store i64 %13, i64* %11, align 8
  ret %struct.Memory* %2
}

define %struct.Memory* @routine_retq(%struct.State* dereferenceable(3376), i64, %struct.Memory*) {
block_400478:
  %3 = getelementptr inbounds %struct.State, %struct.State* %0, i32 0, i32 6
  %4 = getelementptr inbounds %struct.GPR, %struct.GPR* %3, i32 0, i32 33
  %5 = getelementptr inbounds %struct.Reg, %struct.Reg* %4, i32 0, i32 0
  %PC = bitcast %union.anon* %5 to i64*
  %6 = load i64, i64* %PC
  %7 = add i64 %6, 1
  store i64 %7, i64* %PC
  %8 = getelementptr inbounds %struct.State, %struct.State* %0, i64 0, i32 6, i32 33, i32 0, i32 0
  %9 = getelementptr inbounds %struct.State, %struct.State* %0, i64 0, i32 6, i32 13, i32 0, i32 0
  %10 = load i64, i64* %9, align 8
  %11 = inttoptr i64 %10 to i64*
  %12 = load i64, i64* %11
  store i64 %12, i64* %8, align 8
  %13 = add i64 %10, 8
  store i64 %13, i64* %9, align 8
  ret %struct.Memory* %2
}

attributes #0 = { argmemonly nounwind }
attributes #1 = { nounwind readnone }
attributes #2 = { alwaysinline }
