[     1s]    INFO tuneNormalizer:  Search Space: ['-mem2reg', '-licm', '-gvn', '-early-cse', '-globalopt', '-simplifycfg', '-basicaa', '-aa', '-memdep', '-dse', '-deadargelim', '-libcalls-shrinkwrap', '-tailcallelim', '-instcombine', '-memcpyopt', '-early-cse-memssa']


[     1s] WARNING opentuner.search.simplextechniques: only 1 point in simplex, will not use RandomNelderMead
[    13s]    INFO opentuner.search.plugin.DisplayPlugin: tests=16, best #1704, cost time=0.0114, found by NormalGreedyMutation
[    23s]    INFO opentuner.search.plugin.DisplayPlugin: tests=32, best #1704, cost time=0.0114, found by NormalGreedyMutation
[    28s]    INFO tuneNormalizer: run_precompiled: Early Exit: Optimal pass sequence written to mcsema//normalizer_final_config.json: [ -gvn -simplifycfg -aa -deadargelim -tailcallelim -instcombine -early-cse-memssa]
[    36s]    INFO opentuner.search.plugin.DisplayPlugin: tests=48, best #1674, cost time=0.0000, found by DifferentialEvolutionAlt
[    48s]    INFO opentuner.search.plugin.DisplayPlugin: tests=64, best #1674, cost time=0.0000, found by DifferentialEvolutionAlt
[    52s]    INFO tuneNormalizer: run_precompiled: Early Exit: Optimal pass sequence written to mcsema//normalizer_final_config.json: [ -gvn -simplifycfg -aa -deadargelim -instcombine -early-cse-memssa]
[    53s]    INFO tuneNormalizer: run_precompiled: Early Exit: Optimal pass sequence written to mcsema//normalizer_final_config.json: [ -gvn -globalopt -simplifycfg -aa -deadargelim -tailcallelim -instcombine -memcpyopt -early-cse-memssa]
[    58s]    INFO tuneNormalizer: run_precompiled: Early Exit: Optimal pass sequence written to mcsema//normalizer_final_config.json: [ -gvn -globalopt -simplifycfg -aa -deadargelim -tailcallelim -instcombine -early-cse-memssa]
[    59s]    INFO tuneNormalizer: run_precompiled: Early Exit: Optimal pass sequence written to mcsema//normalizer_final_config.json: [ -gvn -globalopt -simplifycfg -aa -deadargelim -libcalls-shrinkwrap -tailcallelim -instcombine -memcpyopt -early-cse-memssa]
[    59s]    INFO opentuner.search.plugin.DisplayPlugin: tests=80, best #1674, cost time=0.0000, found by DifferentialEvolutionAlt
[    61s]    INFO tuneNormalizer: run_precompiled: Early Exit: Optimal pass sequence written to mcsema//normalizer_final_config.json: [ -gvn -simplifycfg -aa -memdep -dse -deadargelim -tailcallelim -instcombine -early-cse-memssa]
[    61s]    INFO tuneNormalizer: run_precompiled: Early Exit: Optimal pass sequence written to mcsema//normalizer_final_config.json: [ -gvn -simplifycfg -aa -deadargelim -libcalls-shrinkwrap -tailcallelim -instcombine -early-cse-memssa]
[    61s]    INFO tuneNormalizer: run_precompiled: Early Exit: Optimal pass sequence written to mcsema//normalizer_final_config.json: [ -mem2reg -gvn -simplifycfg -aa -memdep -deadargelim -tailcallelim -instcombine -early-cse-memssa]
[    67s]    INFO tuneNormalizer: run_precompiled: Early Exit: Optimal pass sequence written to mcsema//normalizer_final_config.json: [ -gvn -simplifycfg -aa -deadargelim -tailcallelim -instcombine -memcpyopt -early-cse-memssa]
[    67s]    INFO tuneNormalizer: run_precompiled: Early Exit: Optimal pass sequence written to mcsema//normalizer_final_config.json: [ -gvn -simplifycfg -aa -memdep -deadargelim -tailcallelim -instcombine -early-cse-memssa]
[    68s]    INFO tuneNormalizer: run_precompiled: Early Exit: Optimal pass sequence written to mcsema//normalizer_final_config.json: [ -gvn -simplifycfg -aa -deadargelim -libcalls-shrinkwrap -tailcallelim -instcombine -early-cse-memssa]
[    71s]    INFO opentuner.search.plugin.DisplayPlugin: tests=96, best #1674, cost time=0.0000, found by DifferentialEvolutionAlt
[    75s]    INFO tuneNormalizer: run_precompiled: Early Exit: Optimal pass sequence written to mcsema//normalizer_final_config.json: [ -gvn -simplifycfg -aa -tailcallelim -instcombine -early-cse-memssa]
[    76s]    INFO tuneNormalizer: run_precompiled: Early Exit: Optimal pass sequence written to mcsema//normalizer_final_config.json: [ -gvn -simplifycfg -aa -dse -deadargelim -tailcallelim -instcombine -early-cse-memssa]
[    76s]    INFO tuneNormalizer: run_precompiled: Early Exit: Optimal pass sequence written to mcsema//normalizer_final_config.json: [ -gvn -simplifycfg -basicaa -aa -deadargelim -tailcallelim -instcombine -early-cse-memssa]
[    77s]    INFO tuneNormalizer: run_precompiled: Early Exit: Optimal pass sequence written to mcsema//normalizer_final_config.json: [ -mem2reg -gvn -globalopt -simplifycfg -basicaa -aa -deadargelim -tailcallelim -instcombine -early-cse-memssa]
[    77s]    INFO opentuner.search.plugin.DisplayPlugin: tests=104, best #1674, cost time=0.0000, found by DifferentialEvolutionAlt
[    77s]    INFO tuneNormalizer: Optimal pass sequence seen so far: [-early-cse-memssa -instcombine -simplifycfg -aa -gvn -tailcallelim -deadargelim ]
61.95user 13.71system 1:17.50elapsed 97%CPU (0avgtext+0avgdata 55884maxresident)k
0inputs+133696outputs (0major+956974minor)pagefaults 0swaps
