; ModuleID = '/home/sdasgup3/Github/validating-binary-decompilation/tests/program_translation_validation/toy-examples/bc-seeds/test_32/test_32.bc'
source_filename = "llvm-link"
target datalayout = "e-m:e-i64:64-f80:128-n8:16:32:64-S128"
target triple = "x86_64-unknown-linux-gnu"

@.str = private unnamed_addr constant [5 x i8] c"%ld\0A\00", align 1

; Function Attrs: noinline nounwind uwtable
define i64 @fib(i64 %n) #0 {
entry:
  %retval = alloca i64, align 8
  %n.addr = alloca i64, align 8
  store i64 %n, i64* %n.addr, align 8
  %0 = load i64, i64* %n.addr, align 8
  %cmp = icmp ult i64 %0, 2
  br i1 %cmp, label %if.then, label %if.else

if.then:                                          ; preds = %entry
  store i64 1, i64* %retval, align 8
  br label %return

if.else:                                          ; preds = %entry
  %1 = load i64, i64* %n.addr, align 8
  %sub = sub i64 %1, 2
  %call = call i64 @fib(i64 %sub)
  %2 = load i64, i64* %n.addr, align 8
  %sub1 = sub i64 %2, 1
  %call2 = call i64 @fib(i64 %sub1)
  %add = add i64 %call, %call2
  store i64 %add, i64* %retval, align 8
  br label %return

return:                                           ; preds = %if.else, %if.then
  %3 = load i64, i64* %retval, align 8
  ret i64 %3
}

; Function Attrs: noinline nounwind uwtable
define i32 @main(i32 %argc, i8** %argv) #0 {
entry:
  %retval = alloca i32, align 4
  %argc.addr = alloca i32, align 4
  %argv.addr = alloca i8**, align 8
  %N = alloca i32, align 4
  store i32 0, i32* %retval, align 4
  store i32 %argc, i32* %argc.addr, align 4
  store i8** %argv, i8*** %argv.addr, align 8
  %0 = load i32, i32* %argc.addr, align 4
  %cmp = icmp eq i32 %0, 2
  br i1 %cmp, label %cond.true, label %cond.false

cond.true:                                        ; preds = %entry
  %1 = load i8**, i8*** %argv.addr, align 8
  %arrayidx = getelementptr inbounds i8*, i8** %1, i64 1
  %2 = load i8*, i8** %arrayidx, align 8
  %call = call i32 @atoi(i8* %2)
  br label %cond.end

cond.false:                                       ; preds = %entry
  br label %cond.end

cond.end:                                         ; preds = %cond.false, %cond.true
  %cond = phi i32 [ %call, %cond.true ], [ 20, %cond.false ]
  store i32 %cond, i32* %N, align 4
  %3 = load i32, i32* %N, align 4
  %conv = sext i32 %3 to i64
  %call1 = call i64 @fib(i64 %conv)
  %call2 = call i32 (i8*, ...) @printf(i8* getelementptr inbounds ([5 x i8], [5 x i8]* @.str, i32 0, i32 0), i64 %call1)
  ret i32 0
}

declare i32 @atoi(i8*) #1

declare i32 @printf(i8*, ...) #1

attributes #0 = { noinline nounwind uwtable "correctly-rounded-divide-sqrt-fp-math"="false" "disable-tail-calls"="false" "less-precise-fpmad"="false" "no-frame-pointer-elim"="true" "no-frame-pointer-elim-non-leaf" "no-infs-fp-math"="false" "no-jump-tables"="false" "no-nans-fp-math"="false" "no-signed-zeros-fp-math"="false" "no-trapping-math"="false" "stack-protector-buffer-size"="8" "target-cpu"="x86-64" "target-features"="+fxsr,+mmx,+sse,+sse2,+x87" "unsafe-fp-math"="false" "use-soft-float"="false" }
attributes #1 = { "correctly-rounded-divide-sqrt-fp-math"="false" "disable-tail-calls"="false" "less-precise-fpmad"="false" "no-frame-pointer-elim"="true" "no-frame-pointer-elim-non-leaf" "no-infs-fp-math"="false" "no-nans-fp-math"="false" "no-signed-zeros-fp-math"="false" "no-trapping-math"="false" "stack-protector-buffer-size"="8" "target-cpu"="x86-64" "target-features"="+fxsr,+mmx,+sse,+sse2,+x87" "unsafe-fp-math"="false" "use-soft-float"="false" }

!llvm.ident = !{!0}

!0 = !{!"clang version 4.0.0 (tags/RELEASE_400/final)"}
