[     1s]    INFO tuneNormalizer:  Search Space: ['-mem2reg', '-licm', '-gvn', '-early-cse', '-globalopt', '-simplifycfg', '-basicaa', '-aa', '-memdep', '-dse', '-deadargelim', '-libcalls-shrinkwrap', '-tailcallelim', '-instcombine', '-memcpyopt', '-early-cse-memssa']


[    41s]    INFO tuneNormalizer: run_precompiled: Early Exit: Optimal pass sequence written to mcsema//normalizer_final_config.json: [ -gvn -early-cse -globalopt -memdep -dse -deadargelim -tailcallelim -instcombine]
[    47s]    INFO opentuner.search.plugin.DisplayPlugin: tests=4, best #255, cost time=0.0000, found by DifferentialEvolutionAlt
[    47s] WARNING opentuner.search.simplextechniques: only 1 point in simplex, will not use RandomNelderMead
[    73s]    INFO tuneNormalizer: run_precompiled: Early Exit: Optimal pass sequence written to mcsema//normalizer_final_config.json: [ -gvn -dse -tailcallelim -instcombine]
[    79s]    INFO tuneNormalizer: run_precompiled: Early Exit: Optimal pass sequence written to mcsema//normalizer_final_config.json: [ -mem2reg -gvn -early-cse -globalopt -memdep -dse -deadargelim -instcombine]
[    83s]    INFO tuneNormalizer: run_precompiled: Early Exit: Optimal pass sequence written to mcsema//normalizer_final_config.json: [ -gvn -early-cse -globalopt -memdep -dse -deadargelim -libcalls-shrinkwrap -tailcallelim -instcombine]
[    88s]    INFO tuneNormalizer: run_precompiled: Early Exit: Optimal pass sequence written to mcsema//normalizer_final_config.json: [ -gvn -globalopt -memdep -dse -deadargelim -instcombine -memcpyopt]
[    88s]    INFO opentuner.search.plugin.DisplayPlugin: tests=8, best #255, cost time=0.0000, found by DifferentialEvolutionAlt
[   121s]    INFO tuneNormalizer: run_precompiled: Early Exit: Optimal pass sequence written to mcsema//normalizer_final_config.json: [ -gvn -early-cse -globalopt -memdep -dse -deadargelim -tailcallelim -instcombine]
[   130s]    INFO tuneNormalizer: run_precompiled: Early Exit: Optimal pass sequence written to mcsema//normalizer_final_config.json: [ -mem2reg -gvn -early-cse -globalopt -memdep -dse -deadargelim -tailcallelim -instcombine -early-cse-memssa]
[   130s]    INFO opentuner.search.plugin.DisplayPlugin: tests=12, best #255, cost time=0.0000, found by DifferentialEvolutionAlt
[   174s]    INFO opentuner.search.plugin.DisplayPlugin: tests=16, best #255, cost time=0.0000, found by DifferentialEvolutionAlt
[   217s]    INFO opentuner.search.plugin.DisplayPlugin: tests=20, best #255, cost time=0.0000, found by DifferentialEvolutionAlt
[   257s]    INFO opentuner.search.plugin.DisplayPlugin: tests=24, best #255, cost time=0.0000, found by DifferentialEvolutionAlt
[   298s]    INFO opentuner.search.plugin.DisplayPlugin: tests=28, best #255, cost time=0.0000, found by DifferentialEvolutionAlt
[   327s]    INFO tuneNormalizer: run_precompiled: Early Exit: Optimal pass sequence written to mcsema//normalizer_final_config.json: [ -gvn -early-cse -globalopt -memdep -dse -deadargelim -tailcallelim -instcombine -early-cse-memssa]
[   332s]    INFO tuneNormalizer: run_precompiled: Early Exit: Optimal pass sequence written to mcsema//normalizer_final_config.json: [ -gvn -early-cse -globalopt -memdep -deadargelim -libcalls-shrinkwrap -tailcallelim -instcombine -memcpyopt -early-cse-memssa]
[   341s]    INFO tuneNormalizer: run_precompiled: Early Exit: Optimal pass sequence written to mcsema//normalizer_final_config.json: [ -mem2reg -gvn -early-cse -globalopt -memdep -dse -deadargelim -tailcallelim -instcombine]
[   341s]    INFO opentuner.search.plugin.DisplayPlugin: tests=32, best #255, cost time=0.0000, found by DifferentialEvolutionAlt
[   370s]    INFO tuneNormalizer: run_precompiled: Early Exit: Optimal pass sequence written to mcsema//normalizer_final_config.json: [ -gvn -early-cse -globalopt -simplifycfg -memdep -dse -libcalls-shrinkwrap -instcombine]
[   387s]    INFO opentuner.search.plugin.DisplayPlugin: tests=36, best #255, cost time=0.0000, found by DifferentialEvolutionAlt
[   435s]    INFO opentuner.search.plugin.DisplayPlugin: tests=40, best #255, cost time=0.0000, found by DifferentialEvolutionAlt
[   459s]    INFO tuneNormalizer: run_precompiled: Early Exit: Optimal pass sequence written to mcsema//normalizer_final_config.json: [ -gvn -early-cse -globalopt -dse -deadargelim -tailcallelim -instcombine]
[   464s]    INFO tuneNormalizer: run_precompiled: Early Exit: Optimal pass sequence written to mcsema//normalizer_final_config.json: [ -gvn -early-cse -globalopt -memdep -dse -deadargelim -tailcallelim -instcombine]
[   474s]    INFO tuneNormalizer: run_precompiled: Early Exit: Optimal pass sequence written to mcsema//normalizer_final_config.json: [ -licm -gvn -early-cse -globalopt -basicaa -dse -deadargelim -tailcallelim -instcombine]
[   474s]    INFO opentuner.search.plugin.DisplayPlugin: tests=44, best #255, cost time=0.0000, found by DifferentialEvolutionAlt
[   500s]    INFO tuneNormalizer: run_precompiled: Early Exit: Optimal pass sequence written to mcsema//normalizer_final_config.json: [ -gvn -early-cse -globalopt -simplifycfg -aa -memdep -dse -deadargelim -libcalls-shrinkwrap -tailcallelim -instcombine]
[   505s]    INFO tuneNormalizer: run_precompiled: Early Exit: Optimal pass sequence written to mcsema//normalizer_final_config.json: [ -gvn -early-cse -globalopt -memdep -dse -deadargelim -tailcallelim -instcombine -memcpyopt]
[   510s]    INFO tuneNormalizer: run_precompiled: Early Exit: Optimal pass sequence written to mcsema//normalizer_final_config.json: [ -gvn -early-cse -globalopt -basicaa -memdep -dse -deadargelim -tailcallelim -instcombine]
[   515s]    INFO tuneNormalizer: run_precompiled: Early Exit: Optimal pass sequence written to mcsema//normalizer_final_config.json: [ -licm -gvn -early-cse -globalopt -simplifycfg -memdep -deadargelim -tailcallelim -instcombine -memcpyopt -early-cse-memssa]
[   516s]    INFO opentuner.search.plugin.DisplayPlugin: tests=48, best #255, cost time=0.0000, found by DifferentialEvolutionAlt
[   545s]    INFO tuneNormalizer: run_precompiled: Early Exit: Optimal pass sequence written to mcsema//normalizer_final_config.json: [ -mem2reg -gvn -simplifycfg -memdep -deadargelim -libcalls-shrinkwrap -tailcallelim -instcombine -early-cse-memssa]
[   556s]    INFO tuneNormalizer: run_precompiled: Early Exit: Optimal pass sequence written to mcsema//normalizer_final_config.json: [ -mem2reg -licm -gvn -basicaa -dse -deadargelim -tailcallelim -memcpyopt]
[   556s]    INFO opentuner.search.plugin.DisplayPlugin: tests=52, best #255, cost time=0.0000, found by DifferentialEvolutionAlt
[   579s]    INFO tuneNormalizer: run_precompiled: Early Exit: Optimal pass sequence written to mcsema//normalizer_final_config.json: [ -gvn -early-cse -globalopt -memdep -dse -deadargelim -instcombine]
[   589s]    INFO opentuner.search.plugin.DisplayPlugin: tests=56, best #255, cost time=0.0000, found by DifferentialEvolutionAlt
[   622s]    INFO tuneNormalizer: run_precompiled: Early Exit: Optimal pass sequence written to mcsema//normalizer_final_config.json: [ -gvn -early-cse -globalopt -dse -deadargelim -tailcallelim -instcombine]
[   626s]    INFO opentuner.search.plugin.DisplayPlugin: tests=60, best #255, cost time=0.0000, found by DifferentialEvolutionAlt
[   652s]    INFO opentuner.search.plugin.DisplayPlugin: tests=64, best #255, cost time=0.0000, found by DifferentialEvolutionAlt
[   683s]    INFO tuneNormalizer: run_precompiled: Early Exit: Optimal pass sequence written to mcsema//normalizer_final_config.json: [ -gvn -early-cse -globalopt -memdep -dse -tailcallelim -instcombine]
[   693s]    INFO tuneNormalizer: run_precompiled: Early Exit: Optimal pass sequence written to mcsema//normalizer_final_config.json: [ -gvn -early-cse -dse -deadargelim -tailcallelim -instcombine]
[   698s]    INFO tuneNormalizer: run_precompiled: Early Exit: Optimal pass sequence written to mcsema//normalizer_final_config.json: [ -gvn -early-cse -globalopt -memdep -dse -deadargelim -instcombine]
[   698s]    INFO opentuner.search.plugin.DisplayPlugin: tests=68, best #255, cost time=0.0000, found by DifferentialEvolutionAlt
[   722s]    INFO tuneNormalizer: run_precompiled: Early Exit: Optimal pass sequence written to mcsema//normalizer_final_config.json: [ -gvn -early-cse -globalopt -basicaa -memdep -dse -deadargelim -libcalls-shrinkwrap -tailcallelim -instcombine]
[   727s]    INFO tuneNormalizer: run_precompiled: Early Exit: Optimal pass sequence written to mcsema//normalizer_final_config.json: [ -licm -gvn -basicaa -memdep -dse -tailcallelim -instcombine]
[   730s]    INFO tuneNormalizer: run_precompiled: Early Exit: Optimal pass sequence written to mcsema//normalizer_final_config.json: [ -mem2reg -gvn -early-cse -globalopt -simplifycfg -memdep -dse -instcombine]
[   730s]    INFO opentuner.search.plugin.DisplayPlugin: tests=72, best #255, cost time=0.0000, found by DifferentialEvolutionAlt
[   753s]    INFO opentuner.search.plugin.DisplayPlugin: tests=76, best #255, cost time=0.0000, found by DifferentialEvolutionAlt
[   768s]    INFO tuneNormalizer: run_precompiled: Early Exit: Optimal pass sequence written to mcsema//normalizer_final_config.json: [ -gvn -early-cse -globalopt -aa -memdep -dse -tailcallelim -instcombine -early-cse-memssa]
[   770s]    INFO tuneNormalizer: run_precompiled: Early Exit: Optimal pass sequence written to mcsema//normalizer_final_config.json: [ -gvn -globalopt -memdep -dse -deadargelim -tailcallelim -instcombine -early-cse-memssa]
[   776s]    INFO tuneNormalizer: run_precompiled: Early Exit: Optimal pass sequence written to mcsema//normalizer_final_config.json: [ -gvn -early-cse -globalopt -memdep -dse -deadargelim -instcombine]
[   776s]    INFO opentuner.search.plugin.DisplayPlugin: tests=80, best #255, cost time=0.0000, found by DifferentialEvolutionAlt
[   802s]    INFO tuneNormalizer: run_precompiled: Early Exit: Optimal pass sequence written to mcsema//normalizer_final_config.json: [ -gvn -dse -deadargelim -tailcallelim -instcombine -early-cse-memssa]
[   807s]    INFO tuneNormalizer: run_precompiled: Early Exit: Optimal pass sequence written to mcsema//normalizer_final_config.json: [ -gvn -early-cse -globalopt -simplifycfg -memdep -dse -tailcallelim -instcombine -memcpyopt -early-cse-memssa]
[   811s]    INFO tuneNormalizer: run_precompiled: Early Exit: Optimal pass sequence written to mcsema//normalizer_final_config.json: [ -gvn -early-cse -globalopt -memdep -dse -tailcallelim -instcombine]
[   817s]    INFO opentuner.search.plugin.DisplayPlugin: tests=84, best #255, cost time=0.0000, found by DifferentialEvolutionAlt
[   859s]    INFO opentuner.search.plugin.DisplayPlugin: tests=88, best #255, cost time=0.0000, found by DifferentialEvolutionAlt
[   889s]    INFO tuneNormalizer: run_precompiled: Early Exit: Optimal pass sequence written to mcsema//normalizer_final_config.json: [ -mem2reg -gvn -early-cse -globalopt -memdep -dse -instcombine]
[   893s]    INFO tuneNormalizer: run_precompiled: Early Exit: Optimal pass sequence written to mcsema//normalizer_final_config.json: [ -gvn -early-cse -globalopt -memdep -dse -deadargelim -instcombine]
[   904s]    INFO opentuner.search.plugin.DisplayPlugin: tests=92, best #255, cost time=0.0000, found by DifferentialEvolutionAlt
[   923s]    INFO tuneNormalizer: run_precompiled: Early Exit: Optimal pass sequence written to mcsema//normalizer_final_config.json: [ -gvn -early-cse -globalopt -memdep -dse -deadargelim -tailcallelim -instcombine]
[   925s]    INFO tuneNormalizer: run_precompiled: Early Exit: Optimal pass sequence written to mcsema//normalizer_final_config.json: [ -gvn -globalopt -memdep -dse -instcombine]
[   928s]    INFO opentuner.search.plugin.DisplayPlugin: tests=96, best #255, cost time=0.0000, found by DifferentialEvolutionAlt
[   951s]    INFO opentuner.search.plugin.DisplayPlugin: tests=100, best #255, cost time=0.0000, found by DifferentialEvolutionAlt
[   967s]    INFO tuneNormalizer: run_precompiled: Early Exit: Optimal pass sequence written to mcsema//normalizer_final_config.json: [ -gvn -early-cse -globalopt -aa -memdep -dse -deadargelim -tailcallelim -instcombine]
[   969s]    INFO tuneNormalizer: run_precompiled: Early Exit: Optimal pass sequence written to mcsema//normalizer_final_config.json: [ -gvn -early-cse -memdep -dse -deadargelim -tailcallelim -instcombine]
[   969s]    INFO opentuner.search.plugin.DisplayPlugin: tests=102, best #255, cost time=0.0000, found by DifferentialEvolutionAlt
[   969s]    INFO opentuner.search.plugin.DisplayPlugin: tests=102, best #255, cost time=0.0000, found by DifferentialEvolutionAlt
[   969s]    INFO tuneNormalizer: Optimal pass sequence seen so far: [-early-cse -memdep -globalopt -instcombine -dse -gvn -tailcallelim -deadargelim ]
1093.85user 35.29system 16:09.83elapsed 116%CPU (0avgtext+0avgdata 116400maxresident)k
0inputs+2579880outputs (0major+5384440minor)pagefaults 0swaps
