; ModuleID = 'mcsema/test0.target.opt.ll'
source_filename = "llvm-link"
target datalayout = "e-m:e-i64:64-f80:128-n8:16:32:64-S128"
target triple = "x86_64-pc-linux-gnu-elf"

%G_0x601040_type = type <{ [8 x i8] }>
%G__0x400be4_type = type <{ [8 x i8] }>
%G__0x400c0a_type = type <{ [8 x i8] }>
%G__0x400c1c_type = type <{ [8 x i8] }>
%struct.State = type { %struct.ArchState, [32 x %union.VectorReg], %struct.ArithFlags, %union.anon, %struct.Segments, %struct.AddressSpace, %struct.GPR, %struct.X87Stack, %struct.MMX, %struct.FPUStatusFlags, %union.anon, %union.FPU, %struct.SegmentCaches }
%struct.ArchState = type { i32, i32, %union.anon }
%union.VectorReg = type { %union.vec512_t }
%union.vec512_t = type { %struct.uint64v8_t }
%struct.uint64v8_t = type { [8 x i64] }
%struct.ArithFlags = type { i8, i8, i8, i8, i8, i8, i8, i8, i8, i8, i8, i8, i8, i8, i8, i8 }
%struct.Segments = type { i16, %union.SegmentSelector, i16, %union.SegmentSelector, i16, %union.SegmentSelector, i16, %union.SegmentSelector, i16, %union.SegmentSelector, i16, %union.SegmentSelector }
%union.SegmentSelector = type { i16 }
%struct.AddressSpace = type { i64, %struct.Reg, i64, %struct.Reg, i64, %struct.Reg, i64, %struct.Reg, i64, %struct.Reg, i64, %struct.Reg }
%struct.Reg = type { %union.anon }
%struct.GPR = type { i64, %struct.Reg, i64, %struct.Reg, i64, %struct.Reg, i64, %struct.Reg, i64, %struct.Reg, i64, %struct.Reg, i64, %struct.Reg, i64, %struct.Reg, i64, %struct.Reg, i64, %struct.Reg, i64, %struct.Reg, i64, %struct.Reg, i64, %struct.Reg, i64, %struct.Reg, i64, %struct.Reg, i64, %struct.Reg, i64, %struct.Reg }
%struct.X87Stack = type { [8 x %struct.anon.3] }
%struct.anon.3 = type { i64, double }
%struct.MMX = type { [8 x %struct.anon.4] }
%struct.anon.4 = type { i64, %union.vec64_t }
%union.vec64_t = type { %struct.uint64v1_t }
%struct.uint64v1_t = type { [1 x i64] }
%struct.FPUStatusFlags = type { i8, i8, i8, i8, i8, i8, i8, i8, i8, i8, i8, i8, i8, i8, i8, i8, i8, i8, i8, i8, [4 x i8] }
%union.anon = type { i64 }
%union.FPU = type { %struct.anon.13 }
%struct.anon.13 = type { %struct.FpuFXSAVE, [96 x i8] }
%struct.FpuFXSAVE = type { %union.SegmentSelector, %union.SegmentSelector, %union.FPUAbridgedTagWord, i8, i16, i32, %union.SegmentSelector, i16, i32, %union.SegmentSelector, i16, %union.FPUControlStatus, %union.FPUControlStatus, [8 x %struct.FPUStackElem], [16 x %union.vec128_t] }
%union.FPUAbridgedTagWord = type { i8 }
%union.FPUControlStatus = type { i32 }
%struct.FPUStackElem = type { %union.anon.11, [6 x i8] }
%union.anon.11 = type { %struct.float80_t }
%struct.float80_t = type { [10 x i8] }
%union.vec128_t = type { %struct.uint128v1_t }
%struct.uint128v1_t = type { [1 x i128] }
%struct.SegmentCaches = type { %struct.SegmentShadow, %struct.SegmentShadow, %struct.SegmentShadow, %struct.SegmentShadow, %struct.SegmentShadow, %struct.SegmentShadow }
%struct.SegmentShadow = type { %union.anon, i32, i32 }
%struct.Memory = type opaque

@G_0x601040 = external local_unnamed_addr global %G_0x601040_type
@G__0x400be4 = external global %G__0x400be4_type
@G__0x400c0a = external global %G__0x400c0a_type
@G__0x400c1c = external global %G__0x400c1c_type

; Function Attrs: nounwind readnone
declare i32 @llvm.ctpop.i32(i32) #0

declare extern_weak x86_64_sysvcc i64 @fprintf(i64, i64, i64, i64, i64, i64, i64, i64, i64, i64, i64, i64, i64, i64, i64, i64)

declare extern_weak x86_64_sysvcc i64 @printf(i64, i64, i64, i64, i64, i64, i64, i64, i64, i64, i64, i64, i64, i64, i64, i64)

declare %struct.Memory* @__remill_function_call(%struct.State* dereferenceable(3376), i64, %struct.Memory*) local_unnamed_addr

declare %struct.Memory* @sub_400740.keycomp(%struct.State* noalias dereferenceable(3376), i64, %struct.Memory* noalias readnone returned) local_unnamed_addr

; Function Attrs: alwaysinline
define %struct.Memory* @main(%struct.State* noalias, i64, %struct.Memory* noalias) local_unnamed_addr #1 {
entry:
  %3 = getelementptr inbounds %struct.State, %struct.State* %0, i64 0, i32 6, i32 33, i32 0, i32 0
  %RBP.i = getelementptr inbounds %struct.State, %struct.State* %0, i64 0, i32 6, i32 15, i32 0, i32 0
  %4 = load i64, i64* %RBP.i, align 8
  %5 = add i64 %1, 1
  store i64 %5, i64* %3, align 8
  %6 = getelementptr inbounds %struct.State, %struct.State* %0, i64 0, i32 6, i32 13, i32 0, i32 0
  %7 = load i64, i64* %6, align 8
  %8 = add i64 %7, -8
  %9 = inttoptr i64 %8 to i64*
  store i64 %4, i64* %9, align 8
  %10 = load i64, i64* %3, align 8
  store i64 %8, i64* %RBP.i, align 8
  %11 = add i64 %7, -56
  store i64 %11, i64* %6, align 8
  %12 = icmp ult i64 %8, 48
  %13 = zext i1 %12 to i8
  %14 = getelementptr inbounds %struct.State, %struct.State* %0, i64 0, i32 2, i32 1
  store i8 %13, i8* %14, align 1
  %15 = trunc i64 %11 to i32
  %16 = and i32 %15, 255
  %17 = tail call i32 @llvm.ctpop.i32(i32 %16)
  %18 = trunc i32 %17 to i8
  %19 = and i8 %18, 1
  %20 = xor i8 %19, 1
  %21 = getelementptr inbounds %struct.State, %struct.State* %0, i64 0, i32 2, i32 3
  store i8 %20, i8* %21, align 1
  %22 = xor i64 %8, 16
  %23 = xor i64 %22, %11
  %24 = lshr i64 %23, 4
  %25 = trunc i64 %24 to i8
  %26 = and i8 %25, 1
  %27 = getelementptr inbounds %struct.State, %struct.State* %0, i64 0, i32 2, i32 5
  store i8 %26, i8* %27, align 1
  %28 = icmp eq i64 %11, 0
  %29 = zext i1 %28 to i8
  %30 = getelementptr inbounds %struct.State, %struct.State* %0, i64 0, i32 2, i32 7
  store i8 %29, i8* %30, align 1
  %31 = lshr i64 %11, 63
  %32 = trunc i64 %31 to i8
  %33 = getelementptr inbounds %struct.State, %struct.State* %0, i64 0, i32 2, i32 9
  store i8 %32, i8* %33, align 1
  %34 = lshr i64 %8, 63
  %35 = xor i64 %31, %34
  %36 = add nuw nsw i64 %35, %34
  %37 = icmp eq i64 %36, 2
  %38 = zext i1 %37 to i8
  %39 = getelementptr inbounds %struct.State, %struct.State* %0, i64 0, i32 2, i32 13
  store i8 %38, i8* %39, align 1
  %40 = add i64 %7, -12
  %41 = add i64 %10, 14
  store i64 %41, i64* %3, align 8
  %42 = inttoptr i64 %40 to i32*
  store i32 0, i32* %42, align 4
  %43 = getelementptr inbounds %struct.State, %struct.State* %0, i64 0, i32 6, i32 11, i32 0
  %EDI.i = bitcast %union.anon* %43 to i32*
  %44 = load i64, i64* %RBP.i, align 8
  %45 = add i64 %44, -8
  %46 = load i32, i32* %EDI.i, align 4
  %47 = load i64, i64* %3, align 8
  %48 = add i64 %47, 3
  store i64 %48, i64* %3, align 8
  %49 = inttoptr i64 %45 to i32*
  store i32 %46, i32* %49, align 4
  %RSI.i73 = getelementptr inbounds %struct.State, %struct.State* %0, i64 0, i32 6, i32 9, i32 0, i32 0
  %50 = load i64, i64* %RBP.i, align 8
  %51 = add i64 %50, -16
  %52 = load i64, i64* %RSI.i73, align 8
  %53 = load i64, i64* %3, align 8
  %54 = add i64 %53, 4
  store i64 %54, i64* %3, align 8
  %55 = inttoptr i64 %51 to i64*
  store i64 %52, i64* %55, align 8
  %56 = load i64, i64* %RBP.i, align 8
  %57 = add i64 %56, -8
  %58 = load i64, i64* %3, align 8
  %59 = add i64 %58, 4
  store i64 %59, i64* %3, align 8
  %60 = inttoptr i64 %57 to i32*
  %61 = load i32, i32* %60, align 4
  %62 = add i32 %61, -2
  %63 = icmp ult i32 %61, 2
  %64 = zext i1 %63 to i8
  store i8 %64, i8* %14, align 1
  %65 = and i32 %62, 255
  %66 = tail call i32 @llvm.ctpop.i32(i32 %65)
  %67 = trunc i32 %66 to i8
  %68 = and i8 %67, 1
  %69 = xor i8 %68, 1
  store i8 %69, i8* %21, align 1
  %70 = xor i32 %61, %62
  %71 = lshr i32 %70, 4
  %72 = trunc i32 %71 to i8
  %73 = and i8 %72, 1
  store i8 %73, i8* %27, align 1
  %74 = icmp eq i32 %62, 0
  %75 = zext i1 %74 to i8
  store i8 %75, i8* %30, align 1
  %76 = lshr i32 %62, 31
  %77 = trunc i32 %76 to i8
  store i8 %77, i8* %33, align 1
  %78 = lshr i32 %61, 31
  %79 = xor i32 %76, %78
  %80 = add nuw nsw i32 %79, %78
  %81 = icmp eq i32 %80, 2
  %82 = zext i1 %81 to i8
  store i8 %82, i8* %39, align 1
  %83 = icmp ne i8 %77, 0
  %84 = xor i1 %83, %81
  %.v = select i1 %84, i64 10, i64 50
  %85 = add i64 %58, %.v
  store i64 %85, i64* %3, align 8
  br i1 %84, label %block_4006b0, label %block_.L_4006d8

block_4006b0:                                     ; preds = %entry
  store i64 ptrtoint (%G__0x400be4_type* @G__0x400be4 to i64), i64* %RSI.i73, align 8
  %RDI.i66 = getelementptr inbounds %union.anon, %union.anon* %43, i64 0, i32 0
  %86 = load i64, i64* bitcast (%G_0x601040_type* @G_0x601040 to i64*), align 8
  store i64 %86, i64* %RDI.i66, align 8
  %87 = getelementptr inbounds %struct.State, %struct.State* %0, i64 0, i32 6, i32 1, i32 0
  %AL.i64 = bitcast %union.anon* %87 to i8*
  store i8 0, i8* %AL.i64, align 1
  %88 = add i64 %85, -496
  %89 = add i64 %85, 25
  %90 = load i64, i64* %6, align 8
  %91 = add i64 %90, -8
  %92 = inttoptr i64 %91 to i64*
  store i64 %89, i64* %92, align 8
  store i64 %91, i64* %6, align 8
  store i64 %88, i64* %3, align 8
  %93 = tail call %struct.Memory* @__remill_function_call(%struct.State* %0, i64 ptrtoint (i64 (i64, i64, i64, i64, i64, i64, i64, i64, i64, i64, i64, i64, i64, i64, i64, i64)* @fprintf to i64), %struct.Memory* %2)
  %94 = load i64, i64* %RBP.i, align 8
  %95 = add i64 %94, -4
  %96 = load i64, i64* %3, align 8
  %97 = add i64 %96, 7
  store i64 %97, i64* %3, align 8
  %98 = inttoptr i64 %95 to i32*
  store i32 -1, i32* %98, align 4
  %EAX.i56 = bitcast %union.anon* %87 to i32*
  %99 = load i64, i64* %RBP.i, align 8
  %100 = add i64 %99, -32
  %101 = load i32, i32* %EAX.i56, align 4
  %102 = load i64, i64* %3, align 8
  %103 = add i64 %102, 3
  store i64 %103, i64* %3, align 8
  %104 = inttoptr i64 %100 to i32*
  store i32 %101, i32* %104, align 4
  %105 = load i64, i64* %3, align 8
  %106 = add i64 %105, 95
  store i64 %106, i64* %3, align 8
  %.pre3 = getelementptr inbounds %union.anon, %union.anon* %87, i64 0, i32 0
  br label %block_.L_400732

block_.L_4006d8:                                  ; preds = %entry
  %107 = getelementptr inbounds %struct.State, %struct.State* %0, i64 0, i32 6, i32 1, i32 0
  %RAX.i52 = getelementptr inbounds %union.anon, %union.anon* %107, i64 0, i32 0
  %108 = add i64 %56, -16
  %109 = add i64 %85, 4
  store i64 %109, i64* %3, align 8
  %110 = inttoptr i64 %108 to i64*
  %111 = load i64, i64* %110, align 8
  store i64 %111, i64* %RAX.i52, align 8
  %112 = add i64 %111, 8
  %113 = add i64 %85, 8
  store i64 %113, i64* %3, align 8
  %114 = inttoptr i64 %112 to i64*
  %115 = load i64, i64* %114, align 8
  store i64 %115, i64* %RAX.i52, align 8
  %116 = add i64 %56, -24
  %117 = add i64 %85, 12
  store i64 %117, i64* %3, align 8
  %118 = inttoptr i64 %116 to i64*
  store i64 %115, i64* %118, align 8
  %RDI.i44 = getelementptr inbounds %union.anon, %union.anon* %43, i64 0, i32 0
  %119 = load i64, i64* %RBP.i, align 8
  %120 = add i64 %119, -24
  %121 = load i64, i64* %3, align 8
  %122 = add i64 %121, 4
  store i64 %122, i64* %3, align 8
  %123 = inttoptr i64 %120 to i64*
  %124 = load i64, i64* %123, align 8
  store i64 %124, i64* %RDI.i44, align 8
  %AL.i42 = bitcast %union.anon* %107 to i8*
  store i8 0, i8* %AL.i42, align 1
  %125 = add i64 %121, 92
  %126 = add i64 %121, 11
  %127 = load i64, i64* %6, align 8
  %128 = add i64 %127, -8
  %129 = inttoptr i64 %128 to i64*
  store i64 %126, i64* %129, align 8
  store i64 %128, i64* %6, align 8
  store i64 %125, i64* %3, align 8
  %call2_4006ea = tail call %struct.Memory* @sub_400740.keycomp(%struct.State* %0, i64 %125, %struct.Memory* %2)
  %EAX.i38 = bitcast %union.anon* %107 to i32*
  %130 = load i64, i64* %RBP.i, align 8
  %131 = add i64 %130, -28
  %132 = load i32, i32* %EAX.i38, align 4
  %133 = load i64, i64* %3, align 8
  %134 = add i64 %133, 3
  store i64 %134, i64* %3, align 8
  %135 = inttoptr i64 %131 to i32*
  store i32 %132, i32* %135, align 4
  %136 = load i64, i64* %RBP.i, align 8
  %137 = add i64 %136, -28
  %138 = load i64, i64* %3, align 8
  %139 = add i64 %138, 4
  store i64 %139, i64* %3, align 8
  %140 = inttoptr i64 %137 to i32*
  %141 = load i32, i32* %140, align 4
  store i8 0, i8* %14, align 1
  %142 = and i32 %141, 255
  %143 = tail call i32 @llvm.ctpop.i32(i32 %142)
  %144 = trunc i32 %143 to i8
  %145 = and i8 %144, 1
  %146 = xor i8 %145, 1
  store i8 %146, i8* %21, align 1
  store i8 0, i8* %27, align 1
  %147 = icmp eq i32 %141, 0
  %148 = zext i1 %147 to i8
  store i8 %148, i8* %30, align 1
  %149 = lshr i32 %141, 31
  %150 = trunc i32 %149 to i8
  store i8 %150, i8* %33, align 1
  store i8 0, i8* %39, align 1
  %.v4 = select i1 %147, i64 10, i64 35
  %151 = add i64 %138, %.v4
  %152 = add i64 %151, 10
  store i64 %152, i64* %3, align 8
  br i1 %147, label %block_4006fc, label %block_.L_400715

block_4006fc:                                     ; preds = %block_.L_4006d8
  store i64 ptrtoint (%G__0x400c0a_type* @G__0x400c0a to i64), i64* %RDI.i44, align 8
  store i8 0, i8* %AL.i42, align 1
  %153 = add i64 %151, -588
  %154 = add i64 %151, 17
  %155 = load i64, i64* %6, align 8
  %156 = add i64 %155, -8
  %157 = inttoptr i64 %156 to i64*
  store i64 %154, i64* %157, align 8
  store i64 %156, i64* %6, align 8
  store i64 %153, i64* %3, align 8
  %158 = tail call %struct.Memory* @__remill_function_call(%struct.State* %0, i64 ptrtoint (i64 (i64, i64, i64, i64, i64, i64, i64, i64, i64, i64, i64, i64, i64, i64, i64, i64)* @printf to i64), %struct.Memory* %call2_4006ea)
  %159 = load i64, i64* %RBP.i, align 8
  %160 = add i64 %159, -36
  %161 = load i32, i32* %EAX.i38, align 4
  %162 = load i64, i64* %3, align 8
  %163 = add i64 %162, 3
  store i64 %163, i64* %3, align 8
  %164 = inttoptr i64 %160 to i32*
  store i32 %161, i32* %164, align 4
  %165 = load i64, i64* %3, align 8
  %166 = add i64 %165, 28
  store i64 %166, i64* %3, align 8
  br label %block_.L_40072c

block_.L_400715:                                  ; preds = %block_.L_4006d8
  store i64 ptrtoint (%G__0x400c1c_type* @G__0x400c1c to i64), i64* %RDI.i44, align 8
  %167 = add i64 %151, 13
  store i64 %167, i64* %3, align 8
  %168 = load i32, i32* %140, align 4
  %169 = zext i32 %168 to i64
  store i64 %169, i64* %RSI.i73, align 8
  store i8 0, i8* %AL.i42, align 1
  %170 = add i64 %151, -613
  %171 = add i64 %151, 20
  %172 = load i64, i64* %6, align 8
  %173 = add i64 %172, -8
  %174 = inttoptr i64 %173 to i64*
  store i64 %171, i64* %174, align 8
  store i64 %173, i64* %6, align 8
  store i64 %170, i64* %3, align 8
  %175 = tail call %struct.Memory* @__remill_function_call(%struct.State* %0, i64 ptrtoint (i64 (i64, i64, i64, i64, i64, i64, i64, i64, i64, i64, i64, i64, i64, i64, i64, i64)* @printf to i64), %struct.Memory* %call2_4006ea)
  %176 = load i64, i64* %RBP.i, align 8
  %177 = add i64 %176, -40
  %178 = load i32, i32* %EAX.i38, align 4
  %179 = load i64, i64* %3, align 8
  %180 = add i64 %179, 3
  store i64 %180, i64* %3, align 8
  %181 = inttoptr i64 %177 to i32*
  store i32 %178, i32* %181, align 4
  %.pre = load i64, i64* %3, align 8
  br label %block_.L_40072c

block_.L_40072c:                                  ; preds = %block_.L_400715, %block_4006fc
  %182 = phi i64 [ %.pre, %block_.L_400715 ], [ %166, %block_4006fc ]
  %MEMORY.0 = phi %struct.Memory* [ %175, %block_.L_400715 ], [ %158, %block_4006fc ]
  %183 = load i64, i64* %RBP.i, align 8
  %184 = add i64 %183, -28
  %185 = add i64 %182, 3
  store i64 %185, i64* %3, align 8
  %186 = inttoptr i64 %184 to i32*
  %187 = load i32, i32* %186, align 4
  %188 = zext i32 %187 to i64
  store i64 %188, i64* %RAX.i52, align 8
  %189 = add i64 %183, -4
  %190 = add i64 %182, 6
  store i64 %190, i64* %3, align 8
  %191 = inttoptr i64 %189 to i32*
  store i32 %187, i32* %191, align 4
  %.pre1 = load i64, i64* %3, align 8
  br label %block_.L_400732

block_.L_400732:                                  ; preds = %block_.L_40072c, %block_4006b0
  %RAX.i.pre-phi = phi i64* [ %RAX.i52, %block_.L_40072c ], [ %.pre3, %block_4006b0 ]
  %192 = phi i64 [ %.pre1, %block_.L_40072c ], [ %106, %block_4006b0 ]
  %MEMORY.1 = phi %struct.Memory* [ %MEMORY.0, %block_.L_40072c ], [ %93, %block_4006b0 ]
  %193 = load i64, i64* %RBP.i, align 8
  %194 = add i64 %193, -4
  %195 = add i64 %192, 3
  store i64 %195, i64* %3, align 8
  %196 = inttoptr i64 %194 to i32*
  %197 = load i32, i32* %196, align 4
  %198 = zext i32 %197 to i64
  store i64 %198, i64* %RAX.i.pre-phi, align 8
  %199 = load i64, i64* %6, align 8
  %200 = add i64 %199, 48
  store i64 %200, i64* %6, align 8
  %201 = icmp ugt i64 %199, -49
  %202 = zext i1 %201 to i8
  store i8 %202, i8* %14, align 1
  %203 = trunc i64 %200 to i32
  %204 = and i32 %203, 255
  %205 = tail call i32 @llvm.ctpop.i32(i32 %204)
  %206 = trunc i32 %205 to i8
  %207 = and i8 %206, 1
  %208 = xor i8 %207, 1
  store i8 %208, i8* %21, align 1
  %209 = xor i64 %199, 16
  %210 = xor i64 %209, %200
  %211 = lshr i64 %210, 4
  %212 = trunc i64 %211 to i8
  %213 = and i8 %212, 1
  store i8 %213, i8* %27, align 1
  %214 = icmp eq i64 %200, 0
  %215 = zext i1 %214 to i8
  store i8 %215, i8* %30, align 1
  %216 = lshr i64 %200, 63
  %217 = trunc i64 %216 to i8
  store i8 %217, i8* %33, align 1
  %218 = lshr i64 %199, 63
  %219 = xor i64 %216, %218
  %220 = add nuw nsw i64 %219, %216
  %221 = icmp eq i64 %220, 2
  %222 = zext i1 %221 to i8
  store i8 %222, i8* %39, align 1
  %223 = add i64 %192, 8
  store i64 %223, i64* %3, align 8
  %224 = add i64 %199, 56
  %225 = inttoptr i64 %200 to i64*
  %226 = load i64, i64* %225, align 8
  store i64 %226, i64* %RBP.i, align 8
  store i64 %224, i64* %6, align 8
  %227 = add i64 %192, 9
  store i64 %227, i64* %3, align 8
  %228 = inttoptr i64 %224 to i64*
  %229 = load i64, i64* %228, align 8
  store i64 %229, i64* %3, align 8
  %230 = add i64 %199, 64
  store i64 %230, i64* %6, align 8
  ret %struct.Memory* %MEMORY.1
}

attributes #0 = { nounwind readnone }
attributes #1 = { alwaysinline }
