; ModuleID = 'test.bc'
source_filename = "llvm-link"
target datalayout = "e-m:e-i64:64-f80:128-n8:16:32:64-S128"
target triple = "x86_64-pc-linux-gnu-elf"

%union.anon = type { i64 }
%struct.State = type {%struct.ArchState, [32 x %union.VectorReg], %struct.ArithFlags, i64, i64, i64, %struct.GPR}

%struct.ArchState = type { i32, i32, %union.anon }
%union.VectorReg = type { %union.vec512_t }
%union.vec512_t = type { %struct.uint64v8_t }
%struct.uint64v8_t = type { [8 x i64] }
%struct.ArithFlags = type { i8, i8, i8, i8, i8, i8, i8, i8, i8, i8, i8, i8, i8, i8, i8, i8 }
%struct.Reg = type { %union.anon }
%struct.GPR = type { i64, %struct.Reg, i64, %struct.Reg, i64, %struct.Reg, i64, %struct.Reg, i64, %struct.Reg, i64, %struct.Reg, i64, %struct.Reg, i64, %struct.Reg, i64, %struct.Reg, i64, %struct.Reg, i64, %struct.Reg, i64, %struct.Reg, i64, %struct.Reg, i64, %struct.Reg, i64, %struct.Reg, i64, %struct.Reg, i64, %struct.Reg }
%struct.float32v8_t = type { [8 x float] }
%struct.int32v8_t = type { [8 x i32] }
%struct.uint16v16_t = type { [16 x i16] }
%struct.uint8v32_t = type { [32 x i8] }
%"class.std::bitset" = type { %struct.uint64v4_t }
%struct.uint64v4_t = type { [4 x i64] }
%struct.anon.2 = type { i8, i8 }
%union.vec128_t = type { %struct.uint128v1_t }
%struct.uint128v1_t = type { [1 x i128] }
%struct.Memory = type { i64 }

define i32 @my.ctpop.i32(i32 %x) {
entry:
  %and = and i32 %x, 1
  %shr123 = lshr i32 %x, 1
  %and1 = and i32 %shr123, 1
  %shr2124 = lshr i32 %x, 2
  %and3 = and i32 %shr2124, 1
  %shr5125 = lshr i32 %x, 3
  %and6 = and i32 %shr5125, 1
  %shr8126 = lshr i32 %x, 4
  %and9 = and i32 %shr8126, 1
  %shr11127 = lshr i32 %x, 5
  %and12 = and i32 %shr11127, 1
  %shr14128 = lshr i32 %x, 6
  %and15 = and i32 %shr14128, 1
  %shr17129 = lshr i32 %x, 7
  %and18 = and i32 %shr17129, 1
  %shr20130 = lshr i32 %x, 8
  %and21 = and i32 %shr20130, 1
  %shr23131 = lshr i32 %x, 9
  %and24 = and i32 %shr23131, 1
  %shr26132 = lshr i32 %x, 10
  %and27 = and i32 %shr26132, 1
  %shr29133 = lshr i32 %x, 11
  %and30 = and i32 %shr29133, 1
  %shr32134 = lshr i32 %x, 12
  %and33 = and i32 %shr32134, 1
  %shr35135 = lshr i32 %x, 13
  %and36 = and i32 %shr35135, 1
  %shr38136 = lshr i32 %x, 14
  %and39 = and i32 %shr38136, 1
  %shr41137 = lshr i32 %x, 15
  %and42 = and i32 %shr41137, 1
  %shr44138 = lshr i32 %x, 16
  %and45 = and i32 %shr44138, 1
  %shr47139 = lshr i32 %x, 17
  %and48 = and i32 %shr47139, 1
  %shr50140 = lshr i32 %x, 18
  %and51 = and i32 %shr50140, 1
  %shr53141 = lshr i32 %x, 19
  %and54 = and i32 %shr53141, 1
  %shr56142 = lshr i32 %x, 20
  %and57 = and i32 %shr56142, 1
  %shr59143 = lshr i32 %x, 21
  %and60 = and i32 %shr59143, 1
  %shr62144 = lshr i32 %x, 22
  %and63 = and i32 %shr62144, 1
  %shr65145 = lshr i32 %x, 23
  %and66 = and i32 %shr65145, 1
  %shr68146 = lshr i32 %x, 24
  %and69 = and i32 %shr68146, 1
  %shr71147 = lshr i32 %x, 25
  %and72 = and i32 %shr71147, 1
  %shr74148 = lshr i32 %x, 26
  %and75 = and i32 %shr74148, 1
  %shr77149 = lshr i32 %x, 27
  %and78 = and i32 %shr77149, 1
  %shr80150 = lshr i32 %x, 28
  %and81 = and i32 %shr80150, 1
  %shr83151 = lshr i32 %x, 29
  %and84 = and i32 %shr83151, 1
  %shr86152 = lshr i32 %x, 30
  %and87 = and i32 %shr86152, 1
  %shr89153 = lshr i32 %x, 31
  %add = add i32 %shr89153, %and
  %add4 = add i32 %add, %and1
  %add7 = add i32 %add4, %and3
  %add10 = add i32 %add7, %and6
  %add13 = add i32 %add10, %and9
  %add16 = add i32 %add13, %and12
  %add19 = add i32 %add16, %and15
  %add22 = add i32 %add19, %and18
  %add25 = add i32 %add22, %and21
  %add28 = add i32 %add25, %and24
  %add31 = add i32 %add28, %and27
  %add34 = add i32 %add31, %and30
  %add37 = add i32 %add34, %and33
  %add40 = add i32 %add37, %and36
  %add43 = add i32 %add40, %and39
  %add46 = add i32 %add43, %and42
  %add49 = add i32 %add46, %and45
  %add52 = add i32 %add49, %and48
  %add55 = add i32 %add52, %and51
  %add58 = add i32 %add55, %and54
  %add61 = add i32 %add58, %and57
  %add64 = add i32 %add61, %and60
  %add67 = add i32 %add64, %and63
  %add70 = add i32 %add67, %and66
  %add73 = add i32 %add70, %and69
  %add76 = add i32 %add73, %and72
  %add79 = add i32 %add76, %and75
  %add82 = add i32 %add79, %and78
  %add85 = add i32 %add82, %and81
  %add88 = add i32 %add85, %and84
  %add91 = add i32 %add88, %and87
  ret i32 %add91
}
declare %struct.Memory* @__remill_atomic_begin(%struct.Memory*);
declare %struct.Memory* @__remill_atomic_end(%struct.Memory*);

define internal %struct.Memory* @_ZN12_GLOBAL__N_1L3SARI3MnWIhE2MnIhE2InIhEEEP6MemoryS8_R5StateT_T0_T1_(%struct.Memory*, %struct.State* nocapture dereferenceable(3376), i64, i64, i64) #0 {
  %6 = inttoptr i64 %3 to i8*
  %7 = load i8, i8* %6
  %8 = trunc i64 %4 to i8
  %9 = and i8 %8, 31
  %10 = trunc i64 %4 to i5
  switch i5 %10, label %14 [
    i5 0, label %51
    i5 1, label %11
  ]

; <label>:11:                                     ; preds = %5
  %12 = and i8 %7, 1
  %13 = ashr i8 %7, 1
  br label %31

; <label>:14:                                     ; preds = %5
  %15 = icmp ult i8 %9, 8
  br i1 %15, label %16, label %27

; <label>:16:                                     ; preds = %14
  %17 = add  i8 %9, -1
  %18 = sext i8 %7 to i64
  %19 = sext i8 %17 to i64
  %20 = ashr i64 %18, %19
  %21 = trunc i64 %20 to i8
  %22 = icmp ne i8 0, 0
  %23 = zext i1 %22 to i8
  %24 = and i8 %21, 1
  %25 = lshr i64 %20, 1
  %26 = trunc i64 %25 to i8
  br label %31

; <label>:27:                                     ; preds = %14
  %28 = icmp ne i8 0, 0
  %29 = zext i1 %28 to i8
  %30 = ashr i8 %7, 7
  br label %31

; <label>:31:                                     ; preds = %27, %16, %11
  %32 = phi i8 [ 0, %27 ], [ 0, %16 ], [ 0, %11 ]
  %33 = phi i8 [ %30, %27 ], [ %26, %16 ], [ %13, %11 ]
  %34 = phi i8 [ %29, %27 ], [ %23, %16 ], [ 0, %11 ]
  %35 = phi i8 [ %29, %27 ], [ %24, %16 ], [ %12, %11 ]
  %36 = inttoptr i64 %2 to i8*
  store i8 %33, i8* %36
  %37 = getelementptr inbounds %struct.State, %struct.State* %1, i64 0, i32 2, i32 1
  store i8 %35, i8* %37, align 1
  %38 = getelementptr inbounds %struct.State, %struct.State* %1, i64 0, i32 2, i32 3
  %39 = zext i8 %33 to i32
  %40 = tail call i32 @my.ctpop.i32(i32 %39) #22
  %41 = trunc i32 %40 to i8
  %42 = and i8 %41, 1
  %43 = xor i8 %42, 1
  store i8 %43, i8* %38, align 1
  %44 = getelementptr inbounds %struct.State, %struct.State* %1, i64 0, i32 2, i32 5
  store i8 %32, i8* %44, align 1
  %45 = getelementptr inbounds %struct.State, %struct.State* %1, i64 0, i32 2, i32 7
  %46 = icmp eq i8 %33, 0
  %47 = zext i1 %46 to i8
  store i8 %47, i8* %45, align 1
  %48 = getelementptr inbounds %struct.State, %struct.State* %1, i64 0, i32 2, i32 9
  %49 = lshr i8 %33, 7
  store i8 %49, i8* %48, align 1
  %50 = getelementptr inbounds %struct.State, %struct.State* %1, i64 0, i32 2, i32 13
  store i8 %34, i8* %50, align 1
  br label %51

; <label>:51:                                     ; preds = %31, %5
  %52 = phi %struct.Memory* [ %0, %31 ], [ %0, %5 ]
  ret %struct.Memory* %52
}

define %struct.Memory* @routine_sarb_m8_one(%struct.State* noalias dereferenceable(3376), i64, %struct.Memory* noalias) #19 {
block_530:
  %3 = getelementptr inbounds %struct.State, %struct.State* %0, i32 0, i32 6
  %4 = getelementptr inbounds %struct.GPR, %struct.GPR* %3, i32 0, i32 33
  %5 = getelementptr inbounds %struct.Reg, %struct.Reg* %4, i32 0, i32 0
  %PC = bitcast %union.anon* %5 to i64*
  %6 = getelementptr inbounds %struct.State, %struct.State* %0, i32 0, i32 6
  %7 = getelementptr inbounds %struct.GPR, %struct.GPR* %6, i32 0, i32 15
  %8 = getelementptr inbounds %struct.Reg, %struct.Reg* %7, i32 0, i32 0
  %RBP = bitcast %union.anon* %8 to i64*
  %9 = load i64, i64* %RBP
  %10 = sub i64 %9, 4
  %11 = load i64, i64* %RBP
  %12 = sub i64 %11, 4
  %13 = load i64, i64* %PC
  %14 = add i64 %13, 3
  store i64 %14, i64* %PC
  %15 = call %struct.Memory* @_ZN12_GLOBAL__N_1L3SARI3MnWIhE2MnIhE2InIhEEEP6MemoryS8_R5StateT_T0_T1_(%struct.Memory* %2, %struct.State* %0, i64 %10, i64 %12, i64 1)
  ret %struct.Memory* %15
}

define i32 @main() {
entry:
  %state = alloca %struct.State
  %mem = alloca %struct.Memory
  %addr1 = getelementptr inbounds %struct.State, %struct.State* %state, i64 0, i32 6, i32 1, i32 0, i32 0
  %addr2 = getelementptr inbounds %struct.State, %struct.State* %state, i64 0, i32 6, i32 3, i32 0, i32 0
  %addr3 = getelementptr inbounds %struct.State, %struct.State* %state, i64 0, i32 6, i32 5, i32 0, i32 0
  %addr4 = getelementptr inbounds %struct.State, %struct.State* %state, i64 0, i32 6, i32 7, i32 0, i32 0
  %addr5 = getelementptr inbounds %struct.State, %struct.State* %state, i64 0, i32 6, i32 9, i32 0, i32 0
  %addr6 = getelementptr inbounds %struct.State, %struct.State* %state, i64 0, i32 6, i32 11, i32 0, i32 0
  %addr7 = getelementptr inbounds %struct.State, %struct.State* %state, i64 0, i32 6, i32 13, i32 0, i32 0
  %addr8 = getelementptr inbounds %struct.State, %struct.State* %state, i64 0, i32 6, i32 15, i32 0, i32 0
  %addr9 = getelementptr inbounds %struct.State, %struct.State* %state, i64 0, i32 6, i32 33, i32 0, i32 0
  store i64 100, i64* %addr1, align 8
  store i64 200, i64* %addr2, align 8
  store i64 300, i64* %addr3, align 8
  store i64 400, i64* %addr4, align 8
  store i64 500, i64* %addr5, align 8
  store i64 600, i64* %addr6, align 8
  store i64 700, i64* %addr7, align 8
  store i64 800, i64* %addr8, align 8
  store i64 900, i64* %addr9, align 8
  %call = call %struct.Memory* @routine_sarb_m8_one(%struct.State* %state, i64 0, %struct.Memory* %mem)
  ret i32 0
}