; ModuleID = 'mcsema/test.proposed.ll'
source_filename = "llvm-link"
target datalayout = "e-m:e-i64:64-f80:128-n8:16:32:64-S128"
target triple = "x86_64-pc-linux-gnu-elf"

%union.anon = type { i64 }
%seg_400370__init_type = type <{ [23 x i8] }>
%seg_400390__text_type = type <{ [354 x i8] }>
%seg_4004f4__fini_type = type <{ [9 x i8] }>
%seg_400500__rodata_type = type <{ [4 x i8] }>
%seg_400504__eh_frame_hdr_type = type <{ [52 x i8] }>
%seg_400538__eh_frame_type = type <{ [208 x i8] }>
%seg_601018__data_type = type <{ [16 x i8] }>
%__bss_start_type = type <{ [8 x i8] }>
%struct.State = type { %struct.ArchState, [32 x %union.VectorReg], %struct.ArithFlags, %union.anon, %struct.Segments, %struct.AddressSpace, %struct.GPR, %struct.X87Stack, %struct.MMX, %struct.FPUStatusFlags, %union.anon, %union.FPU, %struct.SegmentCaches }
%struct.ArchState = type { i32, i32, %union.anon }
%union.VectorReg = type { %union.vec512_t }
%union.vec512_t = type { %struct.uint64v8_t }
%struct.uint64v8_t = type { [8 x i64] }
%struct.ArithFlags = type { i8, i8, i8, i8, i8, i8, i8, i8, i8, i8, i8, i8, i8, i8, i8, i8 }
%struct.Segments = type { i16, %union.SegmentSelector, i16, %union.SegmentSelector, i16, %union.SegmentSelector, i16, %union.SegmentSelector, i16, %union.SegmentSelector, i16, %union.SegmentSelector }
%union.SegmentSelector = type { i16 }
%struct.AddressSpace = type { i64, %struct.Reg, i64, %struct.Reg, i64, %struct.Reg, i64, %struct.Reg, i64, %struct.Reg, i64, %struct.Reg }
%struct.Reg = type { %union.anon }
%struct.GPR = type { i64, %struct.Reg, i64, %struct.Reg, i64, %struct.Reg, i64, %struct.Reg, i64, %struct.Reg, i64, %struct.Reg, i64, %struct.Reg, i64, %struct.Reg, i64, %struct.Reg, i64, %struct.Reg, i64, %struct.Reg, i64, %struct.Reg, i64, %struct.Reg, i64, %struct.Reg, i64, %struct.Reg, i64, %struct.Reg, i64, %struct.Reg }
%struct.X87Stack = type { [8 x %struct.anon.3] }
%struct.anon.3 = type { i64, double }
%struct.MMX = type { [8 x %struct.anon.4] }
%struct.anon.4 = type { i64, %union.vec64_t }
%union.vec64_t = type { %struct.uint64v1_t }
%struct.uint64v1_t = type { [1 x i64] }
%struct.FPUStatusFlags = type { i8, i8, i8, i8, i8, i8, i8, i8, i8, i8, i8, i8, i8, i8, i8, i8, i8, i8, i8, i8, [4 x i8] }
%union.FPU = type { %struct.anon.13 }
%struct.anon.13 = type { %struct.FpuFXSAVE, [96 x i8] }
%struct.FpuFXSAVE = type { %union.SegmentSelector, %union.SegmentSelector, %union.FPUAbridgedTagWord, i8, i16, i32, %union.SegmentSelector, i16, i32, %union.SegmentSelector, i16, %union.FPUControlStatus, %union.FPUControlStatus, [8 x %struct.FPUStackElem], [16 x %union.vec128_t] }
%union.FPUAbridgedTagWord = type { i8 }
%union.FPUControlStatus = type { i32 }
%struct.FPUStackElem = type { %union.anon.11, [6 x i8] }
%union.anon.11 = type { %struct.float80_t }
%struct.float80_t = type { [10 x i8] }
%union.vec128_t = type { %struct.uint128v1_t }
%struct.uint128v1_t = type { [1 x i128] }
%struct.SegmentCaches = type { %struct.SegmentShadow, %struct.SegmentShadow, %struct.SegmentShadow, %struct.SegmentShadow, %struct.SegmentShadow, %struct.SegmentShadow }
%struct.SegmentShadow = type { %union.anon, i32, i32 }
%struct.Memory = type opaque

@switch.table = private unnamed_addr constant [4 x i32] [i32 2048, i32 3072, i32 0, i32 1024]
@DR0 = external global i64, align 8
@DR1 = external global i64, align 8
@DR2 = external global i64, align 8
@DR3 = external global i64, align 8
@DR4 = external global i64, align 8
@DR5 = external global i64, align 8
@DR6 = external global i64, align 8
@DR7 = external global i64, align 8
@gCR0 = external global %union.anon, align 1
@gCR1 = external global %union.anon, align 1
@gCR2 = external global %union.anon, align 1
@gCR3 = external global %union.anon, align 1
@gCR4 = external global %union.anon, align 1
@gCR8 = external global %union.anon, align 1
@seg_400370__init = internal constant %seg_400370__init_type <{ [23 x i8] c"H\83\EC\08H\8B\05}\0C \00H\85\C0t\02\FF\D0H\83\C4\08\C3" }>
@seg_400390__text = internal constant %seg_400390__text_type <{ [354 x i8] c"1\EDI\89\D1^H\89\E2H\83\E4\F0PTI\C7\C0\F0\04@\00H\C7\C1\80\04@\00H\C7\C7x\04@\00\FF\156\0C \00\F4\0F\1FD\00\00\F3\C3f.\0F\1F\84\00\00\00\00\00\0F\1F@\00U\B8(\10`\00H=(\10`\00H\89\E5t\17\B8\00\00\00\00H\85\C0t\0D]\BF(\10`\00\FF\E0\0F\1FD\00\00]\C3f\0F\1FD\00\00\BE(\10`\00UH\81\EE(\10`\00H\89\E5H\C1\FE\03H\89\F0H\C1\E8?H\01\C6H\D1\FEt\15\B8\00\00\00\00H\85\C0t\0B]\BF(\10`\00\FF\E0\0F\1F\00]\C3f\0F\1FD\00\00\80=\E1\0B \00\00u\17UH\89\E5\E8~\FF\FF\FF\C6\05\CF\0B \00\01]\C3\0F\1FD\00\00\F3\C3\0F\1F@\00f.\0F\1F\84\00\00\00\00\00UH\89\E5]\EB\89\90U\C3f\0F\1FD\00\00AWAVI\89\D7AUATL\8D%\BE\09 \00UH\8D-\BE\09 \00SA\89\FDI\89\F6L)\E5H\83\EC\08H\C1\FD\03\E8\BF\FE\FF\FFH\85\EDt 1\DB\0F\1F\84\00\00\00\00\00L\89\FAL\89\F6D\89\EFA\FF\14\DCH\83\C3\01H9\DDu\EAH\83\C4\08[]A\5CA]A^A_\C3\90f.\0F\1F\84\00\00\00\00\00\F3\C3" }>
@seg_4004f4__fini = internal constant %seg_4004f4__fini_type <{ [9 x i8] c"H\83\EC\08H\83\C4\08\C3" }>
@seg_400500__rodata = internal constant %seg_400500__rodata_type <{ [4 x i8] c"\01\00\02\00" }>
@seg_400504__eh_frame_hdr = internal constant %seg_400504__eh_frame_hdr_type <{ [52 x i8] c"\01\1B\03;0\00\00\00\05\00\00\00\8C\FE\FF\FFL\00\00\00\BC\FE\FF\FFx\00\00\00t\FF\FF\FF\8C\00\00\00|\FF\FF\FF\A4\00\00\00\EC\FF\FF\FF\EC\00\00\00" }>
@seg_400538__eh_frame = internal constant %seg_400538__eh_frame_type <{ [208 x i8] c"\14\00\00\00\00\00\00\00\01zR\00\01x\10\01\1B\0C\07\08\90\01\07\10\10\00\00\00\1C\00\00\008\FE\FF\FF+\00\00\00\00\00\00\00\14\00\00\00\00\00\00\00\01zR\00\01x\10\01\1B\0C\07\08\90\01\00\00\10\00\00\00\1C\00\00\00<\FE\FF\FF\02\00\00\00\00\00\00\00\14\00\00\000\00\00\00\E0\FE\FF\FF\02\00\00\00\00\00\00\00\00\00\00\00D\00\00\00H\00\00\00\D0\FE\FF\FFe\00\00\00\00B\0E\10\8F\02B\0E\18\8E\03E\0E \8D\04B\0E(\8C\05H\0E0\86\06H\0E8\83\07M\0E@r\0E8A\0E0A\0E(B\0E B\0E\18B\0E\10B\0E\08\00\10\00\00\00\90\00\00\00\F8\FE\FF\FF\02\00\00\00\00\00\00\00\00\00\00\00" }>
@seg_601018__data = internal global %seg_601018__data_type zeroinitializer
@__bss_start = global %__bss_start_type zeroinitializer
@0 = internal global i1 false

declare %struct.Memory* @__remill_error(%struct.State* dereferenceable(3376), i64, %struct.Memory*)

declare i32 @__remill_fpu_exception_test_and_clear(i32, i32)

; Function Attrs: argmemonly nounwind
declare void @llvm.lifetime.start(i64, i8* nocapture) #0

; Function Attrs: argmemonly nounwind
declare void @llvm.lifetime.end(i64, i8* nocapture) #0

; Function Attrs: nounwind readnone
declare i32 @llvm.ctpop.i32(i32) #1

; Function Attrs: nounwind readnone
declare i32 @llvm.bswap.i32(i32) #1

; Function Attrs: nounwind readnone
declare i64 @llvm.bswap.i64(i64) #1

; Function Attrs: nounwind readnone
declare i32 @llvm.cttz.i32(i32, i1) #1

; Function Attrs: nounwind readnone
declare i64 @llvm.cttz.i64(i64, i1) #1

; Function Attrs: nounwind readnone
declare i32 @llvm.ctlz.i32(i32, i1) #1

; Function Attrs: nounwind readnone
declare i64 @llvm.ctlz.i64(i64, i1) #1

; Function Attrs: argmemonly nounwind
declare void @llvm.memcpy.p0i8.p0i8.i64(i8* nocapture writeonly, i8* nocapture readonly, i64, i32, i1) #0

; Function Attrs: nounwind readnone
declare double @llvm.nearbyint.f64(double) #1

; Function Attrs: nounwind readnone
declare double @llvm.fabs.f64(double) #1

; Function Attrs: nounwind readnone
declare <4 x double> @llvm.nearbyint.v4f64(<4 x double>) #1

; Function Attrs: nounwind readnone
declare <4 x double> @llvm.fabs.v4f64(<4 x double>) #1

; Function Attrs: nounwind readnone
declare double @llvm.trunc.f64(double) #1

; Function Attrs: nounwind readnone
declare <4 x double> @llvm.trunc.v4f64(<4 x double>) #1

; Function Attrs: nounwind readnone
declare float @llvm.nearbyint.f32(float) #1

; Function Attrs: nounwind readnone
declare float @llvm.fabs.f32(float) #1

; Function Attrs: nounwind readnone
declare <4 x float> @llvm.nearbyint.v4f32(<4 x float>) #1

; Function Attrs: nounwind readnone
declare <4 x float> @llvm.fabs.v4f32(<4 x float>) #1

; Function Attrs: nounwind readnone
declare float @llvm.trunc.f32(float) #1

; Function Attrs: nounwind readnone
declare <4 x float> @llvm.trunc.v4f32(<4 x float>) #1

; Function Attrs: argmemonly nounwind
declare void @llvm.memset.p0i8.i64(i8* nocapture writeonly, i8, i64, i32, i1) #0

declare double @atan(double) local_unnamed_addr

declare double @cos(double) local_unnamed_addr

declare double @sin(double) local_unnamed_addr

declare double @sqrt(double) local_unnamed_addr

declare double @tan(double) local_unnamed_addr

declare extern_weak x86_64_sysvcc i64 @abort()

declare extern_weak x86_64_sysvcc i64 @abs(i64)

declare extern_weak x86_64_sysvcc i64 @asin(i64)

declare extern_weak x86_64_sysvcc i64 @atof(i64)

declare extern_weak x86_64_sysvcc i64 @atoi(i64)

declare extern_weak x86_64_sysvcc i64 @atol(i64)

declare extern_weak x86_64_sysvcc i64 @calloc(i64, i64)

declare extern_weak x86_64_sysvcc i64 @clock()

declare extern_weak x86_64_sysvcc i64 @cosf(i64)

declare extern_weak x86_64_sysvcc i64 @exit(i64)

declare extern_weak x86_64_sysvcc i64 @exp(i64)

declare extern_weak x86_64_sysvcc i64 @fflush(i64)

declare extern_weak x86_64_sysvcc i64 @floor(i64)

declare extern_weak x86_64_sysvcc i64 @fprintf(i64, i64, i64, i64, i64, i64, i64, i64, i64, i64, i64, i64, i64, i64, i64, i64)

declare extern_weak x86_64_sysvcc i64 @fputs(i64, i64)

declare extern_weak x86_64_sysvcc i64 @free(i64)

declare extern_weak x86_64_sysvcc i64 @fwrite(i64, i64, i64, i64)

declare extern_weak x86_64_sysvcc i64 @getchar()

declare extern_weak x86_64_sysvcc i64 @gettimeofday(i64, i64)

declare extern_weak x86_64_sysvcc i64 @__isoc99_fscanf(i64, i64, i64, i64, i64, i64, i64, i64, i64, i64, i64, i64, i64, i64, i64, i64)

declare extern_weak x86_64_sysvcc i64 @__isoc99_scanf(i64, i64, i64, i64, i64, i64, i64, i64, i64, i64, i64, i64, i64, i64, i64, i64)

declare extern_weak x86_64_sysvcc i64 @__isoc99_sscanf(i64, i64, i64, i64, i64, i64, i64, i64, i64, i64, i64, i64, i64, i64, i64, i64)

declare extern_weak x86_64_sysvcc i64 @log(i64)

declare extern_weak x86_64_sysvcc i64 @lrand48()

declare extern_weak x86_64_sysvcc i64 @malloc(i64)

declare extern_weak x86_64_sysvcc i64 @memalign(i64, i64)

declare extern_weak x86_64_sysvcc i64 @memcpy(i64, i64, i64)

declare extern_weak x86_64_sysvcc i64 @memset(i64, i64, i64)

declare extern_weak x86_64_sysvcc i64 @perror(i64)

declare extern_weak x86_64_sysvcc i64 @posix_memalign(i64, i64, i64)

declare extern_weak x86_64_sysvcc i64 @pow(i64, i64)

declare extern_weak x86_64_sysvcc i64 @printf(i64, i64, i64, i64, i64, i64, i64, i64, i64, i64, i64, i64, i64, i64, i64, i64)

declare extern_weak x86_64_sysvcc i64 @putchar(i64)

declare extern_weak x86_64_sysvcc i64 @puts(i64)

declare extern_weak x86_64_sysvcc i64 @rand()

declare extern_weak x86_64_sysvcc i64 @random()

declare extern_weak x86_64_sysvcc i64 @realloc(i64, i64)

declare extern_weak x86_64_sysvcc i64 @seed48(i64)

declare extern_weak x86_64_sysvcc i64 @sinf(i64)

declare extern_weak x86_64_sysvcc i64 @sprintf(i64, i64, i64, i64, i64, i64, i64, i64, i64, i64, i64, i64, i64, i64, i64, i64)

declare extern_weak x86_64_sysvcc i64 @srand(i64)

declare extern_weak x86_64_sysvcc i64 @strcat(i64, i64)

declare extern_weak x86_64_sysvcc i64 @strcmp(i64, i64)

declare extern_weak x86_64_sysvcc i64 @strcpy(i64, i64)

declare extern_weak x86_64_sysvcc i64 @strdup(i64)

declare extern_weak x86_64_sysvcc i64 @strlen(i64)

declare extern_weak x86_64_sysvcc i64 @strncmp(i64, i64, i64)

declare extern_weak x86_64_sysvcc i64 @strtoll(i64, i64, i64)

declare extern_weak x86_64_sysvcc i64 @time(i64)

declare extern_weak x86_64_sysvcc i64 @ungetc(i64, i64)

declare extern_weak x86_64_sysvcc i64 @pthread_join(i64, i64)

declare extern_weak x86_64_sysvcc i64 @pthread_create(i64, i64, i64, i64)

declare %struct.Memory* @__remill_function_call(%struct.State* dereferenceable(3376), i64, %struct.Memory*)

declare %struct.Memory* @ext_sqrt(%struct.State* noalias dereferenceable(3376), i64, %struct.Memory* noalias)

declare %struct.Memory* @ext_atan(%struct.State* noalias dereferenceable(3376), i64, %struct.Memory* noalias)

declare %struct.Memory* @ext_cos(%struct.State* noalias dereferenceable(3376), i64, %struct.Memory* noalias)

declare %struct.Memory* @ext_tan(%struct.State* noalias dereferenceable(3376), i64, %struct.Memory* noalias)

declare %struct.Memory* @ext_sin(%struct.State* noalias dereferenceable(3376), i64, %struct.Memory* noalias)

; Function Attrs: alwaysinline
define %struct.Memory* @_ZN9benchmark4copyIP12ValueWrapperIS1_IS1_IS1_IS1_IS1_IS1_IS1_IS1_IS1_IdEEEEEEEEEESC_EEvT_SD_T0_(%struct.State* noalias, i64, %struct.Memory* noalias) #2 {
entry:
  %3 = getelementptr inbounds %struct.State, %struct.State* %0, i64 0, i32 6, i32 33, i32 0, i32 0
  store i64 %1, i64* %3, align 8
  %BRANCH_TAKEN = alloca i8, align 1
  store i8 0, i8* %BRANCH_TAKEN, align 1
  %MEMORY = alloca %struct.Memory*, align 8
  store %struct.Memory* %2, %struct.Memory** %MEMORY, align 8
  %loadMem_403550 = load %struct.Memory*, %struct.Memory** %MEMORY
  %4 = getelementptr inbounds %struct.State, %struct.State* %0, i32 0, i32 6
  %5 = getelementptr inbounds %struct.GPR, %struct.GPR* %4, i32 0, i32 33
  %6 = getelementptr inbounds %struct.Reg, %struct.Reg* %5, i32 0, i32 0
  %PC.i = bitcast %union.anon* %6 to i64*
  %7 = getelementptr inbounds %struct.State, %struct.State* %0, i32 0, i32 6
  %8 = getelementptr inbounds %struct.GPR, %struct.GPR* %7, i32 0, i32 15
  %9 = getelementptr inbounds %struct.Reg, %struct.Reg* %8, i32 0, i32 0
  %RBP.i = bitcast %union.anon* %9 to i64*
  %10 = load i64, i64* %RBP.i
  %11 = load i64, i64* %PC.i
  %12 = add i64 %11, 1
  store i64 %12, i64* %PC.i
  %13 = getelementptr inbounds %struct.State, %struct.State* %0, i64 0, i32 6, i32 13, i32 0, i32 0
  %14 = load i64, i64* %13, align 8
  %15 = add i64 %14, -8
  %16 = inttoptr i64 %15 to i64*
  store i64 %10, i64* %16
  store i64 %15, i64* %13, align 8
  store %struct.Memory* %loadMem_403550, %struct.Memory** %MEMORY
  %loadMem_403551 = load %struct.Memory*, %struct.Memory** %MEMORY
  %17 = getelementptr inbounds %struct.State, %struct.State* %0, i32 0, i32 6
  %18 = getelementptr inbounds %struct.GPR, %struct.GPR* %17, i32 0, i32 33
  %19 = getelementptr inbounds %struct.Reg, %struct.Reg* %18, i32 0, i32 0
  %PC.i43 = bitcast %union.anon* %19 to i64*
  %20 = getelementptr inbounds %struct.State, %struct.State* %0, i32 0, i32 6
  %21 = getelementptr inbounds %struct.GPR, %struct.GPR* %20, i32 0, i32 13
  %22 = getelementptr inbounds %struct.Reg, %struct.Reg* %21, i32 0, i32 0
  %RSP.i = bitcast %union.anon* %22 to i64*
  %23 = getelementptr inbounds %struct.State, %struct.State* %0, i32 0, i32 6
  %24 = getelementptr inbounds %struct.GPR, %struct.GPR* %23, i32 0, i32 15
  %25 = getelementptr inbounds %struct.Reg, %struct.Reg* %24, i32 0, i32 0
  %RBP.i44 = bitcast %union.anon* %25 to i64*
  %26 = load i64, i64* %RSP.i
  %27 = load i64, i64* %PC.i43
  %28 = add i64 %27, 3
  store i64 %28, i64* %PC.i43
  store i64 %26, i64* %RBP.i44, align 8
  store %struct.Memory* %loadMem_403551, %struct.Memory** %MEMORY
  %loadMem_403554 = load %struct.Memory*, %struct.Memory** %MEMORY
  %29 = getelementptr inbounds %struct.State, %struct.State* %0, i32 0, i32 6
  %30 = getelementptr inbounds %struct.GPR, %struct.GPR* %29, i32 0, i32 33
  %31 = getelementptr inbounds %struct.Reg, %struct.Reg* %30, i32 0, i32 0
  %PC.i41 = bitcast %union.anon* %31 to i64*
  %32 = getelementptr inbounds %struct.State, %struct.State* %0, i32 0, i32 6
  %33 = getelementptr inbounds %struct.GPR, %struct.GPR* %32, i32 0, i32 11
  %34 = getelementptr inbounds %struct.Reg, %struct.Reg* %33, i32 0, i32 0
  %RDI.i = bitcast %union.anon* %34 to i64*
  %35 = getelementptr inbounds %struct.State, %struct.State* %0, i32 0, i32 6
  %36 = getelementptr inbounds %struct.GPR, %struct.GPR* %35, i32 0, i32 15
  %37 = getelementptr inbounds %struct.Reg, %struct.Reg* %36, i32 0, i32 0
  %RBP.i42 = bitcast %union.anon* %37 to i64*
  %38 = load i64, i64* %RBP.i42
  %39 = sub i64 %38, 8
  %40 = load i64, i64* %RDI.i
  %41 = load i64, i64* %PC.i41
  %42 = add i64 %41, 4
  store i64 %42, i64* %PC.i41
  %43 = inttoptr i64 %39 to i64*
  store i64 %40, i64* %43
  store %struct.Memory* %loadMem_403554, %struct.Memory** %MEMORY
  %loadMem_403558 = load %struct.Memory*, %struct.Memory** %MEMORY
  %44 = getelementptr inbounds %struct.State, %struct.State* %0, i32 0, i32 6
  %45 = getelementptr inbounds %struct.GPR, %struct.GPR* %44, i32 0, i32 33
  %46 = getelementptr inbounds %struct.Reg, %struct.Reg* %45, i32 0, i32 0
  %PC.i39 = bitcast %union.anon* %46 to i64*
  %47 = getelementptr inbounds %struct.State, %struct.State* %0, i32 0, i32 6
  %48 = getelementptr inbounds %struct.GPR, %struct.GPR* %47, i32 0, i32 9
  %49 = getelementptr inbounds %struct.Reg, %struct.Reg* %48, i32 0, i32 0
  %RSI.i = bitcast %union.anon* %49 to i64*
  %50 = getelementptr inbounds %struct.State, %struct.State* %0, i32 0, i32 6
  %51 = getelementptr inbounds %struct.GPR, %struct.GPR* %50, i32 0, i32 15
  %52 = getelementptr inbounds %struct.Reg, %struct.Reg* %51, i32 0, i32 0
  %RBP.i40 = bitcast %union.anon* %52 to i64*
  %53 = load i64, i64* %RBP.i40
  %54 = sub i64 %53, 16
  %55 = load i64, i64* %RSI.i
  %56 = load i64, i64* %PC.i39
  %57 = add i64 %56, 4
  store i64 %57, i64* %PC.i39
  %58 = inttoptr i64 %54 to i64*
  store i64 %55, i64* %58
  store %struct.Memory* %loadMem_403558, %struct.Memory** %MEMORY
  %loadMem_40355c = load %struct.Memory*, %struct.Memory** %MEMORY
  %59 = getelementptr inbounds %struct.State, %struct.State* %0, i32 0, i32 6
  %60 = getelementptr inbounds %struct.GPR, %struct.GPR* %59, i32 0, i32 33
  %61 = getelementptr inbounds %struct.Reg, %struct.Reg* %60, i32 0, i32 0
  %PC.i36 = bitcast %union.anon* %61 to i64*
  %62 = getelementptr inbounds %struct.State, %struct.State* %0, i32 0, i32 6
  %63 = getelementptr inbounds %struct.GPR, %struct.GPR* %62, i32 0, i32 7
  %64 = getelementptr inbounds %struct.Reg, %struct.Reg* %63, i32 0, i32 0
  %RDX.i37 = bitcast %union.anon* %64 to i64*
  %65 = getelementptr inbounds %struct.State, %struct.State* %0, i32 0, i32 6
  %66 = getelementptr inbounds %struct.GPR, %struct.GPR* %65, i32 0, i32 15
  %67 = getelementptr inbounds %struct.Reg, %struct.Reg* %66, i32 0, i32 0
  %RBP.i38 = bitcast %union.anon* %67 to i64*
  %68 = load i64, i64* %RBP.i38
  %69 = sub i64 %68, 24
  %70 = load i64, i64* %RDX.i37
  %71 = load i64, i64* %PC.i36
  %72 = add i64 %71, 4
  store i64 %72, i64* %PC.i36
  %73 = inttoptr i64 %69 to i64*
  store i64 %70, i64* %73
  store %struct.Memory* %loadMem_40355c, %struct.Memory** %MEMORY
  br label %block_.L_403560

block_.L_403560:                                  ; preds = %block_40356e, %entry
  %loadMem_403560 = load %struct.Memory*, %struct.Memory** %MEMORY
  %74 = getelementptr inbounds %struct.State, %struct.State* %0, i32 0, i32 6
  %75 = getelementptr inbounds %struct.GPR, %struct.GPR* %74, i32 0, i32 33
  %76 = getelementptr inbounds %struct.Reg, %struct.Reg* %75, i32 0, i32 0
  %PC.i33 = bitcast %union.anon* %76 to i64*
  %77 = getelementptr inbounds %struct.State, %struct.State* %0, i32 0, i32 6
  %78 = getelementptr inbounds %struct.GPR, %struct.GPR* %77, i32 0, i32 1
  %79 = getelementptr inbounds %struct.Reg, %struct.Reg* %78, i32 0, i32 0
  %RAX.i34 = bitcast %union.anon* %79 to i64*
  %80 = getelementptr inbounds %struct.State, %struct.State* %0, i32 0, i32 6
  %81 = getelementptr inbounds %struct.GPR, %struct.GPR* %80, i32 0, i32 15
  %82 = getelementptr inbounds %struct.Reg, %struct.Reg* %81, i32 0, i32 0
  %RBP.i35 = bitcast %union.anon* %82 to i64*
  %83 = load i64, i64* %RBP.i35
  %84 = sub i64 %83, 8
  %85 = load i64, i64* %PC.i33
  %86 = add i64 %85, 4
  store i64 %86, i64* %PC.i33
  %87 = inttoptr i64 %84 to i64*
  %88 = load i64, i64* %87
  store i64 %88, i64* %RAX.i34, align 8
  store %struct.Memory* %loadMem_403560, %struct.Memory** %MEMORY
  %loadMem_403564 = load %struct.Memory*, %struct.Memory** %MEMORY
  %89 = getelementptr inbounds %struct.State, %struct.State* %0, i32 0, i32 6
  %90 = getelementptr inbounds %struct.GPR, %struct.GPR* %89, i32 0, i32 33
  %91 = getelementptr inbounds %struct.Reg, %struct.Reg* %90, i32 0, i32 0
  %PC.i30 = bitcast %union.anon* %91 to i64*
  %92 = getelementptr inbounds %struct.State, %struct.State* %0, i32 0, i32 6
  %93 = getelementptr inbounds %struct.GPR, %struct.GPR* %92, i32 0, i32 1
  %94 = getelementptr inbounds %struct.Reg, %struct.Reg* %93, i32 0, i32 0
  %RAX.i31 = bitcast %union.anon* %94 to i64*
  %95 = getelementptr inbounds %struct.State, %struct.State* %0, i32 0, i32 6
  %96 = getelementptr inbounds %struct.GPR, %struct.GPR* %95, i32 0, i32 15
  %97 = getelementptr inbounds %struct.Reg, %struct.Reg* %96, i32 0, i32 0
  %RBP.i32 = bitcast %union.anon* %97 to i64*
  %98 = load i64, i64* %RAX.i31
  %99 = load i64, i64* %RBP.i32
  %100 = sub i64 %99, 16
  %101 = load i64, i64* %PC.i30
  %102 = add i64 %101, 4
  store i64 %102, i64* %PC.i30
  %103 = inttoptr i64 %100 to i64*
  %104 = load i64, i64* %103
  %105 = sub i64 %98, %104
  %106 = icmp ugt i64 %104, %98
  %107 = zext i1 %106 to i8
  %108 = getelementptr inbounds %struct.State, %struct.State* %0, i64 0, i32 2, i32 1
  store i8 %107, i8* %108, align 1
  %109 = trunc i64 %105 to i32
  %110 = and i32 %109, 255
  %111 = call i32 @llvm.ctpop.i32(i32 %110)
  %112 = trunc i32 %111 to i8
  %113 = and i8 %112, 1
  %114 = xor i8 %113, 1
  %115 = getelementptr inbounds %struct.State, %struct.State* %0, i64 0, i32 2, i32 3
  store i8 %114, i8* %115, align 1
  %116 = xor i64 %104, %98
  %117 = xor i64 %116, %105
  %118 = lshr i64 %117, 4
  %119 = trunc i64 %118 to i8
  %120 = and i8 %119, 1
  %121 = getelementptr inbounds %struct.State, %struct.State* %0, i64 0, i32 2, i32 5
  store i8 %120, i8* %121, align 1
  %122 = icmp eq i64 %105, 0
  %123 = zext i1 %122 to i8
  %124 = getelementptr inbounds %struct.State, %struct.State* %0, i64 0, i32 2, i32 7
  store i8 %123, i8* %124, align 1
  %125 = lshr i64 %105, 63
  %126 = trunc i64 %125 to i8
  %127 = getelementptr inbounds %struct.State, %struct.State* %0, i64 0, i32 2, i32 9
  store i8 %126, i8* %127, align 1
  %128 = lshr i64 %98, 63
  %129 = lshr i64 %104, 63
  %130 = xor i64 %129, %128
  %131 = xor i64 %125, %128
  %132 = add i64 %131, %130
  %133 = icmp eq i64 %132, 2
  %134 = zext i1 %133 to i8
  %135 = getelementptr inbounds %struct.State, %struct.State* %0, i64 0, i32 2, i32 13
  store i8 %134, i8* %135, align 1
  store %struct.Memory* %loadMem_403564, %struct.Memory** %MEMORY
  %loadMem_403568 = load %struct.Memory*, %struct.Memory** %MEMORY
  %136 = getelementptr inbounds %struct.State, %struct.State* %0, i32 0, i32 6
  %137 = getelementptr inbounds %struct.GPR, %struct.GPR* %136, i32 0, i32 33
  %138 = getelementptr inbounds %struct.Reg, %struct.Reg* %137, i32 0, i32 0
  %PC.i29 = bitcast %union.anon* %138 to i64*
  %139 = load i64, i64* %PC.i29
  %140 = add i64 %139, 47
  %141 = load i64, i64* %PC.i29
  %142 = add i64 %141, 6
  %143 = load i64, i64* %PC.i29
  %144 = add i64 %143, 6
  store i64 %144, i64* %PC.i29
  %145 = getelementptr inbounds %struct.State, %struct.State* %0, i64 0, i32 2, i32 7
  %146 = load i8, i8* %145, align 1
  store i8 %146, i8* %BRANCH_TAKEN, align 1
  %147 = getelementptr inbounds %struct.State, %struct.State* %0, i64 0, i32 6, i32 33, i32 0, i32 0
  %148 = icmp ne i8 %146, 0
  %149 = select i1 %148, i64 %140, i64 %142
  store i64 %149, i64* %147, align 8
  store %struct.Memory* %loadMem_403568, %struct.Memory** %MEMORY
  %loadBr_403568 = load i8, i8* %BRANCH_TAKEN
  %cmpBr_403568 = icmp eq i8 %loadBr_403568, 1
  br i1 %cmpBr_403568, label %block_.L_403597, label %block_40356e

block_40356e:                                     ; preds = %block_.L_403560
  %loadMem_40356e = load %struct.Memory*, %struct.Memory** %MEMORY
  %150 = getelementptr inbounds %struct.State, %struct.State* %0, i32 0, i32 6
  %151 = getelementptr inbounds %struct.GPR, %struct.GPR* %150, i32 0, i32 33
  %152 = getelementptr inbounds %struct.Reg, %struct.Reg* %151, i32 0, i32 0
  %PC.i26 = bitcast %union.anon* %152 to i64*
  %153 = getelementptr inbounds %struct.State, %struct.State* %0, i32 0, i32 6
  %154 = getelementptr inbounds %struct.GPR, %struct.GPR* %153, i32 0, i32 1
  %155 = getelementptr inbounds %struct.Reg, %struct.Reg* %154, i32 0, i32 0
  %RAX.i27 = bitcast %union.anon* %155 to i64*
  %156 = getelementptr inbounds %struct.State, %struct.State* %0, i32 0, i32 6
  %157 = getelementptr inbounds %struct.GPR, %struct.GPR* %156, i32 0, i32 15
  %158 = getelementptr inbounds %struct.Reg, %struct.Reg* %157, i32 0, i32 0
  %RBP.i28 = bitcast %union.anon* %158 to i64*
  %159 = load i64, i64* %RBP.i28
  %160 = sub i64 %159, 8
  %161 = load i64, i64* %PC.i26
  %162 = add i64 %161, 4
  store i64 %162, i64* %PC.i26
  %163 = inttoptr i64 %160 to i64*
  %164 = load i64, i64* %163
  store i64 %164, i64* %RAX.i27, align 8
  store %struct.Memory* %loadMem_40356e, %struct.Memory** %MEMORY
  %loadMem_403572 = load %struct.Memory*, %struct.Memory** %MEMORY
  %165 = getelementptr inbounds %struct.State, %struct.State* %0, i32 0, i32 6
  %166 = getelementptr inbounds %struct.GPR, %struct.GPR* %165, i32 0, i32 33
  %167 = getelementptr inbounds %struct.Reg, %struct.Reg* %166, i32 0, i32 0
  %PC.i23 = bitcast %union.anon* %167 to i64*
  %168 = getelementptr inbounds %struct.State, %struct.State* %0, i32 0, i32 6
  %169 = getelementptr inbounds %struct.GPR, %struct.GPR* %168, i32 0, i32 1
  %170 = getelementptr inbounds %struct.Reg, %struct.Reg* %169, i32 0, i32 0
  %RAX.i24 = bitcast %union.anon* %170 to i64*
  %171 = getelementptr inbounds %struct.State, %struct.State* %0, i32 0, i32 6
  %172 = getelementptr inbounds %struct.GPR, %struct.GPR* %171, i32 0, i32 5
  %173 = getelementptr inbounds %struct.Reg, %struct.Reg* %172, i32 0, i32 0
  %RCX.i25 = bitcast %union.anon* %173 to i64*
  %174 = load i64, i64* %RAX.i24
  %175 = load i64, i64* %PC.i23
  %176 = add i64 %175, 3
  store i64 %176, i64* %PC.i23
  store i64 %174, i64* %RCX.i25, align 8
  store %struct.Memory* %loadMem_403572, %struct.Memory** %MEMORY
  %loadMem_403575 = load %struct.Memory*, %struct.Memory** %MEMORY
  %177 = getelementptr inbounds %struct.State, %struct.State* %0, i32 0, i32 6
  %178 = getelementptr inbounds %struct.GPR, %struct.GPR* %177, i32 0, i32 33
  %179 = getelementptr inbounds %struct.Reg, %struct.Reg* %178, i32 0, i32 0
  %PC.i21 = bitcast %union.anon* %179 to i64*
  %180 = getelementptr inbounds %struct.State, %struct.State* %0, i32 0, i32 6
  %181 = getelementptr inbounds %struct.GPR, %struct.GPR* %180, i32 0, i32 5
  %182 = getelementptr inbounds %struct.Reg, %struct.Reg* %181, i32 0, i32 0
  %RCX.i22 = bitcast %union.anon* %182 to i64*
  %183 = load i64, i64* %RCX.i22
  %184 = load i64, i64* %PC.i21
  %185 = add i64 %184, 4
  store i64 %185, i64* %PC.i21
  %186 = add i64 8, %183
  store i64 %186, i64* %RCX.i22, align 8
  %187 = icmp ult i64 %186, %183
  %188 = icmp ult i64 %186, 8
  %189 = or i1 %187, %188
  %190 = zext i1 %189 to i8
  %191 = getelementptr inbounds %struct.State, %struct.State* %0, i64 0, i32 2, i32 1
  store i8 %190, i8* %191, align 1
  %192 = trunc i64 %186 to i32
  %193 = and i32 %192, 255
  %194 = call i32 @llvm.ctpop.i32(i32 %193)
  %195 = trunc i32 %194 to i8
  %196 = and i8 %195, 1
  %197 = xor i8 %196, 1
  %198 = getelementptr inbounds %struct.State, %struct.State* %0, i64 0, i32 2, i32 3
  store i8 %197, i8* %198, align 1
  %199 = xor i64 8, %183
  %200 = xor i64 %199, %186
  %201 = lshr i64 %200, 4
  %202 = trunc i64 %201 to i8
  %203 = and i8 %202, 1
  %204 = getelementptr inbounds %struct.State, %struct.State* %0, i64 0, i32 2, i32 5
  store i8 %203, i8* %204, align 1
  %205 = icmp eq i64 %186, 0
  %206 = zext i1 %205 to i8
  %207 = getelementptr inbounds %struct.State, %struct.State* %0, i64 0, i32 2, i32 7
  store i8 %206, i8* %207, align 1
  %208 = lshr i64 %186, 63
  %209 = trunc i64 %208 to i8
  %210 = getelementptr inbounds %struct.State, %struct.State* %0, i64 0, i32 2, i32 9
  store i8 %209, i8* %210, align 1
  %211 = lshr i64 %183, 63
  %212 = xor i64 %208, %211
  %213 = add i64 %212, %208
  %214 = icmp eq i64 %213, 2
  %215 = zext i1 %214 to i8
  %216 = getelementptr inbounds %struct.State, %struct.State* %0, i64 0, i32 2, i32 13
  store i8 %215, i8* %216, align 1
  store %struct.Memory* %loadMem_403575, %struct.Memory** %MEMORY
  %loadMem_403579 = load %struct.Memory*, %struct.Memory** %MEMORY
  %217 = getelementptr inbounds %struct.State, %struct.State* %0, i32 0, i32 6
  %218 = getelementptr inbounds %struct.GPR, %struct.GPR* %217, i32 0, i32 33
  %219 = getelementptr inbounds %struct.Reg, %struct.Reg* %218, i32 0, i32 0
  %PC.i18 = bitcast %union.anon* %219 to i64*
  %220 = getelementptr inbounds %struct.State, %struct.State* %0, i32 0, i32 6
  %221 = getelementptr inbounds %struct.GPR, %struct.GPR* %220, i32 0, i32 5
  %222 = getelementptr inbounds %struct.Reg, %struct.Reg* %221, i32 0, i32 0
  %RCX.i19 = bitcast %union.anon* %222 to i64*
  %223 = getelementptr inbounds %struct.State, %struct.State* %0, i32 0, i32 6
  %224 = getelementptr inbounds %struct.GPR, %struct.GPR* %223, i32 0, i32 15
  %225 = getelementptr inbounds %struct.Reg, %struct.Reg* %224, i32 0, i32 0
  %RBP.i20 = bitcast %union.anon* %225 to i64*
  %226 = load i64, i64* %RBP.i20
  %227 = sub i64 %226, 8
  %228 = load i64, i64* %RCX.i19
  %229 = load i64, i64* %PC.i18
  %230 = add i64 %229, 4
  store i64 %230, i64* %PC.i18
  %231 = inttoptr i64 %227 to i64*
  store i64 %228, i64* %231
  store %struct.Memory* %loadMem_403579, %struct.Memory** %MEMORY
  %loadMem_40357d = load %struct.Memory*, %struct.Memory** %MEMORY
  %232 = getelementptr inbounds %struct.State, %struct.State* %0, i32 0, i32 6
  %233 = getelementptr inbounds %struct.GPR, %struct.GPR* %232, i32 0, i32 33
  %234 = getelementptr inbounds %struct.Reg, %struct.Reg* %233, i32 0, i32 0
  %PC.i15 = bitcast %union.anon* %234 to i64*
  %235 = getelementptr inbounds %struct.State, %struct.State* %0, i32 0, i32 6
  %236 = getelementptr inbounds %struct.GPR, %struct.GPR* %235, i32 0, i32 5
  %237 = getelementptr inbounds %struct.Reg, %struct.Reg* %236, i32 0, i32 0
  %RCX.i16 = bitcast %union.anon* %237 to i64*
  %238 = getelementptr inbounds %struct.State, %struct.State* %0, i32 0, i32 6
  %239 = getelementptr inbounds %struct.GPR, %struct.GPR* %238, i32 0, i32 15
  %240 = getelementptr inbounds %struct.Reg, %struct.Reg* %239, i32 0, i32 0
  %RBP.i17 = bitcast %union.anon* %240 to i64*
  %241 = load i64, i64* %RBP.i17
  %242 = sub i64 %241, 24
  %243 = load i64, i64* %PC.i15
  %244 = add i64 %243, 4
  store i64 %244, i64* %PC.i15
  %245 = inttoptr i64 %242 to i64*
  %246 = load i64, i64* %245
  store i64 %246, i64* %RCX.i16, align 8
  store %struct.Memory* %loadMem_40357d, %struct.Memory** %MEMORY
  %loadMem_403581 = load %struct.Memory*, %struct.Memory** %MEMORY
  %247 = getelementptr inbounds %struct.State, %struct.State* %0, i32 0, i32 6
  %248 = getelementptr inbounds %struct.GPR, %struct.GPR* %247, i32 0, i32 33
  %249 = getelementptr inbounds %struct.Reg, %struct.Reg* %248, i32 0, i32 0
  %PC.i12 = bitcast %union.anon* %249 to i64*
  %250 = getelementptr inbounds %struct.State, %struct.State* %0, i32 0, i32 6
  %251 = getelementptr inbounds %struct.GPR, %struct.GPR* %250, i32 0, i32 5
  %252 = getelementptr inbounds %struct.Reg, %struct.Reg* %251, i32 0, i32 0
  %RCX.i13 = bitcast %union.anon* %252 to i64*
  %253 = getelementptr inbounds %struct.State, %struct.State* %0, i32 0, i32 6
  %254 = getelementptr inbounds %struct.GPR, %struct.GPR* %253, i32 0, i32 7
  %255 = getelementptr inbounds %struct.Reg, %struct.Reg* %254, i32 0, i32 0
  %RDX.i14 = bitcast %union.anon* %255 to i64*
  %256 = load i64, i64* %RCX.i13
  %257 = load i64, i64* %PC.i12
  %258 = add i64 %257, 3
  store i64 %258, i64* %PC.i12
  store i64 %256, i64* %RDX.i14, align 8
  store %struct.Memory* %loadMem_403581, %struct.Memory** %MEMORY
  %loadMem_403584 = load %struct.Memory*, %struct.Memory** %MEMORY
  %259 = getelementptr inbounds %struct.State, %struct.State* %0, i32 0, i32 6
  %260 = getelementptr inbounds %struct.GPR, %struct.GPR* %259, i32 0, i32 33
  %261 = getelementptr inbounds %struct.Reg, %struct.Reg* %260, i32 0, i32 0
  %PC.i10 = bitcast %union.anon* %261 to i64*
  %262 = getelementptr inbounds %struct.State, %struct.State* %0, i32 0, i32 6
  %263 = getelementptr inbounds %struct.GPR, %struct.GPR* %262, i32 0, i32 7
  %264 = getelementptr inbounds %struct.Reg, %struct.Reg* %263, i32 0, i32 0
  %RDX.i11 = bitcast %union.anon* %264 to i64*
  %265 = load i64, i64* %RDX.i11
  %266 = load i64, i64* %PC.i10
  %267 = add i64 %266, 4
  store i64 %267, i64* %PC.i10
  %268 = add i64 8, %265
  store i64 %268, i64* %RDX.i11, align 8
  %269 = icmp ult i64 %268, %265
  %270 = icmp ult i64 %268, 8
  %271 = or i1 %269, %270
  %272 = zext i1 %271 to i8
  %273 = getelementptr inbounds %struct.State, %struct.State* %0, i64 0, i32 2, i32 1
  store i8 %272, i8* %273, align 1
  %274 = trunc i64 %268 to i32
  %275 = and i32 %274, 255
  %276 = call i32 @llvm.ctpop.i32(i32 %275)
  %277 = trunc i32 %276 to i8
  %278 = and i8 %277, 1
  %279 = xor i8 %278, 1
  %280 = getelementptr inbounds %struct.State, %struct.State* %0, i64 0, i32 2, i32 3
  store i8 %279, i8* %280, align 1
  %281 = xor i64 8, %265
  %282 = xor i64 %281, %268
  %283 = lshr i64 %282, 4
  %284 = trunc i64 %283 to i8
  %285 = and i8 %284, 1
  %286 = getelementptr inbounds %struct.State, %struct.State* %0, i64 0, i32 2, i32 5
  store i8 %285, i8* %286, align 1
  %287 = icmp eq i64 %268, 0
  %288 = zext i1 %287 to i8
  %289 = getelementptr inbounds %struct.State, %struct.State* %0, i64 0, i32 2, i32 7
  store i8 %288, i8* %289, align 1
  %290 = lshr i64 %268, 63
  %291 = trunc i64 %290 to i8
  %292 = getelementptr inbounds %struct.State, %struct.State* %0, i64 0, i32 2, i32 9
  store i8 %291, i8* %292, align 1
  %293 = lshr i64 %265, 63
  %294 = xor i64 %290, %293
  %295 = add i64 %294, %290
  %296 = icmp eq i64 %295, 2
  %297 = zext i1 %296 to i8
  %298 = getelementptr inbounds %struct.State, %struct.State* %0, i64 0, i32 2, i32 13
  store i8 %297, i8* %298, align 1
  store %struct.Memory* %loadMem_403584, %struct.Memory** %MEMORY
  %loadMem_403588 = load %struct.Memory*, %struct.Memory** %MEMORY
  %299 = getelementptr inbounds %struct.State, %struct.State* %0, i32 0, i32 6
  %300 = getelementptr inbounds %struct.GPR, %struct.GPR* %299, i32 0, i32 33
  %301 = getelementptr inbounds %struct.Reg, %struct.Reg* %300, i32 0, i32 0
  %PC.i8 = bitcast %union.anon* %301 to i64*
  %302 = getelementptr inbounds %struct.State, %struct.State* %0, i32 0, i32 6
  %303 = getelementptr inbounds %struct.GPR, %struct.GPR* %302, i32 0, i32 7
  %304 = getelementptr inbounds %struct.Reg, %struct.Reg* %303, i32 0, i32 0
  %RDX.i = bitcast %union.anon* %304 to i64*
  %305 = getelementptr inbounds %struct.State, %struct.State* %0, i32 0, i32 6
  %306 = getelementptr inbounds %struct.GPR, %struct.GPR* %305, i32 0, i32 15
  %307 = getelementptr inbounds %struct.Reg, %struct.Reg* %306, i32 0, i32 0
  %RBP.i9 = bitcast %union.anon* %307 to i64*
  %308 = load i64, i64* %RBP.i9
  %309 = sub i64 %308, 24
  %310 = load i64, i64* %RDX.i
  %311 = load i64, i64* %PC.i8
  %312 = add i64 %311, 4
  store i64 %312, i64* %PC.i8
  %313 = inttoptr i64 %309 to i64*
  store i64 %310, i64* %313
  store %struct.Memory* %loadMem_403588, %struct.Memory** %MEMORY
  %loadMem_40358c = load %struct.Memory*, %struct.Memory** %MEMORY
  %314 = getelementptr inbounds %struct.State, %struct.State* %0, i32 0, i32 6
  %315 = getelementptr inbounds %struct.GPR, %struct.GPR* %314, i32 0, i32 33
  %316 = getelementptr inbounds %struct.Reg, %struct.Reg* %315, i32 0, i32 0
  %PC.i6 = bitcast %union.anon* %316 to i64*
  %317 = getelementptr inbounds %struct.State, %struct.State* %0, i32 0, i32 6
  %318 = getelementptr inbounds %struct.GPR, %struct.GPR* %317, i32 0, i32 1
  %319 = getelementptr inbounds %struct.Reg, %struct.Reg* %318, i32 0, i32 0
  %RAX.i7 = bitcast %union.anon* %319 to i64*
  %320 = load i64, i64* %RAX.i7
  %321 = load i64, i64* %PC.i6
  %322 = add i64 %321, 3
  store i64 %322, i64* %PC.i6
  %323 = inttoptr i64 %320 to i64*
  %324 = load i64, i64* %323
  store i64 %324, i64* %RAX.i7, align 8
  store %struct.Memory* %loadMem_40358c, %struct.Memory** %MEMORY
  %loadMem_40358f = load %struct.Memory*, %struct.Memory** %MEMORY
  %325 = getelementptr inbounds %struct.State, %struct.State* %0, i32 0, i32 6
  %326 = getelementptr inbounds %struct.GPR, %struct.GPR* %325, i32 0, i32 33
  %327 = getelementptr inbounds %struct.Reg, %struct.Reg* %326, i32 0, i32 0
  %PC.i5 = bitcast %union.anon* %327 to i64*
  %328 = getelementptr inbounds %struct.State, %struct.State* %0, i32 0, i32 6
  %329 = getelementptr inbounds %struct.GPR, %struct.GPR* %328, i32 0, i32 1
  %330 = getelementptr inbounds %struct.Reg, %struct.Reg* %329, i32 0, i32 0
  %RAX.i = bitcast %union.anon* %330 to i64*
  %331 = getelementptr inbounds %struct.State, %struct.State* %0, i32 0, i32 6
  %332 = getelementptr inbounds %struct.GPR, %struct.GPR* %331, i32 0, i32 5
  %333 = getelementptr inbounds %struct.Reg, %struct.Reg* %332, i32 0, i32 0
  %RCX.i = bitcast %union.anon* %333 to i64*
  %334 = load i64, i64* %RCX.i
  %335 = load i64, i64* %RAX.i
  %336 = load i64, i64* %PC.i5
  %337 = add i64 %336, 3
  store i64 %337, i64* %PC.i5
  %338 = inttoptr i64 %334 to i64*
  store i64 %335, i64* %338
  store %struct.Memory* %loadMem_40358f, %struct.Memory** %MEMORY
  %loadMem_403592 = load %struct.Memory*, %struct.Memory** %MEMORY
  %339 = getelementptr inbounds %struct.State, %struct.State* %0, i32 0, i32 6
  %340 = getelementptr inbounds %struct.GPR, %struct.GPR* %339, i32 0, i32 33
  %341 = getelementptr inbounds %struct.Reg, %struct.Reg* %340, i32 0, i32 0
  %PC.i4 = bitcast %union.anon* %341 to i64*
  %342 = load i64, i64* %PC.i4
  %343 = add i64 %342, -50
  %344 = load i64, i64* %PC.i4
  %345 = add i64 %344, 5
  store i64 %345, i64* %PC.i4
  %346 = getelementptr inbounds %struct.State, %struct.State* %0, i64 0, i32 6, i32 33, i32 0, i32 0
  store i64 %343, i64* %346, align 8
  store %struct.Memory* %loadMem_403592, %struct.Memory** %MEMORY
  br label %block_.L_403560

block_.L_403597:                                  ; preds = %block_.L_403560
  %loadMem_403597 = load %struct.Memory*, %struct.Memory** %MEMORY
  %347 = getelementptr inbounds %struct.State, %struct.State* %0, i32 0, i32 6
  %348 = getelementptr inbounds %struct.GPR, %struct.GPR* %347, i32 0, i32 33
  %349 = getelementptr inbounds %struct.Reg, %struct.Reg* %348, i32 0, i32 0
  %PC.i2 = bitcast %union.anon* %349 to i64*
  %350 = getelementptr inbounds %struct.State, %struct.State* %0, i32 0, i32 6
  %351 = getelementptr inbounds %struct.GPR, %struct.GPR* %350, i32 0, i32 15
  %352 = getelementptr inbounds %struct.Reg, %struct.Reg* %351, i32 0, i32 0
  %RBP.i3 = bitcast %union.anon* %352 to i64*
  %353 = load i64, i64* %PC.i2
  %354 = add i64 %353, 1
  store i64 %354, i64* %PC.i2
  %355 = getelementptr inbounds %struct.State, %struct.State* %0, i64 0, i32 6, i32 13, i32 0, i32 0
  %356 = load i64, i64* %355, align 8
  %357 = add i64 %356, 8
  %358 = inttoptr i64 %356 to i64*
  %359 = load i64, i64* %358
  store i64 %359, i64* %RBP.i3, align 8
  store i64 %357, i64* %355, align 8
  store %struct.Memory* %loadMem_403597, %struct.Memory** %MEMORY
  %loadMem_403598 = load %struct.Memory*, %struct.Memory** %MEMORY
  %360 = getelementptr inbounds %struct.State, %struct.State* %0, i32 0, i32 6
  %361 = getelementptr inbounds %struct.GPR, %struct.GPR* %360, i32 0, i32 33
  %362 = getelementptr inbounds %struct.Reg, %struct.Reg* %361, i32 0, i32 0
  %PC.i1 = bitcast %union.anon* %362 to i64*
  %363 = load i64, i64* %PC.i1
  %364 = add i64 %363, 1
  store i64 %364, i64* %PC.i1
  %365 = getelementptr inbounds %struct.State, %struct.State* %0, i64 0, i32 6, i32 33, i32 0, i32 0
  %366 = getelementptr inbounds %struct.State, %struct.State* %0, i64 0, i32 6, i32 13, i32 0, i32 0
  %367 = load i64, i64* %366, align 8
  %368 = inttoptr i64 %367 to i64*
  %369 = load i64, i64* %368
  store i64 %369, i64* %365, align 8
  %370 = add i64 %367, 8
  store i64 %370, i64* %366, align 8
  store %struct.Memory* %loadMem_403598, %struct.Memory** %MEMORY
  ret %struct.Memory* %loadMem_403598
}

define %struct.Memory* @routine_pushq__rbp(%struct.State* dereferenceable(3376), i64, %struct.Memory*) {
block_400478:
  %3 = getelementptr inbounds %struct.State, %struct.State* %0, i32 0, i32 6
  %4 = getelementptr inbounds %struct.GPR, %struct.GPR* %3, i32 0, i32 33
  %5 = getelementptr inbounds %struct.Reg, %struct.Reg* %4, i32 0, i32 0
  %PC = bitcast %union.anon* %5 to i64*
  %6 = getelementptr inbounds %struct.State, %struct.State* %0, i32 0, i32 6
  %7 = getelementptr inbounds %struct.GPR, %struct.GPR* %6, i32 0, i32 15
  %8 = getelementptr inbounds %struct.Reg, %struct.Reg* %7, i32 0, i32 0
  %RBP = bitcast %union.anon* %8 to i64*
  %9 = load i64, i64* %RBP
  %10 = load i64, i64* %PC
  %11 = add i64 %10, 1
  store i64 %11, i64* %PC
  %12 = getelementptr inbounds %struct.State, %struct.State* %0, i64 0, i32 6, i32 13, i32 0, i32 0
  %13 = load i64, i64* %12, align 8
  %14 = add i64 %13, -8
  %15 = inttoptr i64 %14 to i64*
  store i64 %9, i64* %15
  store i64 %14, i64* %12, align 8
  ret %struct.Memory* %2
}

define %struct.Memory* @routine_movq__rsp___rbp(%struct.State* dereferenceable(3376), i64, %struct.Memory*) {
block_400478:
  %3 = getelementptr inbounds %struct.State, %struct.State* %0, i32 0, i32 6
  %4 = getelementptr inbounds %struct.GPR, %struct.GPR* %3, i32 0, i32 33
  %5 = getelementptr inbounds %struct.Reg, %struct.Reg* %4, i32 0, i32 0
  %PC = bitcast %union.anon* %5 to i64*
  %6 = getelementptr inbounds %struct.State, %struct.State* %0, i32 0, i32 6
  %7 = getelementptr inbounds %struct.GPR, %struct.GPR* %6, i32 0, i32 13
  %8 = getelementptr inbounds %struct.Reg, %struct.Reg* %7, i32 0, i32 0
  %RSP = bitcast %union.anon* %8 to i64*
  %9 = getelementptr inbounds %struct.State, %struct.State* %0, i32 0, i32 6
  %10 = getelementptr inbounds %struct.GPR, %struct.GPR* %9, i32 0, i32 15
  %11 = getelementptr inbounds %struct.Reg, %struct.Reg* %10, i32 0, i32 0
  %RBP = bitcast %union.anon* %11 to i64*
  %12 = load i64, i64* %RSP
  %13 = load i64, i64* %PC
  %14 = add i64 %13, 3
  store i64 %14, i64* %PC
  store i64 %12, i64* %RBP, align 8
  ret %struct.Memory* %2
}

define %struct.Memory* @routine_movq__rdi__MINUS0x8__rbp_(%struct.State* dereferenceable(3376), i64, %struct.Memory*) {
block_400478:
  %3 = getelementptr inbounds %struct.State, %struct.State* %0, i32 0, i32 6
  %4 = getelementptr inbounds %struct.GPR, %struct.GPR* %3, i32 0, i32 33
  %5 = getelementptr inbounds %struct.Reg, %struct.Reg* %4, i32 0, i32 0
  %PC = bitcast %union.anon* %5 to i64*
  %6 = getelementptr inbounds %struct.State, %struct.State* %0, i32 0, i32 6
  %7 = getelementptr inbounds %struct.GPR, %struct.GPR* %6, i32 0, i32 11
  %8 = getelementptr inbounds %struct.Reg, %struct.Reg* %7, i32 0, i32 0
  %RDI = bitcast %union.anon* %8 to i64*
  %9 = getelementptr inbounds %struct.State, %struct.State* %0, i32 0, i32 6
  %10 = getelementptr inbounds %struct.GPR, %struct.GPR* %9, i32 0, i32 15
  %11 = getelementptr inbounds %struct.Reg, %struct.Reg* %10, i32 0, i32 0
  %RBP = bitcast %union.anon* %11 to i64*
  %12 = load i64, i64* %RBP
  %13 = sub i64 %12, 8
  %14 = load i64, i64* %RDI
  %15 = load i64, i64* %PC
  %16 = add i64 %15, 4
  store i64 %16, i64* %PC
  %17 = inttoptr i64 %13 to i64*
  store i64 %14, i64* %17
  ret %struct.Memory* %2
}

define %struct.Memory* @routine_movq__rsi__MINUS0x10__rbp_(%struct.State* dereferenceable(3376), i64, %struct.Memory*) {
block_400478:
  %3 = getelementptr inbounds %struct.State, %struct.State* %0, i32 0, i32 6
  %4 = getelementptr inbounds %struct.GPR, %struct.GPR* %3, i32 0, i32 33
  %5 = getelementptr inbounds %struct.Reg, %struct.Reg* %4, i32 0, i32 0
  %PC = bitcast %union.anon* %5 to i64*
  %6 = getelementptr inbounds %struct.State, %struct.State* %0, i32 0, i32 6
  %7 = getelementptr inbounds %struct.GPR, %struct.GPR* %6, i32 0, i32 9
  %8 = getelementptr inbounds %struct.Reg, %struct.Reg* %7, i32 0, i32 0
  %RSI = bitcast %union.anon* %8 to i64*
  %9 = getelementptr inbounds %struct.State, %struct.State* %0, i32 0, i32 6
  %10 = getelementptr inbounds %struct.GPR, %struct.GPR* %9, i32 0, i32 15
  %11 = getelementptr inbounds %struct.Reg, %struct.Reg* %10, i32 0, i32 0
  %RBP = bitcast %union.anon* %11 to i64*
  %12 = load i64, i64* %RBP
  %13 = sub i64 %12, 16
  %14 = load i64, i64* %RSI
  %15 = load i64, i64* %PC
  %16 = add i64 %15, 4
  store i64 %16, i64* %PC
  %17 = inttoptr i64 %13 to i64*
  store i64 %14, i64* %17
  ret %struct.Memory* %2
}

define %struct.Memory* @routine_movq__rdx__MINUS0x18__rbp_(%struct.State* dereferenceable(3376), i64, %struct.Memory*) {
block_400478:
  %3 = getelementptr inbounds %struct.State, %struct.State* %0, i32 0, i32 6
  %4 = getelementptr inbounds %struct.GPR, %struct.GPR* %3, i32 0, i32 33
  %5 = getelementptr inbounds %struct.Reg, %struct.Reg* %4, i32 0, i32 0
  %PC = bitcast %union.anon* %5 to i64*
  %6 = getelementptr inbounds %struct.State, %struct.State* %0, i32 0, i32 6
  %7 = getelementptr inbounds %struct.GPR, %struct.GPR* %6, i32 0, i32 7
  %8 = getelementptr inbounds %struct.Reg, %struct.Reg* %7, i32 0, i32 0
  %RDX = bitcast %union.anon* %8 to i64*
  %9 = getelementptr inbounds %struct.State, %struct.State* %0, i32 0, i32 6
  %10 = getelementptr inbounds %struct.GPR, %struct.GPR* %9, i32 0, i32 15
  %11 = getelementptr inbounds %struct.Reg, %struct.Reg* %10, i32 0, i32 0
  %RBP = bitcast %union.anon* %11 to i64*
  %12 = load i64, i64* %RBP
  %13 = sub i64 %12, 24
  %14 = load i64, i64* %RDX
  %15 = load i64, i64* %PC
  %16 = add i64 %15, 4
  store i64 %16, i64* %PC
  %17 = inttoptr i64 %13 to i64*
  store i64 %14, i64* %17
  ret %struct.Memory* %2
}

define %struct.Memory* @routine_movq_MINUS0x8__rbp____rax(%struct.State* dereferenceable(3376), i64, %struct.Memory*) {
block_400478:
  %3 = getelementptr inbounds %struct.State, %struct.State* %0, i32 0, i32 6
  %4 = getelementptr inbounds %struct.GPR, %struct.GPR* %3, i32 0, i32 33
  %5 = getelementptr inbounds %struct.Reg, %struct.Reg* %4, i32 0, i32 0
  %PC = bitcast %union.anon* %5 to i64*
  %6 = getelementptr inbounds %struct.State, %struct.State* %0, i32 0, i32 6
  %7 = getelementptr inbounds %struct.GPR, %struct.GPR* %6, i32 0, i32 1
  %8 = getelementptr inbounds %struct.Reg, %struct.Reg* %7, i32 0, i32 0
  %RAX = bitcast %union.anon* %8 to i64*
  %9 = getelementptr inbounds %struct.State, %struct.State* %0, i32 0, i32 6
  %10 = getelementptr inbounds %struct.GPR, %struct.GPR* %9, i32 0, i32 15
  %11 = getelementptr inbounds %struct.Reg, %struct.Reg* %10, i32 0, i32 0
  %RBP = bitcast %union.anon* %11 to i64*
  %12 = load i64, i64* %RBP
  %13 = sub i64 %12, 8
  %14 = load i64, i64* %PC
  %15 = add i64 %14, 4
  store i64 %15, i64* %PC
  %16 = inttoptr i64 %13 to i64*
  %17 = load i64, i64* %16
  store i64 %17, i64* %RAX, align 8
  ret %struct.Memory* %2
}

define %struct.Memory* @routine_cmpq_MINUS0x10__rbp____rax(%struct.State* dereferenceable(3376), i64, %struct.Memory*) {
block_400478:
  %3 = getelementptr inbounds %struct.State, %struct.State* %0, i32 0, i32 6
  %4 = getelementptr inbounds %struct.GPR, %struct.GPR* %3, i32 0, i32 33
  %5 = getelementptr inbounds %struct.Reg, %struct.Reg* %4, i32 0, i32 0
  %PC = bitcast %union.anon* %5 to i64*
  %6 = getelementptr inbounds %struct.State, %struct.State* %0, i32 0, i32 6
  %7 = getelementptr inbounds %struct.GPR, %struct.GPR* %6, i32 0, i32 1
  %8 = getelementptr inbounds %struct.Reg, %struct.Reg* %7, i32 0, i32 0
  %RAX = bitcast %union.anon* %8 to i64*
  %9 = getelementptr inbounds %struct.State, %struct.State* %0, i32 0, i32 6
  %10 = getelementptr inbounds %struct.GPR, %struct.GPR* %9, i32 0, i32 15
  %11 = getelementptr inbounds %struct.Reg, %struct.Reg* %10, i32 0, i32 0
  %RBP = bitcast %union.anon* %11 to i64*
  %12 = load i64, i64* %RAX
  %13 = load i64, i64* %RBP
  %14 = sub i64 %13, 16
  %15 = load i64, i64* %PC
  %16 = add i64 %15, 4
  store i64 %16, i64* %PC
  %17 = inttoptr i64 %14 to i64*
  %18 = load i64, i64* %17
  %19 = sub i64 %12, %18
  %20 = icmp ugt i64 %18, %12
  %21 = zext i1 %20 to i8
  %22 = getelementptr inbounds %struct.State, %struct.State* %0, i64 0, i32 2, i32 1
  store i8 %21, i8* %22, align 1
  %23 = trunc i64 %19 to i32
  %24 = and i32 %23, 255
  %25 = call i32 @llvm.ctpop.i32(i32 %24)
  %26 = trunc i32 %25 to i8
  %27 = and i8 %26, 1
  %28 = xor i8 %27, 1
  %29 = getelementptr inbounds %struct.State, %struct.State* %0, i64 0, i32 2, i32 3
  store i8 %28, i8* %29, align 1
  %30 = xor i64 %18, %12
  %31 = xor i64 %30, %19
  %32 = lshr i64 %31, 4
  %33 = trunc i64 %32 to i8
  %34 = and i8 %33, 1
  %35 = getelementptr inbounds %struct.State, %struct.State* %0, i64 0, i32 2, i32 5
  store i8 %34, i8* %35, align 1
  %36 = icmp eq i64 %19, 0
  %37 = zext i1 %36 to i8
  %38 = getelementptr inbounds %struct.State, %struct.State* %0, i64 0, i32 2, i32 7
  store i8 %37, i8* %38, align 1
  %39 = lshr i64 %19, 63
  %40 = trunc i64 %39 to i8
  %41 = getelementptr inbounds %struct.State, %struct.State* %0, i64 0, i32 2, i32 9
  store i8 %40, i8* %41, align 1
  %42 = lshr i64 %12, 63
  %43 = lshr i64 %18, 63
  %44 = xor i64 %43, %42
  %45 = xor i64 %39, %42
  %46 = add i64 %45, %44
  %47 = icmp eq i64 %46, 2
  %48 = zext i1 %47 to i8
  %49 = getelementptr inbounds %struct.State, %struct.State* %0, i64 0, i32 2, i32 13
  store i8 %48, i8* %49, align 1
  ret %struct.Memory* %2
}

define %struct.Memory* @routine_je_.L_403597(%struct.State* dereferenceable(3376), i64, %struct.Memory*, i8* %BRANCH_TAKEN, i64 %rel_off1, i64 %rel_off2, i64 %rel_off3) {
block_400478:
  %3 = getelementptr inbounds %struct.State, %struct.State* %0, i32 0, i32 6
  %4 = getelementptr inbounds %struct.GPR, %struct.GPR* %3, i32 0, i32 33
  %5 = getelementptr inbounds %struct.Reg, %struct.Reg* %4, i32 0, i32 0
  %PC = bitcast %union.anon* %5 to i64*
  %6 = load i64, i64* %PC
  %7 = add i64 %6, %rel_off1
  %8 = load i64, i64* %PC
  %9 = add i64 %8, %rel_off2
  %10 = load i64, i64* %PC
  %11 = add i64 %10, %rel_off3
  store i64 %11, i64* %PC
  %12 = getelementptr inbounds %struct.State, %struct.State* %0, i64 0, i32 2, i32 7
  %13 = load i8, i8* %12, align 1
  store i8 %13, i8* %BRANCH_TAKEN, align 1
  %14 = getelementptr inbounds %struct.State, %struct.State* %0, i64 0, i32 6, i32 33, i32 0, i32 0
  %15 = icmp ne i8 %13, 0
  %16 = select i1 %15, i64 %7, i64 %9
  store i64 %16, i64* %14, align 8
  ret %struct.Memory* %2
}

define %struct.Memory* @routine_movq__rax___rcx(%struct.State* dereferenceable(3376), i64, %struct.Memory*) {
block_400478:
  %3 = getelementptr inbounds %struct.State, %struct.State* %0, i32 0, i32 6
  %4 = getelementptr inbounds %struct.GPR, %struct.GPR* %3, i32 0, i32 33
  %5 = getelementptr inbounds %struct.Reg, %struct.Reg* %4, i32 0, i32 0
  %PC = bitcast %union.anon* %5 to i64*
  %6 = getelementptr inbounds %struct.State, %struct.State* %0, i32 0, i32 6
  %7 = getelementptr inbounds %struct.GPR, %struct.GPR* %6, i32 0, i32 1
  %8 = getelementptr inbounds %struct.Reg, %struct.Reg* %7, i32 0, i32 0
  %RAX = bitcast %union.anon* %8 to i64*
  %9 = getelementptr inbounds %struct.State, %struct.State* %0, i32 0, i32 6
  %10 = getelementptr inbounds %struct.GPR, %struct.GPR* %9, i32 0, i32 5
  %11 = getelementptr inbounds %struct.Reg, %struct.Reg* %10, i32 0, i32 0
  %RCX = bitcast %union.anon* %11 to i64*
  %12 = load i64, i64* %RAX
  %13 = load i64, i64* %PC
  %14 = add i64 %13, 3
  store i64 %14, i64* %PC
  store i64 %12, i64* %RCX, align 8
  ret %struct.Memory* %2
}

define %struct.Memory* @routine_addq__0x8___rcx(%struct.State* dereferenceable(3376), i64, %struct.Memory*) {
block_400478:
  %3 = getelementptr inbounds %struct.State, %struct.State* %0, i32 0, i32 6
  %4 = getelementptr inbounds %struct.GPR, %struct.GPR* %3, i32 0, i32 33
  %5 = getelementptr inbounds %struct.Reg, %struct.Reg* %4, i32 0, i32 0
  %PC = bitcast %union.anon* %5 to i64*
  %6 = getelementptr inbounds %struct.State, %struct.State* %0, i32 0, i32 6
  %7 = getelementptr inbounds %struct.GPR, %struct.GPR* %6, i32 0, i32 5
  %8 = getelementptr inbounds %struct.Reg, %struct.Reg* %7, i32 0, i32 0
  %RCX = bitcast %union.anon* %8 to i64*
  %9 = load i64, i64* %RCX
  %10 = load i64, i64* %PC
  %11 = add i64 %10, 4
  store i64 %11, i64* %PC
  %12 = add i64 8, %9
  store i64 %12, i64* %RCX, align 8
  %13 = icmp ult i64 %12, %9
  %14 = icmp ult i64 %12, 8
  %15 = or i1 %13, %14
  %16 = zext i1 %15 to i8
  %17 = getelementptr inbounds %struct.State, %struct.State* %0, i64 0, i32 2, i32 1
  store i8 %16, i8* %17, align 1
  %18 = trunc i64 %12 to i32
  %19 = and i32 %18, 255
  %20 = call i32 @llvm.ctpop.i32(i32 %19)
  %21 = trunc i32 %20 to i8
  %22 = and i8 %21, 1
  %23 = xor i8 %22, 1
  %24 = getelementptr inbounds %struct.State, %struct.State* %0, i64 0, i32 2, i32 3
  store i8 %23, i8* %24, align 1
  %25 = xor i64 8, %9
  %26 = xor i64 %25, %12
  %27 = lshr i64 %26, 4
  %28 = trunc i64 %27 to i8
  %29 = and i8 %28, 1
  %30 = getelementptr inbounds %struct.State, %struct.State* %0, i64 0, i32 2, i32 5
  store i8 %29, i8* %30, align 1
  %31 = icmp eq i64 %12, 0
  %32 = zext i1 %31 to i8
  %33 = getelementptr inbounds %struct.State, %struct.State* %0, i64 0, i32 2, i32 7
  store i8 %32, i8* %33, align 1
  %34 = lshr i64 %12, 63
  %35 = trunc i64 %34 to i8
  %36 = getelementptr inbounds %struct.State, %struct.State* %0, i64 0, i32 2, i32 9
  store i8 %35, i8* %36, align 1
  %37 = lshr i64 %9, 63
  %38 = xor i64 %34, %37
  %39 = add i64 %38, %34
  %40 = icmp eq i64 %39, 2
  %41 = zext i1 %40 to i8
  %42 = getelementptr inbounds %struct.State, %struct.State* %0, i64 0, i32 2, i32 13
  store i8 %41, i8* %42, align 1
  ret %struct.Memory* %2
}

define %struct.Memory* @routine_movq__rcx__MINUS0x8__rbp_(%struct.State* dereferenceable(3376), i64, %struct.Memory*) {
block_400478:
  %3 = getelementptr inbounds %struct.State, %struct.State* %0, i32 0, i32 6
  %4 = getelementptr inbounds %struct.GPR, %struct.GPR* %3, i32 0, i32 33
  %5 = getelementptr inbounds %struct.Reg, %struct.Reg* %4, i32 0, i32 0
  %PC = bitcast %union.anon* %5 to i64*
  %6 = getelementptr inbounds %struct.State, %struct.State* %0, i32 0, i32 6
  %7 = getelementptr inbounds %struct.GPR, %struct.GPR* %6, i32 0, i32 5
  %8 = getelementptr inbounds %struct.Reg, %struct.Reg* %7, i32 0, i32 0
  %RCX = bitcast %union.anon* %8 to i64*
  %9 = getelementptr inbounds %struct.State, %struct.State* %0, i32 0, i32 6
  %10 = getelementptr inbounds %struct.GPR, %struct.GPR* %9, i32 0, i32 15
  %11 = getelementptr inbounds %struct.Reg, %struct.Reg* %10, i32 0, i32 0
  %RBP = bitcast %union.anon* %11 to i64*
  %12 = load i64, i64* %RBP
  %13 = sub i64 %12, 8
  %14 = load i64, i64* %RCX
  %15 = load i64, i64* %PC
  %16 = add i64 %15, 4
  store i64 %16, i64* %PC
  %17 = inttoptr i64 %13 to i64*
  store i64 %14, i64* %17
  ret %struct.Memory* %2
}

define %struct.Memory* @routine_movq_MINUS0x18__rbp____rcx(%struct.State* dereferenceable(3376), i64, %struct.Memory*) {
block_400478:
  %3 = getelementptr inbounds %struct.State, %struct.State* %0, i32 0, i32 6
  %4 = getelementptr inbounds %struct.GPR, %struct.GPR* %3, i32 0, i32 33
  %5 = getelementptr inbounds %struct.Reg, %struct.Reg* %4, i32 0, i32 0
  %PC = bitcast %union.anon* %5 to i64*
  %6 = getelementptr inbounds %struct.State, %struct.State* %0, i32 0, i32 6
  %7 = getelementptr inbounds %struct.GPR, %struct.GPR* %6, i32 0, i32 5
  %8 = getelementptr inbounds %struct.Reg, %struct.Reg* %7, i32 0, i32 0
  %RCX = bitcast %union.anon* %8 to i64*
  %9 = getelementptr inbounds %struct.State, %struct.State* %0, i32 0, i32 6
  %10 = getelementptr inbounds %struct.GPR, %struct.GPR* %9, i32 0, i32 15
  %11 = getelementptr inbounds %struct.Reg, %struct.Reg* %10, i32 0, i32 0
  %RBP = bitcast %union.anon* %11 to i64*
  %12 = load i64, i64* %RBP
  %13 = sub i64 %12, 24
  %14 = load i64, i64* %PC
  %15 = add i64 %14, 4
  store i64 %15, i64* %PC
  %16 = inttoptr i64 %13 to i64*
  %17 = load i64, i64* %16
  store i64 %17, i64* %RCX, align 8
  ret %struct.Memory* %2
}

define %struct.Memory* @routine_movq__rcx___rdx(%struct.State* dereferenceable(3376), i64, %struct.Memory*) {
block_400478:
  %3 = getelementptr inbounds %struct.State, %struct.State* %0, i32 0, i32 6
  %4 = getelementptr inbounds %struct.GPR, %struct.GPR* %3, i32 0, i32 33
  %5 = getelementptr inbounds %struct.Reg, %struct.Reg* %4, i32 0, i32 0
  %PC = bitcast %union.anon* %5 to i64*
  %6 = getelementptr inbounds %struct.State, %struct.State* %0, i32 0, i32 6
  %7 = getelementptr inbounds %struct.GPR, %struct.GPR* %6, i32 0, i32 5
  %8 = getelementptr inbounds %struct.Reg, %struct.Reg* %7, i32 0, i32 0
  %RCX = bitcast %union.anon* %8 to i64*
  %9 = getelementptr inbounds %struct.State, %struct.State* %0, i32 0, i32 6
  %10 = getelementptr inbounds %struct.GPR, %struct.GPR* %9, i32 0, i32 7
  %11 = getelementptr inbounds %struct.Reg, %struct.Reg* %10, i32 0, i32 0
  %RDX = bitcast %union.anon* %11 to i64*
  %12 = load i64, i64* %RCX
  %13 = load i64, i64* %PC
  %14 = add i64 %13, 3
  store i64 %14, i64* %PC
  store i64 %12, i64* %RDX, align 8
  ret %struct.Memory* %2
}

define %struct.Memory* @routine_addq__0x8___rdx(%struct.State* dereferenceable(3376), i64, %struct.Memory*) {
block_400478:
  %3 = getelementptr inbounds %struct.State, %struct.State* %0, i32 0, i32 6
  %4 = getelementptr inbounds %struct.GPR, %struct.GPR* %3, i32 0, i32 33
  %5 = getelementptr inbounds %struct.Reg, %struct.Reg* %4, i32 0, i32 0
  %PC = bitcast %union.anon* %5 to i64*
  %6 = getelementptr inbounds %struct.State, %struct.State* %0, i32 0, i32 6
  %7 = getelementptr inbounds %struct.GPR, %struct.GPR* %6, i32 0, i32 7
  %8 = getelementptr inbounds %struct.Reg, %struct.Reg* %7, i32 0, i32 0
  %RDX = bitcast %union.anon* %8 to i64*
  %9 = load i64, i64* %RDX
  %10 = load i64, i64* %PC
  %11 = add i64 %10, 4
  store i64 %11, i64* %PC
  %12 = add i64 8, %9
  store i64 %12, i64* %RDX, align 8
  %13 = icmp ult i64 %12, %9
  %14 = icmp ult i64 %12, 8
  %15 = or i1 %13, %14
  %16 = zext i1 %15 to i8
  %17 = getelementptr inbounds %struct.State, %struct.State* %0, i64 0, i32 2, i32 1
  store i8 %16, i8* %17, align 1
  %18 = trunc i64 %12 to i32
  %19 = and i32 %18, 255
  %20 = call i32 @llvm.ctpop.i32(i32 %19)
  %21 = trunc i32 %20 to i8
  %22 = and i8 %21, 1
  %23 = xor i8 %22, 1
  %24 = getelementptr inbounds %struct.State, %struct.State* %0, i64 0, i32 2, i32 3
  store i8 %23, i8* %24, align 1
  %25 = xor i64 8, %9
  %26 = xor i64 %25, %12
  %27 = lshr i64 %26, 4
  %28 = trunc i64 %27 to i8
  %29 = and i8 %28, 1
  %30 = getelementptr inbounds %struct.State, %struct.State* %0, i64 0, i32 2, i32 5
  store i8 %29, i8* %30, align 1
  %31 = icmp eq i64 %12, 0
  %32 = zext i1 %31 to i8
  %33 = getelementptr inbounds %struct.State, %struct.State* %0, i64 0, i32 2, i32 7
  store i8 %32, i8* %33, align 1
  %34 = lshr i64 %12, 63
  %35 = trunc i64 %34 to i8
  %36 = getelementptr inbounds %struct.State, %struct.State* %0, i64 0, i32 2, i32 9
  store i8 %35, i8* %36, align 1
  %37 = lshr i64 %9, 63
  %38 = xor i64 %34, %37
  %39 = add i64 %38, %34
  %40 = icmp eq i64 %39, 2
  %41 = zext i1 %40 to i8
  %42 = getelementptr inbounds %struct.State, %struct.State* %0, i64 0, i32 2, i32 13
  store i8 %41, i8* %42, align 1
  ret %struct.Memory* %2
}

define %struct.Memory* @routine_movq___rax____rax(%struct.State* dereferenceable(3376), i64, %struct.Memory*) {
block_400478:
  %3 = getelementptr inbounds %struct.State, %struct.State* %0, i32 0, i32 6
  %4 = getelementptr inbounds %struct.GPR, %struct.GPR* %3, i32 0, i32 33
  %5 = getelementptr inbounds %struct.Reg, %struct.Reg* %4, i32 0, i32 0
  %PC = bitcast %union.anon* %5 to i64*
  %6 = getelementptr inbounds %struct.State, %struct.State* %0, i32 0, i32 6
  %7 = getelementptr inbounds %struct.GPR, %struct.GPR* %6, i32 0, i32 1
  %8 = getelementptr inbounds %struct.Reg, %struct.Reg* %7, i32 0, i32 0
  %RAX = bitcast %union.anon* %8 to i64*
  %9 = load i64, i64* %RAX
  %10 = load i64, i64* %PC
  %11 = add i64 %10, 3
  store i64 %11, i64* %PC
  %12 = inttoptr i64 %9 to i64*
  %13 = load i64, i64* %12
  store i64 %13, i64* %RAX, align 8
  ret %struct.Memory* %2
}

define %struct.Memory* @routine_movq__rax____rcx_(%struct.State* dereferenceable(3376), i64, %struct.Memory*) {
block_400478:
  %3 = getelementptr inbounds %struct.State, %struct.State* %0, i32 0, i32 6
  %4 = getelementptr inbounds %struct.GPR, %struct.GPR* %3, i32 0, i32 33
  %5 = getelementptr inbounds %struct.Reg, %struct.Reg* %4, i32 0, i32 0
  %PC = bitcast %union.anon* %5 to i64*
  %6 = getelementptr inbounds %struct.State, %struct.State* %0, i32 0, i32 6
  %7 = getelementptr inbounds %struct.GPR, %struct.GPR* %6, i32 0, i32 1
  %8 = getelementptr inbounds %struct.Reg, %struct.Reg* %7, i32 0, i32 0
  %RAX = bitcast %union.anon* %8 to i64*
  %9 = getelementptr inbounds %struct.State, %struct.State* %0, i32 0, i32 6
  %10 = getelementptr inbounds %struct.GPR, %struct.GPR* %9, i32 0, i32 5
  %11 = getelementptr inbounds %struct.Reg, %struct.Reg* %10, i32 0, i32 0
  %RCX = bitcast %union.anon* %11 to i64*
  %12 = load i64, i64* %RCX
  %13 = load i64, i64* %RAX
  %14 = load i64, i64* %PC
  %15 = add i64 %14, 3
  store i64 %15, i64* %PC
  %16 = inttoptr i64 %12 to i64*
  store i64 %13, i64* %16
  ret %struct.Memory* %2
}

define %struct.Memory* @routine_jmpq_.L_403560(%struct.State* dereferenceable(3376), i64, %struct.Memory*, i64 %rel_off1, i64 %rel_off2) {
block_400478:
  %3 = getelementptr inbounds %struct.State, %struct.State* %0, i32 0, i32 6
  %4 = getelementptr inbounds %struct.GPR, %struct.GPR* %3, i32 0, i32 33
  %5 = getelementptr inbounds %struct.Reg, %struct.Reg* %4, i32 0, i32 0
  %PC = bitcast %union.anon* %5 to i64*
  %6 = load i64, i64* %PC
  %7 = add i64 %6, %rel_off1
  %8 = load i64, i64* %PC
  %9 = add i64 %8, %rel_off2
  store i64 %9, i64* %PC
  %10 = getelementptr inbounds %struct.State, %struct.State* %0, i64 0, i32 6, i32 33, i32 0, i32 0
  store i64 %7, i64* %10, align 8
  ret %struct.Memory* %2
}

define %struct.Memory* @routine_popq__rbp(%struct.State* dereferenceable(3376), i64, %struct.Memory*) {
block_400478:
  %3 = getelementptr inbounds %struct.State, %struct.State* %0, i32 0, i32 6
  %4 = getelementptr inbounds %struct.GPR, %struct.GPR* %3, i32 0, i32 33
  %5 = getelementptr inbounds %struct.Reg, %struct.Reg* %4, i32 0, i32 0
  %PC = bitcast %union.anon* %5 to i64*
  %6 = getelementptr inbounds %struct.State, %struct.State* %0, i32 0, i32 6
  %7 = getelementptr inbounds %struct.GPR, %struct.GPR* %6, i32 0, i32 15
  %8 = getelementptr inbounds %struct.Reg, %struct.Reg* %7, i32 0, i32 0
  %RBP = bitcast %union.anon* %8 to i64*
  %9 = load i64, i64* %PC
  %10 = add i64 %9, 1
  store i64 %10, i64* %PC
  %11 = getelementptr inbounds %struct.State, %struct.State* %0, i64 0, i32 6, i32 13, i32 0, i32 0
  %12 = load i64, i64* %11, align 8
  %13 = add i64 %12, 8
  %14 = inttoptr i64 %12 to i64*
  %15 = load i64, i64* %14
  store i64 %15, i64* %RBP, align 8
  store i64 %13, i64* %11, align 8
  ret %struct.Memory* %2
}

define %struct.Memory* @routine_retq(%struct.State* dereferenceable(3376), i64, %struct.Memory*) {
block_400478:
  %3 = getelementptr inbounds %struct.State, %struct.State* %0, i32 0, i32 6
  %4 = getelementptr inbounds %struct.GPR, %struct.GPR* %3, i32 0, i32 33
  %5 = getelementptr inbounds %struct.Reg, %struct.Reg* %4, i32 0, i32 0
  %PC = bitcast %union.anon* %5 to i64*
  %6 = load i64, i64* %PC
  %7 = add i64 %6, 1
  store i64 %7, i64* %PC
  %8 = getelementptr inbounds %struct.State, %struct.State* %0, i64 0, i32 6, i32 33, i32 0, i32 0
  %9 = getelementptr inbounds %struct.State, %struct.State* %0, i64 0, i32 6, i32 13, i32 0, i32 0
  %10 = load i64, i64* %9, align 8
  %11 = inttoptr i64 %10 to i64*
  %12 = load i64, i64* %11
  store i64 %12, i64* %8, align 8
  %13 = add i64 %10, 8
  store i64 %13, i64* %9, align 8
  ret %struct.Memory* %2
}

attributes #0 = { argmemonly nounwind }
attributes #1 = { nounwind readnone }
attributes #2 = { alwaysinline }
