; ModuleID = 'mcsema/test.proposed.ll'
source_filename = "llvm-link"
target datalayout = "e-m:e-i64:64-f80:128-n8:16:32:64-S128"
target triple = "x86_64-pc-linux-gnu-elf"

%union.anon = type { i64 }
%seg_400388__init_type = type <{ [23 x i8] }>
%seg_4003a0__text_type = type <{ [354 x i8] }>
%seg_400504__fini_type = type <{ [9 x i8] }>
%seg_400510__rodata_type = type <{ [4 x i8] }>
%seg_400514__eh_frame_hdr_type = type <{ [52 x i8] }>
%seg_400548__eh_frame_type = type <{ [208 x i8] }>
%seg_601018__data_type = type <{ [16 x i8] }>
%__bss_start_type = type <{ [8 x i8] }>
%struct.State = type { %struct.ArchState, [32 x %union.VectorReg], %struct.ArithFlags, %union.anon, %struct.Segments, %struct.AddressSpace, %struct.GPR, %struct.X87Stack, %struct.MMX, %struct.FPUStatusFlags, %union.anon, %union.FPU, %struct.SegmentCaches }
%struct.ArchState = type { i32, i32, %union.anon }
%union.VectorReg = type { %union.vec512_t }
%union.vec512_t = type { %struct.uint64v8_t }
%struct.uint64v8_t = type { [8 x i64] }
%struct.ArithFlags = type { i8, i8, i8, i8, i8, i8, i8, i8, i8, i8, i8, i8, i8, i8, i8, i8 }
%struct.Segments = type { i16, %union.SegmentSelector, i16, %union.SegmentSelector, i16, %union.SegmentSelector, i16, %union.SegmentSelector, i16, %union.SegmentSelector, i16, %union.SegmentSelector }
%union.SegmentSelector = type { i16 }
%struct.AddressSpace = type { i64, %struct.Reg, i64, %struct.Reg, i64, %struct.Reg, i64, %struct.Reg, i64, %struct.Reg, i64, %struct.Reg }
%struct.Reg = type { %union.anon }
%struct.GPR = type { i64, %struct.Reg, i64, %struct.Reg, i64, %struct.Reg, i64, %struct.Reg, i64, %struct.Reg, i64, %struct.Reg, i64, %struct.Reg, i64, %struct.Reg, i64, %struct.Reg, i64, %struct.Reg, i64, %struct.Reg, i64, %struct.Reg, i64, %struct.Reg, i64, %struct.Reg, i64, %struct.Reg, i64, %struct.Reg, i64, %struct.Reg }
%struct.X87Stack = type { [8 x %struct.anon.3] }
%struct.anon.3 = type { i64, double }
%struct.MMX = type { [8 x %struct.anon.4] }
%struct.anon.4 = type { i64, %union.vec64_t }
%union.vec64_t = type { %struct.uint64v1_t }
%struct.uint64v1_t = type { [1 x i64] }
%struct.FPUStatusFlags = type { i8, i8, i8, i8, i8, i8, i8, i8, i8, i8, i8, i8, i8, i8, i8, i8, i8, i8, i8, i8, [4 x i8] }
%union.FPU = type { %struct.anon.13 }
%struct.anon.13 = type { %struct.FpuFXSAVE, [96 x i8] }
%struct.FpuFXSAVE = type { %union.SegmentSelector, %union.SegmentSelector, %union.FPUAbridgedTagWord, i8, i16, i32, %union.SegmentSelector, i16, i32, %union.SegmentSelector, i16, %union.FPUControlStatus, %union.FPUControlStatus, [8 x %struct.FPUStackElem], [16 x %union.vec128_t] }
%union.FPUAbridgedTagWord = type { i8 }
%union.FPUControlStatus = type { i32 }
%struct.FPUStackElem = type { %union.anon.11, [6 x i8] }
%union.anon.11 = type { %struct.float80_t }
%struct.float80_t = type { [10 x i8] }
%union.vec128_t = type { %struct.uint128v1_t }
%struct.uint128v1_t = type { [1 x i128] }
%struct.SegmentCaches = type { %struct.SegmentShadow, %struct.SegmentShadow, %struct.SegmentShadow, %struct.SegmentShadow, %struct.SegmentShadow, %struct.SegmentShadow }
%struct.SegmentShadow = type { %union.anon, i32, i32 }
%struct.Memory = type opaque

@switch.table = private unnamed_addr constant [4 x i32] [i32 2048, i32 3072, i32 0, i32 1024]
@DR0 = external global i64, align 8
@DR1 = external global i64, align 8
@DR2 = external global i64, align 8
@DR3 = external global i64, align 8
@DR4 = external global i64, align 8
@DR5 = external global i64, align 8
@DR6 = external global i64, align 8
@DR7 = external global i64, align 8
@gCR0 = external global %union.anon, align 1
@gCR1 = external global %union.anon, align 1
@gCR2 = external global %union.anon, align 1
@gCR3 = external global %union.anon, align 1
@gCR4 = external global %union.anon, align 1
@gCR8 = external global %union.anon, align 1
@seg_400388__init = internal constant %seg_400388__init_type <{ [23 x i8] c"H\83\EC\08H\8B\05e\0C \00H\85\C0t\02\FF\D0H\83\C4\08\C3" }>
@seg_4003a0__text = internal constant %seg_4003a0__text_type <{ [354 x i8] c"1\EDI\89\D1^H\89\E2H\83\E4\F0PTI\C7\C0\00\05@\00H\C7\C1\90\04@\00H\C7\C7\88\04@\00\FF\15&\0C \00\F4\0F\1FD\00\00\F3\C3f.\0F\1F\84\00\00\00\00\00\0F\1F@\00U\B8(\10`\00H=(\10`\00H\89\E5t\17\B8\00\00\00\00H\85\C0t\0D]\BF(\10`\00\FF\E0\0F\1FD\00\00]\C3f\0F\1FD\00\00\BE(\10`\00UH\81\EE(\10`\00H\89\E5H\C1\FE\03H\89\F0H\C1\E8?H\01\C6H\D1\FEt\15\B8\00\00\00\00H\85\C0t\0B]\BF(\10`\00\FF\E0\0F\1F\00]\C3f\0F\1FD\00\00\80=\D1\0B \00\00u\17UH\89\E5\E8~\FF\FF\FF\C6\05\BF\0B \00\01]\C3\0F\1FD\00\00\F3\C3\0F\1F@\00f.\0F\1F\84\00\00\00\00\00UH\89\E5]\EB\89\90U\C3f\0F\1FD\00\00AWAVI\89\D7AUATL\8D%\9E\09 \00UH\8D-\9E\09 \00SA\89\FDI\89\F6L)\E5H\83\EC\08H\C1\FD\03\E8\C7\FE\FF\FFH\85\EDt 1\DB\0F\1F\84\00\00\00\00\00L\89\FAL\89\F6D\89\EFA\FF\14\DCH\83\C3\01H9\DDu\EAH\83\C4\08[]A\5CA]A^A_\C3\90f.\0F\1F\84\00\00\00\00\00\F3\C3" }>
@seg_400504__fini = internal constant %seg_400504__fini_type <{ [9 x i8] c"H\83\EC\08H\83\C4\08\C3" }>
@seg_400510__rodata = internal constant %seg_400510__rodata_type <{ [4 x i8] c"\01\00\02\00" }>
@seg_400514__eh_frame_hdr = internal constant %seg_400514__eh_frame_hdr_type <{ [52 x i8] c"\01\1B\03;0\00\00\00\05\00\00\00\8C\FE\FF\FFL\00\00\00\BC\FE\FF\FFx\00\00\00t\FF\FF\FF\8C\00\00\00|\FF\FF\FF\A4\00\00\00\EC\FF\FF\FF\EC\00\00\00" }>
@seg_400548__eh_frame = internal constant %seg_400548__eh_frame_type <{ [208 x i8] c"\14\00\00\00\00\00\00\00\01zR\00\01x\10\01\1B\0C\07\08\90\01\07\10\10\00\00\00\1C\00\00\008\FE\FF\FF+\00\00\00\00\00\00\00\14\00\00\00\00\00\00\00\01zR\00\01x\10\01\1B\0C\07\08\90\01\00\00\10\00\00\00\1C\00\00\00<\FE\FF\FF\02\00\00\00\00\00\00\00\14\00\00\000\00\00\00\E0\FE\FF\FF\02\00\00\00\00\00\00\00\00\00\00\00D\00\00\00H\00\00\00\D0\FE\FF\FFe\00\00\00\00B\0E\10\8F\02B\0E\18\8E\03E\0E \8D\04B\0E(\8C\05H\0E0\86\06H\0E8\83\07M\0E@r\0E8A\0E0A\0E(B\0E B\0E\18B\0E\10B\0E\08\00\10\00\00\00\90\00\00\00\F8\FE\FF\FF\02\00\00\00\00\00\00\00\00\00\00\00" }>
@seg_601018__data = internal global %seg_601018__data_type zeroinitializer
@__bss_start = global %__bss_start_type zeroinitializer
@0 = internal global i1 false

declare %struct.Memory* @__remill_error(%struct.State* dereferenceable(3376), i64, %struct.Memory*)

declare i32 @__remill_fpu_exception_test_and_clear(i32, i32)

; Function Attrs: argmemonly nounwind
declare void @llvm.lifetime.start(i64, i8* nocapture) #0

; Function Attrs: argmemonly nounwind
declare void @llvm.lifetime.end(i64, i8* nocapture) #0

; Function Attrs: nounwind readnone
declare i32 @llvm.ctpop.i32(i32) #1

; Function Attrs: nounwind readnone
declare i32 @llvm.bswap.i32(i32) #1

; Function Attrs: nounwind readnone
declare i64 @llvm.bswap.i64(i64) #1

; Function Attrs: nounwind readnone
declare i32 @llvm.cttz.i32(i32, i1) #1

; Function Attrs: nounwind readnone
declare i64 @llvm.cttz.i64(i64, i1) #1

; Function Attrs: nounwind readnone
declare i32 @llvm.ctlz.i32(i32, i1) #1

; Function Attrs: nounwind readnone
declare i64 @llvm.ctlz.i64(i64, i1) #1

; Function Attrs: argmemonly nounwind
declare void @llvm.memcpy.p0i8.p0i8.i64(i8* nocapture writeonly, i8* nocapture readonly, i64, i32, i1) #0

; Function Attrs: nounwind readnone
declare double @llvm.nearbyint.f64(double) #1

; Function Attrs: nounwind readnone
declare double @llvm.fabs.f64(double) #1

; Function Attrs: nounwind readnone
declare <4 x double> @llvm.nearbyint.v4f64(<4 x double>) #1

; Function Attrs: nounwind readnone
declare <4 x double> @llvm.fabs.v4f64(<4 x double>) #1

; Function Attrs: nounwind readnone
declare double @llvm.trunc.f64(double) #1

; Function Attrs: nounwind readnone
declare <4 x double> @llvm.trunc.v4f64(<4 x double>) #1

; Function Attrs: nounwind readnone
declare float @llvm.nearbyint.f32(float) #1

; Function Attrs: nounwind readnone
declare float @llvm.fabs.f32(float) #1

; Function Attrs: nounwind readnone
declare <4 x float> @llvm.nearbyint.v4f32(<4 x float>) #1

; Function Attrs: nounwind readnone
declare <4 x float> @llvm.fabs.v4f32(<4 x float>) #1

; Function Attrs: nounwind readnone
declare float @llvm.trunc.f32(float) #1

; Function Attrs: nounwind readnone
declare <4 x float> @llvm.trunc.v4f32(<4 x float>) #1

; Function Attrs: argmemonly nounwind
declare void @llvm.memset.p0i8.i64(i8* nocapture writeonly, i8, i64, i32, i1) #0

declare double @atan(double) local_unnamed_addr

declare double @cos(double) local_unnamed_addr

declare double @sin(double) local_unnamed_addr

declare double @sqrt(double) local_unnamed_addr

declare double @tan(double) local_unnamed_addr

declare extern_weak x86_64_sysvcc i64 @abort()

declare extern_weak x86_64_sysvcc i64 @abs(i64)

declare extern_weak x86_64_sysvcc i64 @asin(i64)

declare extern_weak x86_64_sysvcc i64 @atof(i64)

declare extern_weak x86_64_sysvcc i64 @atoi(i64)

declare extern_weak x86_64_sysvcc i64 @atol(i64)

declare extern_weak x86_64_sysvcc i64 @calloc(i64, i64)

declare extern_weak x86_64_sysvcc i64 @clock()

declare extern_weak x86_64_sysvcc i64 @cosf(i64)

declare extern_weak x86_64_sysvcc i64 @exit(i64)

declare extern_weak x86_64_sysvcc i64 @exp(i64)

declare extern_weak x86_64_sysvcc i64 @fflush(i64)

declare extern_weak x86_64_sysvcc i64 @floor(i64)

declare extern_weak x86_64_sysvcc i64 @fprintf(i64, i64, i64, i64, i64, i64, i64, i64, i64, i64, i64, i64, i64, i64, i64, i64)

declare extern_weak x86_64_sysvcc i64 @fputs(i64, i64)

declare extern_weak x86_64_sysvcc i64 @free(i64)

declare extern_weak x86_64_sysvcc i64 @fwrite(i64, i64, i64, i64)

declare extern_weak x86_64_sysvcc i64 @getchar()

declare extern_weak x86_64_sysvcc i64 @gettimeofday(i64, i64)

declare extern_weak x86_64_sysvcc i64 @__isoc99_fscanf(i64, i64, i64, i64, i64, i64, i64, i64, i64, i64, i64, i64, i64, i64, i64, i64)

declare extern_weak x86_64_sysvcc i64 @__isoc99_scanf(i64, i64, i64, i64, i64, i64, i64, i64, i64, i64, i64, i64, i64, i64, i64, i64)

declare extern_weak x86_64_sysvcc i64 @__isoc99_sscanf(i64, i64, i64, i64, i64, i64, i64, i64, i64, i64, i64, i64, i64, i64, i64, i64)

declare extern_weak x86_64_sysvcc i64 @log(i64)

declare extern_weak x86_64_sysvcc i64 @lrand48()

declare extern_weak x86_64_sysvcc i64 @malloc(i64)

declare extern_weak x86_64_sysvcc i64 @memalign(i64, i64)

declare extern_weak x86_64_sysvcc i64 @memcpy(i64, i64, i64)

declare extern_weak x86_64_sysvcc i64 @memset(i64, i64, i64)

declare extern_weak x86_64_sysvcc i64 @perror(i64)

declare extern_weak x86_64_sysvcc i64 @posix_memalign(i64, i64, i64)

declare extern_weak x86_64_sysvcc i64 @pow(i64, i64)

declare extern_weak x86_64_sysvcc i64 @printf(i64, i64, i64, i64, i64, i64, i64, i64, i64, i64, i64, i64, i64, i64, i64, i64)

declare extern_weak x86_64_sysvcc i64 @putchar(i64)

declare extern_weak x86_64_sysvcc i64 @puts(i64)

declare extern_weak x86_64_sysvcc i64 @rand()

declare extern_weak x86_64_sysvcc i64 @random()

declare extern_weak x86_64_sysvcc i64 @realloc(i64, i64)

declare extern_weak x86_64_sysvcc i64 @seed48(i64)

declare extern_weak x86_64_sysvcc i64 @sinf(i64)

declare extern_weak x86_64_sysvcc i64 @sprintf(i64, i64, i64, i64, i64, i64, i64, i64, i64, i64, i64, i64, i64, i64, i64, i64)

declare extern_weak x86_64_sysvcc i64 @srand(i64)

declare extern_weak x86_64_sysvcc i64 @strcat(i64, i64)

declare extern_weak x86_64_sysvcc i64 @strcmp(i64, i64)

declare extern_weak x86_64_sysvcc i64 @strcpy(i64, i64)

declare extern_weak x86_64_sysvcc i64 @strdup(i64)

declare extern_weak x86_64_sysvcc i64 @strlen(i64)

declare extern_weak x86_64_sysvcc i64 @strncmp(i64, i64, i64)

declare extern_weak x86_64_sysvcc i64 @strtoll(i64, i64, i64)

declare extern_weak x86_64_sysvcc i64 @time(i64)

declare extern_weak x86_64_sysvcc i64 @ungetc(i64, i64)

declare extern_weak x86_64_sysvcc i64 @pthread_join(i64, i64)

declare extern_weak x86_64_sysvcc i64 @pthread_create(i64, i64, i64, i64)

declare %struct.Memory* @__remill_function_call(%struct.State* dereferenceable(3376), i64, %struct.Memory*)

declare %struct.Memory* @ext_sqrt(%struct.State* noalias dereferenceable(3376), i64, %struct.Memory* noalias)

declare %struct.Memory* @ext_atan(%struct.State* noalias dereferenceable(3376), i64, %struct.Memory* noalias)

declare %struct.Memory* @ext_cos(%struct.State* noalias dereferenceable(3376), i64, %struct.Memory* noalias)

declare %struct.Memory* @ext_tan(%struct.State* noalias dereferenceable(3376), i64, %struct.Memory* noalias)

declare %struct.Memory* @ext_sin(%struct.State* noalias dereferenceable(3376), i64, %struct.Memory* noalias)

declare %struct.Memory* @sub_4a8b20.add_to_entry_list(%struct.State* noalias dereferenceable(3376), i64, %struct.Memory* noalias readnone returned)

; Function Attrs: alwaysinline
define %struct.Memory* @add_to_test_array(%struct.State* noalias, i64, %struct.Memory* noalias) #2 {
entry:
  %3 = getelementptr inbounds %struct.State, %struct.State* %0, i64 0, i32 6, i32 33, i32 0, i32 0
  store i64 %1, i64* %3, align 8
  %BRANCH_TAKEN = alloca i8, align 1
  store i8 0, i8* %BRANCH_TAKEN, align 1
  %MEMORY = alloca %struct.Memory*, align 8
  store %struct.Memory* %2, %struct.Memory** %MEMORY, align 8
  %loadMem_4a8530 = load %struct.Memory*, %struct.Memory** %MEMORY
  %4 = getelementptr inbounds %struct.State, %struct.State* %0, i32 0, i32 6
  %5 = getelementptr inbounds %struct.GPR, %struct.GPR* %4, i32 0, i32 33
  %6 = getelementptr inbounds %struct.Reg, %struct.Reg* %5, i32 0, i32 0
  %PC.i = bitcast %union.anon* %6 to i64*
  %7 = getelementptr inbounds %struct.State, %struct.State* %0, i32 0, i32 6
  %8 = getelementptr inbounds %struct.GPR, %struct.GPR* %7, i32 0, i32 15
  %9 = getelementptr inbounds %struct.Reg, %struct.Reg* %8, i32 0, i32 0
  %RBP.i = bitcast %union.anon* %9 to i64*
  %10 = load i64, i64* %RBP.i
  %11 = load i64, i64* %PC.i
  %12 = add i64 %11, 1
  store i64 %12, i64* %PC.i
  %13 = getelementptr inbounds %struct.State, %struct.State* %0, i64 0, i32 6, i32 13, i32 0, i32 0
  %14 = load i64, i64* %13, align 8
  %15 = add i64 %14, -8
  %16 = inttoptr i64 %15 to i64*
  store i64 %10, i64* %16
  store i64 %15, i64* %13, align 8
  store %struct.Memory* %loadMem_4a8530, %struct.Memory** %MEMORY
  %loadMem_4a8531 = load %struct.Memory*, %struct.Memory** %MEMORY
  %17 = getelementptr inbounds %struct.State, %struct.State* %0, i32 0, i32 6
  %18 = getelementptr inbounds %struct.GPR, %struct.GPR* %17, i32 0, i32 33
  %19 = getelementptr inbounds %struct.Reg, %struct.Reg* %18, i32 0, i32 0
  %PC.i18 = bitcast %union.anon* %19 to i64*
  %20 = getelementptr inbounds %struct.State, %struct.State* %0, i32 0, i32 6
  %21 = getelementptr inbounds %struct.GPR, %struct.GPR* %20, i32 0, i32 13
  %22 = getelementptr inbounds %struct.Reg, %struct.Reg* %21, i32 0, i32 0
  %RSP.i19 = bitcast %union.anon* %22 to i64*
  %23 = getelementptr inbounds %struct.State, %struct.State* %0, i32 0, i32 6
  %24 = getelementptr inbounds %struct.GPR, %struct.GPR* %23, i32 0, i32 15
  %25 = getelementptr inbounds %struct.Reg, %struct.Reg* %24, i32 0, i32 0
  %RBP.i20 = bitcast %union.anon* %25 to i64*
  %26 = load i64, i64* %RSP.i19
  %27 = load i64, i64* %PC.i18
  %28 = add i64 %27, 3
  store i64 %28, i64* %PC.i18
  store i64 %26, i64* %RBP.i20, align 8
  store %struct.Memory* %loadMem_4a8531, %struct.Memory** %MEMORY
  %loadMem_4a8534 = load %struct.Memory*, %struct.Memory** %MEMORY
  %29 = getelementptr inbounds %struct.State, %struct.State* %0, i32 0, i32 6
  %30 = getelementptr inbounds %struct.GPR, %struct.GPR* %29, i32 0, i32 33
  %31 = getelementptr inbounds %struct.Reg, %struct.Reg* %30, i32 0, i32 0
  %PC.i51 = bitcast %union.anon* %31 to i64*
  %32 = getelementptr inbounds %struct.State, %struct.State* %0, i32 0, i32 6
  %33 = getelementptr inbounds %struct.GPR, %struct.GPR* %32, i32 0, i32 13
  %34 = getelementptr inbounds %struct.Reg, %struct.Reg* %33, i32 0, i32 0
  %RSP.i52 = bitcast %union.anon* %34 to i64*
  %35 = load i64, i64* %RSP.i52
  %36 = load i64, i64* %PC.i51
  %37 = add i64 %36, 4
  store i64 %37, i64* %PC.i51
  %38 = sub i64 %35, 32
  store i64 %38, i64* %RSP.i52, align 8
  %39 = icmp ult i64 %35, 32
  %40 = zext i1 %39 to i8
  %41 = getelementptr inbounds %struct.State, %struct.State* %0, i64 0, i32 2, i32 1
  store i8 %40, i8* %41, align 1
  %42 = trunc i64 %38 to i32
  %43 = and i32 %42, 255
  %44 = call i32 @llvm.ctpop.i32(i32 %43)
  %45 = trunc i32 %44 to i8
  %46 = and i8 %45, 1
  %47 = xor i8 %46, 1
  %48 = getelementptr inbounds %struct.State, %struct.State* %0, i64 0, i32 2, i32 3
  store i8 %47, i8* %48, align 1
  %49 = xor i64 32, %35
  %50 = xor i64 %49, %38
  %51 = lshr i64 %50, 4
  %52 = trunc i64 %51 to i8
  %53 = and i8 %52, 1
  %54 = getelementptr inbounds %struct.State, %struct.State* %0, i64 0, i32 2, i32 5
  store i8 %53, i8* %54, align 1
  %55 = icmp eq i64 %38, 0
  %56 = zext i1 %55 to i8
  %57 = getelementptr inbounds %struct.State, %struct.State* %0, i64 0, i32 2, i32 7
  store i8 %56, i8* %57, align 1
  %58 = lshr i64 %38, 63
  %59 = trunc i64 %58 to i8
  %60 = getelementptr inbounds %struct.State, %struct.State* %0, i64 0, i32 2, i32 9
  store i8 %59, i8* %60, align 1
  %61 = lshr i64 %35, 63
  %62 = xor i64 %58, %61
  %63 = add i64 %62, %61
  %64 = icmp eq i64 %63, 2
  %65 = zext i1 %64 to i8
  %66 = getelementptr inbounds %struct.State, %struct.State* %0, i64 0, i32 2, i32 13
  store i8 %65, i8* %66, align 1
  store %struct.Memory* %loadMem_4a8534, %struct.Memory** %MEMORY
  %loadMem_4a8538 = load %struct.Memory*, %struct.Memory** %MEMORY
  %67 = getelementptr inbounds %struct.State, %struct.State* %0, i32 0, i32 6
  %68 = getelementptr inbounds %struct.GPR, %struct.GPR* %67, i32 0, i32 33
  %69 = getelementptr inbounds %struct.Reg, %struct.Reg* %68, i32 0, i32 0
  %PC.i49 = bitcast %union.anon* %69 to i64*
  %70 = getelementptr inbounds %struct.State, %struct.State* %0, i32 0, i32 6
  %71 = getelementptr inbounds %struct.GPR, %struct.GPR* %70, i32 0, i32 1
  %72 = getelementptr inbounds %struct.Reg, %struct.Reg* %71, i32 0, i32 0
  %RAX.i50 = bitcast %union.anon* %72 to i64*
  %73 = load i64, i64* %PC.i49
  %74 = add i64 %73, 5
  store i64 %74, i64* %PC.i49
  store i64 4096, i64* %RAX.i50, align 8
  store %struct.Memory* %loadMem_4a8538, %struct.Memory** %MEMORY
  %loadMem_4a853d = load %struct.Memory*, %struct.Memory** %MEMORY
  %75 = getelementptr inbounds %struct.State, %struct.State* %0, i32 0, i32 6
  %76 = getelementptr inbounds %struct.GPR, %struct.GPR* %75, i32 0, i32 33
  %77 = getelementptr inbounds %struct.Reg, %struct.Reg* %76, i32 0, i32 0
  %PC.i46 = bitcast %union.anon* %77 to i64*
  %78 = getelementptr inbounds %struct.State, %struct.State* %0, i32 0, i32 6
  %79 = getelementptr inbounds %struct.GPR, %struct.GPR* %78, i32 0, i32 11
  %80 = getelementptr inbounds %struct.Reg, %struct.Reg* %79, i32 0, i32 0
  %RDI.i47 = bitcast %union.anon* %80 to i64*
  %81 = getelementptr inbounds %struct.State, %struct.State* %0, i32 0, i32 6
  %82 = getelementptr inbounds %struct.GPR, %struct.GPR* %81, i32 0, i32 15
  %83 = getelementptr inbounds %struct.Reg, %struct.Reg* %82, i32 0, i32 0
  %RBP.i48 = bitcast %union.anon* %83 to i64*
  %84 = load i64, i64* %RBP.i48
  %85 = sub i64 %84, 8
  %86 = load i64, i64* %RDI.i47
  %87 = load i64, i64* %PC.i46
  %88 = add i64 %87, 4
  store i64 %88, i64* %PC.i46
  %89 = inttoptr i64 %85 to i64*
  store i64 %86, i64* %89
  store %struct.Memory* %loadMem_4a853d, %struct.Memory** %MEMORY
  %loadMem_4a8541 = load %struct.Memory*, %struct.Memory** %MEMORY
  %90 = getelementptr inbounds %struct.State, %struct.State* %0, i32 0, i32 6
  %91 = getelementptr inbounds %struct.GPR, %struct.GPR* %90, i32 0, i32 33
  %92 = getelementptr inbounds %struct.Reg, %struct.Reg* %91, i32 0, i32 0
  %PC.i44 = bitcast %union.anon* %92 to i64*
  %93 = getelementptr inbounds %struct.State, %struct.State* %0, i32 0, i32 6
  %94 = getelementptr inbounds %struct.GPR, %struct.GPR* %93, i32 0, i32 9
  %95 = getelementptr inbounds %struct.Reg, %struct.Reg* %94, i32 0, i32 0
  %ESI.i = bitcast %union.anon* %95 to i32*
  %96 = getelementptr inbounds %struct.State, %struct.State* %0, i32 0, i32 6
  %97 = getelementptr inbounds %struct.GPR, %struct.GPR* %96, i32 0, i32 15
  %98 = getelementptr inbounds %struct.Reg, %struct.Reg* %97, i32 0, i32 0
  %RBP.i45 = bitcast %union.anon* %98 to i64*
  %99 = load i64, i64* %RBP.i45
  %100 = sub i64 %99, 12
  %101 = load i32, i32* %ESI.i
  %102 = zext i32 %101 to i64
  %103 = load i64, i64* %PC.i44
  %104 = add i64 %103, 3
  store i64 %104, i64* %PC.i44
  %105 = inttoptr i64 %100 to i32*
  store i32 %101, i32* %105
  store %struct.Memory* %loadMem_4a8541, %struct.Memory** %MEMORY
  %loadMem_4a8544 = load %struct.Memory*, %struct.Memory** %MEMORY
  %106 = getelementptr inbounds %struct.State, %struct.State* %0, i32 0, i32 6
  %107 = getelementptr inbounds %struct.GPR, %struct.GPR* %106, i32 0, i32 33
  %108 = getelementptr inbounds %struct.Reg, %struct.Reg* %107, i32 0, i32 0
  %PC.i41 = bitcast %union.anon* %108 to i64*
  %109 = getelementptr inbounds %struct.State, %struct.State* %0, i32 0, i32 6
  %110 = getelementptr inbounds %struct.GPR, %struct.GPR* %109, i32 0, i32 7
  %111 = getelementptr inbounds %struct.Reg, %struct.Reg* %110, i32 0, i32 0
  %EDX.i42 = bitcast %union.anon* %111 to i32*
  %112 = getelementptr inbounds %struct.State, %struct.State* %0, i32 0, i32 6
  %113 = getelementptr inbounds %struct.GPR, %struct.GPR* %112, i32 0, i32 15
  %114 = getelementptr inbounds %struct.Reg, %struct.Reg* %113, i32 0, i32 0
  %RBP.i43 = bitcast %union.anon* %114 to i64*
  %115 = load i64, i64* %RBP.i43
  %116 = sub i64 %115, 16
  %117 = load i32, i32* %EDX.i42
  %118 = zext i32 %117 to i64
  %119 = load i64, i64* %PC.i41
  %120 = add i64 %119, 3
  store i64 %120, i64* %PC.i41
  %121 = inttoptr i64 %116 to i32*
  store i32 %117, i32* %121
  store %struct.Memory* %loadMem_4a8544, %struct.Memory** %MEMORY
  %loadMem_4a8547 = load %struct.Memory*, %struct.Memory** %MEMORY
  %122 = getelementptr inbounds %struct.State, %struct.State* %0, i32 0, i32 6
  %123 = getelementptr inbounds %struct.GPR, %struct.GPR* %122, i32 0, i32 33
  %124 = getelementptr inbounds %struct.Reg, %struct.Reg* %123, i32 0, i32 0
  %PC.i38 = bitcast %union.anon* %124 to i64*
  %125 = getelementptr inbounds %struct.State, %struct.State* %0, i32 0, i32 6
  %126 = getelementptr inbounds %struct.GPR, %struct.GPR* %125, i32 0, i32 5
  %127 = getelementptr inbounds %struct.Reg, %struct.Reg* %126, i32 0, i32 0
  %ECX.i39 = bitcast %union.anon* %127 to i32*
  %128 = getelementptr inbounds %struct.State, %struct.State* %0, i32 0, i32 6
  %129 = getelementptr inbounds %struct.GPR, %struct.GPR* %128, i32 0, i32 15
  %130 = getelementptr inbounds %struct.Reg, %struct.Reg* %129, i32 0, i32 0
  %RBP.i40 = bitcast %union.anon* %130 to i64*
  %131 = load i64, i64* %RBP.i40
  %132 = sub i64 %131, 20
  %133 = load i32, i32* %ECX.i39
  %134 = zext i32 %133 to i64
  %135 = load i64, i64* %PC.i38
  %136 = add i64 %135, 3
  store i64 %136, i64* %PC.i38
  %137 = inttoptr i64 %132 to i32*
  store i32 %133, i32* %137
  store %struct.Memory* %loadMem_4a8547, %struct.Memory** %MEMORY
  %loadMem_4a854a = load %struct.Memory*, %struct.Memory** %MEMORY
  %138 = getelementptr inbounds %struct.State, %struct.State* %0, i32 0, i32 6
  %139 = getelementptr inbounds %struct.GPR, %struct.GPR* %138, i32 0, i32 33
  %140 = getelementptr inbounds %struct.Reg, %struct.Reg* %139, i32 0, i32 0
  %PC.i35 = bitcast %union.anon* %140 to i64*
  %141 = getelementptr inbounds %struct.State, %struct.State* %0, i32 0, i32 6
  %142 = getelementptr inbounds %struct.GPR, %struct.GPR* %141, i32 0, i32 11
  %143 = getelementptr inbounds %struct.Reg, %struct.Reg* %142, i32 0, i32 0
  %RDI.i36 = bitcast %union.anon* %143 to i64*
  %144 = getelementptr inbounds %struct.State, %struct.State* %0, i32 0, i32 6
  %145 = getelementptr inbounds %struct.GPR, %struct.GPR* %144, i32 0, i32 15
  %146 = getelementptr inbounds %struct.Reg, %struct.Reg* %145, i32 0, i32 0
  %RBP.i37 = bitcast %union.anon* %146 to i64*
  %147 = load i64, i64* %RBP.i37
  %148 = sub i64 %147, 8
  %149 = load i64, i64* %PC.i35
  %150 = add i64 %149, 4
  store i64 %150, i64* %PC.i35
  %151 = inttoptr i64 %148 to i64*
  %152 = load i64, i64* %151
  store i64 %152, i64* %RDI.i36, align 8
  store %struct.Memory* %loadMem_4a854a, %struct.Memory** %MEMORY
  %loadMem_4a854e = load %struct.Memory*, %struct.Memory** %MEMORY
  %153 = getelementptr inbounds %struct.State, %struct.State* %0, i32 0, i32 6
  %154 = getelementptr inbounds %struct.GPR, %struct.GPR* %153, i32 0, i32 33
  %155 = getelementptr inbounds %struct.Reg, %struct.Reg* %154, i32 0, i32 0
  %PC.i32 = bitcast %union.anon* %155 to i64*
  %156 = getelementptr inbounds %struct.State, %struct.State* %0, i32 0, i32 6
  %157 = getelementptr inbounds %struct.GPR, %struct.GPR* %156, i32 0, i32 5
  %158 = getelementptr inbounds %struct.Reg, %struct.Reg* %157, i32 0, i32 0
  %RCX.i33 = bitcast %union.anon* %158 to i64*
  %159 = getelementptr inbounds %struct.State, %struct.State* %0, i32 0, i32 6
  %160 = getelementptr inbounds %struct.GPR, %struct.GPR* %159, i32 0, i32 15
  %161 = getelementptr inbounds %struct.Reg, %struct.Reg* %160, i32 0, i32 0
  %RBP.i34 = bitcast %union.anon* %161 to i64*
  %162 = load i64, i64* %RBP.i34
  %163 = sub i64 %162, 12
  %164 = load i64, i64* %PC.i32
  %165 = add i64 %164, 3
  store i64 %165, i64* %PC.i32
  %166 = inttoptr i64 %163 to i32*
  %167 = load i32, i32* %166
  %168 = zext i32 %167 to i64
  store i64 %168, i64* %RCX.i33, align 8
  store %struct.Memory* %loadMem_4a854e, %struct.Memory** %MEMORY
  %loadMem_4a8551 = load %struct.Memory*, %struct.Memory** %MEMORY
  %169 = getelementptr inbounds %struct.State, %struct.State* %0, i32 0, i32 6
  %170 = getelementptr inbounds %struct.GPR, %struct.GPR* %169, i32 0, i32 33
  %171 = getelementptr inbounds %struct.Reg, %struct.Reg* %170, i32 0, i32 0
  %PC.i29 = bitcast %union.anon* %171 to i64*
  %172 = getelementptr inbounds %struct.State, %struct.State* %0, i32 0, i32 6
  %173 = getelementptr inbounds %struct.GPR, %struct.GPR* %172, i32 0, i32 5
  %174 = getelementptr inbounds %struct.Reg, %struct.Reg* %173, i32 0, i32 0
  %RCX.i30 = bitcast %union.anon* %174 to i64*
  %175 = getelementptr inbounds %struct.State, %struct.State* %0, i32 0, i32 6
  %176 = getelementptr inbounds %struct.GPR, %struct.GPR* %175, i32 0, i32 15
  %177 = getelementptr inbounds %struct.Reg, %struct.Reg* %176, i32 0, i32 0
  %RBP.i31 = bitcast %union.anon* %177 to i64*
  %178 = load i64, i64* %RCX.i30
  %179 = load i64, i64* %RBP.i31
  %180 = sub i64 %179, 16
  %181 = load i64, i64* %PC.i29
  %182 = add i64 %181, 3
  store i64 %182, i64* %PC.i29
  %183 = trunc i64 %178 to i32
  %184 = inttoptr i64 %180 to i32*
  %185 = load i32, i32* %184
  %186 = add i32 %185, %183
  %187 = zext i32 %186 to i64
  store i64 %187, i64* %RCX.i30, align 8
  %188 = icmp ult i32 %186, %183
  %189 = icmp ult i32 %186, %185
  %190 = or i1 %188, %189
  %191 = zext i1 %190 to i8
  %192 = getelementptr inbounds %struct.State, %struct.State* %0, i64 0, i32 2, i32 1
  store i8 %191, i8* %192, align 1
  %193 = and i32 %186, 255
  %194 = call i32 @llvm.ctpop.i32(i32 %193)
  %195 = trunc i32 %194 to i8
  %196 = and i8 %195, 1
  %197 = xor i8 %196, 1
  %198 = getelementptr inbounds %struct.State, %struct.State* %0, i64 0, i32 2, i32 3
  store i8 %197, i8* %198, align 1
  %199 = xor i32 %185, %183
  %200 = xor i32 %199, %186
  %201 = lshr i32 %200, 4
  %202 = trunc i32 %201 to i8
  %203 = and i8 %202, 1
  %204 = getelementptr inbounds %struct.State, %struct.State* %0, i64 0, i32 2, i32 5
  store i8 %203, i8* %204, align 1
  %205 = icmp eq i32 %186, 0
  %206 = zext i1 %205 to i8
  %207 = getelementptr inbounds %struct.State, %struct.State* %0, i64 0, i32 2, i32 7
  store i8 %206, i8* %207, align 1
  %208 = lshr i32 %186, 31
  %209 = trunc i32 %208 to i8
  %210 = getelementptr inbounds %struct.State, %struct.State* %0, i64 0, i32 2, i32 9
  store i8 %209, i8* %210, align 1
  %211 = lshr i32 %183, 31
  %212 = lshr i32 %185, 31
  %213 = xor i32 %208, %211
  %214 = xor i32 %208, %212
  %215 = add i32 %213, %214
  %216 = icmp eq i32 %215, 2
  %217 = zext i1 %216 to i8
  %218 = getelementptr inbounds %struct.State, %struct.State* %0, i64 0, i32 2, i32 13
  store i8 %217, i8* %218, align 1
  store %struct.Memory* %loadMem_4a8551, %struct.Memory** %MEMORY
  %loadMem_4a8554 = load %struct.Memory*, %struct.Memory** %MEMORY
  %219 = getelementptr inbounds %struct.State, %struct.State* %0, i32 0, i32 6
  %220 = getelementptr inbounds %struct.GPR, %struct.GPR* %219, i32 0, i32 33
  %221 = getelementptr inbounds %struct.Reg, %struct.Reg* %220, i32 0, i32 0
  %PC.i27 = bitcast %union.anon* %221 to i64*
  %222 = getelementptr inbounds %struct.State, %struct.State* %0, i32 0, i32 6
  %223 = getelementptr inbounds %struct.GPR, %struct.GPR* %222, i32 0, i32 1
  %224 = getelementptr inbounds %struct.Reg, %struct.Reg* %223, i32 0, i32 0
  %EAX.i = bitcast %union.anon* %224 to i32*
  %225 = getelementptr inbounds %struct.State, %struct.State* %0, i32 0, i32 6
  %226 = getelementptr inbounds %struct.GPR, %struct.GPR* %225, i32 0, i32 15
  %227 = getelementptr inbounds %struct.Reg, %struct.Reg* %226, i32 0, i32 0
  %RBP.i28 = bitcast %union.anon* %227 to i64*
  %228 = load i64, i64* %RBP.i28
  %229 = sub i64 %228, 24
  %230 = load i32, i32* %EAX.i
  %231 = zext i32 %230 to i64
  %232 = load i64, i64* %PC.i27
  %233 = add i64 %232, 3
  store i64 %233, i64* %PC.i27
  %234 = inttoptr i64 %229 to i32*
  store i32 %230, i32* %234
  store %struct.Memory* %loadMem_4a8554, %struct.Memory** %MEMORY
  %loadMem_4a8557 = load %struct.Memory*, %struct.Memory** %MEMORY
  %235 = getelementptr inbounds %struct.State, %struct.State* %0, i32 0, i32 6
  %236 = getelementptr inbounds %struct.GPR, %struct.GPR* %235, i32 0, i32 33
  %237 = getelementptr inbounds %struct.Reg, %struct.Reg* %236, i32 0, i32 0
  %PC.i25 = bitcast %union.anon* %237 to i64*
  %238 = getelementptr inbounds %struct.State, %struct.State* %0, i32 0, i32 6
  %239 = getelementptr inbounds %struct.GPR, %struct.GPR* %238, i32 0, i32 5
  %240 = getelementptr inbounds %struct.Reg, %struct.Reg* %239, i32 0, i32 0
  %ECX.i26 = bitcast %union.anon* %240 to i32*
  %241 = getelementptr inbounds %struct.State, %struct.State* %0, i32 0, i32 6
  %242 = getelementptr inbounds %struct.GPR, %struct.GPR* %241, i32 0, i32 1
  %243 = getelementptr inbounds %struct.Reg, %struct.Reg* %242, i32 0, i32 0
  %RAX.i = bitcast %union.anon* %243 to i64*
  %244 = load i32, i32* %ECX.i26
  %245 = zext i32 %244 to i64
  %246 = load i64, i64* %PC.i25
  %247 = add i64 %246, 2
  store i64 %247, i64* %PC.i25
  %248 = and i64 %245, 4294967295
  store i64 %248, i64* %RAX.i, align 8
  store %struct.Memory* %loadMem_4a8557, %struct.Memory** %MEMORY
  %loadMem_4a8559 = load %struct.Memory*, %struct.Memory** %MEMORY
  %249 = getelementptr inbounds %struct.State, %struct.State* %0, i32 0, i32 6
  %250 = getelementptr inbounds %struct.GPR, %struct.GPR* %249, i32 0, i32 33
  %251 = getelementptr inbounds %struct.Reg, %struct.Reg* %250, i32 0, i32 0
  %PC.i24 = bitcast %union.anon* %251 to i64*
  %252 = load i64, i64* %PC.i24
  %253 = add i64 %252, 1
  store i64 %253, i64* %PC.i24
  %254 = getelementptr inbounds %struct.State, %struct.State* %0, i64 0, i32 6, i32 7, i32 0, i32 0
  %255 = getelementptr inbounds %struct.State, %struct.State* %0, i64 0, i32 6, i32 1, i32 0
  %256 = bitcast %union.anon* %255 to i32*
  %257 = load i32, i32* %256, align 8
  %258 = sext i32 %257 to i64
  %259 = lshr i64 %258, 32
  store i64 %259, i64* %254, align 8
  store %struct.Memory* %loadMem_4a8559, %struct.Memory** %MEMORY
  %loadMem_4a855a = load %struct.Memory*, %struct.Memory** %MEMORY
  %260 = getelementptr inbounds %struct.State, %struct.State* %0, i32 0, i32 6
  %261 = getelementptr inbounds %struct.GPR, %struct.GPR* %260, i32 0, i32 33
  %262 = getelementptr inbounds %struct.Reg, %struct.Reg* %261, i32 0, i32 0
  %PC.i21 = bitcast %union.anon* %262 to i64*
  %263 = getelementptr inbounds %struct.State, %struct.State* %0, i32 0, i32 6
  %264 = getelementptr inbounds %struct.GPR, %struct.GPR* %263, i32 0, i32 5
  %265 = getelementptr inbounds %struct.Reg, %struct.Reg* %264, i32 0, i32 0
  %RCX.i22 = bitcast %union.anon* %265 to i64*
  %266 = getelementptr inbounds %struct.State, %struct.State* %0, i32 0, i32 6
  %267 = getelementptr inbounds %struct.GPR, %struct.GPR* %266, i32 0, i32 15
  %268 = getelementptr inbounds %struct.Reg, %struct.Reg* %267, i32 0, i32 0
  %RBP.i23 = bitcast %union.anon* %268 to i64*
  %269 = load i64, i64* %RBP.i23
  %270 = sub i64 %269, 24
  %271 = load i64, i64* %PC.i21
  %272 = add i64 %271, 3
  store i64 %272, i64* %PC.i21
  %273 = inttoptr i64 %270 to i32*
  %274 = load i32, i32* %273
  %275 = zext i32 %274 to i64
  store i64 %275, i64* %RCX.i22, align 8
  store %struct.Memory* %loadMem_4a855a, %struct.Memory** %MEMORY
  %loadMem_4a855d = load %struct.Memory*, %struct.Memory** %MEMORY
  %276 = getelementptr inbounds %struct.State, %struct.State* %0, i32 0, i32 6
  %277 = getelementptr inbounds %struct.GPR, %struct.GPR* %276, i32 0, i32 33
  %278 = getelementptr inbounds %struct.Reg, %struct.Reg* %277, i32 0, i32 0
  %PC.i17 = bitcast %union.anon* %278 to i64*
  %279 = getelementptr inbounds %struct.State, %struct.State* %0, i32 0, i32 6
  %280 = getelementptr inbounds %struct.GPR, %struct.GPR* %279, i32 0, i32 5
  %281 = getelementptr inbounds %struct.Reg, %struct.Reg* %280, i32 0, i32 0
  %ECX.i = bitcast %union.anon* %281 to i32*
  %282 = load i32, i32* %ECX.i
  %283 = zext i32 %282 to i64
  %284 = load i64, i64* %PC.i17
  %285 = add i64 %284, 2
  store i64 %285, i64* %PC.i17
  %286 = getelementptr inbounds %struct.State, %struct.State* %0, i64 0, i32 6, i32 1, i32 0
  %287 = bitcast %union.anon* %286 to i32*
  %288 = load i32, i32* %287, align 8
  %289 = zext i32 %288 to i64
  %290 = getelementptr inbounds %struct.State, %struct.State* %0, i64 0, i32 6, i32 7, i32 0
  %291 = bitcast %union.anon* %290 to i32*
  %292 = load i32, i32* %291, align 8
  %293 = zext i32 %292 to i64
  %294 = shl i64 %283, 32
  %295 = ashr exact i64 %294, 32
  %296 = shl i64 %293, 32
  %297 = or i64 %296, %289
  %298 = sdiv i64 %297, %295
  %299 = shl i64 %298, 32
  %300 = ashr exact i64 %299, 32
  %301 = icmp eq i64 %298, %300
  br i1 %301, label %306, label %302

; <label>:302:                                    ; preds = %entry
  %303 = getelementptr inbounds %struct.State, %struct.State* %0, i64 0, i32 6, i32 33, i32 0, i32 0
  %304 = load i64, i64* %303, align 8
  %305 = call %struct.Memory* @__remill_error(%struct.State* nonnull dereferenceable(3376) %0, i64 %304, %struct.Memory* %loadMem_4a855d)
  br label %routine_idivl__ecx.exit

; <label>:306:                                    ; preds = %entry
  %307 = srem i64 %297, %295
  %308 = getelementptr inbounds %union.anon, %union.anon* %286, i64 0, i32 0
  %309 = and i64 %298, 4294967295
  store i64 %309, i64* %308, align 8
  %310 = getelementptr inbounds %union.anon, %union.anon* %290, i64 0, i32 0
  %311 = and i64 %307, 4294967295
  store i64 %311, i64* %310, align 8
  %312 = getelementptr inbounds %struct.State, %struct.State* %0, i64 0, i32 2, i32 1
  store i8 0, i8* %312, align 1
  %313 = getelementptr inbounds %struct.State, %struct.State* %0, i64 0, i32 2, i32 3
  store i8 0, i8* %313, align 1
  %314 = getelementptr inbounds %struct.State, %struct.State* %0, i64 0, i32 2, i32 5
  store i8 0, i8* %314, align 1
  %315 = getelementptr inbounds %struct.State, %struct.State* %0, i64 0, i32 2, i32 7
  store i8 0, i8* %315, align 1
  %316 = getelementptr inbounds %struct.State, %struct.State* %0, i64 0, i32 2, i32 9
  store i8 0, i8* %316, align 1
  %317 = getelementptr inbounds %struct.State, %struct.State* %0, i64 0, i32 2, i32 13
  store i8 0, i8* %317, align 1
  br label %routine_idivl__ecx.exit

routine_idivl__ecx.exit:                          ; preds = %302, %306
  %318 = phi %struct.Memory* [ %305, %302 ], [ %loadMem_4a855d, %306 ]
  store %struct.Memory* %318, %struct.Memory** %MEMORY
  %loadMem_4a855f = load %struct.Memory*, %struct.Memory** %MEMORY
  %319 = getelementptr inbounds %struct.State, %struct.State* %0, i32 0, i32 6
  %320 = getelementptr inbounds %struct.GPR, %struct.GPR* %319, i32 0, i32 33
  %321 = getelementptr inbounds %struct.Reg, %struct.Reg* %320, i32 0, i32 0
  %PC.i15 = bitcast %union.anon* %321 to i64*
  %322 = getelementptr inbounds %struct.State, %struct.State* %0, i32 0, i32 6
  %323 = getelementptr inbounds %struct.GPR, %struct.GPR* %322, i32 0, i32 7
  %324 = getelementptr inbounds %struct.Reg, %struct.Reg* %323, i32 0, i32 0
  %EDX.i = bitcast %union.anon* %324 to i32*
  %325 = getelementptr inbounds %struct.State, %struct.State* %0, i32 0, i32 6
  %326 = getelementptr inbounds %struct.GPR, %struct.GPR* %325, i32 0, i32 17
  %327 = getelementptr inbounds %struct.Reg, %struct.Reg* %326, i32 0, i32 0
  %R8.i16 = bitcast %union.anon* %327 to i64*
  %328 = load i32, i32* %EDX.i
  %329 = zext i32 %328 to i64
  %330 = load i64, i64* %PC.i15
  %331 = add i64 %330, 3
  store i64 %331, i64* %PC.i15
  %332 = shl i64 %329, 32
  %333 = ashr exact i64 %332, 32
  store i64 %333, i64* %R8.i16, align 8
  store %struct.Memory* %loadMem_4a855f, %struct.Memory** %MEMORY
  %loadMem_4a8562 = load %struct.Memory*, %struct.Memory** %MEMORY
  %334 = getelementptr inbounds %struct.State, %struct.State* %0, i32 0, i32 6
  %335 = getelementptr inbounds %struct.GPR, %struct.GPR* %334, i32 0, i32 33
  %336 = getelementptr inbounds %struct.Reg, %struct.Reg* %335, i32 0, i32 0
  %PC.i13 = bitcast %union.anon* %336 to i64*
  %337 = getelementptr inbounds %struct.State, %struct.State* %0, i32 0, i32 6
  %338 = getelementptr inbounds %struct.GPR, %struct.GPR* %337, i32 0, i32 17
  %339 = getelementptr inbounds %struct.Reg, %struct.Reg* %338, i32 0, i32 0
  %R8.i14 = bitcast %union.anon* %339 to i64*
  %340 = load i64, i64* %R8.i14
  %341 = load i64, i64* %PC.i13
  %342 = add i64 %341, 4
  store i64 %342, i64* %PC.i13
  %343 = shl i64 %340, 2
  %344 = icmp slt i64 %343, 0
  %345 = shl i64 %343, 1
  store i64 %345, i64* %R8.i14, align 8
  %346 = getelementptr inbounds %struct.State, %struct.State* %0, i64 0, i32 2, i32 1
  %347 = zext i1 %344 to i8
  store i8 %347, i8* %346, align 1
  %348 = getelementptr inbounds %struct.State, %struct.State* %0, i64 0, i32 2, i32 3
  %349 = trunc i64 %345 to i32
  %350 = and i32 %349, 254
  %351 = call i32 @llvm.ctpop.i32(i32 %350)
  %352 = trunc i32 %351 to i8
  %353 = and i8 %352, 1
  %354 = xor i8 %353, 1
  store i8 %354, i8* %348, align 1
  %355 = getelementptr inbounds %struct.State, %struct.State* %0, i64 0, i32 2, i32 5
  store i8 0, i8* %355, align 1
  %356 = getelementptr inbounds %struct.State, %struct.State* %0, i64 0, i32 2, i32 7
  %357 = icmp eq i64 %345, 0
  %358 = zext i1 %357 to i8
  store i8 %358, i8* %356, align 1
  %359 = getelementptr inbounds %struct.State, %struct.State* %0, i64 0, i32 2, i32 9
  %360 = lshr i64 %345, 63
  %361 = trunc i64 %360 to i8
  store i8 %361, i8* %359, align 1
  %362 = getelementptr inbounds %struct.State, %struct.State* %0, i64 0, i32 2, i32 13
  store i8 0, i8* %362, align 1
  store %struct.Memory* %loadMem_4a8562, %struct.Memory** %MEMORY
  %loadMem_4a8566 = load %struct.Memory*, %struct.Memory** %MEMORY
  %363 = getelementptr inbounds %struct.State, %struct.State* %0, i32 0, i32 6
  %364 = getelementptr inbounds %struct.GPR, %struct.GPR* %363, i32 0, i32 33
  %365 = getelementptr inbounds %struct.Reg, %struct.Reg* %364, i32 0, i32 0
  %PC.i12 = bitcast %union.anon* %365 to i64*
  %366 = getelementptr inbounds %struct.State, %struct.State* %0, i32 0, i32 6
  %367 = getelementptr inbounds %struct.GPR, %struct.GPR* %366, i32 0, i32 11
  %368 = getelementptr inbounds %struct.Reg, %struct.Reg* %367, i32 0, i32 0
  %RDI.i = bitcast %union.anon* %368 to i64*
  %369 = getelementptr inbounds %struct.State, %struct.State* %0, i32 0, i32 6
  %370 = getelementptr inbounds %struct.GPR, %struct.GPR* %369, i32 0, i32 17
  %371 = getelementptr inbounds %struct.Reg, %struct.Reg* %370, i32 0, i32 0
  %R8.i = bitcast %union.anon* %371 to i64*
  %372 = load i64, i64* %RDI.i
  %373 = load i64, i64* %R8.i
  %374 = load i64, i64* %PC.i12
  %375 = add i64 %374, 3
  store i64 %375, i64* %PC.i12
  %376 = add i64 %373, %372
  store i64 %376, i64* %RDI.i, align 8
  %377 = icmp ult i64 %376, %372
  %378 = icmp ult i64 %376, %373
  %379 = or i1 %377, %378
  %380 = zext i1 %379 to i8
  %381 = getelementptr inbounds %struct.State, %struct.State* %0, i64 0, i32 2, i32 1
  store i8 %380, i8* %381, align 1
  %382 = trunc i64 %376 to i32
  %383 = and i32 %382, 255
  %384 = call i32 @llvm.ctpop.i32(i32 %383)
  %385 = trunc i32 %384 to i8
  %386 = and i8 %385, 1
  %387 = xor i8 %386, 1
  %388 = getelementptr inbounds %struct.State, %struct.State* %0, i64 0, i32 2, i32 3
  store i8 %387, i8* %388, align 1
  %389 = xor i64 %373, %372
  %390 = xor i64 %389, %376
  %391 = lshr i64 %390, 4
  %392 = trunc i64 %391 to i8
  %393 = and i8 %392, 1
  %394 = getelementptr inbounds %struct.State, %struct.State* %0, i64 0, i32 2, i32 5
  store i8 %393, i8* %394, align 1
  %395 = icmp eq i64 %376, 0
  %396 = zext i1 %395 to i8
  %397 = getelementptr inbounds %struct.State, %struct.State* %0, i64 0, i32 2, i32 7
  store i8 %396, i8* %397, align 1
  %398 = lshr i64 %376, 63
  %399 = trunc i64 %398 to i8
  %400 = getelementptr inbounds %struct.State, %struct.State* %0, i64 0, i32 2, i32 9
  store i8 %399, i8* %400, align 1
  %401 = lshr i64 %372, 63
  %402 = lshr i64 %373, 63
  %403 = xor i64 %398, %401
  %404 = xor i64 %398, %402
  %405 = add i64 %403, %404
  %406 = icmp eq i64 %405, 2
  %407 = zext i1 %406 to i8
  %408 = getelementptr inbounds %struct.State, %struct.State* %0, i64 0, i32 2, i32 13
  store i8 %407, i8* %408, align 1
  store %struct.Memory* %loadMem_4a8566, %struct.Memory** %MEMORY
  %loadMem_4a8569 = load %struct.Memory*, %struct.Memory** %MEMORY
  %409 = getelementptr inbounds %struct.State, %struct.State* %0, i32 0, i32 6
  %410 = getelementptr inbounds %struct.GPR, %struct.GPR* %409, i32 0, i32 33
  %411 = getelementptr inbounds %struct.Reg, %struct.Reg* %410, i32 0, i32 0
  %PC.i10 = bitcast %union.anon* %411 to i64*
  %412 = getelementptr inbounds %struct.State, %struct.State* %0, i32 0, i32 6
  %413 = getelementptr inbounds %struct.GPR, %struct.GPR* %412, i32 0, i32 9
  %414 = getelementptr inbounds %struct.Reg, %struct.Reg* %413, i32 0, i32 0
  %RSI.i = bitcast %union.anon* %414 to i64*
  %415 = getelementptr inbounds %struct.State, %struct.State* %0, i32 0, i32 6
  %416 = getelementptr inbounds %struct.GPR, %struct.GPR* %415, i32 0, i32 15
  %417 = getelementptr inbounds %struct.Reg, %struct.Reg* %416, i32 0, i32 0
  %RBP.i11 = bitcast %union.anon* %417 to i64*
  %418 = load i64, i64* %RBP.i11
  %419 = sub i64 %418, 12
  %420 = load i64, i64* %PC.i10
  %421 = add i64 %420, 3
  store i64 %421, i64* %PC.i10
  %422 = inttoptr i64 %419 to i32*
  %423 = load i32, i32* %422
  %424 = zext i32 %423 to i64
  store i64 %424, i64* %RSI.i, align 8
  store %struct.Memory* %loadMem_4a8569, %struct.Memory** %MEMORY
  %loadMem_4a856c = load %struct.Memory*, %struct.Memory** %MEMORY
  %425 = getelementptr inbounds %struct.State, %struct.State* %0, i32 0, i32 6
  %426 = getelementptr inbounds %struct.GPR, %struct.GPR* %425, i32 0, i32 33
  %427 = getelementptr inbounds %struct.Reg, %struct.Reg* %426, i32 0, i32 0
  %PC.i8 = bitcast %union.anon* %427 to i64*
  %428 = getelementptr inbounds %struct.State, %struct.State* %0, i32 0, i32 6
  %429 = getelementptr inbounds %struct.GPR, %struct.GPR* %428, i32 0, i32 7
  %430 = getelementptr inbounds %struct.Reg, %struct.Reg* %429, i32 0, i32 0
  %RDX.i = bitcast %union.anon* %430 to i64*
  %431 = getelementptr inbounds %struct.State, %struct.State* %0, i32 0, i32 6
  %432 = getelementptr inbounds %struct.GPR, %struct.GPR* %431, i32 0, i32 15
  %433 = getelementptr inbounds %struct.Reg, %struct.Reg* %432, i32 0, i32 0
  %RBP.i9 = bitcast %union.anon* %433 to i64*
  %434 = load i64, i64* %RBP.i9
  %435 = sub i64 %434, 16
  %436 = load i64, i64* %PC.i8
  %437 = add i64 %436, 3
  store i64 %437, i64* %PC.i8
  %438 = inttoptr i64 %435 to i32*
  %439 = load i32, i32* %438
  %440 = zext i32 %439 to i64
  store i64 %440, i64* %RDX.i, align 8
  store %struct.Memory* %loadMem_4a856c, %struct.Memory** %MEMORY
  %loadMem_4a856f = load %struct.Memory*, %struct.Memory** %MEMORY
  %441 = getelementptr inbounds %struct.State, %struct.State* %0, i32 0, i32 6
  %442 = getelementptr inbounds %struct.GPR, %struct.GPR* %441, i32 0, i32 33
  %443 = getelementptr inbounds %struct.Reg, %struct.Reg* %442, i32 0, i32 0
  %PC.i6 = bitcast %union.anon* %443 to i64*
  %444 = getelementptr inbounds %struct.State, %struct.State* %0, i32 0, i32 6
  %445 = getelementptr inbounds %struct.GPR, %struct.GPR* %444, i32 0, i32 5
  %446 = getelementptr inbounds %struct.Reg, %struct.Reg* %445, i32 0, i32 0
  %RCX.i = bitcast %union.anon* %446 to i64*
  %447 = getelementptr inbounds %struct.State, %struct.State* %0, i32 0, i32 6
  %448 = getelementptr inbounds %struct.GPR, %struct.GPR* %447, i32 0, i32 15
  %449 = getelementptr inbounds %struct.Reg, %struct.Reg* %448, i32 0, i32 0
  %RBP.i7 = bitcast %union.anon* %449 to i64*
  %450 = load i64, i64* %RBP.i7
  %451 = sub i64 %450, 20
  %452 = load i64, i64* %PC.i6
  %453 = add i64 %452, 3
  store i64 %453, i64* %PC.i6
  %454 = inttoptr i64 %451 to i32*
  %455 = load i32, i32* %454
  %456 = zext i32 %455 to i64
  store i64 %456, i64* %RCX.i, align 8
  store %struct.Memory* %loadMem_4a856f, %struct.Memory** %MEMORY
  %loadMem1_4a8572 = load %struct.Memory*, %struct.Memory** %MEMORY
  %457 = getelementptr inbounds %struct.State, %struct.State* %0, i32 0, i32 6
  %458 = getelementptr inbounds %struct.GPR, %struct.GPR* %457, i32 0, i32 33
  %459 = getelementptr inbounds %struct.Reg, %struct.Reg* %458, i32 0, i32 0
  %PC.i5 = bitcast %union.anon* %459 to i64*
  %460 = load i64, i64* %PC.i5
  %461 = add i64 %460, 1454
  %462 = load i64, i64* %PC.i5
  %463 = add i64 %462, 5
  %464 = load i64, i64* %PC.i5
  %465 = add i64 %464, 5
  store i64 %465, i64* %PC.i5
  %466 = getelementptr inbounds %struct.State, %struct.State* %0, i64 0, i32 6, i32 13, i32 0, i32 0
  %467 = load i64, i64* %466, align 8
  %468 = add i64 %467, -8
  %469 = inttoptr i64 %468 to i64*
  store i64 %463, i64* %469
  store i64 %468, i64* %466, align 8
  %470 = getelementptr inbounds %struct.State, %struct.State* %0, i64 0, i32 6, i32 33, i32 0, i32 0
  store i64 %461, i64* %470, align 8
  store %struct.Memory* %loadMem1_4a8572, %struct.Memory** %MEMORY
  %loadMem2_4a8572 = load %struct.Memory*, %struct.Memory** %MEMORY
  %loadPC_4a8572 = load i64, i64* %3
  %call2_4a8572 = call %struct.Memory* @sub_4a8b20.add_to_entry_list(%struct.State* %0, i64 %loadPC_4a8572, %struct.Memory* %loadMem2_4a8572)
  store %struct.Memory* %call2_4a8572, %struct.Memory** %MEMORY
  %loadMem_4a8577 = load %struct.Memory*, %struct.Memory** %MEMORY
  %471 = getelementptr inbounds %struct.State, %struct.State* %0, i32 0, i32 6
  %472 = getelementptr inbounds %struct.GPR, %struct.GPR* %471, i32 0, i32 33
  %473 = getelementptr inbounds %struct.Reg, %struct.Reg* %472, i32 0, i32 0
  %PC.i4 = bitcast %union.anon* %473 to i64*
  %474 = getelementptr inbounds %struct.State, %struct.State* %0, i32 0, i32 6
  %475 = getelementptr inbounds %struct.GPR, %struct.GPR* %474, i32 0, i32 13
  %476 = getelementptr inbounds %struct.Reg, %struct.Reg* %475, i32 0, i32 0
  %RSP.i = bitcast %union.anon* %476 to i64*
  %477 = load i64, i64* %RSP.i
  %478 = load i64, i64* %PC.i4
  %479 = add i64 %478, 4
  store i64 %479, i64* %PC.i4
  %480 = add i64 32, %477
  store i64 %480, i64* %RSP.i, align 8
  %481 = icmp ult i64 %480, %477
  %482 = icmp ult i64 %480, 32
  %483 = or i1 %481, %482
  %484 = zext i1 %483 to i8
  %485 = getelementptr inbounds %struct.State, %struct.State* %0, i64 0, i32 2, i32 1
  store i8 %484, i8* %485, align 1
  %486 = trunc i64 %480 to i32
  %487 = and i32 %486, 255
  %488 = call i32 @llvm.ctpop.i32(i32 %487)
  %489 = trunc i32 %488 to i8
  %490 = and i8 %489, 1
  %491 = xor i8 %490, 1
  %492 = getelementptr inbounds %struct.State, %struct.State* %0, i64 0, i32 2, i32 3
  store i8 %491, i8* %492, align 1
  %493 = xor i64 32, %477
  %494 = xor i64 %493, %480
  %495 = lshr i64 %494, 4
  %496 = trunc i64 %495 to i8
  %497 = and i8 %496, 1
  %498 = getelementptr inbounds %struct.State, %struct.State* %0, i64 0, i32 2, i32 5
  store i8 %497, i8* %498, align 1
  %499 = icmp eq i64 %480, 0
  %500 = zext i1 %499 to i8
  %501 = getelementptr inbounds %struct.State, %struct.State* %0, i64 0, i32 2, i32 7
  store i8 %500, i8* %501, align 1
  %502 = lshr i64 %480, 63
  %503 = trunc i64 %502 to i8
  %504 = getelementptr inbounds %struct.State, %struct.State* %0, i64 0, i32 2, i32 9
  store i8 %503, i8* %504, align 1
  %505 = lshr i64 %477, 63
  %506 = xor i64 %502, %505
  %507 = add i64 %506, %502
  %508 = icmp eq i64 %507, 2
  %509 = zext i1 %508 to i8
  %510 = getelementptr inbounds %struct.State, %struct.State* %0, i64 0, i32 2, i32 13
  store i8 %509, i8* %510, align 1
  store %struct.Memory* %loadMem_4a8577, %struct.Memory** %MEMORY
  %loadMem_4a857b = load %struct.Memory*, %struct.Memory** %MEMORY
  %511 = getelementptr inbounds %struct.State, %struct.State* %0, i32 0, i32 6
  %512 = getelementptr inbounds %struct.GPR, %struct.GPR* %511, i32 0, i32 33
  %513 = getelementptr inbounds %struct.Reg, %struct.Reg* %512, i32 0, i32 0
  %PC.i2 = bitcast %union.anon* %513 to i64*
  %514 = getelementptr inbounds %struct.State, %struct.State* %0, i32 0, i32 6
  %515 = getelementptr inbounds %struct.GPR, %struct.GPR* %514, i32 0, i32 15
  %516 = getelementptr inbounds %struct.Reg, %struct.Reg* %515, i32 0, i32 0
  %RBP.i3 = bitcast %union.anon* %516 to i64*
  %517 = load i64, i64* %PC.i2
  %518 = add i64 %517, 1
  store i64 %518, i64* %PC.i2
  %519 = getelementptr inbounds %struct.State, %struct.State* %0, i64 0, i32 6, i32 13, i32 0, i32 0
  %520 = load i64, i64* %519, align 8
  %521 = add i64 %520, 8
  %522 = inttoptr i64 %520 to i64*
  %523 = load i64, i64* %522
  store i64 %523, i64* %RBP.i3, align 8
  store i64 %521, i64* %519, align 8
  store %struct.Memory* %loadMem_4a857b, %struct.Memory** %MEMORY
  %loadMem_4a857c = load %struct.Memory*, %struct.Memory** %MEMORY
  %524 = getelementptr inbounds %struct.State, %struct.State* %0, i32 0, i32 6
  %525 = getelementptr inbounds %struct.GPR, %struct.GPR* %524, i32 0, i32 33
  %526 = getelementptr inbounds %struct.Reg, %struct.Reg* %525, i32 0, i32 0
  %PC.i1 = bitcast %union.anon* %526 to i64*
  %527 = load i64, i64* %PC.i1
  %528 = add i64 %527, 1
  store i64 %528, i64* %PC.i1
  %529 = getelementptr inbounds %struct.State, %struct.State* %0, i64 0, i32 6, i32 33, i32 0, i32 0
  %530 = getelementptr inbounds %struct.State, %struct.State* %0, i64 0, i32 6, i32 13, i32 0, i32 0
  %531 = load i64, i64* %530, align 8
  %532 = inttoptr i64 %531 to i64*
  %533 = load i64, i64* %532
  store i64 %533, i64* %529, align 8
  %534 = add i64 %531, 8
  store i64 %534, i64* %530, align 8
  store %struct.Memory* %loadMem_4a857c, %struct.Memory** %MEMORY
  ret %struct.Memory* %loadMem_4a857c
}

define %struct.Memory* @routine_pushq__rbp(%struct.State* dereferenceable(3376), i64, %struct.Memory*) {
block_400488:
  %3 = getelementptr inbounds %struct.State, %struct.State* %0, i32 0, i32 6
  %4 = getelementptr inbounds %struct.GPR, %struct.GPR* %3, i32 0, i32 33
  %5 = getelementptr inbounds %struct.Reg, %struct.Reg* %4, i32 0, i32 0
  %PC = bitcast %union.anon* %5 to i64*
  %6 = getelementptr inbounds %struct.State, %struct.State* %0, i32 0, i32 6
  %7 = getelementptr inbounds %struct.GPR, %struct.GPR* %6, i32 0, i32 15
  %8 = getelementptr inbounds %struct.Reg, %struct.Reg* %7, i32 0, i32 0
  %RBP = bitcast %union.anon* %8 to i64*
  %9 = load i64, i64* %RBP
  %10 = load i64, i64* %PC
  %11 = add i64 %10, 1
  store i64 %11, i64* %PC
  %12 = getelementptr inbounds %struct.State, %struct.State* %0, i64 0, i32 6, i32 13, i32 0, i32 0
  %13 = load i64, i64* %12, align 8
  %14 = add i64 %13, -8
  %15 = inttoptr i64 %14 to i64*
  store i64 %9, i64* %15
  store i64 %14, i64* %12, align 8
  ret %struct.Memory* %2
}

define %struct.Memory* @routine_movq__rsp___rbp(%struct.State* dereferenceable(3376), i64, %struct.Memory*) {
block_400488:
  %3 = getelementptr inbounds %struct.State, %struct.State* %0, i32 0, i32 6
  %4 = getelementptr inbounds %struct.GPR, %struct.GPR* %3, i32 0, i32 33
  %5 = getelementptr inbounds %struct.Reg, %struct.Reg* %4, i32 0, i32 0
  %PC = bitcast %union.anon* %5 to i64*
  %6 = getelementptr inbounds %struct.State, %struct.State* %0, i32 0, i32 6
  %7 = getelementptr inbounds %struct.GPR, %struct.GPR* %6, i32 0, i32 13
  %8 = getelementptr inbounds %struct.Reg, %struct.Reg* %7, i32 0, i32 0
  %RSP = bitcast %union.anon* %8 to i64*
  %9 = getelementptr inbounds %struct.State, %struct.State* %0, i32 0, i32 6
  %10 = getelementptr inbounds %struct.GPR, %struct.GPR* %9, i32 0, i32 15
  %11 = getelementptr inbounds %struct.Reg, %struct.Reg* %10, i32 0, i32 0
  %RBP = bitcast %union.anon* %11 to i64*
  %12 = load i64, i64* %RSP
  %13 = load i64, i64* %PC
  %14 = add i64 %13, 3
  store i64 %14, i64* %PC
  store i64 %12, i64* %RBP, align 8
  ret %struct.Memory* %2
}

define %struct.Memory* @routine_subq__0x20___rsp(%struct.State* dereferenceable(3376), i64, %struct.Memory*) {
block_400488:
  %3 = getelementptr inbounds %struct.State, %struct.State* %0, i32 0, i32 6
  %4 = getelementptr inbounds %struct.GPR, %struct.GPR* %3, i32 0, i32 33
  %5 = getelementptr inbounds %struct.Reg, %struct.Reg* %4, i32 0, i32 0
  %PC = bitcast %union.anon* %5 to i64*
  %6 = getelementptr inbounds %struct.State, %struct.State* %0, i32 0, i32 6
  %7 = getelementptr inbounds %struct.GPR, %struct.GPR* %6, i32 0, i32 13
  %8 = getelementptr inbounds %struct.Reg, %struct.Reg* %7, i32 0, i32 0
  %RSP = bitcast %union.anon* %8 to i64*
  %9 = load i64, i64* %RSP
  %10 = load i64, i64* %PC
  %11 = add i64 %10, 4
  store i64 %11, i64* %PC
  %12 = sub i64 %9, 32
  store i64 %12, i64* %RSP, align 8
  %13 = icmp ult i64 %9, 32
  %14 = zext i1 %13 to i8
  %15 = getelementptr inbounds %struct.State, %struct.State* %0, i64 0, i32 2, i32 1
  store i8 %14, i8* %15, align 1
  %16 = trunc i64 %12 to i32
  %17 = and i32 %16, 255
  %18 = call i32 @llvm.ctpop.i32(i32 %17)
  %19 = trunc i32 %18 to i8
  %20 = and i8 %19, 1
  %21 = xor i8 %20, 1
  %22 = getelementptr inbounds %struct.State, %struct.State* %0, i64 0, i32 2, i32 3
  store i8 %21, i8* %22, align 1
  %23 = xor i64 32, %9
  %24 = xor i64 %23, %12
  %25 = lshr i64 %24, 4
  %26 = trunc i64 %25 to i8
  %27 = and i8 %26, 1
  %28 = getelementptr inbounds %struct.State, %struct.State* %0, i64 0, i32 2, i32 5
  store i8 %27, i8* %28, align 1
  %29 = icmp eq i64 %12, 0
  %30 = zext i1 %29 to i8
  %31 = getelementptr inbounds %struct.State, %struct.State* %0, i64 0, i32 2, i32 7
  store i8 %30, i8* %31, align 1
  %32 = lshr i64 %12, 63
  %33 = trunc i64 %32 to i8
  %34 = getelementptr inbounds %struct.State, %struct.State* %0, i64 0, i32 2, i32 9
  store i8 %33, i8* %34, align 1
  %35 = lshr i64 %9, 63
  %36 = xor i64 %32, %35
  %37 = add i64 %36, %35
  %38 = icmp eq i64 %37, 2
  %39 = zext i1 %38 to i8
  %40 = getelementptr inbounds %struct.State, %struct.State* %0, i64 0, i32 2, i32 13
  store i8 %39, i8* %40, align 1
  ret %struct.Memory* %2
}

define %struct.Memory* @routine_movl__0x1000___eax(%struct.State* dereferenceable(3376), i64, %struct.Memory*) {
block_400488:
  %3 = getelementptr inbounds %struct.State, %struct.State* %0, i32 0, i32 6
  %4 = getelementptr inbounds %struct.GPR, %struct.GPR* %3, i32 0, i32 33
  %5 = getelementptr inbounds %struct.Reg, %struct.Reg* %4, i32 0, i32 0
  %PC = bitcast %union.anon* %5 to i64*
  %6 = getelementptr inbounds %struct.State, %struct.State* %0, i32 0, i32 6
  %7 = getelementptr inbounds %struct.GPR, %struct.GPR* %6, i32 0, i32 1
  %8 = getelementptr inbounds %struct.Reg, %struct.Reg* %7, i32 0, i32 0
  %RAX = bitcast %union.anon* %8 to i64*
  %9 = load i64, i64* %PC
  %10 = add i64 %9, 5
  store i64 %10, i64* %PC
  store i64 4096, i64* %RAX, align 8
  ret %struct.Memory* %2
}

define %struct.Memory* @routine_movq__rdi__MINUS0x8__rbp_(%struct.State* dereferenceable(3376), i64, %struct.Memory*) {
block_400488:
  %3 = getelementptr inbounds %struct.State, %struct.State* %0, i32 0, i32 6
  %4 = getelementptr inbounds %struct.GPR, %struct.GPR* %3, i32 0, i32 33
  %5 = getelementptr inbounds %struct.Reg, %struct.Reg* %4, i32 0, i32 0
  %PC = bitcast %union.anon* %5 to i64*
  %6 = getelementptr inbounds %struct.State, %struct.State* %0, i32 0, i32 6
  %7 = getelementptr inbounds %struct.GPR, %struct.GPR* %6, i32 0, i32 11
  %8 = getelementptr inbounds %struct.Reg, %struct.Reg* %7, i32 0, i32 0
  %RDI = bitcast %union.anon* %8 to i64*
  %9 = getelementptr inbounds %struct.State, %struct.State* %0, i32 0, i32 6
  %10 = getelementptr inbounds %struct.GPR, %struct.GPR* %9, i32 0, i32 15
  %11 = getelementptr inbounds %struct.Reg, %struct.Reg* %10, i32 0, i32 0
  %RBP = bitcast %union.anon* %11 to i64*
  %12 = load i64, i64* %RBP
  %13 = sub i64 %12, 8
  %14 = load i64, i64* %RDI
  %15 = load i64, i64* %PC
  %16 = add i64 %15, 4
  store i64 %16, i64* %PC
  %17 = inttoptr i64 %13 to i64*
  store i64 %14, i64* %17
  ret %struct.Memory* %2
}

define %struct.Memory* @routine_movl__esi__MINUS0xc__rbp_(%struct.State* dereferenceable(3376), i64, %struct.Memory*) {
block_400488:
  %3 = getelementptr inbounds %struct.State, %struct.State* %0, i32 0, i32 6
  %4 = getelementptr inbounds %struct.GPR, %struct.GPR* %3, i32 0, i32 33
  %5 = getelementptr inbounds %struct.Reg, %struct.Reg* %4, i32 0, i32 0
  %PC = bitcast %union.anon* %5 to i64*
  %6 = getelementptr inbounds %struct.State, %struct.State* %0, i32 0, i32 6
  %7 = getelementptr inbounds %struct.GPR, %struct.GPR* %6, i32 0, i32 9
  %8 = getelementptr inbounds %struct.Reg, %struct.Reg* %7, i32 0, i32 0
  %ESI = bitcast %union.anon* %8 to i32*
  %9 = getelementptr inbounds %struct.State, %struct.State* %0, i32 0, i32 6
  %10 = getelementptr inbounds %struct.GPR, %struct.GPR* %9, i32 0, i32 15
  %11 = getelementptr inbounds %struct.Reg, %struct.Reg* %10, i32 0, i32 0
  %RBP = bitcast %union.anon* %11 to i64*
  %12 = load i64, i64* %RBP
  %13 = sub i64 %12, 12
  %14 = load i32, i32* %ESI
  %15 = zext i32 %14 to i64
  %16 = load i64, i64* %PC
  %17 = add i64 %16, 3
  store i64 %17, i64* %PC
  %18 = inttoptr i64 %13 to i32*
  store i32 %14, i32* %18
  ret %struct.Memory* %2
}

define %struct.Memory* @routine_movl__edx__MINUS0x10__rbp_(%struct.State* dereferenceable(3376), i64, %struct.Memory*) {
block_400488:
  %3 = getelementptr inbounds %struct.State, %struct.State* %0, i32 0, i32 6
  %4 = getelementptr inbounds %struct.GPR, %struct.GPR* %3, i32 0, i32 33
  %5 = getelementptr inbounds %struct.Reg, %struct.Reg* %4, i32 0, i32 0
  %PC = bitcast %union.anon* %5 to i64*
  %6 = getelementptr inbounds %struct.State, %struct.State* %0, i32 0, i32 6
  %7 = getelementptr inbounds %struct.GPR, %struct.GPR* %6, i32 0, i32 7
  %8 = getelementptr inbounds %struct.Reg, %struct.Reg* %7, i32 0, i32 0
  %EDX = bitcast %union.anon* %8 to i32*
  %9 = getelementptr inbounds %struct.State, %struct.State* %0, i32 0, i32 6
  %10 = getelementptr inbounds %struct.GPR, %struct.GPR* %9, i32 0, i32 15
  %11 = getelementptr inbounds %struct.Reg, %struct.Reg* %10, i32 0, i32 0
  %RBP = bitcast %union.anon* %11 to i64*
  %12 = load i64, i64* %RBP
  %13 = sub i64 %12, 16
  %14 = load i32, i32* %EDX
  %15 = zext i32 %14 to i64
  %16 = load i64, i64* %PC
  %17 = add i64 %16, 3
  store i64 %17, i64* %PC
  %18 = inttoptr i64 %13 to i32*
  store i32 %14, i32* %18
  ret %struct.Memory* %2
}

define %struct.Memory* @routine_movl__ecx__MINUS0x14__rbp_(%struct.State* dereferenceable(3376), i64, %struct.Memory*) {
block_400488:
  %3 = getelementptr inbounds %struct.State, %struct.State* %0, i32 0, i32 6
  %4 = getelementptr inbounds %struct.GPR, %struct.GPR* %3, i32 0, i32 33
  %5 = getelementptr inbounds %struct.Reg, %struct.Reg* %4, i32 0, i32 0
  %PC = bitcast %union.anon* %5 to i64*
  %6 = getelementptr inbounds %struct.State, %struct.State* %0, i32 0, i32 6
  %7 = getelementptr inbounds %struct.GPR, %struct.GPR* %6, i32 0, i32 5
  %8 = getelementptr inbounds %struct.Reg, %struct.Reg* %7, i32 0, i32 0
  %ECX = bitcast %union.anon* %8 to i32*
  %9 = getelementptr inbounds %struct.State, %struct.State* %0, i32 0, i32 6
  %10 = getelementptr inbounds %struct.GPR, %struct.GPR* %9, i32 0, i32 15
  %11 = getelementptr inbounds %struct.Reg, %struct.Reg* %10, i32 0, i32 0
  %RBP = bitcast %union.anon* %11 to i64*
  %12 = load i64, i64* %RBP
  %13 = sub i64 %12, 20
  %14 = load i32, i32* %ECX
  %15 = zext i32 %14 to i64
  %16 = load i64, i64* %PC
  %17 = add i64 %16, 3
  store i64 %17, i64* %PC
  %18 = inttoptr i64 %13 to i32*
  store i32 %14, i32* %18
  ret %struct.Memory* %2
}

define %struct.Memory* @routine_movq_MINUS0x8__rbp____rdi(%struct.State* dereferenceable(3376), i64, %struct.Memory*) {
block_400488:
  %3 = getelementptr inbounds %struct.State, %struct.State* %0, i32 0, i32 6
  %4 = getelementptr inbounds %struct.GPR, %struct.GPR* %3, i32 0, i32 33
  %5 = getelementptr inbounds %struct.Reg, %struct.Reg* %4, i32 0, i32 0
  %PC = bitcast %union.anon* %5 to i64*
  %6 = getelementptr inbounds %struct.State, %struct.State* %0, i32 0, i32 6
  %7 = getelementptr inbounds %struct.GPR, %struct.GPR* %6, i32 0, i32 11
  %8 = getelementptr inbounds %struct.Reg, %struct.Reg* %7, i32 0, i32 0
  %RDI = bitcast %union.anon* %8 to i64*
  %9 = getelementptr inbounds %struct.State, %struct.State* %0, i32 0, i32 6
  %10 = getelementptr inbounds %struct.GPR, %struct.GPR* %9, i32 0, i32 15
  %11 = getelementptr inbounds %struct.Reg, %struct.Reg* %10, i32 0, i32 0
  %RBP = bitcast %union.anon* %11 to i64*
  %12 = load i64, i64* %RBP
  %13 = sub i64 %12, 8
  %14 = load i64, i64* %PC
  %15 = add i64 %14, 4
  store i64 %15, i64* %PC
  %16 = inttoptr i64 %13 to i64*
  %17 = load i64, i64* %16
  store i64 %17, i64* %RDI, align 8
  ret %struct.Memory* %2
}

define %struct.Memory* @routine_movl_MINUS0xc__rbp____ecx(%struct.State* dereferenceable(3376), i64, %struct.Memory*) {
block_400488:
  %3 = getelementptr inbounds %struct.State, %struct.State* %0, i32 0, i32 6
  %4 = getelementptr inbounds %struct.GPR, %struct.GPR* %3, i32 0, i32 33
  %5 = getelementptr inbounds %struct.Reg, %struct.Reg* %4, i32 0, i32 0
  %PC = bitcast %union.anon* %5 to i64*
  %6 = getelementptr inbounds %struct.State, %struct.State* %0, i32 0, i32 6
  %7 = getelementptr inbounds %struct.GPR, %struct.GPR* %6, i32 0, i32 5
  %8 = getelementptr inbounds %struct.Reg, %struct.Reg* %7, i32 0, i32 0
  %RCX = bitcast %union.anon* %8 to i64*
  %9 = getelementptr inbounds %struct.State, %struct.State* %0, i32 0, i32 6
  %10 = getelementptr inbounds %struct.GPR, %struct.GPR* %9, i32 0, i32 15
  %11 = getelementptr inbounds %struct.Reg, %struct.Reg* %10, i32 0, i32 0
  %RBP = bitcast %union.anon* %11 to i64*
  %12 = load i64, i64* %RBP
  %13 = sub i64 %12, 12
  %14 = load i64, i64* %PC
  %15 = add i64 %14, 3
  store i64 %15, i64* %PC
  %16 = inttoptr i64 %13 to i32*
  %17 = load i32, i32* %16
  %18 = zext i32 %17 to i64
  store i64 %18, i64* %RCX, align 8
  ret %struct.Memory* %2
}

define %struct.Memory* @routine_addl_MINUS0x10__rbp____ecx(%struct.State* dereferenceable(3376), i64, %struct.Memory*) {
block_400488:
  %3 = getelementptr inbounds %struct.State, %struct.State* %0, i32 0, i32 6
  %4 = getelementptr inbounds %struct.GPR, %struct.GPR* %3, i32 0, i32 33
  %5 = getelementptr inbounds %struct.Reg, %struct.Reg* %4, i32 0, i32 0
  %PC = bitcast %union.anon* %5 to i64*
  %6 = getelementptr inbounds %struct.State, %struct.State* %0, i32 0, i32 6
  %7 = getelementptr inbounds %struct.GPR, %struct.GPR* %6, i32 0, i32 5
  %8 = getelementptr inbounds %struct.Reg, %struct.Reg* %7, i32 0, i32 0
  %RCX = bitcast %union.anon* %8 to i64*
  %9 = getelementptr inbounds %struct.State, %struct.State* %0, i32 0, i32 6
  %10 = getelementptr inbounds %struct.GPR, %struct.GPR* %9, i32 0, i32 15
  %11 = getelementptr inbounds %struct.Reg, %struct.Reg* %10, i32 0, i32 0
  %RBP = bitcast %union.anon* %11 to i64*
  %12 = load i64, i64* %RCX
  %13 = load i64, i64* %RBP
  %14 = sub i64 %13, 16
  %15 = load i64, i64* %PC
  %16 = add i64 %15, 3
  store i64 %16, i64* %PC
  %17 = trunc i64 %12 to i32
  %18 = inttoptr i64 %14 to i32*
  %19 = load i32, i32* %18
  %20 = add i32 %19, %17
  %21 = zext i32 %20 to i64
  store i64 %21, i64* %RCX, align 8
  %22 = icmp ult i32 %20, %17
  %23 = icmp ult i32 %20, %19
  %24 = or i1 %22, %23
  %25 = zext i1 %24 to i8
  %26 = getelementptr inbounds %struct.State, %struct.State* %0, i64 0, i32 2, i32 1
  store i8 %25, i8* %26, align 1
  %27 = and i32 %20, 255
  %28 = call i32 @llvm.ctpop.i32(i32 %27)
  %29 = trunc i32 %28 to i8
  %30 = and i8 %29, 1
  %31 = xor i8 %30, 1
  %32 = getelementptr inbounds %struct.State, %struct.State* %0, i64 0, i32 2, i32 3
  store i8 %31, i8* %32, align 1
  %33 = xor i32 %19, %17
  %34 = xor i32 %33, %20
  %35 = lshr i32 %34, 4
  %36 = trunc i32 %35 to i8
  %37 = and i8 %36, 1
  %38 = getelementptr inbounds %struct.State, %struct.State* %0, i64 0, i32 2, i32 5
  store i8 %37, i8* %38, align 1
  %39 = icmp eq i32 %20, 0
  %40 = zext i1 %39 to i8
  %41 = getelementptr inbounds %struct.State, %struct.State* %0, i64 0, i32 2, i32 7
  store i8 %40, i8* %41, align 1
  %42 = lshr i32 %20, 31
  %43 = trunc i32 %42 to i8
  %44 = getelementptr inbounds %struct.State, %struct.State* %0, i64 0, i32 2, i32 9
  store i8 %43, i8* %44, align 1
  %45 = lshr i32 %17, 31
  %46 = lshr i32 %19, 31
  %47 = xor i32 %42, %45
  %48 = xor i32 %42, %46
  %49 = add i32 %47, %48
  %50 = icmp eq i32 %49, 2
  %51 = zext i1 %50 to i8
  %52 = getelementptr inbounds %struct.State, %struct.State* %0, i64 0, i32 2, i32 13
  store i8 %51, i8* %52, align 1
  ret %struct.Memory* %2
}

define %struct.Memory* @routine_movl__eax__MINUS0x18__rbp_(%struct.State* dereferenceable(3376), i64, %struct.Memory*) {
block_400488:
  %3 = getelementptr inbounds %struct.State, %struct.State* %0, i32 0, i32 6
  %4 = getelementptr inbounds %struct.GPR, %struct.GPR* %3, i32 0, i32 33
  %5 = getelementptr inbounds %struct.Reg, %struct.Reg* %4, i32 0, i32 0
  %PC = bitcast %union.anon* %5 to i64*
  %6 = getelementptr inbounds %struct.State, %struct.State* %0, i32 0, i32 6
  %7 = getelementptr inbounds %struct.GPR, %struct.GPR* %6, i32 0, i32 1
  %8 = getelementptr inbounds %struct.Reg, %struct.Reg* %7, i32 0, i32 0
  %EAX = bitcast %union.anon* %8 to i32*
  %9 = getelementptr inbounds %struct.State, %struct.State* %0, i32 0, i32 6
  %10 = getelementptr inbounds %struct.GPR, %struct.GPR* %9, i32 0, i32 15
  %11 = getelementptr inbounds %struct.Reg, %struct.Reg* %10, i32 0, i32 0
  %RBP = bitcast %union.anon* %11 to i64*
  %12 = load i64, i64* %RBP
  %13 = sub i64 %12, 24
  %14 = load i32, i32* %EAX
  %15 = zext i32 %14 to i64
  %16 = load i64, i64* %PC
  %17 = add i64 %16, 3
  store i64 %17, i64* %PC
  %18 = inttoptr i64 %13 to i32*
  store i32 %14, i32* %18
  ret %struct.Memory* %2
}

define %struct.Memory* @routine_movl__ecx___eax(%struct.State* dereferenceable(3376), i64, %struct.Memory*) {
block_400488:
  %3 = getelementptr inbounds %struct.State, %struct.State* %0, i32 0, i32 6
  %4 = getelementptr inbounds %struct.GPR, %struct.GPR* %3, i32 0, i32 33
  %5 = getelementptr inbounds %struct.Reg, %struct.Reg* %4, i32 0, i32 0
  %PC = bitcast %union.anon* %5 to i64*
  %6 = getelementptr inbounds %struct.State, %struct.State* %0, i32 0, i32 6
  %7 = getelementptr inbounds %struct.GPR, %struct.GPR* %6, i32 0, i32 5
  %8 = getelementptr inbounds %struct.Reg, %struct.Reg* %7, i32 0, i32 0
  %ECX = bitcast %union.anon* %8 to i32*
  %9 = getelementptr inbounds %struct.State, %struct.State* %0, i32 0, i32 6
  %10 = getelementptr inbounds %struct.GPR, %struct.GPR* %9, i32 0, i32 1
  %11 = getelementptr inbounds %struct.Reg, %struct.Reg* %10, i32 0, i32 0
  %RAX = bitcast %union.anon* %11 to i64*
  %12 = load i32, i32* %ECX
  %13 = zext i32 %12 to i64
  %14 = load i64, i64* %PC
  %15 = add i64 %14, 2
  store i64 %15, i64* %PC
  %16 = and i64 %13, 4294967295
  store i64 %16, i64* %RAX, align 8
  ret %struct.Memory* %2
}

define %struct.Memory* @routine_cltd(%struct.State* dereferenceable(3376), i64, %struct.Memory*) {
block_400488:
  %3 = getelementptr inbounds %struct.State, %struct.State* %0, i32 0, i32 6
  %4 = getelementptr inbounds %struct.GPR, %struct.GPR* %3, i32 0, i32 33
  %5 = getelementptr inbounds %struct.Reg, %struct.Reg* %4, i32 0, i32 0
  %PC = bitcast %union.anon* %5 to i64*
  %6 = load i64, i64* %PC
  %7 = add i64 %6, 1
  store i64 %7, i64* %PC
  %8 = getelementptr inbounds %struct.State, %struct.State* %0, i64 0, i32 6, i32 7, i32 0, i32 0
  %9 = getelementptr inbounds %struct.State, %struct.State* %0, i64 0, i32 6, i32 1, i32 0
  %10 = bitcast %union.anon* %9 to i32*
  %11 = load i32, i32* %10, align 8
  %12 = sext i32 %11 to i64
  %13 = lshr i64 %12, 32
  store i64 %13, i64* %8, align 8
  ret %struct.Memory* %2
}

define %struct.Memory* @routine_movl_MINUS0x18__rbp____ecx(%struct.State* dereferenceable(3376), i64, %struct.Memory*) {
block_400488:
  %3 = getelementptr inbounds %struct.State, %struct.State* %0, i32 0, i32 6
  %4 = getelementptr inbounds %struct.GPR, %struct.GPR* %3, i32 0, i32 33
  %5 = getelementptr inbounds %struct.Reg, %struct.Reg* %4, i32 0, i32 0
  %PC = bitcast %union.anon* %5 to i64*
  %6 = getelementptr inbounds %struct.State, %struct.State* %0, i32 0, i32 6
  %7 = getelementptr inbounds %struct.GPR, %struct.GPR* %6, i32 0, i32 5
  %8 = getelementptr inbounds %struct.Reg, %struct.Reg* %7, i32 0, i32 0
  %RCX = bitcast %union.anon* %8 to i64*
  %9 = getelementptr inbounds %struct.State, %struct.State* %0, i32 0, i32 6
  %10 = getelementptr inbounds %struct.GPR, %struct.GPR* %9, i32 0, i32 15
  %11 = getelementptr inbounds %struct.Reg, %struct.Reg* %10, i32 0, i32 0
  %RBP = bitcast %union.anon* %11 to i64*
  %12 = load i64, i64* %RBP
  %13 = sub i64 %12, 24
  %14 = load i64, i64* %PC
  %15 = add i64 %14, 3
  store i64 %15, i64* %PC
  %16 = inttoptr i64 %13 to i32*
  %17 = load i32, i32* %16
  %18 = zext i32 %17 to i64
  store i64 %18, i64* %RCX, align 8
  ret %struct.Memory* %2
}

define %struct.Memory* @routine_idivl__ecx(%struct.State* dereferenceable(3376), i64, %struct.Memory*) {
block_400488:
  %3 = getelementptr inbounds %struct.State, %struct.State* %0, i32 0, i32 6
  %4 = getelementptr inbounds %struct.GPR, %struct.GPR* %3, i32 0, i32 33
  %5 = getelementptr inbounds %struct.Reg, %struct.Reg* %4, i32 0, i32 0
  %PC = bitcast %union.anon* %5 to i64*
  %6 = getelementptr inbounds %struct.State, %struct.State* %0, i32 0, i32 6
  %7 = getelementptr inbounds %struct.GPR, %struct.GPR* %6, i32 0, i32 5
  %8 = getelementptr inbounds %struct.Reg, %struct.Reg* %7, i32 0, i32 0
  %ECX = bitcast %union.anon* %8 to i32*
  %9 = load i32, i32* %ECX
  %10 = zext i32 %9 to i64
  %11 = load i64, i64* %PC
  %12 = add i64 %11, 2
  store i64 %12, i64* %PC
  %13 = getelementptr inbounds %struct.State, %struct.State* %0, i64 0, i32 6, i32 1, i32 0
  %14 = bitcast %union.anon* %13 to i32*
  %15 = load i32, i32* %14, align 8
  %16 = zext i32 %15 to i64
  %17 = getelementptr inbounds %struct.State, %struct.State* %0, i64 0, i32 6, i32 7, i32 0
  %18 = bitcast %union.anon* %17 to i32*
  %19 = load i32, i32* %18, align 8
  %20 = zext i32 %19 to i64
  %21 = shl i64 %10, 32
  %22 = ashr exact i64 %21, 32
  %23 = shl i64 %20, 32
  %24 = or i64 %23, %16
  %25 = sdiv i64 %24, %22
  %26 = shl i64 %25, 32
  %27 = ashr exact i64 %26, 32
  %28 = icmp eq i64 %25, %27
  br i1 %28, label %33, label %29

; <label>:29:                                     ; preds = %block_400488
  %30 = getelementptr inbounds %struct.State, %struct.State* %0, i64 0, i32 6, i32 33, i32 0, i32 0
  %31 = load i64, i64* %30, align 8
  %32 = call %struct.Memory* @__remill_error(%struct.State* nonnull dereferenceable(3376) %0, i64 %31, %struct.Memory* %2)
  br label %_ZN12_GLOBAL__N_1L10IDIVedxeaxI2RnIjEEEP6MemoryS4_R5StateT_.exit

; <label>:33:                                     ; preds = %block_400488
  %34 = srem i64 %24, %22
  %35 = getelementptr inbounds %union.anon, %union.anon* %13, i64 0, i32 0
  %36 = and i64 %25, 4294967295
  store i64 %36, i64* %35, align 8
  %37 = getelementptr inbounds %union.anon, %union.anon* %17, i64 0, i32 0
  %38 = and i64 %34, 4294967295
  store i64 %38, i64* %37, align 8
  %39 = getelementptr inbounds %struct.State, %struct.State* %0, i64 0, i32 2, i32 1
  store i8 0, i8* %39, align 1
  %40 = getelementptr inbounds %struct.State, %struct.State* %0, i64 0, i32 2, i32 3
  store i8 0, i8* %40, align 1
  %41 = getelementptr inbounds %struct.State, %struct.State* %0, i64 0, i32 2, i32 5
  store i8 0, i8* %41, align 1
  %42 = getelementptr inbounds %struct.State, %struct.State* %0, i64 0, i32 2, i32 7
  store i8 0, i8* %42, align 1
  %43 = getelementptr inbounds %struct.State, %struct.State* %0, i64 0, i32 2, i32 9
  store i8 0, i8* %43, align 1
  %44 = getelementptr inbounds %struct.State, %struct.State* %0, i64 0, i32 2, i32 13
  store i8 0, i8* %44, align 1
  br label %_ZN12_GLOBAL__N_1L10IDIVedxeaxI2RnIjEEEP6MemoryS4_R5StateT_.exit

_ZN12_GLOBAL__N_1L10IDIVedxeaxI2RnIjEEEP6MemoryS4_R5StateT_.exit: ; preds = %29, %33
  %45 = phi %struct.Memory* [ %32, %29 ], [ %2, %33 ]
  ret %struct.Memory* %45
}

define %struct.Memory* @routine_movslq__edx___r8(%struct.State* dereferenceable(3376), i64, %struct.Memory*) {
block_400488:
  %3 = getelementptr inbounds %struct.State, %struct.State* %0, i32 0, i32 6
  %4 = getelementptr inbounds %struct.GPR, %struct.GPR* %3, i32 0, i32 33
  %5 = getelementptr inbounds %struct.Reg, %struct.Reg* %4, i32 0, i32 0
  %PC = bitcast %union.anon* %5 to i64*
  %6 = getelementptr inbounds %struct.State, %struct.State* %0, i32 0, i32 6
  %7 = getelementptr inbounds %struct.GPR, %struct.GPR* %6, i32 0, i32 7
  %8 = getelementptr inbounds %struct.Reg, %struct.Reg* %7, i32 0, i32 0
  %EDX = bitcast %union.anon* %8 to i32*
  %9 = getelementptr inbounds %struct.State, %struct.State* %0, i32 0, i32 6
  %10 = getelementptr inbounds %struct.GPR, %struct.GPR* %9, i32 0, i32 17
  %11 = getelementptr inbounds %struct.Reg, %struct.Reg* %10, i32 0, i32 0
  %R8 = bitcast %union.anon* %11 to i64*
  %12 = load i32, i32* %EDX
  %13 = zext i32 %12 to i64
  %14 = load i64, i64* %PC
  %15 = add i64 %14, 3
  store i64 %15, i64* %PC
  %16 = shl i64 %13, 32
  %17 = ashr exact i64 %16, 32
  store i64 %17, i64* %R8, align 8
  ret %struct.Memory* %2
}

define %struct.Memory* @routine_shlq__0x3___r8(%struct.State* dereferenceable(3376), i64, %struct.Memory*) {
block_400488:
  %3 = getelementptr inbounds %struct.State, %struct.State* %0, i32 0, i32 6
  %4 = getelementptr inbounds %struct.GPR, %struct.GPR* %3, i32 0, i32 33
  %5 = getelementptr inbounds %struct.Reg, %struct.Reg* %4, i32 0, i32 0
  %PC = bitcast %union.anon* %5 to i64*
  %6 = getelementptr inbounds %struct.State, %struct.State* %0, i32 0, i32 6
  %7 = getelementptr inbounds %struct.GPR, %struct.GPR* %6, i32 0, i32 17
  %8 = getelementptr inbounds %struct.Reg, %struct.Reg* %7, i32 0, i32 0
  %R8 = bitcast %union.anon* %8 to i64*
  %9 = load i64, i64* %R8
  %10 = load i64, i64* %PC
  %11 = add i64 %10, 4
  store i64 %11, i64* %PC
  %12 = shl i64 %9, 2
  %13 = icmp slt i64 %12, 0
  %14 = shl i64 %12, 1
  store i64 %14, i64* %R8, align 8
  %15 = getelementptr inbounds %struct.State, %struct.State* %0, i64 0, i32 2, i32 1
  %16 = zext i1 %13 to i8
  store i8 %16, i8* %15, align 1
  %17 = getelementptr inbounds %struct.State, %struct.State* %0, i64 0, i32 2, i32 3
  %18 = trunc i64 %14 to i32
  %19 = and i32 %18, 254
  %20 = call i32 @llvm.ctpop.i32(i32 %19)
  %21 = trunc i32 %20 to i8
  %22 = and i8 %21, 1
  %23 = xor i8 %22, 1
  store i8 %23, i8* %17, align 1
  %24 = getelementptr inbounds %struct.State, %struct.State* %0, i64 0, i32 2, i32 5
  store i8 0, i8* %24, align 1
  %25 = getelementptr inbounds %struct.State, %struct.State* %0, i64 0, i32 2, i32 7
  %26 = icmp eq i64 %14, 0
  %27 = zext i1 %26 to i8
  store i8 %27, i8* %25, align 1
  %28 = getelementptr inbounds %struct.State, %struct.State* %0, i64 0, i32 2, i32 9
  %29 = lshr i64 %14, 63
  %30 = trunc i64 %29 to i8
  store i8 %30, i8* %28, align 1
  %31 = getelementptr inbounds %struct.State, %struct.State* %0, i64 0, i32 2, i32 13
  store i8 0, i8* %31, align 1
  ret %struct.Memory* %2
}

define %struct.Memory* @routine_addq__r8___rdi(%struct.State* dereferenceable(3376), i64, %struct.Memory*) {
block_400488:
  %3 = getelementptr inbounds %struct.State, %struct.State* %0, i32 0, i32 6
  %4 = getelementptr inbounds %struct.GPR, %struct.GPR* %3, i32 0, i32 33
  %5 = getelementptr inbounds %struct.Reg, %struct.Reg* %4, i32 0, i32 0
  %PC = bitcast %union.anon* %5 to i64*
  %6 = getelementptr inbounds %struct.State, %struct.State* %0, i32 0, i32 6
  %7 = getelementptr inbounds %struct.GPR, %struct.GPR* %6, i32 0, i32 11
  %8 = getelementptr inbounds %struct.Reg, %struct.Reg* %7, i32 0, i32 0
  %RDI = bitcast %union.anon* %8 to i64*
  %9 = getelementptr inbounds %struct.State, %struct.State* %0, i32 0, i32 6
  %10 = getelementptr inbounds %struct.GPR, %struct.GPR* %9, i32 0, i32 17
  %11 = getelementptr inbounds %struct.Reg, %struct.Reg* %10, i32 0, i32 0
  %R8 = bitcast %union.anon* %11 to i64*
  %12 = load i64, i64* %RDI
  %13 = load i64, i64* %R8
  %14 = load i64, i64* %PC
  %15 = add i64 %14, 3
  store i64 %15, i64* %PC
  %16 = add i64 %13, %12
  store i64 %16, i64* %RDI, align 8
  %17 = icmp ult i64 %16, %12
  %18 = icmp ult i64 %16, %13
  %19 = or i1 %17, %18
  %20 = zext i1 %19 to i8
  %21 = getelementptr inbounds %struct.State, %struct.State* %0, i64 0, i32 2, i32 1
  store i8 %20, i8* %21, align 1
  %22 = trunc i64 %16 to i32
  %23 = and i32 %22, 255
  %24 = call i32 @llvm.ctpop.i32(i32 %23)
  %25 = trunc i32 %24 to i8
  %26 = and i8 %25, 1
  %27 = xor i8 %26, 1
  %28 = getelementptr inbounds %struct.State, %struct.State* %0, i64 0, i32 2, i32 3
  store i8 %27, i8* %28, align 1
  %29 = xor i64 %13, %12
  %30 = xor i64 %29, %16
  %31 = lshr i64 %30, 4
  %32 = trunc i64 %31 to i8
  %33 = and i8 %32, 1
  %34 = getelementptr inbounds %struct.State, %struct.State* %0, i64 0, i32 2, i32 5
  store i8 %33, i8* %34, align 1
  %35 = icmp eq i64 %16, 0
  %36 = zext i1 %35 to i8
  %37 = getelementptr inbounds %struct.State, %struct.State* %0, i64 0, i32 2, i32 7
  store i8 %36, i8* %37, align 1
  %38 = lshr i64 %16, 63
  %39 = trunc i64 %38 to i8
  %40 = getelementptr inbounds %struct.State, %struct.State* %0, i64 0, i32 2, i32 9
  store i8 %39, i8* %40, align 1
  %41 = lshr i64 %12, 63
  %42 = lshr i64 %13, 63
  %43 = xor i64 %38, %41
  %44 = xor i64 %38, %42
  %45 = add i64 %43, %44
  %46 = icmp eq i64 %45, 2
  %47 = zext i1 %46 to i8
  %48 = getelementptr inbounds %struct.State, %struct.State* %0, i64 0, i32 2, i32 13
  store i8 %47, i8* %48, align 1
  ret %struct.Memory* %2
}

define %struct.Memory* @routine_movl_MINUS0xc__rbp____esi(%struct.State* dereferenceable(3376), i64, %struct.Memory*) {
block_400488:
  %3 = getelementptr inbounds %struct.State, %struct.State* %0, i32 0, i32 6
  %4 = getelementptr inbounds %struct.GPR, %struct.GPR* %3, i32 0, i32 33
  %5 = getelementptr inbounds %struct.Reg, %struct.Reg* %4, i32 0, i32 0
  %PC = bitcast %union.anon* %5 to i64*
  %6 = getelementptr inbounds %struct.State, %struct.State* %0, i32 0, i32 6
  %7 = getelementptr inbounds %struct.GPR, %struct.GPR* %6, i32 0, i32 9
  %8 = getelementptr inbounds %struct.Reg, %struct.Reg* %7, i32 0, i32 0
  %RSI = bitcast %union.anon* %8 to i64*
  %9 = getelementptr inbounds %struct.State, %struct.State* %0, i32 0, i32 6
  %10 = getelementptr inbounds %struct.GPR, %struct.GPR* %9, i32 0, i32 15
  %11 = getelementptr inbounds %struct.Reg, %struct.Reg* %10, i32 0, i32 0
  %RBP = bitcast %union.anon* %11 to i64*
  %12 = load i64, i64* %RBP
  %13 = sub i64 %12, 12
  %14 = load i64, i64* %PC
  %15 = add i64 %14, 3
  store i64 %15, i64* %PC
  %16 = inttoptr i64 %13 to i32*
  %17 = load i32, i32* %16
  %18 = zext i32 %17 to i64
  store i64 %18, i64* %RSI, align 8
  ret %struct.Memory* %2
}

define %struct.Memory* @routine_movl_MINUS0x10__rbp____edx(%struct.State* dereferenceable(3376), i64, %struct.Memory*) {
block_400488:
  %3 = getelementptr inbounds %struct.State, %struct.State* %0, i32 0, i32 6
  %4 = getelementptr inbounds %struct.GPR, %struct.GPR* %3, i32 0, i32 33
  %5 = getelementptr inbounds %struct.Reg, %struct.Reg* %4, i32 0, i32 0
  %PC = bitcast %union.anon* %5 to i64*
  %6 = getelementptr inbounds %struct.State, %struct.State* %0, i32 0, i32 6
  %7 = getelementptr inbounds %struct.GPR, %struct.GPR* %6, i32 0, i32 7
  %8 = getelementptr inbounds %struct.Reg, %struct.Reg* %7, i32 0, i32 0
  %RDX = bitcast %union.anon* %8 to i64*
  %9 = getelementptr inbounds %struct.State, %struct.State* %0, i32 0, i32 6
  %10 = getelementptr inbounds %struct.GPR, %struct.GPR* %9, i32 0, i32 15
  %11 = getelementptr inbounds %struct.Reg, %struct.Reg* %10, i32 0, i32 0
  %RBP = bitcast %union.anon* %11 to i64*
  %12 = load i64, i64* %RBP
  %13 = sub i64 %12, 16
  %14 = load i64, i64* %PC
  %15 = add i64 %14, 3
  store i64 %15, i64* %PC
  %16 = inttoptr i64 %13 to i32*
  %17 = load i32, i32* %16
  %18 = zext i32 %17 to i64
  store i64 %18, i64* %RDX, align 8
  ret %struct.Memory* %2
}

define %struct.Memory* @routine_movl_MINUS0x14__rbp____ecx(%struct.State* dereferenceable(3376), i64, %struct.Memory*) {
block_400488:
  %3 = getelementptr inbounds %struct.State, %struct.State* %0, i32 0, i32 6
  %4 = getelementptr inbounds %struct.GPR, %struct.GPR* %3, i32 0, i32 33
  %5 = getelementptr inbounds %struct.Reg, %struct.Reg* %4, i32 0, i32 0
  %PC = bitcast %union.anon* %5 to i64*
  %6 = getelementptr inbounds %struct.State, %struct.State* %0, i32 0, i32 6
  %7 = getelementptr inbounds %struct.GPR, %struct.GPR* %6, i32 0, i32 5
  %8 = getelementptr inbounds %struct.Reg, %struct.Reg* %7, i32 0, i32 0
  %RCX = bitcast %union.anon* %8 to i64*
  %9 = getelementptr inbounds %struct.State, %struct.State* %0, i32 0, i32 6
  %10 = getelementptr inbounds %struct.GPR, %struct.GPR* %9, i32 0, i32 15
  %11 = getelementptr inbounds %struct.Reg, %struct.Reg* %10, i32 0, i32 0
  %RBP = bitcast %union.anon* %11 to i64*
  %12 = load i64, i64* %RBP
  %13 = sub i64 %12, 20
  %14 = load i64, i64* %PC
  %15 = add i64 %14, 3
  store i64 %15, i64* %PC
  %16 = inttoptr i64 %13 to i32*
  %17 = load i32, i32* %16
  %18 = zext i32 %17 to i64
  store i64 %18, i64* %RCX, align 8
  ret %struct.Memory* %2
}

define %struct.Memory* @routine_callq_.add_to_entry_list(%struct.State* dereferenceable(3376), i64, %struct.Memory*, i64 %rel_off1, i64 %rel_off2, i64 %rel_off3) {
block_400488:
  %3 = getelementptr inbounds %struct.State, %struct.State* %0, i32 0, i32 6
  %4 = getelementptr inbounds %struct.GPR, %struct.GPR* %3, i32 0, i32 33
  %5 = getelementptr inbounds %struct.Reg, %struct.Reg* %4, i32 0, i32 0
  %PC = bitcast %union.anon* %5 to i64*
  %6 = load i64, i64* %PC
  %7 = add i64 %6, %rel_off1
  %8 = load i64, i64* %PC
  %9 = add i64 %8, %rel_off2
  %10 = load i64, i64* %PC
  %11 = add i64 %10, %rel_off3
  store i64 %11, i64* %PC
  %12 = getelementptr inbounds %struct.State, %struct.State* %0, i64 0, i32 6, i32 13, i32 0, i32 0
  %13 = load i64, i64* %12, align 8
  %14 = add i64 %13, -8
  %15 = inttoptr i64 %14 to i64*
  store i64 %9, i64* %15
  store i64 %14, i64* %12, align 8
  %16 = getelementptr inbounds %struct.State, %struct.State* %0, i64 0, i32 6, i32 33, i32 0, i32 0
  store i64 %7, i64* %16, align 8
  ret %struct.Memory* %2
}

define %struct.Memory* @routine_addq__0x20___rsp(%struct.State* dereferenceable(3376), i64, %struct.Memory*) {
block_400488:
  %3 = getelementptr inbounds %struct.State, %struct.State* %0, i32 0, i32 6
  %4 = getelementptr inbounds %struct.GPR, %struct.GPR* %3, i32 0, i32 33
  %5 = getelementptr inbounds %struct.Reg, %struct.Reg* %4, i32 0, i32 0
  %PC = bitcast %union.anon* %5 to i64*
  %6 = getelementptr inbounds %struct.State, %struct.State* %0, i32 0, i32 6
  %7 = getelementptr inbounds %struct.GPR, %struct.GPR* %6, i32 0, i32 13
  %8 = getelementptr inbounds %struct.Reg, %struct.Reg* %7, i32 0, i32 0
  %RSP = bitcast %union.anon* %8 to i64*
  %9 = load i64, i64* %RSP
  %10 = load i64, i64* %PC
  %11 = add i64 %10, 4
  store i64 %11, i64* %PC
  %12 = add i64 32, %9
  store i64 %12, i64* %RSP, align 8
  %13 = icmp ult i64 %12, %9
  %14 = icmp ult i64 %12, 32
  %15 = or i1 %13, %14
  %16 = zext i1 %15 to i8
  %17 = getelementptr inbounds %struct.State, %struct.State* %0, i64 0, i32 2, i32 1
  store i8 %16, i8* %17, align 1
  %18 = trunc i64 %12 to i32
  %19 = and i32 %18, 255
  %20 = call i32 @llvm.ctpop.i32(i32 %19)
  %21 = trunc i32 %20 to i8
  %22 = and i8 %21, 1
  %23 = xor i8 %22, 1
  %24 = getelementptr inbounds %struct.State, %struct.State* %0, i64 0, i32 2, i32 3
  store i8 %23, i8* %24, align 1
  %25 = xor i64 32, %9
  %26 = xor i64 %25, %12
  %27 = lshr i64 %26, 4
  %28 = trunc i64 %27 to i8
  %29 = and i8 %28, 1
  %30 = getelementptr inbounds %struct.State, %struct.State* %0, i64 0, i32 2, i32 5
  store i8 %29, i8* %30, align 1
  %31 = icmp eq i64 %12, 0
  %32 = zext i1 %31 to i8
  %33 = getelementptr inbounds %struct.State, %struct.State* %0, i64 0, i32 2, i32 7
  store i8 %32, i8* %33, align 1
  %34 = lshr i64 %12, 63
  %35 = trunc i64 %34 to i8
  %36 = getelementptr inbounds %struct.State, %struct.State* %0, i64 0, i32 2, i32 9
  store i8 %35, i8* %36, align 1
  %37 = lshr i64 %9, 63
  %38 = xor i64 %34, %37
  %39 = add i64 %38, %34
  %40 = icmp eq i64 %39, 2
  %41 = zext i1 %40 to i8
  %42 = getelementptr inbounds %struct.State, %struct.State* %0, i64 0, i32 2, i32 13
  store i8 %41, i8* %42, align 1
  ret %struct.Memory* %2
}

define %struct.Memory* @routine_popq__rbp(%struct.State* dereferenceable(3376), i64, %struct.Memory*) {
block_400488:
  %3 = getelementptr inbounds %struct.State, %struct.State* %0, i32 0, i32 6
  %4 = getelementptr inbounds %struct.GPR, %struct.GPR* %3, i32 0, i32 33
  %5 = getelementptr inbounds %struct.Reg, %struct.Reg* %4, i32 0, i32 0
  %PC = bitcast %union.anon* %5 to i64*
  %6 = getelementptr inbounds %struct.State, %struct.State* %0, i32 0, i32 6
  %7 = getelementptr inbounds %struct.GPR, %struct.GPR* %6, i32 0, i32 15
  %8 = getelementptr inbounds %struct.Reg, %struct.Reg* %7, i32 0, i32 0
  %RBP = bitcast %union.anon* %8 to i64*
  %9 = load i64, i64* %PC
  %10 = add i64 %9, 1
  store i64 %10, i64* %PC
  %11 = getelementptr inbounds %struct.State, %struct.State* %0, i64 0, i32 6, i32 13, i32 0, i32 0
  %12 = load i64, i64* %11, align 8
  %13 = add i64 %12, 8
  %14 = inttoptr i64 %12 to i64*
  %15 = load i64, i64* %14
  store i64 %15, i64* %RBP, align 8
  store i64 %13, i64* %11, align 8
  ret %struct.Memory* %2
}

define %struct.Memory* @routine_retq(%struct.State* dereferenceable(3376), i64, %struct.Memory*) {
block_400488:
  %3 = getelementptr inbounds %struct.State, %struct.State* %0, i32 0, i32 6
  %4 = getelementptr inbounds %struct.GPR, %struct.GPR* %3, i32 0, i32 33
  %5 = getelementptr inbounds %struct.Reg, %struct.Reg* %4, i32 0, i32 0
  %PC = bitcast %union.anon* %5 to i64*
  %6 = load i64, i64* %PC
  %7 = add i64 %6, 1
  store i64 %7, i64* %PC
  %8 = getelementptr inbounds %struct.State, %struct.State* %0, i64 0, i32 6, i32 33, i32 0, i32 0
  %9 = getelementptr inbounds %struct.State, %struct.State* %0, i64 0, i32 6, i32 13, i32 0, i32 0
  %10 = load i64, i64* %9, align 8
  %11 = inttoptr i64 %10 to i64*
  %12 = load i64, i64* %11
  store i64 %12, i64* %8, align 8
  %13 = add i64 %10, 8
  store i64 %13, i64* %9, align 8
  ret %struct.Memory* %2
}

attributes #0 = { argmemonly nounwind }
attributes #1 = { nounwind readnone }
attributes #2 = { alwaysinline }
