; ModuleID = 'mcsema/test.proposed.ll'
source_filename = "llvm-link"
target datalayout = "e-m:e-i64:64-f80:128-n8:16:32:64-S128"
target triple = "x86_64-pc-linux-gnu-elf"

%union.anon = type { i64 }
%seg_400388__init_type = type <{ [23 x i8] }>
%seg_4003a0__text_type = type <{ [354 x i8] }>
%seg_400504__fini_type = type <{ [9 x i8] }>
%seg_400510__rodata_type = type <{ [4 x i8] }>
%seg_400514__eh_frame_hdr_type = type <{ [52 x i8] }>
%seg_400548__eh_frame_type = type <{ [208 x i8] }>
%seg_601018__data_type = type <{ [16 x i8] }>
%__bss_start_type = type <{ [8 x i8] }>
%seg_400514__fini_type = type <{ [9 x i8] }>
%seg_400520__rodata_type = type <{ [4 x i8] }>
%seg_400524__eh_frame_hdr_type = type <{ [52 x i8] }>
%seg_400558__eh_frame_type = type <{ [208 x i8] }>
%G_0x722b58_type = type <{ [8 x i8] }>
%G_0x722b68_type = type <{ [8 x i8] }>
%G__0x4c3305_type = type <{ [8 x i8] }>
%G__0x4c3340_type = type <{ [8 x i8] }>
%G__0x4c3389_type = type <{ [8 x i8] }>
%struct.State = type { %struct.ArchState, [32 x %union.VectorReg], %struct.ArithFlags, %union.anon, %struct.Segments, %struct.AddressSpace, %struct.GPR, %struct.X87Stack, %struct.MMX, %struct.FPUStatusFlags, %union.anon, %union.FPU, %struct.SegmentCaches }
%struct.ArchState = type { i32, i32, %union.anon }
%union.VectorReg = type { %union.vec512_t }
%union.vec512_t = type { %struct.uint64v8_t }
%struct.uint64v8_t = type { [8 x i64] }
%struct.ArithFlags = type { i8, i8, i8, i8, i8, i8, i8, i8, i8, i8, i8, i8, i8, i8, i8, i8 }
%struct.Segments = type { i16, %union.SegmentSelector, i16, %union.SegmentSelector, i16, %union.SegmentSelector, i16, %union.SegmentSelector, i16, %union.SegmentSelector, i16, %union.SegmentSelector }
%union.SegmentSelector = type { i16 }
%struct.AddressSpace = type { i64, %struct.Reg, i64, %struct.Reg, i64, %struct.Reg, i64, %struct.Reg, i64, %struct.Reg, i64, %struct.Reg }
%struct.Reg = type { %union.anon }
%struct.GPR = type { i64, %struct.Reg, i64, %struct.Reg, i64, %struct.Reg, i64, %struct.Reg, i64, %struct.Reg, i64, %struct.Reg, i64, %struct.Reg, i64, %struct.Reg, i64, %struct.Reg, i64, %struct.Reg, i64, %struct.Reg, i64, %struct.Reg, i64, %struct.Reg, i64, %struct.Reg, i64, %struct.Reg, i64, %struct.Reg, i64, %struct.Reg }
%struct.X87Stack = type { [8 x %struct.anon.3] }
%struct.anon.3 = type { i64, double }
%struct.MMX = type { [8 x %struct.anon.4] }
%struct.anon.4 = type { i64, %union.vec64_t }
%union.vec64_t = type { %struct.uint64v1_t }
%struct.uint64v1_t = type { [1 x i64] }
%struct.FPUStatusFlags = type { i8, i8, i8, i8, i8, i8, i8, i8, i8, i8, i8, i8, i8, i8, i8, i8, i8, i8, i8, i8, [4 x i8] }
%union.FPU = type { %struct.anon.13 }
%struct.anon.13 = type { %struct.FpuFXSAVE, [96 x i8] }
%struct.FpuFXSAVE = type { %union.SegmentSelector, %union.SegmentSelector, %union.FPUAbridgedTagWord, i8, i16, i32, %union.SegmentSelector, i16, i32, %union.SegmentSelector, i16, %union.FPUControlStatus, %union.FPUControlStatus, [8 x %struct.FPUStackElem], [16 x %union.vec128_t] }
%union.FPUAbridgedTagWord = type { i8 }
%union.FPUControlStatus = type { i32 }
%struct.FPUStackElem = type { %union.anon.11, [6 x i8] }
%union.anon.11 = type { %struct.float80_t }
%struct.float80_t = type { [10 x i8] }
%union.vec128_t = type { %struct.uint128v1_t }
%struct.uint128v1_t = type { [1 x i128] }
%struct.SegmentCaches = type { %struct.SegmentShadow, %struct.SegmentShadow, %struct.SegmentShadow, %struct.SegmentShadow, %struct.SegmentShadow, %struct.SegmentShadow }
%struct.SegmentShadow = type { %union.anon, i32, i32 }
%struct.Memory = type opaque

@switch.table = private unnamed_addr constant [4 x i32] [i32 2048, i32 3072, i32 0, i32 1024]
@DR0 = external global i64, align 8
@DR1 = external global i64, align 8
@DR2 = external global i64, align 8
@DR3 = external global i64, align 8
@DR4 = external global i64, align 8
@DR5 = external global i64, align 8
@DR6 = external global i64, align 8
@DR7 = external global i64, align 8
@gCR0 = external global %union.anon, align 1
@gCR1 = external global %union.anon, align 1
@gCR2 = external global %union.anon, align 1
@gCR3 = external global %union.anon, align 1
@gCR4 = external global %union.anon, align 1
@gCR8 = external global %union.anon, align 1
@seg_400388__init = internal constant %seg_400388__init_type <{ [23 x i8] c"H\83\EC\08H\8B\05e\0C \00H\85\C0t\02\FF\D0H\83\C4\08\C3" }>
@seg_4003a0__text = internal constant %seg_4003a0__text_type <{ [354 x i8] c"1\EDI\89\D1^H\89\E2H\83\E4\F0PTI\C7\C0\00\05@\00H\C7\C1\90\04@\00H\C7\C7\88\04@\00\FF\15&\0C \00\F4\0F\1FD\00\00\F3\C3f.\0F\1F\84\00\00\00\00\00\0F\1F@\00U\B8(\10`\00H=(\10`\00H\89\E5t\17\B8\00\00\00\00H\85\C0t\0D]\BF(\10`\00\FF\E0\0F\1FD\00\00]\C3f\0F\1FD\00\00\BE(\10`\00UH\81\EE(\10`\00H\89\E5H\C1\FE\03H\89\F0H\C1\E8?H\01\C6H\D1\FEt\15\B8\00\00\00\00H\85\C0t\0B]\BF(\10`\00\FF\E0\0F\1F\00]\C3f\0F\1FD\00\00\80=\D1\0B \00\00u\17UH\89\E5\E8~\FF\FF\FF\C6\05\BF\0B \00\01]\C3\0F\1FD\00\00\F3\C3\0F\1F@\00f.\0F\1F\84\00\00\00\00\00UH\89\E5]\EB\89\90U\C3f\0F\1FD\00\00AWAVI\89\D7AUATL\8D%\9E\09 \00UH\8D-\9E\09 \00SA\89\FDI\89\F6L)\E5H\83\EC\08H\C1\FD\03\E8\C7\FE\FF\FFH\85\EDt 1\DB\0F\1F\84\00\00\00\00\00L\89\FAL\89\F6D\89\EFA\FF\14\DCH\83\C3\01H9\DDu\EAH\83\C4\08[]A\5CA]A^A_\C3\90f.\0F\1F\84\00\00\00\00\00\F3\C3" }>
@seg_400504__fini = internal constant %seg_400504__fini_type <{ [9 x i8] c"H\83\EC\08H\83\C4\08\C3" }>
@seg_400510__rodata = internal constant %seg_400510__rodata_type <{ [4 x i8] c"\01\00\02\00" }>
@seg_400514__eh_frame_hdr = internal constant %seg_400514__eh_frame_hdr_type <{ [52 x i8] c"\01\1B\03;0\00\00\00\05\00\00\00\8C\FE\FF\FFL\00\00\00\BC\FE\FF\FFx\00\00\00t\FF\FF\FF\8C\00\00\00|\FF\FF\FF\A4\00\00\00\EC\FF\FF\FF\EC\00\00\00" }>
@seg_400548__eh_frame = internal constant %seg_400548__eh_frame_type <{ [208 x i8] c"\14\00\00\00\00\00\00\00\01zR\00\01x\10\01\1B\0C\07\08\90\01\07\10\10\00\00\00\1C\00\00\008\FE\FF\FF+\00\00\00\00\00\00\00\14\00\00\00\00\00\00\00\01zR\00\01x\10\01\1B\0C\07\08\90\01\00\00\10\00\00\00\1C\00\00\00<\FE\FF\FF\02\00\00\00\00\00\00\00\14\00\00\000\00\00\00\E0\FE\FF\FF\02\00\00\00\00\00\00\00\00\00\00\00D\00\00\00H\00\00\00\D0\FE\FF\FFe\00\00\00\00B\0E\10\8F\02B\0E\18\8E\03E\0E \8D\04B\0E(\8C\05H\0E0\86\06H\0E8\83\07M\0E@r\0E8A\0E0A\0E(B\0E B\0E\18B\0E\10B\0E\08\00\10\00\00\00\90\00\00\00\F8\FE\FF\FF\02\00\00\00\00\00\00\00\00\00\00\00" }>
@seg_601018__data = internal global %seg_601018__data_type zeroinitializer
@__bss_start = global %__bss_start_type zeroinitializer
@0 = internal global i1 false
@seg_400514__fini = internal constant %seg_400514__fini_type <{ [9 x i8] c"H\83\EC\08H\83\C4\08\C3" }>
@seg_400520__rodata = internal constant %seg_400520__rodata_type <{ [4 x i8] c"\01\00\02\00" }>
@seg_400524__eh_frame_hdr = internal constant %seg_400524__eh_frame_hdr_type <{ [52 x i8] c"\01\1B\03;0\00\00\00\05\00\00\00|\FE\FF\FFL\00\00\00\AC\FE\FF\FFx\00\00\00d\FF\FF\FF\8C\00\00\00|\FF\FF\FF\A4\00\00\00\EC\FF\FF\FF\EC\00\00\00" }>
@seg_400558__eh_frame = internal constant %seg_400558__eh_frame_type <{ [208 x i8] c"\14\00\00\00\00\00\00\00\01zR\00\01x\10\01\1B\0C\07\08\90\01\07\10\10\00\00\00\1C\00\00\00(\FE\FF\FF+\00\00\00\00\00\00\00\14\00\00\00\00\00\00\00\01zR\00\01x\10\01\1B\0C\07\08\90\01\00\00\10\00\00\00\1C\00\00\00,\FE\FF\FF\02\00\00\00\00\00\00\00\14\00\00\000\00\00\00\D0\FE\FF\FF\09\00\00\00\00\00\00\00\00\00\00\00D\00\00\00H\00\00\00\D0\FE\FF\FFe\00\00\00\00B\0E\10\8F\02B\0E\18\8E\03E\0E \8D\04B\0E(\8C\05H\0E0\86\06H\0E8\83\07M\0E@r\0E8A\0E0A\0E(B\0E B\0E\18B\0E\10B\0E\08\00\10\00\00\00\90\00\00\00\F8\FE\FF\FF\02\00\00\00\00\00\00\00\00\00\00\00" }>
@G_0x722b58 = global %G_0x722b58_type zeroinitializer
@G_0x722b68 = global %G_0x722b68_type zeroinitializer
@G__0x4c3305 = global %G__0x4c3305_type zeroinitializer
@G__0x4c3340 = global %G__0x4c3340_type zeroinitializer
@G__0x4c3389 = global %G__0x4c3389_type zeroinitializer

declare %struct.Memory* @__remill_error(%struct.State* dereferenceable(3376), i64, %struct.Memory*)

declare i32 @__remill_fpu_exception_test_and_clear(i32, i32)

; Function Attrs: argmemonly nounwind
declare void @llvm.lifetime.start(i64, i8* nocapture) #0

; Function Attrs: argmemonly nounwind
declare void @llvm.lifetime.end(i64, i8* nocapture) #0

; Function Attrs: nounwind readnone
declare i32 @llvm.ctpop.i32(i32) #1

; Function Attrs: nounwind readnone
declare i32 @llvm.bswap.i32(i32) #1

; Function Attrs: nounwind readnone
declare i64 @llvm.bswap.i64(i64) #1

; Function Attrs: nounwind readnone
declare i32 @llvm.cttz.i32(i32, i1) #1

; Function Attrs: nounwind readnone
declare i64 @llvm.cttz.i64(i64, i1) #1

; Function Attrs: nounwind readnone
declare i32 @llvm.ctlz.i32(i32, i1) #1

; Function Attrs: nounwind readnone
declare i64 @llvm.ctlz.i64(i64, i1) #1

; Function Attrs: argmemonly nounwind
declare void @llvm.memcpy.p0i8.p0i8.i64(i8* nocapture writeonly, i8* nocapture readonly, i64, i32, i1) #0

; Function Attrs: nounwind readnone
declare double @llvm.nearbyint.f64(double) #1

; Function Attrs: nounwind readnone
declare double @llvm.fabs.f64(double) #1

; Function Attrs: nounwind readnone
declare <4 x double> @llvm.nearbyint.v4f64(<4 x double>) #1

; Function Attrs: nounwind readnone
declare <4 x double> @llvm.fabs.v4f64(<4 x double>) #1

; Function Attrs: nounwind readnone
declare double @llvm.trunc.f64(double) #1

; Function Attrs: nounwind readnone
declare <4 x double> @llvm.trunc.v4f64(<4 x double>) #1

; Function Attrs: nounwind readnone
declare float @llvm.nearbyint.f32(float) #1

; Function Attrs: nounwind readnone
declare float @llvm.fabs.f32(float) #1

; Function Attrs: nounwind readnone
declare <4 x float> @llvm.nearbyint.v4f32(<4 x float>) #1

; Function Attrs: nounwind readnone
declare <4 x float> @llvm.fabs.v4f32(<4 x float>) #1

; Function Attrs: nounwind readnone
declare float @llvm.trunc.f32(float) #1

; Function Attrs: nounwind readnone
declare <4 x float> @llvm.trunc.v4f32(<4 x float>) #1

; Function Attrs: argmemonly nounwind
declare void @llvm.memset.p0i8.i64(i8* nocapture writeonly, i8, i64, i32, i1) #0

declare double @atan(double) local_unnamed_addr

declare double @cos(double) local_unnamed_addr

declare double @sin(double) local_unnamed_addr

declare double @sqrt(double) local_unnamed_addr

declare double @tan(double) local_unnamed_addr

declare extern_weak x86_64_sysvcc i64 @abort()

declare extern_weak x86_64_sysvcc i64 @abs(i64)

declare extern_weak x86_64_sysvcc i64 @asin(i64)

declare extern_weak x86_64_sysvcc i64 @atof(i64)

declare extern_weak x86_64_sysvcc i64 @atoi(i64)

declare extern_weak x86_64_sysvcc i64 @atol(i64)

declare extern_weak x86_64_sysvcc i64 @calloc(i64, i64)

declare extern_weak x86_64_sysvcc i64 @clock()

declare extern_weak x86_64_sysvcc i64 @cosf(i64)

declare extern_weak x86_64_sysvcc i64 @exit(i64)

declare extern_weak x86_64_sysvcc i64 @exp(i64)

declare extern_weak x86_64_sysvcc i64 @fflush(i64)

declare extern_weak x86_64_sysvcc i64 @floor(i64)

declare extern_weak x86_64_sysvcc i64 @fprintf(i64, i64, i64, i64, i64, i64, i64, i64, i64, i64, i64, i64, i64, i64, i64, i64)

declare extern_weak x86_64_sysvcc i64 @fputs(i64, i64)

declare extern_weak x86_64_sysvcc i64 @free(i64)

declare extern_weak x86_64_sysvcc i64 @fwrite(i64, i64, i64, i64)

declare extern_weak x86_64_sysvcc i64 @getchar()

declare extern_weak x86_64_sysvcc i64 @gettimeofday(i64, i64)

declare extern_weak x86_64_sysvcc i64 @__isoc99_fscanf(i64, i64, i64, i64, i64, i64, i64, i64, i64, i64, i64, i64, i64, i64, i64, i64)

declare extern_weak x86_64_sysvcc i64 @__isoc99_scanf(i64, i64, i64, i64, i64, i64, i64, i64, i64, i64, i64, i64, i64, i64, i64, i64)

declare extern_weak x86_64_sysvcc i64 @__isoc99_sscanf(i64, i64, i64, i64, i64, i64, i64, i64, i64, i64, i64, i64, i64, i64, i64, i64)

declare extern_weak x86_64_sysvcc i64 @log(i64)

declare extern_weak x86_64_sysvcc i64 @lrand48()

declare extern_weak x86_64_sysvcc i64 @malloc(i64)

declare extern_weak x86_64_sysvcc i64 @memalign(i64, i64)

declare extern_weak x86_64_sysvcc i64 @memcpy(i64, i64, i64)

declare extern_weak x86_64_sysvcc i64 @memset(i64, i64, i64)

declare extern_weak x86_64_sysvcc i64 @perror(i64)

declare extern_weak x86_64_sysvcc i64 @posix_memalign(i64, i64, i64)

declare extern_weak x86_64_sysvcc i64 @pow(i64, i64)

declare extern_weak x86_64_sysvcc i64 @printf(i64, i64, i64, i64, i64, i64, i64, i64, i64, i64, i64, i64, i64, i64, i64, i64)

declare extern_weak x86_64_sysvcc i64 @putchar(i64)

declare extern_weak x86_64_sysvcc i64 @puts(i64)

declare extern_weak x86_64_sysvcc i64 @rand()

declare extern_weak x86_64_sysvcc i64 @random()

declare extern_weak x86_64_sysvcc i64 @realloc(i64, i64)

declare extern_weak x86_64_sysvcc i64 @seed48(i64)

declare extern_weak x86_64_sysvcc i64 @sinf(i64)

declare extern_weak x86_64_sysvcc i64 @sprintf(i64, i64, i64, i64, i64, i64, i64, i64, i64, i64, i64, i64, i64, i64, i64, i64)

declare extern_weak x86_64_sysvcc i64 @srand(i64)

declare extern_weak x86_64_sysvcc i64 @strcat(i64, i64)

declare extern_weak x86_64_sysvcc i64 @strcmp(i64, i64)

declare extern_weak x86_64_sysvcc i64 @strcpy(i64, i64)

declare extern_weak x86_64_sysvcc i64 @strdup(i64)

declare extern_weak x86_64_sysvcc i64 @strlen(i64)

declare extern_weak x86_64_sysvcc i64 @strncmp(i64, i64, i64)

declare extern_weak x86_64_sysvcc i64 @strtoll(i64, i64, i64)

declare extern_weak x86_64_sysvcc i64 @time(i64)

declare extern_weak x86_64_sysvcc i64 @ungetc(i64, i64)

declare extern_weak x86_64_sysvcc i64 @pthread_join(i64, i64)

declare extern_weak x86_64_sysvcc i64 @pthread_create(i64, i64, i64, i64)

declare %struct.Memory* @__remill_function_call(%struct.State* dereferenceable(3376), i64, %struct.Memory*)

declare %struct.Memory* @ext_sqrt(%struct.State* noalias dereferenceable(3376), i64, %struct.Memory* noalias)

declare %struct.Memory* @ext_atan(%struct.State* noalias dereferenceable(3376), i64, %struct.Memory* noalias)

declare %struct.Memory* @ext_cos(%struct.State* noalias dereferenceable(3376), i64, %struct.Memory* noalias)

declare %struct.Memory* @ext_tan(%struct.State* noalias dereferenceable(3376), i64, %struct.Memory* noalias)

declare %struct.Memory* @ext_sin(%struct.State* noalias dereferenceable(3376), i64, %struct.Memory* noalias)

declare %struct.Memory* @sub_4593f0.no_mem_exit(%struct.State* noalias dereferenceable(3376), i64, %struct.Memory* noalias readnone returned)

declare %struct.Memory* @sub_49f6c0.ClearUser_data_unregistered(%struct.State* noalias dereferenceable(3376), i64, %struct.Memory* noalias readnone returned)

; Function Attrs: alwaysinline
define %struct.Memory* @InitUser_data_unregistered(%struct.State* noalias, i64, %struct.Memory* noalias) #2 {
entry:
  %3 = getelementptr inbounds %struct.State, %struct.State* %0, i64 0, i32 6, i32 33, i32 0, i32 0
  store i64 %1, i64* %3, align 8
  %BRANCH_TAKEN = alloca i8, align 1
  store i8 0, i8* %BRANCH_TAKEN, align 1
  %MEMORY = alloca %struct.Memory*, align 8
  store %struct.Memory* %2, %struct.Memory** %MEMORY, align 8
  %loadMem_49f3b0 = load %struct.Memory*, %struct.Memory** %MEMORY
  %4 = getelementptr inbounds %struct.State, %struct.State* %0, i32 0, i32 6
  %5 = getelementptr inbounds %struct.GPR, %struct.GPR* %4, i32 0, i32 33
  %6 = getelementptr inbounds %struct.Reg, %struct.Reg* %5, i32 0, i32 0
  %PC.i = bitcast %union.anon* %6 to i64*
  %7 = getelementptr inbounds %struct.State, %struct.State* %0, i32 0, i32 6
  %8 = getelementptr inbounds %struct.GPR, %struct.GPR* %7, i32 0, i32 15
  %9 = getelementptr inbounds %struct.Reg, %struct.Reg* %8, i32 0, i32 0
  %RBP.i = bitcast %union.anon* %9 to i64*
  %10 = load i64, i64* %RBP.i
  %11 = load i64, i64* %PC.i
  %12 = add i64 %11, 1
  store i64 %12, i64* %PC.i
  %13 = getelementptr inbounds %struct.State, %struct.State* %0, i64 0, i32 6, i32 13, i32 0, i32 0
  %14 = load i64, i64* %13, align 8
  %15 = add i64 %14, -8
  %16 = inttoptr i64 %15 to i64*
  store i64 %10, i64* %16
  store i64 %15, i64* %13, align 8
  store %struct.Memory* %loadMem_49f3b0, %struct.Memory** %MEMORY
  %loadMem_49f3b1 = load %struct.Memory*, %struct.Memory** %MEMORY
  %17 = getelementptr inbounds %struct.State, %struct.State* %0, i32 0, i32 6
  %18 = getelementptr inbounds %struct.GPR, %struct.GPR* %17, i32 0, i32 33
  %19 = getelementptr inbounds %struct.Reg, %struct.Reg* %18, i32 0, i32 0
  %PC.i10 = bitcast %union.anon* %19 to i64*
  %20 = getelementptr inbounds %struct.State, %struct.State* %0, i32 0, i32 6
  %21 = getelementptr inbounds %struct.GPR, %struct.GPR* %20, i32 0, i32 13
  %22 = getelementptr inbounds %struct.Reg, %struct.Reg* %21, i32 0, i32 0
  %RSP.i = bitcast %union.anon* %22 to i64*
  %23 = getelementptr inbounds %struct.State, %struct.State* %0, i32 0, i32 6
  %24 = getelementptr inbounds %struct.GPR, %struct.GPR* %23, i32 0, i32 15
  %25 = getelementptr inbounds %struct.Reg, %struct.Reg* %24, i32 0, i32 0
  %RBP.i11 = bitcast %union.anon* %25 to i64*
  %26 = load i64, i64* %RSP.i
  %27 = load i64, i64* %PC.i10
  %28 = add i64 %27, 3
  store i64 %28, i64* %PC.i10
  store i64 %26, i64* %RBP.i11, align 8
  store %struct.Memory* %loadMem_49f3b1, %struct.Memory** %MEMORY
  %loadMem_49f3b4 = load %struct.Memory*, %struct.Memory** %MEMORY
  %29 = getelementptr inbounds %struct.State, %struct.State* %0, i32 0, i32 6
  %30 = getelementptr inbounds %struct.GPR, %struct.GPR* %29, i32 0, i32 33
  %31 = getelementptr inbounds %struct.Reg, %struct.Reg* %30, i32 0, i32 0
  %PC.i30 = bitcast %union.anon* %31 to i64*
  %32 = getelementptr inbounds %struct.State, %struct.State* %0, i32 0, i32 6
  %33 = getelementptr inbounds %struct.GPR, %struct.GPR* %32, i32 0, i32 1
  %34 = getelementptr inbounds %struct.Reg, %struct.Reg* %33, i32 0, i32 0
  %RAX.i31 = bitcast %union.anon* %34 to i64*
  %35 = load i64, i64* %PC.i30
  %36 = add i64 %35, 5
  store i64 %36, i64* %PC.i30
  store i64 48, i64* %RAX.i31, align 8
  store %struct.Memory* %loadMem_49f3b4, %struct.Memory** %MEMORY
  %loadMem_49f3b9 = load %struct.Memory*, %struct.Memory** %MEMORY
  %37 = getelementptr inbounds %struct.State, %struct.State* %0, i32 0, i32 6
  %38 = getelementptr inbounds %struct.GPR, %struct.GPR* %37, i32 0, i32 33
  %39 = getelementptr inbounds %struct.Reg, %struct.Reg* %38, i32 0, i32 0
  %PC.i45 = bitcast %union.anon* %39 to i64*
  %40 = getelementptr inbounds %struct.State, %struct.State* %0, i32 0, i32 6
  %41 = getelementptr inbounds %struct.GPR, %struct.GPR* %40, i32 0, i32 1
  %42 = getelementptr inbounds %struct.Reg, %struct.Reg* %41, i32 0, i32 0
  %EAX.i46 = bitcast %union.anon* %42 to i32*
  %43 = getelementptr inbounds %struct.State, %struct.State* %0, i32 0, i32 6
  %44 = getelementptr inbounds %struct.GPR, %struct.GPR* %43, i32 0, i32 11
  %45 = getelementptr inbounds %struct.Reg, %struct.Reg* %44, i32 0, i32 0
  %RDI.i47 = bitcast %union.anon* %45 to i64*
  %46 = load i32, i32* %EAX.i46
  %47 = zext i32 %46 to i64
  %48 = load i64, i64* %PC.i45
  %49 = add i64 %48, 2
  store i64 %49, i64* %PC.i45
  %50 = and i64 %47, 4294967295
  store i64 %50, i64* %RDI.i47, align 8
  store %struct.Memory* %loadMem_49f3b9, %struct.Memory** %MEMORY
  %loadMem1_49f3bb = load %struct.Memory*, %struct.Memory** %MEMORY
  %51 = getelementptr inbounds %struct.State, %struct.State* %0, i32 0, i32 6
  %52 = getelementptr inbounds %struct.GPR, %struct.GPR* %51, i32 0, i32 33
  %53 = getelementptr inbounds %struct.Reg, %struct.Reg* %52, i32 0, i32 0
  %PC.i48 = bitcast %union.anon* %53 to i64*
  %54 = load i64, i64* %PC.i48
  %55 = add i64 %54, -647787
  %56 = load i64, i64* %PC.i48
  %57 = add i64 %56, 5
  %58 = load i64, i64* %PC.i48
  %59 = add i64 %58, 5
  store i64 %59, i64* %PC.i48
  %60 = getelementptr inbounds %struct.State, %struct.State* %0, i64 0, i32 6, i32 13, i32 0, i32 0
  %61 = load i64, i64* %60, align 8
  %62 = add i64 %61, -8
  %63 = inttoptr i64 %62 to i64*
  store i64 %57, i64* %63
  store i64 %62, i64* %60, align 8
  %64 = getelementptr inbounds %struct.State, %struct.State* %0, i64 0, i32 6, i32 33, i32 0, i32 0
  store i64 %55, i64* %64, align 8
  store %struct.Memory* %loadMem1_49f3bb, %struct.Memory** %MEMORY
  %loadMem2_49f3bb = load %struct.Memory*, %struct.Memory** %MEMORY
  %loadPC_49f3bb = load i64, i64* %3
  %65 = call %struct.Memory* @__remill_function_call(%struct.State* %0, i64 ptrtoint (i64 (i64)* @malloc to i64), %struct.Memory* %loadMem2_49f3bb)
  store %struct.Memory* %65, %struct.Memory** %MEMORY
  %loadMem_49f3c0 = load %struct.Memory*, %struct.Memory** %MEMORY
  %66 = getelementptr inbounds %struct.State, %struct.State* %0, i32 0, i32 6
  %67 = getelementptr inbounds %struct.GPR, %struct.GPR* %66, i32 0, i32 33
  %68 = getelementptr inbounds %struct.Reg, %struct.Reg* %67, i32 0, i32 0
  %PC.i43 = bitcast %union.anon* %68 to i64*
  %69 = getelementptr inbounds %struct.State, %struct.State* %0, i32 0, i32 6
  %70 = getelementptr inbounds %struct.GPR, %struct.GPR* %69, i32 0, i32 1
  %71 = getelementptr inbounds %struct.Reg, %struct.Reg* %70, i32 0, i32 0
  %RAX.i44 = bitcast %union.anon* %71 to i64*
  %72 = load i64, i64* %RAX.i44
  %73 = load i64, i64* %PC.i43
  %74 = add i64 %73, 8
  store i64 %74, i64* %PC.i43
  store i64 %72, i64* bitcast (%G_0x722b68_type* @G_0x722b68 to i64*)
  store %struct.Memory* %loadMem_49f3c0, %struct.Memory** %MEMORY
  %loadMem_49f3c8 = load %struct.Memory*, %struct.Memory** %MEMORY
  %75 = getelementptr inbounds %struct.State, %struct.State* %0, i32 0, i32 6
  %76 = getelementptr inbounds %struct.GPR, %struct.GPR* %75, i32 0, i32 33
  %77 = getelementptr inbounds %struct.Reg, %struct.Reg* %76, i32 0, i32 0
  %PC.i42 = bitcast %union.anon* %77 to i64*
  %78 = load i64, i64* %PC.i42
  %79 = add i64 %78, 9
  store i64 %79, i64* %PC.i42
  %80 = load i64, i64* bitcast (%G_0x722b68_type* @G_0x722b68 to i64*)
  %81 = getelementptr inbounds %struct.State, %struct.State* %0, i64 0, i32 2, i32 1
  store i8 0, i8* %81, align 1
  %82 = trunc i64 %80 to i32
  %83 = and i32 %82, 255
  %84 = call i32 @llvm.ctpop.i32(i32 %83)
  %85 = trunc i32 %84 to i8
  %86 = and i8 %85, 1
  %87 = xor i8 %86, 1
  %88 = getelementptr inbounds %struct.State, %struct.State* %0, i64 0, i32 2, i32 3
  store i8 %87, i8* %88, align 1
  %89 = getelementptr inbounds %struct.State, %struct.State* %0, i64 0, i32 2, i32 5
  store i8 0, i8* %89, align 1
  %90 = icmp eq i64 %80, 0
  %91 = zext i1 %90 to i8
  %92 = getelementptr inbounds %struct.State, %struct.State* %0, i64 0, i32 2, i32 7
  store i8 %91, i8* %92, align 1
  %93 = lshr i64 %80, 63
  %94 = trunc i64 %93 to i8
  %95 = getelementptr inbounds %struct.State, %struct.State* %0, i64 0, i32 2, i32 9
  store i8 %94, i8* %95, align 1
  %96 = lshr i64 %80, 63
  %97 = xor i64 %93, %96
  %98 = add i64 %97, %96
  %99 = icmp eq i64 %98, 2
  %100 = zext i1 %99 to i8
  %101 = getelementptr inbounds %struct.State, %struct.State* %0, i64 0, i32 2, i32 13
  store i8 %100, i8* %101, align 1
  store %struct.Memory* %loadMem_49f3c8, %struct.Memory** %MEMORY
  %loadMem_49f3d1 = load %struct.Memory*, %struct.Memory** %MEMORY
  %102 = getelementptr inbounds %struct.State, %struct.State* %0, i32 0, i32 6
  %103 = getelementptr inbounds %struct.GPR, %struct.GPR* %102, i32 0, i32 33
  %104 = getelementptr inbounds %struct.Reg, %struct.Reg* %103, i32 0, i32 0
  %PC.i41 = bitcast %union.anon* %104 to i64*
  %105 = load i64, i64* %PC.i41
  %106 = add i64 %105, 21
  %107 = load i64, i64* %PC.i41
  %108 = add i64 %107, 6
  %109 = load i64, i64* %PC.i41
  %110 = add i64 %109, 6
  store i64 %110, i64* %PC.i41
  %111 = getelementptr inbounds %struct.State, %struct.State* %0, i64 0, i32 2, i32 7
  %112 = load i8, i8* %111, align 1
  %113 = icmp eq i8 %112, 0
  %114 = zext i1 %113 to i8
  store i8 %114, i8* %BRANCH_TAKEN, align 1
  %115 = getelementptr inbounds %struct.State, %struct.State* %0, i64 0, i32 6, i32 33, i32 0, i32 0
  %116 = select i1 %113, i64 %106, i64 %108
  store i64 %116, i64* %115, align 8
  store %struct.Memory* %loadMem_49f3d1, %struct.Memory** %MEMORY
  %loadBr_49f3d1 = load i8, i8* %BRANCH_TAKEN
  %cmpBr_49f3d1 = icmp eq i8 %loadBr_49f3d1, 1
  br i1 %cmpBr_49f3d1, label %block_.L_49f3e6, label %block_49f3d7

block_49f3d7:                                     ; preds = %entry
  %loadMem_49f3d7 = load %struct.Memory*, %struct.Memory** %MEMORY
  %117 = getelementptr inbounds %struct.State, %struct.State* %0, i32 0, i32 6
  %118 = getelementptr inbounds %struct.GPR, %struct.GPR* %117, i32 0, i32 33
  %119 = getelementptr inbounds %struct.Reg, %struct.Reg* %118, i32 0, i32 0
  %PC.i39 = bitcast %union.anon* %119 to i64*
  %120 = getelementptr inbounds %struct.State, %struct.State* %0, i32 0, i32 6
  %121 = getelementptr inbounds %struct.GPR, %struct.GPR* %120, i32 0, i32 11
  %122 = getelementptr inbounds %struct.Reg, %struct.Reg* %121, i32 0, i32 0
  %RDI.i40 = bitcast %union.anon* %122 to i64*
  %123 = load i64, i64* %PC.i39
  %124 = add i64 %123, 10
  store i64 %124, i64* %PC.i39
  store i64 ptrtoint (%G__0x4c3305_type* @G__0x4c3305 to i64), i64* %RDI.i40, align 8
  store %struct.Memory* %loadMem_49f3d7, %struct.Memory** %MEMORY
  %loadMem1_49f3e1 = load %struct.Memory*, %struct.Memory** %MEMORY
  %125 = getelementptr inbounds %struct.State, %struct.State* %0, i32 0, i32 6
  %126 = getelementptr inbounds %struct.GPR, %struct.GPR* %125, i32 0, i32 33
  %127 = getelementptr inbounds %struct.Reg, %struct.Reg* %126, i32 0, i32 0
  %PC.i38 = bitcast %union.anon* %127 to i64*
  %128 = load i64, i64* %PC.i38
  %129 = add i64 %128, -286705
  %130 = load i64, i64* %PC.i38
  %131 = add i64 %130, 5
  %132 = load i64, i64* %PC.i38
  %133 = add i64 %132, 5
  store i64 %133, i64* %PC.i38
  %134 = getelementptr inbounds %struct.State, %struct.State* %0, i64 0, i32 6, i32 13, i32 0, i32 0
  %135 = load i64, i64* %134, align 8
  %136 = add i64 %135, -8
  %137 = inttoptr i64 %136 to i64*
  store i64 %131, i64* %137
  store i64 %136, i64* %134, align 8
  %138 = getelementptr inbounds %struct.State, %struct.State* %0, i64 0, i32 6, i32 33, i32 0, i32 0
  store i64 %129, i64* %138, align 8
  store %struct.Memory* %loadMem1_49f3e1, %struct.Memory** %MEMORY
  %loadMem2_49f3e1 = load %struct.Memory*, %struct.Memory** %MEMORY
  %loadPC_49f3e1 = load i64, i64* %3
  %call2_49f3e1 = call %struct.Memory* @sub_4593f0.no_mem_exit(%struct.State* %0, i64 %loadPC_49f3e1, %struct.Memory* %loadMem2_49f3e1)
  store %struct.Memory* %call2_49f3e1, %struct.Memory** %MEMORY
  br label %block_.L_49f3e6

block_.L_49f3e6:                                  ; preds = %block_49f3d7, %entry
  %loadMem_49f3e6 = load %struct.Memory*, %struct.Memory** %MEMORY
  %139 = getelementptr inbounds %struct.State, %struct.State* %0, i32 0, i32 6
  %140 = getelementptr inbounds %struct.GPR, %struct.GPR* %139, i32 0, i32 33
  %141 = getelementptr inbounds %struct.Reg, %struct.Reg* %140, i32 0, i32 0
  %PC.i36 = bitcast %union.anon* %141 to i64*
  %142 = getelementptr inbounds %struct.State, %struct.State* %0, i32 0, i32 6
  %143 = getelementptr inbounds %struct.GPR, %struct.GPR* %142, i32 0, i32 1
  %144 = getelementptr inbounds %struct.Reg, %struct.Reg* %143, i32 0, i32 0
  %RAX.i37 = bitcast %union.anon* %144 to i64*
  %145 = load i64, i64* %PC.i36
  %146 = add i64 %145, 5
  store i64 %146, i64* %PC.i36
  store i64 65496, i64* %RAX.i37, align 8
  store %struct.Memory* %loadMem_49f3e6, %struct.Memory** %MEMORY
  %loadMem_49f3eb = load %struct.Memory*, %struct.Memory** %MEMORY
  %147 = getelementptr inbounds %struct.State, %struct.State* %0, i32 0, i32 6
  %148 = getelementptr inbounds %struct.GPR, %struct.GPR* %147, i32 0, i32 33
  %149 = getelementptr inbounds %struct.Reg, %struct.Reg* %148, i32 0, i32 0
  %PC.i33 = bitcast %union.anon* %149 to i64*
  %150 = getelementptr inbounds %struct.State, %struct.State* %0, i32 0, i32 6
  %151 = getelementptr inbounds %struct.GPR, %struct.GPR* %150, i32 0, i32 1
  %152 = getelementptr inbounds %struct.Reg, %struct.Reg* %151, i32 0, i32 0
  %EAX.i34 = bitcast %union.anon* %152 to i32*
  %153 = getelementptr inbounds %struct.State, %struct.State* %0, i32 0, i32 6
  %154 = getelementptr inbounds %struct.GPR, %struct.GPR* %153, i32 0, i32 11
  %155 = getelementptr inbounds %struct.Reg, %struct.Reg* %154, i32 0, i32 0
  %RDI.i35 = bitcast %union.anon* %155 to i64*
  %156 = load i32, i32* %EAX.i34
  %157 = zext i32 %156 to i64
  %158 = load i64, i64* %PC.i33
  %159 = add i64 %158, 2
  store i64 %159, i64* %PC.i33
  %160 = and i64 %157, 4294967295
  store i64 %160, i64* %RDI.i35, align 8
  store %struct.Memory* %loadMem_49f3eb, %struct.Memory** %MEMORY
  %loadMem1_49f3ed = load %struct.Memory*, %struct.Memory** %MEMORY
  %161 = getelementptr inbounds %struct.State, %struct.State* %0, i32 0, i32 6
  %162 = getelementptr inbounds %struct.GPR, %struct.GPR* %161, i32 0, i32 33
  %163 = getelementptr inbounds %struct.Reg, %struct.Reg* %162, i32 0, i32 0
  %PC.i32 = bitcast %union.anon* %163 to i64*
  %164 = load i64, i64* %PC.i32
  %165 = add i64 %164, -647837
  %166 = load i64, i64* %PC.i32
  %167 = add i64 %166, 5
  %168 = load i64, i64* %PC.i32
  %169 = add i64 %168, 5
  store i64 %169, i64* %PC.i32
  %170 = getelementptr inbounds %struct.State, %struct.State* %0, i64 0, i32 6, i32 13, i32 0, i32 0
  %171 = load i64, i64* %170, align 8
  %172 = add i64 %171, -8
  %173 = inttoptr i64 %172 to i64*
  store i64 %167, i64* %173
  store i64 %172, i64* %170, align 8
  %174 = getelementptr inbounds %struct.State, %struct.State* %0, i64 0, i32 6, i32 33, i32 0, i32 0
  store i64 %165, i64* %174, align 8
  store %struct.Memory* %loadMem1_49f3ed, %struct.Memory** %MEMORY
  %loadMem2_49f3ed = load %struct.Memory*, %struct.Memory** %MEMORY
  %loadPC_49f3ed = load i64, i64* %3
  %175 = call %struct.Memory* @__remill_function_call(%struct.State* %0, i64 ptrtoint (i64 (i64)* @malloc to i64), %struct.Memory* %loadMem2_49f3ed)
  store %struct.Memory* %175, %struct.Memory** %MEMORY
  %loadMem_49f3f2 = load %struct.Memory*, %struct.Memory** %MEMORY
  %176 = getelementptr inbounds %struct.State, %struct.State* %0, i32 0, i32 6
  %177 = getelementptr inbounds %struct.GPR, %struct.GPR* %176, i32 0, i32 33
  %178 = getelementptr inbounds %struct.Reg, %struct.Reg* %177, i32 0, i32 0
  %PC.i28 = bitcast %union.anon* %178 to i64*
  %179 = getelementptr inbounds %struct.State, %struct.State* %0, i32 0, i32 6
  %180 = getelementptr inbounds %struct.GPR, %struct.GPR* %179, i32 0, i32 11
  %181 = getelementptr inbounds %struct.Reg, %struct.Reg* %180, i32 0, i32 0
  %RDI.i29 = bitcast %union.anon* %181 to i64*
  %182 = load i64, i64* %PC.i28
  %183 = add i64 %182, 8
  store i64 %183, i64* %PC.i28
  %184 = load i64, i64* bitcast (%G_0x722b68_type* @G_0x722b68 to i64*)
  store i64 %184, i64* %RDI.i29, align 8
  store %struct.Memory* %loadMem_49f3f2, %struct.Memory** %MEMORY
  %loadMem_49f3fa = load %struct.Memory*, %struct.Memory** %MEMORY
  %185 = getelementptr inbounds %struct.State, %struct.State* %0, i32 0, i32 6
  %186 = getelementptr inbounds %struct.GPR, %struct.GPR* %185, i32 0, i32 33
  %187 = getelementptr inbounds %struct.Reg, %struct.Reg* %186, i32 0, i32 0
  %PC.i25 = bitcast %union.anon* %187 to i64*
  %188 = getelementptr inbounds %struct.State, %struct.State* %0, i32 0, i32 6
  %189 = getelementptr inbounds %struct.GPR, %struct.GPR* %188, i32 0, i32 1
  %190 = getelementptr inbounds %struct.Reg, %struct.Reg* %189, i32 0, i32 0
  %RAX.i26 = bitcast %union.anon* %190 to i64*
  %191 = getelementptr inbounds %struct.State, %struct.State* %0, i32 0, i32 6
  %192 = getelementptr inbounds %struct.GPR, %struct.GPR* %191, i32 0, i32 11
  %193 = getelementptr inbounds %struct.Reg, %struct.Reg* %192, i32 0, i32 0
  %RDI.i27 = bitcast %union.anon* %193 to i64*
  %194 = load i64, i64* %RDI.i27
  %195 = add i64 %194, 32
  %196 = load i64, i64* %RAX.i26
  %197 = load i64, i64* %PC.i25
  %198 = add i64 %197, 4
  store i64 %198, i64* %PC.i25
  %199 = inttoptr i64 %195 to i64*
  store i64 %196, i64* %199
  store %struct.Memory* %loadMem_49f3fa, %struct.Memory** %MEMORY
  %loadMem_49f3fe = load %struct.Memory*, %struct.Memory** %MEMORY
  %200 = getelementptr inbounds %struct.State, %struct.State* %0, i32 0, i32 6
  %201 = getelementptr inbounds %struct.GPR, %struct.GPR* %200, i32 0, i32 33
  %202 = getelementptr inbounds %struct.Reg, %struct.Reg* %201, i32 0, i32 0
  %PC.i23 = bitcast %union.anon* %202 to i64*
  %203 = getelementptr inbounds %struct.State, %struct.State* %0, i32 0, i32 6
  %204 = getelementptr inbounds %struct.GPR, %struct.GPR* %203, i32 0, i32 1
  %205 = getelementptr inbounds %struct.Reg, %struct.Reg* %204, i32 0, i32 0
  %RAX.i24 = bitcast %union.anon* %205 to i64*
  %206 = load i64, i64* %PC.i23
  %207 = add i64 %206, 8
  store i64 %207, i64* %PC.i23
  %208 = load i64, i64* bitcast (%G_0x722b68_type* @G_0x722b68 to i64*)
  store i64 %208, i64* %RAX.i24, align 8
  store %struct.Memory* %loadMem_49f3fe, %struct.Memory** %MEMORY
  %loadMem_49f406 = load %struct.Memory*, %struct.Memory** %MEMORY
  %209 = getelementptr inbounds %struct.State, %struct.State* %0, i32 0, i32 6
  %210 = getelementptr inbounds %struct.GPR, %struct.GPR* %209, i32 0, i32 33
  %211 = getelementptr inbounds %struct.Reg, %struct.Reg* %210, i32 0, i32 0
  %PC.i21 = bitcast %union.anon* %211 to i64*
  %212 = getelementptr inbounds %struct.State, %struct.State* %0, i32 0, i32 6
  %213 = getelementptr inbounds %struct.GPR, %struct.GPR* %212, i32 0, i32 1
  %214 = getelementptr inbounds %struct.Reg, %struct.Reg* %213, i32 0, i32 0
  %RAX.i22 = bitcast %union.anon* %214 to i64*
  %215 = load i64, i64* %RAX.i22
  %216 = add i64 %215, 32
  %217 = load i64, i64* %PC.i21
  %218 = add i64 %217, 5
  store i64 %218, i64* %PC.i21
  %219 = inttoptr i64 %216 to i64*
  %220 = load i64, i64* %219
  %221 = getelementptr inbounds %struct.State, %struct.State* %0, i64 0, i32 2, i32 1
  store i8 0, i8* %221, align 1
  %222 = trunc i64 %220 to i32
  %223 = and i32 %222, 255
  %224 = call i32 @llvm.ctpop.i32(i32 %223)
  %225 = trunc i32 %224 to i8
  %226 = and i8 %225, 1
  %227 = xor i8 %226, 1
  %228 = getelementptr inbounds %struct.State, %struct.State* %0, i64 0, i32 2, i32 3
  store i8 %227, i8* %228, align 1
  %229 = getelementptr inbounds %struct.State, %struct.State* %0, i64 0, i32 2, i32 5
  store i8 0, i8* %229, align 1
  %230 = icmp eq i64 %220, 0
  %231 = zext i1 %230 to i8
  %232 = getelementptr inbounds %struct.State, %struct.State* %0, i64 0, i32 2, i32 7
  store i8 %231, i8* %232, align 1
  %233 = lshr i64 %220, 63
  %234 = trunc i64 %233 to i8
  %235 = getelementptr inbounds %struct.State, %struct.State* %0, i64 0, i32 2, i32 9
  store i8 %234, i8* %235, align 1
  %236 = lshr i64 %220, 63
  %237 = xor i64 %233, %236
  %238 = add i64 %237, %236
  %239 = icmp eq i64 %238, 2
  %240 = zext i1 %239 to i8
  %241 = getelementptr inbounds %struct.State, %struct.State* %0, i64 0, i32 2, i32 13
  store i8 %240, i8* %241, align 1
  store %struct.Memory* %loadMem_49f406, %struct.Memory** %MEMORY
  %loadMem_49f40b = load %struct.Memory*, %struct.Memory** %MEMORY
  %242 = getelementptr inbounds %struct.State, %struct.State* %0, i32 0, i32 6
  %243 = getelementptr inbounds %struct.GPR, %struct.GPR* %242, i32 0, i32 33
  %244 = getelementptr inbounds %struct.Reg, %struct.Reg* %243, i32 0, i32 0
  %PC.i20 = bitcast %union.anon* %244 to i64*
  %245 = load i64, i64* %PC.i20
  %246 = add i64 %245, 21
  %247 = load i64, i64* %PC.i20
  %248 = add i64 %247, 6
  %249 = load i64, i64* %PC.i20
  %250 = add i64 %249, 6
  store i64 %250, i64* %PC.i20
  %251 = getelementptr inbounds %struct.State, %struct.State* %0, i64 0, i32 2, i32 7
  %252 = load i8, i8* %251, align 1
  %253 = icmp eq i8 %252, 0
  %254 = zext i1 %253 to i8
  store i8 %254, i8* %BRANCH_TAKEN, align 1
  %255 = getelementptr inbounds %struct.State, %struct.State* %0, i64 0, i32 6, i32 33, i32 0, i32 0
  %256 = select i1 %253, i64 %246, i64 %248
  store i64 %256, i64* %255, align 8
  store %struct.Memory* %loadMem_49f40b, %struct.Memory** %MEMORY
  %loadBr_49f40b = load i8, i8* %BRANCH_TAKEN
  %cmpBr_49f40b = icmp eq i8 %loadBr_49f40b, 1
  br i1 %cmpBr_49f40b, label %block_.L_49f420, label %block_49f411

block_49f411:                                     ; preds = %block_.L_49f3e6
  %loadMem_49f411 = load %struct.Memory*, %struct.Memory** %MEMORY
  %257 = getelementptr inbounds %struct.State, %struct.State* %0, i32 0, i32 6
  %258 = getelementptr inbounds %struct.GPR, %struct.GPR* %257, i32 0, i32 33
  %259 = getelementptr inbounds %struct.Reg, %struct.Reg* %258, i32 0, i32 0
  %PC.i18 = bitcast %union.anon* %259 to i64*
  %260 = getelementptr inbounds %struct.State, %struct.State* %0, i32 0, i32 6
  %261 = getelementptr inbounds %struct.GPR, %struct.GPR* %260, i32 0, i32 11
  %262 = getelementptr inbounds %struct.Reg, %struct.Reg* %261, i32 0, i32 0
  %RDI.i19 = bitcast %union.anon* %262 to i64*
  %263 = load i64, i64* %PC.i18
  %264 = add i64 %263, 10
  store i64 %264, i64* %PC.i18
  store i64 ptrtoint (%G__0x4c3340_type* @G__0x4c3340 to i64), i64* %RDI.i19, align 8
  store %struct.Memory* %loadMem_49f411, %struct.Memory** %MEMORY
  %loadMem1_49f41b = load %struct.Memory*, %struct.Memory** %MEMORY
  %265 = getelementptr inbounds %struct.State, %struct.State* %0, i32 0, i32 6
  %266 = getelementptr inbounds %struct.GPR, %struct.GPR* %265, i32 0, i32 33
  %267 = getelementptr inbounds %struct.Reg, %struct.Reg* %266, i32 0, i32 0
  %PC.i17 = bitcast %union.anon* %267 to i64*
  %268 = load i64, i64* %PC.i17
  %269 = add i64 %268, -286763
  %270 = load i64, i64* %PC.i17
  %271 = add i64 %270, 5
  %272 = load i64, i64* %PC.i17
  %273 = add i64 %272, 5
  store i64 %273, i64* %PC.i17
  %274 = getelementptr inbounds %struct.State, %struct.State* %0, i64 0, i32 6, i32 13, i32 0, i32 0
  %275 = load i64, i64* %274, align 8
  %276 = add i64 %275, -8
  %277 = inttoptr i64 %276 to i64*
  store i64 %271, i64* %277
  store i64 %276, i64* %274, align 8
  %278 = getelementptr inbounds %struct.State, %struct.State* %0, i64 0, i32 6, i32 33, i32 0, i32 0
  store i64 %269, i64* %278, align 8
  store %struct.Memory* %loadMem1_49f41b, %struct.Memory** %MEMORY
  %loadMem2_49f41b = load %struct.Memory*, %struct.Memory** %MEMORY
  %loadPC_49f41b = load i64, i64* %3
  %call2_49f41b = call %struct.Memory* @sub_4593f0.no_mem_exit(%struct.State* %0, i64 %loadPC_49f41b, %struct.Memory* %loadMem2_49f41b)
  store %struct.Memory* %call2_49f41b, %struct.Memory** %MEMORY
  br label %block_.L_49f420

block_.L_49f420:                                  ; preds = %block_49f411, %block_.L_49f3e6
  %loadMem_49f420 = load %struct.Memory*, %struct.Memory** %MEMORY
  %279 = getelementptr inbounds %struct.State, %struct.State* %0, i32 0, i32 6
  %280 = getelementptr inbounds %struct.GPR, %struct.GPR* %279, i32 0, i32 33
  %281 = getelementptr inbounds %struct.Reg, %struct.Reg* %280, i32 0, i32 0
  %PC.i15 = bitcast %union.anon* %281 to i64*
  %282 = getelementptr inbounds %struct.State, %struct.State* %0, i32 0, i32 6
  %283 = getelementptr inbounds %struct.GPR, %struct.GPR* %282, i32 0, i32 1
  %284 = getelementptr inbounds %struct.Reg, %struct.Reg* %283, i32 0, i32 0
  %RAX.i16 = bitcast %union.anon* %284 to i64*
  %285 = load i64, i64* %PC.i15
  %286 = add i64 %285, 5
  store i64 %286, i64* %PC.i15
  store i64 65496, i64* %RAX.i16, align 8
  store %struct.Memory* %loadMem_49f420, %struct.Memory** %MEMORY
  %loadMem_49f425 = load %struct.Memory*, %struct.Memory** %MEMORY
  %287 = getelementptr inbounds %struct.State, %struct.State* %0, i32 0, i32 6
  %288 = getelementptr inbounds %struct.GPR, %struct.GPR* %287, i32 0, i32 33
  %289 = getelementptr inbounds %struct.Reg, %struct.Reg* %288, i32 0, i32 0
  %PC.i13 = bitcast %union.anon* %289 to i64*
  %290 = getelementptr inbounds %struct.State, %struct.State* %0, i32 0, i32 6
  %291 = getelementptr inbounds %struct.GPR, %struct.GPR* %290, i32 0, i32 1
  %292 = getelementptr inbounds %struct.Reg, %struct.Reg* %291, i32 0, i32 0
  %EAX.i = bitcast %union.anon* %292 to i32*
  %293 = getelementptr inbounds %struct.State, %struct.State* %0, i32 0, i32 6
  %294 = getelementptr inbounds %struct.GPR, %struct.GPR* %293, i32 0, i32 11
  %295 = getelementptr inbounds %struct.Reg, %struct.Reg* %294, i32 0, i32 0
  %RDI.i14 = bitcast %union.anon* %295 to i64*
  %296 = load i32, i32* %EAX.i
  %297 = zext i32 %296 to i64
  %298 = load i64, i64* %PC.i13
  %299 = add i64 %298, 2
  store i64 %299, i64* %PC.i13
  %300 = and i64 %297, 4294967295
  store i64 %300, i64* %RDI.i14, align 8
  store %struct.Memory* %loadMem_49f425, %struct.Memory** %MEMORY
  %loadMem1_49f427 = load %struct.Memory*, %struct.Memory** %MEMORY
  %301 = getelementptr inbounds %struct.State, %struct.State* %0, i32 0, i32 6
  %302 = getelementptr inbounds %struct.GPR, %struct.GPR* %301, i32 0, i32 33
  %303 = getelementptr inbounds %struct.Reg, %struct.Reg* %302, i32 0, i32 0
  %PC.i12 = bitcast %union.anon* %303 to i64*
  %304 = load i64, i64* %PC.i12
  %305 = add i64 %304, -647895
  %306 = load i64, i64* %PC.i12
  %307 = add i64 %306, 5
  %308 = load i64, i64* %PC.i12
  %309 = add i64 %308, 5
  store i64 %309, i64* %PC.i12
  %310 = getelementptr inbounds %struct.State, %struct.State* %0, i64 0, i32 6, i32 13, i32 0, i32 0
  %311 = load i64, i64* %310, align 8
  %312 = add i64 %311, -8
  %313 = inttoptr i64 %312 to i64*
  store i64 %307, i64* %313
  store i64 %312, i64* %310, align 8
  %314 = getelementptr inbounds %struct.State, %struct.State* %0, i64 0, i32 6, i32 33, i32 0, i32 0
  store i64 %305, i64* %314, align 8
  store %struct.Memory* %loadMem1_49f427, %struct.Memory** %MEMORY
  %loadMem2_49f427 = load %struct.Memory*, %struct.Memory** %MEMORY
  %loadPC_49f427 = load i64, i64* %3
  %315 = call %struct.Memory* @__remill_function_call(%struct.State* %0, i64 ptrtoint (i64 (i64)* @malloc to i64), %struct.Memory* %loadMem2_49f427)
  store %struct.Memory* %315, %struct.Memory** %MEMORY
  %loadMem_49f42c = load %struct.Memory*, %struct.Memory** %MEMORY
  %316 = getelementptr inbounds %struct.State, %struct.State* %0, i32 0, i32 6
  %317 = getelementptr inbounds %struct.GPR, %struct.GPR* %316, i32 0, i32 33
  %318 = getelementptr inbounds %struct.Reg, %struct.Reg* %317, i32 0, i32 0
  %PC.i9 = bitcast %union.anon* %318 to i64*
  %319 = getelementptr inbounds %struct.State, %struct.State* %0, i32 0, i32 6
  %320 = getelementptr inbounds %struct.GPR, %struct.GPR* %319, i32 0, i32 1
  %321 = getelementptr inbounds %struct.Reg, %struct.Reg* %320, i32 0, i32 0
  %RAX.i = bitcast %union.anon* %321 to i64*
  %322 = load i64, i64* %RAX.i
  %323 = load i64, i64* %PC.i9
  %324 = add i64 %323, 8
  store i64 %324, i64* %PC.i9
  store i64 %322, i64* bitcast (%G_0x722b58_type* @G_0x722b58 to i64*)
  store %struct.Memory* %loadMem_49f42c, %struct.Memory** %MEMORY
  %loadMem_49f434 = load %struct.Memory*, %struct.Memory** %MEMORY
  %325 = getelementptr inbounds %struct.State, %struct.State* %0, i32 0, i32 6
  %326 = getelementptr inbounds %struct.GPR, %struct.GPR* %325, i32 0, i32 33
  %327 = getelementptr inbounds %struct.Reg, %struct.Reg* %326, i32 0, i32 0
  %PC.i8 = bitcast %union.anon* %327 to i64*
  %328 = load i64, i64* %PC.i8
  %329 = add i64 %328, 9
  store i64 %329, i64* %PC.i8
  %330 = load i64, i64* bitcast (%G_0x722b58_type* @G_0x722b58 to i64*)
  %331 = getelementptr inbounds %struct.State, %struct.State* %0, i64 0, i32 2, i32 1
  store i8 0, i8* %331, align 1
  %332 = trunc i64 %330 to i32
  %333 = and i32 %332, 255
  %334 = call i32 @llvm.ctpop.i32(i32 %333)
  %335 = trunc i32 %334 to i8
  %336 = and i8 %335, 1
  %337 = xor i8 %336, 1
  %338 = getelementptr inbounds %struct.State, %struct.State* %0, i64 0, i32 2, i32 3
  store i8 %337, i8* %338, align 1
  %339 = getelementptr inbounds %struct.State, %struct.State* %0, i64 0, i32 2, i32 5
  store i8 0, i8* %339, align 1
  %340 = icmp eq i64 %330, 0
  %341 = zext i1 %340 to i8
  %342 = getelementptr inbounds %struct.State, %struct.State* %0, i64 0, i32 2, i32 7
  store i8 %341, i8* %342, align 1
  %343 = lshr i64 %330, 63
  %344 = trunc i64 %343 to i8
  %345 = getelementptr inbounds %struct.State, %struct.State* %0, i64 0, i32 2, i32 9
  store i8 %344, i8* %345, align 1
  %346 = lshr i64 %330, 63
  %347 = xor i64 %343, %346
  %348 = add i64 %347, %346
  %349 = icmp eq i64 %348, 2
  %350 = zext i1 %349 to i8
  %351 = getelementptr inbounds %struct.State, %struct.State* %0, i64 0, i32 2, i32 13
  store i8 %350, i8* %351, align 1
  store %struct.Memory* %loadMem_49f434, %struct.Memory** %MEMORY
  %loadMem_49f43d = load %struct.Memory*, %struct.Memory** %MEMORY
  %352 = getelementptr inbounds %struct.State, %struct.State* %0, i32 0, i32 6
  %353 = getelementptr inbounds %struct.GPR, %struct.GPR* %352, i32 0, i32 33
  %354 = getelementptr inbounds %struct.Reg, %struct.Reg* %353, i32 0, i32 0
  %PC.i7 = bitcast %union.anon* %354 to i64*
  %355 = load i64, i64* %PC.i7
  %356 = add i64 %355, 21
  %357 = load i64, i64* %PC.i7
  %358 = add i64 %357, 6
  %359 = load i64, i64* %PC.i7
  %360 = add i64 %359, 6
  store i64 %360, i64* %PC.i7
  %361 = getelementptr inbounds %struct.State, %struct.State* %0, i64 0, i32 2, i32 7
  %362 = load i8, i8* %361, align 1
  %363 = icmp eq i8 %362, 0
  %364 = zext i1 %363 to i8
  store i8 %364, i8* %BRANCH_TAKEN, align 1
  %365 = getelementptr inbounds %struct.State, %struct.State* %0, i64 0, i32 6, i32 33, i32 0, i32 0
  %366 = select i1 %363, i64 %356, i64 %358
  store i64 %366, i64* %365, align 8
  store %struct.Memory* %loadMem_49f43d, %struct.Memory** %MEMORY
  %loadBr_49f43d = load i8, i8* %BRANCH_TAKEN
  %cmpBr_49f43d = icmp eq i8 %loadBr_49f43d, 1
  br i1 %cmpBr_49f43d, label %block_.L_49f452, label %block_49f443

block_49f443:                                     ; preds = %block_.L_49f420
  %loadMem_49f443 = load %struct.Memory*, %struct.Memory** %MEMORY
  %367 = getelementptr inbounds %struct.State, %struct.State* %0, i32 0, i32 6
  %368 = getelementptr inbounds %struct.GPR, %struct.GPR* %367, i32 0, i32 33
  %369 = getelementptr inbounds %struct.Reg, %struct.Reg* %368, i32 0, i32 0
  %PC.i6 = bitcast %union.anon* %369 to i64*
  %370 = getelementptr inbounds %struct.State, %struct.State* %0, i32 0, i32 6
  %371 = getelementptr inbounds %struct.GPR, %struct.GPR* %370, i32 0, i32 11
  %372 = getelementptr inbounds %struct.Reg, %struct.Reg* %371, i32 0, i32 0
  %RDI.i = bitcast %union.anon* %372 to i64*
  %373 = load i64, i64* %PC.i6
  %374 = add i64 %373, 10
  store i64 %374, i64* %PC.i6
  store i64 ptrtoint (%G__0x4c3389_type* @G__0x4c3389 to i64), i64* %RDI.i, align 8
  store %struct.Memory* %loadMem_49f443, %struct.Memory** %MEMORY
  %loadMem1_49f44d = load %struct.Memory*, %struct.Memory** %MEMORY
  %375 = getelementptr inbounds %struct.State, %struct.State* %0, i32 0, i32 6
  %376 = getelementptr inbounds %struct.GPR, %struct.GPR* %375, i32 0, i32 33
  %377 = getelementptr inbounds %struct.Reg, %struct.Reg* %376, i32 0, i32 0
  %PC.i5 = bitcast %union.anon* %377 to i64*
  %378 = load i64, i64* %PC.i5
  %379 = add i64 %378, -286813
  %380 = load i64, i64* %PC.i5
  %381 = add i64 %380, 5
  %382 = load i64, i64* %PC.i5
  %383 = add i64 %382, 5
  store i64 %383, i64* %PC.i5
  %384 = getelementptr inbounds %struct.State, %struct.State* %0, i64 0, i32 6, i32 13, i32 0, i32 0
  %385 = load i64, i64* %384, align 8
  %386 = add i64 %385, -8
  %387 = inttoptr i64 %386 to i64*
  store i64 %381, i64* %387
  store i64 %386, i64* %384, align 8
  %388 = getelementptr inbounds %struct.State, %struct.State* %0, i64 0, i32 6, i32 33, i32 0, i32 0
  store i64 %379, i64* %388, align 8
  store %struct.Memory* %loadMem1_49f44d, %struct.Memory** %MEMORY
  %loadMem2_49f44d = load %struct.Memory*, %struct.Memory** %MEMORY
  %loadPC_49f44d = load i64, i64* %3
  %call2_49f44d = call %struct.Memory* @sub_4593f0.no_mem_exit(%struct.State* %0, i64 %loadPC_49f44d, %struct.Memory* %loadMem2_49f44d)
  store %struct.Memory* %call2_49f44d, %struct.Memory** %MEMORY
  br label %block_.L_49f452

block_.L_49f452:                                  ; preds = %block_49f443, %block_.L_49f420
  %loadMem1_49f452 = load %struct.Memory*, %struct.Memory** %MEMORY
  %389 = getelementptr inbounds %struct.State, %struct.State* %0, i32 0, i32 6
  %390 = getelementptr inbounds %struct.GPR, %struct.GPR* %389, i32 0, i32 33
  %391 = getelementptr inbounds %struct.Reg, %struct.Reg* %390, i32 0, i32 0
  %PC.i4 = bitcast %union.anon* %391 to i64*
  %392 = load i64, i64* %PC.i4
  %393 = add i64 %392, 622
  %394 = load i64, i64* %PC.i4
  %395 = add i64 %394, 5
  %396 = load i64, i64* %PC.i4
  %397 = add i64 %396, 5
  store i64 %397, i64* %PC.i4
  %398 = getelementptr inbounds %struct.State, %struct.State* %0, i64 0, i32 6, i32 13, i32 0, i32 0
  %399 = load i64, i64* %398, align 8
  %400 = add i64 %399, -8
  %401 = inttoptr i64 %400 to i64*
  store i64 %395, i64* %401
  store i64 %400, i64* %398, align 8
  %402 = getelementptr inbounds %struct.State, %struct.State* %0, i64 0, i32 6, i32 33, i32 0, i32 0
  store i64 %393, i64* %402, align 8
  store %struct.Memory* %loadMem1_49f452, %struct.Memory** %MEMORY
  %loadMem2_49f452 = load %struct.Memory*, %struct.Memory** %MEMORY
  %loadPC_49f452 = load i64, i64* %3
  %call2_49f452 = call %struct.Memory* @sub_49f6c0.ClearUser_data_unregistered(%struct.State* %0, i64 %loadPC_49f452, %struct.Memory* %loadMem2_49f452)
  store %struct.Memory* %call2_49f452, %struct.Memory** %MEMORY
  %loadMem_49f457 = load %struct.Memory*, %struct.Memory** %MEMORY
  %403 = getelementptr inbounds %struct.State, %struct.State* %0, i32 0, i32 6
  %404 = getelementptr inbounds %struct.GPR, %struct.GPR* %403, i32 0, i32 33
  %405 = getelementptr inbounds %struct.Reg, %struct.Reg* %404, i32 0, i32 0
  %PC.i2 = bitcast %union.anon* %405 to i64*
  %406 = getelementptr inbounds %struct.State, %struct.State* %0, i32 0, i32 6
  %407 = getelementptr inbounds %struct.GPR, %struct.GPR* %406, i32 0, i32 15
  %408 = getelementptr inbounds %struct.Reg, %struct.Reg* %407, i32 0, i32 0
  %RBP.i3 = bitcast %union.anon* %408 to i64*
  %409 = load i64, i64* %PC.i2
  %410 = add i64 %409, 1
  store i64 %410, i64* %PC.i2
  %411 = getelementptr inbounds %struct.State, %struct.State* %0, i64 0, i32 6, i32 13, i32 0, i32 0
  %412 = load i64, i64* %411, align 8
  %413 = add i64 %412, 8
  %414 = inttoptr i64 %412 to i64*
  %415 = load i64, i64* %414
  store i64 %415, i64* %RBP.i3, align 8
  store i64 %413, i64* %411, align 8
  store %struct.Memory* %loadMem_49f457, %struct.Memory** %MEMORY
  %loadMem_49f458 = load %struct.Memory*, %struct.Memory** %MEMORY
  %416 = getelementptr inbounds %struct.State, %struct.State* %0, i32 0, i32 6
  %417 = getelementptr inbounds %struct.GPR, %struct.GPR* %416, i32 0, i32 33
  %418 = getelementptr inbounds %struct.Reg, %struct.Reg* %417, i32 0, i32 0
  %PC.i1 = bitcast %union.anon* %418 to i64*
  %419 = load i64, i64* %PC.i1
  %420 = add i64 %419, 1
  store i64 %420, i64* %PC.i1
  %421 = getelementptr inbounds %struct.State, %struct.State* %0, i64 0, i32 6, i32 33, i32 0, i32 0
  %422 = getelementptr inbounds %struct.State, %struct.State* %0, i64 0, i32 6, i32 13, i32 0, i32 0
  %423 = load i64, i64* %422, align 8
  %424 = inttoptr i64 %423 to i64*
  %425 = load i64, i64* %424
  store i64 %425, i64* %421, align 8
  %426 = add i64 %423, 8
  store i64 %426, i64* %422, align 8
  store %struct.Memory* %loadMem_49f458, %struct.Memory** %MEMORY
  ret %struct.Memory* %loadMem_49f458
}

define %struct.Memory* @routine_pushq__rbp(%struct.State* dereferenceable(3376), i64, %struct.Memory*) {
block_400488:
  %3 = getelementptr inbounds %struct.State, %struct.State* %0, i32 0, i32 6
  %4 = getelementptr inbounds %struct.GPR, %struct.GPR* %3, i32 0, i32 33
  %5 = getelementptr inbounds %struct.Reg, %struct.Reg* %4, i32 0, i32 0
  %PC = bitcast %union.anon* %5 to i64*
  %6 = getelementptr inbounds %struct.State, %struct.State* %0, i32 0, i32 6
  %7 = getelementptr inbounds %struct.GPR, %struct.GPR* %6, i32 0, i32 15
  %8 = getelementptr inbounds %struct.Reg, %struct.Reg* %7, i32 0, i32 0
  %RBP = bitcast %union.anon* %8 to i64*
  %9 = load i64, i64* %RBP
  %10 = load i64, i64* %PC
  %11 = add i64 %10, 1
  store i64 %11, i64* %PC
  %12 = getelementptr inbounds %struct.State, %struct.State* %0, i64 0, i32 6, i32 13, i32 0, i32 0
  %13 = load i64, i64* %12, align 8
  %14 = add i64 %13, -8
  %15 = inttoptr i64 %14 to i64*
  store i64 %9, i64* %15
  store i64 %14, i64* %12, align 8
  ret %struct.Memory* %2
}

define %struct.Memory* @routine_movq__rsp___rbp(%struct.State* dereferenceable(3376), i64, %struct.Memory*) {
block_400488:
  %3 = getelementptr inbounds %struct.State, %struct.State* %0, i32 0, i32 6
  %4 = getelementptr inbounds %struct.GPR, %struct.GPR* %3, i32 0, i32 33
  %5 = getelementptr inbounds %struct.Reg, %struct.Reg* %4, i32 0, i32 0
  %PC = bitcast %union.anon* %5 to i64*
  %6 = getelementptr inbounds %struct.State, %struct.State* %0, i32 0, i32 6
  %7 = getelementptr inbounds %struct.GPR, %struct.GPR* %6, i32 0, i32 13
  %8 = getelementptr inbounds %struct.Reg, %struct.Reg* %7, i32 0, i32 0
  %RSP = bitcast %union.anon* %8 to i64*
  %9 = getelementptr inbounds %struct.State, %struct.State* %0, i32 0, i32 6
  %10 = getelementptr inbounds %struct.GPR, %struct.GPR* %9, i32 0, i32 15
  %11 = getelementptr inbounds %struct.Reg, %struct.Reg* %10, i32 0, i32 0
  %RBP = bitcast %union.anon* %11 to i64*
  %12 = load i64, i64* %RSP
  %13 = load i64, i64* %PC
  %14 = add i64 %13, 3
  store i64 %14, i64* %PC
  store i64 %12, i64* %RBP, align 8
  ret %struct.Memory* %2
}

define %struct.Memory* @routine_movl__0x30___eax(%struct.State* dereferenceable(3376), i64, %struct.Memory*) {
block_400488:
  %3 = getelementptr inbounds %struct.State, %struct.State* %0, i32 0, i32 6
  %4 = getelementptr inbounds %struct.GPR, %struct.GPR* %3, i32 0, i32 33
  %5 = getelementptr inbounds %struct.Reg, %struct.Reg* %4, i32 0, i32 0
  %PC = bitcast %union.anon* %5 to i64*
  %6 = getelementptr inbounds %struct.State, %struct.State* %0, i32 0, i32 6
  %7 = getelementptr inbounds %struct.GPR, %struct.GPR* %6, i32 0, i32 1
  %8 = getelementptr inbounds %struct.Reg, %struct.Reg* %7, i32 0, i32 0
  %RAX = bitcast %union.anon* %8 to i64*
  %9 = load i64, i64* %PC
  %10 = add i64 %9, 5
  store i64 %10, i64* %PC
  store i64 48, i64* %RAX, align 8
  ret %struct.Memory* %2
}

define %struct.Memory* @routine_movl__eax___edi(%struct.State* dereferenceable(3376), i64, %struct.Memory*) {
block_400488:
  %3 = getelementptr inbounds %struct.State, %struct.State* %0, i32 0, i32 6
  %4 = getelementptr inbounds %struct.GPR, %struct.GPR* %3, i32 0, i32 33
  %5 = getelementptr inbounds %struct.Reg, %struct.Reg* %4, i32 0, i32 0
  %PC = bitcast %union.anon* %5 to i64*
  %6 = getelementptr inbounds %struct.State, %struct.State* %0, i32 0, i32 6
  %7 = getelementptr inbounds %struct.GPR, %struct.GPR* %6, i32 0, i32 1
  %8 = getelementptr inbounds %struct.Reg, %struct.Reg* %7, i32 0, i32 0
  %EAX = bitcast %union.anon* %8 to i32*
  %9 = getelementptr inbounds %struct.State, %struct.State* %0, i32 0, i32 6
  %10 = getelementptr inbounds %struct.GPR, %struct.GPR* %9, i32 0, i32 11
  %11 = getelementptr inbounds %struct.Reg, %struct.Reg* %10, i32 0, i32 0
  %RDI = bitcast %union.anon* %11 to i64*
  %12 = load i32, i32* %EAX
  %13 = zext i32 %12 to i64
  %14 = load i64, i64* %PC
  %15 = add i64 %14, 2
  store i64 %15, i64* %PC
  %16 = and i64 %13, 4294967295
  store i64 %16, i64* %RDI, align 8
  ret %struct.Memory* %2
}

define %struct.Memory* @routine_callq_.malloc_plt(%struct.State* dereferenceable(3376), i64, %struct.Memory*, i64 %rel_off1, i64 %rel_off2, i64 %rel_off3) {
block_400488:
  %3 = getelementptr inbounds %struct.State, %struct.State* %0, i32 0, i32 6
  %4 = getelementptr inbounds %struct.GPR, %struct.GPR* %3, i32 0, i32 33
  %5 = getelementptr inbounds %struct.Reg, %struct.Reg* %4, i32 0, i32 0
  %PC = bitcast %union.anon* %5 to i64*
  %6 = load i64, i64* %PC
  %7 = add i64 %6, %rel_off1
  %8 = load i64, i64* %PC
  %9 = add i64 %8, %rel_off2
  %10 = load i64, i64* %PC
  %11 = add i64 %10, %rel_off3
  store i64 %11, i64* %PC
  %12 = getelementptr inbounds %struct.State, %struct.State* %0, i64 0, i32 6, i32 13, i32 0, i32 0
  %13 = load i64, i64* %12, align 8
  %14 = add i64 %13, -8
  %15 = inttoptr i64 %14 to i64*
  store i64 %9, i64* %15
  store i64 %14, i64* %12, align 8
  %16 = getelementptr inbounds %struct.State, %struct.State* %0, i64 0, i32 6, i32 33, i32 0, i32 0
  store i64 %7, i64* %16, align 8
  ret %struct.Memory* %2
}

define %struct.Memory* @routine_movq__rax__0x722b68(%struct.State* dereferenceable(3376), i64, %struct.Memory*) {
block_400488:
  %3 = getelementptr inbounds %struct.State, %struct.State* %0, i32 0, i32 6
  %4 = getelementptr inbounds %struct.GPR, %struct.GPR* %3, i32 0, i32 33
  %5 = getelementptr inbounds %struct.Reg, %struct.Reg* %4, i32 0, i32 0
  %PC = bitcast %union.anon* %5 to i64*
  %6 = getelementptr inbounds %struct.State, %struct.State* %0, i32 0, i32 6
  %7 = getelementptr inbounds %struct.GPR, %struct.GPR* %6, i32 0, i32 1
  %8 = getelementptr inbounds %struct.Reg, %struct.Reg* %7, i32 0, i32 0
  %RAX = bitcast %union.anon* %8 to i64*
  %9 = load i64, i64* %RAX
  %10 = load i64, i64* %PC
  %11 = add i64 %10, 8
  store i64 %11, i64* %PC
  store i64 %9, i64* bitcast (%G_0x722b68_type* @G_0x722b68 to i64*)
  ret %struct.Memory* %2
}

define %struct.Memory* @routine_cmpq__0x0__0x722b68(%struct.State* dereferenceable(3376), i64, %struct.Memory*) {
block_400488:
  %3 = getelementptr inbounds %struct.State, %struct.State* %0, i32 0, i32 6
  %4 = getelementptr inbounds %struct.GPR, %struct.GPR* %3, i32 0, i32 33
  %5 = getelementptr inbounds %struct.Reg, %struct.Reg* %4, i32 0, i32 0
  %PC = bitcast %union.anon* %5 to i64*
  %6 = load i64, i64* %PC
  %7 = add i64 %6, 9
  store i64 %7, i64* %PC
  %8 = load i64, i64* bitcast (%G_0x722b68_type* @G_0x722b68 to i64*)
  %9 = getelementptr inbounds %struct.State, %struct.State* %0, i64 0, i32 2, i32 1
  store i8 0, i8* %9, align 1
  %10 = trunc i64 %8 to i32
  %11 = and i32 %10, 255
  %12 = call i32 @llvm.ctpop.i32(i32 %11)
  %13 = trunc i32 %12 to i8
  %14 = and i8 %13, 1
  %15 = xor i8 %14, 1
  %16 = getelementptr inbounds %struct.State, %struct.State* %0, i64 0, i32 2, i32 3
  store i8 %15, i8* %16, align 1
  %17 = getelementptr inbounds %struct.State, %struct.State* %0, i64 0, i32 2, i32 5
  store i8 0, i8* %17, align 1
  %18 = icmp eq i64 %8, 0
  %19 = zext i1 %18 to i8
  %20 = getelementptr inbounds %struct.State, %struct.State* %0, i64 0, i32 2, i32 7
  store i8 %19, i8* %20, align 1
  %21 = lshr i64 %8, 63
  %22 = trunc i64 %21 to i8
  %23 = getelementptr inbounds %struct.State, %struct.State* %0, i64 0, i32 2, i32 9
  store i8 %22, i8* %23, align 1
  %24 = lshr i64 %8, 63
  %25 = xor i64 %21, %24
  %26 = add i64 %25, %24
  %27 = icmp eq i64 %26, 2
  %28 = zext i1 %27 to i8
  %29 = getelementptr inbounds %struct.State, %struct.State* %0, i64 0, i32 2, i32 13
  store i8 %28, i8* %29, align 1
  ret %struct.Memory* %2
}

define %struct.Memory* @routine_jne_.L_49f3e6(%struct.State* dereferenceable(3376), i64, %struct.Memory*, i8* %BRANCH_TAKEN, i64 %rel_off1, i64 %rel_off2, i64 %rel_off3) {
block_400488:
  %3 = getelementptr inbounds %struct.State, %struct.State* %0, i32 0, i32 6
  %4 = getelementptr inbounds %struct.GPR, %struct.GPR* %3, i32 0, i32 33
  %5 = getelementptr inbounds %struct.Reg, %struct.Reg* %4, i32 0, i32 0
  %PC = bitcast %union.anon* %5 to i64*
  %6 = load i64, i64* %PC
  %7 = add i64 %6, %rel_off1
  %8 = load i64, i64* %PC
  %9 = add i64 %8, %rel_off2
  %10 = load i64, i64* %PC
  %11 = add i64 %10, %rel_off3
  store i64 %11, i64* %PC
  %12 = getelementptr inbounds %struct.State, %struct.State* %0, i64 0, i32 2, i32 7
  %13 = load i8, i8* %12, align 1
  %14 = icmp eq i8 %13, 0
  %15 = zext i1 %14 to i8
  store i8 %15, i8* %BRANCH_TAKEN, align 1
  %16 = getelementptr inbounds %struct.State, %struct.State* %0, i64 0, i32 6, i32 33, i32 0, i32 0
  %17 = select i1 %14, i64 %7, i64 %9
  store i64 %17, i64* %16, align 8
  ret %struct.Memory* %2
}

define %struct.Memory* @routine_movq__0x4c3305___rdi(%struct.State* dereferenceable(3376), i64, %struct.Memory*) {
block_400488:
  %3 = getelementptr inbounds %struct.State, %struct.State* %0, i32 0, i32 6
  %4 = getelementptr inbounds %struct.GPR, %struct.GPR* %3, i32 0, i32 33
  %5 = getelementptr inbounds %struct.Reg, %struct.Reg* %4, i32 0, i32 0
  %PC = bitcast %union.anon* %5 to i64*
  %6 = getelementptr inbounds %struct.State, %struct.State* %0, i32 0, i32 6
  %7 = getelementptr inbounds %struct.GPR, %struct.GPR* %6, i32 0, i32 11
  %8 = getelementptr inbounds %struct.Reg, %struct.Reg* %7, i32 0, i32 0
  %RDI = bitcast %union.anon* %8 to i64*
  %9 = load i64, i64* %PC
  %10 = add i64 %9, 10
  store i64 %10, i64* %PC
  store i64 ptrtoint (%G__0x4c3305_type* @G__0x4c3305 to i64), i64* %RDI, align 8
  ret %struct.Memory* %2
}

define %struct.Memory* @routine_callq_.no_mem_exit(%struct.State* dereferenceable(3376), i64, %struct.Memory*, i64 %rel_off1, i64 %rel_off2, i64 %rel_off3) {
block_400488:
  %3 = getelementptr inbounds %struct.State, %struct.State* %0, i32 0, i32 6
  %4 = getelementptr inbounds %struct.GPR, %struct.GPR* %3, i32 0, i32 33
  %5 = getelementptr inbounds %struct.Reg, %struct.Reg* %4, i32 0, i32 0
  %PC = bitcast %union.anon* %5 to i64*
  %6 = load i64, i64* %PC
  %7 = add i64 %6, %rel_off1
  %8 = load i64, i64* %PC
  %9 = add i64 %8, %rel_off2
  %10 = load i64, i64* %PC
  %11 = add i64 %10, %rel_off3
  store i64 %11, i64* %PC
  %12 = getelementptr inbounds %struct.State, %struct.State* %0, i64 0, i32 6, i32 13, i32 0, i32 0
  %13 = load i64, i64* %12, align 8
  %14 = add i64 %13, -8
  %15 = inttoptr i64 %14 to i64*
  store i64 %9, i64* %15
  store i64 %14, i64* %12, align 8
  %16 = getelementptr inbounds %struct.State, %struct.State* %0, i64 0, i32 6, i32 33, i32 0, i32 0
  store i64 %7, i64* %16, align 8
  ret %struct.Memory* %2
}

define %struct.Memory* @routine_movl__0xffd8___eax(%struct.State* dereferenceable(3376), i64, %struct.Memory*) {
block_400488:
  %3 = getelementptr inbounds %struct.State, %struct.State* %0, i32 0, i32 6
  %4 = getelementptr inbounds %struct.GPR, %struct.GPR* %3, i32 0, i32 33
  %5 = getelementptr inbounds %struct.Reg, %struct.Reg* %4, i32 0, i32 0
  %PC = bitcast %union.anon* %5 to i64*
  %6 = getelementptr inbounds %struct.State, %struct.State* %0, i32 0, i32 6
  %7 = getelementptr inbounds %struct.GPR, %struct.GPR* %6, i32 0, i32 1
  %8 = getelementptr inbounds %struct.Reg, %struct.Reg* %7, i32 0, i32 0
  %RAX = bitcast %union.anon* %8 to i64*
  %9 = load i64, i64* %PC
  %10 = add i64 %9, 5
  store i64 %10, i64* %PC
  store i64 65496, i64* %RAX, align 8
  ret %struct.Memory* %2
}

define %struct.Memory* @routine_movq_0x722b68___rdi(%struct.State* dereferenceable(3376), i64, %struct.Memory*) {
block_400488:
  %3 = getelementptr inbounds %struct.State, %struct.State* %0, i32 0, i32 6
  %4 = getelementptr inbounds %struct.GPR, %struct.GPR* %3, i32 0, i32 33
  %5 = getelementptr inbounds %struct.Reg, %struct.Reg* %4, i32 0, i32 0
  %PC = bitcast %union.anon* %5 to i64*
  %6 = getelementptr inbounds %struct.State, %struct.State* %0, i32 0, i32 6
  %7 = getelementptr inbounds %struct.GPR, %struct.GPR* %6, i32 0, i32 11
  %8 = getelementptr inbounds %struct.Reg, %struct.Reg* %7, i32 0, i32 0
  %RDI = bitcast %union.anon* %8 to i64*
  %9 = load i64, i64* %PC
  %10 = add i64 %9, 8
  store i64 %10, i64* %PC
  %11 = load i64, i64* bitcast (%G_0x722b68_type* @G_0x722b68 to i64*)
  store i64 %11, i64* %RDI, align 8
  ret %struct.Memory* %2
}

define %struct.Memory* @routine_movq__rax__0x20__rdi_(%struct.State* dereferenceable(3376), i64, %struct.Memory*) {
block_400488:
  %3 = getelementptr inbounds %struct.State, %struct.State* %0, i32 0, i32 6
  %4 = getelementptr inbounds %struct.GPR, %struct.GPR* %3, i32 0, i32 33
  %5 = getelementptr inbounds %struct.Reg, %struct.Reg* %4, i32 0, i32 0
  %PC = bitcast %union.anon* %5 to i64*
  %6 = getelementptr inbounds %struct.State, %struct.State* %0, i32 0, i32 6
  %7 = getelementptr inbounds %struct.GPR, %struct.GPR* %6, i32 0, i32 1
  %8 = getelementptr inbounds %struct.Reg, %struct.Reg* %7, i32 0, i32 0
  %RAX = bitcast %union.anon* %8 to i64*
  %9 = getelementptr inbounds %struct.State, %struct.State* %0, i32 0, i32 6
  %10 = getelementptr inbounds %struct.GPR, %struct.GPR* %9, i32 0, i32 11
  %11 = getelementptr inbounds %struct.Reg, %struct.Reg* %10, i32 0, i32 0
  %RDI = bitcast %union.anon* %11 to i64*
  %12 = load i64, i64* %RDI
  %13 = add i64 %12, 32
  %14 = load i64, i64* %RAX
  %15 = load i64, i64* %PC
  %16 = add i64 %15, 4
  store i64 %16, i64* %PC
  %17 = inttoptr i64 %13 to i64*
  store i64 %14, i64* %17
  ret %struct.Memory* %2
}

define %struct.Memory* @routine_movq_0x722b68___rax(%struct.State* dereferenceable(3376), i64, %struct.Memory*) {
block_400488:
  %3 = getelementptr inbounds %struct.State, %struct.State* %0, i32 0, i32 6
  %4 = getelementptr inbounds %struct.GPR, %struct.GPR* %3, i32 0, i32 33
  %5 = getelementptr inbounds %struct.Reg, %struct.Reg* %4, i32 0, i32 0
  %PC = bitcast %union.anon* %5 to i64*
  %6 = getelementptr inbounds %struct.State, %struct.State* %0, i32 0, i32 6
  %7 = getelementptr inbounds %struct.GPR, %struct.GPR* %6, i32 0, i32 1
  %8 = getelementptr inbounds %struct.Reg, %struct.Reg* %7, i32 0, i32 0
  %RAX = bitcast %union.anon* %8 to i64*
  %9 = load i64, i64* %PC
  %10 = add i64 %9, 8
  store i64 %10, i64* %PC
  %11 = load i64, i64* bitcast (%G_0x722b68_type* @G_0x722b68 to i64*)
  store i64 %11, i64* %RAX, align 8
  ret %struct.Memory* %2
}

define %struct.Memory* @routine_cmpq__0x0__0x20__rax_(%struct.State* dereferenceable(3376), i64, %struct.Memory*) {
block_400488:
  %3 = getelementptr inbounds %struct.State, %struct.State* %0, i32 0, i32 6
  %4 = getelementptr inbounds %struct.GPR, %struct.GPR* %3, i32 0, i32 33
  %5 = getelementptr inbounds %struct.Reg, %struct.Reg* %4, i32 0, i32 0
  %PC = bitcast %union.anon* %5 to i64*
  %6 = getelementptr inbounds %struct.State, %struct.State* %0, i32 0, i32 6
  %7 = getelementptr inbounds %struct.GPR, %struct.GPR* %6, i32 0, i32 1
  %8 = getelementptr inbounds %struct.Reg, %struct.Reg* %7, i32 0, i32 0
  %RAX = bitcast %union.anon* %8 to i64*
  %9 = load i64, i64* %RAX
  %10 = add i64 %9, 32
  %11 = load i64, i64* %PC
  %12 = add i64 %11, 5
  store i64 %12, i64* %PC
  %13 = inttoptr i64 %10 to i64*
  %14 = load i64, i64* %13
  %15 = getelementptr inbounds %struct.State, %struct.State* %0, i64 0, i32 2, i32 1
  store i8 0, i8* %15, align 1
  %16 = trunc i64 %14 to i32
  %17 = and i32 %16, 255
  %18 = call i32 @llvm.ctpop.i32(i32 %17)
  %19 = trunc i32 %18 to i8
  %20 = and i8 %19, 1
  %21 = xor i8 %20, 1
  %22 = getelementptr inbounds %struct.State, %struct.State* %0, i64 0, i32 2, i32 3
  store i8 %21, i8* %22, align 1
  %23 = getelementptr inbounds %struct.State, %struct.State* %0, i64 0, i32 2, i32 5
  store i8 0, i8* %23, align 1
  %24 = icmp eq i64 %14, 0
  %25 = zext i1 %24 to i8
  %26 = getelementptr inbounds %struct.State, %struct.State* %0, i64 0, i32 2, i32 7
  store i8 %25, i8* %26, align 1
  %27 = lshr i64 %14, 63
  %28 = trunc i64 %27 to i8
  %29 = getelementptr inbounds %struct.State, %struct.State* %0, i64 0, i32 2, i32 9
  store i8 %28, i8* %29, align 1
  %30 = lshr i64 %14, 63
  %31 = xor i64 %27, %30
  %32 = add i64 %31, %30
  %33 = icmp eq i64 %32, 2
  %34 = zext i1 %33 to i8
  %35 = getelementptr inbounds %struct.State, %struct.State* %0, i64 0, i32 2, i32 13
  store i8 %34, i8* %35, align 1
  ret %struct.Memory* %2
}

define %struct.Memory* @routine_jne_.L_49f420(%struct.State* dereferenceable(3376), i64, %struct.Memory*, i8* %BRANCH_TAKEN, i64 %rel_off1, i64 %rel_off2, i64 %rel_off3) {
block_400488:
  %3 = getelementptr inbounds %struct.State, %struct.State* %0, i32 0, i32 6
  %4 = getelementptr inbounds %struct.GPR, %struct.GPR* %3, i32 0, i32 33
  %5 = getelementptr inbounds %struct.Reg, %struct.Reg* %4, i32 0, i32 0
  %PC = bitcast %union.anon* %5 to i64*
  %6 = load i64, i64* %PC
  %7 = add i64 %6, %rel_off1
  %8 = load i64, i64* %PC
  %9 = add i64 %8, %rel_off2
  %10 = load i64, i64* %PC
  %11 = add i64 %10, %rel_off3
  store i64 %11, i64* %PC
  %12 = getelementptr inbounds %struct.State, %struct.State* %0, i64 0, i32 2, i32 7
  %13 = load i8, i8* %12, align 1
  %14 = icmp eq i8 %13, 0
  %15 = zext i1 %14 to i8
  store i8 %15, i8* %BRANCH_TAKEN, align 1
  %16 = getelementptr inbounds %struct.State, %struct.State* %0, i64 0, i32 6, i32 33, i32 0, i32 0
  %17 = select i1 %14, i64 %7, i64 %9
  store i64 %17, i64* %16, align 8
  ret %struct.Memory* %2
}

define %struct.Memory* @routine_movq__0x4c3340___rdi(%struct.State* dereferenceable(3376), i64, %struct.Memory*) {
block_400488:
  %3 = getelementptr inbounds %struct.State, %struct.State* %0, i32 0, i32 6
  %4 = getelementptr inbounds %struct.GPR, %struct.GPR* %3, i32 0, i32 33
  %5 = getelementptr inbounds %struct.Reg, %struct.Reg* %4, i32 0, i32 0
  %PC = bitcast %union.anon* %5 to i64*
  %6 = getelementptr inbounds %struct.State, %struct.State* %0, i32 0, i32 6
  %7 = getelementptr inbounds %struct.GPR, %struct.GPR* %6, i32 0, i32 11
  %8 = getelementptr inbounds %struct.Reg, %struct.Reg* %7, i32 0, i32 0
  %RDI = bitcast %union.anon* %8 to i64*
  %9 = load i64, i64* %PC
  %10 = add i64 %9, 10
  store i64 %10, i64* %PC
  store i64 ptrtoint (%G__0x4c3340_type* @G__0x4c3340 to i64), i64* %RDI, align 8
  ret %struct.Memory* %2
}

define %struct.Memory* @routine_movq__rax__0x722b58(%struct.State* dereferenceable(3376), i64, %struct.Memory*) {
block_400488:
  %3 = getelementptr inbounds %struct.State, %struct.State* %0, i32 0, i32 6
  %4 = getelementptr inbounds %struct.GPR, %struct.GPR* %3, i32 0, i32 33
  %5 = getelementptr inbounds %struct.Reg, %struct.Reg* %4, i32 0, i32 0
  %PC = bitcast %union.anon* %5 to i64*
  %6 = getelementptr inbounds %struct.State, %struct.State* %0, i32 0, i32 6
  %7 = getelementptr inbounds %struct.GPR, %struct.GPR* %6, i32 0, i32 1
  %8 = getelementptr inbounds %struct.Reg, %struct.Reg* %7, i32 0, i32 0
  %RAX = bitcast %union.anon* %8 to i64*
  %9 = load i64, i64* %RAX
  %10 = load i64, i64* %PC
  %11 = add i64 %10, 8
  store i64 %11, i64* %PC
  store i64 %9, i64* bitcast (%G_0x722b58_type* @G_0x722b58 to i64*)
  ret %struct.Memory* %2
}

define %struct.Memory* @routine_cmpq__0x0__0x722b58(%struct.State* dereferenceable(3376), i64, %struct.Memory*) {
block_400488:
  %3 = getelementptr inbounds %struct.State, %struct.State* %0, i32 0, i32 6
  %4 = getelementptr inbounds %struct.GPR, %struct.GPR* %3, i32 0, i32 33
  %5 = getelementptr inbounds %struct.Reg, %struct.Reg* %4, i32 0, i32 0
  %PC = bitcast %union.anon* %5 to i64*
  %6 = load i64, i64* %PC
  %7 = add i64 %6, 9
  store i64 %7, i64* %PC
  %8 = load i64, i64* bitcast (%G_0x722b58_type* @G_0x722b58 to i64*)
  %9 = getelementptr inbounds %struct.State, %struct.State* %0, i64 0, i32 2, i32 1
  store i8 0, i8* %9, align 1
  %10 = trunc i64 %8 to i32
  %11 = and i32 %10, 255
  %12 = call i32 @llvm.ctpop.i32(i32 %11)
  %13 = trunc i32 %12 to i8
  %14 = and i8 %13, 1
  %15 = xor i8 %14, 1
  %16 = getelementptr inbounds %struct.State, %struct.State* %0, i64 0, i32 2, i32 3
  store i8 %15, i8* %16, align 1
  %17 = getelementptr inbounds %struct.State, %struct.State* %0, i64 0, i32 2, i32 5
  store i8 0, i8* %17, align 1
  %18 = icmp eq i64 %8, 0
  %19 = zext i1 %18 to i8
  %20 = getelementptr inbounds %struct.State, %struct.State* %0, i64 0, i32 2, i32 7
  store i8 %19, i8* %20, align 1
  %21 = lshr i64 %8, 63
  %22 = trunc i64 %21 to i8
  %23 = getelementptr inbounds %struct.State, %struct.State* %0, i64 0, i32 2, i32 9
  store i8 %22, i8* %23, align 1
  %24 = lshr i64 %8, 63
  %25 = xor i64 %21, %24
  %26 = add i64 %25, %24
  %27 = icmp eq i64 %26, 2
  %28 = zext i1 %27 to i8
  %29 = getelementptr inbounds %struct.State, %struct.State* %0, i64 0, i32 2, i32 13
  store i8 %28, i8* %29, align 1
  ret %struct.Memory* %2
}

define %struct.Memory* @routine_jne_.L_49f452(%struct.State* dereferenceable(3376), i64, %struct.Memory*, i8* %BRANCH_TAKEN, i64 %rel_off1, i64 %rel_off2, i64 %rel_off3) {
block_400488:
  %3 = getelementptr inbounds %struct.State, %struct.State* %0, i32 0, i32 6
  %4 = getelementptr inbounds %struct.GPR, %struct.GPR* %3, i32 0, i32 33
  %5 = getelementptr inbounds %struct.Reg, %struct.Reg* %4, i32 0, i32 0
  %PC = bitcast %union.anon* %5 to i64*
  %6 = load i64, i64* %PC
  %7 = add i64 %6, %rel_off1
  %8 = load i64, i64* %PC
  %9 = add i64 %8, %rel_off2
  %10 = load i64, i64* %PC
  %11 = add i64 %10, %rel_off3
  store i64 %11, i64* %PC
  %12 = getelementptr inbounds %struct.State, %struct.State* %0, i64 0, i32 2, i32 7
  %13 = load i8, i8* %12, align 1
  %14 = icmp eq i8 %13, 0
  %15 = zext i1 %14 to i8
  store i8 %15, i8* %BRANCH_TAKEN, align 1
  %16 = getelementptr inbounds %struct.State, %struct.State* %0, i64 0, i32 6, i32 33, i32 0, i32 0
  %17 = select i1 %14, i64 %7, i64 %9
  store i64 %17, i64* %16, align 8
  ret %struct.Memory* %2
}

define %struct.Memory* @routine_movq__0x4c3389___rdi(%struct.State* dereferenceable(3376), i64, %struct.Memory*) {
block_400488:
  %3 = getelementptr inbounds %struct.State, %struct.State* %0, i32 0, i32 6
  %4 = getelementptr inbounds %struct.GPR, %struct.GPR* %3, i32 0, i32 33
  %5 = getelementptr inbounds %struct.Reg, %struct.Reg* %4, i32 0, i32 0
  %PC = bitcast %union.anon* %5 to i64*
  %6 = getelementptr inbounds %struct.State, %struct.State* %0, i32 0, i32 6
  %7 = getelementptr inbounds %struct.GPR, %struct.GPR* %6, i32 0, i32 11
  %8 = getelementptr inbounds %struct.Reg, %struct.Reg* %7, i32 0, i32 0
  %RDI = bitcast %union.anon* %8 to i64*
  %9 = load i64, i64* %PC
  %10 = add i64 %9, 10
  store i64 %10, i64* %PC
  store i64 ptrtoint (%G__0x4c3389_type* @G__0x4c3389 to i64), i64* %RDI, align 8
  ret %struct.Memory* %2
}

define %struct.Memory* @routine_callq_.ClearUser_data_unregistered(%struct.State* dereferenceable(3376), i64, %struct.Memory*, i64 %rel_off1, i64 %rel_off2, i64 %rel_off3) {
block_400488:
  %3 = getelementptr inbounds %struct.State, %struct.State* %0, i32 0, i32 6
  %4 = getelementptr inbounds %struct.GPR, %struct.GPR* %3, i32 0, i32 33
  %5 = getelementptr inbounds %struct.Reg, %struct.Reg* %4, i32 0, i32 0
  %PC = bitcast %union.anon* %5 to i64*
  %6 = load i64, i64* %PC
  %7 = add i64 %6, %rel_off1
  %8 = load i64, i64* %PC
  %9 = add i64 %8, %rel_off2
  %10 = load i64, i64* %PC
  %11 = add i64 %10, %rel_off3
  store i64 %11, i64* %PC
  %12 = getelementptr inbounds %struct.State, %struct.State* %0, i64 0, i32 6, i32 13, i32 0, i32 0
  %13 = load i64, i64* %12, align 8
  %14 = add i64 %13, -8
  %15 = inttoptr i64 %14 to i64*
  store i64 %9, i64* %15
  store i64 %14, i64* %12, align 8
  %16 = getelementptr inbounds %struct.State, %struct.State* %0, i64 0, i32 6, i32 33, i32 0, i32 0
  store i64 %7, i64* %16, align 8
  ret %struct.Memory* %2
}

define %struct.Memory* @routine_popq__rbp(%struct.State* dereferenceable(3376), i64, %struct.Memory*) {
block_400488:
  %3 = getelementptr inbounds %struct.State, %struct.State* %0, i32 0, i32 6
  %4 = getelementptr inbounds %struct.GPR, %struct.GPR* %3, i32 0, i32 33
  %5 = getelementptr inbounds %struct.Reg, %struct.Reg* %4, i32 0, i32 0
  %PC = bitcast %union.anon* %5 to i64*
  %6 = getelementptr inbounds %struct.State, %struct.State* %0, i32 0, i32 6
  %7 = getelementptr inbounds %struct.GPR, %struct.GPR* %6, i32 0, i32 15
  %8 = getelementptr inbounds %struct.Reg, %struct.Reg* %7, i32 0, i32 0
  %RBP = bitcast %union.anon* %8 to i64*
  %9 = load i64, i64* %PC
  %10 = add i64 %9, 1
  store i64 %10, i64* %PC
  %11 = getelementptr inbounds %struct.State, %struct.State* %0, i64 0, i32 6, i32 13, i32 0, i32 0
  %12 = load i64, i64* %11, align 8
  %13 = add i64 %12, 8
  %14 = inttoptr i64 %12 to i64*
  %15 = load i64, i64* %14
  store i64 %15, i64* %RBP, align 8
  store i64 %13, i64* %11, align 8
  ret %struct.Memory* %2
}

define %struct.Memory* @routine_retq(%struct.State* dereferenceable(3376), i64, %struct.Memory*) {
block_400488:
  %3 = getelementptr inbounds %struct.State, %struct.State* %0, i32 0, i32 6
  %4 = getelementptr inbounds %struct.GPR, %struct.GPR* %3, i32 0, i32 33
  %5 = getelementptr inbounds %struct.Reg, %struct.Reg* %4, i32 0, i32 0
  %PC = bitcast %union.anon* %5 to i64*
  %6 = load i64, i64* %PC
  %7 = add i64 %6, 1
  store i64 %7, i64* %PC
  %8 = getelementptr inbounds %struct.State, %struct.State* %0, i64 0, i32 6, i32 33, i32 0, i32 0
  %9 = getelementptr inbounds %struct.State, %struct.State* %0, i64 0, i32 6, i32 13, i32 0, i32 0
  %10 = load i64, i64* %9, align 8
  %11 = inttoptr i64 %10 to i64*
  %12 = load i64, i64* %11
  store i64 %12, i64* %8, align 8
  %13 = add i64 %10, 8
  store i64 %13, i64* %9, align 8
  ret %struct.Memory* %2
}

attributes #0 = { argmemonly nounwind }
attributes #1 = { nounwind readnone }
attributes #2 = { alwaysinline }
