; ModuleID = 'Shootout-C++-ary2/test.bc'
source_filename = "llvm-link"
target datalayout = "e-m:e-i64:64-f80:128-n8:16:32:64-S128"
target triple = "x86_64-unknown-linux-gnu"

%"class.std::ios_base::Init" = type { i8 }
%"class.std::basic_ostream" = type { i32 (...)**, %"class.std::basic_ios" }
%"class.std::basic_ios" = type { %"class.std::ios_base", %"class.std::basic_ostream"*, i8, i8, %"class.std::basic_streambuf"*, %"class.std::ctype"*, %"class.std::num_put"*, %"class.std::num_put"* }
%"class.std::ios_base" = type { i32 (...)**, i64, i64, i32, i32, i32, %"struct.std::ios_base::_Callback_list"*, %"struct.std::ios_base::_Words", [8 x %"struct.std::ios_base::_Words"], i32, %"struct.std::ios_base::_Words"*, %"class.std::locale" }
%"struct.std::ios_base::_Callback_list" = type { %"struct.std::ios_base::_Callback_list"*, void (i32, %"class.std::ios_base"*, i32)*, i32, i32 }
%"struct.std::ios_base::_Words" = type { i8*, i64 }
%"class.std::locale" = type { %"class.std::locale::_Impl"* }
%"class.std::locale::_Impl" = type { i32, %"class.std::locale::facet"**, i64, %"class.std::locale::facet"**, i8** }
%"class.std::locale::facet" = type <{ i32 (...)**, i32, [4 x i8] }>
%"class.std::basic_streambuf" = type { i32 (...)**, i8*, i8*, i8*, i8*, i8*, i8*, %"class.std::locale" }
%"class.std::ctype" = type <{ %"class.std::locale::facet.base", [4 x i8], %struct.__locale_struct*, i8, [7 x i8], i32*, i32*, i16*, i8, [256 x i8], [256 x i8], i8, [6 x i8] }>
%"class.std::locale::facet.base" = type <{ i32 (...)**, i32 }>
%struct.__locale_struct = type { [13 x %struct.__locale_data*], i16*, i32*, i32*, [13 x i8*] }
%struct.__locale_data = type opaque
%"class.std::num_put" = type { %"class.std::locale::facet.base", [4 x i8] }
%"class.std::vector" = type { %"struct.std::_Vector_base" }
%"struct.std::_Vector_base" = type { %"struct.std::_Vector_base<int, std::allocator<int> >::_Vector_impl" }
%"struct.std::_Vector_base<int, std::allocator<int> >::_Vector_impl" = type { i32*, i32*, i32* }
%"class.__gnu_cxx::__normal_iterator" = type { i32* }

$_ZNSaIiEC2Ev = comdat any

$_ZNSt6vectorIiSaIiEEC2EmRKiRKS0_ = comdat any

$_ZNSaIiED2Ev = comdat any

$_ZNSt6vectorIiSaIiEEixEm = comdat any

$_ZNSt6vectorIiSaIiEED2Ev = comdat any

$_ZNSt6vectorIiSaIiEE4backEv = comdat any

$__clang_call_terminate = comdat any

$_ZNSt6vectorIiSaIiEE3endEv = comdat any

$_ZNK9__gnu_cxx17__normal_iteratorIPiSt6vectorIiSaIiEEEmiEl = comdat any

$_ZNK9__gnu_cxx17__normal_iteratorIPiSt6vectorIiSaIiEEEdeEv = comdat any

$_ZN9__gnu_cxx17__normal_iteratorIPiSt6vectorIiSaIiEEEC2ERKS1_ = comdat any

$_ZNSt12_Vector_baseIiSaIiEE19_M_get_Tp_allocatorEv = comdat any

$_ZSt8_DestroyIPiiEvT_S1_RSaIT0_E = comdat any

$_ZNSt12_Vector_baseIiSaIiEED2Ev = comdat any

$_ZNSt12_Vector_baseIiSaIiEE13_M_deallocateEPim = comdat any

$_ZNSt12_Vector_baseIiSaIiEE12_Vector_implD2Ev = comdat any

$_ZN9__gnu_cxx14__alloc_traitsISaIiEE10deallocateERS1_Pim = comdat any

$_ZN9__gnu_cxx13new_allocatorIiE10deallocateEPim = comdat any

$_ZSt8_DestroyIPiEvT_S1_ = comdat any

$_ZNSt12_Destroy_auxILb1EE9__destroyIPiEEvT_S3_ = comdat any

$_ZN9__gnu_cxx13new_allocatorIiED2Ev = comdat any

$_ZNSt12_Vector_baseIiSaIiEEC2EmRKS0_ = comdat any

$_ZNSt6vectorIiSaIiEE18_M_fill_initializeEmRKi = comdat any

$_ZSt24__uninitialized_fill_n_aIPimiiET_S1_T0_RKT1_RSaIT2_E = comdat any

$_ZSt20uninitialized_fill_nIPimiET_S1_T0_RKT1_ = comdat any

$_ZNSt22__uninitialized_fill_nILb1EE15__uninit_fill_nIPimiEET_S3_T0_RKT1_ = comdat any

$_ZSt6fill_nIPimiET_S1_T0_RKT1_ = comdat any

$_ZSt12__niter_baseIPiET_S1_ = comdat any

$_ZSt10__fill_n_aIPimiEN9__gnu_cxx11__enable_ifIXsr11__is_scalarIT1_EE7__valueET_E6__typeES4_T0_RKS3_ = comdat any

$_ZNSt12_Vector_baseIiSaIiEE12_Vector_implC2ERKS0_ = comdat any

$_ZNSt12_Vector_baseIiSaIiEE17_M_create_storageEm = comdat any

$_ZNSt12_Vector_baseIiSaIiEE11_M_allocateEm = comdat any

$_ZN9__gnu_cxx14__alloc_traitsISaIiEE8allocateERS1_m = comdat any

$_ZN9__gnu_cxx13new_allocatorIiE8allocateEmPKv = comdat any

$_ZNK9__gnu_cxx13new_allocatorIiE8max_sizeEv = comdat any

$_ZNSaIiEC2ERKS_ = comdat any

$_ZN9__gnu_cxx13new_allocatorIiEC2ERKS1_ = comdat any

$_ZN9__gnu_cxx13new_allocatorIiEC2Ev = comdat any

@llvm.global_ctors = appending global [1 x { i32, void ()*, i8* }] [{ i32, void ()*, i8* } { i32 65535, void ()* @_GLOBAL__sub_I_ary2.cpp, i8* null }]
@_ZStL8__ioinit = internal global %"class.std::ios_base::Init" zeroinitializer, align 1
@__dso_handle = external global i8
@_ZSt4cout = external global %"class.std::basic_ostream", align 8

; Function Attrs: noinline uwtable
define internal void @_GLOBAL__sub_I_ary2.cpp() #0 section ".text.startup" {
entry:
  call void @__cxx_global_var_init()
  ret void
}

; Function Attrs: noinline uwtable
define internal void @__cxx_global_var_init() #0 section ".text.startup" {
entry:
  call void @_ZNSt8ios_base4InitC1Ev(%"class.std::ios_base::Init"* @_ZStL8__ioinit)
  %0 = call i32 @__cxa_atexit(void (i8*)* bitcast (void (%"class.std::ios_base::Init"*)* @_ZNSt8ios_base4InitD1Ev to void (i8*)*), i8* getelementptr inbounds (%"class.std::ios_base::Init", %"class.std::ios_base::Init"* @_ZStL8__ioinit, i32 0, i32 0), i8* @__dso_handle) #2
  ret void
}

declare void @_ZNSt8ios_base4InitC1Ev(%"class.std::ios_base::Init"*) unnamed_addr #1

declare void @_ZNSt8ios_base4InitD1Ev(%"class.std::ios_base::Init"*) unnamed_addr #1

; Function Attrs: nounwind
declare i32 @__cxa_atexit(void (i8*)*, i8*, i8*) #2

; Function Attrs: noinline norecurse uwtable
define i32 @main(i32 %argc, i8** %argv) #3 personality i8* bitcast (i32 (...)* @__gxx_personality_v0 to i8*) {
entry:
  %retval = alloca i32, align 4
  %argc.addr = alloca i32, align 4
  %argv.addr = alloca i8**, align 8
  %i = alloca i32, align 4
  %n = alloca i32, align 4
  %x = alloca %"class.std::vector", align 8
  %ref.tmp = alloca i32, align 4
  %ref.tmp1 = alloca %"class.std::ios_base::Init", align 1
  %exn.slot = alloca i8*
  %ehselector.slot = alloca i32
  %y = alloca %"class.std::vector", align 8
  %ref.tmp3 = alloca i32, align 4
  %ref.tmp4 = alloca %"class.std::ios_base::Init", align 1
  %i48 = alloca i32, align 4
  store i32 0, i32* %retval, align 4
  store i32 %argc, i32* %argc.addr, align 4
  store i8** %argv, i8*** %argv.addr, align 8
  %0 = load i32, i32* %argc.addr, align 4
  %cmp = icmp eq i32 %0, 2
  br i1 %cmp, label %cond.true, label %cond.false

cond.true:                                        ; preds = %entry
  %1 = load i8**, i8*** %argv.addr, align 8
  %arrayidx = getelementptr inbounds i8*, i8** %1, i64 1
  %2 = load i8*, i8** %arrayidx, align 8
  %call = call i32 @atoi(i8* %2) #10
  br label %cond.end

cond.false:                                       ; preds = %entry
  br label %cond.end

cond.end:                                         ; preds = %cond.false, %cond.true
  %cond = phi i32 [ %call, %cond.true ], [ 900000, %cond.false ]
  %mul = mul nsw i32 10, %cond
  store i32 %mul, i32* %n, align 4
  %3 = load i32, i32* %n, align 4
  %conv = sext i32 %3 to i64
  store i32 0, i32* %ref.tmp, align 4
  call void @_ZNSaIiEC2Ev(%"class.std::ios_base::Init"* %ref.tmp1) #2
  invoke void @_ZNSt6vectorIiSaIiEEC2EmRKiRKS0_(%"class.std::vector"* %x, i64 %conv, i32* dereferenceable(4) %ref.tmp, %"class.std::ios_base::Init"* dereferenceable(1) %ref.tmp1)
          to label %invoke.cont unwind label %lpad

invoke.cont:                                      ; preds = %cond.end
  call void @_ZNSaIiED2Ev(%"class.std::ios_base::Init"* %ref.tmp1) #2
  %4 = load i32, i32* %n, align 4
  %conv2 = sext i32 %4 to i64
  store i32 0, i32* %ref.tmp3, align 4
  call void @_ZNSaIiEC2Ev(%"class.std::ios_base::Init"* %ref.tmp4) #2
  invoke void @_ZNSt6vectorIiSaIiEEC2EmRKiRKS0_(%"class.std::vector"* %y, i64 %conv2, i32* dereferenceable(4) %ref.tmp3, %"class.std::ios_base::Init"* dereferenceable(1) %ref.tmp4)
          to label %invoke.cont6 unwind label %lpad5

invoke.cont6:                                     ; preds = %invoke.cont
  call void @_ZNSaIiED2Ev(%"class.std::ios_base::Init"* %ref.tmp4) #2
  store i32 0, i32* %i, align 4
  br label %for.cond

for.cond:                                         ; preds = %invoke.cont45, %invoke.cont6
  %5 = load i32, i32* %i, align 4
  %6 = load i32, i32* %n, align 4
  %cmp7 = icmp slt i32 %5, %6
  br i1 %cmp7, label %for.body, label %for.end

for.body:                                         ; preds = %for.cond
  %7 = load i32, i32* %i, align 4
  %8 = load i32, i32* %i, align 4
  %conv8 = sext i32 %8 to i64
  %call11 = invoke dereferenceable(4) i32* @_ZNSt6vectorIiSaIiEEixEm(%"class.std::vector"* %x, i64 %conv8)
          to label %invoke.cont10 unwind label %lpad9

invoke.cont10:                                    ; preds = %for.body
  store i32 %7, i32* %call11, align 4
  %9 = load i32, i32* %i, align 4
  %inc = add nsw i32 %9, 1
  store i32 %inc, i32* %i, align 4
  %10 = load i32, i32* %i, align 4
  %11 = load i32, i32* %i, align 4
  %conv12 = sext i32 %11 to i64
  %call14 = invoke dereferenceable(4) i32* @_ZNSt6vectorIiSaIiEEixEm(%"class.std::vector"* %x, i64 %conv12)
          to label %invoke.cont13 unwind label %lpad9

invoke.cont13:                                    ; preds = %invoke.cont10
  store i32 %10, i32* %call14, align 4
  %12 = load i32, i32* %i, align 4
  %inc15 = add nsw i32 %12, 1
  store i32 %inc15, i32* %i, align 4
  %13 = load i32, i32* %i, align 4
  %14 = load i32, i32* %i, align 4
  %conv16 = sext i32 %14 to i64
  %call18 = invoke dereferenceable(4) i32* @_ZNSt6vectorIiSaIiEEixEm(%"class.std::vector"* %x, i64 %conv16)
          to label %invoke.cont17 unwind label %lpad9

invoke.cont17:                                    ; preds = %invoke.cont13
  store i32 %13, i32* %call18, align 4
  %15 = load i32, i32* %i, align 4
  %inc19 = add nsw i32 %15, 1
  store i32 %inc19, i32* %i, align 4
  %16 = load i32, i32* %i, align 4
  %17 = load i32, i32* %i, align 4
  %conv20 = sext i32 %17 to i64
  %call22 = invoke dereferenceable(4) i32* @_ZNSt6vectorIiSaIiEEixEm(%"class.std::vector"* %x, i64 %conv20)
          to label %invoke.cont21 unwind label %lpad9

invoke.cont21:                                    ; preds = %invoke.cont17
  store i32 %16, i32* %call22, align 4
  %18 = load i32, i32* %i, align 4
  %inc23 = add nsw i32 %18, 1
  store i32 %inc23, i32* %i, align 4
  %19 = load i32, i32* %i, align 4
  %20 = load i32, i32* %i, align 4
  %conv24 = sext i32 %20 to i64
  %call26 = invoke dereferenceable(4) i32* @_ZNSt6vectorIiSaIiEEixEm(%"class.std::vector"* %x, i64 %conv24)
          to label %invoke.cont25 unwind label %lpad9

invoke.cont25:                                    ; preds = %invoke.cont21
  store i32 %19, i32* %call26, align 4
  %21 = load i32, i32* %i, align 4
  %inc27 = add nsw i32 %21, 1
  store i32 %inc27, i32* %i, align 4
  %22 = load i32, i32* %i, align 4
  %23 = load i32, i32* %i, align 4
  %conv28 = sext i32 %23 to i64
  %call30 = invoke dereferenceable(4) i32* @_ZNSt6vectorIiSaIiEEixEm(%"class.std::vector"* %x, i64 %conv28)
          to label %invoke.cont29 unwind label %lpad9

invoke.cont29:                                    ; preds = %invoke.cont25
  store i32 %22, i32* %call30, align 4
  %24 = load i32, i32* %i, align 4
  %inc31 = add nsw i32 %24, 1
  store i32 %inc31, i32* %i, align 4
  %25 = load i32, i32* %i, align 4
  %26 = load i32, i32* %i, align 4
  %conv32 = sext i32 %26 to i64
  %call34 = invoke dereferenceable(4) i32* @_ZNSt6vectorIiSaIiEEixEm(%"class.std::vector"* %x, i64 %conv32)
          to label %invoke.cont33 unwind label %lpad9

invoke.cont33:                                    ; preds = %invoke.cont29
  store i32 %25, i32* %call34, align 4
  %27 = load i32, i32* %i, align 4
  %inc35 = add nsw i32 %27, 1
  store i32 %inc35, i32* %i, align 4
  %28 = load i32, i32* %i, align 4
  %29 = load i32, i32* %i, align 4
  %conv36 = sext i32 %29 to i64
  %call38 = invoke dereferenceable(4) i32* @_ZNSt6vectorIiSaIiEEixEm(%"class.std::vector"* %x, i64 %conv36)
          to label %invoke.cont37 unwind label %lpad9

invoke.cont37:                                    ; preds = %invoke.cont33
  store i32 %28, i32* %call38, align 4
  %30 = load i32, i32* %i, align 4
  %inc39 = add nsw i32 %30, 1
  store i32 %inc39, i32* %i, align 4
  %31 = load i32, i32* %i, align 4
  %32 = load i32, i32* %i, align 4
  %conv40 = sext i32 %32 to i64
  %call42 = invoke dereferenceable(4) i32* @_ZNSt6vectorIiSaIiEEixEm(%"class.std::vector"* %x, i64 %conv40)
          to label %invoke.cont41 unwind label %lpad9

invoke.cont41:                                    ; preds = %invoke.cont37
  store i32 %31, i32* %call42, align 4
  %33 = load i32, i32* %i, align 4
  %inc43 = add nsw i32 %33, 1
  store i32 %inc43, i32* %i, align 4
  %34 = load i32, i32* %i, align 4
  %35 = load i32, i32* %i, align 4
  %conv44 = sext i32 %35 to i64
  %call46 = invoke dereferenceable(4) i32* @_ZNSt6vectorIiSaIiEEixEm(%"class.std::vector"* %x, i64 %conv44)
          to label %invoke.cont45 unwind label %lpad9

invoke.cont45:                                    ; preds = %invoke.cont41
  store i32 %34, i32* %call46, align 4
  %36 = load i32, i32* %i, align 4
  %inc47 = add nsw i32 %36, 1
  store i32 %inc47, i32* %i, align 4
  br label %for.cond

lpad:                                             ; preds = %cond.end
  %37 = landingpad { i8*, i32 }
          cleanup
  %38 = extractvalue { i8*, i32 } %37, 0
  store i8* %38, i8** %exn.slot, align 8
  %39 = extractvalue { i8*, i32 } %37, 1
  store i32 %39, i32* %ehselector.slot, align 4
  call void @_ZNSaIiED2Ev(%"class.std::ios_base::Init"* %ref.tmp1) #2
  br label %eh.resume

lpad5:                                            ; preds = %invoke.cont
  %40 = landingpad { i8*, i32 }
          cleanup
  %41 = extractvalue { i8*, i32 } %40, 0
  store i8* %41, i8** %exn.slot, align 8
  %42 = extractvalue { i8*, i32 } %40, 1
  store i32 %42, i32* %ehselector.slot, align 4
  call void @_ZNSaIiED2Ev(%"class.std::ios_base::Init"* %ref.tmp4) #2
  br label %ehcleanup

lpad9:                                            ; preds = %invoke.cont124, %invoke.cont122, %for.end121, %invoke.cont115, %invoke.cont111, %invoke.cont108, %invoke.cont104, %invoke.cont101, %invoke.cont97, %invoke.cont94, %invoke.cont90, %invoke.cont87, %invoke.cont83, %invoke.cont80, %invoke.cont76, %invoke.cont73, %invoke.cont69, %invoke.cont66, %invoke.cont62, %invoke.cont59, %invoke.cont56, %invoke.cont53, %for.body51, %invoke.cont41, %invoke.cont37, %invoke.cont33, %invoke.cont29, %invoke.cont25, %invoke.cont21, %invoke.cont17, %invoke.cont13, %invoke.cont10, %for.body
  %43 = landingpad { i8*, i32 }
          cleanup
  %44 = extractvalue { i8*, i32 } %43, 0
  store i8* %44, i8** %exn.slot, align 8
  %45 = extractvalue { i8*, i32 } %43, 1
  store i32 %45, i32* %ehselector.slot, align 4
  invoke void @_ZNSt6vectorIiSaIiEED2Ev(%"class.std::vector"* %y)
          to label %invoke.cont130 unwind label %terminate.lpad

for.end:                                          ; preds = %for.cond
  %46 = load i32, i32* %n, align 4
  %sub = sub nsw i32 %46, 1
  store i32 %sub, i32* %i48, align 4
  br label %for.cond49

for.cond49:                                       ; preds = %invoke.cont118, %for.end
  %47 = load i32, i32* %i48, align 4
  %cmp50 = icmp sge i32 %47, 0
  br i1 %cmp50, label %for.body51, label %for.end121

for.body51:                                       ; preds = %for.cond49
  %48 = load i32, i32* %i48, align 4
  %conv52 = sext i32 %48 to i64
  %call54 = invoke dereferenceable(4) i32* @_ZNSt6vectorIiSaIiEEixEm(%"class.std::vector"* %x, i64 %conv52)
          to label %invoke.cont53 unwind label %lpad9

invoke.cont53:                                    ; preds = %for.body51
  %49 = load i32, i32* %call54, align 4
  %50 = load i32, i32* %i48, align 4
  %conv55 = sext i32 %50 to i64
  %call57 = invoke dereferenceable(4) i32* @_ZNSt6vectorIiSaIiEEixEm(%"class.std::vector"* %y, i64 %conv55)
          to label %invoke.cont56 unwind label %lpad9

invoke.cont56:                                    ; preds = %invoke.cont53
  store i32 %49, i32* %call57, align 4
  %51 = load i32, i32* %i48, align 4
  %dec = add nsw i32 %51, -1
  store i32 %dec, i32* %i48, align 4
  %52 = load i32, i32* %i48, align 4
  %conv58 = sext i32 %52 to i64
  %call60 = invoke dereferenceable(4) i32* @_ZNSt6vectorIiSaIiEEixEm(%"class.std::vector"* %x, i64 %conv58)
          to label %invoke.cont59 unwind label %lpad9

invoke.cont59:                                    ; preds = %invoke.cont56
  %53 = load i32, i32* %call60, align 4
  %54 = load i32, i32* %i48, align 4
  %conv61 = sext i32 %54 to i64
  %call63 = invoke dereferenceable(4) i32* @_ZNSt6vectorIiSaIiEEixEm(%"class.std::vector"* %y, i64 %conv61)
          to label %invoke.cont62 unwind label %lpad9

invoke.cont62:                                    ; preds = %invoke.cont59
  store i32 %53, i32* %call63, align 4
  %55 = load i32, i32* %i48, align 4
  %dec64 = add nsw i32 %55, -1
  store i32 %dec64, i32* %i48, align 4
  %56 = load i32, i32* %i48, align 4
  %conv65 = sext i32 %56 to i64
  %call67 = invoke dereferenceable(4) i32* @_ZNSt6vectorIiSaIiEEixEm(%"class.std::vector"* %x, i64 %conv65)
          to label %invoke.cont66 unwind label %lpad9

invoke.cont66:                                    ; preds = %invoke.cont62
  %57 = load i32, i32* %call67, align 4
  %58 = load i32, i32* %i48, align 4
  %conv68 = sext i32 %58 to i64
  %call70 = invoke dereferenceable(4) i32* @_ZNSt6vectorIiSaIiEEixEm(%"class.std::vector"* %y, i64 %conv68)
          to label %invoke.cont69 unwind label %lpad9

invoke.cont69:                                    ; preds = %invoke.cont66
  store i32 %57, i32* %call70, align 4
  %59 = load i32, i32* %i48, align 4
  %dec71 = add nsw i32 %59, -1
  store i32 %dec71, i32* %i48, align 4
  %60 = load i32, i32* %i48, align 4
  %conv72 = sext i32 %60 to i64
  %call74 = invoke dereferenceable(4) i32* @_ZNSt6vectorIiSaIiEEixEm(%"class.std::vector"* %x, i64 %conv72)
          to label %invoke.cont73 unwind label %lpad9

invoke.cont73:                                    ; preds = %invoke.cont69
  %61 = load i32, i32* %call74, align 4
  %62 = load i32, i32* %i48, align 4
  %conv75 = sext i32 %62 to i64
  %call77 = invoke dereferenceable(4) i32* @_ZNSt6vectorIiSaIiEEixEm(%"class.std::vector"* %y, i64 %conv75)
          to label %invoke.cont76 unwind label %lpad9

invoke.cont76:                                    ; preds = %invoke.cont73
  store i32 %61, i32* %call77, align 4
  %63 = load i32, i32* %i48, align 4
  %dec78 = add nsw i32 %63, -1
  store i32 %dec78, i32* %i48, align 4
  %64 = load i32, i32* %i48, align 4
  %conv79 = sext i32 %64 to i64
  %call81 = invoke dereferenceable(4) i32* @_ZNSt6vectorIiSaIiEEixEm(%"class.std::vector"* %x, i64 %conv79)
          to label %invoke.cont80 unwind label %lpad9

invoke.cont80:                                    ; preds = %invoke.cont76
  %65 = load i32, i32* %call81, align 4
  %66 = load i32, i32* %i48, align 4
  %conv82 = sext i32 %66 to i64
  %call84 = invoke dereferenceable(4) i32* @_ZNSt6vectorIiSaIiEEixEm(%"class.std::vector"* %y, i64 %conv82)
          to label %invoke.cont83 unwind label %lpad9

invoke.cont83:                                    ; preds = %invoke.cont80
  store i32 %65, i32* %call84, align 4
  %67 = load i32, i32* %i48, align 4
  %dec85 = add nsw i32 %67, -1
  store i32 %dec85, i32* %i48, align 4
  %68 = load i32, i32* %i48, align 4
  %conv86 = sext i32 %68 to i64
  %call88 = invoke dereferenceable(4) i32* @_ZNSt6vectorIiSaIiEEixEm(%"class.std::vector"* %x, i64 %conv86)
          to label %invoke.cont87 unwind label %lpad9

invoke.cont87:                                    ; preds = %invoke.cont83
  %69 = load i32, i32* %call88, align 4
  %70 = load i32, i32* %i48, align 4
  %conv89 = sext i32 %70 to i64
  %call91 = invoke dereferenceable(4) i32* @_ZNSt6vectorIiSaIiEEixEm(%"class.std::vector"* %y, i64 %conv89)
          to label %invoke.cont90 unwind label %lpad9

invoke.cont90:                                    ; preds = %invoke.cont87
  store i32 %69, i32* %call91, align 4
  %71 = load i32, i32* %i48, align 4
  %dec92 = add nsw i32 %71, -1
  store i32 %dec92, i32* %i48, align 4
  %72 = load i32, i32* %i48, align 4
  %conv93 = sext i32 %72 to i64
  %call95 = invoke dereferenceable(4) i32* @_ZNSt6vectorIiSaIiEEixEm(%"class.std::vector"* %x, i64 %conv93)
          to label %invoke.cont94 unwind label %lpad9

invoke.cont94:                                    ; preds = %invoke.cont90
  %73 = load i32, i32* %call95, align 4
  %74 = load i32, i32* %i48, align 4
  %conv96 = sext i32 %74 to i64
  %call98 = invoke dereferenceable(4) i32* @_ZNSt6vectorIiSaIiEEixEm(%"class.std::vector"* %y, i64 %conv96)
          to label %invoke.cont97 unwind label %lpad9

invoke.cont97:                                    ; preds = %invoke.cont94
  store i32 %73, i32* %call98, align 4
  %75 = load i32, i32* %i48, align 4
  %dec99 = add nsw i32 %75, -1
  store i32 %dec99, i32* %i48, align 4
  %76 = load i32, i32* %i48, align 4
  %conv100 = sext i32 %76 to i64
  %call102 = invoke dereferenceable(4) i32* @_ZNSt6vectorIiSaIiEEixEm(%"class.std::vector"* %x, i64 %conv100)
          to label %invoke.cont101 unwind label %lpad9

invoke.cont101:                                   ; preds = %invoke.cont97
  %77 = load i32, i32* %call102, align 4
  %78 = load i32, i32* %i48, align 4
  %conv103 = sext i32 %78 to i64
  %call105 = invoke dereferenceable(4) i32* @_ZNSt6vectorIiSaIiEEixEm(%"class.std::vector"* %y, i64 %conv103)
          to label %invoke.cont104 unwind label %lpad9

invoke.cont104:                                   ; preds = %invoke.cont101
  store i32 %77, i32* %call105, align 4
  %79 = load i32, i32* %i48, align 4
  %dec106 = add nsw i32 %79, -1
  store i32 %dec106, i32* %i48, align 4
  %80 = load i32, i32* %i48, align 4
  %conv107 = sext i32 %80 to i64
  %call109 = invoke dereferenceable(4) i32* @_ZNSt6vectorIiSaIiEEixEm(%"class.std::vector"* %x, i64 %conv107)
          to label %invoke.cont108 unwind label %lpad9

invoke.cont108:                                   ; preds = %invoke.cont104
  %81 = load i32, i32* %call109, align 4
  %82 = load i32, i32* %i48, align 4
  %conv110 = sext i32 %82 to i64
  %call112 = invoke dereferenceable(4) i32* @_ZNSt6vectorIiSaIiEEixEm(%"class.std::vector"* %y, i64 %conv110)
          to label %invoke.cont111 unwind label %lpad9

invoke.cont111:                                   ; preds = %invoke.cont108
  store i32 %81, i32* %call112, align 4
  %83 = load i32, i32* %i48, align 4
  %dec113 = add nsw i32 %83, -1
  store i32 %dec113, i32* %i48, align 4
  %84 = load i32, i32* %i48, align 4
  %conv114 = sext i32 %84 to i64
  %call116 = invoke dereferenceable(4) i32* @_ZNSt6vectorIiSaIiEEixEm(%"class.std::vector"* %x, i64 %conv114)
          to label %invoke.cont115 unwind label %lpad9

invoke.cont115:                                   ; preds = %invoke.cont111
  %85 = load i32, i32* %call116, align 4
  %86 = load i32, i32* %i48, align 4
  %conv117 = sext i32 %86 to i64
  %call119 = invoke dereferenceable(4) i32* @_ZNSt6vectorIiSaIiEEixEm(%"class.std::vector"* %y, i64 %conv117)
          to label %invoke.cont118 unwind label %lpad9

invoke.cont118:                                   ; preds = %invoke.cont115
  store i32 %85, i32* %call119, align 4
  %87 = load i32, i32* %i48, align 4
  %dec120 = add nsw i32 %87, -1
  store i32 %dec120, i32* %i48, align 4
  br label %for.cond49

for.end121:                                       ; preds = %for.cond49
  %call123 = invoke dereferenceable(4) i32* @_ZNSt6vectorIiSaIiEE4backEv(%"class.std::vector"* %y)
          to label %invoke.cont122 unwind label %lpad9

invoke.cont122:                                   ; preds = %for.end121
  %88 = load i32, i32* %call123, align 4
  %call125 = invoke dereferenceable(272) %"class.std::basic_ostream"* @_ZNSolsEi(%"class.std::basic_ostream"* @_ZSt4cout, i32 %88)
          to label %invoke.cont124 unwind label %lpad9

invoke.cont124:                                   ; preds = %invoke.cont122
  %call127 = invoke dereferenceable(272) %"class.std::basic_ostream"* @_ZNSolsEPFRSoS_E(%"class.std::basic_ostream"* %call125, %"class.std::basic_ostream"* (%"class.std::basic_ostream"*)* @_ZSt4endlIcSt11char_traitsIcEERSt13basic_ostreamIT_T0_ES6_)
          to label %invoke.cont126 unwind label %lpad9

invoke.cont126:                                   ; preds = %invoke.cont124
  invoke void @_ZNSt6vectorIiSaIiEED2Ev(%"class.std::vector"* %y)
          to label %invoke.cont129 unwind label %lpad128

invoke.cont129:                                   ; preds = %invoke.cont126
  call void @_ZNSt6vectorIiSaIiEED2Ev(%"class.std::vector"* %x)
  %89 = load i32, i32* %retval, align 4
  ret i32 %89

lpad128:                                          ; preds = %invoke.cont126
  %90 = landingpad { i8*, i32 }
          cleanup
  %91 = extractvalue { i8*, i32 } %90, 0
  store i8* %91, i8** %exn.slot, align 8
  %92 = extractvalue { i8*, i32 } %90, 1
  store i32 %92, i32* %ehselector.slot, align 4
  br label %ehcleanup

invoke.cont130:                                   ; preds = %lpad9
  br label %ehcleanup

ehcleanup:                                        ; preds = %invoke.cont130, %lpad128, %lpad5
  invoke void @_ZNSt6vectorIiSaIiEED2Ev(%"class.std::vector"* %x)
          to label %invoke.cont131 unwind label %terminate.lpad

invoke.cont131:                                   ; preds = %ehcleanup
  br label %eh.resume

eh.resume:                                        ; preds = %invoke.cont131, %lpad
  %exn = load i8*, i8** %exn.slot, align 8
  %sel = load i32, i32* %ehselector.slot, align 4
  %lpad.val = insertvalue { i8*, i32 } undef, i8* %exn, 0
  %lpad.val132 = insertvalue { i8*, i32 } %lpad.val, i32 %sel, 1
  resume { i8*, i32 } %lpad.val132

terminate.lpad:                                   ; preds = %ehcleanup, %lpad9
  %93 = landingpad { i8*, i32 }
          catch i8* null
  %94 = extractvalue { i8*, i32 } %93, 0
  call void @__clang_call_terminate(i8* %94) #11
  unreachable
}

declare i32 @__gxx_personality_v0(...)

; Function Attrs: nounwind readonly
declare i32 @atoi(i8*) #4

; Function Attrs: noinline nounwind uwtable
define linkonce_odr void @_ZNSaIiEC2Ev(%"class.std::ios_base::Init"* %this) unnamed_addr #5 comdat align 2 {
entry:
  %this.addr = alloca %"class.std::ios_base::Init"*, align 8
  store %"class.std::ios_base::Init"* %this, %"class.std::ios_base::Init"** %this.addr, align 8
  %this1 = load %"class.std::ios_base::Init"*, %"class.std::ios_base::Init"** %this.addr, align 8
  %0 = bitcast %"class.std::ios_base::Init"* %this1 to %"class.std::ios_base::Init"*
  call void @_ZN9__gnu_cxx13new_allocatorIiEC2Ev(%"class.std::ios_base::Init"* %0) #2
  ret void
}

; Function Attrs: noinline uwtable
define linkonce_odr void @_ZNSt6vectorIiSaIiEEC2EmRKiRKS0_(%"class.std::vector"* %this, i64 %__n, i32* dereferenceable(4) %__value, %"class.std::ios_base::Init"* dereferenceable(1) %__a) unnamed_addr #0 comdat align 2 personality i8* bitcast (i32 (...)* @__gxx_personality_v0 to i8*) {
entry:
  %this.addr = alloca %"class.std::vector"*, align 8
  %__n.addr = alloca i64, align 8
  %__value.addr = alloca i32*, align 8
  %__a.addr = alloca %"class.std::ios_base::Init"*, align 8
  %exn.slot = alloca i8*
  %ehselector.slot = alloca i32
  store %"class.std::vector"* %this, %"class.std::vector"** %this.addr, align 8
  store i64 %__n, i64* %__n.addr, align 8
  store i32* %__value, i32** %__value.addr, align 8
  store %"class.std::ios_base::Init"* %__a, %"class.std::ios_base::Init"** %__a.addr, align 8
  %this1 = load %"class.std::vector"*, %"class.std::vector"** %this.addr, align 8
  %0 = bitcast %"class.std::vector"* %this1 to %"struct.std::_Vector_base"*
  %1 = load i64, i64* %__n.addr, align 8
  %2 = load %"class.std::ios_base::Init"*, %"class.std::ios_base::Init"** %__a.addr, align 8
  call void @_ZNSt12_Vector_baseIiSaIiEEC2EmRKS0_(%"struct.std::_Vector_base"* %0, i64 %1, %"class.std::ios_base::Init"* dereferenceable(1) %2)
  %3 = load i64, i64* %__n.addr, align 8
  %4 = load i32*, i32** %__value.addr, align 8
  invoke void @_ZNSt6vectorIiSaIiEE18_M_fill_initializeEmRKi(%"class.std::vector"* %this1, i64 %3, i32* dereferenceable(4) %4)
          to label %invoke.cont unwind label %lpad

invoke.cont:                                      ; preds = %entry
  ret void

lpad:                                             ; preds = %entry
  %5 = landingpad { i8*, i32 }
          cleanup
  %6 = extractvalue { i8*, i32 } %5, 0
  store i8* %6, i8** %exn.slot, align 8
  %7 = extractvalue { i8*, i32 } %5, 1
  store i32 %7, i32* %ehselector.slot, align 4
  %8 = bitcast %"class.std::vector"* %this1 to %"struct.std::_Vector_base"*
  invoke void @_ZNSt12_Vector_baseIiSaIiEED2Ev(%"struct.std::_Vector_base"* %8)
          to label %invoke.cont2 unwind label %terminate.lpad

invoke.cont2:                                     ; preds = %lpad
  br label %eh.resume

eh.resume:                                        ; preds = %invoke.cont2
  %exn = load i8*, i8** %exn.slot, align 8
  %sel = load i32, i32* %ehselector.slot, align 4
  %lpad.val = insertvalue { i8*, i32 } undef, i8* %exn, 0
  %lpad.val3 = insertvalue { i8*, i32 } %lpad.val, i32 %sel, 1
  resume { i8*, i32 } %lpad.val3

terminate.lpad:                                   ; preds = %lpad
  %9 = landingpad { i8*, i32 }
          catch i8* null
  %10 = extractvalue { i8*, i32 } %9, 0
  call void @__clang_call_terminate(i8* %10) #11
  unreachable
}

; Function Attrs: noinline nounwind uwtable
define linkonce_odr void @_ZNSaIiED2Ev(%"class.std::ios_base::Init"* %this) unnamed_addr #5 comdat align 2 {
entry:
  %this.addr = alloca %"class.std::ios_base::Init"*, align 8
  store %"class.std::ios_base::Init"* %this, %"class.std::ios_base::Init"** %this.addr, align 8
  %this1 = load %"class.std::ios_base::Init"*, %"class.std::ios_base::Init"** %this.addr, align 8
  %0 = bitcast %"class.std::ios_base::Init"* %this1 to %"class.std::ios_base::Init"*
  call void @_ZN9__gnu_cxx13new_allocatorIiED2Ev(%"class.std::ios_base::Init"* %0) #2
  ret void
}

; Function Attrs: noinline nounwind uwtable
define linkonce_odr dereferenceable(4) i32* @_ZNSt6vectorIiSaIiEEixEm(%"class.std::vector"* %this, i64 %__n) #5 comdat align 2 {
entry:
  %this.addr = alloca %"class.std::vector"*, align 8
  %__n.addr = alloca i64, align 8
  store %"class.std::vector"* %this, %"class.std::vector"** %this.addr, align 8
  store i64 %__n, i64* %__n.addr, align 8
  %this1 = load %"class.std::vector"*, %"class.std::vector"** %this.addr, align 8
  %0 = bitcast %"class.std::vector"* %this1 to %"struct.std::_Vector_base"*
  %_M_impl = getelementptr inbounds %"struct.std::_Vector_base", %"struct.std::_Vector_base"* %0, i32 0, i32 0
  %_M_start = getelementptr inbounds %"struct.std::_Vector_base<int, std::allocator<int> >::_Vector_impl", %"struct.std::_Vector_base<int, std::allocator<int> >::_Vector_impl"* %_M_impl, i32 0, i32 0
  %1 = load i32*, i32** %_M_start, align 8
  %2 = load i64, i64* %__n.addr, align 8
  %add.ptr = getelementptr inbounds i32, i32* %1, i64 %2
  ret i32* %add.ptr
}

; Function Attrs: noinline uwtable
define linkonce_odr void @_ZNSt6vectorIiSaIiEED2Ev(%"class.std::vector"* %this) unnamed_addr #0 comdat align 2 personality i8* bitcast (i32 (...)* @__gxx_personality_v0 to i8*) {
entry:
  %this.addr = alloca %"class.std::vector"*, align 8
  %exn.slot = alloca i8*
  %ehselector.slot = alloca i32
  store %"class.std::vector"* %this, %"class.std::vector"** %this.addr, align 8
  %this1 = load %"class.std::vector"*, %"class.std::vector"** %this.addr, align 8
  %0 = bitcast %"class.std::vector"* %this1 to %"struct.std::_Vector_base"*
  %_M_impl = getelementptr inbounds %"struct.std::_Vector_base", %"struct.std::_Vector_base"* %0, i32 0, i32 0
  %_M_start = getelementptr inbounds %"struct.std::_Vector_base<int, std::allocator<int> >::_Vector_impl", %"struct.std::_Vector_base<int, std::allocator<int> >::_Vector_impl"* %_M_impl, i32 0, i32 0
  %1 = load i32*, i32** %_M_start, align 8
  %2 = bitcast %"class.std::vector"* %this1 to %"struct.std::_Vector_base"*
  %_M_impl2 = getelementptr inbounds %"struct.std::_Vector_base", %"struct.std::_Vector_base"* %2, i32 0, i32 0
  %_M_finish = getelementptr inbounds %"struct.std::_Vector_base<int, std::allocator<int> >::_Vector_impl", %"struct.std::_Vector_base<int, std::allocator<int> >::_Vector_impl"* %_M_impl2, i32 0, i32 1
  %3 = load i32*, i32** %_M_finish, align 8
  %4 = bitcast %"class.std::vector"* %this1 to %"struct.std::_Vector_base"*
  %call = invoke dereferenceable(1) %"class.std::ios_base::Init"* @_ZNSt12_Vector_baseIiSaIiEE19_M_get_Tp_allocatorEv(%"struct.std::_Vector_base"* %4)
          to label %invoke.cont unwind label %lpad

invoke.cont:                                      ; preds = %entry
  invoke void @_ZSt8_DestroyIPiiEvT_S1_RSaIT0_E(i32* %1, i32* %3, %"class.std::ios_base::Init"* dereferenceable(1) %call)
          to label %invoke.cont3 unwind label %lpad

invoke.cont3:                                     ; preds = %invoke.cont
  %5 = bitcast %"class.std::vector"* %this1 to %"struct.std::_Vector_base"*
  call void @_ZNSt12_Vector_baseIiSaIiEED2Ev(%"struct.std::_Vector_base"* %5)
  ret void

lpad:                                             ; preds = %invoke.cont, %entry
  %6 = landingpad { i8*, i32 }
          cleanup
  %7 = extractvalue { i8*, i32 } %6, 0
  store i8* %7, i8** %exn.slot, align 8
  %8 = extractvalue { i8*, i32 } %6, 1
  store i32 %8, i32* %ehselector.slot, align 4
  %9 = bitcast %"class.std::vector"* %this1 to %"struct.std::_Vector_base"*
  invoke void @_ZNSt12_Vector_baseIiSaIiEED2Ev(%"struct.std::_Vector_base"* %9)
          to label %invoke.cont4 unwind label %terminate.lpad

invoke.cont4:                                     ; preds = %lpad
  br label %eh.resume

eh.resume:                                        ; preds = %invoke.cont4
  %exn = load i8*, i8** %exn.slot, align 8
  %sel = load i32, i32* %ehselector.slot, align 4
  %lpad.val = insertvalue { i8*, i32 } undef, i8* %exn, 0
  %lpad.val5 = insertvalue { i8*, i32 } %lpad.val, i32 %sel, 1
  resume { i8*, i32 } %lpad.val5

terminate.lpad:                                   ; preds = %lpad
  %10 = landingpad { i8*, i32 }
          catch i8* null
  %11 = extractvalue { i8*, i32 } %10, 0
  call void @__clang_call_terminate(i8* %11) #11
  unreachable
}

; Function Attrs: noinline uwtable
define linkonce_odr dereferenceable(4) i32* @_ZNSt6vectorIiSaIiEE4backEv(%"class.std::vector"* %this) #0 comdat align 2 {
entry:
  %this.addr = alloca %"class.std::vector"*, align 8
  %coerce = alloca %"class.__gnu_cxx::__normal_iterator", align 8
  %coerce3 = alloca %"class.__gnu_cxx::__normal_iterator", align 8
  store %"class.std::vector"* %this, %"class.std::vector"** %this.addr, align 8
  %this1 = load %"class.std::vector"*, %"class.std::vector"** %this.addr, align 8
  %call = call i32* @_ZNSt6vectorIiSaIiEE3endEv(%"class.std::vector"* %this1)
  %coerce.dive = getelementptr inbounds %"class.__gnu_cxx::__normal_iterator", %"class.__gnu_cxx::__normal_iterator"* %coerce, i32 0, i32 0
  store i32* %call, i32** %coerce.dive, align 8
  %call2 = call i32* @_ZNK9__gnu_cxx17__normal_iteratorIPiSt6vectorIiSaIiEEEmiEl(%"class.__gnu_cxx::__normal_iterator"* %coerce, i64 1)
  %coerce.dive4 = getelementptr inbounds %"class.__gnu_cxx::__normal_iterator", %"class.__gnu_cxx::__normal_iterator"* %coerce3, i32 0, i32 0
  store i32* %call2, i32** %coerce.dive4, align 8
  %call5 = call dereferenceable(4) i32* @_ZNK9__gnu_cxx17__normal_iteratorIPiSt6vectorIiSaIiEEEdeEv(%"class.__gnu_cxx::__normal_iterator"* %coerce3)
  ret i32* %call5
}

declare dereferenceable(272) %"class.std::basic_ostream"* @_ZNSolsEi(%"class.std::basic_ostream"*, i32) #1

declare dereferenceable(272) %"class.std::basic_ostream"* @_ZSt4endlIcSt11char_traitsIcEERSt13basic_ostreamIT_T0_ES6_(%"class.std::basic_ostream"* dereferenceable(272)) #1

declare dereferenceable(272) %"class.std::basic_ostream"* @_ZNSolsEPFRSoS_E(%"class.std::basic_ostream"*, %"class.std::basic_ostream"* (%"class.std::basic_ostream"*)*) #1

; Function Attrs: noinline noreturn nounwind
define linkonce_odr hidden void @__clang_call_terminate(i8*) #6 comdat {
  %2 = call i8* @__cxa_begin_catch(i8* %0) #2
  call void @_ZSt9terminatev() #11
  unreachable
}

declare i8* @__cxa_begin_catch(i8*)

declare void @_ZSt9terminatev()

; Function Attrs: noinline uwtable
define linkonce_odr i32* @_ZNSt6vectorIiSaIiEE3endEv(%"class.std::vector"* %this) #0 comdat align 2 {
entry:
  %retval = alloca %"class.__gnu_cxx::__normal_iterator", align 8
  %this.addr = alloca %"class.std::vector"*, align 8
  store %"class.std::vector"* %this, %"class.std::vector"** %this.addr, align 8
  %this1 = load %"class.std::vector"*, %"class.std::vector"** %this.addr, align 8
  %0 = bitcast %"class.std::vector"* %this1 to %"struct.std::_Vector_base"*
  %_M_impl = getelementptr inbounds %"struct.std::_Vector_base", %"struct.std::_Vector_base"* %0, i32 0, i32 0
  %_M_finish = getelementptr inbounds %"struct.std::_Vector_base<int, std::allocator<int> >::_Vector_impl", %"struct.std::_Vector_base<int, std::allocator<int> >::_Vector_impl"* %_M_impl, i32 0, i32 1
  call void @_ZN9__gnu_cxx17__normal_iteratorIPiSt6vectorIiSaIiEEEC2ERKS1_(%"class.__gnu_cxx::__normal_iterator"* %retval, i32** dereferenceable(8) %_M_finish)
  %coerce.dive = getelementptr inbounds %"class.__gnu_cxx::__normal_iterator", %"class.__gnu_cxx::__normal_iterator"* %retval, i32 0, i32 0
  %1 = load i32*, i32** %coerce.dive, align 8
  ret i32* %1
}

; Function Attrs: noinline uwtable
define linkonce_odr i32* @_ZNK9__gnu_cxx17__normal_iteratorIPiSt6vectorIiSaIiEEEmiEl(%"class.__gnu_cxx::__normal_iterator"* %this, i64 %__n) #0 comdat align 2 {
entry:
  %retval = alloca %"class.__gnu_cxx::__normal_iterator", align 8
  %this.addr = alloca %"class.__gnu_cxx::__normal_iterator"*, align 8
  %__n.addr = alloca i64, align 8
  %ref.tmp = alloca i32*, align 8
  store %"class.__gnu_cxx::__normal_iterator"* %this, %"class.__gnu_cxx::__normal_iterator"** %this.addr, align 8
  store i64 %__n, i64* %__n.addr, align 8
  %this1 = load %"class.__gnu_cxx::__normal_iterator"*, %"class.__gnu_cxx::__normal_iterator"** %this.addr, align 8
  %_M_current = getelementptr inbounds %"class.__gnu_cxx::__normal_iterator", %"class.__gnu_cxx::__normal_iterator"* %this1, i32 0, i32 0
  %0 = load i32*, i32** %_M_current, align 8
  %1 = load i64, i64* %__n.addr, align 8
  %idx.neg = sub i64 0, %1
  %add.ptr = getelementptr inbounds i32, i32* %0, i64 %idx.neg
  store i32* %add.ptr, i32** %ref.tmp, align 8
  call void @_ZN9__gnu_cxx17__normal_iteratorIPiSt6vectorIiSaIiEEEC2ERKS1_(%"class.__gnu_cxx::__normal_iterator"* %retval, i32** dereferenceable(8) %ref.tmp)
  %coerce.dive = getelementptr inbounds %"class.__gnu_cxx::__normal_iterator", %"class.__gnu_cxx::__normal_iterator"* %retval, i32 0, i32 0
  %2 = load i32*, i32** %coerce.dive, align 8
  ret i32* %2
}

; Function Attrs: noinline nounwind uwtable
define linkonce_odr dereferenceable(4) i32* @_ZNK9__gnu_cxx17__normal_iteratorIPiSt6vectorIiSaIiEEEdeEv(%"class.__gnu_cxx::__normal_iterator"* %this) #5 comdat align 2 {
entry:
  %this.addr = alloca %"class.__gnu_cxx::__normal_iterator"*, align 8
  store %"class.__gnu_cxx::__normal_iterator"* %this, %"class.__gnu_cxx::__normal_iterator"** %this.addr, align 8
  %this1 = load %"class.__gnu_cxx::__normal_iterator"*, %"class.__gnu_cxx::__normal_iterator"** %this.addr, align 8
  %_M_current = getelementptr inbounds %"class.__gnu_cxx::__normal_iterator", %"class.__gnu_cxx::__normal_iterator"* %this1, i32 0, i32 0
  %0 = load i32*, i32** %_M_current, align 8
  ret i32* %0
}

; Function Attrs: noinline nounwind uwtable
define linkonce_odr void @_ZN9__gnu_cxx17__normal_iteratorIPiSt6vectorIiSaIiEEEC2ERKS1_(%"class.__gnu_cxx::__normal_iterator"* %this, i32** dereferenceable(8) %__i) unnamed_addr #5 comdat align 2 {
entry:
  %this.addr = alloca %"class.__gnu_cxx::__normal_iterator"*, align 8
  %__i.addr = alloca i32**, align 8
  store %"class.__gnu_cxx::__normal_iterator"* %this, %"class.__gnu_cxx::__normal_iterator"** %this.addr, align 8
  store i32** %__i, i32*** %__i.addr, align 8
  %this1 = load %"class.__gnu_cxx::__normal_iterator"*, %"class.__gnu_cxx::__normal_iterator"** %this.addr, align 8
  %_M_current = getelementptr inbounds %"class.__gnu_cxx::__normal_iterator", %"class.__gnu_cxx::__normal_iterator"* %this1, i32 0, i32 0
  %0 = load i32**, i32*** %__i.addr, align 8
  %1 = load i32*, i32** %0, align 8
  store i32* %1, i32** %_M_current, align 8
  ret void
}

; Function Attrs: noinline nounwind uwtable
define linkonce_odr dereferenceable(1) %"class.std::ios_base::Init"* @_ZNSt12_Vector_baseIiSaIiEE19_M_get_Tp_allocatorEv(%"struct.std::_Vector_base"* %this) #5 comdat align 2 {
entry:
  %this.addr = alloca %"struct.std::_Vector_base"*, align 8
  store %"struct.std::_Vector_base"* %this, %"struct.std::_Vector_base"** %this.addr, align 8
  %this1 = load %"struct.std::_Vector_base"*, %"struct.std::_Vector_base"** %this.addr, align 8
  %_M_impl = getelementptr inbounds %"struct.std::_Vector_base", %"struct.std::_Vector_base"* %this1, i32 0, i32 0
  %0 = bitcast %"struct.std::_Vector_base<int, std::allocator<int> >::_Vector_impl"* %_M_impl to %"class.std::ios_base::Init"*
  ret %"class.std::ios_base::Init"* %0
}

; Function Attrs: noinline uwtable
define linkonce_odr void @_ZSt8_DestroyIPiiEvT_S1_RSaIT0_E(i32* %__first, i32* %__last, %"class.std::ios_base::Init"* dereferenceable(1)) #0 comdat {
entry:
  %__first.addr = alloca i32*, align 8
  %__last.addr = alloca i32*, align 8
  %.addr = alloca %"class.std::ios_base::Init"*, align 8
  store i32* %__first, i32** %__first.addr, align 8
  store i32* %__last, i32** %__last.addr, align 8
  store %"class.std::ios_base::Init"* %0, %"class.std::ios_base::Init"** %.addr, align 8
  %1 = load i32*, i32** %__first.addr, align 8
  %2 = load i32*, i32** %__last.addr, align 8
  call void @_ZSt8_DestroyIPiEvT_S1_(i32* %1, i32* %2)
  ret void
}

; Function Attrs: noinline uwtable
define linkonce_odr void @_ZNSt12_Vector_baseIiSaIiEED2Ev(%"struct.std::_Vector_base"* %this) unnamed_addr #0 comdat align 2 personality i8* bitcast (i32 (...)* @__gxx_personality_v0 to i8*) {
entry:
  %this.addr = alloca %"struct.std::_Vector_base"*, align 8
  %exn.slot = alloca i8*
  %ehselector.slot = alloca i32
  store %"struct.std::_Vector_base"* %this, %"struct.std::_Vector_base"** %this.addr, align 8
  %this1 = load %"struct.std::_Vector_base"*, %"struct.std::_Vector_base"** %this.addr, align 8
  %_M_impl = getelementptr inbounds %"struct.std::_Vector_base", %"struct.std::_Vector_base"* %this1, i32 0, i32 0
  %_M_start = getelementptr inbounds %"struct.std::_Vector_base<int, std::allocator<int> >::_Vector_impl", %"struct.std::_Vector_base<int, std::allocator<int> >::_Vector_impl"* %_M_impl, i32 0, i32 0
  %0 = load i32*, i32** %_M_start, align 8
  %_M_impl2 = getelementptr inbounds %"struct.std::_Vector_base", %"struct.std::_Vector_base"* %this1, i32 0, i32 0
  %_M_end_of_storage = getelementptr inbounds %"struct.std::_Vector_base<int, std::allocator<int> >::_Vector_impl", %"struct.std::_Vector_base<int, std::allocator<int> >::_Vector_impl"* %_M_impl2, i32 0, i32 2
  %1 = load i32*, i32** %_M_end_of_storage, align 8
  %_M_impl3 = getelementptr inbounds %"struct.std::_Vector_base", %"struct.std::_Vector_base"* %this1, i32 0, i32 0
  %_M_start4 = getelementptr inbounds %"struct.std::_Vector_base<int, std::allocator<int> >::_Vector_impl", %"struct.std::_Vector_base<int, std::allocator<int> >::_Vector_impl"* %_M_impl3, i32 0, i32 0
  %2 = load i32*, i32** %_M_start4, align 8
  %sub.ptr.lhs.cast = ptrtoint i32* %1 to i64
  %sub.ptr.rhs.cast = ptrtoint i32* %2 to i64
  %sub.ptr.sub = sub i64 %sub.ptr.lhs.cast, %sub.ptr.rhs.cast
  %sub.ptr.div = sdiv exact i64 %sub.ptr.sub, 4
  invoke void @_ZNSt12_Vector_baseIiSaIiEE13_M_deallocateEPim(%"struct.std::_Vector_base"* %this1, i32* %0, i64 %sub.ptr.div)
          to label %invoke.cont unwind label %lpad

invoke.cont:                                      ; preds = %entry
  %_M_impl5 = getelementptr inbounds %"struct.std::_Vector_base", %"struct.std::_Vector_base"* %this1, i32 0, i32 0
  call void @_ZNSt12_Vector_baseIiSaIiEE12_Vector_implD2Ev(%"struct.std::_Vector_base<int, std::allocator<int> >::_Vector_impl"* %_M_impl5) #2
  ret void

lpad:                                             ; preds = %entry
  %3 = landingpad { i8*, i32 }
          cleanup
  %4 = extractvalue { i8*, i32 } %3, 0
  store i8* %4, i8** %exn.slot, align 8
  %5 = extractvalue { i8*, i32 } %3, 1
  store i32 %5, i32* %ehselector.slot, align 4
  %_M_impl6 = getelementptr inbounds %"struct.std::_Vector_base", %"struct.std::_Vector_base"* %this1, i32 0, i32 0
  call void @_ZNSt12_Vector_baseIiSaIiEE12_Vector_implD2Ev(%"struct.std::_Vector_base<int, std::allocator<int> >::_Vector_impl"* %_M_impl6) #2
  br label %eh.resume

eh.resume:                                        ; preds = %lpad
  %exn = load i8*, i8** %exn.slot, align 8
  %sel = load i32, i32* %ehselector.slot, align 4
  %lpad.val = insertvalue { i8*, i32 } undef, i8* %exn, 0
  %lpad.val7 = insertvalue { i8*, i32 } %lpad.val, i32 %sel, 1
  resume { i8*, i32 } %lpad.val7
}

; Function Attrs: noinline uwtable
define linkonce_odr void @_ZNSt12_Vector_baseIiSaIiEE13_M_deallocateEPim(%"struct.std::_Vector_base"* %this, i32* %__p, i64 %__n) #0 comdat align 2 {
entry:
  %this.addr = alloca %"struct.std::_Vector_base"*, align 8
  %__p.addr = alloca i32*, align 8
  %__n.addr = alloca i64, align 8
  store %"struct.std::_Vector_base"* %this, %"struct.std::_Vector_base"** %this.addr, align 8
  store i32* %__p, i32** %__p.addr, align 8
  store i64 %__n, i64* %__n.addr, align 8
  %this1 = load %"struct.std::_Vector_base"*, %"struct.std::_Vector_base"** %this.addr, align 8
  %0 = load i32*, i32** %__p.addr, align 8
  %tobool = icmp ne i32* %0, null
  br i1 %tobool, label %if.then, label %if.end

if.then:                                          ; preds = %entry
  %_M_impl = getelementptr inbounds %"struct.std::_Vector_base", %"struct.std::_Vector_base"* %this1, i32 0, i32 0
  %1 = bitcast %"struct.std::_Vector_base<int, std::allocator<int> >::_Vector_impl"* %_M_impl to %"class.std::ios_base::Init"*
  %2 = load i32*, i32** %__p.addr, align 8
  %3 = load i64, i64* %__n.addr, align 8
  call void @_ZN9__gnu_cxx14__alloc_traitsISaIiEE10deallocateERS1_Pim(%"class.std::ios_base::Init"* dereferenceable(1) %1, i32* %2, i64 %3)
  br label %if.end

if.end:                                           ; preds = %if.then, %entry
  ret void
}

; Function Attrs: noinline nounwind uwtable
define linkonce_odr void @_ZNSt12_Vector_baseIiSaIiEE12_Vector_implD2Ev(%"struct.std::_Vector_base<int, std::allocator<int> >::_Vector_impl"* %this) unnamed_addr #5 comdat align 2 {
entry:
  %this.addr = alloca %"struct.std::_Vector_base<int, std::allocator<int> >::_Vector_impl"*, align 8
  store %"struct.std::_Vector_base<int, std::allocator<int> >::_Vector_impl"* %this, %"struct.std::_Vector_base<int, std::allocator<int> >::_Vector_impl"** %this.addr, align 8
  %this1 = load %"struct.std::_Vector_base<int, std::allocator<int> >::_Vector_impl"*, %"struct.std::_Vector_base<int, std::allocator<int> >::_Vector_impl"** %this.addr, align 8
  %0 = bitcast %"struct.std::_Vector_base<int, std::allocator<int> >::_Vector_impl"* %this1 to %"class.std::ios_base::Init"*
  call void @_ZNSaIiED2Ev(%"class.std::ios_base::Init"* %0) #2
  ret void
}

; Function Attrs: noinline uwtable
define linkonce_odr void @_ZN9__gnu_cxx14__alloc_traitsISaIiEE10deallocateERS1_Pim(%"class.std::ios_base::Init"* dereferenceable(1) %__a, i32* %__p, i64 %__n) #0 comdat align 2 {
entry:
  %__a.addr = alloca %"class.std::ios_base::Init"*, align 8
  %__p.addr = alloca i32*, align 8
  %__n.addr = alloca i64, align 8
  store %"class.std::ios_base::Init"* %__a, %"class.std::ios_base::Init"** %__a.addr, align 8
  store i32* %__p, i32** %__p.addr, align 8
  store i64 %__n, i64* %__n.addr, align 8
  %0 = load %"class.std::ios_base::Init"*, %"class.std::ios_base::Init"** %__a.addr, align 8
  %1 = bitcast %"class.std::ios_base::Init"* %0 to %"class.std::ios_base::Init"*
  %2 = load i32*, i32** %__p.addr, align 8
  %3 = load i64, i64* %__n.addr, align 8
  call void @_ZN9__gnu_cxx13new_allocatorIiE10deallocateEPim(%"class.std::ios_base::Init"* %1, i32* %2, i64 %3)
  ret void
}

; Function Attrs: noinline nounwind uwtable
define linkonce_odr void @_ZN9__gnu_cxx13new_allocatorIiE10deallocateEPim(%"class.std::ios_base::Init"* %this, i32* %__p, i64) #5 comdat align 2 {
entry:
  %this.addr = alloca %"class.std::ios_base::Init"*, align 8
  %__p.addr = alloca i32*, align 8
  %.addr = alloca i64, align 8
  store %"class.std::ios_base::Init"* %this, %"class.std::ios_base::Init"** %this.addr, align 8
  store i32* %__p, i32** %__p.addr, align 8
  store i64 %0, i64* %.addr, align 8
  %this1 = load %"class.std::ios_base::Init"*, %"class.std::ios_base::Init"** %this.addr, align 8
  %1 = load i32*, i32** %__p.addr, align 8
  %2 = bitcast i32* %1 to i8*
  call void @_ZdlPv(i8* %2) #2
  ret void
}

; Function Attrs: nobuiltin nounwind
declare void @_ZdlPv(i8*) #7

; Function Attrs: noinline uwtable
define linkonce_odr void @_ZSt8_DestroyIPiEvT_S1_(i32* %__first, i32* %__last) #0 comdat {
entry:
  %__first.addr = alloca i32*, align 8
  %__last.addr = alloca i32*, align 8
  store i32* %__first, i32** %__first.addr, align 8
  store i32* %__last, i32** %__last.addr, align 8
  %0 = load i32*, i32** %__first.addr, align 8
  %1 = load i32*, i32** %__last.addr, align 8
  call void @_ZNSt12_Destroy_auxILb1EE9__destroyIPiEEvT_S3_(i32* %0, i32* %1)
  ret void
}

; Function Attrs: noinline nounwind uwtable
define linkonce_odr void @_ZNSt12_Destroy_auxILb1EE9__destroyIPiEEvT_S3_(i32*, i32*) #5 comdat align 2 {
entry:
  %.addr = alloca i32*, align 8
  %.addr1 = alloca i32*, align 8
  store i32* %0, i32** %.addr, align 8
  store i32* %1, i32** %.addr1, align 8
  ret void
}

; Function Attrs: noinline nounwind uwtable
define linkonce_odr void @_ZN9__gnu_cxx13new_allocatorIiED2Ev(%"class.std::ios_base::Init"* %this) unnamed_addr #5 comdat align 2 {
entry:
  %this.addr = alloca %"class.std::ios_base::Init"*, align 8
  store %"class.std::ios_base::Init"* %this, %"class.std::ios_base::Init"** %this.addr, align 8
  %this1 = load %"class.std::ios_base::Init"*, %"class.std::ios_base::Init"** %this.addr, align 8
  ret void
}

; Function Attrs: noinline uwtable
define linkonce_odr void @_ZNSt12_Vector_baseIiSaIiEEC2EmRKS0_(%"struct.std::_Vector_base"* %this, i64 %__n, %"class.std::ios_base::Init"* dereferenceable(1) %__a) unnamed_addr #0 comdat align 2 personality i8* bitcast (i32 (...)* @__gxx_personality_v0 to i8*) {
entry:
  %this.addr = alloca %"struct.std::_Vector_base"*, align 8
  %__n.addr = alloca i64, align 8
  %__a.addr = alloca %"class.std::ios_base::Init"*, align 8
  %exn.slot = alloca i8*
  %ehselector.slot = alloca i32
  store %"struct.std::_Vector_base"* %this, %"struct.std::_Vector_base"** %this.addr, align 8
  store i64 %__n, i64* %__n.addr, align 8
  store %"class.std::ios_base::Init"* %__a, %"class.std::ios_base::Init"** %__a.addr, align 8
  %this1 = load %"struct.std::_Vector_base"*, %"struct.std::_Vector_base"** %this.addr, align 8
  %_M_impl = getelementptr inbounds %"struct.std::_Vector_base", %"struct.std::_Vector_base"* %this1, i32 0, i32 0
  %0 = load %"class.std::ios_base::Init"*, %"class.std::ios_base::Init"** %__a.addr, align 8
  call void @_ZNSt12_Vector_baseIiSaIiEE12_Vector_implC2ERKS0_(%"struct.std::_Vector_base<int, std::allocator<int> >::_Vector_impl"* %_M_impl, %"class.std::ios_base::Init"* dereferenceable(1) %0)
  %1 = load i64, i64* %__n.addr, align 8
  invoke void @_ZNSt12_Vector_baseIiSaIiEE17_M_create_storageEm(%"struct.std::_Vector_base"* %this1, i64 %1)
          to label %invoke.cont unwind label %lpad

invoke.cont:                                      ; preds = %entry
  ret void

lpad:                                             ; preds = %entry
  %2 = landingpad { i8*, i32 }
          cleanup
  %3 = extractvalue { i8*, i32 } %2, 0
  store i8* %3, i8** %exn.slot, align 8
  %4 = extractvalue { i8*, i32 } %2, 1
  store i32 %4, i32* %ehselector.slot, align 4
  call void @_ZNSt12_Vector_baseIiSaIiEE12_Vector_implD2Ev(%"struct.std::_Vector_base<int, std::allocator<int> >::_Vector_impl"* %_M_impl) #2
  br label %eh.resume

eh.resume:                                        ; preds = %lpad
  %exn = load i8*, i8** %exn.slot, align 8
  %sel = load i32, i32* %ehselector.slot, align 4
  %lpad.val = insertvalue { i8*, i32 } undef, i8* %exn, 0
  %lpad.val2 = insertvalue { i8*, i32 } %lpad.val, i32 %sel, 1
  resume { i8*, i32 } %lpad.val2
}

; Function Attrs: noinline uwtable
define linkonce_odr void @_ZNSt6vectorIiSaIiEE18_M_fill_initializeEmRKi(%"class.std::vector"* %this, i64 %__n, i32* dereferenceable(4) %__value) #0 comdat align 2 {
entry:
  %this.addr = alloca %"class.std::vector"*, align 8
  %__n.addr = alloca i64, align 8
  %__value.addr = alloca i32*, align 8
  store %"class.std::vector"* %this, %"class.std::vector"** %this.addr, align 8
  store i64 %__n, i64* %__n.addr, align 8
  store i32* %__value, i32** %__value.addr, align 8
  %this1 = load %"class.std::vector"*, %"class.std::vector"** %this.addr, align 8
  %0 = bitcast %"class.std::vector"* %this1 to %"struct.std::_Vector_base"*
  %_M_impl = getelementptr inbounds %"struct.std::_Vector_base", %"struct.std::_Vector_base"* %0, i32 0, i32 0
  %_M_start = getelementptr inbounds %"struct.std::_Vector_base<int, std::allocator<int> >::_Vector_impl", %"struct.std::_Vector_base<int, std::allocator<int> >::_Vector_impl"* %_M_impl, i32 0, i32 0
  %1 = load i32*, i32** %_M_start, align 8
  %2 = load i64, i64* %__n.addr, align 8
  %3 = load i32*, i32** %__value.addr, align 8
  %4 = bitcast %"class.std::vector"* %this1 to %"struct.std::_Vector_base"*
  %call = call dereferenceable(1) %"class.std::ios_base::Init"* @_ZNSt12_Vector_baseIiSaIiEE19_M_get_Tp_allocatorEv(%"struct.std::_Vector_base"* %4)
  %call2 = call i32* @_ZSt24__uninitialized_fill_n_aIPimiiET_S1_T0_RKT1_RSaIT2_E(i32* %1, i64 %2, i32* dereferenceable(4) %3, %"class.std::ios_base::Init"* dereferenceable(1) %call)
  %5 = bitcast %"class.std::vector"* %this1 to %"struct.std::_Vector_base"*
  %_M_impl3 = getelementptr inbounds %"struct.std::_Vector_base", %"struct.std::_Vector_base"* %5, i32 0, i32 0
  %_M_finish = getelementptr inbounds %"struct.std::_Vector_base<int, std::allocator<int> >::_Vector_impl", %"struct.std::_Vector_base<int, std::allocator<int> >::_Vector_impl"* %_M_impl3, i32 0, i32 1
  store i32* %call2, i32** %_M_finish, align 8
  ret void
}

; Function Attrs: noinline uwtable
define linkonce_odr i32* @_ZSt24__uninitialized_fill_n_aIPimiiET_S1_T0_RKT1_RSaIT2_E(i32* %__first, i64 %__n, i32* dereferenceable(4) %__x, %"class.std::ios_base::Init"* dereferenceable(1)) #0 comdat {
entry:
  %__first.addr = alloca i32*, align 8
  %__n.addr = alloca i64, align 8
  %__x.addr = alloca i32*, align 8
  %.addr = alloca %"class.std::ios_base::Init"*, align 8
  store i32* %__first, i32** %__first.addr, align 8
  store i64 %__n, i64* %__n.addr, align 8
  store i32* %__x, i32** %__x.addr, align 8
  store %"class.std::ios_base::Init"* %0, %"class.std::ios_base::Init"** %.addr, align 8
  %1 = load i32*, i32** %__first.addr, align 8
  %2 = load i64, i64* %__n.addr, align 8
  %3 = load i32*, i32** %__x.addr, align 8
  %call = call i32* @_ZSt20uninitialized_fill_nIPimiET_S1_T0_RKT1_(i32* %1, i64 %2, i32* dereferenceable(4) %3)
  ret i32* %call
}

; Function Attrs: noinline uwtable
define linkonce_odr i32* @_ZSt20uninitialized_fill_nIPimiET_S1_T0_RKT1_(i32* %__first, i64 %__n, i32* dereferenceable(4) %__x) #0 comdat {
entry:
  %__first.addr = alloca i32*, align 8
  %__n.addr = alloca i64, align 8
  %__x.addr = alloca i32*, align 8
  %__assignable = alloca i8, align 1
  store i32* %__first, i32** %__first.addr, align 8
  store i64 %__n, i64* %__n.addr, align 8
  store i32* %__x, i32** %__x.addr, align 8
  store i8 1, i8* %__assignable, align 1
  %0 = load i32*, i32** %__first.addr, align 8
  %1 = load i64, i64* %__n.addr, align 8
  %2 = load i32*, i32** %__x.addr, align 8
  %call = call i32* @_ZNSt22__uninitialized_fill_nILb1EE15__uninit_fill_nIPimiEET_S3_T0_RKT1_(i32* %0, i64 %1, i32* dereferenceable(4) %2)
  ret i32* %call
}

; Function Attrs: noinline uwtable
define linkonce_odr i32* @_ZNSt22__uninitialized_fill_nILb1EE15__uninit_fill_nIPimiEET_S3_T0_RKT1_(i32* %__first, i64 %__n, i32* dereferenceable(4) %__x) #0 comdat align 2 {
entry:
  %__first.addr = alloca i32*, align 8
  %__n.addr = alloca i64, align 8
  %__x.addr = alloca i32*, align 8
  store i32* %__first, i32** %__first.addr, align 8
  store i64 %__n, i64* %__n.addr, align 8
  store i32* %__x, i32** %__x.addr, align 8
  %0 = load i32*, i32** %__first.addr, align 8
  %1 = load i64, i64* %__n.addr, align 8
  %2 = load i32*, i32** %__x.addr, align 8
  %call = call i32* @_ZSt6fill_nIPimiET_S1_T0_RKT1_(i32* %0, i64 %1, i32* dereferenceable(4) %2)
  ret i32* %call
}

; Function Attrs: noinline uwtable
define linkonce_odr i32* @_ZSt6fill_nIPimiET_S1_T0_RKT1_(i32* %__first, i64 %__n, i32* dereferenceable(4) %__value) #0 comdat {
entry:
  %__first.addr = alloca i32*, align 8
  %__n.addr = alloca i64, align 8
  %__value.addr = alloca i32*, align 8
  store i32* %__first, i32** %__first.addr, align 8
  store i64 %__n, i64* %__n.addr, align 8
  store i32* %__value, i32** %__value.addr, align 8
  %0 = load i32*, i32** %__first.addr, align 8
  %call = call i32* @_ZSt12__niter_baseIPiET_S1_(i32* %0)
  %1 = load i64, i64* %__n.addr, align 8
  %2 = load i32*, i32** %__value.addr, align 8
  %call1 = call i32* @_ZSt10__fill_n_aIPimiEN9__gnu_cxx11__enable_ifIXsr11__is_scalarIT1_EE7__valueET_E6__typeES4_T0_RKS3_(i32* %call, i64 %1, i32* dereferenceable(4) %2)
  ret i32* %call1
}

; Function Attrs: noinline nounwind uwtable
define linkonce_odr i32* @_ZSt12__niter_baseIPiET_S1_(i32* %__it) #5 comdat {
entry:
  %__it.addr = alloca i32*, align 8
  store i32* %__it, i32** %__it.addr, align 8
  %0 = load i32*, i32** %__it.addr, align 8
  ret i32* %0
}

; Function Attrs: noinline nounwind uwtable
define linkonce_odr i32* @_ZSt10__fill_n_aIPimiEN9__gnu_cxx11__enable_ifIXsr11__is_scalarIT1_EE7__valueET_E6__typeES4_T0_RKS3_(i32* %__first, i64 %__n, i32* dereferenceable(4) %__value) #5 comdat {
entry:
  %__first.addr = alloca i32*, align 8
  %__n.addr = alloca i64, align 8
  %__value.addr = alloca i32*, align 8
  %__tmp = alloca i32, align 4
  %__niter = alloca i64, align 8
  store i32* %__first, i32** %__first.addr, align 8
  store i64 %__n, i64* %__n.addr, align 8
  store i32* %__value, i32** %__value.addr, align 8
  %0 = load i32*, i32** %__value.addr, align 8
  %1 = load i32, i32* %0, align 4
  store i32 %1, i32* %__tmp, align 4
  %2 = load i64, i64* %__n.addr, align 8
  store i64 %2, i64* %__niter, align 8
  br label %for.cond

for.cond:                                         ; preds = %for.inc, %entry
  %3 = load i64, i64* %__niter, align 8
  %cmp = icmp ugt i64 %3, 0
  br i1 %cmp, label %for.body, label %for.end

for.body:                                         ; preds = %for.cond
  %4 = load i32, i32* %__tmp, align 4
  %5 = load i32*, i32** %__first.addr, align 8
  store i32 %4, i32* %5, align 4
  br label %for.inc

for.inc:                                          ; preds = %for.body
  %6 = load i64, i64* %__niter, align 8
  %dec = add i64 %6, -1
  store i64 %dec, i64* %__niter, align 8
  %7 = load i32*, i32** %__first.addr, align 8
  %incdec.ptr = getelementptr inbounds i32, i32* %7, i32 1
  store i32* %incdec.ptr, i32** %__first.addr, align 8
  br label %for.cond

for.end:                                          ; preds = %for.cond
  %8 = load i32*, i32** %__first.addr, align 8
  ret i32* %8
}

; Function Attrs: noinline nounwind uwtable
define linkonce_odr void @_ZNSt12_Vector_baseIiSaIiEE12_Vector_implC2ERKS0_(%"struct.std::_Vector_base<int, std::allocator<int> >::_Vector_impl"* %this, %"class.std::ios_base::Init"* dereferenceable(1) %__a) unnamed_addr #5 comdat align 2 {
entry:
  %this.addr = alloca %"struct.std::_Vector_base<int, std::allocator<int> >::_Vector_impl"*, align 8
  %__a.addr = alloca %"class.std::ios_base::Init"*, align 8
  store %"struct.std::_Vector_base<int, std::allocator<int> >::_Vector_impl"* %this, %"struct.std::_Vector_base<int, std::allocator<int> >::_Vector_impl"** %this.addr, align 8
  store %"class.std::ios_base::Init"* %__a, %"class.std::ios_base::Init"** %__a.addr, align 8
  %this1 = load %"struct.std::_Vector_base<int, std::allocator<int> >::_Vector_impl"*, %"struct.std::_Vector_base<int, std::allocator<int> >::_Vector_impl"** %this.addr, align 8
  %0 = bitcast %"struct.std::_Vector_base<int, std::allocator<int> >::_Vector_impl"* %this1 to %"class.std::ios_base::Init"*
  %1 = load %"class.std::ios_base::Init"*, %"class.std::ios_base::Init"** %__a.addr, align 8
  call void @_ZNSaIiEC2ERKS_(%"class.std::ios_base::Init"* %0, %"class.std::ios_base::Init"* dereferenceable(1) %1) #2
  %_M_start = getelementptr inbounds %"struct.std::_Vector_base<int, std::allocator<int> >::_Vector_impl", %"struct.std::_Vector_base<int, std::allocator<int> >::_Vector_impl"* %this1, i32 0, i32 0
  store i32* null, i32** %_M_start, align 8
  %_M_finish = getelementptr inbounds %"struct.std::_Vector_base<int, std::allocator<int> >::_Vector_impl", %"struct.std::_Vector_base<int, std::allocator<int> >::_Vector_impl"* %this1, i32 0, i32 1
  store i32* null, i32** %_M_finish, align 8
  %_M_end_of_storage = getelementptr inbounds %"struct.std::_Vector_base<int, std::allocator<int> >::_Vector_impl", %"struct.std::_Vector_base<int, std::allocator<int> >::_Vector_impl"* %this1, i32 0, i32 2
  store i32* null, i32** %_M_end_of_storage, align 8
  ret void
}

; Function Attrs: noinline uwtable
define linkonce_odr void @_ZNSt12_Vector_baseIiSaIiEE17_M_create_storageEm(%"struct.std::_Vector_base"* %this, i64 %__n) #0 comdat align 2 {
entry:
  %this.addr = alloca %"struct.std::_Vector_base"*, align 8
  %__n.addr = alloca i64, align 8
  store %"struct.std::_Vector_base"* %this, %"struct.std::_Vector_base"** %this.addr, align 8
  store i64 %__n, i64* %__n.addr, align 8
  %this1 = load %"struct.std::_Vector_base"*, %"struct.std::_Vector_base"** %this.addr, align 8
  %0 = load i64, i64* %__n.addr, align 8
  %call = call i32* @_ZNSt12_Vector_baseIiSaIiEE11_M_allocateEm(%"struct.std::_Vector_base"* %this1, i64 %0)
  %_M_impl = getelementptr inbounds %"struct.std::_Vector_base", %"struct.std::_Vector_base"* %this1, i32 0, i32 0
  %_M_start = getelementptr inbounds %"struct.std::_Vector_base<int, std::allocator<int> >::_Vector_impl", %"struct.std::_Vector_base<int, std::allocator<int> >::_Vector_impl"* %_M_impl, i32 0, i32 0
  store i32* %call, i32** %_M_start, align 8
  %_M_impl2 = getelementptr inbounds %"struct.std::_Vector_base", %"struct.std::_Vector_base"* %this1, i32 0, i32 0
  %_M_start3 = getelementptr inbounds %"struct.std::_Vector_base<int, std::allocator<int> >::_Vector_impl", %"struct.std::_Vector_base<int, std::allocator<int> >::_Vector_impl"* %_M_impl2, i32 0, i32 0
  %1 = load i32*, i32** %_M_start3, align 8
  %_M_impl4 = getelementptr inbounds %"struct.std::_Vector_base", %"struct.std::_Vector_base"* %this1, i32 0, i32 0
  %_M_finish = getelementptr inbounds %"struct.std::_Vector_base<int, std::allocator<int> >::_Vector_impl", %"struct.std::_Vector_base<int, std::allocator<int> >::_Vector_impl"* %_M_impl4, i32 0, i32 1
  store i32* %1, i32** %_M_finish, align 8
  %_M_impl5 = getelementptr inbounds %"struct.std::_Vector_base", %"struct.std::_Vector_base"* %this1, i32 0, i32 0
  %_M_start6 = getelementptr inbounds %"struct.std::_Vector_base<int, std::allocator<int> >::_Vector_impl", %"struct.std::_Vector_base<int, std::allocator<int> >::_Vector_impl"* %_M_impl5, i32 0, i32 0
  %2 = load i32*, i32** %_M_start6, align 8
  %3 = load i64, i64* %__n.addr, align 8
  %add.ptr = getelementptr inbounds i32, i32* %2, i64 %3
  %_M_impl7 = getelementptr inbounds %"struct.std::_Vector_base", %"struct.std::_Vector_base"* %this1, i32 0, i32 0
  %_M_end_of_storage = getelementptr inbounds %"struct.std::_Vector_base<int, std::allocator<int> >::_Vector_impl", %"struct.std::_Vector_base<int, std::allocator<int> >::_Vector_impl"* %_M_impl7, i32 0, i32 2
  store i32* %add.ptr, i32** %_M_end_of_storage, align 8
  ret void
}

; Function Attrs: noinline uwtable
define linkonce_odr i32* @_ZNSt12_Vector_baseIiSaIiEE11_M_allocateEm(%"struct.std::_Vector_base"* %this, i64 %__n) #0 comdat align 2 {
entry:
  %this.addr = alloca %"struct.std::_Vector_base"*, align 8
  %__n.addr = alloca i64, align 8
  store %"struct.std::_Vector_base"* %this, %"struct.std::_Vector_base"** %this.addr, align 8
  store i64 %__n, i64* %__n.addr, align 8
  %this1 = load %"struct.std::_Vector_base"*, %"struct.std::_Vector_base"** %this.addr, align 8
  %0 = load i64, i64* %__n.addr, align 8
  %cmp = icmp ne i64 %0, 0
  br i1 %cmp, label %cond.true, label %cond.false

cond.true:                                        ; preds = %entry
  %_M_impl = getelementptr inbounds %"struct.std::_Vector_base", %"struct.std::_Vector_base"* %this1, i32 0, i32 0
  %1 = bitcast %"struct.std::_Vector_base<int, std::allocator<int> >::_Vector_impl"* %_M_impl to %"class.std::ios_base::Init"*
  %2 = load i64, i64* %__n.addr, align 8
  %call = call i32* @_ZN9__gnu_cxx14__alloc_traitsISaIiEE8allocateERS1_m(%"class.std::ios_base::Init"* dereferenceable(1) %1, i64 %2)
  br label %cond.end

cond.false:                                       ; preds = %entry
  br label %cond.end

cond.end:                                         ; preds = %cond.false, %cond.true
  %cond = phi i32* [ %call, %cond.true ], [ null, %cond.false ]
  ret i32* %cond
}

; Function Attrs: noinline uwtable
define linkonce_odr i32* @_ZN9__gnu_cxx14__alloc_traitsISaIiEE8allocateERS1_m(%"class.std::ios_base::Init"* dereferenceable(1) %__a, i64 %__n) #0 comdat align 2 {
entry:
  %__a.addr = alloca %"class.std::ios_base::Init"*, align 8
  %__n.addr = alloca i64, align 8
  store %"class.std::ios_base::Init"* %__a, %"class.std::ios_base::Init"** %__a.addr, align 8
  store i64 %__n, i64* %__n.addr, align 8
  %0 = load %"class.std::ios_base::Init"*, %"class.std::ios_base::Init"** %__a.addr, align 8
  %1 = bitcast %"class.std::ios_base::Init"* %0 to %"class.std::ios_base::Init"*
  %2 = load i64, i64* %__n.addr, align 8
  %call = call i32* @_ZN9__gnu_cxx13new_allocatorIiE8allocateEmPKv(%"class.std::ios_base::Init"* %1, i64 %2, i8* null)
  ret i32* %call
}

; Function Attrs: noinline uwtable
define linkonce_odr i32* @_ZN9__gnu_cxx13new_allocatorIiE8allocateEmPKv(%"class.std::ios_base::Init"* %this, i64 %__n, i8*) #0 comdat align 2 {
entry:
  %this.addr = alloca %"class.std::ios_base::Init"*, align 8
  %__n.addr = alloca i64, align 8
  %.addr = alloca i8*, align 8
  store %"class.std::ios_base::Init"* %this, %"class.std::ios_base::Init"** %this.addr, align 8
  store i64 %__n, i64* %__n.addr, align 8
  store i8* %0, i8** %.addr, align 8
  %this1 = load %"class.std::ios_base::Init"*, %"class.std::ios_base::Init"** %this.addr, align 8
  %1 = load i64, i64* %__n.addr, align 8
  %call = call i64 @_ZNK9__gnu_cxx13new_allocatorIiE8max_sizeEv(%"class.std::ios_base::Init"* %this1) #2
  %cmp = icmp ugt i64 %1, %call
  br i1 %cmp, label %if.then, label %if.end

if.then:                                          ; preds = %entry
  call void @_ZSt17__throw_bad_allocv() #12
  unreachable

if.end:                                           ; preds = %entry
  %2 = load i64, i64* %__n.addr, align 8
  %mul = mul i64 %2, 4
  %call2 = call i8* @_Znwm(i64 %mul)
  %3 = bitcast i8* %call2 to i32*
  ret i32* %3
}

; Function Attrs: noinline nounwind uwtable
define linkonce_odr i64 @_ZNK9__gnu_cxx13new_allocatorIiE8max_sizeEv(%"class.std::ios_base::Init"* %this) #5 comdat align 2 {
entry:
  %this.addr = alloca %"class.std::ios_base::Init"*, align 8
  store %"class.std::ios_base::Init"* %this, %"class.std::ios_base::Init"** %this.addr, align 8
  %this1 = load %"class.std::ios_base::Init"*, %"class.std::ios_base::Init"** %this.addr, align 8
  ret i64 4611686018427387903
}

; Function Attrs: noreturn
declare void @_ZSt17__throw_bad_allocv() #8

; Function Attrs: nobuiltin
declare noalias i8* @_Znwm(i64) #9

; Function Attrs: noinline nounwind uwtable
define linkonce_odr void @_ZNSaIiEC2ERKS_(%"class.std::ios_base::Init"* %this, %"class.std::ios_base::Init"* dereferenceable(1) %__a) unnamed_addr #5 comdat align 2 {
entry:
  %this.addr = alloca %"class.std::ios_base::Init"*, align 8
  %__a.addr = alloca %"class.std::ios_base::Init"*, align 8
  store %"class.std::ios_base::Init"* %this, %"class.std::ios_base::Init"** %this.addr, align 8
  store %"class.std::ios_base::Init"* %__a, %"class.std::ios_base::Init"** %__a.addr, align 8
  %this1 = load %"class.std::ios_base::Init"*, %"class.std::ios_base::Init"** %this.addr, align 8
  %0 = bitcast %"class.std::ios_base::Init"* %this1 to %"class.std::ios_base::Init"*
  %1 = load %"class.std::ios_base::Init"*, %"class.std::ios_base::Init"** %__a.addr, align 8
  %2 = bitcast %"class.std::ios_base::Init"* %1 to %"class.std::ios_base::Init"*
  call void @_ZN9__gnu_cxx13new_allocatorIiEC2ERKS1_(%"class.std::ios_base::Init"* %0, %"class.std::ios_base::Init"* dereferenceable(1) %2) #2
  ret void
}

; Function Attrs: noinline nounwind uwtable
define linkonce_odr void @_ZN9__gnu_cxx13new_allocatorIiEC2ERKS1_(%"class.std::ios_base::Init"* %this, %"class.std::ios_base::Init"* dereferenceable(1)) unnamed_addr #5 comdat align 2 {
entry:
  %this.addr = alloca %"class.std::ios_base::Init"*, align 8
  %.addr = alloca %"class.std::ios_base::Init"*, align 8
  store %"class.std::ios_base::Init"* %this, %"class.std::ios_base::Init"** %this.addr, align 8
  store %"class.std::ios_base::Init"* %0, %"class.std::ios_base::Init"** %.addr, align 8
  %this1 = load %"class.std::ios_base::Init"*, %"class.std::ios_base::Init"** %this.addr, align 8
  ret void
}

; Function Attrs: noinline nounwind uwtable
define linkonce_odr void @_ZN9__gnu_cxx13new_allocatorIiEC2Ev(%"class.std::ios_base::Init"* %this) unnamed_addr #5 comdat align 2 {
entry:
  %this.addr = alloca %"class.std::ios_base::Init"*, align 8
  store %"class.std::ios_base::Init"* %this, %"class.std::ios_base::Init"** %this.addr, align 8
  %this1 = load %"class.std::ios_base::Init"*, %"class.std::ios_base::Init"** %this.addr, align 8
  ret void
}

attributes #0 = { noinline uwtable "correctly-rounded-divide-sqrt-fp-math"="false" "disable-tail-calls"="false" "less-precise-fpmad"="false" "no-frame-pointer-elim"="true" "no-frame-pointer-elim-non-leaf" "no-infs-fp-math"="false" "no-jump-tables"="false" "no-nans-fp-math"="false" "no-signed-zeros-fp-math"="false" "no-trapping-math"="false" "stack-protector-buffer-size"="8" "target-cpu"="x86-64" "target-features"="+fxsr,+mmx,+sse,+sse2,+x87" "unsafe-fp-math"="false" "use-soft-float"="false" }
attributes #1 = { "correctly-rounded-divide-sqrt-fp-math"="false" "disable-tail-calls"="false" "less-precise-fpmad"="false" "no-frame-pointer-elim"="true" "no-frame-pointer-elim-non-leaf" "no-infs-fp-math"="false" "no-nans-fp-math"="false" "no-signed-zeros-fp-math"="false" "no-trapping-math"="false" "stack-protector-buffer-size"="8" "target-cpu"="x86-64" "target-features"="+fxsr,+mmx,+sse,+sse2,+x87" "unsafe-fp-math"="false" "use-soft-float"="false" }
attributes #2 = { nounwind }
attributes #3 = { noinline norecurse uwtable "correctly-rounded-divide-sqrt-fp-math"="false" "disable-tail-calls"="false" "less-precise-fpmad"="false" "no-frame-pointer-elim"="true" "no-frame-pointer-elim-non-leaf" "no-infs-fp-math"="false" "no-jump-tables"="false" "no-nans-fp-math"="false" "no-signed-zeros-fp-math"="false" "no-trapping-math"="false" "stack-protector-buffer-size"="8" "target-cpu"="x86-64" "target-features"="+fxsr,+mmx,+sse,+sse2,+x87" "unsafe-fp-math"="false" "use-soft-float"="false" }
attributes #4 = { nounwind readonly "correctly-rounded-divide-sqrt-fp-math"="false" "disable-tail-calls"="false" "less-precise-fpmad"="false" "no-frame-pointer-elim"="true" "no-frame-pointer-elim-non-leaf" "no-infs-fp-math"="false" "no-nans-fp-math"="false" "no-signed-zeros-fp-math"="false" "no-trapping-math"="false" "stack-protector-buffer-size"="8" "target-cpu"="x86-64" "target-features"="+fxsr,+mmx,+sse,+sse2,+x87" "unsafe-fp-math"="false" "use-soft-float"="false" }
attributes #5 = { noinline nounwind uwtable "correctly-rounded-divide-sqrt-fp-math"="false" "disable-tail-calls"="false" "less-precise-fpmad"="false" "no-frame-pointer-elim"="true" "no-frame-pointer-elim-non-leaf" "no-infs-fp-math"="false" "no-jump-tables"="false" "no-nans-fp-math"="false" "no-signed-zeros-fp-math"="false" "no-trapping-math"="false" "stack-protector-buffer-size"="8" "target-cpu"="x86-64" "target-features"="+fxsr,+mmx,+sse,+sse2,+x87" "unsafe-fp-math"="false" "use-soft-float"="false" }
attributes #6 = { noinline noreturn nounwind }
attributes #7 = { nobuiltin nounwind "correctly-rounded-divide-sqrt-fp-math"="false" "disable-tail-calls"="false" "less-precise-fpmad"="false" "no-frame-pointer-elim"="true" "no-frame-pointer-elim-non-leaf" "no-infs-fp-math"="false" "no-nans-fp-math"="false" "no-signed-zeros-fp-math"="false" "no-trapping-math"="false" "stack-protector-buffer-size"="8" "target-cpu"="x86-64" "target-features"="+fxsr,+mmx,+sse,+sse2,+x87" "unsafe-fp-math"="false" "use-soft-float"="false" }
attributes #8 = { noreturn "correctly-rounded-divide-sqrt-fp-math"="false" "disable-tail-calls"="false" "less-precise-fpmad"="false" "no-frame-pointer-elim"="true" "no-frame-pointer-elim-non-leaf" "no-infs-fp-math"="false" "no-nans-fp-math"="false" "no-signed-zeros-fp-math"="false" "no-trapping-math"="false" "stack-protector-buffer-size"="8" "target-cpu"="x86-64" "target-features"="+fxsr,+mmx,+sse,+sse2,+x87" "unsafe-fp-math"="false" "use-soft-float"="false" }
attributes #9 = { nobuiltin "correctly-rounded-divide-sqrt-fp-math"="false" "disable-tail-calls"="false" "less-precise-fpmad"="false" "no-frame-pointer-elim"="true" "no-frame-pointer-elim-non-leaf" "no-infs-fp-math"="false" "no-nans-fp-math"="false" "no-signed-zeros-fp-math"="false" "no-trapping-math"="false" "stack-protector-buffer-size"="8" "target-cpu"="x86-64" "target-features"="+fxsr,+mmx,+sse,+sse2,+x87" "unsafe-fp-math"="false" "use-soft-float"="false" }
attributes #10 = { nounwind readonly }
attributes #11 = { noreturn nounwind }
attributes #12 = { noreturn }

!llvm.ident = !{!0}

!0 = !{!"clang version 4.0.0 (tags/RELEASE_400/final)"}
