[     1s]    INFO tuneNormalizer:  Search Space: ['-mem2reg', '-licm', '-gvn', '-early-cse', '-globalopt', '-simplifycfg', '-basicaa', '-aa', '-memdep', '-dse', '-deadargelim', '-libcalls-shrinkwrap', '-tailcallelim', '-instcombine', '-memcpyopt', '-early-cse-memssa']


[    14s]    INFO opentuner.search.plugin.DisplayPlugin: tests=4, best #1479, cost time=0.0008, found by NormalGreedyMutation
[    14s] WARNING opentuner.search.simplextechniques: only 1 point in simplex, will not use RandomNelderMead
[    28s]    INFO opentuner.search.plugin.DisplayPlugin: tests=8, best #1479, cost time=0.0008, found by NormalGreedyMutation
[    40s]    INFO opentuner.search.plugin.DisplayPlugin: tests=12, best #1479, cost time=0.0008, found by NormalGreedyMutation
[    47s]    INFO tuneNormalizer: run_precompiled: Early Exit: Optimal pass sequence written to mcsema//normalizer_final_config.json: [ -mem2reg -licm -gvn -dse -tailcallelim -instcombine -memcpyopt -early-cse-memssa]
[    52s]    INFO opentuner.search.plugin.DisplayPlugin: tests=16, best #1453, cost time=0.0000, found by DifferentialEvolutionAlt
[    69s]    INFO opentuner.search.plugin.DisplayPlugin: tests=20, best #1453, cost time=0.0000, found by DifferentialEvolutionAlt
[    72s]    INFO tuneNormalizer: run_precompiled: Early Exit: Optimal pass sequence written to mcsema//normalizer_final_config.json: [ -mem2reg -gvn -early-cse -simplifycfg -aa -dse -deadargelim -libcalls-shrinkwrap -tailcallelim -instcombine]
[    80s]    INFO opentuner.search.plugin.DisplayPlugin: tests=24, best #1453, cost time=0.0000, found by DifferentialEvolutionAlt
[    83s]    INFO tuneNormalizer: run_precompiled: Early Exit: Optimal pass sequence written to mcsema//normalizer_final_config.json: [ -licm -gvn -early-cse -dse -instcombine -memcpyopt -early-cse-memssa]
[    92s]    INFO tuneNormalizer: run_precompiled: Early Exit: Optimal pass sequence written to mcsema//normalizer_final_config.json: [ -gvn -dse -tailcallelim -instcombine -early-cse-memssa]
[    92s]    INFO opentuner.search.plugin.DisplayPlugin: tests=28, best #1453, cost time=0.0000, found by DifferentialEvolutionAlt
[   102s]    INFO tuneNormalizer: run_precompiled: Early Exit: Optimal pass sequence written to mcsema//normalizer_final_config.json: [ -mem2reg -gvn -basicaa -dse -instcombine -memcpyopt]
[   108s]    INFO opentuner.search.plugin.DisplayPlugin: tests=32, best #1453, cost time=0.0000, found by DifferentialEvolutionAlt
[   111s]    INFO tuneNormalizer: run_precompiled: Early Exit: Optimal pass sequence written to mcsema//normalizer_final_config.json: [ -mem2reg -gvn -aa -dse -tailcallelim -memcpyopt]
[   113s]    INFO tuneNormalizer: run_precompiled: Early Exit: Optimal pass sequence written to mcsema//normalizer_final_config.json: [ -licm -gvn -aa -dse -tailcallelim -instcombine -memcpyopt -early-cse-memssa]
[   117s]    INFO tuneNormalizer: run_precompiled: Early Exit: Optimal pass sequence written to mcsema//normalizer_final_config.json: [ -licm -gvn -dse -tailcallelim -instcombine -memcpyopt -early-cse-memssa]
[   123s]    INFO tuneNormalizer: run_precompiled: Early Exit: Optimal pass sequence written to mcsema//normalizer_final_config.json: [ -mem2reg -licm -gvn -dse -tailcallelim -instcombine -memcpyopt -early-cse-memssa]
[   124s]    INFO tuneNormalizer: run_precompiled: Early Exit: Optimal pass sequence written to mcsema//normalizer_final_config.json: [ -mem2reg -gvn -globalopt -memdep -dse -libcalls-shrinkwrap -tailcallelim -instcombine -memcpyopt]
[   128s]    INFO opentuner.search.plugin.DisplayPlugin: tests=40, best #1453, cost time=0.0000, found by DifferentialEvolutionAlt
[   138s]    INFO opentuner.search.plugin.DisplayPlugin: tests=44, best #1453, cost time=0.0000, found by DifferentialEvolutionAlt
[   141s]    INFO tuneNormalizer: run_precompiled: Early Exit: Optimal pass sequence written to mcsema//normalizer_final_config.json: [ -mem2reg -licm -gvn -basicaa -dse -tailcallelim -instcombine -memcpyopt -early-cse-memssa]
[   145s]    INFO tuneNormalizer: run_precompiled: Early Exit: Optimal pass sequence written to mcsema//normalizer_final_config.json: [ -mem2reg -gvn -dse -deadargelim -tailcallelim -instcombine -memcpyopt -early-cse-memssa]
[   147s]    INFO tuneNormalizer: run_precompiled: Early Exit: Optimal pass sequence written to mcsema//normalizer_final_config.json: [ -mem2reg -licm -gvn -dse -libcalls-shrinkwrap -tailcallelim -instcombine -memcpyopt -early-cse-memssa]
[   150s]    INFO tuneNormalizer: run_precompiled: Early Exit: Optimal pass sequence written to mcsema//normalizer_final_config.json: [ -mem2reg -licm -gvn -aa -memdep -dse -tailcallelim -instcombine -memcpyopt]
[   155s]    INFO tuneNormalizer: run_precompiled: Early Exit: Optimal pass sequence written to mcsema//normalizer_final_config.json: [ -mem2reg -licm -gvn -dse -instcombine -early-cse-memssa]
[   157s]    INFO tuneNormalizer: run_precompiled: Early Exit: Optimal pass sequence written to mcsema//normalizer_final_config.json: [ -mem2reg -licm -gvn -dse -tailcallelim -memcpyopt -early-cse-memssa]
[   157s]    INFO opentuner.search.plugin.DisplayPlugin: tests=52, best #1453, cost time=0.0000, found by DifferentialEvolutionAlt
[   172s]    INFO opentuner.search.plugin.DisplayPlugin: tests=56, best #1453, cost time=0.0000, found by DifferentialEvolutionAlt
[   176s]    INFO tuneNormalizer: run_precompiled: Early Exit: Optimal pass sequence written to mcsema//normalizer_final_config.json: [ -mem2reg -licm -gvn -aa -dse -tailcallelim -instcombine -memcpyopt -early-cse-memssa]
[   177s]    INFO tuneNormalizer: run_precompiled: Early Exit: Optimal pass sequence written to mcsema//normalizer_final_config.json: [ -licm -gvn -dse -tailcallelim -instcombine -memcpyopt -early-cse-memssa]
[   181s]    INFO tuneNormalizer: run_precompiled: Early Exit: Optimal pass sequence written to mcsema//normalizer_final_config.json: [ -licm -gvn -tailcallelim -instcombine -early-cse-memssa]
[   184s]    INFO tuneNormalizer: run_precompiled: Early Exit: Optimal pass sequence written to mcsema//normalizer_final_config.json: [ -mem2reg -licm -gvn -tailcallelim -instcombine -memcpyopt -early-cse-memssa]
[   184s]    INFO opentuner.search.plugin.DisplayPlugin: tests=60, best #1453, cost time=0.0000, found by DifferentialEvolutionAlt
[   200s]    INFO opentuner.search.plugin.DisplayPlugin: tests=64, best #1453, cost time=0.0000, found by DifferentialEvolutionAlt
[   203s]    INFO tuneNormalizer: run_precompiled: Early Exit: Optimal pass sequence written to mcsema//normalizer_final_config.json: [ -mem2reg -licm -gvn -basicaa -aa -dse -deadargelim -tailcallelim -instcombine -memcpyopt -early-cse-memssa]
[   207s]    INFO tuneNormalizer: run_precompiled: Early Exit: Optimal pass sequence written to mcsema//normalizer_final_config.json: [ -mem2reg -licm -gvn -basicaa -tailcallelim -instcombine -memcpyopt -early-cse-memssa]
[   211s]    INFO tuneNormalizer: run_precompiled: Early Exit: Optimal pass sequence written to mcsema//normalizer_final_config.json: [ -licm -gvn -simplifycfg -dse -tailcallelim -instcombine -memcpyopt]
[   211s]    INFO opentuner.search.plugin.DisplayPlugin: tests=68, best #1453, cost time=0.0000, found by DifferentialEvolutionAlt
[   215s]    INFO tuneNormalizer: run_precompiled: Early Exit: Optimal pass sequence written to mcsema//normalizer_final_config.json: [ -mem2reg -licm -gvn -dse -tailcallelim -instcombine -memcpyopt -early-cse-memssa]
[   223s]    INFO tuneNormalizer: run_precompiled: Early Exit: Optimal pass sequence written to mcsema//normalizer_final_config.json: [ -mem2reg -licm -gvn -dse -tailcallelim -instcombine -memcpyopt]
[   223s]    INFO opentuner.search.plugin.DisplayPlugin: tests=72, best #1453, cost time=0.0000, found by DifferentialEvolutionAlt
[   238s]    INFO tuneNormalizer: run_precompiled: Early Exit: Optimal pass sequence written to mcsema//normalizer_final_config.json: [ -licm -gvn -dse -tailcallelim -instcombine -memcpyopt -early-cse-memssa]
[   238s]    INFO opentuner.search.plugin.DisplayPlugin: tests=76, best #1453, cost time=0.0000, found by DifferentialEvolutionAlt
[   242s]    INFO tuneNormalizer: run_precompiled: Early Exit: Optimal pass sequence written to mcsema//normalizer_final_config.json: [ -licm -gvn -basicaa -deadargelim -tailcallelim -instcombine -memcpyopt -early-cse-memssa]
[   247s]    INFO tuneNormalizer: run_precompiled: Early Exit: Optimal pass sequence written to mcsema//normalizer_final_config.json: [ -mem2reg -licm -gvn -memdep -dse -tailcallelim -instcombine -memcpyopt -early-cse-memssa]
[   249s]    INFO tuneNormalizer: run_precompiled: Early Exit: Optimal pass sequence written to mcsema//normalizer_final_config.json: [ -mem2reg -licm -gvn -globalopt -aa -dse -instcombine -memcpyopt -early-cse-memssa]
[   249s]    INFO opentuner.search.plugin.DisplayPlugin: tests=80, best #1453, cost time=0.0000, found by DifferentialEvolutionAlt
[   255s]    INFO tuneNormalizer: run_precompiled: Early Exit: Optimal pass sequence written to mcsema//normalizer_final_config.json: [ -mem2reg -gvn -basicaa -dse -tailcallelim -instcombine -memcpyopt -early-cse-memssa]
[   259s]    INFO tuneNormalizer: run_precompiled: Early Exit: Optimal pass sequence written to mcsema//normalizer_final_config.json: [ -mem2reg -licm -gvn -dse -instcombine -memcpyopt -early-cse-memssa]
[   259s]    INFO opentuner.search.plugin.DisplayPlugin: tests=84, best #1453, cost time=0.0000, found by DifferentialEvolutionAlt
[   279s]    INFO opentuner.search.plugin.DisplayPlugin: tests=88, best #1453, cost time=0.0000, found by DifferentialEvolutionAlt
[   295s]    INFO opentuner.search.plugin.DisplayPlugin: tests=92, best #1453, cost time=0.0000, found by DifferentialEvolutionAlt
[   298s]    INFO tuneNormalizer: run_precompiled: Early Exit: Optimal pass sequence written to mcsema//normalizer_final_config.json: [ -mem2reg -licm -gvn -globalopt -dse -tailcallelim -instcombine -memcpyopt -early-cse-memssa]
[   300s]    INFO tuneNormalizer: run_precompiled: Early Exit: Optimal pass sequence written to mcsema//normalizer_final_config.json: [ -mem2reg -licm -gvn -dse -tailcallelim -instcombine -memcpyopt -early-cse-memssa]
[   302s]    INFO tuneNormalizer: run_precompiled: Early Exit: Optimal pass sequence written to mcsema//normalizer_final_config.json: [ -mem2reg -gvn -globalopt -memdep -dse -tailcallelim -instcombine -memcpyopt -early-cse-memssa]
[   304s]    INFO tuneNormalizer: run_precompiled: Early Exit: Optimal pass sequence written to mcsema//normalizer_final_config.json: [ -mem2reg -licm -gvn -aa -dse -instcombine -memcpyopt -early-cse-memssa]
[   315s]    INFO tuneNormalizer: run_precompiled: Early Exit: Optimal pass sequence written to mcsema//normalizer_final_config.json: [ -mem2reg -gvn -early-cse -simplifycfg -basicaa -dse -deadargelim -instcombine]
[   321s]    INFO opentuner.search.plugin.DisplayPlugin: tests=100, best #1453, cost time=0.0000, found by DifferentialEvolutionAlt
[   325s]    INFO tuneNormalizer: run_precompiled: Early Exit: Optimal pass sequence written to mcsema//normalizer_final_config.json: [ -mem2reg -licm -gvn -dse -deadargelim -memcpyopt -early-cse-memssa]
[   327s]    INFO tuneNormalizer: run_precompiled: Early Exit: Optimal pass sequence written to mcsema//normalizer_final_config.json: [ -mem2reg -licm -gvn -dse -deadargelim -tailcallelim -instcombine -memcpyopt -early-cse-memssa]
[   330s]    INFO tuneNormalizer: run_precompiled: Early Exit: Optimal pass sequence written to mcsema//normalizer_final_config.json: [ -mem2reg -licm -gvn -globalopt -aa -tailcallelim -instcombine -memcpyopt -early-cse-memssa]
[   335s]    INFO opentuner.search.plugin.DisplayPlugin: tests=104, best #1453, cost time=0.0000, found by DifferentialEvolutionAlt
[   335s]    INFO opentuner.search.plugin.DisplayPlugin: tests=104, best #1453, cost time=0.0000, found by DifferentialEvolutionAlt
[   335s]    INFO tuneNormalizer: Optimal pass sequence seen so far: [-mem2reg -instcombine -memcpyopt -dse -gvn -early-cse-memssa -licm -tailcallelim ]
279.01user 32.65system 5:35.75elapsed 92%CPU (0avgtext+0avgdata 56252maxresident)k
0inputs+183176outputs (0major+1105292minor)pagefaults 0swaps
