; ModuleID = 'mcsema/test.proposed.inline.ll'
source_filename = "llvm-link"
target datalayout = "e-m:e-i64:64-f80:128-n8:16:32:64-S128"
target triple = "x86_64-pc-linux-gnu-elf"

%__bss_start_type = type <{ [8 x i8] }>
%G__0xb4bd20_type = type <{ [8 x i8] }>
%struct.State = type { %struct.ArchState, [32 x %union.VectorReg], %struct.ArithFlags, %union.anon, %struct.Segments, %struct.AddressSpace, %struct.GPR, %struct.X87Stack, %struct.MMX, %struct.FPUStatusFlags, %union.anon, %union.FPU, %struct.SegmentCaches }
%struct.ArchState = type { i32, i32, %union.anon }
%union.VectorReg = type { %union.vec512_t }
%union.vec512_t = type { %struct.uint64v8_t }
%struct.uint64v8_t = type { [8 x i64] }
%struct.ArithFlags = type { i8, i8, i8, i8, i8, i8, i8, i8, i8, i8, i8, i8, i8, i8, i8, i8 }
%struct.Segments = type { i16, %union.SegmentSelector, i16, %union.SegmentSelector, i16, %union.SegmentSelector, i16, %union.SegmentSelector, i16, %union.SegmentSelector, i16, %union.SegmentSelector }
%union.SegmentSelector = type { i16 }
%struct.AddressSpace = type { i64, %struct.Reg, i64, %struct.Reg, i64, %struct.Reg, i64, %struct.Reg, i64, %struct.Reg, i64, %struct.Reg }
%struct.Reg = type { %union.anon }
%struct.GPR = type { i64, %struct.Reg, i64, %struct.Reg, i64, %struct.Reg, i64, %struct.Reg, i64, %struct.Reg, i64, %struct.Reg, i64, %struct.Reg, i64, %struct.Reg, i64, %struct.Reg, i64, %struct.Reg, i64, %struct.Reg, i64, %struct.Reg, i64, %struct.Reg, i64, %struct.Reg, i64, %struct.Reg, i64, %struct.Reg, i64, %struct.Reg }
%struct.X87Stack = type { [8 x %struct.anon.3] }
%struct.anon.3 = type { i64, double }
%struct.MMX = type { [8 x %struct.anon.4] }
%struct.anon.4 = type { i64, %union.vec64_t }
%union.vec64_t = type { %struct.uint64v1_t }
%struct.uint64v1_t = type { [1 x i64] }
%struct.FPUStatusFlags = type { i8, i8, i8, i8, i8, i8, i8, i8, i8, i8, i8, i8, i8, i8, i8, i8, i8, i8, i8, i8, [4 x i8] }
%union.anon = type { i64 }
%union.FPU = type { %struct.anon.13 }
%struct.anon.13 = type { %struct.FpuFXSAVE, [96 x i8] }
%struct.FpuFXSAVE = type { %union.SegmentSelector, %union.SegmentSelector, %union.FPUAbridgedTagWord, i8, i16, i32, %union.SegmentSelector, i16, i32, %union.SegmentSelector, i16, %union.FPUControlStatus, %union.FPUControlStatus, [8 x %struct.FPUStackElem], [16 x %union.vec128_t] }
%union.FPUAbridgedTagWord = type { i8 }
%union.FPUControlStatus = type { i32 }
%struct.FPUStackElem = type { %union.anon.11, [6 x i8] }
%union.anon.11 = type { %struct.float80_t }
%struct.float80_t = type { [10 x i8] }
%union.vec128_t = type { %struct.uint128v1_t }
%struct.uint128v1_t = type { [1 x i128] }
%struct.SegmentCaches = type { %struct.SegmentShadow, %struct.SegmentShadow, %struct.SegmentShadow, %struct.SegmentShadow, %struct.SegmentShadow, %struct.SegmentShadow }
%struct.SegmentShadow = type { %union.anon, i32, i32 }
%struct.Memory = type opaque

@__bss_start = local_unnamed_addr global %__bss_start_type zeroinitializer
@G__0xb4bd20 = global %G__0xb4bd20_type zeroinitializer

; Function Attrs: nounwind readnone
declare i32 @llvm.ctpop.i32(i32) #0

declare %struct.Memory* @sub_4784b0.play_attack_defend2_n(%struct.State* noalias dereferenceable(3376), i64, %struct.Memory* noalias readnone returned) local_unnamed_addr

; Function Attrs: alwaysinline
define %struct.Memory* @autohelperpat53(%struct.State* noalias, i64, %struct.Memory* noalias readnone) local_unnamed_addr #1 {
entry:
  %3 = getelementptr inbounds %struct.State, %struct.State* %0, i64 0, i32 6, i32 33, i32 0, i32 0
  %RBP.i = getelementptr inbounds %struct.State, %struct.State* %0, i64 0, i32 6, i32 15, i32 0, i32 0
  %4 = load i64, i64* %RBP.i, align 8
  %5 = add i64 %1, 1
  store i64 %5, i64* %3, align 8
  %6 = getelementptr inbounds %struct.State, %struct.State* %0, i64 0, i32 6, i32 13, i32 0, i32 0
  %7 = load i64, i64* %6, align 8
  %8 = add i64 %7, -8
  %9 = inttoptr i64 %8 to i64*
  store i64 %4, i64* %9, align 8
  %10 = load i64, i64* %3, align 8
  store i64 %8, i64* %RBP.i, align 8
  %11 = add i64 %7, -56
  store i64 %11, i64* %6, align 8
  %12 = getelementptr inbounds %struct.State, %struct.State* %0, i64 0, i32 2, i32 1
  %13 = getelementptr inbounds %struct.State, %struct.State* %0, i64 0, i32 2, i32 3
  %14 = getelementptr inbounds %struct.State, %struct.State* %0, i64 0, i32 2, i32 5
  %15 = getelementptr inbounds %struct.State, %struct.State* %0, i64 0, i32 2, i32 7
  %16 = getelementptr inbounds %struct.State, %struct.State* %0, i64 0, i32 2, i32 9
  %17 = getelementptr inbounds %struct.State, %struct.State* %0, i64 0, i32 2, i32 13
  %18 = getelementptr inbounds %struct.State, %struct.State* %0, i64 0, i32 6, i32 1, i32 0
  %RAX.i98 = getelementptr inbounds %union.anon, %union.anon* %18, i64 0, i32 0
  store i64 0, i64* %RAX.i98, align 8
  store i8 0, i8* %12, align 1
  store i8 1, i8* %13, align 1
  store i8 1, i8* %15, align 1
  store i8 0, i8* %16, align 1
  store i8 0, i8* %17, align 1
  store i8 0, i8* %14, align 1
  %19 = getelementptr inbounds %struct.State, %struct.State* %0, i64 0, i32 6, i32 17, i32 0
  %R8B.i95 = bitcast %union.anon* %19 to i8*
  store i8 0, i8* %R8B.i95, align 1
  %R9.i92 = getelementptr inbounds %struct.State, %struct.State* %0, i64 0, i32 6, i32 19, i32 0, i32 0
  store i64 ptrtoint (%G__0xb4bd20_type* @G__0xb4bd20 to i64), i64* %R9.i92, align 8
  %20 = getelementptr inbounds %struct.State, %struct.State* %0, i64 0, i32 6, i32 11, i32 0
  %EDI.i = bitcast %union.anon* %20 to i32*
  %21 = add i64 %7, -12
  %22 = load i32, i32* %EDI.i, align 4
  %23 = add i64 %10, 25
  store i64 %23, i64* %3, align 8
  %24 = inttoptr i64 %21 to i32*
  store i32 %22, i32* %24, align 4
  %25 = getelementptr inbounds %struct.State, %struct.State* %0, i64 0, i32 6, i32 9, i32 0
  %ESI.i87 = bitcast %union.anon* %25 to i32*
  %26 = load i64, i64* %RBP.i, align 8
  %27 = add i64 %26, -8
  %28 = load i32, i32* %ESI.i87, align 4
  %29 = load i64, i64* %3, align 8
  %30 = add i64 %29, 3
  store i64 %30, i64* %3, align 8
  %31 = inttoptr i64 %27 to i32*
  store i32 %28, i32* %31, align 4
  %32 = getelementptr inbounds %struct.State, %struct.State* %0, i64 0, i32 6, i32 7, i32 0
  %EDX.i = bitcast %union.anon* %32 to i32*
  %33 = load i64, i64* %RBP.i, align 8
  %34 = add i64 %33, -12
  %35 = load i32, i32* %EDX.i, align 4
  %36 = load i64, i64* %3, align 8
  %37 = add i64 %36, 3
  store i64 %37, i64* %3, align 8
  %38 = inttoptr i64 %34 to i32*
  store i32 %35, i32* %38, align 4
  %39 = getelementptr inbounds %struct.State, %struct.State* %0, i64 0, i32 6, i32 5, i32 0
  %ECX.i = bitcast %union.anon* %39 to i32*
  %40 = load i64, i64* %RBP.i, align 8
  %41 = add i64 %40, -16
  %42 = load i32, i32* %ECX.i, align 4
  %43 = load i64, i64* %3, align 8
  %44 = add i64 %43, 3
  store i64 %44, i64* %3, align 8
  %45 = inttoptr i64 %41 to i32*
  store i32 %42, i32* %45, align 4
  %46 = getelementptr inbounds %struct.State, %struct.State* %0, i64 0, i32 6, i32 21, i32 0
  %R10.i81 = getelementptr inbounds %union.anon, %union.anon* %46, i64 0, i32 0
  %47 = load i64, i64* %RBP.i, align 8
  %48 = add i64 %47, -4
  %49 = load i64, i64* %3, align 8
  %50 = add i64 %49, 4
  store i64 %50, i64* %3, align 8
  %51 = inttoptr i64 %48 to i32*
  %52 = load i32, i32* %51, align 4
  %53 = sext i32 %52 to i64
  store i64 %53, i64* %R10.i81, align 8
  %54 = shl nsw i64 %53, 2
  %55 = add nsw i64 %54, 11904784
  %56 = add i64 %49, 12
  store i64 %56, i64* %3, align 8
  %57 = inttoptr i64 %55 to i32*
  %58 = load i32, i32* %57, align 4
  %59 = zext i32 %58 to i64
  store i64 %59, i64* %RAX.i98, align 8
  %60 = add i64 %47, -8
  %61 = add i64 %49, 15
  store i64 %61, i64* %3, align 8
  %62 = inttoptr i64 %60 to i32*
  %63 = load i32, i32* %62, align 4
  %64 = add i32 %63, %58
  %65 = zext i32 %64 to i64
  store i64 %65, i64* %RAX.i98, align 8
  %66 = icmp ult i32 %64, %58
  %67 = icmp ult i32 %64, %63
  %68 = or i1 %66, %67
  %69 = zext i1 %68 to i8
  store i8 %69, i8* %12, align 1
  %70 = and i32 %64, 255
  %71 = tail call i32 @llvm.ctpop.i32(i32 %70)
  %72 = trunc i32 %71 to i8
  %73 = and i8 %72, 1
  %74 = xor i8 %73, 1
  store i8 %74, i8* %13, align 1
  %75 = xor i32 %63, %58
  %76 = xor i32 %75, %64
  %77 = lshr i32 %76, 4
  %78 = trunc i32 %77 to i8
  %79 = and i8 %78, 1
  store i8 %79, i8* %14, align 1
  %80 = icmp eq i32 %64, 0
  %81 = zext i1 %80 to i8
  store i8 %81, i8* %15, align 1
  %82 = lshr i32 %64, 31
  %83 = trunc i32 %82 to i8
  store i8 %83, i8* %16, align 1
  %84 = lshr i32 %58, 31
  %85 = lshr i32 %63, 31
  %86 = xor i32 %82, %84
  %87 = xor i32 %82, %85
  %88 = add nuw nsw i32 %86, %87
  %89 = icmp eq i32 %88, 2
  %90 = zext i1 %89 to i8
  store i8 %90, i8* %17, align 1
  %91 = add i64 %47, -20
  %92 = add i64 %49, 18
  store i64 %92, i64* %3, align 8
  %93 = inttoptr i64 %91 to i32*
  store i32 %64, i32* %93, align 4
  %94 = load i64, i64* %RBP.i, align 8
  %95 = add i64 %94, -4
  %96 = load i64, i64* %3, align 8
  %97 = add i64 %96, 4
  store i64 %97, i64* %3, align 8
  %98 = inttoptr i64 %95 to i32*
  %99 = load i32, i32* %98, align 4
  %100 = sext i32 %99 to i64
  store i64 %100, i64* %R10.i81, align 8
  %101 = shl nsw i64 %100, 2
  %102 = add nsw i64 %101, 11904752
  %103 = add i64 %96, 12
  store i64 %103, i64* %3, align 8
  %104 = inttoptr i64 %102 to i32*
  %105 = load i32, i32* %104, align 4
  %106 = zext i32 %105 to i64
  store i64 %106, i64* %RAX.i98, align 8
  %107 = add i64 %94, -8
  %108 = add i64 %96, 15
  store i64 %108, i64* %3, align 8
  %109 = inttoptr i64 %107 to i32*
  %110 = load i32, i32* %109, align 4
  %111 = add i32 %110, %105
  %112 = zext i32 %111 to i64
  store i64 %112, i64* %RAX.i98, align 8
  %113 = icmp ult i32 %111, %105
  %114 = icmp ult i32 %111, %110
  %115 = or i1 %113, %114
  %116 = zext i1 %115 to i8
  store i8 %116, i8* %12, align 1
  %117 = and i32 %111, 255
  %118 = tail call i32 @llvm.ctpop.i32(i32 %117)
  %119 = trunc i32 %118 to i8
  %120 = and i8 %119, 1
  %121 = xor i8 %120, 1
  store i8 %121, i8* %13, align 1
  %122 = xor i32 %110, %105
  %123 = xor i32 %122, %111
  %124 = lshr i32 %123, 4
  %125 = trunc i32 %124 to i8
  %126 = and i8 %125, 1
  store i8 %126, i8* %14, align 1
  %127 = icmp eq i32 %111, 0
  %128 = zext i1 %127 to i8
  store i8 %128, i8* %15, align 1
  %129 = lshr i32 %111, 31
  %130 = trunc i32 %129 to i8
  store i8 %130, i8* %16, align 1
  %131 = lshr i32 %105, 31
  %132 = lshr i32 %110, 31
  %133 = xor i32 %129, %131
  %134 = xor i32 %129, %132
  %135 = add nuw nsw i32 %133, %134
  %136 = icmp eq i32 %135, 2
  %137 = zext i1 %136 to i8
  store i8 %137, i8* %17, align 1
  %138 = add i64 %94, -24
  %139 = add i64 %96, 18
  store i64 %139, i64* %3, align 8
  %140 = inttoptr i64 %138 to i32*
  store i32 %111, i32* %140, align 4
  %141 = load i64, i64* %RBP.i, align 8
  %142 = add i64 %141, -4
  %143 = load i64, i64* %3, align 8
  %144 = add i64 %143, 4
  store i64 %144, i64* %3, align 8
  %145 = inttoptr i64 %142 to i32*
  %146 = load i32, i32* %145, align 4
  %147 = sext i32 %146 to i64
  store i64 %147, i64* %R10.i81, align 8
  %148 = shl nsw i64 %147, 2
  %149 = add nsw i64 %148, 11902416
  %150 = add i64 %143, 12
  store i64 %150, i64* %3, align 8
  %151 = inttoptr i64 %149 to i32*
  %152 = load i32, i32* %151, align 4
  %153 = zext i32 %152 to i64
  store i64 %153, i64* %RAX.i98, align 8
  %154 = add i64 %141, -8
  %155 = add i64 %143, 15
  store i64 %155, i64* %3, align 8
  %156 = inttoptr i64 %154 to i32*
  %157 = load i32, i32* %156, align 4
  %158 = add i32 %157, %152
  %159 = zext i32 %158 to i64
  store i64 %159, i64* %RAX.i98, align 8
  %160 = icmp ult i32 %158, %152
  %161 = icmp ult i32 %158, %157
  %162 = or i1 %160, %161
  %163 = zext i1 %162 to i8
  store i8 %163, i8* %12, align 1
  %164 = and i32 %158, 255
  %165 = tail call i32 @llvm.ctpop.i32(i32 %164)
  %166 = trunc i32 %165 to i8
  %167 = and i8 %166, 1
  %168 = xor i8 %167, 1
  store i8 %168, i8* %13, align 1
  %169 = xor i32 %157, %152
  %170 = xor i32 %169, %158
  %171 = lshr i32 %170, 4
  %172 = trunc i32 %171 to i8
  %173 = and i8 %172, 1
  store i8 %173, i8* %14, align 1
  %174 = icmp eq i32 %158, 0
  %175 = zext i1 %174 to i8
  store i8 %175, i8* %15, align 1
  %176 = lshr i32 %158, 31
  %177 = trunc i32 %176 to i8
  store i8 %177, i8* %16, align 1
  %178 = lshr i32 %152, 31
  %179 = lshr i32 %157, 31
  %180 = xor i32 %176, %178
  %181 = xor i32 %176, %179
  %182 = add nuw nsw i32 %180, %181
  %183 = icmp eq i32 %182, 2
  %184 = zext i1 %183 to i8
  store i8 %184, i8* %17, align 1
  %185 = add i64 %141, -28
  %186 = add i64 %143, 18
  store i64 %186, i64* %3, align 8
  %187 = inttoptr i64 %185 to i32*
  store i32 %158, i32* %187, align 4
  %188 = load i64, i64* %RBP.i, align 8
  %189 = add i64 %188, -28
  %190 = load i64, i64* %3, align 8
  %191 = add i64 %190, 4
  store i64 %191, i64* %3, align 8
  %192 = inttoptr i64 %189 to i32*
  %193 = load i32, i32* %192, align 4
  %194 = sext i32 %193 to i64
  %195 = mul nsw i64 %194, 76
  store i64 %195, i64* %R10.i81, align 8
  %196 = lshr i64 %195, 63
  %197 = load i64, i64* %R9.i92, align 8
  %198 = add i64 %195, %197
  store i64 %198, i64* %R9.i92, align 8
  %199 = icmp ult i64 %198, %197
  %200 = icmp ult i64 %198, %195
  %201 = or i1 %199, %200
  %202 = zext i1 %201 to i8
  store i8 %202, i8* %12, align 1
  %203 = trunc i64 %198 to i32
  %204 = and i32 %203, 255
  %205 = tail call i32 @llvm.ctpop.i32(i32 %204)
  %206 = trunc i32 %205 to i8
  %207 = and i8 %206, 1
  %208 = xor i8 %207, 1
  store i8 %208, i8* %13, align 1
  %209 = xor i64 %195, %197
  %210 = xor i64 %209, %198
  %211 = lshr i64 %210, 4
  %212 = trunc i64 %211 to i8
  %213 = and i8 %212, 1
  store i8 %213, i8* %14, align 1
  %214 = icmp eq i64 %198, 0
  %215 = zext i1 %214 to i8
  store i8 %215, i8* %15, align 1
  %216 = lshr i64 %198, 63
  %217 = trunc i64 %216 to i8
  store i8 %217, i8* %16, align 1
  %218 = lshr i64 %197, 63
  %219 = xor i64 %216, %218
  %220 = xor i64 %216, %196
  %221 = add nuw nsw i64 %219, %220
  %222 = icmp eq i64 %221, 2
  %223 = zext i1 %222 to i8
  store i8 %223, i8* %17, align 1
  %224 = add i64 %198, 64
  %225 = add i64 %190, 16
  store i64 %225, i64* %3, align 8
  %226 = inttoptr i64 %224 to i32*
  %227 = load i32, i32* %226, align 4
  %228 = add i32 %227, -1
  %229 = icmp eq i32 %227, 0
  %230 = zext i1 %229 to i8
  store i8 %230, i8* %12, align 1
  %231 = and i32 %228, 255
  %232 = tail call i32 @llvm.ctpop.i32(i32 %231)
  %233 = trunc i32 %232 to i8
  %234 = and i8 %233, 1
  %235 = xor i8 %234, 1
  store i8 %235, i8* %13, align 1
  %236 = xor i32 %228, %227
  %237 = lshr i32 %236, 4
  %238 = trunc i32 %237 to i8
  %239 = and i8 %238, 1
  store i8 %239, i8* %14, align 1
  %240 = icmp eq i32 %228, 0
  %241 = zext i1 %240 to i8
  store i8 %241, i8* %15, align 1
  %242 = lshr i32 %228, 31
  %243 = trunc i32 %242 to i8
  store i8 %243, i8* %16, align 1
  %244 = lshr i32 %227, 31
  %245 = xor i32 %242, %244
  %246 = add nuw nsw i32 %245, %244
  %247 = icmp eq i32 %246, 2
  %248 = zext i1 %247 to i8
  store i8 %248, i8* %17, align 1
  %249 = load i64, i64* %RBP.i, align 8
  %250 = add i64 %249, -29
  %251 = load i8, i8* %R8B.i95, align 1
  %252 = add i64 %190, 20
  store i64 %252, i64* %3, align 8
  %253 = inttoptr i64 %250 to i8*
  store i8 %251, i8* %253, align 1
  %254 = load i64, i64* %3, align 8
  %255 = add i64 %254, 51
  %256 = add i64 %254, 6
  %257 = load i8, i8* %15, align 1
  %258 = icmp eq i8 %257, 0
  %259 = select i1 %258, i64 %255, i64 %256
  store i64 %259, i64* %3, align 8
  br i1 %258, label %block_.L_4c8340, label %block_4c8313

block_4c8313:                                     ; preds = %entry
  %AL.i94 = bitcast %union.anon* %18 to i8*
  %EAX.i97 = bitcast %union.anon* %18 to i32*
  %RSI.i = getelementptr inbounds %union.anon, %union.anon* %25, i64 0, i32 0
  store i64 0, i64* %RSI.i, align 8
  store i8 0, i8* %12, align 1
  store i8 1, i8* %13, align 1
  store i8 1, i8* %15, align 1
  store i8 0, i8* %16, align 1
  store i8 0, i8* %17, align 1
  store i8 0, i8* %14, align 1
  %RDX.i = getelementptr inbounds %union.anon, %union.anon* %32, i64 0, i32 0
  store i64 2, i64* %RDX.i, align 8
  %RDI.i = getelementptr inbounds %union.anon, %union.anon* %20, i64 0, i32 0
  %260 = load i64, i64* %RBP.i, align 8
  %261 = add i64 %260, -12
  %262 = add i64 %259, 10
  store i64 %262, i64* %3, align 8
  %263 = inttoptr i64 %261 to i32*
  %264 = load i32, i32* %263, align 4
  %265 = zext i32 %264 to i64
  store i64 %265, i64* %RDI.i, align 8
  %RCX.i = getelementptr inbounds %union.anon, %union.anon* %39, i64 0, i32 0
  %266 = add i64 %260, -8
  %267 = add i64 %259, 13
  store i64 %267, i64* %3, align 8
  %268 = inttoptr i64 %266 to i32*
  %269 = load i32, i32* %268, align 4
  %270 = zext i32 %269 to i64
  store i64 %270, i64* %RCX.i, align 8
  %271 = getelementptr inbounds %union.anon, %union.anon* %19, i64 0, i32 0
  %272 = add i64 %260, -20
  %273 = add i64 %259, 17
  store i64 %273, i64* %3, align 8
  %274 = inttoptr i64 %272 to i32*
  %275 = load i32, i32* %274, align 4
  %276 = zext i32 %275 to i64
  store i64 %276, i64* %271, align 8
  %277 = add i64 %259, 21
  store i64 %277, i64* %3, align 8
  %278 = load i32, i32* %268, align 4
  %279 = zext i32 %278 to i64
  store i64 %279, i64* %R9.i92, align 8
  %280 = add i64 %260, -24
  %281 = add i64 %259, 24
  store i64 %281, i64* %3, align 8
  %282 = inttoptr i64 %280 to i32*
  %283 = load i32, i32* %282, align 4
  %284 = zext i32 %283 to i64
  store i64 %284, i64* %RAX.i98, align 8
  %285 = bitcast i64* %6 to i32**
  %286 = load i32*, i32** %285, align 8
  %287 = add i64 %259, 27
  store i64 %287, i64* %3, align 8
  store i32 %283, i32* %286, align 4
  %288 = load i64, i64* %3, align 8
  store i8 0, i8* %AL.i94, align 1
  %289 = add i64 %288, -327294
  %290 = add i64 %288, 7
  %291 = load i64, i64* %6, align 8
  %292 = add i64 %291, -8
  %293 = inttoptr i64 %292 to i64*
  store i64 %290, i64* %293, align 8
  store i64 %292, i64* %6, align 8
  store i64 %289, i64* %3, align 8
  %call2_4c8330 = tail call %struct.Memory* @sub_4784b0.play_attack_defend2_n(%struct.State* nonnull %0, i64 %289, %struct.Memory* %2)
  %294 = load i32, i32* %EAX.i97, align 4
  %295 = load i64, i64* %3, align 8
  store i8 0, i8* %12, align 1
  %296 = and i32 %294, 255
  %297 = tail call i32 @llvm.ctpop.i32(i32 %296)
  %298 = trunc i32 %297 to i8
  %299 = and i8 %298, 1
  %300 = xor i8 %299, 1
  store i8 %300, i8* %13, align 1
  store i8 0, i8* %14, align 1
  %301 = icmp eq i32 %294, 0
  %302 = zext i1 %301 to i8
  store i8 %302, i8* %15, align 1
  %303 = lshr i32 %294, 31
  %304 = trunc i32 %303 to i8
  store i8 %304, i8* %16, align 1
  store i8 0, i8* %17, align 1
  %R10B.i14 = bitcast %union.anon* %46 to i8*
  %305 = xor i1 %301, true
  %306 = zext i1 %305 to i8
  store i8 %306, i8* %R10B.i14, align 1
  %307 = load i64, i64* %RBP.i, align 8
  %308 = add i64 %307, -29
  %309 = add i64 %295, 11
  store i64 %309, i64* %3, align 8
  %310 = inttoptr i64 %308 to i8*
  store i8 %306, i8* %310, align 1
  %.pre = load i64, i64* %3, align 8
  br label %block_.L_4c8340

block_.L_4c8340:                                  ; preds = %block_4c8313, %entry
  %311 = phi i64 [ %255, %entry ], [ %.pre, %block_4c8313 ]
  %MEMORY.0 = phi %struct.Memory* [ %2, %entry ], [ %call2_4c8330, %block_4c8313 ]
  %312 = load i64, i64* %RBP.i, align 8
  %313 = add i64 %312, -29
  %314 = add i64 %311, 3
  store i64 %314, i64* %3, align 8
  %315 = inttoptr i64 %313 to i8*
  %316 = load i8, i8* %315, align 1
  %317 = and i8 %316, 1
  %318 = zext i8 %317 to i64
  store i64 %318, i64* %RAX.i98, align 8
  %319 = load i64, i64* %6, align 8
  %320 = add i64 %319, 48
  store i64 %320, i64* %6, align 8
  %321 = icmp ugt i64 %319, -49
  %322 = zext i1 %321 to i8
  store i8 %322, i8* %12, align 1
  %323 = trunc i64 %320 to i32
  %324 = and i32 %323, 255
  %325 = tail call i32 @llvm.ctpop.i32(i32 %324)
  %326 = trunc i32 %325 to i8
  %327 = and i8 %326, 1
  %328 = xor i8 %327, 1
  store i8 %328, i8* %13, align 1
  %329 = xor i64 %319, 16
  %330 = xor i64 %329, %320
  %331 = lshr i64 %330, 4
  %332 = trunc i64 %331 to i8
  %333 = and i8 %332, 1
  store i8 %333, i8* %14, align 1
  %334 = icmp eq i64 %320, 0
  %335 = zext i1 %334 to i8
  store i8 %335, i8* %15, align 1
  %336 = lshr i64 %320, 63
  %337 = trunc i64 %336 to i8
  store i8 %337, i8* %16, align 1
  %338 = lshr i64 %319, 63
  %339 = xor i64 %336, %338
  %340 = add nuw nsw i64 %339, %336
  %341 = icmp eq i64 %340, 2
  %342 = zext i1 %341 to i8
  store i8 %342, i8* %17, align 1
  %343 = add i64 %311, 13
  store i64 %343, i64* %3, align 8
  %344 = add i64 %319, 56
  %345 = inttoptr i64 %320 to i64*
  %346 = load i64, i64* %345, align 8
  store i64 %346, i64* %RBP.i, align 8
  store i64 %344, i64* %6, align 8
  %347 = add i64 %311, 14
  store i64 %347, i64* %3, align 8
  %348 = inttoptr i64 %344 to i64*
  %349 = load i64, i64* %348, align 8
  store i64 %349, i64* %3, align 8
  %350 = add i64 %319, 64
  store i64 %350, i64* %6, align 8
  ret %struct.Memory* %MEMORY.0
}

; Function Attrs: norecurse nounwind
define %struct.Memory* @routine_pushq__rbp(%struct.State* nocapture dereferenceable(3376), i64, %struct.Memory* readnone returned) local_unnamed_addr #2 {
block_400488:
  %PC = getelementptr inbounds %struct.State, %struct.State* %0, i64 0, i32 6, i32 33, i32 0, i32 0
  %RBP = getelementptr inbounds %struct.State, %struct.State* %0, i64 0, i32 6, i32 15, i32 0, i32 0
  %3 = load i64, i64* %RBP, align 8
  %4 = load i64, i64* %PC, align 8
  %5 = add i64 %4, 1
  store i64 %5, i64* %PC, align 8
  %6 = getelementptr inbounds %struct.State, %struct.State* %0, i64 0, i32 6, i32 13, i32 0, i32 0
  %7 = load i64, i64* %6, align 8
  %8 = add i64 %7, -8
  %9 = inttoptr i64 %8 to i64*
  store i64 %3, i64* %9, align 8
  store i64 %8, i64* %6, align 8
  ret %struct.Memory* %2
}

; Function Attrs: norecurse nounwind
define %struct.Memory* @routine_movq__rsp___rbp(%struct.State* nocapture dereferenceable(3376), i64, %struct.Memory* readnone returned) local_unnamed_addr #2 {
block_400488:
  %PC = getelementptr inbounds %struct.State, %struct.State* %0, i64 0, i32 6, i32 33, i32 0, i32 0
  %RSP = getelementptr inbounds %struct.State, %struct.State* %0, i64 0, i32 6, i32 13, i32 0, i32 0
  %RBP = getelementptr inbounds %struct.State, %struct.State* %0, i64 0, i32 6, i32 15, i32 0, i32 0
  %3 = load i64, i64* %RSP, align 8
  %4 = load i64, i64* %PC, align 8
  %5 = add i64 %4, 3
  store i64 %5, i64* %PC, align 8
  store i64 %3, i64* %RBP, align 8
  ret %struct.Memory* %2
}

; Function Attrs: nounwind
define %struct.Memory* @routine_subq__0x30___rsp(%struct.State* nocapture dereferenceable(3376), i64, %struct.Memory* readnone returned) local_unnamed_addr #3 {
block_400488:
  %PC = getelementptr inbounds %struct.State, %struct.State* %0, i64 0, i32 6, i32 33, i32 0, i32 0
  %RSP = getelementptr inbounds %struct.State, %struct.State* %0, i64 0, i32 6, i32 13, i32 0, i32 0
  %3 = load i64, i64* %RSP, align 8
  %4 = load i64, i64* %PC, align 8
  %5 = add i64 %4, 4
  store i64 %5, i64* %PC, align 8
  %6 = add i64 %3, -48
  store i64 %6, i64* %RSP, align 8
  %7 = icmp ult i64 %3, 48
  %8 = zext i1 %7 to i8
  %9 = getelementptr inbounds %struct.State, %struct.State* %0, i64 0, i32 2, i32 1
  store i8 %8, i8* %9, align 1
  %10 = trunc i64 %6 to i32
  %11 = and i32 %10, 255
  %12 = tail call i32 @llvm.ctpop.i32(i32 %11)
  %13 = trunc i32 %12 to i8
  %14 = and i8 %13, 1
  %15 = xor i8 %14, 1
  %16 = getelementptr inbounds %struct.State, %struct.State* %0, i64 0, i32 2, i32 3
  store i8 %15, i8* %16, align 1
  %17 = xor i64 %3, 16
  %18 = xor i64 %17, %6
  %19 = lshr i64 %18, 4
  %20 = trunc i64 %19 to i8
  %21 = and i8 %20, 1
  %22 = getelementptr inbounds %struct.State, %struct.State* %0, i64 0, i32 2, i32 5
  store i8 %21, i8* %22, align 1
  %23 = icmp eq i64 %6, 0
  %24 = zext i1 %23 to i8
  %25 = getelementptr inbounds %struct.State, %struct.State* %0, i64 0, i32 2, i32 7
  store i8 %24, i8* %25, align 1
  %26 = lshr i64 %6, 63
  %27 = trunc i64 %26 to i8
  %28 = getelementptr inbounds %struct.State, %struct.State* %0, i64 0, i32 2, i32 9
  store i8 %27, i8* %28, align 1
  %29 = lshr i64 %3, 63
  %30 = xor i64 %26, %29
  %31 = add nuw nsw i64 %30, %29
  %32 = icmp eq i64 %31, 2
  %33 = zext i1 %32 to i8
  %34 = getelementptr inbounds %struct.State, %struct.State* %0, i64 0, i32 2, i32 13
  store i8 %33, i8* %34, align 1
  ret %struct.Memory* %2
}

; Function Attrs: nounwind
define %struct.Memory* @routine_xorl__eax___eax(%struct.State* nocapture dereferenceable(3376), i64, %struct.Memory* readnone returned) local_unnamed_addr #3 {
block_400488:
  %PC = getelementptr inbounds %struct.State, %struct.State* %0, i64 0, i32 6, i32 33, i32 0, i32 0
  %RAX = getelementptr inbounds %struct.State, %struct.State* %0, i64 0, i32 6, i32 1, i32 0, i32 0
  %3 = load i64, i64* %PC, align 8
  %4 = add i64 %3, 2
  store i64 %4, i64* %PC, align 8
  store i64 0, i64* %RAX, align 8
  %5 = getelementptr inbounds %struct.State, %struct.State* %0, i64 0, i32 2, i32 1
  store i8 0, i8* %5, align 1
  %6 = getelementptr inbounds %struct.State, %struct.State* %0, i64 0, i32 2, i32 3
  store i8 1, i8* %6, align 1
  %7 = getelementptr inbounds %struct.State, %struct.State* %0, i64 0, i32 2, i32 7
  store i8 1, i8* %7, align 1
  %8 = getelementptr inbounds %struct.State, %struct.State* %0, i64 0, i32 2, i32 9
  store i8 0, i8* %8, align 1
  %9 = getelementptr inbounds %struct.State, %struct.State* %0, i64 0, i32 2, i32 13
  store i8 0, i8* %9, align 1
  %10 = getelementptr inbounds %struct.State, %struct.State* %0, i64 0, i32 2, i32 5
  store i8 0, i8* %10, align 1
  ret %struct.Memory* %2
}

; Function Attrs: norecurse nounwind
define %struct.Memory* @routine_movb__al___r8b(%struct.State* nocapture dereferenceable(3376), i64, %struct.Memory* readnone returned) local_unnamed_addr #2 {
block_400488:
  %PC = getelementptr inbounds %struct.State, %struct.State* %0, i64 0, i32 6, i32 33, i32 0, i32 0
  %3 = getelementptr inbounds %struct.State, %struct.State* %0, i64 0, i32 6, i32 1, i32 0
  %AL = bitcast %union.anon* %3 to i8*
  %4 = getelementptr inbounds %struct.State, %struct.State* %0, i64 0, i32 6, i32 17, i32 0
  %R8B = bitcast %union.anon* %4 to i8*
  %5 = load i8, i8* %AL, align 1
  %6 = load i64, i64* %PC, align 8
  %7 = add i64 %6, 3
  store i64 %7, i64* %PC, align 8
  store i8 %5, i8* %R8B, align 1
  ret %struct.Memory* %2
}

; Function Attrs: norecurse nounwind
define %struct.Memory* @routine_movq__0xb4bd20___r9(%struct.State* nocapture dereferenceable(3376), i64, %struct.Memory* readnone returned) local_unnamed_addr #2 {
block_400488:
  %PC = getelementptr inbounds %struct.State, %struct.State* %0, i64 0, i32 6, i32 33, i32 0, i32 0
  %R9 = getelementptr inbounds %struct.State, %struct.State* %0, i64 0, i32 6, i32 19, i32 0, i32 0
  %3 = load i64, i64* %PC, align 8
  %4 = add i64 %3, 10
  store i64 %4, i64* %PC, align 8
  store i64 ptrtoint (%G__0xb4bd20_type* @G__0xb4bd20 to i64), i64* %R9, align 8
  ret %struct.Memory* %2
}

; Function Attrs: norecurse nounwind
define %struct.Memory* @routine_movl__edi__MINUS0x4__rbp_(%struct.State* nocapture dereferenceable(3376), i64, %struct.Memory* readnone returned) local_unnamed_addr #2 {
block_400488:
  %PC = getelementptr inbounds %struct.State, %struct.State* %0, i64 0, i32 6, i32 33, i32 0, i32 0
  %3 = getelementptr inbounds %struct.State, %struct.State* %0, i64 0, i32 6, i32 11, i32 0
  %EDI = bitcast %union.anon* %3 to i32*
  %RBP = getelementptr inbounds %struct.State, %struct.State* %0, i64 0, i32 6, i32 15, i32 0, i32 0
  %4 = load i64, i64* %RBP, align 8
  %5 = add i64 %4, -4
  %6 = load i32, i32* %EDI, align 4
  %7 = load i64, i64* %PC, align 8
  %8 = add i64 %7, 3
  store i64 %8, i64* %PC, align 8
  %9 = inttoptr i64 %5 to i32*
  store i32 %6, i32* %9, align 4
  ret %struct.Memory* %2
}

; Function Attrs: norecurse nounwind
define %struct.Memory* @routine_movl__esi__MINUS0x8__rbp_(%struct.State* nocapture dereferenceable(3376), i64, %struct.Memory* readnone returned) local_unnamed_addr #2 {
block_400488:
  %PC = getelementptr inbounds %struct.State, %struct.State* %0, i64 0, i32 6, i32 33, i32 0, i32 0
  %3 = getelementptr inbounds %struct.State, %struct.State* %0, i64 0, i32 6, i32 9, i32 0
  %ESI = bitcast %union.anon* %3 to i32*
  %RBP = getelementptr inbounds %struct.State, %struct.State* %0, i64 0, i32 6, i32 15, i32 0, i32 0
  %4 = load i64, i64* %RBP, align 8
  %5 = add i64 %4, -8
  %6 = load i32, i32* %ESI, align 4
  %7 = load i64, i64* %PC, align 8
  %8 = add i64 %7, 3
  store i64 %8, i64* %PC, align 8
  %9 = inttoptr i64 %5 to i32*
  store i32 %6, i32* %9, align 4
  ret %struct.Memory* %2
}

; Function Attrs: norecurse nounwind
define %struct.Memory* @routine_movl__edx__MINUS0xc__rbp_(%struct.State* nocapture dereferenceable(3376), i64, %struct.Memory* readnone returned) local_unnamed_addr #2 {
block_400488:
  %PC = getelementptr inbounds %struct.State, %struct.State* %0, i64 0, i32 6, i32 33, i32 0, i32 0
  %3 = getelementptr inbounds %struct.State, %struct.State* %0, i64 0, i32 6, i32 7, i32 0
  %EDX = bitcast %union.anon* %3 to i32*
  %RBP = getelementptr inbounds %struct.State, %struct.State* %0, i64 0, i32 6, i32 15, i32 0, i32 0
  %4 = load i64, i64* %RBP, align 8
  %5 = add i64 %4, -12
  %6 = load i32, i32* %EDX, align 4
  %7 = load i64, i64* %PC, align 8
  %8 = add i64 %7, 3
  store i64 %8, i64* %PC, align 8
  %9 = inttoptr i64 %5 to i32*
  store i32 %6, i32* %9, align 4
  ret %struct.Memory* %2
}

; Function Attrs: norecurse nounwind
define %struct.Memory* @routine_movl__ecx__MINUS0x10__rbp_(%struct.State* nocapture dereferenceable(3376), i64, %struct.Memory* readnone returned) local_unnamed_addr #2 {
block_400488:
  %PC = getelementptr inbounds %struct.State, %struct.State* %0, i64 0, i32 6, i32 33, i32 0, i32 0
  %3 = getelementptr inbounds %struct.State, %struct.State* %0, i64 0, i32 6, i32 5, i32 0
  %ECX = bitcast %union.anon* %3 to i32*
  %RBP = getelementptr inbounds %struct.State, %struct.State* %0, i64 0, i32 6, i32 15, i32 0, i32 0
  %4 = load i64, i64* %RBP, align 8
  %5 = add i64 %4, -16
  %6 = load i32, i32* %ECX, align 4
  %7 = load i64, i64* %PC, align 8
  %8 = add i64 %7, 3
  store i64 %8, i64* %PC, align 8
  %9 = inttoptr i64 %5 to i32*
  store i32 %6, i32* %9, align 4
  ret %struct.Memory* %2
}

; Function Attrs: norecurse nounwind
define %struct.Memory* @routine_movslq_MINUS0x4__rbp____r10(%struct.State* nocapture dereferenceable(3376), i64, %struct.Memory* readnone returned) local_unnamed_addr #2 {
block_400488:
  %PC = getelementptr inbounds %struct.State, %struct.State* %0, i64 0, i32 6, i32 33, i32 0, i32 0
  %RBP = getelementptr inbounds %struct.State, %struct.State* %0, i64 0, i32 6, i32 15, i32 0, i32 0
  %R10 = getelementptr inbounds %struct.State, %struct.State* %0, i64 0, i32 6, i32 21, i32 0, i32 0
  %3 = load i64, i64* %RBP, align 8
  %4 = add i64 %3, -4
  %5 = load i64, i64* %PC, align 8
  %6 = add i64 %5, 4
  store i64 %6, i64* %PC, align 8
  %7 = inttoptr i64 %4 to i32*
  %8 = load i32, i32* %7, align 4
  %9 = sext i32 %8 to i64
  store i64 %9, i64* %R10, align 8
  ret %struct.Memory* %2
}

; Function Attrs: norecurse nounwind
define %struct.Memory* @routine_movl_0xb5a710___r10_4____eax(%struct.State* nocapture dereferenceable(3376), i64, %struct.Memory* readnone returned) local_unnamed_addr #2 {
block_400488:
  %PC = getelementptr inbounds %struct.State, %struct.State* %0, i64 0, i32 6, i32 33, i32 0, i32 0
  %RAX = getelementptr inbounds %struct.State, %struct.State* %0, i64 0, i32 6, i32 1, i32 0, i32 0
  %R10 = getelementptr inbounds %struct.State, %struct.State* %0, i64 0, i32 6, i32 21, i32 0, i32 0
  %3 = load i64, i64* %R10, align 8
  %4 = shl i64 %3, 2
  %5 = add i64 %4, 11904784
  %6 = load i64, i64* %PC, align 8
  %7 = add i64 %6, 8
  store i64 %7, i64* %PC, align 8
  %8 = inttoptr i64 %5 to i32*
  %9 = load i32, i32* %8, align 4
  %10 = zext i32 %9 to i64
  store i64 %10, i64* %RAX, align 8
  ret %struct.Memory* %2
}

; Function Attrs: nounwind
define %struct.Memory* @routine_addl_MINUS0x8__rbp____eax(%struct.State* nocapture dereferenceable(3376), i64, %struct.Memory* readnone returned) local_unnamed_addr #3 {
block_400488:
  %PC = getelementptr inbounds %struct.State, %struct.State* %0, i64 0, i32 6, i32 33, i32 0, i32 0
  %RAX = getelementptr inbounds %struct.State, %struct.State* %0, i64 0, i32 6, i32 1, i32 0, i32 0
  %RBP = getelementptr inbounds %struct.State, %struct.State* %0, i64 0, i32 6, i32 15, i32 0, i32 0
  %3 = load i64, i64* %RAX, align 8
  %4 = load i64, i64* %RBP, align 8
  %5 = add i64 %4, -8
  %6 = load i64, i64* %PC, align 8
  %7 = add i64 %6, 3
  store i64 %7, i64* %PC, align 8
  %8 = trunc i64 %3 to i32
  %9 = inttoptr i64 %5 to i32*
  %10 = load i32, i32* %9, align 4
  %11 = add i32 %10, %8
  %12 = zext i32 %11 to i64
  store i64 %12, i64* %RAX, align 8
  %13 = icmp ult i32 %11, %8
  %14 = icmp ult i32 %11, %10
  %15 = or i1 %13, %14
  %16 = zext i1 %15 to i8
  %17 = getelementptr inbounds %struct.State, %struct.State* %0, i64 0, i32 2, i32 1
  store i8 %16, i8* %17, align 1
  %18 = and i32 %11, 255
  %19 = tail call i32 @llvm.ctpop.i32(i32 %18)
  %20 = trunc i32 %19 to i8
  %21 = and i8 %20, 1
  %22 = xor i8 %21, 1
  %23 = getelementptr inbounds %struct.State, %struct.State* %0, i64 0, i32 2, i32 3
  store i8 %22, i8* %23, align 1
  %24 = xor i32 %10, %8
  %25 = xor i32 %24, %11
  %26 = lshr i32 %25, 4
  %27 = trunc i32 %26 to i8
  %28 = and i8 %27, 1
  %29 = getelementptr inbounds %struct.State, %struct.State* %0, i64 0, i32 2, i32 5
  store i8 %28, i8* %29, align 1
  %30 = icmp eq i32 %11, 0
  %31 = zext i1 %30 to i8
  %32 = getelementptr inbounds %struct.State, %struct.State* %0, i64 0, i32 2, i32 7
  store i8 %31, i8* %32, align 1
  %33 = lshr i32 %11, 31
  %34 = trunc i32 %33 to i8
  %35 = getelementptr inbounds %struct.State, %struct.State* %0, i64 0, i32 2, i32 9
  store i8 %34, i8* %35, align 1
  %36 = lshr i32 %8, 31
  %37 = lshr i32 %10, 31
  %38 = xor i32 %33, %36
  %39 = xor i32 %33, %37
  %40 = add nuw nsw i32 %38, %39
  %41 = icmp eq i32 %40, 2
  %42 = zext i1 %41 to i8
  %43 = getelementptr inbounds %struct.State, %struct.State* %0, i64 0, i32 2, i32 13
  store i8 %42, i8* %43, align 1
  ret %struct.Memory* %2
}

; Function Attrs: norecurse nounwind
define %struct.Memory* @routine_movl__eax__MINUS0x14__rbp_(%struct.State* nocapture dereferenceable(3376), i64, %struct.Memory* readnone returned) local_unnamed_addr #2 {
block_400488:
  %PC = getelementptr inbounds %struct.State, %struct.State* %0, i64 0, i32 6, i32 33, i32 0, i32 0
  %3 = getelementptr inbounds %struct.State, %struct.State* %0, i64 0, i32 6, i32 1, i32 0
  %EAX = bitcast %union.anon* %3 to i32*
  %RBP = getelementptr inbounds %struct.State, %struct.State* %0, i64 0, i32 6, i32 15, i32 0, i32 0
  %4 = load i64, i64* %RBP, align 8
  %5 = add i64 %4, -20
  %6 = load i32, i32* %EAX, align 4
  %7 = load i64, i64* %PC, align 8
  %8 = add i64 %7, 3
  store i64 %8, i64* %PC, align 8
  %9 = inttoptr i64 %5 to i32*
  store i32 %6, i32* %9, align 4
  ret %struct.Memory* %2
}

; Function Attrs: norecurse nounwind
define %struct.Memory* @routine_movl_0xb5a6f0___r10_4____eax(%struct.State* nocapture dereferenceable(3376), i64, %struct.Memory* readnone returned) local_unnamed_addr #2 {
block_400488:
  %PC = getelementptr inbounds %struct.State, %struct.State* %0, i64 0, i32 6, i32 33, i32 0, i32 0
  %RAX = getelementptr inbounds %struct.State, %struct.State* %0, i64 0, i32 6, i32 1, i32 0, i32 0
  %R10 = getelementptr inbounds %struct.State, %struct.State* %0, i64 0, i32 6, i32 21, i32 0, i32 0
  %3 = load i64, i64* %R10, align 8
  %4 = shl i64 %3, 2
  %5 = add i64 %4, 11904752
  %6 = load i64, i64* %PC, align 8
  %7 = add i64 %6, 8
  store i64 %7, i64* %PC, align 8
  %8 = inttoptr i64 %5 to i32*
  %9 = load i32, i32* %8, align 4
  %10 = zext i32 %9 to i64
  store i64 %10, i64* %RAX, align 8
  ret %struct.Memory* %2
}

; Function Attrs: norecurse nounwind
define %struct.Memory* @routine_movl__eax__MINUS0x18__rbp_(%struct.State* nocapture dereferenceable(3376), i64, %struct.Memory* readnone returned) local_unnamed_addr #2 {
block_400488:
  %PC = getelementptr inbounds %struct.State, %struct.State* %0, i64 0, i32 6, i32 33, i32 0, i32 0
  %3 = getelementptr inbounds %struct.State, %struct.State* %0, i64 0, i32 6, i32 1, i32 0
  %EAX = bitcast %union.anon* %3 to i32*
  %RBP = getelementptr inbounds %struct.State, %struct.State* %0, i64 0, i32 6, i32 15, i32 0, i32 0
  %4 = load i64, i64* %RBP, align 8
  %5 = add i64 %4, -24
  %6 = load i32, i32* %EAX, align 4
  %7 = load i64, i64* %PC, align 8
  %8 = add i64 %7, 3
  store i64 %8, i64* %PC, align 8
  %9 = inttoptr i64 %5 to i32*
  store i32 %6, i32* %9, align 4
  ret %struct.Memory* %2
}

; Function Attrs: norecurse nounwind
define %struct.Memory* @routine_movl_0xb59dd0___r10_4____eax(%struct.State* nocapture dereferenceable(3376), i64, %struct.Memory* readnone returned) local_unnamed_addr #2 {
block_400488:
  %PC = getelementptr inbounds %struct.State, %struct.State* %0, i64 0, i32 6, i32 33, i32 0, i32 0
  %RAX = getelementptr inbounds %struct.State, %struct.State* %0, i64 0, i32 6, i32 1, i32 0, i32 0
  %R10 = getelementptr inbounds %struct.State, %struct.State* %0, i64 0, i32 6, i32 21, i32 0, i32 0
  %3 = load i64, i64* %R10, align 8
  %4 = shl i64 %3, 2
  %5 = add i64 %4, 11902416
  %6 = load i64, i64* %PC, align 8
  %7 = add i64 %6, 8
  store i64 %7, i64* %PC, align 8
  %8 = inttoptr i64 %5 to i32*
  %9 = load i32, i32* %8, align 4
  %10 = zext i32 %9 to i64
  store i64 %10, i64* %RAX, align 8
  ret %struct.Memory* %2
}

; Function Attrs: norecurse nounwind
define %struct.Memory* @routine_movl__eax__MINUS0x1c__rbp_(%struct.State* nocapture dereferenceable(3376), i64, %struct.Memory* readnone returned) local_unnamed_addr #2 {
block_400488:
  %PC = getelementptr inbounds %struct.State, %struct.State* %0, i64 0, i32 6, i32 33, i32 0, i32 0
  %3 = getelementptr inbounds %struct.State, %struct.State* %0, i64 0, i32 6, i32 1, i32 0
  %EAX = bitcast %union.anon* %3 to i32*
  %RBP = getelementptr inbounds %struct.State, %struct.State* %0, i64 0, i32 6, i32 15, i32 0, i32 0
  %4 = load i64, i64* %RBP, align 8
  %5 = add i64 %4, -28
  %6 = load i32, i32* %EAX, align 4
  %7 = load i64, i64* %PC, align 8
  %8 = add i64 %7, 3
  store i64 %8, i64* %PC, align 8
  %9 = inttoptr i64 %5 to i32*
  store i32 %6, i32* %9, align 4
  ret %struct.Memory* %2
}

; Function Attrs: norecurse nounwind
define %struct.Memory* @routine_movslq_MINUS0x1c__rbp____r10(%struct.State* nocapture dereferenceable(3376), i64, %struct.Memory* readnone returned) local_unnamed_addr #2 {
block_400488:
  %PC = getelementptr inbounds %struct.State, %struct.State* %0, i64 0, i32 6, i32 33, i32 0, i32 0
  %RBP = getelementptr inbounds %struct.State, %struct.State* %0, i64 0, i32 6, i32 15, i32 0, i32 0
  %R10 = getelementptr inbounds %struct.State, %struct.State* %0, i64 0, i32 6, i32 21, i32 0, i32 0
  %3 = load i64, i64* %RBP, align 8
  %4 = add i64 %3, -28
  %5 = load i64, i64* %PC, align 8
  %6 = add i64 %5, 4
  store i64 %6, i64* %PC, align 8
  %7 = inttoptr i64 %4 to i32*
  %8 = load i32, i32* %7, align 4
  %9 = sext i32 %8 to i64
  store i64 %9, i64* %R10, align 8
  ret %struct.Memory* %2
}

; Function Attrs: nounwind
define %struct.Memory* @routine_imulq__0x4c___r10___r10(%struct.State* nocapture dereferenceable(3376), i64, %struct.Memory* readnone returned) local_unnamed_addr #3 {
block_400488:
  %PC = getelementptr inbounds %struct.State, %struct.State* %0, i64 0, i32 6, i32 33, i32 0, i32 0
  %R10 = getelementptr inbounds %struct.State, %struct.State* %0, i64 0, i32 6, i32 21, i32 0, i32 0
  %3 = load i64, i64* %R10, align 8
  %4 = load i64, i64* %PC, align 8
  %5 = add i64 %4, 4
  store i64 %5, i64* %PC, align 8
  %6 = sext i64 %3 to i128
  %7 = and i128 %6, -18446744073709551616
  %8 = zext i64 %3 to i128
  %9 = or i128 %7, %8
  %10 = mul nsw i128 %9, 76
  %11 = trunc i128 %10 to i64
  store i64 %11, i64* %R10, align 8
  %12 = sext i64 %11 to i128
  %13 = icmp ne i128 %12, %10
  %14 = zext i1 %13 to i8
  %15 = getelementptr inbounds %struct.State, %struct.State* %0, i64 0, i32 2, i32 1
  store i8 %14, i8* %15, align 1
  %16 = trunc i128 %10 to i32
  %17 = and i32 %16, 252
  %18 = tail call i32 @llvm.ctpop.i32(i32 %17)
  %19 = trunc i32 %18 to i8
  %20 = and i8 %19, 1
  %21 = xor i8 %20, 1
  %22 = getelementptr inbounds %struct.State, %struct.State* %0, i64 0, i32 2, i32 3
  store i8 %21, i8* %22, align 1
  %23 = getelementptr inbounds %struct.State, %struct.State* %0, i64 0, i32 2, i32 5
  store i8 0, i8* %23, align 1
  %24 = getelementptr inbounds %struct.State, %struct.State* %0, i64 0, i32 2, i32 7
  store i8 0, i8* %24, align 1
  %25 = lshr i64 %11, 63
  %26 = trunc i64 %25 to i8
  %27 = getelementptr inbounds %struct.State, %struct.State* %0, i64 0, i32 2, i32 9
  store i8 %26, i8* %27, align 1
  %28 = getelementptr inbounds %struct.State, %struct.State* %0, i64 0, i32 2, i32 13
  store i8 %14, i8* %28, align 1
  ret %struct.Memory* %2
}

; Function Attrs: nounwind
define %struct.Memory* @routine_addq__r10___r9(%struct.State* nocapture dereferenceable(3376), i64, %struct.Memory* readnone returned) local_unnamed_addr #3 {
block_400488:
  %PC = getelementptr inbounds %struct.State, %struct.State* %0, i64 0, i32 6, i32 33, i32 0, i32 0
  %R9 = getelementptr inbounds %struct.State, %struct.State* %0, i64 0, i32 6, i32 19, i32 0, i32 0
  %R10 = getelementptr inbounds %struct.State, %struct.State* %0, i64 0, i32 6, i32 21, i32 0, i32 0
  %3 = load i64, i64* %R9, align 8
  %4 = load i64, i64* %R10, align 8
  %5 = load i64, i64* %PC, align 8
  %6 = add i64 %5, 3
  store i64 %6, i64* %PC, align 8
  %7 = add i64 %4, %3
  store i64 %7, i64* %R9, align 8
  %8 = icmp ult i64 %7, %3
  %9 = icmp ult i64 %7, %4
  %10 = or i1 %8, %9
  %11 = zext i1 %10 to i8
  %12 = getelementptr inbounds %struct.State, %struct.State* %0, i64 0, i32 2, i32 1
  store i8 %11, i8* %12, align 1
  %13 = trunc i64 %7 to i32
  %14 = and i32 %13, 255
  %15 = tail call i32 @llvm.ctpop.i32(i32 %14)
  %16 = trunc i32 %15 to i8
  %17 = and i8 %16, 1
  %18 = xor i8 %17, 1
  %19 = getelementptr inbounds %struct.State, %struct.State* %0, i64 0, i32 2, i32 3
  store i8 %18, i8* %19, align 1
  %20 = xor i64 %4, %3
  %21 = xor i64 %20, %7
  %22 = lshr i64 %21, 4
  %23 = trunc i64 %22 to i8
  %24 = and i8 %23, 1
  %25 = getelementptr inbounds %struct.State, %struct.State* %0, i64 0, i32 2, i32 5
  store i8 %24, i8* %25, align 1
  %26 = icmp eq i64 %7, 0
  %27 = zext i1 %26 to i8
  %28 = getelementptr inbounds %struct.State, %struct.State* %0, i64 0, i32 2, i32 7
  store i8 %27, i8* %28, align 1
  %29 = lshr i64 %7, 63
  %30 = trunc i64 %29 to i8
  %31 = getelementptr inbounds %struct.State, %struct.State* %0, i64 0, i32 2, i32 9
  store i8 %30, i8* %31, align 1
  %32 = lshr i64 %3, 63
  %33 = lshr i64 %4, 63
  %34 = xor i64 %29, %32
  %35 = xor i64 %29, %33
  %36 = add nuw nsw i64 %34, %35
  %37 = icmp eq i64 %36, 2
  %38 = zext i1 %37 to i8
  %39 = getelementptr inbounds %struct.State, %struct.State* %0, i64 0, i32 2, i32 13
  store i8 %38, i8* %39, align 1
  ret %struct.Memory* %2
}

; Function Attrs: nounwind
define %struct.Memory* @routine_cmpl__0x1__0x40__r9_(%struct.State* nocapture dereferenceable(3376), i64, %struct.Memory* readnone returned) local_unnamed_addr #3 {
block_400488:
  %PC = getelementptr inbounds %struct.State, %struct.State* %0, i64 0, i32 6, i32 33, i32 0, i32 0
  %R9 = getelementptr inbounds %struct.State, %struct.State* %0, i64 0, i32 6, i32 19, i32 0, i32 0
  %3 = load i64, i64* %R9, align 8
  %4 = add i64 %3, 64
  %5 = load i64, i64* %PC, align 8
  %6 = add i64 %5, 5
  store i64 %6, i64* %PC, align 8
  %7 = inttoptr i64 %4 to i32*
  %8 = load i32, i32* %7, align 4
  %9 = add i32 %8, -1
  %10 = icmp eq i32 %8, 0
  %11 = zext i1 %10 to i8
  %12 = getelementptr inbounds %struct.State, %struct.State* %0, i64 0, i32 2, i32 1
  store i8 %11, i8* %12, align 1
  %13 = and i32 %9, 255
  %14 = tail call i32 @llvm.ctpop.i32(i32 %13)
  %15 = trunc i32 %14 to i8
  %16 = and i8 %15, 1
  %17 = xor i8 %16, 1
  %18 = getelementptr inbounds %struct.State, %struct.State* %0, i64 0, i32 2, i32 3
  store i8 %17, i8* %18, align 1
  %19 = xor i32 %9, %8
  %20 = lshr i32 %19, 4
  %21 = trunc i32 %20 to i8
  %22 = and i8 %21, 1
  %23 = getelementptr inbounds %struct.State, %struct.State* %0, i64 0, i32 2, i32 5
  store i8 %22, i8* %23, align 1
  %24 = icmp eq i32 %9, 0
  %25 = zext i1 %24 to i8
  %26 = getelementptr inbounds %struct.State, %struct.State* %0, i64 0, i32 2, i32 7
  store i8 %25, i8* %26, align 1
  %27 = lshr i32 %9, 31
  %28 = trunc i32 %27 to i8
  %29 = getelementptr inbounds %struct.State, %struct.State* %0, i64 0, i32 2, i32 9
  store i8 %28, i8* %29, align 1
  %30 = lshr i32 %8, 31
  %31 = xor i32 %27, %30
  %32 = add nuw nsw i32 %31, %30
  %33 = icmp eq i32 %32, 2
  %34 = zext i1 %33 to i8
  %35 = getelementptr inbounds %struct.State, %struct.State* %0, i64 0, i32 2, i32 13
  store i8 %34, i8* %35, align 1
  ret %struct.Memory* %2
}

; Function Attrs: norecurse nounwind
define %struct.Memory* @routine_movb__r8b__MINUS0x1d__rbp_(%struct.State* nocapture dereferenceable(3376), i64, %struct.Memory* readnone returned) local_unnamed_addr #2 {
block_400488:
  %PC = getelementptr inbounds %struct.State, %struct.State* %0, i64 0, i32 6, i32 33, i32 0, i32 0
  %3 = getelementptr inbounds %struct.State, %struct.State* %0, i64 0, i32 6, i32 17, i32 0
  %R8B = bitcast %union.anon* %3 to i8*
  %RBP = getelementptr inbounds %struct.State, %struct.State* %0, i64 0, i32 6, i32 15, i32 0, i32 0
  %4 = load i64, i64* %RBP, align 8
  %5 = add i64 %4, -29
  %6 = load i8, i8* %R8B, align 1
  %7 = load i64, i64* %PC, align 8
  %8 = add i64 %7, 4
  store i64 %8, i64* %PC, align 8
  %9 = inttoptr i64 %5 to i8*
  store i8 %6, i8* %9, align 1
  ret %struct.Memory* %2
}

; Function Attrs: norecurse nounwind
define %struct.Memory* @routine_jne_.L_4c8340(%struct.State* nocapture dereferenceable(3376), i64, %struct.Memory* readnone returned, i8* nocapture %BRANCH_TAKEN, i64 %rel_off1, i64 %rel_off2, i64 %rel_off3) local_unnamed_addr #2 {
block_400488:
  %PC = getelementptr inbounds %struct.State, %struct.State* %0, i64 0, i32 6, i32 33, i32 0, i32 0
  %3 = load i64, i64* %PC, align 8
  %4 = getelementptr inbounds %struct.State, %struct.State* %0, i64 0, i32 2, i32 7
  %5 = load i8, i8* %4, align 1
  %6 = icmp eq i8 %5, 0
  %7 = zext i1 %6 to i8
  store i8 %7, i8* %BRANCH_TAKEN, align 1
  %.v = select i1 %6, i64 %rel_off1, i64 %rel_off2
  %8 = add i64 %.v, %3
  store i64 %8, i64* %PC, align 8
  ret %struct.Memory* %2
}

; Function Attrs: nounwind
define %struct.Memory* @routine_xorl__esi___esi(%struct.State* nocapture dereferenceable(3376), i64, %struct.Memory* readnone returned) local_unnamed_addr #3 {
block_400488:
  %PC = getelementptr inbounds %struct.State, %struct.State* %0, i64 0, i32 6, i32 33, i32 0, i32 0
  %RSI = getelementptr inbounds %struct.State, %struct.State* %0, i64 0, i32 6, i32 9, i32 0, i32 0
  %3 = load i64, i64* %PC, align 8
  %4 = add i64 %3, 2
  store i64 %4, i64* %PC, align 8
  store i64 0, i64* %RSI, align 8
  %5 = getelementptr inbounds %struct.State, %struct.State* %0, i64 0, i32 2, i32 1
  store i8 0, i8* %5, align 1
  %6 = getelementptr inbounds %struct.State, %struct.State* %0, i64 0, i32 2, i32 3
  store i8 1, i8* %6, align 1
  %7 = getelementptr inbounds %struct.State, %struct.State* %0, i64 0, i32 2, i32 7
  store i8 1, i8* %7, align 1
  %8 = getelementptr inbounds %struct.State, %struct.State* %0, i64 0, i32 2, i32 9
  store i8 0, i8* %8, align 1
  %9 = getelementptr inbounds %struct.State, %struct.State* %0, i64 0, i32 2, i32 13
  store i8 0, i8* %9, align 1
  %10 = getelementptr inbounds %struct.State, %struct.State* %0, i64 0, i32 2, i32 5
  store i8 0, i8* %10, align 1
  ret %struct.Memory* %2
}

; Function Attrs: norecurse nounwind
define %struct.Memory* @routine_movl__0x2___edx(%struct.State* nocapture dereferenceable(3376), i64, %struct.Memory* readnone returned) local_unnamed_addr #2 {
block_400488:
  %PC = getelementptr inbounds %struct.State, %struct.State* %0, i64 0, i32 6, i32 33, i32 0, i32 0
  %RDX = getelementptr inbounds %struct.State, %struct.State* %0, i64 0, i32 6, i32 7, i32 0, i32 0
  %3 = load i64, i64* %PC, align 8
  %4 = add i64 %3, 5
  store i64 %4, i64* %PC, align 8
  store i64 2, i64* %RDX, align 8
  ret %struct.Memory* %2
}

; Function Attrs: norecurse nounwind
define %struct.Memory* @routine_movl_MINUS0xc__rbp____edi(%struct.State* nocapture dereferenceable(3376), i64, %struct.Memory* readnone returned) local_unnamed_addr #2 {
block_400488:
  %PC = getelementptr inbounds %struct.State, %struct.State* %0, i64 0, i32 6, i32 33, i32 0, i32 0
  %RDI = getelementptr inbounds %struct.State, %struct.State* %0, i64 0, i32 6, i32 11, i32 0, i32 0
  %RBP = getelementptr inbounds %struct.State, %struct.State* %0, i64 0, i32 6, i32 15, i32 0, i32 0
  %3 = load i64, i64* %RBP, align 8
  %4 = add i64 %3, -12
  %5 = load i64, i64* %PC, align 8
  %6 = add i64 %5, 3
  store i64 %6, i64* %PC, align 8
  %7 = inttoptr i64 %4 to i32*
  %8 = load i32, i32* %7, align 4
  %9 = zext i32 %8 to i64
  store i64 %9, i64* %RDI, align 8
  ret %struct.Memory* %2
}

; Function Attrs: norecurse nounwind
define %struct.Memory* @routine_movl_MINUS0x8__rbp____ecx(%struct.State* nocapture dereferenceable(3376), i64, %struct.Memory* readnone returned) local_unnamed_addr #2 {
block_400488:
  %PC = getelementptr inbounds %struct.State, %struct.State* %0, i64 0, i32 6, i32 33, i32 0, i32 0
  %RCX = getelementptr inbounds %struct.State, %struct.State* %0, i64 0, i32 6, i32 5, i32 0, i32 0
  %RBP = getelementptr inbounds %struct.State, %struct.State* %0, i64 0, i32 6, i32 15, i32 0, i32 0
  %3 = load i64, i64* %RBP, align 8
  %4 = add i64 %3, -8
  %5 = load i64, i64* %PC, align 8
  %6 = add i64 %5, 3
  store i64 %6, i64* %PC, align 8
  %7 = inttoptr i64 %4 to i32*
  %8 = load i32, i32* %7, align 4
  %9 = zext i32 %8 to i64
  store i64 %9, i64* %RCX, align 8
  ret %struct.Memory* %2
}

; Function Attrs: norecurse nounwind
define %struct.Memory* @routine_movl_MINUS0x14__rbp____r8d(%struct.State* nocapture dereferenceable(3376), i64, %struct.Memory* readnone returned) local_unnamed_addr #2 {
block_400488:
  %PC = getelementptr inbounds %struct.State, %struct.State* %0, i64 0, i32 6, i32 33, i32 0, i32 0
  %RBP = getelementptr inbounds %struct.State, %struct.State* %0, i64 0, i32 6, i32 15, i32 0, i32 0
  %3 = getelementptr inbounds %struct.State, %struct.State* %0, i64 0, i32 6, i32 17, i32 0, i32 0
  %4 = load i64, i64* %RBP, align 8
  %5 = add i64 %4, -20
  %6 = load i64, i64* %PC, align 8
  %7 = add i64 %6, 4
  store i64 %7, i64* %PC, align 8
  %8 = inttoptr i64 %5 to i32*
  %9 = load i32, i32* %8, align 4
  %10 = zext i32 %9 to i64
  store i64 %10, i64* %3, align 8
  ret %struct.Memory* %2
}

; Function Attrs: norecurse nounwind
define %struct.Memory* @routine_movl_MINUS0x8__rbp____r9d(%struct.State* nocapture dereferenceable(3376), i64, %struct.Memory* readnone returned) local_unnamed_addr #2 {
block_400488:
  %PC = getelementptr inbounds %struct.State, %struct.State* %0, i64 0, i32 6, i32 33, i32 0, i32 0
  %RBP = getelementptr inbounds %struct.State, %struct.State* %0, i64 0, i32 6, i32 15, i32 0, i32 0
  %3 = getelementptr inbounds %struct.State, %struct.State* %0, i64 0, i32 6, i32 19, i32 0, i32 0
  %4 = load i64, i64* %RBP, align 8
  %5 = add i64 %4, -8
  %6 = load i64, i64* %PC, align 8
  %7 = add i64 %6, 4
  store i64 %7, i64* %PC, align 8
  %8 = inttoptr i64 %5 to i32*
  %9 = load i32, i32* %8, align 4
  %10 = zext i32 %9 to i64
  store i64 %10, i64* %3, align 8
  ret %struct.Memory* %2
}

; Function Attrs: norecurse nounwind
define %struct.Memory* @routine_movl_MINUS0x18__rbp____eax(%struct.State* nocapture dereferenceable(3376), i64, %struct.Memory* readnone returned) local_unnamed_addr #2 {
block_400488:
  %PC = getelementptr inbounds %struct.State, %struct.State* %0, i64 0, i32 6, i32 33, i32 0, i32 0
  %RAX = getelementptr inbounds %struct.State, %struct.State* %0, i64 0, i32 6, i32 1, i32 0, i32 0
  %RBP = getelementptr inbounds %struct.State, %struct.State* %0, i64 0, i32 6, i32 15, i32 0, i32 0
  %3 = load i64, i64* %RBP, align 8
  %4 = add i64 %3, -24
  %5 = load i64, i64* %PC, align 8
  %6 = add i64 %5, 3
  store i64 %6, i64* %PC, align 8
  %7 = inttoptr i64 %4 to i32*
  %8 = load i32, i32* %7, align 4
  %9 = zext i32 %8 to i64
  store i64 %9, i64* %RAX, align 8
  ret %struct.Memory* %2
}

; Function Attrs: norecurse nounwind
define %struct.Memory* @routine_movl__eax____rsp_(%struct.State* nocapture dereferenceable(3376), i64, %struct.Memory* readnone returned) local_unnamed_addr #2 {
block_400488:
  %PC = getelementptr inbounds %struct.State, %struct.State* %0, i64 0, i32 6, i32 33, i32 0, i32 0
  %3 = getelementptr inbounds %struct.State, %struct.State* %0, i64 0, i32 6, i32 1, i32 0
  %EAX = bitcast %union.anon* %3 to i32*
  %RSP = getelementptr inbounds %struct.State, %struct.State* %0, i64 0, i32 6, i32 13, i32 0, i32 0
  %4 = bitcast i64* %RSP to i32**
  %5 = load i32*, i32** %4, align 8
  %6 = load i32, i32* %EAX, align 4
  %7 = load i64, i64* %PC, align 8
  %8 = add i64 %7, 3
  store i64 %8, i64* %PC, align 8
  store i32 %6, i32* %5, align 4
  ret %struct.Memory* %2
}

; Function Attrs: norecurse nounwind
define %struct.Memory* @routine_movb__0x0___al(%struct.State* nocapture dereferenceable(3376), i64, %struct.Memory* readnone returned) local_unnamed_addr #2 {
block_400488:
  %PC = getelementptr inbounds %struct.State, %struct.State* %0, i64 0, i32 6, i32 33, i32 0, i32 0
  %3 = getelementptr inbounds %struct.State, %struct.State* %0, i64 0, i32 6, i32 1, i32 0
  %AL = bitcast %union.anon* %3 to i8*
  %4 = load i64, i64* %PC, align 8
  %5 = add i64 %4, 2
  store i64 %5, i64* %PC, align 8
  store i8 0, i8* %AL, align 1
  ret %struct.Memory* %2
}

; Function Attrs: norecurse nounwind
define %struct.Memory* @routine_callq_.play_attack_defend2_n(%struct.State* nocapture dereferenceable(3376), i64, %struct.Memory* readnone returned, i64 %rel_off1, i64 %rel_off2, i64 %rel_off3) local_unnamed_addr #2 {
block_400488:
  %PC = getelementptr inbounds %struct.State, %struct.State* %0, i64 0, i32 6, i32 33, i32 0, i32 0
  %3 = load i64, i64* %PC, align 8
  %4 = add i64 %3, %rel_off1
  %5 = add i64 %3, %rel_off2
  %6 = getelementptr inbounds %struct.State, %struct.State* %0, i64 0, i32 6, i32 13, i32 0, i32 0
  %7 = load i64, i64* %6, align 8
  %8 = add i64 %7, -8
  %9 = inttoptr i64 %8 to i64*
  store i64 %5, i64* %9, align 8
  store i64 %8, i64* %6, align 8
  store i64 %4, i64* %PC, align 8
  ret %struct.Memory* %2
}

; Function Attrs: nounwind
define %struct.Memory* @routine_cmpl__0x0___eax(%struct.State* nocapture dereferenceable(3376), i64, %struct.Memory* readnone returned) local_unnamed_addr #3 {
block_400488:
  %PC = getelementptr inbounds %struct.State, %struct.State* %0, i64 0, i32 6, i32 33, i32 0, i32 0
  %3 = getelementptr inbounds %struct.State, %struct.State* %0, i64 0, i32 6, i32 1, i32 0
  %EAX = bitcast %union.anon* %3 to i32*
  %4 = load i32, i32* %EAX, align 4
  %5 = load i64, i64* %PC, align 8
  %6 = add i64 %5, 3
  store i64 %6, i64* %PC, align 8
  %7 = getelementptr inbounds %struct.State, %struct.State* %0, i64 0, i32 2, i32 1
  store i8 0, i8* %7, align 1
  %8 = and i32 %4, 255
  %9 = tail call i32 @llvm.ctpop.i32(i32 %8)
  %10 = trunc i32 %9 to i8
  %11 = and i8 %10, 1
  %12 = xor i8 %11, 1
  %13 = getelementptr inbounds %struct.State, %struct.State* %0, i64 0, i32 2, i32 3
  store i8 %12, i8* %13, align 1
  %14 = getelementptr inbounds %struct.State, %struct.State* %0, i64 0, i32 2, i32 5
  store i8 0, i8* %14, align 1
  %15 = icmp eq i32 %4, 0
  %16 = zext i1 %15 to i8
  %17 = getelementptr inbounds %struct.State, %struct.State* %0, i64 0, i32 2, i32 7
  store i8 %16, i8* %17, align 1
  %18 = lshr i32 %4, 31
  %19 = trunc i32 %18 to i8
  %20 = getelementptr inbounds %struct.State, %struct.State* %0, i64 0, i32 2, i32 9
  store i8 %19, i8* %20, align 1
  %21 = getelementptr inbounds %struct.State, %struct.State* %0, i64 0, i32 2, i32 13
  store i8 0, i8* %21, align 1
  ret %struct.Memory* %2
}

; Function Attrs: norecurse nounwind
define %struct.Memory* @routine_setne__r10b(%struct.State* nocapture dereferenceable(3376), i64, %struct.Memory* readnone returned) local_unnamed_addr #2 {
block_400488:
  %PC = getelementptr inbounds %struct.State, %struct.State* %0, i64 0, i32 6, i32 33, i32 0, i32 0
  %3 = getelementptr inbounds %struct.State, %struct.State* %0, i64 0, i32 6, i32 21, i32 0
  %R10B = bitcast %union.anon* %3 to i8*
  %4 = load i64, i64* %PC, align 8
  %5 = add i64 %4, 4
  store i64 %5, i64* %PC, align 8
  %6 = getelementptr inbounds %struct.State, %struct.State* %0, i64 0, i32 2, i32 7
  %7 = load i8, i8* %6, align 1
  %8 = icmp eq i8 %7, 0
  %9 = zext i1 %8 to i8
  store i8 %9, i8* %R10B, align 1
  ret %struct.Memory* %2
}

; Function Attrs: norecurse nounwind
define %struct.Memory* @routine_movb__r10b__MINUS0x1d__rbp_(%struct.State* nocapture dereferenceable(3376), i64, %struct.Memory* readnone returned) local_unnamed_addr #2 {
block_400488:
  %PC = getelementptr inbounds %struct.State, %struct.State* %0, i64 0, i32 6, i32 33, i32 0, i32 0
  %3 = getelementptr inbounds %struct.State, %struct.State* %0, i64 0, i32 6, i32 21, i32 0
  %R10B = bitcast %union.anon* %3 to i8*
  %RBP = getelementptr inbounds %struct.State, %struct.State* %0, i64 0, i32 6, i32 15, i32 0, i32 0
  %4 = load i64, i64* %RBP, align 8
  %5 = add i64 %4, -29
  %6 = load i8, i8* %R10B, align 1
  %7 = load i64, i64* %PC, align 8
  %8 = add i64 %7, 4
  store i64 %8, i64* %PC, align 8
  %9 = inttoptr i64 %5 to i8*
  store i8 %6, i8* %9, align 1
  ret %struct.Memory* %2
}

; Function Attrs: norecurse nounwind
define %struct.Memory* @routine_movb_MINUS0x1d__rbp____al(%struct.State* nocapture dereferenceable(3376), i64, %struct.Memory* readnone returned) local_unnamed_addr #2 {
block_400488:
  %PC = getelementptr inbounds %struct.State, %struct.State* %0, i64 0, i32 6, i32 33, i32 0, i32 0
  %3 = getelementptr inbounds %struct.State, %struct.State* %0, i64 0, i32 6, i32 1, i32 0
  %AL = bitcast %union.anon* %3 to i8*
  %RBP = getelementptr inbounds %struct.State, %struct.State* %0, i64 0, i32 6, i32 15, i32 0, i32 0
  %4 = load i64, i64* %RBP, align 8
  %5 = add i64 %4, -29
  %6 = load i64, i64* %PC, align 8
  %7 = add i64 %6, 3
  store i64 %7, i64* %PC, align 8
  %8 = inttoptr i64 %5 to i8*
  %9 = load i8, i8* %8, align 1
  store i8 %9, i8* %AL, align 1
  ret %struct.Memory* %2
}

; Function Attrs: nounwind
define %struct.Memory* @routine_andb__0x1___al(%struct.State* nocapture dereferenceable(3376), i64, %struct.Memory* readnone returned) local_unnamed_addr #3 {
block_400488:
  %PC = getelementptr inbounds %struct.State, %struct.State* %0, i64 0, i32 6, i32 33, i32 0, i32 0
  %3 = getelementptr inbounds %struct.State, %struct.State* %0, i64 0, i32 6, i32 1, i32 0
  %AL = bitcast %union.anon* %3 to i8*
  %4 = load i8, i8* %AL, align 1
  %5 = load i64, i64* %PC, align 8
  %6 = add i64 %5, 2
  store i64 %6, i64* %PC, align 8
  %7 = and i8 %4, 1
  store i8 %7, i8* %AL, align 1
  %8 = getelementptr inbounds %struct.State, %struct.State* %0, i64 0, i32 2, i32 1
  store i8 0, i8* %8, align 1
  %9 = zext i8 %7 to i32
  %10 = tail call i32 @llvm.ctpop.i32(i32 %9)
  %11 = trunc i32 %10 to i8
  %12 = xor i8 %11, 1
  %13 = getelementptr inbounds %struct.State, %struct.State* %0, i64 0, i32 2, i32 3
  store i8 %12, i8* %13, align 1
  %14 = xor i8 %7, 1
  %15 = getelementptr inbounds %struct.State, %struct.State* %0, i64 0, i32 2, i32 7
  store i8 %14, i8* %15, align 1
  %16 = getelementptr inbounds %struct.State, %struct.State* %0, i64 0, i32 2, i32 9
  store i8 0, i8* %16, align 1
  %17 = getelementptr inbounds %struct.State, %struct.State* %0, i64 0, i32 2, i32 13
  store i8 0, i8* %17, align 1
  %18 = getelementptr inbounds %struct.State, %struct.State* %0, i64 0, i32 2, i32 5
  store i8 0, i8* %18, align 1
  ret %struct.Memory* %2
}

; Function Attrs: norecurse nounwind
define %struct.Memory* @routine_movzbl__al___eax(%struct.State* nocapture dereferenceable(3376), i64, %struct.Memory* readnone returned) local_unnamed_addr #2 {
block_400488:
  %PC = getelementptr inbounds %struct.State, %struct.State* %0, i64 0, i32 6, i32 33, i32 0, i32 0
  %3 = getelementptr inbounds %struct.State, %struct.State* %0, i64 0, i32 6, i32 1, i32 0
  %AL = bitcast %union.anon* %3 to i8*
  %RAX = getelementptr inbounds %union.anon, %union.anon* %3, i64 0, i32 0
  %4 = load i8, i8* %AL, align 1
  %5 = zext i8 %4 to i64
  %6 = load i64, i64* %PC, align 8
  %7 = add i64 %6, 3
  store i64 %7, i64* %PC, align 8
  store i64 %5, i64* %RAX, align 8
  ret %struct.Memory* %2
}

; Function Attrs: nounwind
define %struct.Memory* @routine_addq__0x30___rsp(%struct.State* nocapture dereferenceable(3376), i64, %struct.Memory* readnone returned) local_unnamed_addr #3 {
block_400488:
  %PC = getelementptr inbounds %struct.State, %struct.State* %0, i64 0, i32 6, i32 33, i32 0, i32 0
  %RSP = getelementptr inbounds %struct.State, %struct.State* %0, i64 0, i32 6, i32 13, i32 0, i32 0
  %3 = load i64, i64* %RSP, align 8
  %4 = load i64, i64* %PC, align 8
  %5 = add i64 %4, 4
  store i64 %5, i64* %PC, align 8
  %6 = add i64 %3, 48
  store i64 %6, i64* %RSP, align 8
  %7 = icmp ugt i64 %3, -49
  %8 = zext i1 %7 to i8
  %9 = getelementptr inbounds %struct.State, %struct.State* %0, i64 0, i32 2, i32 1
  store i8 %8, i8* %9, align 1
  %10 = trunc i64 %6 to i32
  %11 = and i32 %10, 255
  %12 = tail call i32 @llvm.ctpop.i32(i32 %11)
  %13 = trunc i32 %12 to i8
  %14 = and i8 %13, 1
  %15 = xor i8 %14, 1
  %16 = getelementptr inbounds %struct.State, %struct.State* %0, i64 0, i32 2, i32 3
  store i8 %15, i8* %16, align 1
  %17 = xor i64 %3, 16
  %18 = xor i64 %17, %6
  %19 = lshr i64 %18, 4
  %20 = trunc i64 %19 to i8
  %21 = and i8 %20, 1
  %22 = getelementptr inbounds %struct.State, %struct.State* %0, i64 0, i32 2, i32 5
  store i8 %21, i8* %22, align 1
  %23 = icmp eq i64 %6, 0
  %24 = zext i1 %23 to i8
  %25 = getelementptr inbounds %struct.State, %struct.State* %0, i64 0, i32 2, i32 7
  store i8 %24, i8* %25, align 1
  %26 = lshr i64 %6, 63
  %27 = trunc i64 %26 to i8
  %28 = getelementptr inbounds %struct.State, %struct.State* %0, i64 0, i32 2, i32 9
  store i8 %27, i8* %28, align 1
  %29 = lshr i64 %3, 63
  %30 = xor i64 %26, %29
  %31 = add nuw nsw i64 %30, %26
  %32 = icmp eq i64 %31, 2
  %33 = zext i1 %32 to i8
  %34 = getelementptr inbounds %struct.State, %struct.State* %0, i64 0, i32 2, i32 13
  store i8 %33, i8* %34, align 1
  ret %struct.Memory* %2
}

; Function Attrs: norecurse nounwind
define %struct.Memory* @routine_popq__rbp(%struct.State* nocapture dereferenceable(3376), i64, %struct.Memory* readnone returned) local_unnamed_addr #2 {
block_400488:
  %PC = getelementptr inbounds %struct.State, %struct.State* %0, i64 0, i32 6, i32 33, i32 0, i32 0
  %RBP = getelementptr inbounds %struct.State, %struct.State* %0, i64 0, i32 6, i32 15, i32 0, i32 0
  %3 = load i64, i64* %PC, align 8
  %4 = add i64 %3, 1
  store i64 %4, i64* %PC, align 8
  %5 = getelementptr inbounds %struct.State, %struct.State* %0, i64 0, i32 6, i32 13, i32 0, i32 0
  %6 = load i64, i64* %5, align 8
  %7 = add i64 %6, 8
  %8 = inttoptr i64 %6 to i64*
  %9 = load i64, i64* %8, align 8
  store i64 %9, i64* %RBP, align 8
  store i64 %7, i64* %5, align 8
  ret %struct.Memory* %2
}

; Function Attrs: norecurse nounwind
define %struct.Memory* @routine_retq(%struct.State* nocapture dereferenceable(3376), i64, %struct.Memory* readnone returned) local_unnamed_addr #2 {
block_400488:
  %PC = getelementptr inbounds %struct.State, %struct.State* %0, i64 0, i32 6, i32 33, i32 0, i32 0
  %3 = load i64, i64* %PC, align 8
  %4 = add i64 %3, 1
  store i64 %4, i64* %PC, align 8
  %5 = getelementptr inbounds %struct.State, %struct.State* %0, i64 0, i32 6, i32 13, i32 0, i32 0
  %6 = load i64, i64* %5, align 8
  %7 = inttoptr i64 %6 to i64*
  %8 = load i64, i64* %7, align 8
  store i64 %8, i64* %PC, align 8
  %9 = add i64 %6, 8
  store i64 %9, i64* %5, align 8
  ret %struct.Memory* %2
}

attributes #0 = { nounwind readnone }
attributes #1 = { alwaysinline }
attributes #2 = { norecurse nounwind }
attributes #3 = { nounwind }
