; ModuleID = 'mcsema/test.proposed.inline.ll'
source_filename = "llvm-link"
target datalayout = "e-m:e-i64:64-f80:128-n8:16:32:64-S128"
target triple = "x86_64-pc-linux-gnu-elf"

%__bss_start_type = type <{ [8 x i8] }>
%struct.State = type { %struct.ArchState, [32 x %union.VectorReg], %struct.ArithFlags, %union.anon, %struct.Segments, %struct.AddressSpace, %struct.GPR, %struct.X87Stack, %struct.MMX, %struct.FPUStatusFlags, %union.anon, %union.FPU, %struct.SegmentCaches }
%struct.ArchState = type { i32, i32, %union.anon }
%union.VectorReg = type { %union.vec512_t }
%union.vec512_t = type { %struct.uint64v8_t }
%struct.uint64v8_t = type { [8 x i64] }
%struct.ArithFlags = type { i8, i8, i8, i8, i8, i8, i8, i8, i8, i8, i8, i8, i8, i8, i8, i8 }
%struct.Segments = type { i16, %union.SegmentSelector, i16, %union.SegmentSelector, i16, %union.SegmentSelector, i16, %union.SegmentSelector, i16, %union.SegmentSelector, i16, %union.SegmentSelector }
%union.SegmentSelector = type { i16 }
%struct.AddressSpace = type { i64, %struct.Reg, i64, %struct.Reg, i64, %struct.Reg, i64, %struct.Reg, i64, %struct.Reg, i64, %struct.Reg }
%struct.Reg = type { %union.anon }
%struct.GPR = type { i64, %struct.Reg, i64, %struct.Reg, i64, %struct.Reg, i64, %struct.Reg, i64, %struct.Reg, i64, %struct.Reg, i64, %struct.Reg, i64, %struct.Reg, i64, %struct.Reg, i64, %struct.Reg, i64, %struct.Reg, i64, %struct.Reg, i64, %struct.Reg, i64, %struct.Reg, i64, %struct.Reg, i64, %struct.Reg, i64, %struct.Reg }
%struct.X87Stack = type { [8 x %struct.anon.3] }
%struct.anon.3 = type { i64, double }
%struct.MMX = type { [8 x %struct.anon.4] }
%struct.anon.4 = type { i64, %union.vec64_t }
%union.vec64_t = type { %struct.uint64v1_t }
%struct.uint64v1_t = type { [1 x i64] }
%struct.FPUStatusFlags = type { i8, i8, i8, i8, i8, i8, i8, i8, i8, i8, i8, i8, i8, i8, i8, i8, i8, i8, i8, i8, [4 x i8] }
%union.anon = type { i64 }
%union.FPU = type { %struct.anon.13 }
%struct.anon.13 = type { %struct.FpuFXSAVE, [96 x i8] }
%struct.FpuFXSAVE = type { %union.SegmentSelector, %union.SegmentSelector, %union.FPUAbridgedTagWord, i8, i16, i32, %union.SegmentSelector, i16, i32, %union.SegmentSelector, i16, %union.FPUControlStatus, %union.FPUControlStatus, [8 x %struct.FPUStackElem], [16 x %union.vec128_t] }
%union.FPUAbridgedTagWord = type { i8 }
%union.FPUControlStatus = type { i32 }
%struct.FPUStackElem = type { %union.anon.11, [6 x i8] }
%union.anon.11 = type { %struct.float80_t }
%struct.float80_t = type { [10 x i8] }
%union.vec128_t = type { %struct.uint128v1_t }
%struct.uint128v1_t = type { [1 x i128] }
%struct.SegmentCaches = type { %struct.SegmentShadow, %struct.SegmentShadow, %struct.SegmentShadow, %struct.SegmentShadow, %struct.SegmentShadow, %struct.SegmentShadow }
%struct.SegmentShadow = type { %union.anon, i32, i32 }
%struct.Memory = type opaque

@__bss_start = local_unnamed_addr global %__bss_start_type zeroinitializer

; Function Attrs: nounwind readnone
declare i32 @llvm.ctpop.i32(i32) #0

; Function Attrs: alwaysinline nounwind
define %struct.Memory* @FAdd(%struct.State* noalias, i64, %struct.Memory* noalias readnone returned) local_unnamed_addr #1 {
entry:
  %3 = getelementptr inbounds %struct.State, %struct.State* %0, i64 0, i32 6, i32 33, i32 0, i32 0
  %RBP.i = getelementptr inbounds %struct.State, %struct.State* %0, i64 0, i32 6, i32 15, i32 0, i32 0
  %4 = load i64, i64* %RBP.i, align 8
  %5 = add i64 %1, 1
  store i64 %5, i64* %3, align 8
  %6 = getelementptr inbounds %struct.State, %struct.State* %0, i64 0, i32 6, i32 13, i32 0, i32 0
  %7 = load i64, i64* %6, align 8
  %8 = add i64 %7, -8
  %9 = inttoptr i64 %8 to i64*
  store i64 %4, i64* %9, align 8
  store i64 %8, i64* %6, align 8
  %10 = load i64, i64* %3, align 8
  store i64 %8, i64* %RBP.i, align 8
  %RDI.i = getelementptr inbounds %struct.State, %struct.State* %0, i64 0, i32 6, i32 11, i32 0, i32 0
  %11 = add i64 %7, -16
  %12 = load i64, i64* %RDI.i, align 8
  %13 = add i64 %10, 7
  store i64 %13, i64* %3, align 8
  %14 = inttoptr i64 %11 to i64*
  store i64 %12, i64* %14, align 8
  %RSI.i = getelementptr inbounds %struct.State, %struct.State* %0, i64 0, i32 6, i32 9, i32 0, i32 0
  %15 = load i64, i64* %RBP.i, align 8
  %16 = add i64 %15, -16
  %17 = load i64, i64* %RSI.i, align 8
  %18 = load i64, i64* %3, align 8
  %19 = add i64 %18, 4
  store i64 %19, i64* %3, align 8
  %20 = inttoptr i64 %16 to i64*
  store i64 %17, i64* %20, align 8
  %21 = getelementptr inbounds %struct.State, %struct.State* %0, i64 0, i32 6, i32 7, i32 0
  %EDX.i = bitcast %union.anon* %21 to i32*
  %22 = load i64, i64* %RBP.i, align 8
  %23 = add i64 %22, -20
  %24 = load i32, i32* %EDX.i, align 4
  %25 = load i64, i64* %3, align 8
  %26 = add i64 %25, 3
  store i64 %26, i64* %3, align 8
  %27 = inttoptr i64 %23 to i32*
  store i32 %24, i32* %27, align 4
  %28 = load i64, i64* %RBP.i, align 8
  %29 = add i64 %28, -24
  %30 = load i64, i64* %3, align 8
  %31 = add i64 %30, 7
  store i64 %31, i64* %3, align 8
  %32 = inttoptr i64 %29 to i32*
  store i32 0, i32* %32, align 4
  %RAX.i37 = getelementptr inbounds %struct.State, %struct.State* %0, i64 0, i32 6, i32 1, i32 0, i32 0
  %33 = getelementptr inbounds %struct.State, %struct.State* %0, i64 0, i32 2, i32 1
  %34 = getelementptr inbounds %struct.State, %struct.State* %0, i64 0, i32 2, i32 3
  %35 = getelementptr inbounds %struct.State, %struct.State* %0, i64 0, i32 2, i32 5
  %36 = getelementptr inbounds %struct.State, %struct.State* %0, i64 0, i32 2, i32 7
  %37 = getelementptr inbounds %struct.State, %struct.State* %0, i64 0, i32 2, i32 9
  %38 = getelementptr inbounds %struct.State, %struct.State* %0, i64 0, i32 2, i32 13
  %RCX.i27 = getelementptr inbounds %struct.State, %struct.State* %0, i64 0, i32 6, i32 5, i32 0, i32 0
  %39 = getelementptr inbounds %struct.State, %struct.State* %0, i64 0, i32 1, i64 0
  %40 = bitcast %union.VectorReg* %39 to i8*
  %41 = bitcast %union.VectorReg* %39 to float*
  %42 = bitcast %union.VectorReg* %39 to i32*
  %43 = getelementptr inbounds i8, i8* %40, i64 4
  %44 = bitcast i8* %43 to float*
  %45 = getelementptr inbounds %struct.State, %struct.State* %0, i64 0, i32 1, i64 0, i32 0, i32 0, i32 0, i64 1
  %46 = bitcast i64* %45 to float*
  %47 = getelementptr inbounds i8, i8* %40, i64 12
  %48 = bitcast i8* %47 to float*
  %49 = bitcast %union.VectorReg* %39 to <2 x float>*
  %50 = bitcast i64* %45 to <2 x i32>*
  %51 = bitcast i8* %43 to i32*
  %52 = bitcast i64* %45 to i32*
  %53 = bitcast i8* %47 to i32*
  %.pre = load i64, i64* %3, align 8
  br label %block_.L_452166

block_.L_452166:                                  ; preds = %block_452172, %entry
  %54 = phi i64 [ %158, %block_452172 ], [ %.pre, %entry ]
  %55 = load i64, i64* %RBP.i, align 8
  %56 = add i64 %55, -24
  %57 = add i64 %54, 3
  store i64 %57, i64* %3, align 8
  %58 = inttoptr i64 %56 to i32*
  %59 = load i32, i32* %58, align 4
  %60 = zext i32 %59 to i64
  store i64 %60, i64* %RAX.i37, align 8
  %61 = add i64 %55, -20
  %62 = add i64 %54, 6
  store i64 %62, i64* %3, align 8
  %63 = inttoptr i64 %61 to i32*
  %64 = load i32, i32* %63, align 4
  %65 = sub i32 %59, %64
  %66 = icmp ult i32 %59, %64
  %67 = zext i1 %66 to i8
  store i8 %67, i8* %33, align 1
  %68 = and i32 %65, 255
  %69 = tail call i32 @llvm.ctpop.i32(i32 %68)
  %70 = trunc i32 %69 to i8
  %71 = and i8 %70, 1
  %72 = xor i8 %71, 1
  store i8 %72, i8* %34, align 1
  %73 = xor i32 %64, %59
  %74 = xor i32 %73, %65
  %75 = lshr i32 %74, 4
  %76 = trunc i32 %75 to i8
  %77 = and i8 %76, 1
  store i8 %77, i8* %35, align 1
  %78 = icmp eq i32 %65, 0
  %79 = zext i1 %78 to i8
  store i8 %79, i8* %36, align 1
  %80 = lshr i32 %65, 31
  %81 = trunc i32 %80 to i8
  store i8 %81, i8* %37, align 1
  %82 = lshr i32 %59, 31
  %83 = lshr i32 %64, 31
  %84 = xor i32 %83, %82
  %85 = xor i32 %80, %82
  %86 = add nuw nsw i32 %85, %84
  %87 = icmp eq i32 %86, 2
  %88 = zext i1 %87 to i8
  store i8 %88, i8* %38, align 1
  %89 = icmp ne i8 %81, 0
  %90 = xor i1 %89, %87
  %.v = select i1 %90, i64 12, i64 57
  %91 = add i64 %54, %.v
  store i64 %91, i64* %3, align 8
  br i1 %90, label %block_452172, label %block_.L_45219f

block_452172:                                     ; preds = %block_.L_452166
  %92 = add i64 %55, -16
  %93 = add i64 %91, 4
  store i64 %93, i64* %3, align 8
  %94 = inttoptr i64 %92 to i64*
  %95 = load i64, i64* %94, align 8
  store i64 %95, i64* %RAX.i37, align 8
  %96 = add i64 %91, 8
  store i64 %96, i64* %3, align 8
  %97 = load i32, i32* %58, align 4
  %98 = sext i32 %97 to i64
  store i64 %98, i64* %RCX.i27, align 8
  %99 = shl nsw i64 %98, 2
  %100 = add i64 %99, %95
  %101 = add i64 %91, 13
  store i64 %101, i64* %3, align 8
  %102 = inttoptr i64 %100 to i32*
  %103 = load i32, i32* %102, align 4
  store i32 %103, i32* %42, align 1
  store float 0.000000e+00, float* %44, align 1
  store float 0.000000e+00, float* %46, align 1
  store float 0.000000e+00, float* %48, align 1
  %104 = add i64 %55, -8
  %105 = add i64 %91, 17
  store i64 %105, i64* %3, align 8
  %106 = inttoptr i64 %104 to i64*
  %107 = load i64, i64* %106, align 8
  store i64 %107, i64* %RAX.i37, align 8
  %108 = add i64 %91, 21
  store i64 %108, i64* %3, align 8
  %109 = load i32, i32* %58, align 4
  %110 = sext i32 %109 to i64
  store i64 %110, i64* %RCX.i27, align 8
  %111 = shl nsw i64 %110, 2
  %112 = add i64 %111, %107
  %113 = add i64 %91, 26
  store i64 %113, i64* %3, align 8
  %114 = load <2 x float>, <2 x float>* %49, align 1
  %115 = load <2 x i32>, <2 x i32>* %50, align 1
  %116 = inttoptr i64 %112 to float*
  %117 = load float, float* %116, align 4
  %118 = extractelement <2 x float> %114, i32 0
  %119 = fadd float %118, %117
  store float %119, float* %41, align 1
  %120 = bitcast <2 x float> %114 to <2 x i32>
  %121 = extractelement <2 x i32> %120, i32 1
  store i32 %121, i32* %51, align 1
  %122 = extractelement <2 x i32> %115, i32 0
  store i32 %122, i32* %52, align 1
  %123 = extractelement <2 x i32> %115, i32 1
  store i32 %123, i32* %53, align 1
  %124 = add i64 %91, 31
  store i64 %124, i64* %3, align 8
  %125 = load <2 x float>, <2 x float>* %49, align 1
  %126 = extractelement <2 x float> %125, i32 0
  store float %126, float* %116, align 4
  %127 = load i64, i64* %RBP.i, align 8
  %128 = add i64 %127, -24
  %129 = load i64, i64* %3, align 8
  %130 = add i64 %129, 3
  store i64 %130, i64* %3, align 8
  %131 = inttoptr i64 %128 to i32*
  %132 = load i32, i32* %131, align 4
  %133 = add i32 %132, 1
  %134 = zext i32 %133 to i64
  store i64 %134, i64* %RAX.i37, align 8
  %135 = icmp eq i32 %132, -1
  %136 = icmp eq i32 %133, 0
  %137 = or i1 %135, %136
  %138 = zext i1 %137 to i8
  store i8 %138, i8* %33, align 1
  %139 = and i32 %133, 255
  %140 = tail call i32 @llvm.ctpop.i32(i32 %139)
  %141 = trunc i32 %140 to i8
  %142 = and i8 %141, 1
  %143 = xor i8 %142, 1
  store i8 %143, i8* %34, align 1
  %144 = xor i32 %133, %132
  %145 = lshr i32 %144, 4
  %146 = trunc i32 %145 to i8
  %147 = and i8 %146, 1
  store i8 %147, i8* %35, align 1
  %148 = zext i1 %136 to i8
  store i8 %148, i8* %36, align 1
  %149 = lshr i32 %133, 31
  %150 = trunc i32 %149 to i8
  store i8 %150, i8* %37, align 1
  %151 = lshr i32 %132, 31
  %152 = xor i32 %149, %151
  %153 = add nuw nsw i32 %152, %149
  %154 = icmp eq i32 %153, 2
  %155 = zext i1 %154 to i8
  store i8 %155, i8* %38, align 1
  %156 = add i64 %129, 9
  store i64 %156, i64* %3, align 8
  store i32 %133, i32* %131, align 4
  %157 = load i64, i64* %3, align 8
  %158 = add i64 %157, -52
  store i64 %158, i64* %3, align 8
  br label %block_.L_452166

block_.L_45219f:                                  ; preds = %block_.L_452166
  %159 = add i64 %91, 1
  store i64 %159, i64* %3, align 8
  %160 = load i64, i64* %6, align 8
  %161 = add i64 %160, 8
  %162 = inttoptr i64 %160 to i64*
  %163 = load i64, i64* %162, align 8
  store i64 %163, i64* %RBP.i, align 8
  store i64 %161, i64* %6, align 8
  %164 = add i64 %91, 2
  store i64 %164, i64* %3, align 8
  %165 = inttoptr i64 %161 to i64*
  %166 = load i64, i64* %165, align 8
  store i64 %166, i64* %3, align 8
  %167 = add i64 %160, 16
  store i64 %167, i64* %6, align 8
  ret %struct.Memory* %2
}

; Function Attrs: norecurse nounwind
define %struct.Memory* @routine_pushq__rbp(%struct.State* nocapture dereferenceable(3376), i64, %struct.Memory* readnone returned) local_unnamed_addr #2 {
block_400488:
  %PC = getelementptr inbounds %struct.State, %struct.State* %0, i64 0, i32 6, i32 33, i32 0, i32 0
  %RBP = getelementptr inbounds %struct.State, %struct.State* %0, i64 0, i32 6, i32 15, i32 0, i32 0
  %3 = load i64, i64* %RBP, align 8
  %4 = load i64, i64* %PC, align 8
  %5 = add i64 %4, 1
  store i64 %5, i64* %PC, align 8
  %6 = getelementptr inbounds %struct.State, %struct.State* %0, i64 0, i32 6, i32 13, i32 0, i32 0
  %7 = load i64, i64* %6, align 8
  %8 = add i64 %7, -8
  %9 = inttoptr i64 %8 to i64*
  store i64 %3, i64* %9, align 8
  store i64 %8, i64* %6, align 8
  ret %struct.Memory* %2
}

; Function Attrs: norecurse nounwind
define %struct.Memory* @routine_movq__rsp___rbp(%struct.State* nocapture dereferenceable(3376), i64, %struct.Memory* readnone returned) local_unnamed_addr #2 {
block_400488:
  %PC = getelementptr inbounds %struct.State, %struct.State* %0, i64 0, i32 6, i32 33, i32 0, i32 0
  %RSP = getelementptr inbounds %struct.State, %struct.State* %0, i64 0, i32 6, i32 13, i32 0, i32 0
  %RBP = getelementptr inbounds %struct.State, %struct.State* %0, i64 0, i32 6, i32 15, i32 0, i32 0
  %3 = load i64, i64* %RSP, align 8
  %4 = load i64, i64* %PC, align 8
  %5 = add i64 %4, 3
  store i64 %5, i64* %PC, align 8
  store i64 %3, i64* %RBP, align 8
  ret %struct.Memory* %2
}

; Function Attrs: norecurse nounwind
define %struct.Memory* @routine_movq__rdi__MINUS0x8__rbp_(%struct.State* nocapture dereferenceable(3376), i64, %struct.Memory* readnone returned) local_unnamed_addr #2 {
block_400488:
  %PC = getelementptr inbounds %struct.State, %struct.State* %0, i64 0, i32 6, i32 33, i32 0, i32 0
  %RDI = getelementptr inbounds %struct.State, %struct.State* %0, i64 0, i32 6, i32 11, i32 0, i32 0
  %RBP = getelementptr inbounds %struct.State, %struct.State* %0, i64 0, i32 6, i32 15, i32 0, i32 0
  %3 = load i64, i64* %RBP, align 8
  %4 = add i64 %3, -8
  %5 = load i64, i64* %RDI, align 8
  %6 = load i64, i64* %PC, align 8
  %7 = add i64 %6, 4
  store i64 %7, i64* %PC, align 8
  %8 = inttoptr i64 %4 to i64*
  store i64 %5, i64* %8, align 8
  ret %struct.Memory* %2
}

; Function Attrs: norecurse nounwind
define %struct.Memory* @routine_movq__rsi__MINUS0x10__rbp_(%struct.State* nocapture dereferenceable(3376), i64, %struct.Memory* readnone returned) local_unnamed_addr #2 {
block_400488:
  %PC = getelementptr inbounds %struct.State, %struct.State* %0, i64 0, i32 6, i32 33, i32 0, i32 0
  %RSI = getelementptr inbounds %struct.State, %struct.State* %0, i64 0, i32 6, i32 9, i32 0, i32 0
  %RBP = getelementptr inbounds %struct.State, %struct.State* %0, i64 0, i32 6, i32 15, i32 0, i32 0
  %3 = load i64, i64* %RBP, align 8
  %4 = add i64 %3, -16
  %5 = load i64, i64* %RSI, align 8
  %6 = load i64, i64* %PC, align 8
  %7 = add i64 %6, 4
  store i64 %7, i64* %PC, align 8
  %8 = inttoptr i64 %4 to i64*
  store i64 %5, i64* %8, align 8
  ret %struct.Memory* %2
}

; Function Attrs: norecurse nounwind
define %struct.Memory* @routine_movl__edx__MINUS0x14__rbp_(%struct.State* nocapture dereferenceable(3376), i64, %struct.Memory* readnone returned) local_unnamed_addr #2 {
block_400488:
  %PC = getelementptr inbounds %struct.State, %struct.State* %0, i64 0, i32 6, i32 33, i32 0, i32 0
  %3 = getelementptr inbounds %struct.State, %struct.State* %0, i64 0, i32 6, i32 7, i32 0
  %EDX = bitcast %union.anon* %3 to i32*
  %RBP = getelementptr inbounds %struct.State, %struct.State* %0, i64 0, i32 6, i32 15, i32 0, i32 0
  %4 = load i64, i64* %RBP, align 8
  %5 = add i64 %4, -20
  %6 = load i32, i32* %EDX, align 4
  %7 = load i64, i64* %PC, align 8
  %8 = add i64 %7, 3
  store i64 %8, i64* %PC, align 8
  %9 = inttoptr i64 %5 to i32*
  store i32 %6, i32* %9, align 4
  ret %struct.Memory* %2
}

; Function Attrs: norecurse nounwind
define %struct.Memory* @routine_movl__0x0__MINUS0x18__rbp_(%struct.State* nocapture dereferenceable(3376), i64, %struct.Memory* readnone returned) local_unnamed_addr #2 {
block_400488:
  %PC = getelementptr inbounds %struct.State, %struct.State* %0, i64 0, i32 6, i32 33, i32 0, i32 0
  %RBP = getelementptr inbounds %struct.State, %struct.State* %0, i64 0, i32 6, i32 15, i32 0, i32 0
  %3 = load i64, i64* %RBP, align 8
  %4 = add i64 %3, -24
  %5 = load i64, i64* %PC, align 8
  %6 = add i64 %5, 7
  store i64 %6, i64* %PC, align 8
  %7 = inttoptr i64 %4 to i32*
  store i32 0, i32* %7, align 4
  ret %struct.Memory* %2
}

; Function Attrs: norecurse nounwind
define %struct.Memory* @routine_movl_MINUS0x18__rbp____eax(%struct.State* nocapture dereferenceable(3376), i64, %struct.Memory* readnone returned) local_unnamed_addr #2 {
block_400488:
  %PC = getelementptr inbounds %struct.State, %struct.State* %0, i64 0, i32 6, i32 33, i32 0, i32 0
  %RAX = getelementptr inbounds %struct.State, %struct.State* %0, i64 0, i32 6, i32 1, i32 0, i32 0
  %RBP = getelementptr inbounds %struct.State, %struct.State* %0, i64 0, i32 6, i32 15, i32 0, i32 0
  %3 = load i64, i64* %RBP, align 8
  %4 = add i64 %3, -24
  %5 = load i64, i64* %PC, align 8
  %6 = add i64 %5, 3
  store i64 %6, i64* %PC, align 8
  %7 = inttoptr i64 %4 to i32*
  %8 = load i32, i32* %7, align 4
  %9 = zext i32 %8 to i64
  store i64 %9, i64* %RAX, align 8
  ret %struct.Memory* %2
}

; Function Attrs: nounwind
define %struct.Memory* @routine_cmpl_MINUS0x14__rbp____eax(%struct.State* nocapture dereferenceable(3376), i64, %struct.Memory* readnone returned) local_unnamed_addr #3 {
block_400488:
  %PC = getelementptr inbounds %struct.State, %struct.State* %0, i64 0, i32 6, i32 33, i32 0, i32 0
  %3 = getelementptr inbounds %struct.State, %struct.State* %0, i64 0, i32 6, i32 1, i32 0
  %EAX = bitcast %union.anon* %3 to i32*
  %RBP = getelementptr inbounds %struct.State, %struct.State* %0, i64 0, i32 6, i32 15, i32 0, i32 0
  %4 = load i32, i32* %EAX, align 4
  %5 = load i64, i64* %RBP, align 8
  %6 = add i64 %5, -20
  %7 = load i64, i64* %PC, align 8
  %8 = add i64 %7, 3
  store i64 %8, i64* %PC, align 8
  %9 = inttoptr i64 %6 to i32*
  %10 = load i32, i32* %9, align 4
  %11 = sub i32 %4, %10
  %12 = icmp ult i32 %4, %10
  %13 = zext i1 %12 to i8
  %14 = getelementptr inbounds %struct.State, %struct.State* %0, i64 0, i32 2, i32 1
  store i8 %13, i8* %14, align 1
  %15 = and i32 %11, 255
  %16 = tail call i32 @llvm.ctpop.i32(i32 %15)
  %17 = trunc i32 %16 to i8
  %18 = and i8 %17, 1
  %19 = xor i8 %18, 1
  %20 = getelementptr inbounds %struct.State, %struct.State* %0, i64 0, i32 2, i32 3
  store i8 %19, i8* %20, align 1
  %21 = xor i32 %10, %4
  %22 = xor i32 %21, %11
  %23 = lshr i32 %22, 4
  %24 = trunc i32 %23 to i8
  %25 = and i8 %24, 1
  %26 = getelementptr inbounds %struct.State, %struct.State* %0, i64 0, i32 2, i32 5
  store i8 %25, i8* %26, align 1
  %27 = icmp eq i32 %11, 0
  %28 = zext i1 %27 to i8
  %29 = getelementptr inbounds %struct.State, %struct.State* %0, i64 0, i32 2, i32 7
  store i8 %28, i8* %29, align 1
  %30 = lshr i32 %11, 31
  %31 = trunc i32 %30 to i8
  %32 = getelementptr inbounds %struct.State, %struct.State* %0, i64 0, i32 2, i32 9
  store i8 %31, i8* %32, align 1
  %33 = lshr i32 %4, 31
  %34 = lshr i32 %10, 31
  %35 = xor i32 %34, %33
  %36 = xor i32 %30, %33
  %37 = add nuw nsw i32 %36, %35
  %38 = icmp eq i32 %37, 2
  %39 = zext i1 %38 to i8
  %40 = getelementptr inbounds %struct.State, %struct.State* %0, i64 0, i32 2, i32 13
  store i8 %39, i8* %40, align 1
  ret %struct.Memory* %2
}

; Function Attrs: norecurse nounwind
define %struct.Memory* @routine_jge_.L_45219f(%struct.State* nocapture dereferenceable(3376), i64, %struct.Memory* readnone returned, i8* nocapture %BRANCH_TAKEN, i64 %rel_off1, i64 %rel_off2, i64 %rel_off3) local_unnamed_addr #2 {
block_400488:
  %PC = getelementptr inbounds %struct.State, %struct.State* %0, i64 0, i32 6, i32 33, i32 0, i32 0
  %3 = load i64, i64* %PC, align 8
  %4 = getelementptr inbounds %struct.State, %struct.State* %0, i64 0, i32 2, i32 9
  %5 = load i8, i8* %4, align 1
  %6 = icmp ne i8 %5, 0
  %7 = getelementptr inbounds %struct.State, %struct.State* %0, i64 0, i32 2, i32 13
  %8 = load i8, i8* %7, align 1
  %9 = icmp ne i8 %8, 0
  %10 = xor i1 %6, %9
  %11 = xor i1 %10, true
  %12 = zext i1 %11 to i8
  store i8 %12, i8* %BRANCH_TAKEN, align 1
  %.v = select i1 %10, i64 %rel_off2, i64 %rel_off1
  %13 = add i64 %.v, %3
  store i64 %13, i64* %PC, align 8
  ret %struct.Memory* %2
}

; Function Attrs: norecurse nounwind
define %struct.Memory* @routine_movq_MINUS0x10__rbp____rax(%struct.State* nocapture dereferenceable(3376), i64, %struct.Memory* readnone returned) local_unnamed_addr #2 {
block_400488:
  %PC = getelementptr inbounds %struct.State, %struct.State* %0, i64 0, i32 6, i32 33, i32 0, i32 0
  %RAX = getelementptr inbounds %struct.State, %struct.State* %0, i64 0, i32 6, i32 1, i32 0, i32 0
  %RBP = getelementptr inbounds %struct.State, %struct.State* %0, i64 0, i32 6, i32 15, i32 0, i32 0
  %3 = load i64, i64* %RBP, align 8
  %4 = add i64 %3, -16
  %5 = load i64, i64* %PC, align 8
  %6 = add i64 %5, 4
  store i64 %6, i64* %PC, align 8
  %7 = inttoptr i64 %4 to i64*
  %8 = load i64, i64* %7, align 8
  store i64 %8, i64* %RAX, align 8
  ret %struct.Memory* %2
}

; Function Attrs: norecurse nounwind
define %struct.Memory* @routine_movslq_MINUS0x18__rbp____rcx(%struct.State* nocapture dereferenceable(3376), i64, %struct.Memory* readnone returned) local_unnamed_addr #2 {
block_400488:
  %PC = getelementptr inbounds %struct.State, %struct.State* %0, i64 0, i32 6, i32 33, i32 0, i32 0
  %RCX = getelementptr inbounds %struct.State, %struct.State* %0, i64 0, i32 6, i32 5, i32 0, i32 0
  %RBP = getelementptr inbounds %struct.State, %struct.State* %0, i64 0, i32 6, i32 15, i32 0, i32 0
  %3 = load i64, i64* %RBP, align 8
  %4 = add i64 %3, -24
  %5 = load i64, i64* %PC, align 8
  %6 = add i64 %5, 4
  store i64 %6, i64* %PC, align 8
  %7 = inttoptr i64 %4 to i32*
  %8 = load i32, i32* %7, align 4
  %9 = sext i32 %8 to i64
  store i64 %9, i64* %RCX, align 8
  ret %struct.Memory* %2
}

; Function Attrs: norecurse nounwind
define %struct.Memory* @routine_movss___rax__rcx_4____xmm0(%struct.State* nocapture dereferenceable(3376), i64, %struct.Memory* readnone returned) local_unnamed_addr #2 {
block_400488:
  %PC = getelementptr inbounds %struct.State, %struct.State* %0, i64 0, i32 6, i32 33, i32 0, i32 0
  %RAX = getelementptr inbounds %struct.State, %struct.State* %0, i64 0, i32 6, i32 1, i32 0, i32 0
  %RCX = getelementptr inbounds %struct.State, %struct.State* %0, i64 0, i32 6, i32 5, i32 0, i32 0
  %3 = getelementptr inbounds %struct.State, %struct.State* %0, i64 0, i32 1, i64 0
  %4 = bitcast %union.VectorReg* %3 to i8*
  %5 = load i64, i64* %RAX, align 8
  %6 = load i64, i64* %RCX, align 8
  %7 = shl i64 %6, 2
  %8 = add i64 %7, %5
  %9 = load i64, i64* %PC, align 8
  %10 = add i64 %9, 5
  store i64 %10, i64* %PC, align 8
  %11 = inttoptr i64 %8 to i32*
  %12 = load i32, i32* %11, align 4
  %13 = bitcast %union.VectorReg* %3 to i32*
  store i32 %12, i32* %13, align 1
  %14 = getelementptr inbounds i8, i8* %4, i64 4
  %15 = bitcast i8* %14 to float*
  store float 0.000000e+00, float* %15, align 1
  %16 = getelementptr inbounds %struct.State, %struct.State* %0, i64 0, i32 1, i64 0, i32 0, i32 0, i32 0, i64 1
  %17 = bitcast i64* %16 to float*
  store float 0.000000e+00, float* %17, align 1
  %18 = getelementptr inbounds i8, i8* %4, i64 12
  %19 = bitcast i8* %18 to float*
  store float 0.000000e+00, float* %19, align 1
  ret %struct.Memory* %2
}

; Function Attrs: norecurse nounwind
define %struct.Memory* @routine_movq_MINUS0x8__rbp____rax(%struct.State* nocapture dereferenceable(3376), i64, %struct.Memory* readnone returned) local_unnamed_addr #2 {
block_400488:
  %PC = getelementptr inbounds %struct.State, %struct.State* %0, i64 0, i32 6, i32 33, i32 0, i32 0
  %RAX = getelementptr inbounds %struct.State, %struct.State* %0, i64 0, i32 6, i32 1, i32 0, i32 0
  %RBP = getelementptr inbounds %struct.State, %struct.State* %0, i64 0, i32 6, i32 15, i32 0, i32 0
  %3 = load i64, i64* %RBP, align 8
  %4 = add i64 %3, -8
  %5 = load i64, i64* %PC, align 8
  %6 = add i64 %5, 4
  store i64 %6, i64* %PC, align 8
  %7 = inttoptr i64 %4 to i64*
  %8 = load i64, i64* %7, align 8
  store i64 %8, i64* %RAX, align 8
  ret %struct.Memory* %2
}

; Function Attrs: norecurse nounwind
define %struct.Memory* @routine_addss___rax__rcx_4____xmm0(%struct.State* nocapture dereferenceable(3376), i64, %struct.Memory* readnone returned) local_unnamed_addr #2 {
block_400488:
  %PC = getelementptr inbounds %struct.State, %struct.State* %0, i64 0, i32 6, i32 33, i32 0, i32 0
  %RAX = getelementptr inbounds %struct.State, %struct.State* %0, i64 0, i32 6, i32 1, i32 0, i32 0
  %RCX = getelementptr inbounds %struct.State, %struct.State* %0, i64 0, i32 6, i32 5, i32 0, i32 0
  %3 = getelementptr inbounds %struct.State, %struct.State* %0, i64 0, i32 1, i64 0
  %4 = bitcast %union.VectorReg* %3 to i8*
  %5 = load i64, i64* %RAX, align 8
  %6 = load i64, i64* %RCX, align 8
  %7 = shl i64 %6, 2
  %8 = add i64 %7, %5
  %9 = load i64, i64* %PC, align 8
  %10 = add i64 %9, 5
  store i64 %10, i64* %PC, align 8
  %11 = bitcast %union.VectorReg* %3 to <2 x float>*
  %12 = load <2 x float>, <2 x float>* %11, align 1
  %13 = getelementptr inbounds %struct.State, %struct.State* %0, i64 0, i32 1, i64 0, i32 0, i32 0, i32 0, i64 1
  %14 = bitcast i64* %13 to <2 x i32>*
  %15 = load <2 x i32>, <2 x i32>* %14, align 1
  %16 = inttoptr i64 %8 to float*
  %17 = load float, float* %16, align 4
  %18 = extractelement <2 x float> %12, i32 0
  %19 = fadd float %18, %17
  %20 = bitcast %union.VectorReg* %3 to float*
  store float %19, float* %20, align 1
  %21 = bitcast <2 x float> %12 to <2 x i32>
  %22 = extractelement <2 x i32> %21, i32 1
  %23 = getelementptr inbounds i8, i8* %4, i64 4
  %24 = bitcast i8* %23 to i32*
  store i32 %22, i32* %24, align 1
  %25 = extractelement <2 x i32> %15, i32 0
  %26 = bitcast i64* %13 to i32*
  store i32 %25, i32* %26, align 1
  %27 = extractelement <2 x i32> %15, i32 1
  %28 = getelementptr inbounds i8, i8* %4, i64 12
  %29 = bitcast i8* %28 to i32*
  store i32 %27, i32* %29, align 1
  ret %struct.Memory* %2
}

; Function Attrs: norecurse nounwind
define %struct.Memory* @routine_movss__xmm0____rax__rcx_4_(%struct.State* nocapture dereferenceable(3376), i64, %struct.Memory* readnone returned) local_unnamed_addr #2 {
block_400488:
  %PC = getelementptr inbounds %struct.State, %struct.State* %0, i64 0, i32 6, i32 33, i32 0, i32 0
  %RAX = getelementptr inbounds %struct.State, %struct.State* %0, i64 0, i32 6, i32 1, i32 0, i32 0
  %RCX = getelementptr inbounds %struct.State, %struct.State* %0, i64 0, i32 6, i32 5, i32 0, i32 0
  %3 = getelementptr inbounds %struct.State, %struct.State* %0, i64 0, i32 1, i64 0
  %4 = load i64, i64* %RAX, align 8
  %5 = load i64, i64* %RCX, align 8
  %6 = shl i64 %5, 2
  %7 = add i64 %6, %4
  %8 = load i64, i64* %PC, align 8
  %9 = add i64 %8, 5
  store i64 %9, i64* %PC, align 8
  %10 = bitcast %union.VectorReg* %3 to <2 x float>*
  %11 = load <2 x float>, <2 x float>* %10, align 1
  %12 = extractelement <2 x float> %11, i32 0
  %13 = inttoptr i64 %7 to float*
  store float %12, float* %13, align 4
  ret %struct.Memory* %2
}

; Function Attrs: nounwind
define %struct.Memory* @routine_addl__0x1___eax(%struct.State* nocapture dereferenceable(3376), i64, %struct.Memory* readnone returned) local_unnamed_addr #3 {
block_400488:
  %PC = getelementptr inbounds %struct.State, %struct.State* %0, i64 0, i32 6, i32 33, i32 0, i32 0
  %RAX = getelementptr inbounds %struct.State, %struct.State* %0, i64 0, i32 6, i32 1, i32 0, i32 0
  %3 = load i64, i64* %RAX, align 8
  %4 = load i64, i64* %PC, align 8
  %5 = add i64 %4, 3
  store i64 %5, i64* %PC, align 8
  %6 = trunc i64 %3 to i32
  %7 = add i32 %6, 1
  %8 = zext i32 %7 to i64
  store i64 %8, i64* %RAX, align 8
  %9 = icmp eq i32 %6, -1
  %10 = icmp eq i32 %7, 0
  %11 = or i1 %9, %10
  %12 = zext i1 %11 to i8
  %13 = getelementptr inbounds %struct.State, %struct.State* %0, i64 0, i32 2, i32 1
  store i8 %12, i8* %13, align 1
  %14 = and i32 %7, 255
  %15 = tail call i32 @llvm.ctpop.i32(i32 %14)
  %16 = trunc i32 %15 to i8
  %17 = and i8 %16, 1
  %18 = xor i8 %17, 1
  %19 = getelementptr inbounds %struct.State, %struct.State* %0, i64 0, i32 2, i32 3
  store i8 %18, i8* %19, align 1
  %20 = xor i32 %7, %6
  %21 = lshr i32 %20, 4
  %22 = trunc i32 %21 to i8
  %23 = and i8 %22, 1
  %24 = getelementptr inbounds %struct.State, %struct.State* %0, i64 0, i32 2, i32 5
  store i8 %23, i8* %24, align 1
  %25 = zext i1 %10 to i8
  %26 = getelementptr inbounds %struct.State, %struct.State* %0, i64 0, i32 2, i32 7
  store i8 %25, i8* %26, align 1
  %27 = lshr i32 %7, 31
  %28 = trunc i32 %27 to i8
  %29 = getelementptr inbounds %struct.State, %struct.State* %0, i64 0, i32 2, i32 9
  store i8 %28, i8* %29, align 1
  %30 = lshr i32 %6, 31
  %31 = xor i32 %27, %30
  %32 = add nuw nsw i32 %31, %27
  %33 = icmp eq i32 %32, 2
  %34 = zext i1 %33 to i8
  %35 = getelementptr inbounds %struct.State, %struct.State* %0, i64 0, i32 2, i32 13
  store i8 %34, i8* %35, align 1
  ret %struct.Memory* %2
}

; Function Attrs: norecurse nounwind
define %struct.Memory* @routine_movl__eax__MINUS0x18__rbp_(%struct.State* nocapture dereferenceable(3376), i64, %struct.Memory* readnone returned) local_unnamed_addr #2 {
block_400488:
  %PC = getelementptr inbounds %struct.State, %struct.State* %0, i64 0, i32 6, i32 33, i32 0, i32 0
  %3 = getelementptr inbounds %struct.State, %struct.State* %0, i64 0, i32 6, i32 1, i32 0
  %EAX = bitcast %union.anon* %3 to i32*
  %RBP = getelementptr inbounds %struct.State, %struct.State* %0, i64 0, i32 6, i32 15, i32 0, i32 0
  %4 = load i64, i64* %RBP, align 8
  %5 = add i64 %4, -24
  %6 = load i32, i32* %EAX, align 4
  %7 = load i64, i64* %PC, align 8
  %8 = add i64 %7, 3
  store i64 %8, i64* %PC, align 8
  %9 = inttoptr i64 %5 to i32*
  store i32 %6, i32* %9, align 4
  ret %struct.Memory* %2
}

; Function Attrs: norecurse nounwind
define %struct.Memory* @routine_jmpq_.L_452166(%struct.State* nocapture dereferenceable(3376), i64, %struct.Memory* readnone returned, i64 %rel_off1, i64 %rel_off2) local_unnamed_addr #2 {
block_400488:
  %PC = getelementptr inbounds %struct.State, %struct.State* %0, i64 0, i32 6, i32 33, i32 0, i32 0
  %3 = load i64, i64* %PC, align 8
  %4 = add i64 %3, %rel_off1
  store i64 %4, i64* %PC, align 8
  ret %struct.Memory* %2
}

; Function Attrs: norecurse nounwind
define %struct.Memory* @routine_popq__rbp(%struct.State* nocapture dereferenceable(3376), i64, %struct.Memory* readnone returned) local_unnamed_addr #2 {
block_400488:
  %PC = getelementptr inbounds %struct.State, %struct.State* %0, i64 0, i32 6, i32 33, i32 0, i32 0
  %RBP = getelementptr inbounds %struct.State, %struct.State* %0, i64 0, i32 6, i32 15, i32 0, i32 0
  %3 = load i64, i64* %PC, align 8
  %4 = add i64 %3, 1
  store i64 %4, i64* %PC, align 8
  %5 = getelementptr inbounds %struct.State, %struct.State* %0, i64 0, i32 6, i32 13, i32 0, i32 0
  %6 = load i64, i64* %5, align 8
  %7 = add i64 %6, 8
  %8 = inttoptr i64 %6 to i64*
  %9 = load i64, i64* %8, align 8
  store i64 %9, i64* %RBP, align 8
  store i64 %7, i64* %5, align 8
  ret %struct.Memory* %2
}

; Function Attrs: norecurse nounwind
define %struct.Memory* @routine_retq(%struct.State* nocapture dereferenceable(3376), i64, %struct.Memory* readnone returned) local_unnamed_addr #2 {
block_400488:
  %PC = getelementptr inbounds %struct.State, %struct.State* %0, i64 0, i32 6, i32 33, i32 0, i32 0
  %3 = load i64, i64* %PC, align 8
  %4 = add i64 %3, 1
  store i64 %4, i64* %PC, align 8
  %5 = getelementptr inbounds %struct.State, %struct.State* %0, i64 0, i32 6, i32 13, i32 0, i32 0
  %6 = load i64, i64* %5, align 8
  %7 = inttoptr i64 %6 to i64*
  %8 = load i64, i64* %7, align 8
  store i64 %8, i64* %PC, align 8
  %9 = add i64 %6, 8
  store i64 %9, i64* %5, align 8
  ret %struct.Memory* %2
}

attributes #0 = { nounwind readnone }
attributes #1 = { alwaysinline nounwind }
attributes #2 = { norecurse nounwind }
attributes #3 = { nounwind }
