; ModuleID = 'mcsema/test.proposed.ll'
source_filename = "llvm-link"
target datalayout = "e-m:e-i64:64-f80:128-n8:16:32:64-S128"
target triple = "x86_64-pc-linux-gnu-elf"

%union.anon = type { i64 }
%seg_400370__init_type = type <{ [23 x i8] }>
%seg_400390__text_type = type <{ [354 x i8] }>
%seg_4004f4__fini_type = type <{ [9 x i8] }>
%seg_400500__rodata_type = type <{ [4 x i8] }>
%seg_400504__eh_frame_hdr_type = type <{ [52 x i8] }>
%seg_400538__eh_frame_type = type <{ [208 x i8] }>
%seg_601018__data_type = type <{ [16 x i8] }>
%__bss_start_type = type <{ [8 x i8] }>
%seg_400504__fini_type = type <{ [9 x i8] }>
%seg_400510__rodata_type = type <{ [4 x i8] }>
%seg_400514__eh_frame_hdr_type = type <{ [52 x i8] }>
%seg_400548__eh_frame_type = type <{ [208 x i8] }>
%G_0x20aa71__rip__4257303__type = type <{ [8 x i8] }>
%G_0x61a0a8_type = type <{ [4 x i8] }>
%G__0x414aee_type = type <{ [8 x i8] }>
%struct.State = type { %struct.ArchState, [32 x %union.VectorReg], %struct.ArithFlags, %union.anon, %struct.Segments, %struct.AddressSpace, %struct.GPR, %struct.X87Stack, %struct.MMX, %struct.FPUStatusFlags, %union.anon, %union.FPU, %struct.SegmentCaches }
%struct.ArchState = type { i32, i32, %union.anon }
%union.VectorReg = type { %union.vec512_t }
%union.vec512_t = type { %struct.uint64v8_t }
%struct.uint64v8_t = type { [8 x i64] }
%struct.ArithFlags = type { i8, i8, i8, i8, i8, i8, i8, i8, i8, i8, i8, i8, i8, i8, i8, i8 }
%struct.Segments = type { i16, %union.SegmentSelector, i16, %union.SegmentSelector, i16, %union.SegmentSelector, i16, %union.SegmentSelector, i16, %union.SegmentSelector, i16, %union.SegmentSelector }
%union.SegmentSelector = type { i16 }
%struct.AddressSpace = type { i64, %struct.Reg, i64, %struct.Reg, i64, %struct.Reg, i64, %struct.Reg, i64, %struct.Reg, i64, %struct.Reg }
%struct.Reg = type { %union.anon }
%struct.GPR = type { i64, %struct.Reg, i64, %struct.Reg, i64, %struct.Reg, i64, %struct.Reg, i64, %struct.Reg, i64, %struct.Reg, i64, %struct.Reg, i64, %struct.Reg, i64, %struct.Reg, i64, %struct.Reg, i64, %struct.Reg, i64, %struct.Reg, i64, %struct.Reg, i64, %struct.Reg, i64, %struct.Reg, i64, %struct.Reg, i64, %struct.Reg }
%struct.X87Stack = type { [8 x %struct.anon.3] }
%struct.anon.3 = type { i64, double }
%struct.MMX = type { [8 x %struct.anon.4] }
%struct.anon.4 = type { i64, %union.vec64_t }
%union.vec64_t = type { %struct.uint64v1_t }
%struct.uint64v1_t = type { [1 x i64] }
%struct.FPUStatusFlags = type { i8, i8, i8, i8, i8, i8, i8, i8, i8, i8, i8, i8, i8, i8, i8, i8, i8, i8, i8, i8, [4 x i8] }
%union.FPU = type { %struct.anon.13 }
%struct.anon.13 = type { %struct.FpuFXSAVE, [96 x i8] }
%struct.FpuFXSAVE = type { %union.SegmentSelector, %union.SegmentSelector, %union.FPUAbridgedTagWord, i8, i16, i32, %union.SegmentSelector, i16, i32, %union.SegmentSelector, i16, %union.FPUControlStatus, %union.FPUControlStatus, [8 x %struct.FPUStackElem], [16 x %union.vec128_t] }
%union.FPUAbridgedTagWord = type { i8 }
%union.FPUControlStatus = type { i32 }
%struct.FPUStackElem = type { %union.anon.11, [6 x i8] }
%union.anon.11 = type { %struct.float80_t }
%struct.float80_t = type { [10 x i8] }
%union.vec128_t = type { %struct.uint128v1_t }
%struct.uint128v1_t = type { [1 x i128] }
%struct.SegmentCaches = type { %struct.SegmentShadow, %struct.SegmentShadow, %struct.SegmentShadow, %struct.SegmentShadow, %struct.SegmentShadow, %struct.SegmentShadow }
%struct.SegmentShadow = type { %union.anon, i32, i32 }
%struct.Memory = type opaque
%struct.anon.2 = type { i8, i8 }

@switch.table = private unnamed_addr constant [4 x i32] [i32 2048, i32 3072, i32 0, i32 1024]
@DR0 = external global i64, align 8
@DR1 = external global i64, align 8
@DR2 = external global i64, align 8
@DR3 = external global i64, align 8
@DR4 = external global i64, align 8
@DR5 = external global i64, align 8
@DR6 = external global i64, align 8
@DR7 = external global i64, align 8
@gCR0 = external global %union.anon, align 1
@gCR1 = external global %union.anon, align 1
@gCR2 = external global %union.anon, align 1
@gCR3 = external global %union.anon, align 1
@gCR4 = external global %union.anon, align 1
@gCR8 = external global %union.anon, align 1
@seg_400370__init = internal constant %seg_400370__init_type <{ [23 x i8] c"H\83\EC\08H\8B\05}\0C \00H\85\C0t\02\FF\D0H\83\C4\08\C3" }>
@seg_400390__text = internal constant %seg_400390__text_type <{ [354 x i8] c"1\EDI\89\D1^H\89\E2H\83\E4\F0PTI\C7\C0\F0\04@\00H\C7\C1\80\04@\00H\C7\C7x\04@\00\FF\156\0C \00\F4\0F\1FD\00\00\F3\C3f.\0F\1F\84\00\00\00\00\00\0F\1F@\00U\B8(\10`\00H=(\10`\00H\89\E5t\17\B8\00\00\00\00H\85\C0t\0D]\BF(\10`\00\FF\E0\0F\1FD\00\00]\C3f\0F\1FD\00\00\BE(\10`\00UH\81\EE(\10`\00H\89\E5H\C1\FE\03H\89\F0H\C1\E8?H\01\C6H\D1\FEt\15\B8\00\00\00\00H\85\C0t\0B]\BF(\10`\00\FF\E0\0F\1F\00]\C3f\0F\1FD\00\00\80=\E1\0B \00\00u\17UH\89\E5\E8~\FF\FF\FF\C6\05\CF\0B \00\01]\C3\0F\1FD\00\00\F3\C3\0F\1F@\00f.\0F\1F\84\00\00\00\00\00UH\89\E5]\EB\89\90U\C3f\0F\1FD\00\00AWAVI\89\D7AUATL\8D%\BE\09 \00UH\8D-\BE\09 \00SA\89\FDI\89\F6L)\E5H\83\EC\08H\C1\FD\03\E8\BF\FE\FF\FFH\85\EDt 1\DB\0F\1F\84\00\00\00\00\00L\89\FAL\89\F6D\89\EFA\FF\14\DCH\83\C3\01H9\DDu\EAH\83\C4\08[]A\5CA]A^A_\C3\90f.\0F\1F\84\00\00\00\00\00\F3\C3" }>
@seg_4004f4__fini = internal constant %seg_4004f4__fini_type <{ [9 x i8] c"H\83\EC\08H\83\C4\08\C3" }>
@seg_400500__rodata = internal constant %seg_400500__rodata_type <{ [4 x i8] c"\01\00\02\00" }>
@seg_400504__eh_frame_hdr = internal constant %seg_400504__eh_frame_hdr_type <{ [52 x i8] c"\01\1B\03;0\00\00\00\05\00\00\00\8C\FE\FF\FFL\00\00\00\BC\FE\FF\FFx\00\00\00t\FF\FF\FF\8C\00\00\00|\FF\FF\FF\A4\00\00\00\EC\FF\FF\FF\EC\00\00\00" }>
@seg_400538__eh_frame = internal constant %seg_400538__eh_frame_type <{ [208 x i8] c"\14\00\00\00\00\00\00\00\01zR\00\01x\10\01\1B\0C\07\08\90\01\07\10\10\00\00\00\1C\00\00\008\FE\FF\FF+\00\00\00\00\00\00\00\14\00\00\00\00\00\00\00\01zR\00\01x\10\01\1B\0C\07\08\90\01\00\00\10\00\00\00\1C\00\00\00<\FE\FF\FF\02\00\00\00\00\00\00\00\14\00\00\000\00\00\00\E0\FE\FF\FF\02\00\00\00\00\00\00\00\00\00\00\00D\00\00\00H\00\00\00\D0\FE\FF\FFe\00\00\00\00B\0E\10\8F\02B\0E\18\8E\03E\0E \8D\04B\0E(\8C\05H\0E0\86\06H\0E8\83\07M\0E@r\0E8A\0E0A\0E(B\0E B\0E\18B\0E\10B\0E\08\00\10\00\00\00\90\00\00\00\F8\FE\FF\FF\02\00\00\00\00\00\00\00\00\00\00\00" }>
@seg_601018__data = internal global %seg_601018__data_type zeroinitializer
@__bss_start = global %__bss_start_type zeroinitializer
@0 = internal global i1 false
@seg_400504__fini = internal constant %seg_400504__fini_type <{ [9 x i8] c"H\83\EC\08H\83\C4\08\C3" }>
@seg_400510__rodata = internal constant %seg_400510__rodata_type <{ [4 x i8] c"\01\00\02\00" }>
@seg_400514__eh_frame_hdr = internal constant %seg_400514__eh_frame_hdr_type <{ [52 x i8] c"\01\1B\03;0\00\00\00\05\00\00\00|\FE\FF\FFL\00\00\00\AC\FE\FF\FFx\00\00\00d\FF\FF\FF\8C\00\00\00|\FF\FF\FF\A4\00\00\00\EC\FF\FF\FF\EC\00\00\00" }>
@seg_400548__eh_frame = internal constant %seg_400548__eh_frame_type <{ [208 x i8] c"\14\00\00\00\00\00\00\00\01zR\00\01x\10\01\1B\0C\07\08\90\01\07\10\10\00\00\00\1C\00\00\00(\FE\FF\FF+\00\00\00\00\00\00\00\14\00\00\00\00\00\00\00\01zR\00\01x\10\01\1B\0C\07\08\90\01\00\00\10\00\00\00\1C\00\00\00,\FE\FF\FF\02\00\00\00\00\00\00\00\14\00\00\000\00\00\00\D0\FE\FF\FF\0A\00\00\00\00\00\00\00\00\00\00\00D\00\00\00H\00\00\00\D0\FE\FF\FFe\00\00\00\00B\0E\10\8F\02B\0E\18\8E\03E\0E \8D\04B\0E(\8C\05H\0E0\86\06H\0E8\83\07M\0E@r\0E8A\0E0A\0E(B\0E B\0E\18B\0E\10B\0E\08\00\10\00\00\00\90\00\00\00\F8\FE\FF\FF\02\00\00\00\00\00\00\00\00\00\00\00" }>
@G_0x20aa71__rip__4257303_ = global %G_0x20aa71__rip__4257303__type zeroinitializer
@G_0x61a0a8 = global %G_0x61a0a8_type zeroinitializer
@G__0x414aee = global %G__0x414aee_type zeroinitializer

declare %struct.Memory* @__remill_error(%struct.State* dereferenceable(3376), i64, %struct.Memory*)

declare i32 @__remill_fpu_exception_test_and_clear(i32, i32)

; Function Attrs: argmemonly nounwind
declare void @llvm.lifetime.start(i64, i8* nocapture) #0

; Function Attrs: argmemonly nounwind
declare void @llvm.lifetime.end(i64, i8* nocapture) #0

; Function Attrs: nounwind readnone
declare i32 @llvm.ctpop.i32(i32) #1

; Function Attrs: nounwind readnone
declare i32 @llvm.bswap.i32(i32) #1

; Function Attrs: nounwind readnone
declare i64 @llvm.bswap.i64(i64) #1

; Function Attrs: nounwind readnone
declare i32 @llvm.cttz.i32(i32, i1) #1

; Function Attrs: nounwind readnone
declare i64 @llvm.cttz.i64(i64, i1) #1

; Function Attrs: nounwind readnone
declare i32 @llvm.ctlz.i32(i32, i1) #1

; Function Attrs: nounwind readnone
declare i64 @llvm.ctlz.i64(i64, i1) #1

; Function Attrs: argmemonly nounwind
declare void @llvm.memcpy.p0i8.p0i8.i64(i8* nocapture writeonly, i8* nocapture readonly, i64, i32, i1) #0

; Function Attrs: nounwind readnone
declare double @llvm.nearbyint.f64(double) #1

; Function Attrs: nounwind readnone
declare double @llvm.fabs.f64(double) #1

; Function Attrs: nounwind readnone
declare <4 x double> @llvm.nearbyint.v4f64(<4 x double>) #1

; Function Attrs: nounwind readnone
declare <4 x double> @llvm.fabs.v4f64(<4 x double>) #1

; Function Attrs: nounwind readnone
declare double @llvm.trunc.f64(double) #1

; Function Attrs: nounwind readnone
declare <4 x double> @llvm.trunc.v4f64(<4 x double>) #1

; Function Attrs: nounwind readnone
declare float @llvm.nearbyint.f32(float) #1

; Function Attrs: nounwind readnone
declare float @llvm.fabs.f32(float) #1

; Function Attrs: nounwind readnone
declare <4 x float> @llvm.nearbyint.v4f32(<4 x float>) #1

; Function Attrs: nounwind readnone
declare <4 x float> @llvm.fabs.v4f32(<4 x float>) #1

; Function Attrs: nounwind readnone
declare float @llvm.trunc.f32(float) #1

; Function Attrs: nounwind readnone
declare <4 x float> @llvm.trunc.v4f32(<4 x float>) #1

; Function Attrs: argmemonly nounwind
declare void @llvm.memset.p0i8.i64(i8* nocapture writeonly, i8, i64, i32, i1) #0

declare double @atan(double) local_unnamed_addr

declare double @cos(double) local_unnamed_addr

declare double @sin(double) local_unnamed_addr

declare double @sqrt(double) local_unnamed_addr

declare double @tan(double) local_unnamed_addr

declare extern_weak x86_64_sysvcc i64 @abort()

declare extern_weak x86_64_sysvcc i64 @abs(i64)

declare extern_weak x86_64_sysvcc i64 @asin(i64)

declare extern_weak x86_64_sysvcc i64 @atof(i64)

declare extern_weak x86_64_sysvcc i64 @atoi(i64)

declare extern_weak x86_64_sysvcc i64 @atol(i64)

declare extern_weak x86_64_sysvcc i64 @calloc(i64, i64)

declare extern_weak x86_64_sysvcc i64 @clock()

declare extern_weak x86_64_sysvcc i64 @cosf(i64)

declare extern_weak x86_64_sysvcc i64 @exit(i64)

declare extern_weak x86_64_sysvcc i64 @exp(i64)

declare extern_weak x86_64_sysvcc i64 @fflush(i64)

declare extern_weak x86_64_sysvcc i64 @floor(i64)

declare extern_weak x86_64_sysvcc i64 @fprintf(i64, i64, i64, i64, i64, i64, i64, i64, i64, i64, i64, i64, i64, i64, i64, i64)

declare extern_weak x86_64_sysvcc i64 @fputs(i64, i64)

declare extern_weak x86_64_sysvcc i64 @free(i64)

declare extern_weak x86_64_sysvcc i64 @fwrite(i64, i64, i64, i64)

declare extern_weak x86_64_sysvcc i64 @getchar()

declare extern_weak x86_64_sysvcc i64 @gettimeofday(i64, i64)

declare extern_weak x86_64_sysvcc i64 @__isoc99_fscanf(i64, i64, i64, i64, i64, i64, i64, i64, i64, i64, i64, i64, i64, i64, i64, i64)

declare extern_weak x86_64_sysvcc i64 @__isoc99_scanf(i64, i64, i64, i64, i64, i64, i64, i64, i64, i64, i64, i64, i64, i64, i64, i64)

declare extern_weak x86_64_sysvcc i64 @__isoc99_sscanf(i64, i64, i64, i64, i64, i64, i64, i64, i64, i64, i64, i64, i64, i64, i64, i64)

declare extern_weak x86_64_sysvcc i64 @log(i64)

declare extern_weak x86_64_sysvcc i64 @lrand48()

declare extern_weak x86_64_sysvcc i64 @malloc(i64)

declare extern_weak x86_64_sysvcc i64 @memalign(i64, i64)

declare extern_weak x86_64_sysvcc i64 @memcpy(i64, i64, i64)

declare extern_weak x86_64_sysvcc i64 @memset(i64, i64, i64)

declare extern_weak x86_64_sysvcc i64 @perror(i64)

declare extern_weak x86_64_sysvcc i64 @posix_memalign(i64, i64, i64)

declare extern_weak x86_64_sysvcc i64 @pow(i64, i64)

declare extern_weak x86_64_sysvcc i64 @printf(i64, i64, i64, i64, i64, i64, i64, i64, i64, i64, i64, i64, i64, i64, i64, i64)

declare extern_weak x86_64_sysvcc i64 @putchar(i64)

declare extern_weak x86_64_sysvcc i64 @puts(i64)

declare extern_weak x86_64_sysvcc i64 @rand()

declare extern_weak x86_64_sysvcc i64 @random()

declare extern_weak x86_64_sysvcc i64 @realloc(i64, i64)

declare extern_weak x86_64_sysvcc i64 @seed48(i64)

declare extern_weak x86_64_sysvcc i64 @sinf(i64)

declare extern_weak x86_64_sysvcc i64 @sprintf(i64, i64, i64, i64, i64, i64, i64, i64, i64, i64, i64, i64, i64, i64, i64, i64)

declare extern_weak x86_64_sysvcc i64 @srand(i64)

declare extern_weak x86_64_sysvcc i64 @strcat(i64, i64)

declare extern_weak x86_64_sysvcc i64 @strcmp(i64, i64)

declare extern_weak x86_64_sysvcc i64 @strcpy(i64, i64)

declare extern_weak x86_64_sysvcc i64 @strdup(i64)

declare extern_weak x86_64_sysvcc i64 @strlen(i64)

declare extern_weak x86_64_sysvcc i64 @strncmp(i64, i64, i64)

declare extern_weak x86_64_sysvcc i64 @strtoll(i64, i64, i64)

declare extern_weak x86_64_sysvcc i64 @time(i64)

declare extern_weak x86_64_sysvcc i64 @ungetc(i64, i64)

declare extern_weak x86_64_sysvcc i64 @pthread_join(i64, i64)

declare extern_weak x86_64_sysvcc i64 @pthread_create(i64, i64, i64, i64)

declare %struct.Memory* @__remill_function_call(%struct.State* dereferenceable(3376), i64, %struct.Memory*)

declare %struct.Memory* @ext_sqrt(%struct.State* noalias dereferenceable(3376), i64, %struct.Memory* noalias)

declare %struct.Memory* @ext_atan(%struct.State* noalias dereferenceable(3376), i64, %struct.Memory* noalias)

declare %struct.Memory* @ext_cos(%struct.State* noalias dereferenceable(3376), i64, %struct.Memory* noalias)

declare %struct.Memory* @ext_tan(%struct.State* noalias dereferenceable(3376), i64, %struct.Memory* noalias)

declare %struct.Memory* @ext_sin(%struct.State* noalias dereferenceable(3376), i64, %struct.Memory* noalias)

declare %struct.Memory* @sub_40f670._ZN19custom_add_variableIjE8do_shiftEjj(%struct.State* noalias dereferenceable(3376), i64, %struct.Memory* noalias readnone returned)

declare %struct.Memory* @sub_40ec20._Z15tolerance_equalIjEbRT_S1_(%struct.State* noalias dereferenceable(3376), i64, %struct.Memory* noalias readnone returned)

; Function Attrs: alwaysinline
define %struct.Memory* @_Z26check_shifted_variable_sumIj19custom_add_variableIjEEvT_S2_(%struct.State* noalias, i64, %struct.Memory* noalias) #2 {
entry:
  %3 = getelementptr inbounds %struct.State, %struct.State* %0, i64 0, i32 6, i32 33, i32 0, i32 0
  store i64 %1, i64* %3, align 8
  %BRANCH_TAKEN = alloca i8, align 1
  store i8 0, i8* %BRANCH_TAKEN, align 1
  %MEMORY = alloca %struct.Memory*, align 8
  store %struct.Memory* %2, %struct.Memory** %MEMORY, align 8
  %loadMem_40f600 = load %struct.Memory*, %struct.Memory** %MEMORY
  %4 = getelementptr inbounds %struct.State, %struct.State* %0, i32 0, i32 6
  %5 = getelementptr inbounds %struct.GPR, %struct.GPR* %4, i32 0, i32 33
  %6 = getelementptr inbounds %struct.Reg, %struct.Reg* %5, i32 0, i32 0
  %PC.i = bitcast %union.anon* %6 to i64*
  %7 = getelementptr inbounds %struct.State, %struct.State* %0, i32 0, i32 6
  %8 = getelementptr inbounds %struct.GPR, %struct.GPR* %7, i32 0, i32 15
  %9 = getelementptr inbounds %struct.Reg, %struct.Reg* %8, i32 0, i32 0
  %RBP.i = bitcast %union.anon* %9 to i64*
  %10 = load i64, i64* %RBP.i
  %11 = load i64, i64* %PC.i
  %12 = add i64 %11, 1
  store i64 %12, i64* %PC.i
  %13 = getelementptr inbounds %struct.State, %struct.State* %0, i64 0, i32 6, i32 13, i32 0, i32 0
  %14 = load i64, i64* %13, align 8
  %15 = add i64 %14, -8
  %16 = inttoptr i64 %15 to i64*
  store i64 %10, i64* %16
  store i64 %15, i64* %13, align 8
  store %struct.Memory* %loadMem_40f600, %struct.Memory** %MEMORY
  %loadMem_40f601 = load %struct.Memory*, %struct.Memory** %MEMORY
  %17 = getelementptr inbounds %struct.State, %struct.State* %0, i32 0, i32 6
  %18 = getelementptr inbounds %struct.GPR, %struct.GPR* %17, i32 0, i32 33
  %19 = getelementptr inbounds %struct.Reg, %struct.Reg* %18, i32 0, i32 0
  %PC.i7 = bitcast %union.anon* %19 to i64*
  %20 = getelementptr inbounds %struct.State, %struct.State* %0, i32 0, i32 6
  %21 = getelementptr inbounds %struct.GPR, %struct.GPR* %20, i32 0, i32 13
  %22 = getelementptr inbounds %struct.Reg, %struct.Reg* %21, i32 0, i32 0
  %RSP.i8 = bitcast %union.anon* %22 to i64*
  %23 = getelementptr inbounds %struct.State, %struct.State* %0, i32 0, i32 6
  %24 = getelementptr inbounds %struct.GPR, %struct.GPR* %23, i32 0, i32 15
  %25 = getelementptr inbounds %struct.Reg, %struct.Reg* %24, i32 0, i32 0
  %RBP.i9 = bitcast %union.anon* %25 to i64*
  %26 = load i64, i64* %RSP.i8
  %27 = load i64, i64* %PC.i7
  %28 = add i64 %27, 3
  store i64 %28, i64* %PC.i7
  store i64 %26, i64* %RBP.i9, align 8
  store %struct.Memory* %loadMem_40f601, %struct.Memory** %MEMORY
  %loadMem_40f604 = load %struct.Memory*, %struct.Memory** %MEMORY
  %29 = getelementptr inbounds %struct.State, %struct.State* %0, i32 0, i32 6
  %30 = getelementptr inbounds %struct.GPR, %struct.GPR* %29, i32 0, i32 33
  %31 = getelementptr inbounds %struct.Reg, %struct.Reg* %30, i32 0, i32 0
  %PC.i51 = bitcast %union.anon* %31 to i64*
  %32 = getelementptr inbounds %struct.State, %struct.State* %0, i32 0, i32 6
  %33 = getelementptr inbounds %struct.GPR, %struct.GPR* %32, i32 0, i32 13
  %34 = getelementptr inbounds %struct.Reg, %struct.Reg* %33, i32 0, i32 0
  %RSP.i52 = bitcast %union.anon* %34 to i64*
  %35 = load i64, i64* %RSP.i52
  %36 = load i64, i64* %PC.i51
  %37 = add i64 %36, 4
  store i64 %37, i64* %PC.i51
  %38 = sub i64 %35, 32
  store i64 %38, i64* %RSP.i52, align 8
  %39 = icmp ult i64 %35, 32
  %40 = zext i1 %39 to i8
  %41 = getelementptr inbounds %struct.State, %struct.State* %0, i64 0, i32 2, i32 1
  store i8 %40, i8* %41, align 1
  %42 = trunc i64 %38 to i32
  %43 = and i32 %42, 255
  %44 = call i32 @llvm.ctpop.i32(i32 %43)
  %45 = trunc i32 %44 to i8
  %46 = and i8 %45, 1
  %47 = xor i8 %46, 1
  %48 = getelementptr inbounds %struct.State, %struct.State* %0, i64 0, i32 2, i32 3
  store i8 %47, i8* %48, align 1
  %49 = xor i64 32, %35
  %50 = xor i64 %49, %38
  %51 = lshr i64 %50, 4
  %52 = trunc i64 %51 to i8
  %53 = and i8 %52, 1
  %54 = getelementptr inbounds %struct.State, %struct.State* %0, i64 0, i32 2, i32 5
  store i8 %53, i8* %54, align 1
  %55 = icmp eq i64 %38, 0
  %56 = zext i1 %55 to i8
  %57 = getelementptr inbounds %struct.State, %struct.State* %0, i64 0, i32 2, i32 7
  store i8 %56, i8* %57, align 1
  %58 = lshr i64 %38, 63
  %59 = trunc i64 %58 to i8
  %60 = getelementptr inbounds %struct.State, %struct.State* %0, i64 0, i32 2, i32 9
  store i8 %59, i8* %60, align 1
  %61 = lshr i64 %35, 63
  %62 = xor i64 %58, %61
  %63 = add i64 %62, %61
  %64 = icmp eq i64 %63, 2
  %65 = zext i1 %64 to i8
  %66 = getelementptr inbounds %struct.State, %struct.State* %0, i64 0, i32 2, i32 13
  store i8 %65, i8* %66, align 1
  store %struct.Memory* %loadMem_40f604, %struct.Memory** %MEMORY
  %loadMem_40f608 = load %struct.Memory*, %struct.Memory** %MEMORY
  %67 = getelementptr inbounds %struct.State, %struct.State* %0, i32 0, i32 6
  %68 = getelementptr inbounds %struct.GPR, %struct.GPR* %67, i32 0, i32 33
  %69 = getelementptr inbounds %struct.Reg, %struct.Reg* %68, i32 0, i32 0
  %PC.i48 = bitcast %union.anon* %69 to i64*
  %70 = getelementptr inbounds %struct.State, %struct.State* %0, i32 0, i32 6
  %71 = getelementptr inbounds %struct.GPR, %struct.GPR* %70, i32 0, i32 11
  %72 = getelementptr inbounds %struct.Reg, %struct.Reg* %71, i32 0, i32 0
  %EDI.i49 = bitcast %union.anon* %72 to i32*
  %73 = getelementptr inbounds %struct.State, %struct.State* %0, i32 0, i32 6
  %74 = getelementptr inbounds %struct.GPR, %struct.GPR* %73, i32 0, i32 15
  %75 = getelementptr inbounds %struct.Reg, %struct.Reg* %74, i32 0, i32 0
  %RBP.i50 = bitcast %union.anon* %75 to i64*
  %76 = load i64, i64* %RBP.i50
  %77 = sub i64 %76, 4
  %78 = load i32, i32* %EDI.i49
  %79 = zext i32 %78 to i64
  %80 = load i64, i64* %PC.i48
  %81 = add i64 %80, 3
  store i64 %81, i64* %PC.i48
  %82 = inttoptr i64 %77 to i32*
  store i32 %78, i32* %82
  store %struct.Memory* %loadMem_40f608, %struct.Memory** %MEMORY
  %loadMem_40f60b = load %struct.Memory*, %struct.Memory** %MEMORY
  %83 = getelementptr inbounds %struct.State, %struct.State* %0, i32 0, i32 6
  %84 = getelementptr inbounds %struct.GPR, %struct.GPR* %83, i32 0, i32 33
  %85 = getelementptr inbounds %struct.Reg, %struct.Reg* %84, i32 0, i32 0
  %PC.i45 = bitcast %union.anon* %85 to i64*
  %86 = getelementptr inbounds %struct.State, %struct.State* %0, i32 0, i32 6
  %87 = getelementptr inbounds %struct.GPR, %struct.GPR* %86, i32 0, i32 9
  %88 = getelementptr inbounds %struct.Reg, %struct.Reg* %87, i32 0, i32 0
  %ESI.i46 = bitcast %union.anon* %88 to i32*
  %89 = getelementptr inbounds %struct.State, %struct.State* %0, i32 0, i32 6
  %90 = getelementptr inbounds %struct.GPR, %struct.GPR* %89, i32 0, i32 15
  %91 = getelementptr inbounds %struct.Reg, %struct.Reg* %90, i32 0, i32 0
  %RBP.i47 = bitcast %union.anon* %91 to i64*
  %92 = load i64, i64* %RBP.i47
  %93 = sub i64 %92, 8
  %94 = load i32, i32* %ESI.i46
  %95 = zext i32 %94 to i64
  %96 = load i64, i64* %PC.i45
  %97 = add i64 %96, 3
  store i64 %97, i64* %PC.i45
  %98 = inttoptr i64 %93 to i32*
  store i32 %94, i32* %98
  store %struct.Memory* %loadMem_40f60b, %struct.Memory** %MEMORY
  %loadMem_40f60e = load %struct.Memory*, %struct.Memory** %MEMORY
  %99 = getelementptr inbounds %struct.State, %struct.State* %0, i32 0, i32 6
  %100 = getelementptr inbounds %struct.GPR, %struct.GPR* %99, i32 0, i32 33
  %101 = getelementptr inbounds %struct.Reg, %struct.Reg* %100, i32 0, i32 0
  %PC.i43 = bitcast %union.anon* %101 to i64*
  %102 = getelementptr inbounds %struct.State, %struct.State* %0, i32 0, i32 6
  %103 = getelementptr inbounds %struct.GPR, %struct.GPR* %102, i32 0, i32 1
  %104 = getelementptr inbounds %struct.Reg, %struct.Reg* %103, i32 0, i32 0
  %RAX.i44 = bitcast %union.anon* %104 to i64*
  %105 = load i64, i64* %PC.i43
  %106 = load i64, i64* %PC.i43
  %107 = add i64 %106, 9
  store i64 %107, i64* %PC.i43
  %108 = load double, double* bitcast (%G_0x20aa71__rip__4257303__type* @G_0x20aa71__rip__4257303_ to double*)
  %109 = call double @llvm.trunc.f64(double %108)
  %110 = call double @llvm.fabs.f64(double %109)
  %111 = fcmp ogt double %110, 0x43E0000000000000
  %112 = fptosi double %109 to i64
  %113 = select i1 %111, i64 -9223372036854775808, i64 %112
  store i64 %113, i64* %RAX.i44, align 8
  store %struct.Memory* %loadMem_40f60e, %struct.Memory** %MEMORY
  %loadMem_40f617 = load %struct.Memory*, %struct.Memory** %MEMORY
  %114 = getelementptr inbounds %struct.State, %struct.State* %0, i32 0, i32 6
  %115 = getelementptr inbounds %struct.GPR, %struct.GPR* %114, i32 0, i32 33
  %116 = getelementptr inbounds %struct.Reg, %struct.Reg* %115, i32 0, i32 0
  %PC.i40 = bitcast %union.anon* %116 to i64*
  %117 = getelementptr inbounds %struct.State, %struct.State* %0, i32 0, i32 6
  %118 = getelementptr inbounds %struct.GPR, %struct.GPR* %117, i32 0, i32 1
  %119 = getelementptr inbounds %struct.Reg, %struct.Reg* %118, i32 0, i32 0
  %EAX.i41 = bitcast %union.anon* %119 to i32*
  %120 = getelementptr inbounds %struct.State, %struct.State* %0, i32 0, i32 6
  %121 = getelementptr inbounds %struct.GPR, %struct.GPR* %120, i32 0, i32 9
  %122 = getelementptr inbounds %struct.Reg, %struct.Reg* %121, i32 0, i32 0
  %RSI.i42 = bitcast %union.anon* %122 to i64*
  %123 = load i32, i32* %EAX.i41
  %124 = zext i32 %123 to i64
  %125 = load i64, i64* %PC.i40
  %126 = add i64 %125, 2
  store i64 %126, i64* %PC.i40
  %127 = and i64 %124, 4294967295
  store i64 %127, i64* %RSI.i42, align 8
  store %struct.Memory* %loadMem_40f617, %struct.Memory** %MEMORY
  %loadMem_40f619 = load %struct.Memory*, %struct.Memory** %MEMORY
  %128 = getelementptr inbounds %struct.State, %struct.State* %0, i32 0, i32 6
  %129 = getelementptr inbounds %struct.GPR, %struct.GPR* %128, i32 0, i32 33
  %130 = getelementptr inbounds %struct.Reg, %struct.Reg* %129, i32 0, i32 0
  %PC.i37 = bitcast %union.anon* %130 to i64*
  %131 = getelementptr inbounds %struct.State, %struct.State* %0, i32 0, i32 6
  %132 = getelementptr inbounds %struct.GPR, %struct.GPR* %131, i32 0, i32 11
  %133 = getelementptr inbounds %struct.Reg, %struct.Reg* %132, i32 0, i32 0
  %RDI.i38 = bitcast %union.anon* %133 to i64*
  %134 = getelementptr inbounds %struct.State, %struct.State* %0, i32 0, i32 6
  %135 = getelementptr inbounds %struct.GPR, %struct.GPR* %134, i32 0, i32 15
  %136 = getelementptr inbounds %struct.Reg, %struct.Reg* %135, i32 0, i32 0
  %RBP.i39 = bitcast %union.anon* %136 to i64*
  %137 = load i64, i64* %RBP.i39
  %138 = sub i64 %137, 8
  %139 = load i64, i64* %PC.i37
  %140 = add i64 %139, 3
  store i64 %140, i64* %PC.i37
  %141 = inttoptr i64 %138 to i32*
  %142 = load i32, i32* %141
  %143 = zext i32 %142 to i64
  store i64 %143, i64* %RDI.i38, align 8
  store %struct.Memory* %loadMem_40f619, %struct.Memory** %MEMORY
  %loadMem_40f61c = load %struct.Memory*, %struct.Memory** %MEMORY
  %144 = getelementptr inbounds %struct.State, %struct.State* %0, i32 0, i32 6
  %145 = getelementptr inbounds %struct.GPR, %struct.GPR* %144, i32 0, i32 33
  %146 = getelementptr inbounds %struct.Reg, %struct.Reg* %145, i32 0, i32 0
  %PC.i35 = bitcast %union.anon* %146 to i64*
  %147 = getelementptr inbounds %struct.State, %struct.State* %0, i32 0, i32 6
  %148 = getelementptr inbounds %struct.GPR, %struct.GPR* %147, i32 0, i32 11
  %149 = getelementptr inbounds %struct.Reg, %struct.Reg* %148, i32 0, i32 0
  %EDI.i = bitcast %union.anon* %149 to i32*
  %150 = getelementptr inbounds %struct.State, %struct.State* %0, i32 0, i32 6
  %151 = getelementptr inbounds %struct.GPR, %struct.GPR* %150, i32 0, i32 15
  %152 = getelementptr inbounds %struct.Reg, %struct.Reg* %151, i32 0, i32 0
  %RBP.i36 = bitcast %union.anon* %152 to i64*
  %153 = load i64, i64* %RBP.i36
  %154 = sub i64 %153, 16
  %155 = load i32, i32* %EDI.i
  %156 = zext i32 %155 to i64
  %157 = load i64, i64* %PC.i35
  %158 = add i64 %157, 3
  store i64 %158, i64* %PC.i35
  %159 = inttoptr i64 %154 to i32*
  store i32 %155, i32* %159
  store %struct.Memory* %loadMem_40f61c, %struct.Memory** %MEMORY
  %loadMem_40f61f = load %struct.Memory*, %struct.Memory** %MEMORY
  %160 = getelementptr inbounds %struct.State, %struct.State* %0, i32 0, i32 6
  %161 = getelementptr inbounds %struct.GPR, %struct.GPR* %160, i32 0, i32 33
  %162 = getelementptr inbounds %struct.Reg, %struct.Reg* %161, i32 0, i32 0
  %PC.i33 = bitcast %union.anon* %162 to i64*
  %163 = getelementptr inbounds %struct.State, %struct.State* %0, i32 0, i32 6
  %164 = getelementptr inbounds %struct.GPR, %struct.GPR* %163, i32 0, i32 9
  %165 = getelementptr inbounds %struct.Reg, %struct.Reg* %164, i32 0, i32 0
  %ESI.i = bitcast %union.anon* %165 to i32*
  %166 = getelementptr inbounds %struct.State, %struct.State* %0, i32 0, i32 6
  %167 = getelementptr inbounds %struct.GPR, %struct.GPR* %166, i32 0, i32 11
  %168 = getelementptr inbounds %struct.Reg, %struct.Reg* %167, i32 0, i32 0
  %RDI.i34 = bitcast %union.anon* %168 to i64*
  %169 = load i32, i32* %ESI.i
  %170 = zext i32 %169 to i64
  %171 = load i64, i64* %PC.i33
  %172 = add i64 %171, 2
  store i64 %172, i64* %PC.i33
  %173 = and i64 %170, 4294967295
  store i64 %173, i64* %RDI.i34, align 8
  store %struct.Memory* %loadMem_40f61f, %struct.Memory** %MEMORY
  %loadMem_40f621 = load %struct.Memory*, %struct.Memory** %MEMORY
  %174 = getelementptr inbounds %struct.State, %struct.State* %0, i32 0, i32 6
  %175 = getelementptr inbounds %struct.GPR, %struct.GPR* %174, i32 0, i32 33
  %176 = getelementptr inbounds %struct.Reg, %struct.Reg* %175, i32 0, i32 0
  %PC.i30 = bitcast %union.anon* %176 to i64*
  %177 = getelementptr inbounds %struct.State, %struct.State* %0, i32 0, i32 6
  %178 = getelementptr inbounds %struct.GPR, %struct.GPR* %177, i32 0, i32 9
  %179 = getelementptr inbounds %struct.Reg, %struct.Reg* %178, i32 0, i32 0
  %RSI.i31 = bitcast %union.anon* %179 to i64*
  %180 = getelementptr inbounds %struct.State, %struct.State* %0, i32 0, i32 6
  %181 = getelementptr inbounds %struct.GPR, %struct.GPR* %180, i32 0, i32 15
  %182 = getelementptr inbounds %struct.Reg, %struct.Reg* %181, i32 0, i32 0
  %RBP.i32 = bitcast %union.anon* %182 to i64*
  %183 = load i64, i64* %RBP.i32
  %184 = sub i64 %183, 16
  %185 = load i64, i64* %PC.i30
  %186 = add i64 %185, 3
  store i64 %186, i64* %PC.i30
  %187 = inttoptr i64 %184 to i32*
  %188 = load i32, i32* %187
  %189 = zext i32 %188 to i64
  store i64 %189, i64* %RSI.i31, align 8
  store %struct.Memory* %loadMem_40f621, %struct.Memory** %MEMORY
  %loadMem1_40f624 = load %struct.Memory*, %struct.Memory** %MEMORY
  %190 = getelementptr inbounds %struct.State, %struct.State* %0, i32 0, i32 6
  %191 = getelementptr inbounds %struct.GPR, %struct.GPR* %190, i32 0, i32 33
  %192 = getelementptr inbounds %struct.Reg, %struct.Reg* %191, i32 0, i32 0
  %PC.i29 = bitcast %union.anon* %192 to i64*
  %193 = load i64, i64* %PC.i29
  %194 = add i64 %193, 76
  %195 = load i64, i64* %PC.i29
  %196 = add i64 %195, 5
  %197 = load i64, i64* %PC.i29
  %198 = add i64 %197, 5
  store i64 %198, i64* %PC.i29
  %199 = getelementptr inbounds %struct.State, %struct.State* %0, i64 0, i32 6, i32 13, i32 0, i32 0
  %200 = load i64, i64* %199, align 8
  %201 = add i64 %200, -8
  %202 = inttoptr i64 %201 to i64*
  store i64 %196, i64* %202
  store i64 %201, i64* %199, align 8
  %203 = getelementptr inbounds %struct.State, %struct.State* %0, i64 0, i32 6, i32 33, i32 0, i32 0
  store i64 %194, i64* %203, align 8
  store %struct.Memory* %loadMem1_40f624, %struct.Memory** %MEMORY
  %loadMem2_40f624 = load %struct.Memory*, %struct.Memory** %MEMORY
  %loadPC_40f624 = load i64, i64* %3
  %call2_40f624 = call %struct.Memory* @sub_40f670._ZN19custom_add_variableIjE8do_shiftEjj(%struct.State* %0, i64 %loadPC_40f624, %struct.Memory* %loadMem2_40f624)
  store %struct.Memory* %call2_40f624, %struct.Memory** %MEMORY
  %loadMem_40f629 = load %struct.Memory*, %struct.Memory** %MEMORY
  %204 = getelementptr inbounds %struct.State, %struct.State* %0, i32 0, i32 6
  %205 = getelementptr inbounds %struct.GPR, %struct.GPR* %204, i32 0, i32 33
  %206 = getelementptr inbounds %struct.Reg, %struct.Reg* %205, i32 0, i32 0
  %PC.i26 = bitcast %union.anon* %206 to i64*
  %207 = getelementptr inbounds %struct.State, %struct.State* %0, i32 0, i32 6
  %208 = getelementptr inbounds %struct.GPR, %struct.GPR* %207, i32 0, i32 11
  %209 = getelementptr inbounds %struct.Reg, %struct.Reg* %208, i32 0, i32 0
  %RDI.i27 = bitcast %union.anon* %209 to i64*
  %210 = getelementptr inbounds %struct.State, %struct.State* %0, i32 0, i32 6
  %211 = getelementptr inbounds %struct.GPR, %struct.GPR* %210, i32 0, i32 15
  %212 = getelementptr inbounds %struct.Reg, %struct.Reg* %211, i32 0, i32 0
  %RBP.i28 = bitcast %union.anon* %212 to i64*
  %213 = load i64, i64* %RBP.i28
  %214 = sub i64 %213, 4
  %215 = load i64, i64* %PC.i26
  %216 = add i64 %215, 4
  store i64 %216, i64* %PC.i26
  store i64 %214, i64* %RDI.i27, align 8
  store %struct.Memory* %loadMem_40f629, %struct.Memory** %MEMORY
  %loadMem_40f62d = load %struct.Memory*, %struct.Memory** %MEMORY
  %217 = getelementptr inbounds %struct.State, %struct.State* %0, i32 0, i32 6
  %218 = getelementptr inbounds %struct.GPR, %struct.GPR* %217, i32 0, i32 33
  %219 = getelementptr inbounds %struct.Reg, %struct.Reg* %218, i32 0, i32 0
  %PC.i23 = bitcast %union.anon* %219 to i64*
  %220 = getelementptr inbounds %struct.State, %struct.State* %0, i32 0, i32 6
  %221 = getelementptr inbounds %struct.GPR, %struct.GPR* %220, i32 0, i32 9
  %222 = getelementptr inbounds %struct.Reg, %struct.Reg* %221, i32 0, i32 0
  %RSI.i24 = bitcast %union.anon* %222 to i64*
  %223 = getelementptr inbounds %struct.State, %struct.State* %0, i32 0, i32 6
  %224 = getelementptr inbounds %struct.GPR, %struct.GPR* %223, i32 0, i32 15
  %225 = getelementptr inbounds %struct.Reg, %struct.Reg* %224, i32 0, i32 0
  %RBP.i25 = bitcast %union.anon* %225 to i64*
  %226 = load i64, i64* %RBP.i25
  %227 = sub i64 %226, 12
  %228 = load i64, i64* %PC.i23
  %229 = add i64 %228, 4
  store i64 %229, i64* %PC.i23
  store i64 %227, i64* %RSI.i24, align 8
  store %struct.Memory* %loadMem_40f62d, %struct.Memory** %MEMORY
  %loadMem_40f631 = load %struct.Memory*, %struct.Memory** %MEMORY
  %230 = getelementptr inbounds %struct.State, %struct.State* %0, i32 0, i32 6
  %231 = getelementptr inbounds %struct.GPR, %struct.GPR* %230, i32 0, i32 33
  %232 = getelementptr inbounds %struct.Reg, %struct.Reg* %231, i32 0, i32 0
  %PC.i21 = bitcast %union.anon* %232 to i64*
  %233 = getelementptr inbounds %struct.State, %struct.State* %0, i32 0, i32 6
  %234 = getelementptr inbounds %struct.GPR, %struct.GPR* %233, i32 0, i32 1
  %235 = getelementptr inbounds %struct.Reg, %struct.Reg* %234, i32 0, i32 0
  %EAX.i22 = bitcast %union.anon* %235 to i32*
  %236 = getelementptr inbounds %struct.State, %struct.State* %0, i32 0, i32 6
  %237 = getelementptr inbounds %struct.GPR, %struct.GPR* %236, i32 0, i32 1
  %238 = getelementptr inbounds %struct.Reg, %struct.Reg* %237, i32 0, i32 0
  %RAX.i = bitcast %union.anon* %238 to i64*
  %239 = load i32, i32* %EAX.i22
  %240 = zext i32 %239 to i64
  %241 = load i64, i64* %PC.i21
  %242 = add i64 %241, 6
  store i64 %242, i64* %PC.i21
  %243 = shl i64 %240, 32
  %244 = ashr exact i64 %243, 32
  %245 = mul i64 8000, %244
  %246 = trunc i64 %245 to i32
  %247 = and i64 %245, 4294967295
  store i64 %247, i64* %RAX.i, align 8
  %248 = shl i64 %245, 32
  %249 = ashr exact i64 %248, 32
  %250 = icmp ne i64 %249, %245
  %251 = zext i1 %250 to i8
  %252 = getelementptr inbounds %struct.State, %struct.State* %0, i64 0, i32 2, i32 1
  store i8 %251, i8* %252, align 1
  %253 = and i32 %246, 255
  %254 = call i32 @llvm.ctpop.i32(i32 %253)
  %255 = trunc i32 %254 to i8
  %256 = and i8 %255, 1
  %257 = xor i8 %256, 1
  %258 = getelementptr inbounds %struct.State, %struct.State* %0, i64 0, i32 2, i32 3
  store i8 %257, i8* %258, align 1
  %259 = getelementptr inbounds %struct.State, %struct.State* %0, i64 0, i32 2, i32 5
  store i8 0, i8* %259, align 1
  %260 = getelementptr inbounds %struct.State, %struct.State* %0, i64 0, i32 2, i32 7
  store i8 0, i8* %260, align 1
  %261 = lshr i32 %246, 31
  %262 = trunc i32 %261 to i8
  %263 = getelementptr inbounds %struct.State, %struct.State* %0, i64 0, i32 2, i32 9
  store i8 %262, i8* %263, align 1
  %264 = getelementptr inbounds %struct.State, %struct.State* %0, i64 0, i32 2, i32 13
  store i8 %251, i8* %264, align 1
  store %struct.Memory* %loadMem_40f631, %struct.Memory** %MEMORY
  %loadMem_40f637 = load %struct.Memory*, %struct.Memory** %MEMORY
  %265 = getelementptr inbounds %struct.State, %struct.State* %0, i32 0, i32 6
  %266 = getelementptr inbounds %struct.GPR, %struct.GPR* %265, i32 0, i32 33
  %267 = getelementptr inbounds %struct.Reg, %struct.Reg* %266, i32 0, i32 0
  %PC.i18 = bitcast %union.anon* %267 to i64*
  %268 = getelementptr inbounds %struct.State, %struct.State* %0, i32 0, i32 6
  %269 = getelementptr inbounds %struct.GPR, %struct.GPR* %268, i32 0, i32 1
  %270 = getelementptr inbounds %struct.Reg, %struct.Reg* %269, i32 0, i32 0
  %EAX.i19 = bitcast %union.anon* %270 to i32*
  %271 = getelementptr inbounds %struct.State, %struct.State* %0, i32 0, i32 6
  %272 = getelementptr inbounds %struct.GPR, %struct.GPR* %271, i32 0, i32 15
  %273 = getelementptr inbounds %struct.Reg, %struct.Reg* %272, i32 0, i32 0
  %RBP.i20 = bitcast %union.anon* %273 to i64*
  %274 = load i64, i64* %RBP.i20
  %275 = sub i64 %274, 12
  %276 = load i32, i32* %EAX.i19
  %277 = zext i32 %276 to i64
  %278 = load i64, i64* %PC.i18
  %279 = add i64 %278, 3
  store i64 %279, i64* %PC.i18
  %280 = inttoptr i64 %275 to i32*
  store i32 %276, i32* %280
  store %struct.Memory* %loadMem_40f637, %struct.Memory** %MEMORY
  %loadMem1_40f63a = load %struct.Memory*, %struct.Memory** %MEMORY
  %281 = getelementptr inbounds %struct.State, %struct.State* %0, i32 0, i32 6
  %282 = getelementptr inbounds %struct.GPR, %struct.GPR* %281, i32 0, i32 33
  %283 = getelementptr inbounds %struct.Reg, %struct.Reg* %282, i32 0, i32 0
  %PC.i17 = bitcast %union.anon* %283 to i64*
  %284 = load i64, i64* %PC.i17
  %285 = add i64 %284, -2586
  %286 = load i64, i64* %PC.i17
  %287 = add i64 %286, 5
  %288 = load i64, i64* %PC.i17
  %289 = add i64 %288, 5
  store i64 %289, i64* %PC.i17
  %290 = getelementptr inbounds %struct.State, %struct.State* %0, i64 0, i32 6, i32 13, i32 0, i32 0
  %291 = load i64, i64* %290, align 8
  %292 = add i64 %291, -8
  %293 = inttoptr i64 %292 to i64*
  store i64 %287, i64* %293
  store i64 %292, i64* %290, align 8
  %294 = getelementptr inbounds %struct.State, %struct.State* %0, i64 0, i32 6, i32 33, i32 0, i32 0
  store i64 %285, i64* %294, align 8
  store %struct.Memory* %loadMem1_40f63a, %struct.Memory** %MEMORY
  %loadMem2_40f63a = load %struct.Memory*, %struct.Memory** %MEMORY
  %loadPC_40f63a = load i64, i64* %3
  %call2_40f63a = call %struct.Memory* @sub_40ec20._Z15tolerance_equalIjEbRT_S1_(%struct.State* %0, i64 %loadPC_40f63a, %struct.Memory* %loadMem2_40f63a)
  store %struct.Memory* %call2_40f63a, %struct.Memory** %MEMORY
  %loadMem_40f63f = load %struct.Memory*, %struct.Memory** %MEMORY
  %295 = getelementptr inbounds %struct.State, %struct.State* %0, i32 0, i32 6
  %296 = getelementptr inbounds %struct.GPR, %struct.GPR* %295, i32 0, i32 33
  %297 = getelementptr inbounds %struct.Reg, %struct.Reg* %296, i32 0, i32 0
  %PC.i15 = bitcast %union.anon* %297 to i64*
  %298 = getelementptr inbounds %struct.State, %struct.State* %0, i32 0, i32 6
  %299 = getelementptr inbounds %struct.GPR, %struct.GPR* %298, i32 0, i32 1
  %300 = getelementptr inbounds %struct.Reg, %struct.Reg* %299, i32 0, i32 0
  %301 = bitcast %union.anon* %300 to %struct.anon.2*
  %AL.i16 = getelementptr inbounds %struct.anon.2, %struct.anon.2* %301, i32 0, i32 0
  %302 = load i8, i8* %AL.i16
  %303 = zext i8 %302 to i64
  %304 = load i64, i64* %PC.i15
  %305 = add i64 %304, 2
  store i64 %305, i64* %PC.i15
  %306 = and i64 1, %303
  %307 = trunc i64 %306 to i8
  %308 = getelementptr inbounds %struct.State, %struct.State* %0, i64 0, i32 2, i32 1
  store i8 0, i8* %308, align 1
  %309 = trunc i64 %306 to i32
  %310 = and i32 %309, 255
  %311 = call i32 @llvm.ctpop.i32(i32 %310)
  %312 = trunc i32 %311 to i8
  %313 = and i8 %312, 1
  %314 = xor i8 %313, 1
  %315 = getelementptr inbounds %struct.State, %struct.State* %0, i64 0, i32 2, i32 3
  store i8 %314, i8* %315, align 1
  %316 = icmp eq i8 %307, 0
  %317 = zext i1 %316 to i8
  %318 = getelementptr inbounds %struct.State, %struct.State* %0, i64 0, i32 2, i32 7
  store i8 %317, i8* %318, align 1
  %319 = getelementptr inbounds %struct.State, %struct.State* %0, i64 0, i32 2, i32 9
  store i8 0, i8* %319, align 1
  %320 = getelementptr inbounds %struct.State, %struct.State* %0, i64 0, i32 2, i32 13
  store i8 0, i8* %320, align 1
  %321 = getelementptr inbounds %struct.State, %struct.State* %0, i64 0, i32 2, i32 5
  store i8 0, i8* %321, align 1
  store %struct.Memory* %loadMem_40f63f, %struct.Memory** %MEMORY
  %loadMem_40f641 = load %struct.Memory*, %struct.Memory** %MEMORY
  %322 = getelementptr inbounds %struct.State, %struct.State* %0, i32 0, i32 6
  %323 = getelementptr inbounds %struct.GPR, %struct.GPR* %322, i32 0, i32 33
  %324 = getelementptr inbounds %struct.Reg, %struct.Reg* %323, i32 0, i32 0
  %PC.i14 = bitcast %union.anon* %324 to i64*
  %325 = load i64, i64* %PC.i14
  %326 = add i64 %325, 33
  %327 = load i64, i64* %PC.i14
  %328 = add i64 %327, 6
  %329 = load i64, i64* %PC.i14
  %330 = add i64 %329, 6
  store i64 %330, i64* %PC.i14
  %331 = getelementptr inbounds %struct.State, %struct.State* %0, i64 0, i32 2, i32 7
  %332 = load i8, i8* %331, align 1
  %333 = icmp eq i8 %332, 0
  %334 = zext i1 %333 to i8
  store i8 %334, i8* %BRANCH_TAKEN, align 1
  %335 = getelementptr inbounds %struct.State, %struct.State* %0, i64 0, i32 6, i32 33, i32 0, i32 0
  %336 = select i1 %333, i64 %326, i64 %328
  store i64 %336, i64* %335, align 8
  store %struct.Memory* %loadMem_40f641, %struct.Memory** %MEMORY
  %loadBr_40f641 = load i8, i8* %BRANCH_TAKEN
  %cmpBr_40f641 = icmp eq i8 %loadBr_40f641, 1
  br i1 %cmpBr_40f641, label %block_.L_40f662, label %block_40f647

block_40f647:                                     ; preds = %entry
  %loadMem_40f647 = load %struct.Memory*, %struct.Memory** %MEMORY
  %337 = getelementptr inbounds %struct.State, %struct.State* %0, i32 0, i32 6
  %338 = getelementptr inbounds %struct.GPR, %struct.GPR* %337, i32 0, i32 33
  %339 = getelementptr inbounds %struct.Reg, %struct.Reg* %338, i32 0, i32 0
  %PC.i13 = bitcast %union.anon* %339 to i64*
  %340 = getelementptr inbounds %struct.State, %struct.State* %0, i32 0, i32 6
  %341 = getelementptr inbounds %struct.GPR, %struct.GPR* %340, i32 0, i32 11
  %342 = getelementptr inbounds %struct.Reg, %struct.Reg* %341, i32 0, i32 0
  %RDI.i = bitcast %union.anon* %342 to i64*
  %343 = load i64, i64* %PC.i13
  %344 = add i64 %343, 10
  store i64 %344, i64* %PC.i13
  store i64 ptrtoint (%G__0x414aee_type* @G__0x414aee to i64), i64* %RDI.i, align 8
  store %struct.Memory* %loadMem_40f647, %struct.Memory** %MEMORY
  %loadMem_40f651 = load %struct.Memory*, %struct.Memory** %MEMORY
  %345 = getelementptr inbounds %struct.State, %struct.State* %0, i32 0, i32 6
  %346 = getelementptr inbounds %struct.GPR, %struct.GPR* %345, i32 0, i32 33
  %347 = getelementptr inbounds %struct.Reg, %struct.Reg* %346, i32 0, i32 0
  %PC.i12 = bitcast %union.anon* %347 to i64*
  %348 = getelementptr inbounds %struct.State, %struct.State* %0, i32 0, i32 6
  %349 = getelementptr inbounds %struct.GPR, %struct.GPR* %348, i32 0, i32 9
  %350 = getelementptr inbounds %struct.Reg, %struct.Reg* %349, i32 0, i32 0
  %RSI.i = bitcast %union.anon* %350 to i64*
  %351 = load i64, i64* %PC.i12
  %352 = add i64 %351, 7
  store i64 %352, i64* %PC.i12
  %353 = load i32, i32* bitcast (%G_0x61a0a8_type* @G_0x61a0a8 to i32*)
  %354 = zext i32 %353 to i64
  store i64 %354, i64* %RSI.i, align 8
  store %struct.Memory* %loadMem_40f651, %struct.Memory** %MEMORY
  %loadMem_40f658 = load %struct.Memory*, %struct.Memory** %MEMORY
  %355 = getelementptr inbounds %struct.State, %struct.State* %0, i32 0, i32 6
  %356 = getelementptr inbounds %struct.GPR, %struct.GPR* %355, i32 0, i32 33
  %357 = getelementptr inbounds %struct.Reg, %struct.Reg* %356, i32 0, i32 0
  %PC.i11 = bitcast %union.anon* %357 to i64*
  %358 = getelementptr inbounds %struct.State, %struct.State* %0, i32 0, i32 6
  %359 = getelementptr inbounds %struct.GPR, %struct.GPR* %358, i32 0, i32 1
  %360 = getelementptr inbounds %struct.Reg, %struct.Reg* %359, i32 0, i32 0
  %361 = bitcast %union.anon* %360 to %struct.anon.2*
  %AL.i = getelementptr inbounds %struct.anon.2, %struct.anon.2* %361, i32 0, i32 0
  %362 = load i64, i64* %PC.i11
  %363 = add i64 %362, 2
  store i64 %363, i64* %PC.i11
  store i8 0, i8* %AL.i, align 1
  store %struct.Memory* %loadMem_40f658, %struct.Memory** %MEMORY
  %loadMem1_40f65a = load %struct.Memory*, %struct.Memory** %MEMORY
  %364 = getelementptr inbounds %struct.State, %struct.State* %0, i32 0, i32 6
  %365 = getelementptr inbounds %struct.GPR, %struct.GPR* %364, i32 0, i32 33
  %366 = getelementptr inbounds %struct.Reg, %struct.Reg* %365, i32 0, i32 0
  %PC.i10 = bitcast %union.anon* %366 to i64*
  %367 = load i64, i64* %PC.i10
  %368 = add i64 %367, -61402
  %369 = load i64, i64* %PC.i10
  %370 = add i64 %369, 5
  %371 = load i64, i64* %PC.i10
  %372 = add i64 %371, 5
  store i64 %372, i64* %PC.i10
  %373 = getelementptr inbounds %struct.State, %struct.State* %0, i64 0, i32 6, i32 13, i32 0, i32 0
  %374 = load i64, i64* %373, align 8
  %375 = add i64 %374, -8
  %376 = inttoptr i64 %375 to i64*
  store i64 %370, i64* %376
  store i64 %375, i64* %373, align 8
  %377 = getelementptr inbounds %struct.State, %struct.State* %0, i64 0, i32 6, i32 33, i32 0, i32 0
  store i64 %368, i64* %377, align 8
  store %struct.Memory* %loadMem1_40f65a, %struct.Memory** %MEMORY
  %loadMem2_40f65a = load %struct.Memory*, %struct.Memory** %MEMORY
  %loadPC_40f65a = load i64, i64* %3
  %378 = call %struct.Memory* @__remill_function_call(%struct.State* %0, i64 ptrtoint (i64 (i64, i64, i64, i64, i64, i64, i64, i64, i64, i64, i64, i64, i64, i64, i64, i64)* @printf to i64), %struct.Memory* %loadMem2_40f65a)
  store %struct.Memory* %378, %struct.Memory** %MEMORY
  %loadMem_40f65f = load %struct.Memory*, %struct.Memory** %MEMORY
  %379 = getelementptr inbounds %struct.State, %struct.State* %0, i32 0, i32 6
  %380 = getelementptr inbounds %struct.GPR, %struct.GPR* %379, i32 0, i32 33
  %381 = getelementptr inbounds %struct.Reg, %struct.Reg* %380, i32 0, i32 0
  %PC.i5 = bitcast %union.anon* %381 to i64*
  %382 = getelementptr inbounds %struct.State, %struct.State* %0, i32 0, i32 6
  %383 = getelementptr inbounds %struct.GPR, %struct.GPR* %382, i32 0, i32 1
  %384 = getelementptr inbounds %struct.Reg, %struct.Reg* %383, i32 0, i32 0
  %EAX.i = bitcast %union.anon* %384 to i32*
  %385 = getelementptr inbounds %struct.State, %struct.State* %0, i32 0, i32 6
  %386 = getelementptr inbounds %struct.GPR, %struct.GPR* %385, i32 0, i32 15
  %387 = getelementptr inbounds %struct.Reg, %struct.Reg* %386, i32 0, i32 0
  %RBP.i6 = bitcast %union.anon* %387 to i64*
  %388 = load i64, i64* %RBP.i6
  %389 = sub i64 %388, 20
  %390 = load i32, i32* %EAX.i
  %391 = zext i32 %390 to i64
  %392 = load i64, i64* %PC.i5
  %393 = add i64 %392, 3
  store i64 %393, i64* %PC.i5
  %394 = inttoptr i64 %389 to i32*
  store i32 %390, i32* %394
  store %struct.Memory* %loadMem_40f65f, %struct.Memory** %MEMORY
  br label %block_.L_40f662

block_.L_40f662:                                  ; preds = %block_40f647, %entry
  %loadMem_40f662 = load %struct.Memory*, %struct.Memory** %MEMORY
  %395 = getelementptr inbounds %struct.State, %struct.State* %0, i32 0, i32 6
  %396 = getelementptr inbounds %struct.GPR, %struct.GPR* %395, i32 0, i32 33
  %397 = getelementptr inbounds %struct.Reg, %struct.Reg* %396, i32 0, i32 0
  %PC.i4 = bitcast %union.anon* %397 to i64*
  %398 = getelementptr inbounds %struct.State, %struct.State* %0, i32 0, i32 6
  %399 = getelementptr inbounds %struct.GPR, %struct.GPR* %398, i32 0, i32 13
  %400 = getelementptr inbounds %struct.Reg, %struct.Reg* %399, i32 0, i32 0
  %RSP.i = bitcast %union.anon* %400 to i64*
  %401 = load i64, i64* %RSP.i
  %402 = load i64, i64* %PC.i4
  %403 = add i64 %402, 4
  store i64 %403, i64* %PC.i4
  %404 = add i64 32, %401
  store i64 %404, i64* %RSP.i, align 8
  %405 = icmp ult i64 %404, %401
  %406 = icmp ult i64 %404, 32
  %407 = or i1 %405, %406
  %408 = zext i1 %407 to i8
  %409 = getelementptr inbounds %struct.State, %struct.State* %0, i64 0, i32 2, i32 1
  store i8 %408, i8* %409, align 1
  %410 = trunc i64 %404 to i32
  %411 = and i32 %410, 255
  %412 = call i32 @llvm.ctpop.i32(i32 %411)
  %413 = trunc i32 %412 to i8
  %414 = and i8 %413, 1
  %415 = xor i8 %414, 1
  %416 = getelementptr inbounds %struct.State, %struct.State* %0, i64 0, i32 2, i32 3
  store i8 %415, i8* %416, align 1
  %417 = xor i64 32, %401
  %418 = xor i64 %417, %404
  %419 = lshr i64 %418, 4
  %420 = trunc i64 %419 to i8
  %421 = and i8 %420, 1
  %422 = getelementptr inbounds %struct.State, %struct.State* %0, i64 0, i32 2, i32 5
  store i8 %421, i8* %422, align 1
  %423 = icmp eq i64 %404, 0
  %424 = zext i1 %423 to i8
  %425 = getelementptr inbounds %struct.State, %struct.State* %0, i64 0, i32 2, i32 7
  store i8 %424, i8* %425, align 1
  %426 = lshr i64 %404, 63
  %427 = trunc i64 %426 to i8
  %428 = getelementptr inbounds %struct.State, %struct.State* %0, i64 0, i32 2, i32 9
  store i8 %427, i8* %428, align 1
  %429 = lshr i64 %401, 63
  %430 = xor i64 %426, %429
  %431 = add i64 %430, %426
  %432 = icmp eq i64 %431, 2
  %433 = zext i1 %432 to i8
  %434 = getelementptr inbounds %struct.State, %struct.State* %0, i64 0, i32 2, i32 13
  store i8 %433, i8* %434, align 1
  store %struct.Memory* %loadMem_40f662, %struct.Memory** %MEMORY
  %loadMem_40f666 = load %struct.Memory*, %struct.Memory** %MEMORY
  %435 = getelementptr inbounds %struct.State, %struct.State* %0, i32 0, i32 6
  %436 = getelementptr inbounds %struct.GPR, %struct.GPR* %435, i32 0, i32 33
  %437 = getelementptr inbounds %struct.Reg, %struct.Reg* %436, i32 0, i32 0
  %PC.i2 = bitcast %union.anon* %437 to i64*
  %438 = getelementptr inbounds %struct.State, %struct.State* %0, i32 0, i32 6
  %439 = getelementptr inbounds %struct.GPR, %struct.GPR* %438, i32 0, i32 15
  %440 = getelementptr inbounds %struct.Reg, %struct.Reg* %439, i32 0, i32 0
  %RBP.i3 = bitcast %union.anon* %440 to i64*
  %441 = load i64, i64* %PC.i2
  %442 = add i64 %441, 1
  store i64 %442, i64* %PC.i2
  %443 = getelementptr inbounds %struct.State, %struct.State* %0, i64 0, i32 6, i32 13, i32 0, i32 0
  %444 = load i64, i64* %443, align 8
  %445 = add i64 %444, 8
  %446 = inttoptr i64 %444 to i64*
  %447 = load i64, i64* %446
  store i64 %447, i64* %RBP.i3, align 8
  store i64 %445, i64* %443, align 8
  store %struct.Memory* %loadMem_40f666, %struct.Memory** %MEMORY
  %loadMem_40f667 = load %struct.Memory*, %struct.Memory** %MEMORY
  %448 = getelementptr inbounds %struct.State, %struct.State* %0, i32 0, i32 6
  %449 = getelementptr inbounds %struct.GPR, %struct.GPR* %448, i32 0, i32 33
  %450 = getelementptr inbounds %struct.Reg, %struct.Reg* %449, i32 0, i32 0
  %PC.i1 = bitcast %union.anon* %450 to i64*
  %451 = load i64, i64* %PC.i1
  %452 = add i64 %451, 1
  store i64 %452, i64* %PC.i1
  %453 = getelementptr inbounds %struct.State, %struct.State* %0, i64 0, i32 6, i32 33, i32 0, i32 0
  %454 = getelementptr inbounds %struct.State, %struct.State* %0, i64 0, i32 6, i32 13, i32 0, i32 0
  %455 = load i64, i64* %454, align 8
  %456 = inttoptr i64 %455 to i64*
  %457 = load i64, i64* %456
  store i64 %457, i64* %453, align 8
  %458 = add i64 %455, 8
  store i64 %458, i64* %454, align 8
  store %struct.Memory* %loadMem_40f667, %struct.Memory** %MEMORY
  ret %struct.Memory* %loadMem_40f667
}

define %struct.Memory* @routine_pushq__rbp(%struct.State* dereferenceable(3376), i64, %struct.Memory*) {
block_400478:
  %3 = getelementptr inbounds %struct.State, %struct.State* %0, i32 0, i32 6
  %4 = getelementptr inbounds %struct.GPR, %struct.GPR* %3, i32 0, i32 33
  %5 = getelementptr inbounds %struct.Reg, %struct.Reg* %4, i32 0, i32 0
  %PC = bitcast %union.anon* %5 to i64*
  %6 = getelementptr inbounds %struct.State, %struct.State* %0, i32 0, i32 6
  %7 = getelementptr inbounds %struct.GPR, %struct.GPR* %6, i32 0, i32 15
  %8 = getelementptr inbounds %struct.Reg, %struct.Reg* %7, i32 0, i32 0
  %RBP = bitcast %union.anon* %8 to i64*
  %9 = load i64, i64* %RBP
  %10 = load i64, i64* %PC
  %11 = add i64 %10, 1
  store i64 %11, i64* %PC
  %12 = getelementptr inbounds %struct.State, %struct.State* %0, i64 0, i32 6, i32 13, i32 0, i32 0
  %13 = load i64, i64* %12, align 8
  %14 = add i64 %13, -8
  %15 = inttoptr i64 %14 to i64*
  store i64 %9, i64* %15
  store i64 %14, i64* %12, align 8
  ret %struct.Memory* %2
}

define %struct.Memory* @routine_movq__rsp___rbp(%struct.State* dereferenceable(3376), i64, %struct.Memory*) {
block_400478:
  %3 = getelementptr inbounds %struct.State, %struct.State* %0, i32 0, i32 6
  %4 = getelementptr inbounds %struct.GPR, %struct.GPR* %3, i32 0, i32 33
  %5 = getelementptr inbounds %struct.Reg, %struct.Reg* %4, i32 0, i32 0
  %PC = bitcast %union.anon* %5 to i64*
  %6 = getelementptr inbounds %struct.State, %struct.State* %0, i32 0, i32 6
  %7 = getelementptr inbounds %struct.GPR, %struct.GPR* %6, i32 0, i32 13
  %8 = getelementptr inbounds %struct.Reg, %struct.Reg* %7, i32 0, i32 0
  %RSP = bitcast %union.anon* %8 to i64*
  %9 = getelementptr inbounds %struct.State, %struct.State* %0, i32 0, i32 6
  %10 = getelementptr inbounds %struct.GPR, %struct.GPR* %9, i32 0, i32 15
  %11 = getelementptr inbounds %struct.Reg, %struct.Reg* %10, i32 0, i32 0
  %RBP = bitcast %union.anon* %11 to i64*
  %12 = load i64, i64* %RSP
  %13 = load i64, i64* %PC
  %14 = add i64 %13, 3
  store i64 %14, i64* %PC
  store i64 %12, i64* %RBP, align 8
  ret %struct.Memory* %2
}

define %struct.Memory* @routine_subq__0x20___rsp(%struct.State* dereferenceable(3376), i64, %struct.Memory*) {
block_400478:
  %3 = getelementptr inbounds %struct.State, %struct.State* %0, i32 0, i32 6
  %4 = getelementptr inbounds %struct.GPR, %struct.GPR* %3, i32 0, i32 33
  %5 = getelementptr inbounds %struct.Reg, %struct.Reg* %4, i32 0, i32 0
  %PC = bitcast %union.anon* %5 to i64*
  %6 = getelementptr inbounds %struct.State, %struct.State* %0, i32 0, i32 6
  %7 = getelementptr inbounds %struct.GPR, %struct.GPR* %6, i32 0, i32 13
  %8 = getelementptr inbounds %struct.Reg, %struct.Reg* %7, i32 0, i32 0
  %RSP = bitcast %union.anon* %8 to i64*
  %9 = load i64, i64* %RSP
  %10 = load i64, i64* %PC
  %11 = add i64 %10, 4
  store i64 %11, i64* %PC
  %12 = sub i64 %9, 32
  store i64 %12, i64* %RSP, align 8
  %13 = icmp ult i64 %9, 32
  %14 = zext i1 %13 to i8
  %15 = getelementptr inbounds %struct.State, %struct.State* %0, i64 0, i32 2, i32 1
  store i8 %14, i8* %15, align 1
  %16 = trunc i64 %12 to i32
  %17 = and i32 %16, 255
  %18 = call i32 @llvm.ctpop.i32(i32 %17)
  %19 = trunc i32 %18 to i8
  %20 = and i8 %19, 1
  %21 = xor i8 %20, 1
  %22 = getelementptr inbounds %struct.State, %struct.State* %0, i64 0, i32 2, i32 3
  store i8 %21, i8* %22, align 1
  %23 = xor i64 32, %9
  %24 = xor i64 %23, %12
  %25 = lshr i64 %24, 4
  %26 = trunc i64 %25 to i8
  %27 = and i8 %26, 1
  %28 = getelementptr inbounds %struct.State, %struct.State* %0, i64 0, i32 2, i32 5
  store i8 %27, i8* %28, align 1
  %29 = icmp eq i64 %12, 0
  %30 = zext i1 %29 to i8
  %31 = getelementptr inbounds %struct.State, %struct.State* %0, i64 0, i32 2, i32 7
  store i8 %30, i8* %31, align 1
  %32 = lshr i64 %12, 63
  %33 = trunc i64 %32 to i8
  %34 = getelementptr inbounds %struct.State, %struct.State* %0, i64 0, i32 2, i32 9
  store i8 %33, i8* %34, align 1
  %35 = lshr i64 %9, 63
  %36 = xor i64 %32, %35
  %37 = add i64 %36, %35
  %38 = icmp eq i64 %37, 2
  %39 = zext i1 %38 to i8
  %40 = getelementptr inbounds %struct.State, %struct.State* %0, i64 0, i32 2, i32 13
  store i8 %39, i8* %40, align 1
  ret %struct.Memory* %2
}

define %struct.Memory* @routine_movl__edi__MINUS0x4__rbp_(%struct.State* dereferenceable(3376), i64, %struct.Memory*) {
block_400478:
  %3 = getelementptr inbounds %struct.State, %struct.State* %0, i32 0, i32 6
  %4 = getelementptr inbounds %struct.GPR, %struct.GPR* %3, i32 0, i32 33
  %5 = getelementptr inbounds %struct.Reg, %struct.Reg* %4, i32 0, i32 0
  %PC = bitcast %union.anon* %5 to i64*
  %6 = getelementptr inbounds %struct.State, %struct.State* %0, i32 0, i32 6
  %7 = getelementptr inbounds %struct.GPR, %struct.GPR* %6, i32 0, i32 11
  %8 = getelementptr inbounds %struct.Reg, %struct.Reg* %7, i32 0, i32 0
  %EDI = bitcast %union.anon* %8 to i32*
  %9 = getelementptr inbounds %struct.State, %struct.State* %0, i32 0, i32 6
  %10 = getelementptr inbounds %struct.GPR, %struct.GPR* %9, i32 0, i32 15
  %11 = getelementptr inbounds %struct.Reg, %struct.Reg* %10, i32 0, i32 0
  %RBP = bitcast %union.anon* %11 to i64*
  %12 = load i64, i64* %RBP
  %13 = sub i64 %12, 4
  %14 = load i32, i32* %EDI
  %15 = zext i32 %14 to i64
  %16 = load i64, i64* %PC
  %17 = add i64 %16, 3
  store i64 %17, i64* %PC
  %18 = inttoptr i64 %13 to i32*
  store i32 %14, i32* %18
  ret %struct.Memory* %2
}

define %struct.Memory* @routine_movl__esi__MINUS0x8__rbp_(%struct.State* dereferenceable(3376), i64, %struct.Memory*) {
block_400478:
  %3 = getelementptr inbounds %struct.State, %struct.State* %0, i32 0, i32 6
  %4 = getelementptr inbounds %struct.GPR, %struct.GPR* %3, i32 0, i32 33
  %5 = getelementptr inbounds %struct.Reg, %struct.Reg* %4, i32 0, i32 0
  %PC = bitcast %union.anon* %5 to i64*
  %6 = getelementptr inbounds %struct.State, %struct.State* %0, i32 0, i32 6
  %7 = getelementptr inbounds %struct.GPR, %struct.GPR* %6, i32 0, i32 9
  %8 = getelementptr inbounds %struct.Reg, %struct.Reg* %7, i32 0, i32 0
  %ESI = bitcast %union.anon* %8 to i32*
  %9 = getelementptr inbounds %struct.State, %struct.State* %0, i32 0, i32 6
  %10 = getelementptr inbounds %struct.GPR, %struct.GPR* %9, i32 0, i32 15
  %11 = getelementptr inbounds %struct.Reg, %struct.Reg* %10, i32 0, i32 0
  %RBP = bitcast %union.anon* %11 to i64*
  %12 = load i64, i64* %RBP
  %13 = sub i64 %12, 8
  %14 = load i32, i32* %ESI
  %15 = zext i32 %14 to i64
  %16 = load i64, i64* %PC
  %17 = add i64 %16, 3
  store i64 %17, i64* %PC
  %18 = inttoptr i64 %13 to i32*
  store i32 %14, i32* %18
  ret %struct.Memory* %2
}

define %struct.Memory* @routine_cvttsd2si_0x20aa71__rip____rax(%struct.State* dereferenceable(3376), i64, %struct.Memory*) {
block_400478:
  %3 = getelementptr inbounds %struct.State, %struct.State* %0, i32 0, i32 6
  %4 = getelementptr inbounds %struct.GPR, %struct.GPR* %3, i32 0, i32 33
  %5 = getelementptr inbounds %struct.Reg, %struct.Reg* %4, i32 0, i32 0
  %PC = bitcast %union.anon* %5 to i64*
  %6 = getelementptr inbounds %struct.State, %struct.State* %0, i32 0, i32 6
  %7 = getelementptr inbounds %struct.GPR, %struct.GPR* %6, i32 0, i32 1
  %8 = getelementptr inbounds %struct.Reg, %struct.Reg* %7, i32 0, i32 0
  %RAX = bitcast %union.anon* %8 to i64*
  %9 = load i64, i64* %PC
  %10 = ptrtoint %G_0x20aa71__rip__4257303__type* @G_0x20aa71__rip__4257303_ to i64
  %11 = load i64, i64* %PC
  %12 = add i64 %11, 9
  store i64 %12, i64* %PC
  %13 = inttoptr i64 %10 to double*
  %14 = load double, double* %13
  %15 = call double @llvm.trunc.f64(double %14)
  %16 = call double @llvm.fabs.f64(double %15)
  %17 = fcmp ogt double %16, 0x43E0000000000000
  %18 = fptosi double %15 to i64
  %19 = select i1 %17, i64 -9223372036854775808, i64 %18
  store i64 %19, i64* %RAX, align 8
  ret %struct.Memory* %2
}

define %struct.Memory* @routine_movl__eax___esi(%struct.State* dereferenceable(3376), i64, %struct.Memory*) {
block_400478:
  %3 = getelementptr inbounds %struct.State, %struct.State* %0, i32 0, i32 6
  %4 = getelementptr inbounds %struct.GPR, %struct.GPR* %3, i32 0, i32 33
  %5 = getelementptr inbounds %struct.Reg, %struct.Reg* %4, i32 0, i32 0
  %PC = bitcast %union.anon* %5 to i64*
  %6 = getelementptr inbounds %struct.State, %struct.State* %0, i32 0, i32 6
  %7 = getelementptr inbounds %struct.GPR, %struct.GPR* %6, i32 0, i32 1
  %8 = getelementptr inbounds %struct.Reg, %struct.Reg* %7, i32 0, i32 0
  %EAX = bitcast %union.anon* %8 to i32*
  %9 = getelementptr inbounds %struct.State, %struct.State* %0, i32 0, i32 6
  %10 = getelementptr inbounds %struct.GPR, %struct.GPR* %9, i32 0, i32 9
  %11 = getelementptr inbounds %struct.Reg, %struct.Reg* %10, i32 0, i32 0
  %RSI = bitcast %union.anon* %11 to i64*
  %12 = load i32, i32* %EAX
  %13 = zext i32 %12 to i64
  %14 = load i64, i64* %PC
  %15 = add i64 %14, 2
  store i64 %15, i64* %PC
  %16 = and i64 %13, 4294967295
  store i64 %16, i64* %RSI, align 8
  ret %struct.Memory* %2
}

define %struct.Memory* @routine_movl_MINUS0x8__rbp____edi(%struct.State* dereferenceable(3376), i64, %struct.Memory*) {
block_400478:
  %3 = getelementptr inbounds %struct.State, %struct.State* %0, i32 0, i32 6
  %4 = getelementptr inbounds %struct.GPR, %struct.GPR* %3, i32 0, i32 33
  %5 = getelementptr inbounds %struct.Reg, %struct.Reg* %4, i32 0, i32 0
  %PC = bitcast %union.anon* %5 to i64*
  %6 = getelementptr inbounds %struct.State, %struct.State* %0, i32 0, i32 6
  %7 = getelementptr inbounds %struct.GPR, %struct.GPR* %6, i32 0, i32 11
  %8 = getelementptr inbounds %struct.Reg, %struct.Reg* %7, i32 0, i32 0
  %RDI = bitcast %union.anon* %8 to i64*
  %9 = getelementptr inbounds %struct.State, %struct.State* %0, i32 0, i32 6
  %10 = getelementptr inbounds %struct.GPR, %struct.GPR* %9, i32 0, i32 15
  %11 = getelementptr inbounds %struct.Reg, %struct.Reg* %10, i32 0, i32 0
  %RBP = bitcast %union.anon* %11 to i64*
  %12 = load i64, i64* %RBP
  %13 = sub i64 %12, 8
  %14 = load i64, i64* %PC
  %15 = add i64 %14, 3
  store i64 %15, i64* %PC
  %16 = inttoptr i64 %13 to i32*
  %17 = load i32, i32* %16
  %18 = zext i32 %17 to i64
  store i64 %18, i64* %RDI, align 8
  ret %struct.Memory* %2
}

define %struct.Memory* @routine_movl__edi__MINUS0x10__rbp_(%struct.State* dereferenceable(3376), i64, %struct.Memory*) {
block_400478:
  %3 = getelementptr inbounds %struct.State, %struct.State* %0, i32 0, i32 6
  %4 = getelementptr inbounds %struct.GPR, %struct.GPR* %3, i32 0, i32 33
  %5 = getelementptr inbounds %struct.Reg, %struct.Reg* %4, i32 0, i32 0
  %PC = bitcast %union.anon* %5 to i64*
  %6 = getelementptr inbounds %struct.State, %struct.State* %0, i32 0, i32 6
  %7 = getelementptr inbounds %struct.GPR, %struct.GPR* %6, i32 0, i32 11
  %8 = getelementptr inbounds %struct.Reg, %struct.Reg* %7, i32 0, i32 0
  %EDI = bitcast %union.anon* %8 to i32*
  %9 = getelementptr inbounds %struct.State, %struct.State* %0, i32 0, i32 6
  %10 = getelementptr inbounds %struct.GPR, %struct.GPR* %9, i32 0, i32 15
  %11 = getelementptr inbounds %struct.Reg, %struct.Reg* %10, i32 0, i32 0
  %RBP = bitcast %union.anon* %11 to i64*
  %12 = load i64, i64* %RBP
  %13 = sub i64 %12, 16
  %14 = load i32, i32* %EDI
  %15 = zext i32 %14 to i64
  %16 = load i64, i64* %PC
  %17 = add i64 %16, 3
  store i64 %17, i64* %PC
  %18 = inttoptr i64 %13 to i32*
  store i32 %14, i32* %18
  ret %struct.Memory* %2
}

define %struct.Memory* @routine_movl__esi___edi(%struct.State* dereferenceable(3376), i64, %struct.Memory*) {
block_400478:
  %3 = getelementptr inbounds %struct.State, %struct.State* %0, i32 0, i32 6
  %4 = getelementptr inbounds %struct.GPR, %struct.GPR* %3, i32 0, i32 33
  %5 = getelementptr inbounds %struct.Reg, %struct.Reg* %4, i32 0, i32 0
  %PC = bitcast %union.anon* %5 to i64*
  %6 = getelementptr inbounds %struct.State, %struct.State* %0, i32 0, i32 6
  %7 = getelementptr inbounds %struct.GPR, %struct.GPR* %6, i32 0, i32 9
  %8 = getelementptr inbounds %struct.Reg, %struct.Reg* %7, i32 0, i32 0
  %ESI = bitcast %union.anon* %8 to i32*
  %9 = getelementptr inbounds %struct.State, %struct.State* %0, i32 0, i32 6
  %10 = getelementptr inbounds %struct.GPR, %struct.GPR* %9, i32 0, i32 11
  %11 = getelementptr inbounds %struct.Reg, %struct.Reg* %10, i32 0, i32 0
  %RDI = bitcast %union.anon* %11 to i64*
  %12 = load i32, i32* %ESI
  %13 = zext i32 %12 to i64
  %14 = load i64, i64* %PC
  %15 = add i64 %14, 2
  store i64 %15, i64* %PC
  %16 = and i64 %13, 4294967295
  store i64 %16, i64* %RDI, align 8
  ret %struct.Memory* %2
}

define %struct.Memory* @routine_movl_MINUS0x10__rbp____esi(%struct.State* dereferenceable(3376), i64, %struct.Memory*) {
block_400478:
  %3 = getelementptr inbounds %struct.State, %struct.State* %0, i32 0, i32 6
  %4 = getelementptr inbounds %struct.GPR, %struct.GPR* %3, i32 0, i32 33
  %5 = getelementptr inbounds %struct.Reg, %struct.Reg* %4, i32 0, i32 0
  %PC = bitcast %union.anon* %5 to i64*
  %6 = getelementptr inbounds %struct.State, %struct.State* %0, i32 0, i32 6
  %7 = getelementptr inbounds %struct.GPR, %struct.GPR* %6, i32 0, i32 9
  %8 = getelementptr inbounds %struct.Reg, %struct.Reg* %7, i32 0, i32 0
  %RSI = bitcast %union.anon* %8 to i64*
  %9 = getelementptr inbounds %struct.State, %struct.State* %0, i32 0, i32 6
  %10 = getelementptr inbounds %struct.GPR, %struct.GPR* %9, i32 0, i32 15
  %11 = getelementptr inbounds %struct.Reg, %struct.Reg* %10, i32 0, i32 0
  %RBP = bitcast %union.anon* %11 to i64*
  %12 = load i64, i64* %RBP
  %13 = sub i64 %12, 16
  %14 = load i64, i64* %PC
  %15 = add i64 %14, 3
  store i64 %15, i64* %PC
  %16 = inttoptr i64 %13 to i32*
  %17 = load i32, i32* %16
  %18 = zext i32 %17 to i64
  store i64 %18, i64* %RSI, align 8
  ret %struct.Memory* %2
}

define %struct.Memory* @routine_callq_._ZN19custom_add_variableIjE8do_shiftEjj(%struct.State* dereferenceable(3376), i64, %struct.Memory*, i64 %rel_off1, i64 %rel_off2, i64 %rel_off3) {
block_400478:
  %3 = getelementptr inbounds %struct.State, %struct.State* %0, i32 0, i32 6
  %4 = getelementptr inbounds %struct.GPR, %struct.GPR* %3, i32 0, i32 33
  %5 = getelementptr inbounds %struct.Reg, %struct.Reg* %4, i32 0, i32 0
  %PC = bitcast %union.anon* %5 to i64*
  %6 = load i64, i64* %PC
  %7 = add i64 %6, %rel_off1
  %8 = load i64, i64* %PC
  %9 = add i64 %8, %rel_off2
  %10 = load i64, i64* %PC
  %11 = add i64 %10, %rel_off3
  store i64 %11, i64* %PC
  %12 = getelementptr inbounds %struct.State, %struct.State* %0, i64 0, i32 6, i32 13, i32 0, i32 0
  %13 = load i64, i64* %12, align 8
  %14 = add i64 %13, -8
  %15 = inttoptr i64 %14 to i64*
  store i64 %9, i64* %15
  store i64 %14, i64* %12, align 8
  %16 = getelementptr inbounds %struct.State, %struct.State* %0, i64 0, i32 6, i32 33, i32 0, i32 0
  store i64 %7, i64* %16, align 8
  ret %struct.Memory* %2
}

define %struct.Memory* @routine_leaq_MINUS0x4__rbp____rdi(%struct.State* dereferenceable(3376), i64, %struct.Memory*) {
block_400478:
  %3 = getelementptr inbounds %struct.State, %struct.State* %0, i32 0, i32 6
  %4 = getelementptr inbounds %struct.GPR, %struct.GPR* %3, i32 0, i32 33
  %5 = getelementptr inbounds %struct.Reg, %struct.Reg* %4, i32 0, i32 0
  %PC = bitcast %union.anon* %5 to i64*
  %6 = getelementptr inbounds %struct.State, %struct.State* %0, i32 0, i32 6
  %7 = getelementptr inbounds %struct.GPR, %struct.GPR* %6, i32 0, i32 11
  %8 = getelementptr inbounds %struct.Reg, %struct.Reg* %7, i32 0, i32 0
  %RDI = bitcast %union.anon* %8 to i64*
  %9 = getelementptr inbounds %struct.State, %struct.State* %0, i32 0, i32 6
  %10 = getelementptr inbounds %struct.GPR, %struct.GPR* %9, i32 0, i32 15
  %11 = getelementptr inbounds %struct.Reg, %struct.Reg* %10, i32 0, i32 0
  %RBP = bitcast %union.anon* %11 to i64*
  %12 = load i64, i64* %RBP
  %13 = sub i64 %12, 4
  %14 = load i64, i64* %PC
  %15 = add i64 %14, 4
  store i64 %15, i64* %PC
  store i64 %13, i64* %RDI, align 8
  ret %struct.Memory* %2
}

define %struct.Memory* @routine_leaq_MINUS0xc__rbp____rsi(%struct.State* dereferenceable(3376), i64, %struct.Memory*) {
block_400478:
  %3 = getelementptr inbounds %struct.State, %struct.State* %0, i32 0, i32 6
  %4 = getelementptr inbounds %struct.GPR, %struct.GPR* %3, i32 0, i32 33
  %5 = getelementptr inbounds %struct.Reg, %struct.Reg* %4, i32 0, i32 0
  %PC = bitcast %union.anon* %5 to i64*
  %6 = getelementptr inbounds %struct.State, %struct.State* %0, i32 0, i32 6
  %7 = getelementptr inbounds %struct.GPR, %struct.GPR* %6, i32 0, i32 9
  %8 = getelementptr inbounds %struct.Reg, %struct.Reg* %7, i32 0, i32 0
  %RSI = bitcast %union.anon* %8 to i64*
  %9 = getelementptr inbounds %struct.State, %struct.State* %0, i32 0, i32 6
  %10 = getelementptr inbounds %struct.GPR, %struct.GPR* %9, i32 0, i32 15
  %11 = getelementptr inbounds %struct.Reg, %struct.Reg* %10, i32 0, i32 0
  %RBP = bitcast %union.anon* %11 to i64*
  %12 = load i64, i64* %RBP
  %13 = sub i64 %12, 12
  %14 = load i64, i64* %PC
  %15 = add i64 %14, 4
  store i64 %15, i64* %PC
  store i64 %13, i64* %RSI, align 8
  ret %struct.Memory* %2
}

define %struct.Memory* @routine_imull__0x1f40___eax___eax(%struct.State* dereferenceable(3376), i64, %struct.Memory*) {
block_400478:
  %3 = getelementptr inbounds %struct.State, %struct.State* %0, i32 0, i32 6
  %4 = getelementptr inbounds %struct.GPR, %struct.GPR* %3, i32 0, i32 33
  %5 = getelementptr inbounds %struct.Reg, %struct.Reg* %4, i32 0, i32 0
  %PC = bitcast %union.anon* %5 to i64*
  %6 = getelementptr inbounds %struct.State, %struct.State* %0, i32 0, i32 6
  %7 = getelementptr inbounds %struct.GPR, %struct.GPR* %6, i32 0, i32 1
  %8 = getelementptr inbounds %struct.Reg, %struct.Reg* %7, i32 0, i32 0
  %EAX = bitcast %union.anon* %8 to i32*
  %9 = getelementptr inbounds %struct.State, %struct.State* %0, i32 0, i32 6
  %10 = getelementptr inbounds %struct.GPR, %struct.GPR* %9, i32 0, i32 1
  %11 = getelementptr inbounds %struct.Reg, %struct.Reg* %10, i32 0, i32 0
  %RAX = bitcast %union.anon* %11 to i64*
  %12 = load i32, i32* %EAX
  %13 = zext i32 %12 to i64
  %14 = load i64, i64* %PC
  %15 = add i64 %14, 6
  store i64 %15, i64* %PC
  %16 = shl i64 %13, 32
  %17 = ashr exact i64 %16, 32
  %18 = mul i64 8000, %17
  %19 = trunc i64 %18 to i32
  %20 = and i64 %18, 4294967295
  store i64 %20, i64* %RAX, align 8
  %21 = shl i64 %18, 32
  %22 = ashr exact i64 %21, 32
  %23 = icmp ne i64 %22, %18
  %24 = zext i1 %23 to i8
  %25 = getelementptr inbounds %struct.State, %struct.State* %0, i64 0, i32 2, i32 1
  store i8 %24, i8* %25, align 1
  %26 = and i32 %19, 255
  %27 = call i32 @llvm.ctpop.i32(i32 %26)
  %28 = trunc i32 %27 to i8
  %29 = and i8 %28, 1
  %30 = xor i8 %29, 1
  %31 = getelementptr inbounds %struct.State, %struct.State* %0, i64 0, i32 2, i32 3
  store i8 %30, i8* %31, align 1
  %32 = getelementptr inbounds %struct.State, %struct.State* %0, i64 0, i32 2, i32 5
  store i8 0, i8* %32, align 1
  %33 = getelementptr inbounds %struct.State, %struct.State* %0, i64 0, i32 2, i32 7
  store i8 0, i8* %33, align 1
  %34 = lshr i32 %19, 31
  %35 = trunc i32 %34 to i8
  %36 = getelementptr inbounds %struct.State, %struct.State* %0, i64 0, i32 2, i32 9
  store i8 %35, i8* %36, align 1
  %37 = getelementptr inbounds %struct.State, %struct.State* %0, i64 0, i32 2, i32 13
  store i8 %24, i8* %37, align 1
  ret %struct.Memory* %2
}

define %struct.Memory* @routine_movl__eax__MINUS0xc__rbp_(%struct.State* dereferenceable(3376), i64, %struct.Memory*) {
block_400478:
  %3 = getelementptr inbounds %struct.State, %struct.State* %0, i32 0, i32 6
  %4 = getelementptr inbounds %struct.GPR, %struct.GPR* %3, i32 0, i32 33
  %5 = getelementptr inbounds %struct.Reg, %struct.Reg* %4, i32 0, i32 0
  %PC = bitcast %union.anon* %5 to i64*
  %6 = getelementptr inbounds %struct.State, %struct.State* %0, i32 0, i32 6
  %7 = getelementptr inbounds %struct.GPR, %struct.GPR* %6, i32 0, i32 1
  %8 = getelementptr inbounds %struct.Reg, %struct.Reg* %7, i32 0, i32 0
  %EAX = bitcast %union.anon* %8 to i32*
  %9 = getelementptr inbounds %struct.State, %struct.State* %0, i32 0, i32 6
  %10 = getelementptr inbounds %struct.GPR, %struct.GPR* %9, i32 0, i32 15
  %11 = getelementptr inbounds %struct.Reg, %struct.Reg* %10, i32 0, i32 0
  %RBP = bitcast %union.anon* %11 to i64*
  %12 = load i64, i64* %RBP
  %13 = sub i64 %12, 12
  %14 = load i32, i32* %EAX
  %15 = zext i32 %14 to i64
  %16 = load i64, i64* %PC
  %17 = add i64 %16, 3
  store i64 %17, i64* %PC
  %18 = inttoptr i64 %13 to i32*
  store i32 %14, i32* %18
  ret %struct.Memory* %2
}

define %struct.Memory* @routine_callq_._Z15tolerance_equalIjEbRT_S1_(%struct.State* dereferenceable(3376), i64, %struct.Memory*, i64 %rel_off1, i64 %rel_off2, i64 %rel_off3) {
block_400478:
  %3 = getelementptr inbounds %struct.State, %struct.State* %0, i32 0, i32 6
  %4 = getelementptr inbounds %struct.GPR, %struct.GPR* %3, i32 0, i32 33
  %5 = getelementptr inbounds %struct.Reg, %struct.Reg* %4, i32 0, i32 0
  %PC = bitcast %union.anon* %5 to i64*
  %6 = load i64, i64* %PC
  %7 = add i64 %6, %rel_off1
  %8 = load i64, i64* %PC
  %9 = add i64 %8, %rel_off2
  %10 = load i64, i64* %PC
  %11 = add i64 %10, %rel_off3
  store i64 %11, i64* %PC
  %12 = getelementptr inbounds %struct.State, %struct.State* %0, i64 0, i32 6, i32 13, i32 0, i32 0
  %13 = load i64, i64* %12, align 8
  %14 = add i64 %13, -8
  %15 = inttoptr i64 %14 to i64*
  store i64 %9, i64* %15
  store i64 %14, i64* %12, align 8
  %16 = getelementptr inbounds %struct.State, %struct.State* %0, i64 0, i32 6, i32 33, i32 0, i32 0
  store i64 %7, i64* %16, align 8
  ret %struct.Memory* %2
}

define %struct.Memory* @routine_testb__0x1___al(%struct.State* dereferenceable(3376), i64, %struct.Memory*) {
block_400478:
  %3 = getelementptr inbounds %struct.State, %struct.State* %0, i32 0, i32 6
  %4 = getelementptr inbounds %struct.GPR, %struct.GPR* %3, i32 0, i32 33
  %5 = getelementptr inbounds %struct.Reg, %struct.Reg* %4, i32 0, i32 0
  %PC = bitcast %union.anon* %5 to i64*
  %6 = getelementptr inbounds %struct.State, %struct.State* %0, i32 0, i32 6
  %7 = getelementptr inbounds %struct.GPR, %struct.GPR* %6, i32 0, i32 1
  %8 = getelementptr inbounds %struct.Reg, %struct.Reg* %7, i32 0, i32 0
  %9 = bitcast %union.anon* %8 to %struct.anon.2*
  %AL = getelementptr inbounds %struct.anon.2, %struct.anon.2* %9, i32 0, i32 0
  %10 = load i8, i8* %AL
  %11 = zext i8 %10 to i64
  %12 = load i64, i64* %PC
  %13 = add i64 %12, 2
  store i64 %13, i64* %PC
  %14 = and i64 1, %11
  %15 = trunc i64 %14 to i8
  %16 = getelementptr inbounds %struct.State, %struct.State* %0, i64 0, i32 2, i32 1
  store i8 0, i8* %16, align 1
  %17 = trunc i64 %14 to i32
  %18 = and i32 %17, 255
  %19 = call i32 @llvm.ctpop.i32(i32 %18)
  %20 = trunc i32 %19 to i8
  %21 = and i8 %20, 1
  %22 = xor i8 %21, 1
  %23 = getelementptr inbounds %struct.State, %struct.State* %0, i64 0, i32 2, i32 3
  store i8 %22, i8* %23, align 1
  %24 = icmp eq i8 %15, 0
  %25 = zext i1 %24 to i8
  %26 = getelementptr inbounds %struct.State, %struct.State* %0, i64 0, i32 2, i32 7
  store i8 %25, i8* %26, align 1
  %27 = getelementptr inbounds %struct.State, %struct.State* %0, i64 0, i32 2, i32 9
  store i8 0, i8* %27, align 1
  %28 = getelementptr inbounds %struct.State, %struct.State* %0, i64 0, i32 2, i32 13
  store i8 0, i8* %28, align 1
  %29 = getelementptr inbounds %struct.State, %struct.State* %0, i64 0, i32 2, i32 5
  store i8 0, i8* %29, align 1
  ret %struct.Memory* %2
}

define %struct.Memory* @routine_jne_.L_40f662(%struct.State* dereferenceable(3376), i64, %struct.Memory*, i8* %BRANCH_TAKEN, i64 %rel_off1, i64 %rel_off2, i64 %rel_off3) {
block_400478:
  %3 = getelementptr inbounds %struct.State, %struct.State* %0, i32 0, i32 6
  %4 = getelementptr inbounds %struct.GPR, %struct.GPR* %3, i32 0, i32 33
  %5 = getelementptr inbounds %struct.Reg, %struct.Reg* %4, i32 0, i32 0
  %PC = bitcast %union.anon* %5 to i64*
  %6 = load i64, i64* %PC
  %7 = add i64 %6, %rel_off1
  %8 = load i64, i64* %PC
  %9 = add i64 %8, %rel_off2
  %10 = load i64, i64* %PC
  %11 = add i64 %10, %rel_off3
  store i64 %11, i64* %PC
  %12 = getelementptr inbounds %struct.State, %struct.State* %0, i64 0, i32 2, i32 7
  %13 = load i8, i8* %12, align 1
  %14 = icmp eq i8 %13, 0
  %15 = zext i1 %14 to i8
  store i8 %15, i8* %BRANCH_TAKEN, align 1
  %16 = getelementptr inbounds %struct.State, %struct.State* %0, i64 0, i32 6, i32 33, i32 0, i32 0
  %17 = select i1 %14, i64 %7, i64 %9
  store i64 %17, i64* %16, align 8
  ret %struct.Memory* %2
}

define %struct.Memory* @routine_movq__0x414aee___rdi(%struct.State* dereferenceable(3376), i64, %struct.Memory*) {
block_400478:
  %3 = getelementptr inbounds %struct.State, %struct.State* %0, i32 0, i32 6
  %4 = getelementptr inbounds %struct.GPR, %struct.GPR* %3, i32 0, i32 33
  %5 = getelementptr inbounds %struct.Reg, %struct.Reg* %4, i32 0, i32 0
  %PC = bitcast %union.anon* %5 to i64*
  %6 = getelementptr inbounds %struct.State, %struct.State* %0, i32 0, i32 6
  %7 = getelementptr inbounds %struct.GPR, %struct.GPR* %6, i32 0, i32 11
  %8 = getelementptr inbounds %struct.Reg, %struct.Reg* %7, i32 0, i32 0
  %RDI = bitcast %union.anon* %8 to i64*
  %9 = load i64, i64* %PC
  %10 = add i64 %9, 10
  store i64 %10, i64* %PC
  store i64 ptrtoint (%G__0x414aee_type* @G__0x414aee to i64), i64* %RDI, align 8
  ret %struct.Memory* %2
}

define %struct.Memory* @routine_movl_0x61a0a8___esi(%struct.State* dereferenceable(3376), i64, %struct.Memory*) {
block_400478:
  %3 = getelementptr inbounds %struct.State, %struct.State* %0, i32 0, i32 6
  %4 = getelementptr inbounds %struct.GPR, %struct.GPR* %3, i32 0, i32 33
  %5 = getelementptr inbounds %struct.Reg, %struct.Reg* %4, i32 0, i32 0
  %PC = bitcast %union.anon* %5 to i64*
  %6 = getelementptr inbounds %struct.State, %struct.State* %0, i32 0, i32 6
  %7 = getelementptr inbounds %struct.GPR, %struct.GPR* %6, i32 0, i32 9
  %8 = getelementptr inbounds %struct.Reg, %struct.Reg* %7, i32 0, i32 0
  %RSI = bitcast %union.anon* %8 to i64*
  %9 = load i64, i64* %PC
  %10 = add i64 %9, 7
  store i64 %10, i64* %PC
  %11 = load i32, i32* bitcast (%G_0x61a0a8_type* @G_0x61a0a8 to i32*)
  %12 = zext i32 %11 to i64
  store i64 %12, i64* %RSI, align 8
  ret %struct.Memory* %2
}

define %struct.Memory* @routine_movb__0x0___al(%struct.State* dereferenceable(3376), i64, %struct.Memory*) {
block_400478:
  %3 = getelementptr inbounds %struct.State, %struct.State* %0, i32 0, i32 6
  %4 = getelementptr inbounds %struct.GPR, %struct.GPR* %3, i32 0, i32 33
  %5 = getelementptr inbounds %struct.Reg, %struct.Reg* %4, i32 0, i32 0
  %PC = bitcast %union.anon* %5 to i64*
  %6 = getelementptr inbounds %struct.State, %struct.State* %0, i32 0, i32 6
  %7 = getelementptr inbounds %struct.GPR, %struct.GPR* %6, i32 0, i32 1
  %8 = getelementptr inbounds %struct.Reg, %struct.Reg* %7, i32 0, i32 0
  %9 = bitcast %union.anon* %8 to %struct.anon.2*
  %AL = getelementptr inbounds %struct.anon.2, %struct.anon.2* %9, i32 0, i32 0
  %10 = load i64, i64* %PC
  %11 = add i64 %10, 2
  store i64 %11, i64* %PC
  store i8 0, i8* %AL, align 1
  ret %struct.Memory* %2
}

define %struct.Memory* @routine_callq_.printf_plt(%struct.State* dereferenceable(3376), i64, %struct.Memory*, i64 %rel_off1, i64 %rel_off2, i64 %rel_off3) {
block_400478:
  %3 = getelementptr inbounds %struct.State, %struct.State* %0, i32 0, i32 6
  %4 = getelementptr inbounds %struct.GPR, %struct.GPR* %3, i32 0, i32 33
  %5 = getelementptr inbounds %struct.Reg, %struct.Reg* %4, i32 0, i32 0
  %PC = bitcast %union.anon* %5 to i64*
  %6 = load i64, i64* %PC
  %7 = add i64 %6, %rel_off1
  %8 = load i64, i64* %PC
  %9 = add i64 %8, %rel_off2
  %10 = load i64, i64* %PC
  %11 = add i64 %10, %rel_off3
  store i64 %11, i64* %PC
  %12 = getelementptr inbounds %struct.State, %struct.State* %0, i64 0, i32 6, i32 13, i32 0, i32 0
  %13 = load i64, i64* %12, align 8
  %14 = add i64 %13, -8
  %15 = inttoptr i64 %14 to i64*
  store i64 %9, i64* %15
  store i64 %14, i64* %12, align 8
  %16 = getelementptr inbounds %struct.State, %struct.State* %0, i64 0, i32 6, i32 33, i32 0, i32 0
  store i64 %7, i64* %16, align 8
  ret %struct.Memory* %2
}

define %struct.Memory* @routine_movl__eax__MINUS0x14__rbp_(%struct.State* dereferenceable(3376), i64, %struct.Memory*) {
block_400478:
  %3 = getelementptr inbounds %struct.State, %struct.State* %0, i32 0, i32 6
  %4 = getelementptr inbounds %struct.GPR, %struct.GPR* %3, i32 0, i32 33
  %5 = getelementptr inbounds %struct.Reg, %struct.Reg* %4, i32 0, i32 0
  %PC = bitcast %union.anon* %5 to i64*
  %6 = getelementptr inbounds %struct.State, %struct.State* %0, i32 0, i32 6
  %7 = getelementptr inbounds %struct.GPR, %struct.GPR* %6, i32 0, i32 1
  %8 = getelementptr inbounds %struct.Reg, %struct.Reg* %7, i32 0, i32 0
  %EAX = bitcast %union.anon* %8 to i32*
  %9 = getelementptr inbounds %struct.State, %struct.State* %0, i32 0, i32 6
  %10 = getelementptr inbounds %struct.GPR, %struct.GPR* %9, i32 0, i32 15
  %11 = getelementptr inbounds %struct.Reg, %struct.Reg* %10, i32 0, i32 0
  %RBP = bitcast %union.anon* %11 to i64*
  %12 = load i64, i64* %RBP
  %13 = sub i64 %12, 20
  %14 = load i32, i32* %EAX
  %15 = zext i32 %14 to i64
  %16 = load i64, i64* %PC
  %17 = add i64 %16, 3
  store i64 %17, i64* %PC
  %18 = inttoptr i64 %13 to i32*
  store i32 %14, i32* %18
  ret %struct.Memory* %2
}

define %struct.Memory* @routine_addq__0x20___rsp(%struct.State* dereferenceable(3376), i64, %struct.Memory*) {
block_400478:
  %3 = getelementptr inbounds %struct.State, %struct.State* %0, i32 0, i32 6
  %4 = getelementptr inbounds %struct.GPR, %struct.GPR* %3, i32 0, i32 33
  %5 = getelementptr inbounds %struct.Reg, %struct.Reg* %4, i32 0, i32 0
  %PC = bitcast %union.anon* %5 to i64*
  %6 = getelementptr inbounds %struct.State, %struct.State* %0, i32 0, i32 6
  %7 = getelementptr inbounds %struct.GPR, %struct.GPR* %6, i32 0, i32 13
  %8 = getelementptr inbounds %struct.Reg, %struct.Reg* %7, i32 0, i32 0
  %RSP = bitcast %union.anon* %8 to i64*
  %9 = load i64, i64* %RSP
  %10 = load i64, i64* %PC
  %11 = add i64 %10, 4
  store i64 %11, i64* %PC
  %12 = add i64 32, %9
  store i64 %12, i64* %RSP, align 8
  %13 = icmp ult i64 %12, %9
  %14 = icmp ult i64 %12, 32
  %15 = or i1 %13, %14
  %16 = zext i1 %15 to i8
  %17 = getelementptr inbounds %struct.State, %struct.State* %0, i64 0, i32 2, i32 1
  store i8 %16, i8* %17, align 1
  %18 = trunc i64 %12 to i32
  %19 = and i32 %18, 255
  %20 = call i32 @llvm.ctpop.i32(i32 %19)
  %21 = trunc i32 %20 to i8
  %22 = and i8 %21, 1
  %23 = xor i8 %22, 1
  %24 = getelementptr inbounds %struct.State, %struct.State* %0, i64 0, i32 2, i32 3
  store i8 %23, i8* %24, align 1
  %25 = xor i64 32, %9
  %26 = xor i64 %25, %12
  %27 = lshr i64 %26, 4
  %28 = trunc i64 %27 to i8
  %29 = and i8 %28, 1
  %30 = getelementptr inbounds %struct.State, %struct.State* %0, i64 0, i32 2, i32 5
  store i8 %29, i8* %30, align 1
  %31 = icmp eq i64 %12, 0
  %32 = zext i1 %31 to i8
  %33 = getelementptr inbounds %struct.State, %struct.State* %0, i64 0, i32 2, i32 7
  store i8 %32, i8* %33, align 1
  %34 = lshr i64 %12, 63
  %35 = trunc i64 %34 to i8
  %36 = getelementptr inbounds %struct.State, %struct.State* %0, i64 0, i32 2, i32 9
  store i8 %35, i8* %36, align 1
  %37 = lshr i64 %9, 63
  %38 = xor i64 %34, %37
  %39 = add i64 %38, %34
  %40 = icmp eq i64 %39, 2
  %41 = zext i1 %40 to i8
  %42 = getelementptr inbounds %struct.State, %struct.State* %0, i64 0, i32 2, i32 13
  store i8 %41, i8* %42, align 1
  ret %struct.Memory* %2
}

define %struct.Memory* @routine_popq__rbp(%struct.State* dereferenceable(3376), i64, %struct.Memory*) {
block_400478:
  %3 = getelementptr inbounds %struct.State, %struct.State* %0, i32 0, i32 6
  %4 = getelementptr inbounds %struct.GPR, %struct.GPR* %3, i32 0, i32 33
  %5 = getelementptr inbounds %struct.Reg, %struct.Reg* %4, i32 0, i32 0
  %PC = bitcast %union.anon* %5 to i64*
  %6 = getelementptr inbounds %struct.State, %struct.State* %0, i32 0, i32 6
  %7 = getelementptr inbounds %struct.GPR, %struct.GPR* %6, i32 0, i32 15
  %8 = getelementptr inbounds %struct.Reg, %struct.Reg* %7, i32 0, i32 0
  %RBP = bitcast %union.anon* %8 to i64*
  %9 = load i64, i64* %PC
  %10 = add i64 %9, 1
  store i64 %10, i64* %PC
  %11 = getelementptr inbounds %struct.State, %struct.State* %0, i64 0, i32 6, i32 13, i32 0, i32 0
  %12 = load i64, i64* %11, align 8
  %13 = add i64 %12, 8
  %14 = inttoptr i64 %12 to i64*
  %15 = load i64, i64* %14
  store i64 %15, i64* %RBP, align 8
  store i64 %13, i64* %11, align 8
  ret %struct.Memory* %2
}

define %struct.Memory* @routine_retq(%struct.State* dereferenceable(3376), i64, %struct.Memory*) {
block_400478:
  %3 = getelementptr inbounds %struct.State, %struct.State* %0, i32 0, i32 6
  %4 = getelementptr inbounds %struct.GPR, %struct.GPR* %3, i32 0, i32 33
  %5 = getelementptr inbounds %struct.Reg, %struct.Reg* %4, i32 0, i32 0
  %PC = bitcast %union.anon* %5 to i64*
  %6 = load i64, i64* %PC
  %7 = add i64 %6, 1
  store i64 %7, i64* %PC
  %8 = getelementptr inbounds %struct.State, %struct.State* %0, i64 0, i32 6, i32 33, i32 0, i32 0
  %9 = getelementptr inbounds %struct.State, %struct.State* %0, i64 0, i32 6, i32 13, i32 0, i32 0
  %10 = load i64, i64* %9, align 8
  %11 = inttoptr i64 %10 to i64*
  %12 = load i64, i64* %11
  store i64 %12, i64* %8, align 8
  %13 = add i64 %10, 8
  store i64 %13, i64* %9, align 8
  ret %struct.Memory* %2
}

attributes #0 = { argmemonly nounwind }
attributes #1 = { nounwind readnone }
attributes #2 = { alwaysinline }
