; ModuleID = '/home/ubuntu/Github/validating-binary-decompilation/tests/program_translation_validation/single-source-benchmark/bc-seeds/Treesort/Treesort.bc'
source_filename = "llvm-link"
target datalayout = "e-m:e-i64:64-f80:128-n8:16:32:64-S128"
target triple = "x86_64-unknown-linux-gnu"

%struct.node = type { %struct.node*, %struct.node*, i32 }
%struct.element = type { i32, i32 }
%struct.complex = type { float, float }

@seed = common global i64 0, align 8
@biggest = common global i32 0, align 4
@littlest = common global i32 0, align 4
@sortlist = common global [5001 x i32] zeroinitializer, align 16
@tree = common global %struct.node* null, align 8
@value = common global float 0.000000e+00, align 4
@fixed = common global float 0.000000e+00, align 4
@floated = common global float 0.000000e+00, align 4
@permarray = common global [11 x i32] zeroinitializer, align 16
@pctr = common global i32 0, align 4
@stack = common global [4 x i32] zeroinitializer, align 16
@cellspace = common global [19 x %struct.element] zeroinitializer, align 16
@freelist = common global i32 0, align 4
@movesdone = common global i32 0, align 4
@ima = common global [41 x [41 x i32]] zeroinitializer, align 16
@imb = common global [41 x [41 x i32]] zeroinitializer, align 16
@imr = common global [41 x [41 x i32]] zeroinitializer, align 16
@rma = common global [41 x [41 x float]] zeroinitializer, align 16
@rmb = common global [41 x [41 x float]] zeroinitializer, align 16
@rmr = common global [41 x [41 x float]] zeroinitializer, align 16
@piececount = common global [4 x i32] zeroinitializer, align 16
@class = common global [13 x i32] zeroinitializer, align 16
@piecemax = common global [13 x i32] zeroinitializer, align 16
@puzzl = common global [512 x i32] zeroinitializer, align 16
@p = common global [13 x [512 x i32]] zeroinitializer, align 16
@n = common global i32 0, align 4
@kount = common global i32 0, align 4
@top = common global i32 0, align 4
@z = common global [257 x %struct.complex] zeroinitializer, align 16
@w = common global [257 x %struct.complex] zeroinitializer, align 16
@e = common global [130 x %struct.complex] zeroinitializer, align 16
@zr = common global float 0.000000e+00, align 4
@zi = common global float 0.000000e+00, align 4
@.str = private unnamed_addr constant [4 x i8] c"%d\0A\00", align 1
@.str.1 = private unnamed_addr constant [17 x i8] c" Error in Tree.\0A\00", align 1

; Function Attrs: noinline nounwind uwtable
define void @Initrand() #0 {
entry:
  store i64 74755, i64* @seed, align 8
  ret void
}

; Function Attrs: noinline nounwind uwtable
define i32 @Rand() #0 {
entry:
  %0 = load i64, i64* @seed, align 8
  %mul = mul nsw i64 %0, 1309
  %add = add nsw i64 %mul, 13849
  %and = and i64 %add, 65535
  store i64 %and, i64* @seed, align 8
  %1 = load i64, i64* @seed, align 8
  %conv = trunc i64 %1 to i32
  ret i32 %conv
}

; Function Attrs: noinline nounwind uwtable
define void @tInitarr() #0 {
entry:
  %i = alloca i32, align 4
  %temp = alloca i64, align 8
  call void @Initrand()
  store i32 0, i32* @biggest, align 4
  store i32 0, i32* @littlest, align 4
  store i32 1, i32* %i, align 4
  br label %for.cond

for.cond:                                         ; preds = %for.inc, %entry
  %0 = load i32, i32* %i, align 4
  %cmp = icmp sle i32 %0, 5000
  br i1 %cmp, label %for.body, label %for.end

for.body:                                         ; preds = %for.cond
  %call = call i32 @Rand()
  %conv = sext i32 %call to i64
  store i64 %conv, i64* %temp, align 8
  %1 = load i64, i64* %temp, align 8
  %2 = load i64, i64* %temp, align 8
  %div = sdiv i64 %2, 100000
  %mul = mul nsw i64 %div, 100000
  %sub = sub nsw i64 %1, %mul
  %sub1 = sub nsw i64 %sub, 50000
  %conv2 = trunc i64 %sub1 to i32
  %3 = load i32, i32* %i, align 4
  %idxprom = sext i32 %3 to i64
  %arrayidx = getelementptr inbounds [5001 x i32], [5001 x i32]* @sortlist, i64 0, i64 %idxprom
  store i32 %conv2, i32* %arrayidx, align 4
  %4 = load i32, i32* %i, align 4
  %idxprom3 = sext i32 %4 to i64
  %arrayidx4 = getelementptr inbounds [5001 x i32], [5001 x i32]* @sortlist, i64 0, i64 %idxprom3
  %5 = load i32, i32* %arrayidx4, align 4
  %6 = load i32, i32* @biggest, align 4
  %cmp5 = icmp sgt i32 %5, %6
  br i1 %cmp5, label %if.then, label %if.else

if.then:                                          ; preds = %for.body
  %7 = load i32, i32* %i, align 4
  %idxprom7 = sext i32 %7 to i64
  %arrayidx8 = getelementptr inbounds [5001 x i32], [5001 x i32]* @sortlist, i64 0, i64 %idxprom7
  %8 = load i32, i32* %arrayidx8, align 4
  store i32 %8, i32* @biggest, align 4
  br label %if.end16

if.else:                                          ; preds = %for.body
  %9 = load i32, i32* %i, align 4
  %idxprom9 = sext i32 %9 to i64
  %arrayidx10 = getelementptr inbounds [5001 x i32], [5001 x i32]* @sortlist, i64 0, i64 %idxprom9
  %10 = load i32, i32* %arrayidx10, align 4
  %11 = load i32, i32* @littlest, align 4
  %cmp11 = icmp slt i32 %10, %11
  br i1 %cmp11, label %if.then13, label %if.end

if.then13:                                        ; preds = %if.else
  %12 = load i32, i32* %i, align 4
  %idxprom14 = sext i32 %12 to i64
  %arrayidx15 = getelementptr inbounds [5001 x i32], [5001 x i32]* @sortlist, i64 0, i64 %idxprom14
  %13 = load i32, i32* %arrayidx15, align 4
  store i32 %13, i32* @littlest, align 4
  br label %if.end

if.end:                                           ; preds = %if.then13, %if.else
  br label %if.end16

if.end16:                                         ; preds = %if.end, %if.then
  br label %for.inc

for.inc:                                          ; preds = %if.end16
  %14 = load i32, i32* %i, align 4
  %inc = add nsw i32 %14, 1
  store i32 %inc, i32* %i, align 4
  br label %for.cond

for.end:                                          ; preds = %for.cond
  ret void
}

; Function Attrs: noinline nounwind uwtable
define void @CreateNode(%struct.node** %t, i32 %n) #0 {
entry:
  %t.addr = alloca %struct.node**, align 8
  %n.addr = alloca i32, align 4
  store %struct.node** %t, %struct.node*** %t.addr, align 8
  store i32 %n, i32* %n.addr, align 4
  %call = call noalias i8* @malloc(i64 24) #3
  %0 = bitcast i8* %call to %struct.node*
  %1 = load %struct.node**, %struct.node*** %t.addr, align 8
  store %struct.node* %0, %struct.node** %1, align 8
  %2 = load %struct.node**, %struct.node*** %t.addr, align 8
  %3 = load %struct.node*, %struct.node** %2, align 8
  %left = getelementptr inbounds %struct.node, %struct.node* %3, i32 0, i32 0
  store %struct.node* null, %struct.node** %left, align 8
  %4 = load %struct.node**, %struct.node*** %t.addr, align 8
  %5 = load %struct.node*, %struct.node** %4, align 8
  %right = getelementptr inbounds %struct.node, %struct.node* %5, i32 0, i32 1
  store %struct.node* null, %struct.node** %right, align 8
  %6 = load i32, i32* %n.addr, align 4
  %7 = load %struct.node**, %struct.node*** %t.addr, align 8
  %8 = load %struct.node*, %struct.node** %7, align 8
  %val = getelementptr inbounds %struct.node, %struct.node* %8, i32 0, i32 2
  store i32 %6, i32* %val, align 8
  ret void
}

; Function Attrs: nounwind
declare noalias i8* @malloc(i64) #1

; Function Attrs: noinline nounwind uwtable
define void @Insert(i32 %n, %struct.node* %t) #0 {
entry:
  %n.addr = alloca i32, align 4
  %t.addr = alloca %struct.node*, align 8
  store i32 %n, i32* %n.addr, align 4
  store %struct.node* %t, %struct.node** %t.addr, align 8
  %0 = load i32, i32* %n.addr, align 4
  %1 = load %struct.node*, %struct.node** %t.addr, align 8
  %val = getelementptr inbounds %struct.node, %struct.node* %1, i32 0, i32 2
  %2 = load i32, i32* %val, align 8
  %cmp = icmp sgt i32 %0, %2
  br i1 %cmp, label %if.then, label %if.else5

if.then:                                          ; preds = %entry
  %3 = load %struct.node*, %struct.node** %t.addr, align 8
  %left = getelementptr inbounds %struct.node, %struct.node* %3, i32 0, i32 0
  %4 = load %struct.node*, %struct.node** %left, align 8
  %cmp1 = icmp eq %struct.node* %4, null
  br i1 %cmp1, label %if.then2, label %if.else

if.then2:                                         ; preds = %if.then
  %5 = load %struct.node*, %struct.node** %t.addr, align 8
  %left3 = getelementptr inbounds %struct.node, %struct.node* %5, i32 0, i32 0
  %6 = load i32, i32* %n.addr, align 4
  call void @CreateNode(%struct.node** %left3, i32 %6)
  br label %if.end

if.else:                                          ; preds = %if.then
  %7 = load i32, i32* %n.addr, align 4
  %8 = load %struct.node*, %struct.node** %t.addr, align 8
  %left4 = getelementptr inbounds %struct.node, %struct.node* %8, i32 0, i32 0
  %9 = load %struct.node*, %struct.node** %left4, align 8
  call void @Insert(i32 %7, %struct.node* %9)
  br label %if.end

if.end:                                           ; preds = %if.else, %if.then2
  br label %if.end16

if.else5:                                         ; preds = %entry
  %10 = load i32, i32* %n.addr, align 4
  %11 = load %struct.node*, %struct.node** %t.addr, align 8
  %val6 = getelementptr inbounds %struct.node, %struct.node* %11, i32 0, i32 2
  %12 = load i32, i32* %val6, align 8
  %cmp7 = icmp slt i32 %10, %12
  br i1 %cmp7, label %if.then8, label %if.end15

if.then8:                                         ; preds = %if.else5
  %13 = load %struct.node*, %struct.node** %t.addr, align 8
  %right = getelementptr inbounds %struct.node, %struct.node* %13, i32 0, i32 1
  %14 = load %struct.node*, %struct.node** %right, align 8
  %cmp9 = icmp eq %struct.node* %14, null
  br i1 %cmp9, label %if.then10, label %if.else12

if.then10:                                        ; preds = %if.then8
  %15 = load %struct.node*, %struct.node** %t.addr, align 8
  %right11 = getelementptr inbounds %struct.node, %struct.node* %15, i32 0, i32 1
  %16 = load i32, i32* %n.addr, align 4
  call void @CreateNode(%struct.node** %right11, i32 %16)
  br label %if.end14

if.else12:                                        ; preds = %if.then8
  %17 = load i32, i32* %n.addr, align 4
  %18 = load %struct.node*, %struct.node** %t.addr, align 8
  %right13 = getelementptr inbounds %struct.node, %struct.node* %18, i32 0, i32 1
  %19 = load %struct.node*, %struct.node** %right13, align 8
  call void @Insert(i32 %17, %struct.node* %19)
  br label %if.end14

if.end14:                                         ; preds = %if.else12, %if.then10
  br label %if.end15

if.end15:                                         ; preds = %if.end14, %if.else5
  br label %if.end16

if.end16:                                         ; preds = %if.end15, %if.end
  ret void
}

; Function Attrs: noinline nounwind uwtable
define i32 @Checktree(%struct.node* %p) #0 {
entry:
  %p.addr = alloca %struct.node*, align 8
  %result = alloca i32, align 4
  store %struct.node* %p, %struct.node** %p.addr, align 8
  store i32 1, i32* %result, align 4
  %0 = load %struct.node*, %struct.node** %p.addr, align 8
  %left = getelementptr inbounds %struct.node, %struct.node* %0, i32 0, i32 0
  %1 = load %struct.node*, %struct.node** %left, align 8
  %cmp = icmp ne %struct.node* %1, null
  br i1 %cmp, label %if.then, label %if.end7

if.then:                                          ; preds = %entry
  %2 = load %struct.node*, %struct.node** %p.addr, align 8
  %left1 = getelementptr inbounds %struct.node, %struct.node* %2, i32 0, i32 0
  %3 = load %struct.node*, %struct.node** %left1, align 8
  %val = getelementptr inbounds %struct.node, %struct.node* %3, i32 0, i32 2
  %4 = load i32, i32* %val, align 8
  %5 = load %struct.node*, %struct.node** %p.addr, align 8
  %val2 = getelementptr inbounds %struct.node, %struct.node* %5, i32 0, i32 2
  %6 = load i32, i32* %val2, align 8
  %cmp3 = icmp sle i32 %4, %6
  br i1 %cmp3, label %if.then4, label %if.else

if.then4:                                         ; preds = %if.then
  store i32 0, i32* %result, align 4
  br label %if.end

if.else:                                          ; preds = %if.then
  %7 = load %struct.node*, %struct.node** %p.addr, align 8
  %left5 = getelementptr inbounds %struct.node, %struct.node* %7, i32 0, i32 0
  %8 = load %struct.node*, %struct.node** %left5, align 8
  %call = call i32 @Checktree(%struct.node* %8)
  %tobool = icmp ne i32 %call, 0
  br i1 %tobool, label %land.rhs, label %land.end

land.rhs:                                         ; preds = %if.else
  %9 = load i32, i32* %result, align 4
  %tobool6 = icmp ne i32 %9, 0
  br label %land.end

land.end:                                         ; preds = %land.rhs, %if.else
  %10 = phi i1 [ false, %if.else ], [ %tobool6, %land.rhs ]
  %land.ext = zext i1 %10 to i32
  store i32 %land.ext, i32* %result, align 4
  br label %if.end

if.end:                                           ; preds = %land.end, %if.then4
  br label %if.end7

if.end7:                                          ; preds = %if.end, %entry
  %11 = load %struct.node*, %struct.node** %p.addr, align 8
  %right = getelementptr inbounds %struct.node, %struct.node* %11, i32 0, i32 1
  %12 = load %struct.node*, %struct.node** %right, align 8
  %cmp8 = icmp ne %struct.node* %12, null
  br i1 %cmp8, label %if.then9, label %if.end24

if.then9:                                         ; preds = %if.end7
  %13 = load %struct.node*, %struct.node** %p.addr, align 8
  %right10 = getelementptr inbounds %struct.node, %struct.node* %13, i32 0, i32 1
  %14 = load %struct.node*, %struct.node** %right10, align 8
  %val11 = getelementptr inbounds %struct.node, %struct.node* %14, i32 0, i32 2
  %15 = load i32, i32* %val11, align 8
  %16 = load %struct.node*, %struct.node** %p.addr, align 8
  %val12 = getelementptr inbounds %struct.node, %struct.node* %16, i32 0, i32 2
  %17 = load i32, i32* %val12, align 8
  %cmp13 = icmp sge i32 %15, %17
  br i1 %cmp13, label %if.then14, label %if.else15

if.then14:                                        ; preds = %if.then9
  store i32 0, i32* %result, align 4
  br label %if.end23

if.else15:                                        ; preds = %if.then9
  %18 = load %struct.node*, %struct.node** %p.addr, align 8
  %right16 = getelementptr inbounds %struct.node, %struct.node* %18, i32 0, i32 1
  %19 = load %struct.node*, %struct.node** %right16, align 8
  %call17 = call i32 @Checktree(%struct.node* %19)
  %tobool18 = icmp ne i32 %call17, 0
  br i1 %tobool18, label %land.rhs19, label %land.end21

land.rhs19:                                       ; preds = %if.else15
  %20 = load i32, i32* %result, align 4
  %tobool20 = icmp ne i32 %20, 0
  br label %land.end21

land.end21:                                       ; preds = %land.rhs19, %if.else15
  %21 = phi i1 [ false, %if.else15 ], [ %tobool20, %land.rhs19 ]
  %land.ext22 = zext i1 %21 to i32
  store i32 %land.ext22, i32* %result, align 4
  br label %if.end23

if.end23:                                         ; preds = %land.end21, %if.then14
  br label %if.end24

if.end24:                                         ; preds = %if.end23, %if.end7
  %22 = load i32, i32* %result, align 4
  ret i32 %22
}

; Function Attrs: noinline nounwind uwtable
define void @Trees(i32 %run) #0 {
entry:
  %run.addr = alloca i32, align 4
  %i = alloca i32, align 4
  store i32 %run, i32* %run.addr, align 4
  call void @tInitarr()
  %call = call noalias i8* @malloc(i64 24) #3
  %0 = bitcast i8* %call to %struct.node*
  store %struct.node* %0, %struct.node** @tree, align 8
  %1 = load %struct.node*, %struct.node** @tree, align 8
  %left = getelementptr inbounds %struct.node, %struct.node* %1, i32 0, i32 0
  store %struct.node* null, %struct.node** %left, align 8
  %2 = load %struct.node*, %struct.node** @tree, align 8
  %right = getelementptr inbounds %struct.node, %struct.node* %2, i32 0, i32 1
  store %struct.node* null, %struct.node** %right, align 8
  %3 = load i32, i32* getelementptr inbounds ([5001 x i32], [5001 x i32]* @sortlist, i64 0, i64 1), align 4
  %4 = load %struct.node*, %struct.node** @tree, align 8
  %val = getelementptr inbounds %struct.node, %struct.node* %4, i32 0, i32 2
  store i32 %3, i32* %val, align 8
  store i32 2, i32* %i, align 4
  br label %for.cond

for.cond:                                         ; preds = %for.inc, %entry
  %5 = load i32, i32* %i, align 4
  %cmp = icmp sle i32 %5, 5000
  br i1 %cmp, label %for.body, label %for.end

for.body:                                         ; preds = %for.cond
  %6 = load i32, i32* %i, align 4
  %idxprom = sext i32 %6 to i64
  %arrayidx = getelementptr inbounds [5001 x i32], [5001 x i32]* @sortlist, i64 0, i64 %idxprom
  %7 = load i32, i32* %arrayidx, align 4
  %8 = load %struct.node*, %struct.node** @tree, align 8
  call void @Insert(i32 %7, %struct.node* %8)
  br label %for.inc

for.inc:                                          ; preds = %for.body
  %9 = load i32, i32* %i, align 4
  %inc = add nsw i32 %9, 1
  store i32 %inc, i32* %i, align 4
  br label %for.cond

for.end:                                          ; preds = %for.cond
  %10 = load i32, i32* %run.addr, align 4
  %add = add nsw i32 2, %10
  %idxprom1 = sext i32 %add to i64
  %arrayidx2 = getelementptr inbounds [5001 x i32], [5001 x i32]* @sortlist, i64 0, i64 %idxprom1
  %11 = load i32, i32* %arrayidx2, align 4
  %call3 = call i32 (i8*, ...) @printf(i8* getelementptr inbounds ([4 x i8], [4 x i8]* @.str, i32 0, i32 0), i32 %11)
  %12 = load %struct.node*, %struct.node** @tree, align 8
  %call4 = call i32 @Checktree(%struct.node* %12)
  %tobool = icmp ne i32 %call4, 0
  br i1 %tobool, label %if.end, label %if.then

if.then:                                          ; preds = %for.end
  %call5 = call i32 (i8*, ...) @printf(i8* getelementptr inbounds ([17 x i8], [17 x i8]* @.str.1, i32 0, i32 0))
  br label %if.end

if.end:                                           ; preds = %if.then, %for.end
  ret void
}

declare i32 @printf(i8*, ...) #2

; Function Attrs: noinline nounwind uwtable
define i32 @main() #0 {
entry:
  %retval = alloca i32, align 4
  %i = alloca i32, align 4
  store i32 0, i32* %retval, align 4
  store i32 0, i32* %i, align 4
  br label %for.cond

for.cond:                                         ; preds = %for.inc, %entry
  %0 = load i32, i32* %i, align 4
  %cmp = icmp slt i32 %0, 100
  br i1 %cmp, label %for.body, label %for.end

for.body:                                         ; preds = %for.cond
  %1 = load i32, i32* %i, align 4
  call void @Trees(i32 %1)
  br label %for.inc

for.inc:                                          ; preds = %for.body
  %2 = load i32, i32* %i, align 4
  %inc = add nsw i32 %2, 1
  store i32 %inc, i32* %i, align 4
  br label %for.cond

for.end:                                          ; preds = %for.cond
  ret i32 0
}

attributes #0 = { noinline nounwind uwtable "correctly-rounded-divide-sqrt-fp-math"="false" "disable-tail-calls"="false" "less-precise-fpmad"="false" "no-frame-pointer-elim"="true" "no-frame-pointer-elim-non-leaf" "no-infs-fp-math"="false" "no-jump-tables"="false" "no-nans-fp-math"="false" "no-signed-zeros-fp-math"="false" "no-trapping-math"="false" "stack-protector-buffer-size"="8" "target-cpu"="x86-64" "target-features"="+fxsr,+mmx,+sse,+sse2,+x87" "unsafe-fp-math"="false" "use-soft-float"="false" }
attributes #1 = { nounwind "correctly-rounded-divide-sqrt-fp-math"="false" "disable-tail-calls"="false" "less-precise-fpmad"="false" "no-frame-pointer-elim"="true" "no-frame-pointer-elim-non-leaf" "no-infs-fp-math"="false" "no-nans-fp-math"="false" "no-signed-zeros-fp-math"="false" "no-trapping-math"="false" "stack-protector-buffer-size"="8" "target-cpu"="x86-64" "target-features"="+fxsr,+mmx,+sse,+sse2,+x87" "unsafe-fp-math"="false" "use-soft-float"="false" }
attributes #2 = { "correctly-rounded-divide-sqrt-fp-math"="false" "disable-tail-calls"="false" "less-precise-fpmad"="false" "no-frame-pointer-elim"="true" "no-frame-pointer-elim-non-leaf" "no-infs-fp-math"="false" "no-nans-fp-math"="false" "no-signed-zeros-fp-math"="false" "no-trapping-math"="false" "stack-protector-buffer-size"="8" "target-cpu"="x86-64" "target-features"="+fxsr,+mmx,+sse,+sse2,+x87" "unsafe-fp-math"="false" "use-soft-float"="false" }
attributes #3 = { nounwind }

!llvm.ident = !{!0}

!0 = !{!"clang version 4.0.0 (tags/RELEASE_400/final)"}
