; ModuleID = 'mcsema/test.proposed.inline.ll'
source_filename = "llvm-link"
target datalayout = "e-m:e-i64:64-f80:128-n8:16:32:64-S128"
target triple = "x86_64-pc-linux-gnu-elf"

%__bss_start_type = type <{ [8 x i8] }>
%G_0xb54ce4_type = type <{ [1 x i8] }>
%G__0xb0eff0_type = type <{ [8 x i8] }>
%struct.State = type { %struct.ArchState, [32 x %union.VectorReg], %struct.ArithFlags, %union.anon, %struct.Segments, %struct.AddressSpace, %struct.GPR, %struct.X87Stack, %struct.MMX, %struct.FPUStatusFlags, %union.anon, %union.FPU, %struct.SegmentCaches }
%struct.ArchState = type { i32, i32, %union.anon }
%union.VectorReg = type { %union.vec512_t }
%union.vec512_t = type { %struct.uint64v8_t }
%struct.uint64v8_t = type { [8 x i64] }
%struct.ArithFlags = type { i8, i8, i8, i8, i8, i8, i8, i8, i8, i8, i8, i8, i8, i8, i8, i8 }
%struct.Segments = type { i16, %union.SegmentSelector, i16, %union.SegmentSelector, i16, %union.SegmentSelector, i16, %union.SegmentSelector, i16, %union.SegmentSelector, i16, %union.SegmentSelector }
%union.SegmentSelector = type { i16 }
%struct.AddressSpace = type { i64, %struct.Reg, i64, %struct.Reg, i64, %struct.Reg, i64, %struct.Reg, i64, %struct.Reg, i64, %struct.Reg }
%struct.Reg = type { %union.anon }
%struct.GPR = type { i64, %struct.Reg, i64, %struct.Reg, i64, %struct.Reg, i64, %struct.Reg, i64, %struct.Reg, i64, %struct.Reg, i64, %struct.Reg, i64, %struct.Reg, i64, %struct.Reg, i64, %struct.Reg, i64, %struct.Reg, i64, %struct.Reg, i64, %struct.Reg, i64, %struct.Reg, i64, %struct.Reg, i64, %struct.Reg, i64, %struct.Reg }
%struct.X87Stack = type { [8 x %struct.anon.3] }
%struct.anon.3 = type { i64, double }
%struct.MMX = type { [8 x %struct.anon.4] }
%struct.anon.4 = type { i64, %union.vec64_t }
%union.vec64_t = type { %struct.uint64v1_t }
%struct.uint64v1_t = type { [1 x i64] }
%struct.FPUStatusFlags = type { i8, i8, i8, i8, i8, i8, i8, i8, i8, i8, i8, i8, i8, i8, i8, i8, i8, i8, i8, i8, [4 x i8] }
%union.anon = type { i64 }
%union.FPU = type { %struct.anon.13 }
%struct.anon.13 = type { %struct.FpuFXSAVE, [96 x i8] }
%struct.FpuFXSAVE = type { %union.SegmentSelector, %union.SegmentSelector, %union.FPUAbridgedTagWord, i8, i16, i32, %union.SegmentSelector, i16, i32, %union.SegmentSelector, i16, %union.FPUControlStatus, %union.FPUControlStatus, [8 x %struct.FPUStackElem], [16 x %union.vec128_t] }
%union.FPUAbridgedTagWord = type { i8 }
%union.FPUControlStatus = type { i32 }
%struct.FPUStackElem = type { %union.anon.11, [6 x i8] }
%union.anon.11 = type { %struct.float80_t }
%struct.float80_t = type { [10 x i8] }
%union.vec128_t = type { %struct.uint128v1_t }
%struct.uint128v1_t = type { [1 x i128] }
%struct.SegmentCaches = type { %struct.SegmentShadow, %struct.SegmentShadow, %struct.SegmentShadow, %struct.SegmentShadow, %struct.SegmentShadow, %struct.SegmentShadow }
%struct.SegmentShadow = type { %union.anon, i32, i32 }
%struct.Memory = type opaque

@__bss_start = local_unnamed_addr global %__bss_start_type zeroinitializer
@G_0xb54ce4 = local_unnamed_addr global %G_0xb54ce4_type zeroinitializer
@G__0xb0eff0 = global %G__0xb0eff0_type zeroinitializer

; Function Attrs: nounwind readnone
declare i32 @llvm.ctpop.i32(i32) #0

declare %struct.Memory* @sub_45db40.attack(%struct.State* noalias dereferenceable(3376), i64, %struct.Memory* noalias readnone returned) local_unnamed_addr

declare %struct.Memory* @sub_478110.play_attack_defend_n(%struct.State* noalias dereferenceable(3376), i64, %struct.Memory* noalias readnone returned) local_unnamed_addr

; Function Attrs: alwaysinline
define %struct.Memory* @autohelperowl_attackpat310(%struct.State* noalias, i64, %struct.Memory* noalias readnone) local_unnamed_addr #1 {
entry:
  %3 = getelementptr inbounds %struct.State, %struct.State* %0, i64 0, i32 6, i32 33, i32 0, i32 0
  %RBP.i = getelementptr inbounds %struct.State, %struct.State* %0, i64 0, i32 6, i32 15, i32 0, i32 0
  %4 = load i64, i64* %RBP.i, align 8
  %5 = add i64 %1, 1
  store i64 %5, i64* %3, align 8
  %6 = getelementptr inbounds %struct.State, %struct.State* %0, i64 0, i32 6, i32 13, i32 0, i32 0
  %7 = load i64, i64* %6, align 8
  %8 = add i64 %7, -8
  %9 = inttoptr i64 %8 to i64*
  store i64 %4, i64* %9, align 8
  %10 = load i64, i64* %3, align 8
  store i64 %8, i64* %RBP.i, align 8
  %11 = add i64 %7, -40
  store i64 %11, i64* %6, align 8
  %12 = icmp ult i64 %8, 32
  %13 = zext i1 %12 to i8
  %14 = getelementptr inbounds %struct.State, %struct.State* %0, i64 0, i32 2, i32 1
  store i8 %13, i8* %14, align 1
  %15 = trunc i64 %11 to i32
  %16 = and i32 %15, 255
  %17 = tail call i32 @llvm.ctpop.i32(i32 %16)
  %18 = trunc i32 %17 to i8
  %19 = and i8 %18, 1
  %20 = xor i8 %19, 1
  %21 = getelementptr inbounds %struct.State, %struct.State* %0, i64 0, i32 2, i32 3
  store i8 %20, i8* %21, align 1
  %22 = xor i64 %8, %11
  %23 = lshr i64 %22, 4
  %24 = trunc i64 %23 to i8
  %25 = and i8 %24, 1
  %26 = getelementptr inbounds %struct.State, %struct.State* %0, i64 0, i32 2, i32 5
  store i8 %25, i8* %26, align 1
  %27 = icmp eq i64 %11, 0
  %28 = zext i1 %27 to i8
  %29 = getelementptr inbounds %struct.State, %struct.State* %0, i64 0, i32 2, i32 7
  store i8 %28, i8* %29, align 1
  %30 = lshr i64 %11, 63
  %31 = trunc i64 %30 to i8
  %32 = getelementptr inbounds %struct.State, %struct.State* %0, i64 0, i32 2, i32 9
  store i8 %31, i8* %32, align 1
  %33 = lshr i64 %8, 63
  %34 = xor i64 %30, %33
  %35 = add nuw nsw i64 %34, %33
  %36 = icmp eq i64 %35, 2
  %37 = zext i1 %36 to i8
  %38 = getelementptr inbounds %struct.State, %struct.State* %0, i64 0, i32 2, i32 13
  store i8 %37, i8* %38, align 1
  %39 = getelementptr inbounds %struct.State, %struct.State* %0, i64 0, i32 6, i32 11, i32 0
  %EDI.i122 = bitcast %union.anon* %39 to i32*
  %40 = add i64 %7, -12
  %41 = load i32, i32* %EDI.i122, align 4
  %42 = add i64 %10, 10
  store i64 %42, i64* %3, align 8
  %43 = inttoptr i64 %40 to i32*
  store i32 %41, i32* %43, align 4
  %44 = getelementptr inbounds %struct.State, %struct.State* %0, i64 0, i32 6, i32 9, i32 0
  %ESI.i119 = bitcast %union.anon* %44 to i32*
  %45 = load i64, i64* %RBP.i, align 8
  %46 = add i64 %45, -8
  %47 = load i32, i32* %ESI.i119, align 4
  %48 = load i64, i64* %3, align 8
  %49 = add i64 %48, 3
  store i64 %49, i64* %3, align 8
  %50 = inttoptr i64 %46 to i32*
  store i32 %47, i32* %50, align 4
  %51 = getelementptr inbounds %struct.State, %struct.State* %0, i64 0, i32 6, i32 7, i32 0
  %EDX.i = bitcast %union.anon* %51 to i32*
  %52 = load i64, i64* %RBP.i, align 8
  %53 = add i64 %52, -12
  %54 = load i32, i32* %EDX.i, align 4
  %55 = load i64, i64* %3, align 8
  %56 = add i64 %55, 3
  store i64 %56, i64* %3, align 8
  %57 = inttoptr i64 %53 to i32*
  store i32 %54, i32* %57, align 4
  %58 = getelementptr inbounds %struct.State, %struct.State* %0, i64 0, i32 6, i32 5, i32 0
  %ECX.i114 = bitcast %union.anon* %58 to i32*
  %59 = load i64, i64* %RBP.i, align 8
  %60 = add i64 %59, -16
  %61 = load i32, i32* %ECX.i114, align 4
  %62 = load i64, i64* %3, align 8
  %63 = add i64 %62, 3
  store i64 %63, i64* %3, align 8
  %64 = inttoptr i64 %60 to i32*
  store i32 %61, i32* %64, align 4
  %65 = getelementptr inbounds %struct.State, %struct.State* %0, i64 0, i32 6, i32 1, i32 0
  %RAX.i111 = getelementptr inbounds %union.anon, %union.anon* %65, i64 0, i32 0
  %66 = load i64, i64* %RBP.i, align 8
  %67 = add i64 %66, -4
  %68 = load i64, i64* %3, align 8
  %69 = add i64 %68, 4
  store i64 %69, i64* %3, align 8
  %70 = inttoptr i64 %67 to i32*
  %71 = load i32, i32* %70, align 4
  %72 = sext i32 %71 to i64
  store i64 %72, i64* %RAX.i111, align 8
  %RCX.i109 = getelementptr inbounds %union.anon, %union.anon* %58, i64 0, i32 0
  %73 = shl nsw i64 %72, 2
  %74 = add nsw i64 %73, 11908272
  %75 = add i64 %68, 11
  store i64 %75, i64* %3, align 8
  %76 = inttoptr i64 %74 to i32*
  %77 = load i32, i32* %76, align 4
  %78 = zext i32 %77 to i64
  store i64 %78, i64* %RCX.i109, align 8
  %79 = add i64 %66, -8
  %80 = add i64 %68, 14
  store i64 %80, i64* %3, align 8
  %81 = inttoptr i64 %79 to i32*
  %82 = load i32, i32* %81, align 4
  %83 = add i32 %82, %77
  %84 = zext i32 %83 to i64
  store i64 %84, i64* %RCX.i109, align 8
  %85 = icmp ult i32 %83, %77
  %86 = icmp ult i32 %83, %82
  %87 = or i1 %85, %86
  %88 = zext i1 %87 to i8
  store i8 %88, i8* %14, align 1
  %89 = and i32 %83, 255
  %90 = tail call i32 @llvm.ctpop.i32(i32 %89)
  %91 = trunc i32 %90 to i8
  %92 = and i8 %91, 1
  %93 = xor i8 %92, 1
  store i8 %93, i8* %21, align 1
  %94 = xor i32 %82, %77
  %95 = xor i32 %94, %83
  %96 = lshr i32 %95, 4
  %97 = trunc i32 %96 to i8
  %98 = and i8 %97, 1
  store i8 %98, i8* %26, align 1
  %99 = icmp eq i32 %83, 0
  %100 = zext i1 %99 to i8
  store i8 %100, i8* %29, align 1
  %101 = lshr i32 %83, 31
  %102 = trunc i32 %101 to i8
  store i8 %102, i8* %32, align 1
  %103 = lshr i32 %77, 31
  %104 = lshr i32 %82, 31
  %105 = xor i32 %101, %103
  %106 = xor i32 %101, %104
  %107 = add nuw nsw i32 %105, %106
  %108 = icmp eq i32 %107, 2
  %109 = zext i1 %108 to i8
  store i8 %109, i8* %38, align 1
  %110 = add i64 %66, -20
  %111 = add i64 %68, 17
  store i64 %111, i64* %3, align 8
  %112 = inttoptr i64 %110 to i32*
  store i32 %83, i32* %112, align 4
  %113 = load i64, i64* %RBP.i, align 8
  %114 = add i64 %113, -4
  %115 = load i64, i64* %3, align 8
  %116 = add i64 %115, 4
  store i64 %116, i64* %3, align 8
  %117 = inttoptr i64 %114 to i32*
  %118 = load i32, i32* %117, align 4
  %119 = sext i32 %118 to i64
  store i64 %119, i64* %RAX.i111, align 8
  %120 = shl nsw i64 %119, 2
  %121 = add nsw i64 %120, 11903568
  %122 = add i64 %115, 11
  store i64 %122, i64* %3, align 8
  %123 = inttoptr i64 %121 to i32*
  %124 = load i32, i32* %123, align 4
  %125 = zext i32 %124 to i64
  store i64 %125, i64* %RCX.i109, align 8
  %126 = add i64 %113, -8
  %127 = add i64 %115, 14
  store i64 %127, i64* %3, align 8
  %128 = inttoptr i64 %126 to i32*
  %129 = load i32, i32* %128, align 4
  %130 = add i32 %129, %124
  %131 = zext i32 %130 to i64
  store i64 %131, i64* %RCX.i109, align 8
  %132 = icmp ult i32 %130, %124
  %133 = icmp ult i32 %130, %129
  %134 = or i1 %132, %133
  %135 = zext i1 %134 to i8
  store i8 %135, i8* %14, align 1
  %136 = and i32 %130, 255
  %137 = tail call i32 @llvm.ctpop.i32(i32 %136)
  %138 = trunc i32 %137 to i8
  %139 = and i8 %138, 1
  %140 = xor i8 %139, 1
  store i8 %140, i8* %21, align 1
  %141 = xor i32 %129, %124
  %142 = xor i32 %141, %130
  %143 = lshr i32 %142, 4
  %144 = trunc i32 %143 to i8
  %145 = and i8 %144, 1
  store i8 %145, i8* %26, align 1
  %146 = icmp eq i32 %130, 0
  %147 = zext i1 %146 to i8
  store i8 %147, i8* %29, align 1
  %148 = lshr i32 %130, 31
  %149 = trunc i32 %148 to i8
  store i8 %149, i8* %32, align 1
  %150 = lshr i32 %124, 31
  %151 = lshr i32 %129, 31
  %152 = xor i32 %148, %150
  %153 = xor i32 %148, %151
  %154 = add nuw nsw i32 %152, %153
  %155 = icmp eq i32 %154, 2
  %156 = zext i1 %155 to i8
  store i8 %156, i8* %38, align 1
  %157 = add i64 %113, -24
  %158 = add i64 %115, 17
  store i64 %158, i64* %3, align 8
  %159 = inttoptr i64 %157 to i32*
  store i32 %130, i32* %159, align 4
  %160 = load i64, i64* %RBP.i, align 8
  %161 = add i64 %160, -4
  %162 = load i64, i64* %3, align 8
  %163 = add i64 %162, 4
  store i64 %163, i64* %3, align 8
  %164 = inttoptr i64 %161 to i32*
  %165 = load i32, i32* %164, align 4
  %166 = sext i32 %165 to i64
  store i64 %166, i64* %RAX.i111, align 8
  %167 = shl nsw i64 %166, 2
  %168 = add nsw i64 %167, 11904752
  %169 = add i64 %162, 11
  store i64 %169, i64* %3, align 8
  %170 = inttoptr i64 %168 to i32*
  %171 = load i32, i32* %170, align 4
  %172 = zext i32 %171 to i64
  store i64 %172, i64* %RCX.i109, align 8
  %173 = add i64 %160, -8
  %174 = add i64 %162, 14
  store i64 %174, i64* %3, align 8
  %175 = inttoptr i64 %173 to i32*
  %176 = load i32, i32* %175, align 4
  %177 = add i32 %176, %171
  %178 = zext i32 %177 to i64
  store i64 %178, i64* %RCX.i109, align 8
  %179 = add i64 %160, -28
  %180 = add i64 %162, 17
  store i64 %180, i64* %3, align 8
  %181 = inttoptr i64 %179 to i32*
  store i32 %177, i32* %181, align 4
  %182 = load i64, i64* %3, align 8
  %183 = load i32, i32* bitcast (%G_0xb54ce4_type* @G_0xb54ce4 to i32*), align 8
  %184 = icmp eq i32 %183, 0
  %.v = select i1 %184, i64 14, i64 60
  %185 = add i64 %182, %.v
  %EAX.i51 = bitcast %union.anon* %65 to i32*
  %186 = add i64 %185, 2
  store i64 %186, i64* %3, align 8
  store i64 0, i64* %RAX.i111, align 8
  store i8 0, i8* %14, align 1
  store i8 1, i8* %21, align 1
  store i8 1, i8* %29, align 1
  store i8 0, i8* %32, align 1
  store i8 0, i8* %38, align 1
  store i8 0, i8* %26, align 1
  br i1 %184, label %block_4ba475, label %block_.L_4ba4a3

block_4ba475:                                     ; preds = %entry
  %AL.i71 = bitcast %union.anon* %65 to i8*
  %CL.i72 = bitcast %union.anon* %58 to i8*
  store i8 0, i8* %CL.i72, align 1
  %RDX.i69 = getelementptr inbounds %union.anon, %union.anon* %51, i64 0, i32 0
  store i64 ptrtoint (%G__0xb0eff0_type* @G__0xb0eff0 to i64), i64* %RDX.i69, align 8
  %RSI.i66 = getelementptr inbounds %union.anon, %union.anon* %44, i64 0, i32 0
  %187 = load i64, i64* %RBP.i, align 8
  %188 = add i64 %187, -20
  %189 = add i64 %185, 18
  store i64 %189, i64* %3, align 8
  %190 = inttoptr i64 %188 to i32*
  %191 = load i32, i32* %190, align 4
  %192 = sext i32 %191 to i64
  %193 = mul nsw i64 %192, 380
  store i64 %193, i64* %RSI.i66, align 8
  %194 = lshr i64 %193, 63
  %195 = add i64 %193, ptrtoint (%G__0xb0eff0_type* @G__0xb0eff0 to i64)
  store i64 %195, i64* %RDX.i69, align 8
  %196 = icmp ult i64 %195, ptrtoint (%G__0xb0eff0_type* @G__0xb0eff0 to i64)
  %197 = icmp ult i64 %195, %193
  %198 = or i1 %196, %197
  %199 = zext i1 %198 to i8
  store i8 %199, i8* %14, align 1
  %200 = trunc i64 %195 to i32
  %201 = and i32 %200, 252
  %202 = tail call i32 @llvm.ctpop.i32(i32 %201)
  %203 = trunc i32 %202 to i8
  %204 = and i8 %203, 1
  %205 = xor i8 %204, 1
  store i8 %205, i8* %21, align 1
  %206 = xor i64 %193, ptrtoint (%G__0xb0eff0_type* @G__0xb0eff0 to i64)
  %207 = xor i64 %206, %195
  %208 = lshr i64 %207, 4
  %209 = trunc i64 %208 to i8
  %210 = and i8 %209, 1
  store i8 %210, i8* %26, align 1
  %211 = icmp eq i64 %195, 0
  %212 = zext i1 %211 to i8
  store i8 %212, i8* %29, align 1
  %213 = lshr i64 %195, 63
  %214 = trunc i64 %213 to i8
  store i8 %214, i8* %32, align 1
  %215 = xor i64 %213, lshr (i64 ptrtoint (%G__0xb0eff0_type* @G__0xb0eff0 to i64), i64 63)
  %216 = xor i64 %213, %194
  %217 = add nuw nsw i64 %215, %216
  %218 = icmp eq i64 %217, 2
  %219 = zext i1 %218 to i8
  store i8 %219, i8* %38, align 1
  %220 = add i64 %193, add (i64 ptrtoint (%G__0xb0eff0_type* @G__0xb0eff0 to i64), i64 100)
  %221 = add i64 %185, 32
  store i64 %221, i64* %3, align 8
  %222 = inttoptr i64 %220 to i32*
  %223 = load i32, i32* %222, align 4
  store i8 0, i8* %14, align 1
  %224 = and i32 %223, 255
  %225 = tail call i32 @llvm.ctpop.i32(i32 %224)
  %226 = trunc i32 %225 to i8
  %227 = and i8 %226, 1
  %228 = xor i8 %227, 1
  store i8 %228, i8* %21, align 1
  store i8 0, i8* %26, align 1
  %229 = icmp eq i32 %223, 0
  %230 = zext i1 %229 to i8
  store i8 %230, i8* %29, align 1
  %231 = lshr i32 %223, 31
  %232 = trunc i32 %231 to i8
  store i8 %232, i8* %32, align 1
  store i8 0, i8* %38, align 1
  %233 = add i64 %187, -29
  %234 = add i64 %185, 35
  store i64 %234, i64* %3, align 8
  %235 = inttoptr i64 %233 to i8*
  store i8 0, i8* %235, align 1
  %236 = load i64, i64* %3, align 8
  %237 = add i64 %236, 86
  %238 = add i64 %236, 6
  %239 = load i8, i8* %29, align 1
  %240 = icmp eq i8 %239, 0
  %241 = select i1 %240, i64 %237, i64 %238
  store i64 %241, i64* %3, align 8
  br i1 %240, label %block_.L_4ba4ee, label %block_4ba49e

block_4ba49e:                                     ; preds = %block_4ba475
  %242 = add i64 %241, 34
  store i64 %242, i64* %3, align 8
  %.pre3 = getelementptr inbounds %union.anon, %union.anon* %39, i64 0, i32 0
  br label %block_.L_4ba4c0

block_.L_4ba4a3:                                  ; preds = %entry
  %RSI.i49 = getelementptr inbounds %union.anon, %union.anon* %44, i64 0, i32 0
  store i64 0, i64* %RSI.i49, align 8
  %RDI.i45 = getelementptr inbounds %union.anon, %union.anon* %39, i64 0, i32 0
  %243 = load i64, i64* %RBP.i, align 8
  %244 = add i64 %243, -20
  %245 = add i64 %185, 7
  store i64 %245, i64* %3, align 8
  %246 = inttoptr i64 %244 to i32*
  %247 = load i32, i32* %246, align 4
  %248 = zext i32 %247 to i64
  store i64 %248, i64* %RDI.i45, align 8
  %249 = add i64 %185, -379235
  %250 = add i64 %185, 12
  %251 = load i64, i64* %6, align 8
  %252 = add i64 %251, -8
  %253 = inttoptr i64 %252 to i64*
  store i64 %250, i64* %253, align 8
  store i64 %252, i64* %6, align 8
  store i64 %249, i64* %3, align 8
  %call2_4ba4aa = tail call %struct.Memory* @sub_45db40.attack(%struct.State* nonnull %0, i64 %249, %struct.Memory* %2)
  %254 = load i64, i64* %3, align 8
  store i64 0, i64* %RDI.i45, align 8
  %CL.i40 = bitcast %union.anon* %58 to i8*
  store i8 0, i8* %CL.i40, align 1
  %255 = load i32, i32* %EAX.i51, align 4
  store i8 0, i8* %14, align 1
  %256 = and i32 %255, 255
  %257 = tail call i32 @llvm.ctpop.i32(i32 %256)
  %258 = trunc i32 %257 to i8
  %259 = and i8 %258, 1
  %260 = xor i8 %259, 1
  store i8 %260, i8* %21, align 1
  store i8 0, i8* %26, align 1
  %261 = icmp eq i32 %255, 0
  %262 = zext i1 %261 to i8
  store i8 %262, i8* %29, align 1
  %263 = lshr i32 %255, 31
  %264 = trunc i32 %263 to i8
  store i8 %264, i8* %32, align 1
  store i8 0, i8* %38, align 1
  %265 = load i64, i64* %RBP.i, align 8
  %266 = add i64 %265, -29
  %267 = add i64 %254, 11
  store i64 %267, i64* %3, align 8
  %268 = inttoptr i64 %266 to i8*
  store i8 0, i8* %268, align 1
  %269 = load i64, i64* %3, align 8
  %270 = add i64 %269, 52
  %271 = add i64 %269, 6
  %272 = load i8, i8* %29, align 1
  %273 = icmp eq i8 %272, 0
  %274 = select i1 %273, i64 %270, i64 %271
  store i64 %274, i64* %3, align 8
  br i1 %273, label %block_.L_4ba4a3.block_.L_4ba4ee_crit_edge, label %block_.L_4ba4a3.block_.L_4ba4c0_crit_edge

block_.L_4ba4a3.block_.L_4ba4ee_crit_edge:        ; preds = %block_.L_4ba4a3
  %.pre4 = bitcast %union.anon* %65 to i8*
  br label %block_.L_4ba4ee

block_.L_4ba4a3.block_.L_4ba4c0_crit_edge:        ; preds = %block_.L_4ba4a3
  %.pre5 = getelementptr inbounds %union.anon, %union.anon* %51, i64 0, i32 0
  %.pre6 = bitcast %union.anon* %65 to i8*
  br label %block_.L_4ba4c0

block_.L_4ba4c0:                                  ; preds = %block_.L_4ba4a3.block_.L_4ba4c0_crit_edge, %block_4ba49e
  %AL.i20.pre-phi = phi i8* [ %.pre6, %block_.L_4ba4a3.block_.L_4ba4c0_crit_edge ], [ %AL.i71, %block_4ba49e ]
  %RDX.i.pre-phi = phi i64* [ %.pre5, %block_.L_4ba4a3.block_.L_4ba4c0_crit_edge ], [ %RDX.i69, %block_4ba49e ]
  %RDI.i.pre-phi = phi i64* [ %RDI.i45, %block_.L_4ba4a3.block_.L_4ba4c0_crit_edge ], [ %.pre3, %block_4ba49e ]
  %RSI.i.pre-phi = phi i64* [ %RSI.i49, %block_.L_4ba4a3.block_.L_4ba4c0_crit_edge ], [ %RSI.i66, %block_4ba49e ]
  %275 = phi i64 [ %271, %block_.L_4ba4a3.block_.L_4ba4c0_crit_edge ], [ %242, %block_4ba49e ]
  %MEMORY.0 = phi %struct.Memory* [ %call2_4ba4aa, %block_.L_4ba4a3.block_.L_4ba4c0_crit_edge ], [ %2, %block_4ba49e ]
  store i64 0, i64* %RSI.i.pre-phi, align 8
  store i8 0, i8* %14, align 1
  store i8 1, i8* %21, align 1
  store i8 1, i8* %29, align 1
  store i8 0, i8* %32, align 1
  store i8 0, i8* %38, align 1
  store i8 0, i8* %26, align 1
  store i64 1, i64* %RDX.i.pre-phi, align 8
  store i64 3, i64* %RAX.i111, align 8
  %276 = load i64, i64* %RBP.i, align 8
  %277 = add i64 %276, -12
  %278 = add i64 %275, 15
  store i64 %278, i64* %3, align 8
  %279 = inttoptr i64 %277 to i32*
  %280 = load i32, i32* %279, align 4
  %281 = sub i32 3, %280
  %282 = zext i32 %281 to i64
  store i64 %282, i64* %RAX.i111, align 8
  %283 = icmp ugt i32 %280, 3
  %284 = zext i1 %283 to i8
  store i8 %284, i8* %14, align 1
  %285 = and i32 %281, 255
  %286 = tail call i32 @llvm.ctpop.i32(i32 %285)
  %287 = trunc i32 %286 to i8
  %288 = and i8 %287, 1
  %289 = xor i8 %288, 1
  store i8 %289, i8* %21, align 1
  %290 = xor i32 %281, %280
  %291 = lshr i32 %290, 4
  %292 = trunc i32 %291 to i8
  %293 = and i8 %292, 1
  store i8 %293, i8* %26, align 1
  %294 = icmp eq i32 %281, 0
  %295 = zext i1 %294 to i8
  store i8 %295, i8* %29, align 1
  %296 = lshr i32 %281, 31
  %297 = trunc i32 %296 to i8
  store i8 %297, i8* %32, align 1
  %298 = lshr i32 %280, 31
  %299 = add nuw nsw i32 %296, %298
  %300 = icmp eq i32 %299, 2
  %301 = zext i1 %300 to i8
  store i8 %301, i8* %38, align 1
  %302 = add i64 %276, -24
  %303 = add i64 %275, 18
  store i64 %303, i64* %3, align 8
  %304 = inttoptr i64 %302 to i32*
  %305 = load i32, i32* %304, align 4
  %306 = zext i32 %305 to i64
  store i64 %306, i64* %RCX.i109, align 8
  %307 = getelementptr inbounds %struct.State, %struct.State* %0, i64 0, i32 6, i32 17, i32 0, i32 0
  %308 = add i64 %276, -28
  %309 = add i64 %275, 22
  store i64 %309, i64* %3, align 8
  %310 = inttoptr i64 %308 to i32*
  %311 = load i32, i32* %310, align 4
  %312 = zext i32 %311 to i64
  store i64 %312, i64* %307, align 8
  store i64 %282, i64* %RDI.i.pre-phi, align 8
  store i8 0, i8* %AL.i20.pre-phi, align 1
  %313 = add i64 %275, -271280
  %314 = add i64 %275, 31
  %315 = load i64, i64* %6, align 8
  %316 = add i64 %315, -8
  %317 = inttoptr i64 %316 to i64*
  store i64 %314, i64* %317, align 8
  store i64 %316, i64* %6, align 8
  store i64 %313, i64* %3, align 8
  %call2_4ba4da = tail call %struct.Memory* @sub_478110.play_attack_defend_n(%struct.State* nonnull %0, i64 %313, %struct.Memory* %MEMORY.0)
  %318 = load i32, i32* %EAX.i51, align 4
  %319 = load i64, i64* %3, align 8
  %320 = getelementptr inbounds %struct.State, %struct.State* %0, i64 0, i32 6, i32 19, i32 0
  %R9B.i16 = bitcast %union.anon* %320 to i8*
  %321 = icmp ne i32 %318, 0
  %322 = zext i1 %321 to i64
  %323 = xor i64 %322, 255
  %324 = trunc i64 %323 to i8
  store i8 %324, i8* %R9B.i16, align 1
  store i8 0, i8* %14, align 1
  %325 = trunc i64 %323 to i32
  %326 = tail call i32 @llvm.ctpop.i32(i32 %325)
  %327 = trunc i32 %326 to i8
  %328 = and i8 %327, 1
  %329 = xor i8 %328, 1
  store i8 %329, i8* %21, align 1
  store i8 0, i8* %29, align 1
  store i8 1, i8* %32, align 1
  store i8 0, i8* %38, align 1
  store i8 0, i8* %26, align 1
  %330 = load i64, i64* %RBP.i, align 8
  %331 = add i64 %330, -29
  %332 = add i64 %319, 15
  store i64 %332, i64* %3, align 8
  %333 = inttoptr i64 %331 to i8*
  store i8 %324, i8* %333, align 1
  %.pre = load i64, i64* %3, align 8
  br label %block_.L_4ba4ee

block_.L_4ba4ee:                                  ; preds = %block_.L_4ba4a3.block_.L_4ba4ee_crit_edge, %block_.L_4ba4c0, %block_4ba475
  %AL.i9.pre-phi = phi i8* [ %.pre4, %block_.L_4ba4a3.block_.L_4ba4ee_crit_edge ], [ %AL.i20.pre-phi, %block_.L_4ba4c0 ], [ %AL.i71, %block_4ba475 ]
  %334 = phi i64 [ %270, %block_.L_4ba4a3.block_.L_4ba4ee_crit_edge ], [ %.pre, %block_.L_4ba4c0 ], [ %237, %block_4ba475 ]
  %MEMORY.1 = phi %struct.Memory* [ %call2_4ba4aa, %block_.L_4ba4a3.block_.L_4ba4ee_crit_edge ], [ %call2_4ba4da, %block_.L_4ba4c0 ], [ %2, %block_4ba475 ]
  %335 = load i64, i64* %RBP.i, align 8
  %336 = add i64 %335, -29
  %337 = add i64 %334, 3
  store i64 %337, i64* %3, align 8
  %338 = inttoptr i64 %336 to i8*
  %339 = load i8, i8* %338, align 1
  %340 = and i8 %339, 1
  store i8 %340, i8* %AL.i9.pre-phi, align 1
  %341 = zext i8 %340 to i64
  store i64 %341, i64* %RAX.i111, align 8
  %342 = load i64, i64* %6, align 8
  %343 = add i64 %342, 32
  store i64 %343, i64* %6, align 8
  %344 = icmp ugt i64 %342, -33
  %345 = zext i1 %344 to i8
  store i8 %345, i8* %14, align 1
  %346 = trunc i64 %343 to i32
  %347 = and i32 %346, 255
  %348 = tail call i32 @llvm.ctpop.i32(i32 %347)
  %349 = trunc i32 %348 to i8
  %350 = and i8 %349, 1
  %351 = xor i8 %350, 1
  store i8 %351, i8* %21, align 1
  %352 = xor i64 %343, %342
  %353 = lshr i64 %352, 4
  %354 = trunc i64 %353 to i8
  %355 = and i8 %354, 1
  store i8 %355, i8* %26, align 1
  %356 = icmp eq i64 %343, 0
  %357 = zext i1 %356 to i8
  store i8 %357, i8* %29, align 1
  %358 = lshr i64 %343, 63
  %359 = trunc i64 %358 to i8
  store i8 %359, i8* %32, align 1
  %360 = lshr i64 %342, 63
  %361 = xor i64 %358, %360
  %362 = add nuw nsw i64 %361, %358
  %363 = icmp eq i64 %362, 2
  %364 = zext i1 %363 to i8
  store i8 %364, i8* %38, align 1
  %365 = add i64 %334, 13
  store i64 %365, i64* %3, align 8
  %366 = add i64 %342, 40
  %367 = inttoptr i64 %343 to i64*
  %368 = load i64, i64* %367, align 8
  store i64 %368, i64* %RBP.i, align 8
  store i64 %366, i64* %6, align 8
  %369 = add i64 %334, 14
  store i64 %369, i64* %3, align 8
  %370 = inttoptr i64 %366 to i64*
  %371 = load i64, i64* %370, align 8
  store i64 %371, i64* %3, align 8
  %372 = add i64 %342, 48
  store i64 %372, i64* %6, align 8
  ret %struct.Memory* %MEMORY.1
}

; Function Attrs: norecurse nounwind
define %struct.Memory* @routine_pushq__rbp(%struct.State* nocapture dereferenceable(3376), i64, %struct.Memory* readnone returned) local_unnamed_addr #2 {
block_400488:
  %PC = getelementptr inbounds %struct.State, %struct.State* %0, i64 0, i32 6, i32 33, i32 0, i32 0
  %RBP = getelementptr inbounds %struct.State, %struct.State* %0, i64 0, i32 6, i32 15, i32 0, i32 0
  %3 = load i64, i64* %RBP, align 8
  %4 = load i64, i64* %PC, align 8
  %5 = add i64 %4, 1
  store i64 %5, i64* %PC, align 8
  %6 = getelementptr inbounds %struct.State, %struct.State* %0, i64 0, i32 6, i32 13, i32 0, i32 0
  %7 = load i64, i64* %6, align 8
  %8 = add i64 %7, -8
  %9 = inttoptr i64 %8 to i64*
  store i64 %3, i64* %9, align 8
  store i64 %8, i64* %6, align 8
  ret %struct.Memory* %2
}

; Function Attrs: norecurse nounwind
define %struct.Memory* @routine_movq__rsp___rbp(%struct.State* nocapture dereferenceable(3376), i64, %struct.Memory* readnone returned) local_unnamed_addr #2 {
block_400488:
  %PC = getelementptr inbounds %struct.State, %struct.State* %0, i64 0, i32 6, i32 33, i32 0, i32 0
  %RSP = getelementptr inbounds %struct.State, %struct.State* %0, i64 0, i32 6, i32 13, i32 0, i32 0
  %RBP = getelementptr inbounds %struct.State, %struct.State* %0, i64 0, i32 6, i32 15, i32 0, i32 0
  %3 = load i64, i64* %RSP, align 8
  %4 = load i64, i64* %PC, align 8
  %5 = add i64 %4, 3
  store i64 %5, i64* %PC, align 8
  store i64 %3, i64* %RBP, align 8
  ret %struct.Memory* %2
}

; Function Attrs: nounwind
define %struct.Memory* @routine_subq__0x20___rsp(%struct.State* nocapture dereferenceable(3376), i64, %struct.Memory* readnone returned) local_unnamed_addr #3 {
block_400488:
  %PC = getelementptr inbounds %struct.State, %struct.State* %0, i64 0, i32 6, i32 33, i32 0, i32 0
  %RSP = getelementptr inbounds %struct.State, %struct.State* %0, i64 0, i32 6, i32 13, i32 0, i32 0
  %3 = load i64, i64* %RSP, align 8
  %4 = load i64, i64* %PC, align 8
  %5 = add i64 %4, 4
  store i64 %5, i64* %PC, align 8
  %6 = add i64 %3, -32
  store i64 %6, i64* %RSP, align 8
  %7 = icmp ult i64 %3, 32
  %8 = zext i1 %7 to i8
  %9 = getelementptr inbounds %struct.State, %struct.State* %0, i64 0, i32 2, i32 1
  store i8 %8, i8* %9, align 1
  %10 = trunc i64 %6 to i32
  %11 = and i32 %10, 255
  %12 = tail call i32 @llvm.ctpop.i32(i32 %11)
  %13 = trunc i32 %12 to i8
  %14 = and i8 %13, 1
  %15 = xor i8 %14, 1
  %16 = getelementptr inbounds %struct.State, %struct.State* %0, i64 0, i32 2, i32 3
  store i8 %15, i8* %16, align 1
  %17 = xor i64 %6, %3
  %18 = lshr i64 %17, 4
  %19 = trunc i64 %18 to i8
  %20 = and i8 %19, 1
  %21 = getelementptr inbounds %struct.State, %struct.State* %0, i64 0, i32 2, i32 5
  store i8 %20, i8* %21, align 1
  %22 = icmp eq i64 %6, 0
  %23 = zext i1 %22 to i8
  %24 = getelementptr inbounds %struct.State, %struct.State* %0, i64 0, i32 2, i32 7
  store i8 %23, i8* %24, align 1
  %25 = lshr i64 %6, 63
  %26 = trunc i64 %25 to i8
  %27 = getelementptr inbounds %struct.State, %struct.State* %0, i64 0, i32 2, i32 9
  store i8 %26, i8* %27, align 1
  %28 = lshr i64 %3, 63
  %29 = xor i64 %25, %28
  %30 = add nuw nsw i64 %29, %28
  %31 = icmp eq i64 %30, 2
  %32 = zext i1 %31 to i8
  %33 = getelementptr inbounds %struct.State, %struct.State* %0, i64 0, i32 2, i32 13
  store i8 %32, i8* %33, align 1
  ret %struct.Memory* %2
}

; Function Attrs: norecurse nounwind
define %struct.Memory* @routine_movl__edi__MINUS0x4__rbp_(%struct.State* nocapture dereferenceable(3376), i64, %struct.Memory* readnone returned) local_unnamed_addr #2 {
block_400488:
  %PC = getelementptr inbounds %struct.State, %struct.State* %0, i64 0, i32 6, i32 33, i32 0, i32 0
  %3 = getelementptr inbounds %struct.State, %struct.State* %0, i64 0, i32 6, i32 11, i32 0
  %EDI = bitcast %union.anon* %3 to i32*
  %RBP = getelementptr inbounds %struct.State, %struct.State* %0, i64 0, i32 6, i32 15, i32 0, i32 0
  %4 = load i64, i64* %RBP, align 8
  %5 = add i64 %4, -4
  %6 = load i32, i32* %EDI, align 4
  %7 = load i64, i64* %PC, align 8
  %8 = add i64 %7, 3
  store i64 %8, i64* %PC, align 8
  %9 = inttoptr i64 %5 to i32*
  store i32 %6, i32* %9, align 4
  ret %struct.Memory* %2
}

; Function Attrs: norecurse nounwind
define %struct.Memory* @routine_movl__esi__MINUS0x8__rbp_(%struct.State* nocapture dereferenceable(3376), i64, %struct.Memory* readnone returned) local_unnamed_addr #2 {
block_400488:
  %PC = getelementptr inbounds %struct.State, %struct.State* %0, i64 0, i32 6, i32 33, i32 0, i32 0
  %3 = getelementptr inbounds %struct.State, %struct.State* %0, i64 0, i32 6, i32 9, i32 0
  %ESI = bitcast %union.anon* %3 to i32*
  %RBP = getelementptr inbounds %struct.State, %struct.State* %0, i64 0, i32 6, i32 15, i32 0, i32 0
  %4 = load i64, i64* %RBP, align 8
  %5 = add i64 %4, -8
  %6 = load i32, i32* %ESI, align 4
  %7 = load i64, i64* %PC, align 8
  %8 = add i64 %7, 3
  store i64 %8, i64* %PC, align 8
  %9 = inttoptr i64 %5 to i32*
  store i32 %6, i32* %9, align 4
  ret %struct.Memory* %2
}

; Function Attrs: norecurse nounwind
define %struct.Memory* @routine_movl__edx__MINUS0xc__rbp_(%struct.State* nocapture dereferenceable(3376), i64, %struct.Memory* readnone returned) local_unnamed_addr #2 {
block_400488:
  %PC = getelementptr inbounds %struct.State, %struct.State* %0, i64 0, i32 6, i32 33, i32 0, i32 0
  %3 = getelementptr inbounds %struct.State, %struct.State* %0, i64 0, i32 6, i32 7, i32 0
  %EDX = bitcast %union.anon* %3 to i32*
  %RBP = getelementptr inbounds %struct.State, %struct.State* %0, i64 0, i32 6, i32 15, i32 0, i32 0
  %4 = load i64, i64* %RBP, align 8
  %5 = add i64 %4, -12
  %6 = load i32, i32* %EDX, align 4
  %7 = load i64, i64* %PC, align 8
  %8 = add i64 %7, 3
  store i64 %8, i64* %PC, align 8
  %9 = inttoptr i64 %5 to i32*
  store i32 %6, i32* %9, align 4
  ret %struct.Memory* %2
}

; Function Attrs: norecurse nounwind
define %struct.Memory* @routine_movl__ecx__MINUS0x10__rbp_(%struct.State* nocapture dereferenceable(3376), i64, %struct.Memory* readnone returned) local_unnamed_addr #2 {
block_400488:
  %PC = getelementptr inbounds %struct.State, %struct.State* %0, i64 0, i32 6, i32 33, i32 0, i32 0
  %3 = getelementptr inbounds %struct.State, %struct.State* %0, i64 0, i32 6, i32 5, i32 0
  %ECX = bitcast %union.anon* %3 to i32*
  %RBP = getelementptr inbounds %struct.State, %struct.State* %0, i64 0, i32 6, i32 15, i32 0, i32 0
  %4 = load i64, i64* %RBP, align 8
  %5 = add i64 %4, -16
  %6 = load i32, i32* %ECX, align 4
  %7 = load i64, i64* %PC, align 8
  %8 = add i64 %7, 3
  store i64 %8, i64* %PC, align 8
  %9 = inttoptr i64 %5 to i32*
  store i32 %6, i32* %9, align 4
  ret %struct.Memory* %2
}

; Function Attrs: norecurse nounwind
define %struct.Memory* @routine_movslq_MINUS0x4__rbp____rax(%struct.State* nocapture dereferenceable(3376), i64, %struct.Memory* readnone returned) local_unnamed_addr #2 {
block_400488:
  %PC = getelementptr inbounds %struct.State, %struct.State* %0, i64 0, i32 6, i32 33, i32 0, i32 0
  %RAX = getelementptr inbounds %struct.State, %struct.State* %0, i64 0, i32 6, i32 1, i32 0, i32 0
  %RBP = getelementptr inbounds %struct.State, %struct.State* %0, i64 0, i32 6, i32 15, i32 0, i32 0
  %3 = load i64, i64* %RBP, align 8
  %4 = add i64 %3, -4
  %5 = load i64, i64* %PC, align 8
  %6 = add i64 %5, 4
  store i64 %6, i64* %PC, align 8
  %7 = inttoptr i64 %4 to i32*
  %8 = load i32, i32* %7, align 4
  %9 = sext i32 %8 to i64
  store i64 %9, i64* %RAX, align 8
  ret %struct.Memory* %2
}

; Function Attrs: norecurse nounwind
define %struct.Memory* @routine_movl_0xb5b4b0___rax_4____ecx(%struct.State* nocapture dereferenceable(3376), i64, %struct.Memory* readnone returned) local_unnamed_addr #2 {
block_400488:
  %PC = getelementptr inbounds %struct.State, %struct.State* %0, i64 0, i32 6, i32 33, i32 0, i32 0
  %RAX = getelementptr inbounds %struct.State, %struct.State* %0, i64 0, i32 6, i32 1, i32 0, i32 0
  %RCX = getelementptr inbounds %struct.State, %struct.State* %0, i64 0, i32 6, i32 5, i32 0, i32 0
  %3 = load i64, i64* %RAX, align 8
  %4 = shl i64 %3, 2
  %5 = add i64 %4, 11908272
  %6 = load i64, i64* %PC, align 8
  %7 = add i64 %6, 7
  store i64 %7, i64* %PC, align 8
  %8 = inttoptr i64 %5 to i32*
  %9 = load i32, i32* %8, align 4
  %10 = zext i32 %9 to i64
  store i64 %10, i64* %RCX, align 8
  ret %struct.Memory* %2
}

; Function Attrs: nounwind
define %struct.Memory* @routine_addl_MINUS0x8__rbp____ecx(%struct.State* nocapture dereferenceable(3376), i64, %struct.Memory* readnone returned) local_unnamed_addr #3 {
block_400488:
  %PC = getelementptr inbounds %struct.State, %struct.State* %0, i64 0, i32 6, i32 33, i32 0, i32 0
  %RCX = getelementptr inbounds %struct.State, %struct.State* %0, i64 0, i32 6, i32 5, i32 0, i32 0
  %RBP = getelementptr inbounds %struct.State, %struct.State* %0, i64 0, i32 6, i32 15, i32 0, i32 0
  %3 = load i64, i64* %RCX, align 8
  %4 = load i64, i64* %RBP, align 8
  %5 = add i64 %4, -8
  %6 = load i64, i64* %PC, align 8
  %7 = add i64 %6, 3
  store i64 %7, i64* %PC, align 8
  %8 = trunc i64 %3 to i32
  %9 = inttoptr i64 %5 to i32*
  %10 = load i32, i32* %9, align 4
  %11 = add i32 %10, %8
  %12 = zext i32 %11 to i64
  store i64 %12, i64* %RCX, align 8
  %13 = icmp ult i32 %11, %8
  %14 = icmp ult i32 %11, %10
  %15 = or i1 %13, %14
  %16 = zext i1 %15 to i8
  %17 = getelementptr inbounds %struct.State, %struct.State* %0, i64 0, i32 2, i32 1
  store i8 %16, i8* %17, align 1
  %18 = and i32 %11, 255
  %19 = tail call i32 @llvm.ctpop.i32(i32 %18)
  %20 = trunc i32 %19 to i8
  %21 = and i8 %20, 1
  %22 = xor i8 %21, 1
  %23 = getelementptr inbounds %struct.State, %struct.State* %0, i64 0, i32 2, i32 3
  store i8 %22, i8* %23, align 1
  %24 = xor i32 %10, %8
  %25 = xor i32 %24, %11
  %26 = lshr i32 %25, 4
  %27 = trunc i32 %26 to i8
  %28 = and i8 %27, 1
  %29 = getelementptr inbounds %struct.State, %struct.State* %0, i64 0, i32 2, i32 5
  store i8 %28, i8* %29, align 1
  %30 = icmp eq i32 %11, 0
  %31 = zext i1 %30 to i8
  %32 = getelementptr inbounds %struct.State, %struct.State* %0, i64 0, i32 2, i32 7
  store i8 %31, i8* %32, align 1
  %33 = lshr i32 %11, 31
  %34 = trunc i32 %33 to i8
  %35 = getelementptr inbounds %struct.State, %struct.State* %0, i64 0, i32 2, i32 9
  store i8 %34, i8* %35, align 1
  %36 = lshr i32 %8, 31
  %37 = lshr i32 %10, 31
  %38 = xor i32 %33, %36
  %39 = xor i32 %33, %37
  %40 = add nuw nsw i32 %38, %39
  %41 = icmp eq i32 %40, 2
  %42 = zext i1 %41 to i8
  %43 = getelementptr inbounds %struct.State, %struct.State* %0, i64 0, i32 2, i32 13
  store i8 %42, i8* %43, align 1
  ret %struct.Memory* %2
}

; Function Attrs: norecurse nounwind
define %struct.Memory* @routine_movl__ecx__MINUS0x14__rbp_(%struct.State* nocapture dereferenceable(3376), i64, %struct.Memory* readnone returned) local_unnamed_addr #2 {
block_400488:
  %PC = getelementptr inbounds %struct.State, %struct.State* %0, i64 0, i32 6, i32 33, i32 0, i32 0
  %3 = getelementptr inbounds %struct.State, %struct.State* %0, i64 0, i32 6, i32 5, i32 0
  %ECX = bitcast %union.anon* %3 to i32*
  %RBP = getelementptr inbounds %struct.State, %struct.State* %0, i64 0, i32 6, i32 15, i32 0, i32 0
  %4 = load i64, i64* %RBP, align 8
  %5 = add i64 %4, -20
  %6 = load i32, i32* %ECX, align 4
  %7 = load i64, i64* %PC, align 8
  %8 = add i64 %7, 3
  store i64 %8, i64* %PC, align 8
  %9 = inttoptr i64 %5 to i32*
  store i32 %6, i32* %9, align 4
  ret %struct.Memory* %2
}

; Function Attrs: norecurse nounwind
define %struct.Memory* @routine_movl_0xb5a250___rax_4____ecx(%struct.State* nocapture dereferenceable(3376), i64, %struct.Memory* readnone returned) local_unnamed_addr #2 {
block_400488:
  %PC = getelementptr inbounds %struct.State, %struct.State* %0, i64 0, i32 6, i32 33, i32 0, i32 0
  %RAX = getelementptr inbounds %struct.State, %struct.State* %0, i64 0, i32 6, i32 1, i32 0, i32 0
  %RCX = getelementptr inbounds %struct.State, %struct.State* %0, i64 0, i32 6, i32 5, i32 0, i32 0
  %3 = load i64, i64* %RAX, align 8
  %4 = shl i64 %3, 2
  %5 = add i64 %4, 11903568
  %6 = load i64, i64* %PC, align 8
  %7 = add i64 %6, 7
  store i64 %7, i64* %PC, align 8
  %8 = inttoptr i64 %5 to i32*
  %9 = load i32, i32* %8, align 4
  %10 = zext i32 %9 to i64
  store i64 %10, i64* %RCX, align 8
  ret %struct.Memory* %2
}

; Function Attrs: norecurse nounwind
define %struct.Memory* @routine_movl__ecx__MINUS0x18__rbp_(%struct.State* nocapture dereferenceable(3376), i64, %struct.Memory* readnone returned) local_unnamed_addr #2 {
block_400488:
  %PC = getelementptr inbounds %struct.State, %struct.State* %0, i64 0, i32 6, i32 33, i32 0, i32 0
  %3 = getelementptr inbounds %struct.State, %struct.State* %0, i64 0, i32 6, i32 5, i32 0
  %ECX = bitcast %union.anon* %3 to i32*
  %RBP = getelementptr inbounds %struct.State, %struct.State* %0, i64 0, i32 6, i32 15, i32 0, i32 0
  %4 = load i64, i64* %RBP, align 8
  %5 = add i64 %4, -24
  %6 = load i32, i32* %ECX, align 4
  %7 = load i64, i64* %PC, align 8
  %8 = add i64 %7, 3
  store i64 %8, i64* %PC, align 8
  %9 = inttoptr i64 %5 to i32*
  store i32 %6, i32* %9, align 4
  ret %struct.Memory* %2
}

; Function Attrs: norecurse nounwind
define %struct.Memory* @routine_movl_0xb5a6f0___rax_4____ecx(%struct.State* nocapture dereferenceable(3376), i64, %struct.Memory* readnone returned) local_unnamed_addr #2 {
block_400488:
  %PC = getelementptr inbounds %struct.State, %struct.State* %0, i64 0, i32 6, i32 33, i32 0, i32 0
  %RAX = getelementptr inbounds %struct.State, %struct.State* %0, i64 0, i32 6, i32 1, i32 0, i32 0
  %RCX = getelementptr inbounds %struct.State, %struct.State* %0, i64 0, i32 6, i32 5, i32 0, i32 0
  %3 = load i64, i64* %RAX, align 8
  %4 = shl i64 %3, 2
  %5 = add i64 %4, 11904752
  %6 = load i64, i64* %PC, align 8
  %7 = add i64 %6, 7
  store i64 %7, i64* %PC, align 8
  %8 = inttoptr i64 %5 to i32*
  %9 = load i32, i32* %8, align 4
  %10 = zext i32 %9 to i64
  store i64 %10, i64* %RCX, align 8
  ret %struct.Memory* %2
}

; Function Attrs: norecurse nounwind
define %struct.Memory* @routine_movl__ecx__MINUS0x1c__rbp_(%struct.State* nocapture dereferenceable(3376), i64, %struct.Memory* readnone returned) local_unnamed_addr #2 {
block_400488:
  %PC = getelementptr inbounds %struct.State, %struct.State* %0, i64 0, i32 6, i32 33, i32 0, i32 0
  %3 = getelementptr inbounds %struct.State, %struct.State* %0, i64 0, i32 6, i32 5, i32 0
  %ECX = bitcast %union.anon* %3 to i32*
  %RBP = getelementptr inbounds %struct.State, %struct.State* %0, i64 0, i32 6, i32 15, i32 0, i32 0
  %4 = load i64, i64* %RBP, align 8
  %5 = add i64 %4, -28
  %6 = load i32, i32* %ECX, align 4
  %7 = load i64, i64* %PC, align 8
  %8 = add i64 %7, 3
  store i64 %8, i64* %PC, align 8
  %9 = inttoptr i64 %5 to i32*
  store i32 %6, i32* %9, align 4
  ret %struct.Memory* %2
}

; Function Attrs: nounwind
define %struct.Memory* @routine_cmpl__0x0__0xb54ce4(%struct.State* nocapture dereferenceable(3376), i64, %struct.Memory* readnone returned) local_unnamed_addr #3 {
block_400488:
  %PC = getelementptr inbounds %struct.State, %struct.State* %0, i64 0, i32 6, i32 33, i32 0, i32 0
  %3 = load i64, i64* %PC, align 8
  %4 = add i64 %3, 8
  store i64 %4, i64* %PC, align 8
  %5 = load i32, i32* bitcast (%G_0xb54ce4_type* @G_0xb54ce4 to i32*), align 8
  %6 = getelementptr inbounds %struct.State, %struct.State* %0, i64 0, i32 2, i32 1
  store i8 0, i8* %6, align 1
  %7 = and i32 %5, 255
  %8 = tail call i32 @llvm.ctpop.i32(i32 %7)
  %9 = trunc i32 %8 to i8
  %10 = and i8 %9, 1
  %11 = xor i8 %10, 1
  %12 = getelementptr inbounds %struct.State, %struct.State* %0, i64 0, i32 2, i32 3
  store i8 %11, i8* %12, align 1
  %13 = getelementptr inbounds %struct.State, %struct.State* %0, i64 0, i32 2, i32 5
  store i8 0, i8* %13, align 1
  %14 = icmp eq i32 %5, 0
  %15 = zext i1 %14 to i8
  %16 = getelementptr inbounds %struct.State, %struct.State* %0, i64 0, i32 2, i32 7
  store i8 %15, i8* %16, align 1
  %17 = lshr i32 %5, 31
  %18 = trunc i32 %17 to i8
  %19 = getelementptr inbounds %struct.State, %struct.State* %0, i64 0, i32 2, i32 9
  store i8 %18, i8* %19, align 1
  %20 = getelementptr inbounds %struct.State, %struct.State* %0, i64 0, i32 2, i32 13
  store i8 0, i8* %20, align 1
  ret %struct.Memory* %2
}

; Function Attrs: norecurse nounwind
define %struct.Memory* @routine_jne_.L_4ba4a3(%struct.State* nocapture dereferenceable(3376), i64, %struct.Memory* readnone returned, i8* nocapture %BRANCH_TAKEN, i64 %rel_off1, i64 %rel_off2, i64 %rel_off3) local_unnamed_addr #2 {
block_400488:
  %PC = getelementptr inbounds %struct.State, %struct.State* %0, i64 0, i32 6, i32 33, i32 0, i32 0
  %3 = load i64, i64* %PC, align 8
  %4 = getelementptr inbounds %struct.State, %struct.State* %0, i64 0, i32 2, i32 7
  %5 = load i8, i8* %4, align 1
  %6 = icmp eq i8 %5, 0
  %7 = zext i1 %6 to i8
  store i8 %7, i8* %BRANCH_TAKEN, align 1
  %.v = select i1 %6, i64 %rel_off1, i64 %rel_off2
  %8 = add i64 %.v, %3
  store i64 %8, i64* %PC, align 8
  ret %struct.Memory* %2
}

; Function Attrs: nounwind
define %struct.Memory* @routine_xorl__eax___eax(%struct.State* nocapture dereferenceable(3376), i64, %struct.Memory* readnone returned) local_unnamed_addr #3 {
block_400488:
  %PC = getelementptr inbounds %struct.State, %struct.State* %0, i64 0, i32 6, i32 33, i32 0, i32 0
  %RAX = getelementptr inbounds %struct.State, %struct.State* %0, i64 0, i32 6, i32 1, i32 0, i32 0
  %3 = load i64, i64* %PC, align 8
  %4 = add i64 %3, 2
  store i64 %4, i64* %PC, align 8
  store i64 0, i64* %RAX, align 8
  %5 = getelementptr inbounds %struct.State, %struct.State* %0, i64 0, i32 2, i32 1
  store i8 0, i8* %5, align 1
  %6 = getelementptr inbounds %struct.State, %struct.State* %0, i64 0, i32 2, i32 3
  store i8 1, i8* %6, align 1
  %7 = getelementptr inbounds %struct.State, %struct.State* %0, i64 0, i32 2, i32 7
  store i8 1, i8* %7, align 1
  %8 = getelementptr inbounds %struct.State, %struct.State* %0, i64 0, i32 2, i32 9
  store i8 0, i8* %8, align 1
  %9 = getelementptr inbounds %struct.State, %struct.State* %0, i64 0, i32 2, i32 13
  store i8 0, i8* %9, align 1
  %10 = getelementptr inbounds %struct.State, %struct.State* %0, i64 0, i32 2, i32 5
  store i8 0, i8* %10, align 1
  ret %struct.Memory* %2
}

; Function Attrs: norecurse nounwind
define %struct.Memory* @routine_movb__al___cl(%struct.State* nocapture dereferenceable(3376), i64, %struct.Memory* readnone returned) local_unnamed_addr #2 {
block_400488:
  %PC = getelementptr inbounds %struct.State, %struct.State* %0, i64 0, i32 6, i32 33, i32 0, i32 0
  %3 = getelementptr inbounds %struct.State, %struct.State* %0, i64 0, i32 6, i32 1, i32 0
  %AL = bitcast %union.anon* %3 to i8*
  %4 = getelementptr inbounds %struct.State, %struct.State* %0, i64 0, i32 6, i32 5, i32 0
  %CL = bitcast %union.anon* %4 to i8*
  %5 = load i8, i8* %AL, align 1
  %6 = load i64, i64* %PC, align 8
  %7 = add i64 %6, 2
  store i64 %7, i64* %PC, align 8
  store i8 %5, i8* %CL, align 1
  ret %struct.Memory* %2
}

; Function Attrs: norecurse nounwind
define %struct.Memory* @routine_movq__0xb0eff0___rdx(%struct.State* nocapture dereferenceable(3376), i64, %struct.Memory* readnone returned) local_unnamed_addr #2 {
block_400488:
  %PC = getelementptr inbounds %struct.State, %struct.State* %0, i64 0, i32 6, i32 33, i32 0, i32 0
  %RDX = getelementptr inbounds %struct.State, %struct.State* %0, i64 0, i32 6, i32 7, i32 0, i32 0
  %3 = load i64, i64* %PC, align 8
  %4 = add i64 %3, 10
  store i64 %4, i64* %PC, align 8
  store i64 ptrtoint (%G__0xb0eff0_type* @G__0xb0eff0 to i64), i64* %RDX, align 8
  ret %struct.Memory* %2
}

; Function Attrs: norecurse nounwind
define %struct.Memory* @routine_movslq_MINUS0x14__rbp____rsi(%struct.State* nocapture dereferenceable(3376), i64, %struct.Memory* readnone returned) local_unnamed_addr #2 {
block_400488:
  %PC = getelementptr inbounds %struct.State, %struct.State* %0, i64 0, i32 6, i32 33, i32 0, i32 0
  %RSI = getelementptr inbounds %struct.State, %struct.State* %0, i64 0, i32 6, i32 9, i32 0, i32 0
  %RBP = getelementptr inbounds %struct.State, %struct.State* %0, i64 0, i32 6, i32 15, i32 0, i32 0
  %3 = load i64, i64* %RBP, align 8
  %4 = add i64 %3, -20
  %5 = load i64, i64* %PC, align 8
  %6 = add i64 %5, 4
  store i64 %6, i64* %PC, align 8
  %7 = inttoptr i64 %4 to i32*
  %8 = load i32, i32* %7, align 4
  %9 = sext i32 %8 to i64
  store i64 %9, i64* %RSI, align 8
  ret %struct.Memory* %2
}

; Function Attrs: nounwind
define %struct.Memory* @routine_imulq__0x17c___rsi___rsi(%struct.State* nocapture dereferenceable(3376), i64, %struct.Memory* readnone returned) local_unnamed_addr #3 {
block_400488:
  %PC = getelementptr inbounds %struct.State, %struct.State* %0, i64 0, i32 6, i32 33, i32 0, i32 0
  %RSI = getelementptr inbounds %struct.State, %struct.State* %0, i64 0, i32 6, i32 9, i32 0, i32 0
  %3 = load i64, i64* %RSI, align 8
  %4 = load i64, i64* %PC, align 8
  %5 = add i64 %4, 7
  store i64 %5, i64* %PC, align 8
  %6 = sext i64 %3 to i128
  %7 = and i128 %6, -18446744073709551616
  %8 = zext i64 %3 to i128
  %9 = or i128 %7, %8
  %10 = mul nsw i128 %9, 380
  %11 = trunc i128 %10 to i64
  store i64 %11, i64* %RSI, align 8
  %12 = sext i64 %11 to i128
  %13 = icmp ne i128 %12, %10
  %14 = zext i1 %13 to i8
  %15 = getelementptr inbounds %struct.State, %struct.State* %0, i64 0, i32 2, i32 1
  store i8 %14, i8* %15, align 1
  %16 = trunc i128 %10 to i32
  %17 = and i32 %16, 252
  %18 = tail call i32 @llvm.ctpop.i32(i32 %17)
  %19 = trunc i32 %18 to i8
  %20 = and i8 %19, 1
  %21 = xor i8 %20, 1
  %22 = getelementptr inbounds %struct.State, %struct.State* %0, i64 0, i32 2, i32 3
  store i8 %21, i8* %22, align 1
  %23 = getelementptr inbounds %struct.State, %struct.State* %0, i64 0, i32 2, i32 5
  store i8 0, i8* %23, align 1
  %24 = getelementptr inbounds %struct.State, %struct.State* %0, i64 0, i32 2, i32 7
  store i8 0, i8* %24, align 1
  %25 = lshr i64 %11, 63
  %26 = trunc i64 %25 to i8
  %27 = getelementptr inbounds %struct.State, %struct.State* %0, i64 0, i32 2, i32 9
  store i8 %26, i8* %27, align 1
  %28 = getelementptr inbounds %struct.State, %struct.State* %0, i64 0, i32 2, i32 13
  store i8 %14, i8* %28, align 1
  ret %struct.Memory* %2
}

; Function Attrs: nounwind
define %struct.Memory* @routine_addq__rsi___rdx(%struct.State* nocapture dereferenceable(3376), i64, %struct.Memory* readnone returned) local_unnamed_addr #3 {
block_400488:
  %PC = getelementptr inbounds %struct.State, %struct.State* %0, i64 0, i32 6, i32 33, i32 0, i32 0
  %RDX = getelementptr inbounds %struct.State, %struct.State* %0, i64 0, i32 6, i32 7, i32 0, i32 0
  %RSI = getelementptr inbounds %struct.State, %struct.State* %0, i64 0, i32 6, i32 9, i32 0, i32 0
  %3 = load i64, i64* %RDX, align 8
  %4 = load i64, i64* %RSI, align 8
  %5 = load i64, i64* %PC, align 8
  %6 = add i64 %5, 3
  store i64 %6, i64* %PC, align 8
  %7 = add i64 %4, %3
  store i64 %7, i64* %RDX, align 8
  %8 = icmp ult i64 %7, %3
  %9 = icmp ult i64 %7, %4
  %10 = or i1 %8, %9
  %11 = zext i1 %10 to i8
  %12 = getelementptr inbounds %struct.State, %struct.State* %0, i64 0, i32 2, i32 1
  store i8 %11, i8* %12, align 1
  %13 = trunc i64 %7 to i32
  %14 = and i32 %13, 255
  %15 = tail call i32 @llvm.ctpop.i32(i32 %14)
  %16 = trunc i32 %15 to i8
  %17 = and i8 %16, 1
  %18 = xor i8 %17, 1
  %19 = getelementptr inbounds %struct.State, %struct.State* %0, i64 0, i32 2, i32 3
  store i8 %18, i8* %19, align 1
  %20 = xor i64 %4, %3
  %21 = xor i64 %20, %7
  %22 = lshr i64 %21, 4
  %23 = trunc i64 %22 to i8
  %24 = and i8 %23, 1
  %25 = getelementptr inbounds %struct.State, %struct.State* %0, i64 0, i32 2, i32 5
  store i8 %24, i8* %25, align 1
  %26 = icmp eq i64 %7, 0
  %27 = zext i1 %26 to i8
  %28 = getelementptr inbounds %struct.State, %struct.State* %0, i64 0, i32 2, i32 7
  store i8 %27, i8* %28, align 1
  %29 = lshr i64 %7, 63
  %30 = trunc i64 %29 to i8
  %31 = getelementptr inbounds %struct.State, %struct.State* %0, i64 0, i32 2, i32 9
  store i8 %30, i8* %31, align 1
  %32 = lshr i64 %3, 63
  %33 = lshr i64 %4, 63
  %34 = xor i64 %29, %32
  %35 = xor i64 %29, %33
  %36 = add nuw nsw i64 %34, %35
  %37 = icmp eq i64 %36, 2
  %38 = zext i1 %37 to i8
  %39 = getelementptr inbounds %struct.State, %struct.State* %0, i64 0, i32 2, i32 13
  store i8 %38, i8* %39, align 1
  ret %struct.Memory* %2
}

; Function Attrs: nounwind
define %struct.Memory* @routine_cmpl__0x0__0x64__rdx_(%struct.State* nocapture dereferenceable(3376), i64, %struct.Memory* readnone returned) local_unnamed_addr #3 {
block_400488:
  %PC = getelementptr inbounds %struct.State, %struct.State* %0, i64 0, i32 6, i32 33, i32 0, i32 0
  %RDX = getelementptr inbounds %struct.State, %struct.State* %0, i64 0, i32 6, i32 7, i32 0, i32 0
  %3 = load i64, i64* %RDX, align 8
  %4 = add i64 %3, 100
  %5 = load i64, i64* %PC, align 8
  %6 = add i64 %5, 4
  store i64 %6, i64* %PC, align 8
  %7 = inttoptr i64 %4 to i32*
  %8 = load i32, i32* %7, align 4
  %9 = getelementptr inbounds %struct.State, %struct.State* %0, i64 0, i32 2, i32 1
  store i8 0, i8* %9, align 1
  %10 = and i32 %8, 255
  %11 = tail call i32 @llvm.ctpop.i32(i32 %10)
  %12 = trunc i32 %11 to i8
  %13 = and i8 %12, 1
  %14 = xor i8 %13, 1
  %15 = getelementptr inbounds %struct.State, %struct.State* %0, i64 0, i32 2, i32 3
  store i8 %14, i8* %15, align 1
  %16 = getelementptr inbounds %struct.State, %struct.State* %0, i64 0, i32 2, i32 5
  store i8 0, i8* %16, align 1
  %17 = icmp eq i32 %8, 0
  %18 = zext i1 %17 to i8
  %19 = getelementptr inbounds %struct.State, %struct.State* %0, i64 0, i32 2, i32 7
  store i8 %18, i8* %19, align 1
  %20 = lshr i32 %8, 31
  %21 = trunc i32 %20 to i8
  %22 = getelementptr inbounds %struct.State, %struct.State* %0, i64 0, i32 2, i32 9
  store i8 %21, i8* %22, align 1
  %23 = getelementptr inbounds %struct.State, %struct.State* %0, i64 0, i32 2, i32 13
  store i8 0, i8* %23, align 1
  ret %struct.Memory* %2
}

; Function Attrs: norecurse nounwind
define %struct.Memory* @routine_movb__cl__MINUS0x1d__rbp_(%struct.State* nocapture dereferenceable(3376), i64, %struct.Memory* readnone returned) local_unnamed_addr #2 {
block_400488:
  %PC = getelementptr inbounds %struct.State, %struct.State* %0, i64 0, i32 6, i32 33, i32 0, i32 0
  %3 = getelementptr inbounds %struct.State, %struct.State* %0, i64 0, i32 6, i32 5, i32 0
  %CL = bitcast %union.anon* %3 to i8*
  %RBP = getelementptr inbounds %struct.State, %struct.State* %0, i64 0, i32 6, i32 15, i32 0, i32 0
  %4 = load i64, i64* %RBP, align 8
  %5 = add i64 %4, -29
  %6 = load i8, i8* %CL, align 1
  %7 = load i64, i64* %PC, align 8
  %8 = add i64 %7, 3
  store i64 %8, i64* %PC, align 8
  %9 = inttoptr i64 %5 to i8*
  store i8 %6, i8* %9, align 1
  ret %struct.Memory* %2
}

; Function Attrs: norecurse nounwind
define %struct.Memory* @routine_jne_.L_4ba4ee(%struct.State* nocapture dereferenceable(3376), i64, %struct.Memory* readnone returned, i8* nocapture %BRANCH_TAKEN, i64 %rel_off1, i64 %rel_off2, i64 %rel_off3) local_unnamed_addr #2 {
block_400488:
  %PC = getelementptr inbounds %struct.State, %struct.State* %0, i64 0, i32 6, i32 33, i32 0, i32 0
  %3 = load i64, i64* %PC, align 8
  %4 = getelementptr inbounds %struct.State, %struct.State* %0, i64 0, i32 2, i32 7
  %5 = load i8, i8* %4, align 1
  %6 = icmp eq i8 %5, 0
  %7 = zext i1 %6 to i8
  store i8 %7, i8* %BRANCH_TAKEN, align 1
  %.v = select i1 %6, i64 %rel_off1, i64 %rel_off2
  %8 = add i64 %.v, %3
  store i64 %8, i64* %PC, align 8
  ret %struct.Memory* %2
}

; Function Attrs: norecurse nounwind
define %struct.Memory* @routine_jmpq_.L_4ba4c0(%struct.State* nocapture dereferenceable(3376), i64, %struct.Memory* readnone returned, i64 %rel_off1, i64 %rel_off2) local_unnamed_addr #2 {
block_400488:
  %PC = getelementptr inbounds %struct.State, %struct.State* %0, i64 0, i32 6, i32 33, i32 0, i32 0
  %3 = load i64, i64* %PC, align 8
  %4 = add i64 %3, %rel_off1
  store i64 %4, i64* %PC, align 8
  ret %struct.Memory* %2
}

; Function Attrs: norecurse nounwind
define %struct.Memory* @routine_movl__eax___esi(%struct.State* nocapture dereferenceable(3376), i64, %struct.Memory* readnone returned) local_unnamed_addr #2 {
block_400488:
  %PC = getelementptr inbounds %struct.State, %struct.State* %0, i64 0, i32 6, i32 33, i32 0, i32 0
  %3 = getelementptr inbounds %struct.State, %struct.State* %0, i64 0, i32 6, i32 1, i32 0
  %EAX = bitcast %union.anon* %3 to i32*
  %RSI = getelementptr inbounds %struct.State, %struct.State* %0, i64 0, i32 6, i32 9, i32 0, i32 0
  %4 = load i32, i32* %EAX, align 4
  %5 = zext i32 %4 to i64
  %6 = load i64, i64* %PC, align 8
  %7 = add i64 %6, 2
  store i64 %7, i64* %PC, align 8
  store i64 %5, i64* %RSI, align 8
  ret %struct.Memory* %2
}

; Function Attrs: norecurse nounwind
define %struct.Memory* @routine_movl_MINUS0x14__rbp____edi(%struct.State* nocapture dereferenceable(3376), i64, %struct.Memory* readnone returned) local_unnamed_addr #2 {
block_400488:
  %PC = getelementptr inbounds %struct.State, %struct.State* %0, i64 0, i32 6, i32 33, i32 0, i32 0
  %RDI = getelementptr inbounds %struct.State, %struct.State* %0, i64 0, i32 6, i32 11, i32 0, i32 0
  %RBP = getelementptr inbounds %struct.State, %struct.State* %0, i64 0, i32 6, i32 15, i32 0, i32 0
  %3 = load i64, i64* %RBP, align 8
  %4 = add i64 %3, -20
  %5 = load i64, i64* %PC, align 8
  %6 = add i64 %5, 3
  store i64 %6, i64* %PC, align 8
  %7 = inttoptr i64 %4 to i32*
  %8 = load i32, i32* %7, align 4
  %9 = zext i32 %8 to i64
  store i64 %9, i64* %RDI, align 8
  ret %struct.Memory* %2
}

; Function Attrs: norecurse nounwind
define %struct.Memory* @routine_callq_.attack(%struct.State* nocapture dereferenceable(3376), i64, %struct.Memory* readnone returned, i64 %rel_off1, i64 %rel_off2, i64 %rel_off3) local_unnamed_addr #2 {
block_400488:
  %PC = getelementptr inbounds %struct.State, %struct.State* %0, i64 0, i32 6, i32 33, i32 0, i32 0
  %3 = load i64, i64* %PC, align 8
  %4 = add i64 %3, %rel_off1
  %5 = add i64 %3, %rel_off2
  %6 = getelementptr inbounds %struct.State, %struct.State* %0, i64 0, i32 6, i32 13, i32 0, i32 0
  %7 = load i64, i64* %6, align 8
  %8 = add i64 %7, -8
  %9 = inttoptr i64 %8 to i64*
  store i64 %5, i64* %9, align 8
  store i64 %8, i64* %6, align 8
  store i64 %4, i64* %PC, align 8
  ret %struct.Memory* %2
}

; Function Attrs: nounwind
define %struct.Memory* @routine_xorl__edi___edi(%struct.State* nocapture dereferenceable(3376), i64, %struct.Memory* readnone returned) local_unnamed_addr #3 {
block_400488:
  %PC = getelementptr inbounds %struct.State, %struct.State* %0, i64 0, i32 6, i32 33, i32 0, i32 0
  %RDI = getelementptr inbounds %struct.State, %struct.State* %0, i64 0, i32 6, i32 11, i32 0, i32 0
  %3 = load i64, i64* %PC, align 8
  %4 = add i64 %3, 2
  store i64 %4, i64* %PC, align 8
  store i64 0, i64* %RDI, align 8
  %5 = getelementptr inbounds %struct.State, %struct.State* %0, i64 0, i32 2, i32 1
  store i8 0, i8* %5, align 1
  %6 = getelementptr inbounds %struct.State, %struct.State* %0, i64 0, i32 2, i32 3
  store i8 1, i8* %6, align 1
  %7 = getelementptr inbounds %struct.State, %struct.State* %0, i64 0, i32 2, i32 7
  store i8 1, i8* %7, align 1
  %8 = getelementptr inbounds %struct.State, %struct.State* %0, i64 0, i32 2, i32 9
  store i8 0, i8* %8, align 1
  %9 = getelementptr inbounds %struct.State, %struct.State* %0, i64 0, i32 2, i32 13
  store i8 0, i8* %9, align 1
  %10 = getelementptr inbounds %struct.State, %struct.State* %0, i64 0, i32 2, i32 5
  store i8 0, i8* %10, align 1
  ret %struct.Memory* %2
}

; Function Attrs: norecurse nounwind
define %struct.Memory* @routine_movb__dil___cl(%struct.State* nocapture dereferenceable(3376), i64, %struct.Memory* readnone returned) local_unnamed_addr #2 {
block_400488:
  %PC = getelementptr inbounds %struct.State, %struct.State* %0, i64 0, i32 6, i32 33, i32 0, i32 0
  %3 = getelementptr inbounds %struct.State, %struct.State* %0, i64 0, i32 6, i32 5, i32 0
  %CL = bitcast %union.anon* %3 to i8*
  %4 = getelementptr inbounds %struct.State, %struct.State* %0, i64 0, i32 6, i32 11, i32 0
  %DIL = bitcast %union.anon* %4 to i8*
  %5 = load i8, i8* %DIL, align 1
  %6 = load i64, i64* %PC, align 8
  %7 = add i64 %6, 3
  store i64 %7, i64* %PC, align 8
  store i8 %5, i8* %CL, align 1
  ret %struct.Memory* %2
}

; Function Attrs: nounwind
define %struct.Memory* @routine_cmpl__0x0___eax(%struct.State* nocapture dereferenceable(3376), i64, %struct.Memory* readnone returned) local_unnamed_addr #3 {
block_400488:
  %PC = getelementptr inbounds %struct.State, %struct.State* %0, i64 0, i32 6, i32 33, i32 0, i32 0
  %3 = getelementptr inbounds %struct.State, %struct.State* %0, i64 0, i32 6, i32 1, i32 0
  %EAX = bitcast %union.anon* %3 to i32*
  %4 = load i32, i32* %EAX, align 4
  %5 = load i64, i64* %PC, align 8
  %6 = add i64 %5, 3
  store i64 %6, i64* %PC, align 8
  %7 = getelementptr inbounds %struct.State, %struct.State* %0, i64 0, i32 2, i32 1
  store i8 0, i8* %7, align 1
  %8 = and i32 %4, 255
  %9 = tail call i32 @llvm.ctpop.i32(i32 %8)
  %10 = trunc i32 %9 to i8
  %11 = and i8 %10, 1
  %12 = xor i8 %11, 1
  %13 = getelementptr inbounds %struct.State, %struct.State* %0, i64 0, i32 2, i32 3
  store i8 %12, i8* %13, align 1
  %14 = getelementptr inbounds %struct.State, %struct.State* %0, i64 0, i32 2, i32 5
  store i8 0, i8* %14, align 1
  %15 = icmp eq i32 %4, 0
  %16 = zext i1 %15 to i8
  %17 = getelementptr inbounds %struct.State, %struct.State* %0, i64 0, i32 2, i32 7
  store i8 %16, i8* %17, align 1
  %18 = lshr i32 %4, 31
  %19 = trunc i32 %18 to i8
  %20 = getelementptr inbounds %struct.State, %struct.State* %0, i64 0, i32 2, i32 9
  store i8 %19, i8* %20, align 1
  %21 = getelementptr inbounds %struct.State, %struct.State* %0, i64 0, i32 2, i32 13
  store i8 0, i8* %21, align 1
  ret %struct.Memory* %2
}

; Function Attrs: nounwind
define %struct.Memory* @routine_xorl__esi___esi(%struct.State* nocapture dereferenceable(3376), i64, %struct.Memory* readnone returned) local_unnamed_addr #3 {
block_400488:
  %PC = getelementptr inbounds %struct.State, %struct.State* %0, i64 0, i32 6, i32 33, i32 0, i32 0
  %RSI = getelementptr inbounds %struct.State, %struct.State* %0, i64 0, i32 6, i32 9, i32 0, i32 0
  %3 = load i64, i64* %PC, align 8
  %4 = add i64 %3, 2
  store i64 %4, i64* %PC, align 8
  store i64 0, i64* %RSI, align 8
  %5 = getelementptr inbounds %struct.State, %struct.State* %0, i64 0, i32 2, i32 1
  store i8 0, i8* %5, align 1
  %6 = getelementptr inbounds %struct.State, %struct.State* %0, i64 0, i32 2, i32 3
  store i8 1, i8* %6, align 1
  %7 = getelementptr inbounds %struct.State, %struct.State* %0, i64 0, i32 2, i32 7
  store i8 1, i8* %7, align 1
  %8 = getelementptr inbounds %struct.State, %struct.State* %0, i64 0, i32 2, i32 9
  store i8 0, i8* %8, align 1
  %9 = getelementptr inbounds %struct.State, %struct.State* %0, i64 0, i32 2, i32 13
  store i8 0, i8* %9, align 1
  %10 = getelementptr inbounds %struct.State, %struct.State* %0, i64 0, i32 2, i32 5
  store i8 0, i8* %10, align 1
  ret %struct.Memory* %2
}

; Function Attrs: norecurse nounwind
define %struct.Memory* @routine_movl__0x1___edx(%struct.State* nocapture dereferenceable(3376), i64, %struct.Memory* readnone returned) local_unnamed_addr #2 {
block_400488:
  %PC = getelementptr inbounds %struct.State, %struct.State* %0, i64 0, i32 6, i32 33, i32 0, i32 0
  %RDX = getelementptr inbounds %struct.State, %struct.State* %0, i64 0, i32 6, i32 7, i32 0, i32 0
  %3 = load i64, i64* %PC, align 8
  %4 = add i64 %3, 5
  store i64 %4, i64* %PC, align 8
  store i64 1, i64* %RDX, align 8
  ret %struct.Memory* %2
}

; Function Attrs: norecurse nounwind
define %struct.Memory* @routine_movl__0x3___eax(%struct.State* nocapture dereferenceable(3376), i64, %struct.Memory* readnone returned) local_unnamed_addr #2 {
block_400488:
  %PC = getelementptr inbounds %struct.State, %struct.State* %0, i64 0, i32 6, i32 33, i32 0, i32 0
  %RAX = getelementptr inbounds %struct.State, %struct.State* %0, i64 0, i32 6, i32 1, i32 0, i32 0
  %3 = load i64, i64* %PC, align 8
  %4 = add i64 %3, 5
  store i64 %4, i64* %PC, align 8
  store i64 3, i64* %RAX, align 8
  ret %struct.Memory* %2
}

; Function Attrs: nounwind
define %struct.Memory* @routine_subl_MINUS0xc__rbp____eax(%struct.State* nocapture dereferenceable(3376), i64, %struct.Memory* readnone returned) local_unnamed_addr #3 {
block_400488:
  %PC = getelementptr inbounds %struct.State, %struct.State* %0, i64 0, i32 6, i32 33, i32 0, i32 0
  %RAX = getelementptr inbounds %struct.State, %struct.State* %0, i64 0, i32 6, i32 1, i32 0, i32 0
  %RBP = getelementptr inbounds %struct.State, %struct.State* %0, i64 0, i32 6, i32 15, i32 0, i32 0
  %3 = load i64, i64* %RAX, align 8
  %4 = load i64, i64* %RBP, align 8
  %5 = add i64 %4, -12
  %6 = load i64, i64* %PC, align 8
  %7 = add i64 %6, 3
  store i64 %7, i64* %PC, align 8
  %8 = trunc i64 %3 to i32
  %9 = inttoptr i64 %5 to i32*
  %10 = load i32, i32* %9, align 4
  %11 = sub i32 %8, %10
  %12 = zext i32 %11 to i64
  store i64 %12, i64* %RAX, align 8
  %13 = icmp ult i32 %8, %10
  %14 = zext i1 %13 to i8
  %15 = getelementptr inbounds %struct.State, %struct.State* %0, i64 0, i32 2, i32 1
  store i8 %14, i8* %15, align 1
  %16 = and i32 %11, 255
  %17 = tail call i32 @llvm.ctpop.i32(i32 %16)
  %18 = trunc i32 %17 to i8
  %19 = and i8 %18, 1
  %20 = xor i8 %19, 1
  %21 = getelementptr inbounds %struct.State, %struct.State* %0, i64 0, i32 2, i32 3
  store i8 %20, i8* %21, align 1
  %22 = xor i32 %10, %8
  %23 = xor i32 %22, %11
  %24 = lshr i32 %23, 4
  %25 = trunc i32 %24 to i8
  %26 = and i8 %25, 1
  %27 = getelementptr inbounds %struct.State, %struct.State* %0, i64 0, i32 2, i32 5
  store i8 %26, i8* %27, align 1
  %28 = icmp eq i32 %11, 0
  %29 = zext i1 %28 to i8
  %30 = getelementptr inbounds %struct.State, %struct.State* %0, i64 0, i32 2, i32 7
  store i8 %29, i8* %30, align 1
  %31 = lshr i32 %11, 31
  %32 = trunc i32 %31 to i8
  %33 = getelementptr inbounds %struct.State, %struct.State* %0, i64 0, i32 2, i32 9
  store i8 %32, i8* %33, align 1
  %34 = lshr i32 %8, 31
  %35 = lshr i32 %10, 31
  %36 = xor i32 %35, %34
  %37 = xor i32 %31, %34
  %38 = add nuw nsw i32 %37, %36
  %39 = icmp eq i32 %38, 2
  %40 = zext i1 %39 to i8
  %41 = getelementptr inbounds %struct.State, %struct.State* %0, i64 0, i32 2, i32 13
  store i8 %40, i8* %41, align 1
  ret %struct.Memory* %2
}

; Function Attrs: norecurse nounwind
define %struct.Memory* @routine_movl_MINUS0x18__rbp____ecx(%struct.State* nocapture dereferenceable(3376), i64, %struct.Memory* readnone returned) local_unnamed_addr #2 {
block_400488:
  %PC = getelementptr inbounds %struct.State, %struct.State* %0, i64 0, i32 6, i32 33, i32 0, i32 0
  %RCX = getelementptr inbounds %struct.State, %struct.State* %0, i64 0, i32 6, i32 5, i32 0, i32 0
  %RBP = getelementptr inbounds %struct.State, %struct.State* %0, i64 0, i32 6, i32 15, i32 0, i32 0
  %3 = load i64, i64* %RBP, align 8
  %4 = add i64 %3, -24
  %5 = load i64, i64* %PC, align 8
  %6 = add i64 %5, 3
  store i64 %6, i64* %PC, align 8
  %7 = inttoptr i64 %4 to i32*
  %8 = load i32, i32* %7, align 4
  %9 = zext i32 %8 to i64
  store i64 %9, i64* %RCX, align 8
  ret %struct.Memory* %2
}

; Function Attrs: norecurse nounwind
define %struct.Memory* @routine_movl_MINUS0x1c__rbp____r8d(%struct.State* nocapture dereferenceable(3376), i64, %struct.Memory* readnone returned) local_unnamed_addr #2 {
block_400488:
  %PC = getelementptr inbounds %struct.State, %struct.State* %0, i64 0, i32 6, i32 33, i32 0, i32 0
  %RBP = getelementptr inbounds %struct.State, %struct.State* %0, i64 0, i32 6, i32 15, i32 0, i32 0
  %3 = getelementptr inbounds %struct.State, %struct.State* %0, i64 0, i32 6, i32 17, i32 0, i32 0
  %4 = load i64, i64* %RBP, align 8
  %5 = add i64 %4, -28
  %6 = load i64, i64* %PC, align 8
  %7 = add i64 %6, 4
  store i64 %7, i64* %PC, align 8
  %8 = inttoptr i64 %5 to i32*
  %9 = load i32, i32* %8, align 4
  %10 = zext i32 %9 to i64
  store i64 %10, i64* %3, align 8
  ret %struct.Memory* %2
}

; Function Attrs: norecurse nounwind
define %struct.Memory* @routine_movl__eax___edi(%struct.State* nocapture dereferenceable(3376), i64, %struct.Memory* readnone returned) local_unnamed_addr #2 {
block_400488:
  %PC = getelementptr inbounds %struct.State, %struct.State* %0, i64 0, i32 6, i32 33, i32 0, i32 0
  %3 = getelementptr inbounds %struct.State, %struct.State* %0, i64 0, i32 6, i32 1, i32 0
  %EAX = bitcast %union.anon* %3 to i32*
  %RDI = getelementptr inbounds %struct.State, %struct.State* %0, i64 0, i32 6, i32 11, i32 0, i32 0
  %4 = load i32, i32* %EAX, align 4
  %5 = zext i32 %4 to i64
  %6 = load i64, i64* %PC, align 8
  %7 = add i64 %6, 2
  store i64 %7, i64* %PC, align 8
  store i64 %5, i64* %RDI, align 8
  ret %struct.Memory* %2
}

; Function Attrs: norecurse nounwind
define %struct.Memory* @routine_movb__0x0___al(%struct.State* nocapture dereferenceable(3376), i64, %struct.Memory* readnone returned) local_unnamed_addr #2 {
block_400488:
  %PC = getelementptr inbounds %struct.State, %struct.State* %0, i64 0, i32 6, i32 33, i32 0, i32 0
  %3 = getelementptr inbounds %struct.State, %struct.State* %0, i64 0, i32 6, i32 1, i32 0
  %AL = bitcast %union.anon* %3 to i8*
  %4 = load i64, i64* %PC, align 8
  %5 = add i64 %4, 2
  store i64 %5, i64* %PC, align 8
  store i8 0, i8* %AL, align 1
  ret %struct.Memory* %2
}

; Function Attrs: norecurse nounwind
define %struct.Memory* @routine_callq_.play_attack_defend_n(%struct.State* nocapture dereferenceable(3376), i64, %struct.Memory* readnone returned, i64 %rel_off1, i64 %rel_off2, i64 %rel_off3) local_unnamed_addr #2 {
block_400488:
  %PC = getelementptr inbounds %struct.State, %struct.State* %0, i64 0, i32 6, i32 33, i32 0, i32 0
  %3 = load i64, i64* %PC, align 8
  %4 = add i64 %3, %rel_off1
  %5 = add i64 %3, %rel_off2
  %6 = getelementptr inbounds %struct.State, %struct.State* %0, i64 0, i32 6, i32 13, i32 0, i32 0
  %7 = load i64, i64* %6, align 8
  %8 = add i64 %7, -8
  %9 = inttoptr i64 %8 to i64*
  store i64 %5, i64* %9, align 8
  store i64 %8, i64* %6, align 8
  store i64 %4, i64* %PC, align 8
  ret %struct.Memory* %2
}

; Function Attrs: norecurse nounwind
define %struct.Memory* @routine_setne__r9b(%struct.State* nocapture dereferenceable(3376), i64, %struct.Memory* readnone returned) local_unnamed_addr #2 {
block_400488:
  %PC = getelementptr inbounds %struct.State, %struct.State* %0, i64 0, i32 6, i32 33, i32 0, i32 0
  %3 = getelementptr inbounds %struct.State, %struct.State* %0, i64 0, i32 6, i32 19, i32 0
  %R9B = bitcast %union.anon* %3 to i8*
  %4 = load i64, i64* %PC, align 8
  %5 = add i64 %4, 4
  store i64 %5, i64* %PC, align 8
  %6 = getelementptr inbounds %struct.State, %struct.State* %0, i64 0, i32 2, i32 7
  %7 = load i8, i8* %6, align 1
  %8 = icmp eq i8 %7, 0
  %9 = zext i1 %8 to i8
  store i8 %9, i8* %R9B, align 1
  ret %struct.Memory* %2
}

; Function Attrs: nounwind
define %struct.Memory* @routine_xorb__0xff___r9b(%struct.State* nocapture dereferenceable(3376), i64, %struct.Memory* readnone returned) local_unnamed_addr #3 {
block_400488:
  %PC = getelementptr inbounds %struct.State, %struct.State* %0, i64 0, i32 6, i32 33, i32 0, i32 0
  %3 = getelementptr inbounds %struct.State, %struct.State* %0, i64 0, i32 6, i32 19, i32 0
  %R9B = bitcast %union.anon* %3 to i8*
  %4 = load i8, i8* %R9B, align 1
  %5 = load i64, i64* %PC, align 8
  %6 = add i64 %5, 4
  store i64 %6, i64* %PC, align 8
  %7 = xor i8 %4, -1
  store i8 %7, i8* %R9B, align 1
  %8 = getelementptr inbounds %struct.State, %struct.State* %0, i64 0, i32 2, i32 1
  store i8 0, i8* %8, align 1
  %9 = zext i8 %7 to i32
  %10 = tail call i32 @llvm.ctpop.i32(i32 %9)
  %11 = trunc i32 %10 to i8
  %12 = and i8 %11, 1
  %13 = xor i8 %12, 1
  %14 = getelementptr inbounds %struct.State, %struct.State* %0, i64 0, i32 2, i32 3
  store i8 %13, i8* %14, align 1
  %15 = icmp eq i8 %4, -1
  %16 = zext i1 %15 to i8
  %17 = getelementptr inbounds %struct.State, %struct.State* %0, i64 0, i32 2, i32 7
  store i8 %16, i8* %17, align 1
  %18 = lshr i8 %7, 7
  %19 = getelementptr inbounds %struct.State, %struct.State* %0, i64 0, i32 2, i32 9
  store i8 %18, i8* %19, align 1
  %20 = getelementptr inbounds %struct.State, %struct.State* %0, i64 0, i32 2, i32 13
  store i8 0, i8* %20, align 1
  %21 = getelementptr inbounds %struct.State, %struct.State* %0, i64 0, i32 2, i32 5
  store i8 0, i8* %21, align 1
  ret %struct.Memory* %2
}

; Function Attrs: norecurse nounwind
define %struct.Memory* @routine_movb__r9b__MINUS0x1d__rbp_(%struct.State* nocapture dereferenceable(3376), i64, %struct.Memory* readnone returned) local_unnamed_addr #2 {
block_400488:
  %PC = getelementptr inbounds %struct.State, %struct.State* %0, i64 0, i32 6, i32 33, i32 0, i32 0
  %3 = getelementptr inbounds %struct.State, %struct.State* %0, i64 0, i32 6, i32 19, i32 0
  %R9B = bitcast %union.anon* %3 to i8*
  %RBP = getelementptr inbounds %struct.State, %struct.State* %0, i64 0, i32 6, i32 15, i32 0, i32 0
  %4 = load i64, i64* %RBP, align 8
  %5 = add i64 %4, -29
  %6 = load i8, i8* %R9B, align 1
  %7 = load i64, i64* %PC, align 8
  %8 = add i64 %7, 4
  store i64 %8, i64* %PC, align 8
  %9 = inttoptr i64 %5 to i8*
  store i8 %6, i8* %9, align 1
  ret %struct.Memory* %2
}

; Function Attrs: norecurse nounwind
define %struct.Memory* @routine_movb_MINUS0x1d__rbp____al(%struct.State* nocapture dereferenceable(3376), i64, %struct.Memory* readnone returned) local_unnamed_addr #2 {
block_400488:
  %PC = getelementptr inbounds %struct.State, %struct.State* %0, i64 0, i32 6, i32 33, i32 0, i32 0
  %3 = getelementptr inbounds %struct.State, %struct.State* %0, i64 0, i32 6, i32 1, i32 0
  %AL = bitcast %union.anon* %3 to i8*
  %RBP = getelementptr inbounds %struct.State, %struct.State* %0, i64 0, i32 6, i32 15, i32 0, i32 0
  %4 = load i64, i64* %RBP, align 8
  %5 = add i64 %4, -29
  %6 = load i64, i64* %PC, align 8
  %7 = add i64 %6, 3
  store i64 %7, i64* %PC, align 8
  %8 = inttoptr i64 %5 to i8*
  %9 = load i8, i8* %8, align 1
  store i8 %9, i8* %AL, align 1
  ret %struct.Memory* %2
}

; Function Attrs: nounwind
define %struct.Memory* @routine_andb__0x1___al(%struct.State* nocapture dereferenceable(3376), i64, %struct.Memory* readnone returned) local_unnamed_addr #3 {
block_400488:
  %PC = getelementptr inbounds %struct.State, %struct.State* %0, i64 0, i32 6, i32 33, i32 0, i32 0
  %3 = getelementptr inbounds %struct.State, %struct.State* %0, i64 0, i32 6, i32 1, i32 0
  %AL = bitcast %union.anon* %3 to i8*
  %4 = load i8, i8* %AL, align 1
  %5 = load i64, i64* %PC, align 8
  %6 = add i64 %5, 2
  store i64 %6, i64* %PC, align 8
  %7 = and i8 %4, 1
  store i8 %7, i8* %AL, align 1
  %8 = getelementptr inbounds %struct.State, %struct.State* %0, i64 0, i32 2, i32 1
  store i8 0, i8* %8, align 1
  %9 = zext i8 %7 to i32
  %10 = tail call i32 @llvm.ctpop.i32(i32 %9)
  %11 = trunc i32 %10 to i8
  %12 = xor i8 %11, 1
  %13 = getelementptr inbounds %struct.State, %struct.State* %0, i64 0, i32 2, i32 3
  store i8 %12, i8* %13, align 1
  %14 = xor i8 %7, 1
  %15 = getelementptr inbounds %struct.State, %struct.State* %0, i64 0, i32 2, i32 7
  store i8 %14, i8* %15, align 1
  %16 = getelementptr inbounds %struct.State, %struct.State* %0, i64 0, i32 2, i32 9
  store i8 0, i8* %16, align 1
  %17 = getelementptr inbounds %struct.State, %struct.State* %0, i64 0, i32 2, i32 13
  store i8 0, i8* %17, align 1
  %18 = getelementptr inbounds %struct.State, %struct.State* %0, i64 0, i32 2, i32 5
  store i8 0, i8* %18, align 1
  ret %struct.Memory* %2
}

; Function Attrs: norecurse nounwind
define %struct.Memory* @routine_movzbl__al___eax(%struct.State* nocapture dereferenceable(3376), i64, %struct.Memory* readnone returned) local_unnamed_addr #2 {
block_400488:
  %PC = getelementptr inbounds %struct.State, %struct.State* %0, i64 0, i32 6, i32 33, i32 0, i32 0
  %3 = getelementptr inbounds %struct.State, %struct.State* %0, i64 0, i32 6, i32 1, i32 0
  %AL = bitcast %union.anon* %3 to i8*
  %RAX = getelementptr inbounds %union.anon, %union.anon* %3, i64 0, i32 0
  %4 = load i8, i8* %AL, align 1
  %5 = zext i8 %4 to i64
  %6 = load i64, i64* %PC, align 8
  %7 = add i64 %6, 3
  store i64 %7, i64* %PC, align 8
  store i64 %5, i64* %RAX, align 8
  ret %struct.Memory* %2
}

; Function Attrs: nounwind
define %struct.Memory* @routine_addq__0x20___rsp(%struct.State* nocapture dereferenceable(3376), i64, %struct.Memory* readnone returned) local_unnamed_addr #3 {
block_400488:
  %PC = getelementptr inbounds %struct.State, %struct.State* %0, i64 0, i32 6, i32 33, i32 0, i32 0
  %RSP = getelementptr inbounds %struct.State, %struct.State* %0, i64 0, i32 6, i32 13, i32 0, i32 0
  %3 = load i64, i64* %RSP, align 8
  %4 = load i64, i64* %PC, align 8
  %5 = add i64 %4, 4
  store i64 %5, i64* %PC, align 8
  %6 = add i64 %3, 32
  store i64 %6, i64* %RSP, align 8
  %7 = icmp ugt i64 %3, -33
  %8 = zext i1 %7 to i8
  %9 = getelementptr inbounds %struct.State, %struct.State* %0, i64 0, i32 2, i32 1
  store i8 %8, i8* %9, align 1
  %10 = trunc i64 %6 to i32
  %11 = and i32 %10, 255
  %12 = tail call i32 @llvm.ctpop.i32(i32 %11)
  %13 = trunc i32 %12 to i8
  %14 = and i8 %13, 1
  %15 = xor i8 %14, 1
  %16 = getelementptr inbounds %struct.State, %struct.State* %0, i64 0, i32 2, i32 3
  store i8 %15, i8* %16, align 1
  %17 = xor i64 %6, %3
  %18 = lshr i64 %17, 4
  %19 = trunc i64 %18 to i8
  %20 = and i8 %19, 1
  %21 = getelementptr inbounds %struct.State, %struct.State* %0, i64 0, i32 2, i32 5
  store i8 %20, i8* %21, align 1
  %22 = icmp eq i64 %6, 0
  %23 = zext i1 %22 to i8
  %24 = getelementptr inbounds %struct.State, %struct.State* %0, i64 0, i32 2, i32 7
  store i8 %23, i8* %24, align 1
  %25 = lshr i64 %6, 63
  %26 = trunc i64 %25 to i8
  %27 = getelementptr inbounds %struct.State, %struct.State* %0, i64 0, i32 2, i32 9
  store i8 %26, i8* %27, align 1
  %28 = lshr i64 %3, 63
  %29 = xor i64 %25, %28
  %30 = add nuw nsw i64 %29, %25
  %31 = icmp eq i64 %30, 2
  %32 = zext i1 %31 to i8
  %33 = getelementptr inbounds %struct.State, %struct.State* %0, i64 0, i32 2, i32 13
  store i8 %32, i8* %33, align 1
  ret %struct.Memory* %2
}

; Function Attrs: norecurse nounwind
define %struct.Memory* @routine_popq__rbp(%struct.State* nocapture dereferenceable(3376), i64, %struct.Memory* readnone returned) local_unnamed_addr #2 {
block_400488:
  %PC = getelementptr inbounds %struct.State, %struct.State* %0, i64 0, i32 6, i32 33, i32 0, i32 0
  %RBP = getelementptr inbounds %struct.State, %struct.State* %0, i64 0, i32 6, i32 15, i32 0, i32 0
  %3 = load i64, i64* %PC, align 8
  %4 = add i64 %3, 1
  store i64 %4, i64* %PC, align 8
  %5 = getelementptr inbounds %struct.State, %struct.State* %0, i64 0, i32 6, i32 13, i32 0, i32 0
  %6 = load i64, i64* %5, align 8
  %7 = add i64 %6, 8
  %8 = inttoptr i64 %6 to i64*
  %9 = load i64, i64* %8, align 8
  store i64 %9, i64* %RBP, align 8
  store i64 %7, i64* %5, align 8
  ret %struct.Memory* %2
}

; Function Attrs: norecurse nounwind
define %struct.Memory* @routine_retq(%struct.State* nocapture dereferenceable(3376), i64, %struct.Memory* readnone returned) local_unnamed_addr #2 {
block_400488:
  %PC = getelementptr inbounds %struct.State, %struct.State* %0, i64 0, i32 6, i32 33, i32 0, i32 0
  %3 = load i64, i64* %PC, align 8
  %4 = add i64 %3, 1
  store i64 %4, i64* %PC, align 8
  %5 = getelementptr inbounds %struct.State, %struct.State* %0, i64 0, i32 6, i32 13, i32 0, i32 0
  %6 = load i64, i64* %5, align 8
  %7 = inttoptr i64 %6 to i64*
  %8 = load i64, i64* %7, align 8
  store i64 %8, i64* %PC, align 8
  %9 = add i64 %6, 8
  store i64 %9, i64* %5, align 8
  ret %struct.Memory* %2
}

attributes #0 = { nounwind readnone }
attributes #1 = { alwaysinline }
attributes #2 = { norecurse nounwind }
attributes #3 = { nounwind }
