; ModuleID = 'mcsema/test.proposed.inline.ll'
source_filename = "llvm-link"
target datalayout = "e-m:e-i64:64-f80:128-n8:16:32:64-S128"
target triple = "x86_64-pc-linux-gnu-elf"

%__bss_start_type = type <{ [8 x i8] }>
%G_0x20890__rip__type = type <{ [8 x i8] }>
%struct.State = type { %struct.ArchState, [32 x %union.VectorReg], %struct.ArithFlags, %union.anon, %struct.Segments, %struct.AddressSpace, %struct.GPR, %struct.X87Stack, %struct.MMX, %struct.FPUStatusFlags, %union.anon, %union.FPU, %struct.SegmentCaches }
%struct.ArchState = type { i32, i32, %union.anon }
%union.VectorReg = type { %union.vec512_t }
%union.vec512_t = type { %struct.uint64v8_t }
%struct.uint64v8_t = type { [8 x i64] }
%struct.ArithFlags = type { i8, i8, i8, i8, i8, i8, i8, i8, i8, i8, i8, i8, i8, i8, i8, i8 }
%struct.Segments = type { i16, %union.SegmentSelector, i16, %union.SegmentSelector, i16, %union.SegmentSelector, i16, %union.SegmentSelector, i16, %union.SegmentSelector, i16, %union.SegmentSelector }
%union.SegmentSelector = type { i16 }
%struct.AddressSpace = type { i64, %struct.Reg, i64, %struct.Reg, i64, %struct.Reg, i64, %struct.Reg, i64, %struct.Reg, i64, %struct.Reg }
%struct.Reg = type { %union.anon }
%struct.GPR = type { i64, %struct.Reg, i64, %struct.Reg, i64, %struct.Reg, i64, %struct.Reg, i64, %struct.Reg, i64, %struct.Reg, i64, %struct.Reg, i64, %struct.Reg, i64, %struct.Reg, i64, %struct.Reg, i64, %struct.Reg, i64, %struct.Reg, i64, %struct.Reg, i64, %struct.Reg, i64, %struct.Reg, i64, %struct.Reg, i64, %struct.Reg }
%struct.X87Stack = type { [8 x %struct.anon.3] }
%struct.anon.3 = type { i64, double }
%struct.MMX = type { [8 x %struct.anon.4] }
%struct.anon.4 = type { i64, %union.vec64_t }
%union.vec64_t = type { %struct.uint64v1_t }
%struct.uint64v1_t = type { [1 x i64] }
%struct.FPUStatusFlags = type { i8, i8, i8, i8, i8, i8, i8, i8, i8, i8, i8, i8, i8, i8, i8, i8, i8, i8, i8, i8, [4 x i8] }
%union.anon = type { i64 }
%union.FPU = type { %struct.anon.13 }
%struct.anon.13 = type { %struct.FpuFXSAVE, [96 x i8] }
%struct.FpuFXSAVE = type { %union.SegmentSelector, %union.SegmentSelector, %union.FPUAbridgedTagWord, i8, i16, i32, %union.SegmentSelector, i16, i32, %union.SegmentSelector, i16, %union.FPUControlStatus, %union.FPUControlStatus, [8 x %struct.FPUStackElem], [16 x %union.vec128_t] }
%union.FPUAbridgedTagWord = type { i8 }
%union.FPUControlStatus = type { i32 }
%struct.FPUStackElem = type { %union.anon.11, [6 x i8] }
%union.anon.11 = type { %struct.float80_t }
%struct.float80_t = type { [10 x i8] }
%union.vec128_t = type { %struct.uint128v1_t }
%struct.uint128v1_t = type { [1 x i128] }
%struct.SegmentCaches = type { %struct.SegmentShadow, %struct.SegmentShadow, %struct.SegmentShadow, %struct.SegmentShadow, %struct.SegmentShadow, %struct.SegmentShadow }
%struct.SegmentShadow = type { %union.anon, i32, i32 }
%struct.Memory = type opaque

@__bss_start = local_unnamed_addr global %__bss_start_type zeroinitializer
@G_0x20890__rip_ = global %G_0x20890__rip__type zeroinitializer

; Function Attrs: nounwind readnone
declare i32 @llvm.ctpop.i32(i32) #0

declare %struct.Memory* @sub_452090.FSum(%struct.State* noalias dereferenceable(3376), i64, %struct.Memory* noalias readnone returned) local_unnamed_addr

declare %struct.Memory* @sub_451fe0.FScale(%struct.State* noalias dereferenceable(3376), i64, %struct.Memory* noalias readnone returned) local_unnamed_addr

; Function Attrs: alwaysinline
define %struct.Memory* @Plan7RenormalizeExits(%struct.State* noalias, i64, %struct.Memory* noalias readnone) local_unnamed_addr #1 {
entry:
  %3 = getelementptr inbounds %struct.State, %struct.State* %0, i64 0, i32 6, i32 33, i32 0, i32 0
  %RBP.i = getelementptr inbounds %struct.State, %struct.State* %0, i64 0, i32 6, i32 15, i32 0, i32 0
  %4 = load i64, i64* %RBP.i, align 8
  %5 = add i64 %1, 1
  store i64 %5, i64* %3, align 8
  %6 = getelementptr inbounds %struct.State, %struct.State* %0, i64 0, i32 6, i32 13, i32 0, i32 0
  %7 = load i64, i64* %6, align 8
  %8 = add i64 %7, -8
  %9 = inttoptr i64 %8 to i64*
  store i64 %4, i64* %9, align 8
  %10 = load i64, i64* %3, align 8
  store i64 %8, i64* %RBP.i, align 8
  %11 = add i64 %7, -24
  store i64 %11, i64* %6, align 8
  %12 = icmp ult i64 %8, 16
  %13 = zext i1 %12 to i8
  %14 = getelementptr inbounds %struct.State, %struct.State* %0, i64 0, i32 2, i32 1
  store i8 %13, i8* %14, align 1
  %15 = trunc i64 %11 to i32
  %16 = and i32 %15, 255
  %17 = tail call i32 @llvm.ctpop.i32(i32 %16)
  %18 = trunc i32 %17 to i8
  %19 = and i8 %18, 1
  %20 = xor i8 %19, 1
  %21 = getelementptr inbounds %struct.State, %struct.State* %0, i64 0, i32 2, i32 3
  store i8 %20, i8* %21, align 1
  %22 = xor i64 %8, 16
  %23 = xor i64 %22, %11
  %24 = lshr i64 %23, 4
  %25 = trunc i64 %24 to i8
  %26 = and i8 %25, 1
  %27 = getelementptr inbounds %struct.State, %struct.State* %0, i64 0, i32 2, i32 5
  store i8 %26, i8* %27, align 1
  %28 = icmp eq i64 %11, 0
  %29 = zext i1 %28 to i8
  %30 = getelementptr inbounds %struct.State, %struct.State* %0, i64 0, i32 2, i32 7
  store i8 %29, i8* %30, align 1
  %31 = lshr i64 %11, 63
  %32 = trunc i64 %31 to i8
  %33 = getelementptr inbounds %struct.State, %struct.State* %0, i64 0, i32 2, i32 9
  store i8 %32, i8* %33, align 1
  %34 = lshr i64 %8, 63
  %35 = xor i64 %31, %34
  %36 = add nuw nsw i64 %35, %34
  %37 = icmp eq i64 %36, 2
  %38 = zext i1 %37 to i8
  %39 = getelementptr inbounds %struct.State, %struct.State* %0, i64 0, i32 2, i32 13
  store i8 %38, i8* %39, align 1
  %RDI.i81 = getelementptr inbounds %struct.State, %struct.State* %0, i64 0, i32 6, i32 11, i32 0, i32 0
  %40 = add i64 %7, -16
  %41 = load i64, i64* %RDI.i81, align 8
  %42 = add i64 %10, 11
  store i64 %42, i64* %3, align 8
  %43 = inttoptr i64 %40 to i64*
  store i64 %41, i64* %43, align 8
  %44 = load i64, i64* %RBP.i, align 8
  %45 = add i64 %44, -12
  %46 = load i64, i64* %3, align 8
  %47 = add i64 %46, 7
  store i64 %47, i64* %3, align 8
  %48 = inttoptr i64 %45 to i32*
  store i32 1, i32* %48, align 4
  %RAX.i76 = getelementptr inbounds %struct.State, %struct.State* %0, i64 0, i32 6, i32 1, i32 0, i32 0
  %RCX.i73 = getelementptr inbounds %struct.State, %struct.State* %0, i64 0, i32 6, i32 5, i32 0, i32 0
  %RSI.i67 = getelementptr inbounds %struct.State, %struct.State* %0, i64 0, i32 6, i32 9, i32 0, i32 0
  %49 = getelementptr inbounds %struct.State, %struct.State* %0, i64 0, i32 1
  %50 = getelementptr inbounds %struct.State, %struct.State* %0, i64 0, i32 1, i64 1
  %51 = bitcast %union.VectorReg* %50 to double*
  %52 = getelementptr inbounds %union.VectorReg, %union.VectorReg* %50, i64 0, i32 0, i32 0, i32 0, i64 0
  %53 = getelementptr inbounds %struct.State, %struct.State* %0, i64 0, i32 1, i64 1, i32 0, i32 0, i32 0, i64 1
  %54 = bitcast i64* %53 to double*
  %55 = bitcast [32 x %union.VectorReg]* %49 to <2 x float>*
  %56 = bitcast [32 x %union.VectorReg]* %49 to i8*
  %57 = bitcast [32 x %union.VectorReg]* %49 to float*
  %58 = bitcast [32 x %union.VectorReg]* %49 to i32*
  %59 = getelementptr inbounds i8, i8* %56, i64 4
  %60 = bitcast i8* %59 to float*
  %61 = getelementptr inbounds %struct.State, %struct.State* %0, i64 0, i32 1, i64 0, i32 0, i32 0, i32 0, i64 1
  %62 = bitcast i64* %61 to float*
  %63 = getelementptr inbounds i8, i8* %56, i64 12
  %64 = bitcast i8* %63 to float*
  %65 = getelementptr inbounds %struct.State, %struct.State* %0, i64 0, i32 1, i64 2
  %66 = bitcast %union.VectorReg* %65 to i8*
  %67 = bitcast %union.VectorReg* %65 to float*
  %68 = bitcast %union.VectorReg* %65 to i32*
  %69 = getelementptr inbounds i8, i8* %66, i64 4
  %70 = bitcast i8* %69 to float*
  %71 = getelementptr inbounds %struct.State, %struct.State* %0, i64 0, i32 1, i64 2, i32 0, i32 0, i32 0, i64 1
  %72 = bitcast i64* %71 to float*
  %73 = getelementptr inbounds i8, i8* %66, i64 12
  %74 = bitcast i8* %73 to float*
  %75 = bitcast %union.VectorReg* %65 to <2 x float>*
  %76 = bitcast i64* %71 to <2 x i32>*
  %77 = bitcast i8* %69 to i32*
  %78 = bitcast i64* %71 to i32*
  %79 = bitcast i8* %73 to i32*
  %80 = bitcast i64* %61 to <2 x i32>*
  %81 = bitcast i8* %59 to i32*
  %82 = bitcast i64* %61 to i32*
  %83 = bitcast i8* %63 to i32*
  %.pre = load i64, i64* %3, align 8
  br label %block_.L_433f13

block_.L_433f13:                                  ; preds = %block_433f26, %entry
  %84 = phi i64 [ %261, %block_433f26 ], [ %.pre, %entry ]
  %85 = load i64, i64* %RBP.i, align 8
  %86 = add i64 %85, -12
  %87 = add i64 %84, 3
  store i64 %87, i64* %3, align 8
  %88 = inttoptr i64 %86 to i32*
  %89 = load i32, i32* %88, align 4
  %90 = zext i32 %89 to i64
  store i64 %90, i64* %RAX.i76, align 8
  %91 = add i64 %85, -8
  %92 = add i64 %84, 7
  store i64 %92, i64* %3, align 8
  %93 = inttoptr i64 %91 to i64*
  %94 = load i64, i64* %93, align 8
  store i64 %94, i64* %RCX.i73, align 8
  %95 = add i64 %94, 136
  %96 = add i64 %84, 13
  store i64 %96, i64* %3, align 8
  %97 = inttoptr i64 %95 to i32*
  %98 = load i32, i32* %97, align 4
  %99 = sub i32 %89, %98
  %100 = icmp ult i32 %89, %98
  %101 = zext i1 %100 to i8
  store i8 %101, i8* %14, align 1
  %102 = and i32 %99, 255
  %103 = tail call i32 @llvm.ctpop.i32(i32 %102)
  %104 = trunc i32 %103 to i8
  %105 = and i8 %104, 1
  %106 = xor i8 %105, 1
  store i8 %106, i8* %21, align 1
  %107 = xor i32 %98, %89
  %108 = xor i32 %107, %99
  %109 = lshr i32 %108, 4
  %110 = trunc i32 %109 to i8
  %111 = and i8 %110, 1
  store i8 %111, i8* %27, align 1
  %112 = icmp eq i32 %99, 0
  %113 = zext i1 %112 to i8
  store i8 %113, i8* %30, align 1
  %114 = lshr i32 %99, 31
  %115 = trunc i32 %114 to i8
  store i8 %115, i8* %33, align 1
  %116 = lshr i32 %89, 31
  %117 = lshr i32 %98, 31
  %118 = xor i32 %117, %116
  %119 = xor i32 %114, %116
  %120 = add nuw nsw i32 %119, %118
  %121 = icmp eq i32 %120, 2
  %122 = zext i1 %121 to i8
  store i8 %122, i8* %39, align 1
  %123 = icmp ne i8 %115, 0
  %124 = xor i1 %123, %121
  %.v = select i1 %124, i64 19, i64 150
  %125 = add i64 %84, %.v
  store i64 %125, i64* %3, align 8
  br i1 %124, label %block_433f26, label %block_.L_433fa9

block_433f26:                                     ; preds = %block_.L_433f13
  store i64 3, i64* %RSI.i67, align 8
  %126 = add i64 %125, 9
  store i64 %126, i64* %3, align 8
  %127 = load i64, i64* %93, align 8
  store i64 %127, i64* %RAX.i76, align 8
  %128 = add i64 %127, 144
  %129 = add i64 %125, 16
  store i64 %129, i64* %3, align 8
  %130 = inttoptr i64 %128 to i64*
  %131 = load i64, i64* %130, align 8
  store i64 %131, i64* %RAX.i76, align 8
  %132 = add i64 %125, 20
  store i64 %132, i64* %3, align 8
  %133 = load i32, i32* %88, align 4
  %134 = sext i32 %133 to i64
  store i64 %134, i64* %RCX.i73, align 8
  %135 = shl nsw i64 %134, 3
  %136 = add i64 %135, %131
  %137 = add i64 %125, 24
  store i64 %137, i64* %3, align 8
  %138 = inttoptr i64 %136 to i64*
  %139 = load i64, i64* %138, align 8
  store i64 %139, i64* %RDI.i81, align 8
  %140 = add i64 %125, 123242
  %141 = add i64 %125, 29
  %142 = load i64, i64* %6, align 8
  %143 = add i64 %142, -8
  %144 = inttoptr i64 %143 to i64*
  store i64 %141, i64* %144, align 8
  store i64 %143, i64* %6, align 8
  store i64 %140, i64* %3, align 8
  %call2_433f3e = tail call %struct.Memory* @sub_452090.FSum(%struct.State* nonnull %0, i64 %140, %struct.Memory* %2)
  %145 = load i64, i64* %3, align 8
  store i64 3, i64* %RSI.i67, align 8
  %146 = add i64 %145, add (i64 ptrtoint (%G_0x20890__rip__type* @G_0x20890__rip_ to i64), i64 5)
  %147 = add i64 %145, 13
  store i64 %147, i64* %3, align 8
  %148 = inttoptr i64 %146 to i64*
  %149 = load i64, i64* %148, align 8
  store i64 %149, i64* %52, align 1
  store double 0.000000e+00, double* %54, align 1
  %150 = load i64, i64* %RBP.i, align 8
  %151 = add i64 %150, -16
  %152 = add i64 %145, 18
  store i64 %152, i64* %3, align 8
  %153 = load <2 x float>, <2 x float>* %55, align 1
  %154 = extractelement <2 x float> %153, i32 0
  %155 = inttoptr i64 %151 to float*
  store float %154, float* %155, align 4
  %156 = load i64, i64* %RBP.i, align 8
  %157 = add i64 %156, -8
  %158 = load i64, i64* %3, align 8
  %159 = add i64 %158, 4
  store i64 %159, i64* %3, align 8
  %160 = inttoptr i64 %157 to i64*
  %161 = load i64, i64* %160, align 8
  store i64 %161, i64* %RAX.i76, align 8
  %162 = add i64 %161, 144
  %163 = add i64 %158, 11
  store i64 %163, i64* %3, align 8
  %164 = inttoptr i64 %162 to i64*
  %165 = load i64, i64* %164, align 8
  store i64 %165, i64* %RAX.i76, align 8
  %166 = add i64 %156, -12
  %167 = add i64 %158, 15
  store i64 %167, i64* %3, align 8
  %168 = inttoptr i64 %166 to i32*
  %169 = load i32, i32* %168, align 4
  %170 = sext i32 %169 to i64
  store i64 %170, i64* %RCX.i73, align 8
  %171 = shl nsw i64 %170, 3
  %172 = add i64 %171, %165
  %173 = add i64 %158, 19
  store i64 %173, i64* %3, align 8
  %174 = inttoptr i64 %172 to i64*
  %175 = load i64, i64* %174, align 8
  store i64 %175, i64* %RDI.i81, align 8
  %176 = add i64 %156, -16
  %177 = add i64 %158, 24
  store i64 %177, i64* %3, align 8
  %178 = inttoptr i64 %176 to i32*
  %179 = load i32, i32* %178, align 4
  store i32 %179, i32* %58, align 1
  store float 0.000000e+00, float* %60, align 1
  store float 0.000000e+00, float* %62, align 1
  store float 0.000000e+00, float* %64, align 1
  %180 = add i64 %158, 29
  store i64 %180, i64* %3, align 8
  %181 = load i32, i32* %178, align 4
  store i32 %181, i32* %68, align 1
  store float 0.000000e+00, float* %70, align 1
  store float 0.000000e+00, float* %72, align 1
  store float 0.000000e+00, float* %74, align 1
  %182 = add i64 %158, 33
  store i64 %182, i64* %3, align 8
  %183 = load i64, i64* %160, align 8
  store i64 %183, i64* %RAX.i76, align 8
  %184 = add i64 %183, 216
  %185 = add i64 %158, 40
  store i64 %185, i64* %3, align 8
  %186 = inttoptr i64 %184 to i64*
  %187 = load i64, i64* %186, align 8
  store i64 %187, i64* %RAX.i76, align 8
  %188 = add i64 %158, 44
  store i64 %188, i64* %3, align 8
  %189 = load i32, i32* %168, align 4
  %190 = sext i32 %189 to i64
  store i64 %190, i64* %RCX.i73, align 8
  %191 = shl nsw i64 %190, 2
  %192 = add i64 %191, %187
  %193 = add i64 %158, 49
  store i64 %193, i64* %3, align 8
  %194 = load <2 x float>, <2 x float>* %75, align 1
  %195 = load <2 x i32>, <2 x i32>* %76, align 1
  %196 = inttoptr i64 %192 to float*
  %197 = load float, float* %196, align 4
  %198 = extractelement <2 x float> %194, i32 0
  %199 = fmul float %198, %197
  store float %199, float* %67, align 1
  %200 = bitcast <2 x float> %194 to <2 x i32>
  %201 = extractelement <2 x i32> %200, i32 1
  store i32 %201, i32* %77, align 1
  %202 = extractelement <2 x i32> %195, i32 0
  store i32 %202, i32* %78, align 1
  %203 = extractelement <2 x i32> %195, i32 1
  store i32 %203, i32* %79, align 1
  %204 = load <2 x float>, <2 x float>* %55, align 1
  %205 = load <2 x i32>, <2 x i32>* %80, align 1
  %206 = load <2 x float>, <2 x float>* %75, align 1
  %207 = extractelement <2 x float> %204, i32 0
  %208 = extractelement <2 x float> %206, i32 0
  %209 = fadd float %207, %208
  store float %209, float* %57, align 1
  %210 = bitcast <2 x float> %204 to <2 x i32>
  %211 = extractelement <2 x i32> %210, i32 1
  store i32 %211, i32* %81, align 1
  %212 = extractelement <2 x i32> %205, i32 0
  store i32 %212, i32* %82, align 1
  %213 = extractelement <2 x i32> %205, i32 1
  store i32 %213, i32* %83, align 1
  %214 = load <2 x float>, <2 x float>* %55, align 1
  %215 = extractelement <2 x float> %214, i32 0
  %216 = fpext float %215 to double
  %217 = load double, double* %51, align 1
  %218 = fdiv double %217, %216
  store double %218, double* %51, align 1
  %219 = bitcast double %216 to <2 x i32>
  %220 = load <2 x i32>, <2 x i32>* %80, align 1
  %221 = fptrunc double %218 to float
  store float %221, float* %57, align 1
  %222 = extractelement <2 x i32> %219, i32 1
  store i32 %222, i32* %81, align 1
  %223 = extractelement <2 x i32> %220, i32 0
  store i32 %223, i32* %82, align 1
  %224 = extractelement <2 x i32> %220, i32 1
  store i32 %224, i32* %83, align 1
  %225 = add i64 %158, 123019
  %226 = add i64 %158, 70
  %227 = load i64, i64* %6, align 8
  %228 = add i64 %227, -8
  %229 = inttoptr i64 %228 to i64*
  store i64 %226, i64* %229, align 8
  store i64 %228, i64* %6, align 8
  store i64 %225, i64* %3, align 8
  %call2_433f96 = tail call %struct.Memory* @sub_451fe0.FScale(%struct.State* nonnull %0, i64 %225, %struct.Memory* %2)
  %230 = load i64, i64* %RBP.i, align 8
  %231 = add i64 %230, -12
  %232 = load i64, i64* %3, align 8
  %233 = add i64 %232, 3
  store i64 %233, i64* %3, align 8
  %234 = inttoptr i64 %231 to i32*
  %235 = load i32, i32* %234, align 4
  %236 = add i32 %235, 1
  %237 = zext i32 %236 to i64
  store i64 %237, i64* %RAX.i76, align 8
  %238 = icmp eq i32 %235, -1
  %239 = icmp eq i32 %236, 0
  %240 = or i1 %238, %239
  %241 = zext i1 %240 to i8
  store i8 %241, i8* %14, align 1
  %242 = and i32 %236, 255
  %243 = tail call i32 @llvm.ctpop.i32(i32 %242)
  %244 = trunc i32 %243 to i8
  %245 = and i8 %244, 1
  %246 = xor i8 %245, 1
  store i8 %246, i8* %21, align 1
  %247 = xor i32 %236, %235
  %248 = lshr i32 %247, 4
  %249 = trunc i32 %248 to i8
  %250 = and i8 %249, 1
  store i8 %250, i8* %27, align 1
  %251 = zext i1 %239 to i8
  store i8 %251, i8* %30, align 1
  %252 = lshr i32 %236, 31
  %253 = trunc i32 %252 to i8
  store i8 %253, i8* %33, align 1
  %254 = lshr i32 %235, 31
  %255 = xor i32 %252, %254
  %256 = add nuw nsw i32 %255, %252
  %257 = icmp eq i32 %256, 2
  %258 = zext i1 %257 to i8
  store i8 %258, i8* %39, align 1
  %259 = add i64 %232, 9
  store i64 %259, i64* %3, align 8
  store i32 %236, i32* %234, align 4
  %260 = load i64, i64* %3, align 8
  %261 = add i64 %260, -145
  store i64 %261, i64* %3, align 8
  br label %block_.L_433f13

block_.L_433fa9:                                  ; preds = %block_.L_433f13
  %262 = load i64, i64* %6, align 8
  %263 = add i64 %262, 16
  store i64 %263, i64* %6, align 8
  %264 = icmp ugt i64 %262, -17
  %265 = zext i1 %264 to i8
  store i8 %265, i8* %14, align 1
  %266 = trunc i64 %263 to i32
  %267 = and i32 %266, 255
  %268 = tail call i32 @llvm.ctpop.i32(i32 %267)
  %269 = trunc i32 %268 to i8
  %270 = and i8 %269, 1
  %271 = xor i8 %270, 1
  store i8 %271, i8* %21, align 1
  %272 = xor i64 %262, 16
  %273 = xor i64 %272, %263
  %274 = lshr i64 %273, 4
  %275 = trunc i64 %274 to i8
  %276 = and i8 %275, 1
  store i8 %276, i8* %27, align 1
  %277 = icmp eq i64 %263, 0
  %278 = zext i1 %277 to i8
  store i8 %278, i8* %30, align 1
  %279 = lshr i64 %263, 63
  %280 = trunc i64 %279 to i8
  store i8 %280, i8* %33, align 1
  %281 = lshr i64 %262, 63
  %282 = xor i64 %279, %281
  %283 = add nuw nsw i64 %282, %279
  %284 = icmp eq i64 %283, 2
  %285 = zext i1 %284 to i8
  store i8 %285, i8* %39, align 1
  %286 = add i64 %125, 5
  store i64 %286, i64* %3, align 8
  %287 = add i64 %262, 24
  %288 = inttoptr i64 %263 to i64*
  %289 = load i64, i64* %288, align 8
  store i64 %289, i64* %RBP.i, align 8
  store i64 %287, i64* %6, align 8
  %290 = add i64 %125, 6
  store i64 %290, i64* %3, align 8
  %291 = inttoptr i64 %287 to i64*
  %292 = load i64, i64* %291, align 8
  store i64 %292, i64* %3, align 8
  %293 = add i64 %262, 32
  store i64 %293, i64* %6, align 8
  ret %struct.Memory* %2
}

; Function Attrs: norecurse nounwind
define %struct.Memory* @routine_pushq__rbp(%struct.State* nocapture dereferenceable(3376), i64, %struct.Memory* readnone returned) local_unnamed_addr #2 {
block_400488:
  %PC = getelementptr inbounds %struct.State, %struct.State* %0, i64 0, i32 6, i32 33, i32 0, i32 0
  %RBP = getelementptr inbounds %struct.State, %struct.State* %0, i64 0, i32 6, i32 15, i32 0, i32 0
  %3 = load i64, i64* %RBP, align 8
  %4 = load i64, i64* %PC, align 8
  %5 = add i64 %4, 1
  store i64 %5, i64* %PC, align 8
  %6 = getelementptr inbounds %struct.State, %struct.State* %0, i64 0, i32 6, i32 13, i32 0, i32 0
  %7 = load i64, i64* %6, align 8
  %8 = add i64 %7, -8
  %9 = inttoptr i64 %8 to i64*
  store i64 %3, i64* %9, align 8
  store i64 %8, i64* %6, align 8
  ret %struct.Memory* %2
}

; Function Attrs: norecurse nounwind
define %struct.Memory* @routine_movq__rsp___rbp(%struct.State* nocapture dereferenceable(3376), i64, %struct.Memory* readnone returned) local_unnamed_addr #2 {
block_400488:
  %PC = getelementptr inbounds %struct.State, %struct.State* %0, i64 0, i32 6, i32 33, i32 0, i32 0
  %RSP = getelementptr inbounds %struct.State, %struct.State* %0, i64 0, i32 6, i32 13, i32 0, i32 0
  %RBP = getelementptr inbounds %struct.State, %struct.State* %0, i64 0, i32 6, i32 15, i32 0, i32 0
  %3 = load i64, i64* %RSP, align 8
  %4 = load i64, i64* %PC, align 8
  %5 = add i64 %4, 3
  store i64 %5, i64* %PC, align 8
  store i64 %3, i64* %RBP, align 8
  ret %struct.Memory* %2
}

; Function Attrs: nounwind
define %struct.Memory* @routine_subq__0x10___rsp(%struct.State* nocapture dereferenceable(3376), i64, %struct.Memory* readnone returned) local_unnamed_addr #3 {
block_400488:
  %PC = getelementptr inbounds %struct.State, %struct.State* %0, i64 0, i32 6, i32 33, i32 0, i32 0
  %RSP = getelementptr inbounds %struct.State, %struct.State* %0, i64 0, i32 6, i32 13, i32 0, i32 0
  %3 = load i64, i64* %RSP, align 8
  %4 = load i64, i64* %PC, align 8
  %5 = add i64 %4, 4
  store i64 %5, i64* %PC, align 8
  %6 = add i64 %3, -16
  store i64 %6, i64* %RSP, align 8
  %7 = icmp ult i64 %3, 16
  %8 = zext i1 %7 to i8
  %9 = getelementptr inbounds %struct.State, %struct.State* %0, i64 0, i32 2, i32 1
  store i8 %8, i8* %9, align 1
  %10 = trunc i64 %6 to i32
  %11 = and i32 %10, 255
  %12 = tail call i32 @llvm.ctpop.i32(i32 %11)
  %13 = trunc i32 %12 to i8
  %14 = and i8 %13, 1
  %15 = xor i8 %14, 1
  %16 = getelementptr inbounds %struct.State, %struct.State* %0, i64 0, i32 2, i32 3
  store i8 %15, i8* %16, align 1
  %17 = xor i64 %3, 16
  %18 = xor i64 %17, %6
  %19 = lshr i64 %18, 4
  %20 = trunc i64 %19 to i8
  %21 = and i8 %20, 1
  %22 = getelementptr inbounds %struct.State, %struct.State* %0, i64 0, i32 2, i32 5
  store i8 %21, i8* %22, align 1
  %23 = icmp eq i64 %6, 0
  %24 = zext i1 %23 to i8
  %25 = getelementptr inbounds %struct.State, %struct.State* %0, i64 0, i32 2, i32 7
  store i8 %24, i8* %25, align 1
  %26 = lshr i64 %6, 63
  %27 = trunc i64 %26 to i8
  %28 = getelementptr inbounds %struct.State, %struct.State* %0, i64 0, i32 2, i32 9
  store i8 %27, i8* %28, align 1
  %29 = lshr i64 %3, 63
  %30 = xor i64 %26, %29
  %31 = add nuw nsw i64 %30, %29
  %32 = icmp eq i64 %31, 2
  %33 = zext i1 %32 to i8
  %34 = getelementptr inbounds %struct.State, %struct.State* %0, i64 0, i32 2, i32 13
  store i8 %33, i8* %34, align 1
  ret %struct.Memory* %2
}

; Function Attrs: norecurse nounwind
define %struct.Memory* @routine_movq__rdi__MINUS0x8__rbp_(%struct.State* nocapture dereferenceable(3376), i64, %struct.Memory* readnone returned) local_unnamed_addr #2 {
block_400488:
  %PC = getelementptr inbounds %struct.State, %struct.State* %0, i64 0, i32 6, i32 33, i32 0, i32 0
  %RDI = getelementptr inbounds %struct.State, %struct.State* %0, i64 0, i32 6, i32 11, i32 0, i32 0
  %RBP = getelementptr inbounds %struct.State, %struct.State* %0, i64 0, i32 6, i32 15, i32 0, i32 0
  %3 = load i64, i64* %RBP, align 8
  %4 = add i64 %3, -8
  %5 = load i64, i64* %RDI, align 8
  %6 = load i64, i64* %PC, align 8
  %7 = add i64 %6, 4
  store i64 %7, i64* %PC, align 8
  %8 = inttoptr i64 %4 to i64*
  store i64 %5, i64* %8, align 8
  ret %struct.Memory* %2
}

; Function Attrs: norecurse nounwind
define %struct.Memory* @routine_movl__0x1__MINUS0xc__rbp_(%struct.State* nocapture dereferenceable(3376), i64, %struct.Memory* readnone returned) local_unnamed_addr #2 {
block_400488:
  %PC = getelementptr inbounds %struct.State, %struct.State* %0, i64 0, i32 6, i32 33, i32 0, i32 0
  %RBP = getelementptr inbounds %struct.State, %struct.State* %0, i64 0, i32 6, i32 15, i32 0, i32 0
  %3 = load i64, i64* %RBP, align 8
  %4 = add i64 %3, -12
  %5 = load i64, i64* %PC, align 8
  %6 = add i64 %5, 7
  store i64 %6, i64* %PC, align 8
  %7 = inttoptr i64 %4 to i32*
  store i32 1, i32* %7, align 4
  ret %struct.Memory* %2
}

; Function Attrs: norecurse nounwind
define %struct.Memory* @routine_movl_MINUS0xc__rbp____eax(%struct.State* nocapture dereferenceable(3376), i64, %struct.Memory* readnone returned) local_unnamed_addr #2 {
block_400488:
  %PC = getelementptr inbounds %struct.State, %struct.State* %0, i64 0, i32 6, i32 33, i32 0, i32 0
  %RAX = getelementptr inbounds %struct.State, %struct.State* %0, i64 0, i32 6, i32 1, i32 0, i32 0
  %RBP = getelementptr inbounds %struct.State, %struct.State* %0, i64 0, i32 6, i32 15, i32 0, i32 0
  %3 = load i64, i64* %RBP, align 8
  %4 = add i64 %3, -12
  %5 = load i64, i64* %PC, align 8
  %6 = add i64 %5, 3
  store i64 %6, i64* %PC, align 8
  %7 = inttoptr i64 %4 to i32*
  %8 = load i32, i32* %7, align 4
  %9 = zext i32 %8 to i64
  store i64 %9, i64* %RAX, align 8
  ret %struct.Memory* %2
}

; Function Attrs: norecurse nounwind
define %struct.Memory* @routine_movq_MINUS0x8__rbp____rcx(%struct.State* nocapture dereferenceable(3376), i64, %struct.Memory* readnone returned) local_unnamed_addr #2 {
block_400488:
  %PC = getelementptr inbounds %struct.State, %struct.State* %0, i64 0, i32 6, i32 33, i32 0, i32 0
  %RCX = getelementptr inbounds %struct.State, %struct.State* %0, i64 0, i32 6, i32 5, i32 0, i32 0
  %RBP = getelementptr inbounds %struct.State, %struct.State* %0, i64 0, i32 6, i32 15, i32 0, i32 0
  %3 = load i64, i64* %RBP, align 8
  %4 = add i64 %3, -8
  %5 = load i64, i64* %PC, align 8
  %6 = add i64 %5, 4
  store i64 %6, i64* %PC, align 8
  %7 = inttoptr i64 %4 to i64*
  %8 = load i64, i64* %7, align 8
  store i64 %8, i64* %RCX, align 8
  ret %struct.Memory* %2
}

; Function Attrs: nounwind
define %struct.Memory* @routine_cmpl_0x88__rcx____eax(%struct.State* nocapture dereferenceable(3376), i64, %struct.Memory* readnone returned) local_unnamed_addr #3 {
block_400488:
  %PC = getelementptr inbounds %struct.State, %struct.State* %0, i64 0, i32 6, i32 33, i32 0, i32 0
  %3 = getelementptr inbounds %struct.State, %struct.State* %0, i64 0, i32 6, i32 1, i32 0
  %EAX = bitcast %union.anon* %3 to i32*
  %RCX = getelementptr inbounds %struct.State, %struct.State* %0, i64 0, i32 6, i32 5, i32 0, i32 0
  %4 = load i32, i32* %EAX, align 4
  %5 = load i64, i64* %RCX, align 8
  %6 = add i64 %5, 136
  %7 = load i64, i64* %PC, align 8
  %8 = add i64 %7, 6
  store i64 %8, i64* %PC, align 8
  %9 = inttoptr i64 %6 to i32*
  %10 = load i32, i32* %9, align 4
  %11 = sub i32 %4, %10
  %12 = icmp ult i32 %4, %10
  %13 = zext i1 %12 to i8
  %14 = getelementptr inbounds %struct.State, %struct.State* %0, i64 0, i32 2, i32 1
  store i8 %13, i8* %14, align 1
  %15 = and i32 %11, 255
  %16 = tail call i32 @llvm.ctpop.i32(i32 %15)
  %17 = trunc i32 %16 to i8
  %18 = and i8 %17, 1
  %19 = xor i8 %18, 1
  %20 = getelementptr inbounds %struct.State, %struct.State* %0, i64 0, i32 2, i32 3
  store i8 %19, i8* %20, align 1
  %21 = xor i32 %10, %4
  %22 = xor i32 %21, %11
  %23 = lshr i32 %22, 4
  %24 = trunc i32 %23 to i8
  %25 = and i8 %24, 1
  %26 = getelementptr inbounds %struct.State, %struct.State* %0, i64 0, i32 2, i32 5
  store i8 %25, i8* %26, align 1
  %27 = icmp eq i32 %11, 0
  %28 = zext i1 %27 to i8
  %29 = getelementptr inbounds %struct.State, %struct.State* %0, i64 0, i32 2, i32 7
  store i8 %28, i8* %29, align 1
  %30 = lshr i32 %11, 31
  %31 = trunc i32 %30 to i8
  %32 = getelementptr inbounds %struct.State, %struct.State* %0, i64 0, i32 2, i32 9
  store i8 %31, i8* %32, align 1
  %33 = lshr i32 %4, 31
  %34 = lshr i32 %10, 31
  %35 = xor i32 %34, %33
  %36 = xor i32 %30, %33
  %37 = add nuw nsw i32 %36, %35
  %38 = icmp eq i32 %37, 2
  %39 = zext i1 %38 to i8
  %40 = getelementptr inbounds %struct.State, %struct.State* %0, i64 0, i32 2, i32 13
  store i8 %39, i8* %40, align 1
  ret %struct.Memory* %2
}

; Function Attrs: norecurse nounwind
define %struct.Memory* @routine_jge_.L_433fa9(%struct.State* nocapture dereferenceable(3376), i64, %struct.Memory* readnone returned, i8* nocapture %BRANCH_TAKEN, i64 %rel_off1, i64 %rel_off2, i64 %rel_off3) local_unnamed_addr #2 {
block_400488:
  %PC = getelementptr inbounds %struct.State, %struct.State* %0, i64 0, i32 6, i32 33, i32 0, i32 0
  %3 = load i64, i64* %PC, align 8
  %4 = getelementptr inbounds %struct.State, %struct.State* %0, i64 0, i32 2, i32 9
  %5 = load i8, i8* %4, align 1
  %6 = icmp ne i8 %5, 0
  %7 = getelementptr inbounds %struct.State, %struct.State* %0, i64 0, i32 2, i32 13
  %8 = load i8, i8* %7, align 1
  %9 = icmp ne i8 %8, 0
  %10 = xor i1 %6, %9
  %11 = xor i1 %10, true
  %12 = zext i1 %11 to i8
  store i8 %12, i8* %BRANCH_TAKEN, align 1
  %.v = select i1 %10, i64 %rel_off2, i64 %rel_off1
  %13 = add i64 %.v, %3
  store i64 %13, i64* %PC, align 8
  ret %struct.Memory* %2
}

; Function Attrs: norecurse nounwind
define %struct.Memory* @routine_movl__0x3___esi(%struct.State* nocapture dereferenceable(3376), i64, %struct.Memory* readnone returned) local_unnamed_addr #2 {
block_400488:
  %PC = getelementptr inbounds %struct.State, %struct.State* %0, i64 0, i32 6, i32 33, i32 0, i32 0
  %RSI = getelementptr inbounds %struct.State, %struct.State* %0, i64 0, i32 6, i32 9, i32 0, i32 0
  %3 = load i64, i64* %PC, align 8
  %4 = add i64 %3, 5
  store i64 %4, i64* %PC, align 8
  store i64 3, i64* %RSI, align 8
  ret %struct.Memory* %2
}

; Function Attrs: norecurse nounwind
define %struct.Memory* @routine_movq_MINUS0x8__rbp____rax(%struct.State* nocapture dereferenceable(3376), i64, %struct.Memory* readnone returned) local_unnamed_addr #2 {
block_400488:
  %PC = getelementptr inbounds %struct.State, %struct.State* %0, i64 0, i32 6, i32 33, i32 0, i32 0
  %RAX = getelementptr inbounds %struct.State, %struct.State* %0, i64 0, i32 6, i32 1, i32 0, i32 0
  %RBP = getelementptr inbounds %struct.State, %struct.State* %0, i64 0, i32 6, i32 15, i32 0, i32 0
  %3 = load i64, i64* %RBP, align 8
  %4 = add i64 %3, -8
  %5 = load i64, i64* %PC, align 8
  %6 = add i64 %5, 4
  store i64 %6, i64* %PC, align 8
  %7 = inttoptr i64 %4 to i64*
  %8 = load i64, i64* %7, align 8
  store i64 %8, i64* %RAX, align 8
  ret %struct.Memory* %2
}

; Function Attrs: norecurse nounwind
define %struct.Memory* @routine_movq_0x90__rax____rax(%struct.State* nocapture dereferenceable(3376), i64, %struct.Memory* readnone returned) local_unnamed_addr #2 {
block_400488:
  %PC = getelementptr inbounds %struct.State, %struct.State* %0, i64 0, i32 6, i32 33, i32 0, i32 0
  %RAX = getelementptr inbounds %struct.State, %struct.State* %0, i64 0, i32 6, i32 1, i32 0, i32 0
  %3 = load i64, i64* %RAX, align 8
  %4 = add i64 %3, 144
  %5 = load i64, i64* %PC, align 8
  %6 = add i64 %5, 7
  store i64 %6, i64* %PC, align 8
  %7 = inttoptr i64 %4 to i64*
  %8 = load i64, i64* %7, align 8
  store i64 %8, i64* %RAX, align 8
  ret %struct.Memory* %2
}

; Function Attrs: norecurse nounwind
define %struct.Memory* @routine_movslq_MINUS0xc__rbp____rcx(%struct.State* nocapture dereferenceable(3376), i64, %struct.Memory* readnone returned) local_unnamed_addr #2 {
block_400488:
  %PC = getelementptr inbounds %struct.State, %struct.State* %0, i64 0, i32 6, i32 33, i32 0, i32 0
  %RCX = getelementptr inbounds %struct.State, %struct.State* %0, i64 0, i32 6, i32 5, i32 0, i32 0
  %RBP = getelementptr inbounds %struct.State, %struct.State* %0, i64 0, i32 6, i32 15, i32 0, i32 0
  %3 = load i64, i64* %RBP, align 8
  %4 = add i64 %3, -12
  %5 = load i64, i64* %PC, align 8
  %6 = add i64 %5, 4
  store i64 %6, i64* %PC, align 8
  %7 = inttoptr i64 %4 to i32*
  %8 = load i32, i32* %7, align 4
  %9 = sext i32 %8 to i64
  store i64 %9, i64* %RCX, align 8
  ret %struct.Memory* %2
}

; Function Attrs: norecurse nounwind
define %struct.Memory* @routine_movq___rax__rcx_8____rdi(%struct.State* nocapture dereferenceable(3376), i64, %struct.Memory* readnone returned) local_unnamed_addr #2 {
block_400488:
  %PC = getelementptr inbounds %struct.State, %struct.State* %0, i64 0, i32 6, i32 33, i32 0, i32 0
  %RAX = getelementptr inbounds %struct.State, %struct.State* %0, i64 0, i32 6, i32 1, i32 0, i32 0
  %RCX = getelementptr inbounds %struct.State, %struct.State* %0, i64 0, i32 6, i32 5, i32 0, i32 0
  %RDI = getelementptr inbounds %struct.State, %struct.State* %0, i64 0, i32 6, i32 11, i32 0, i32 0
  %3 = load i64, i64* %RAX, align 8
  %4 = load i64, i64* %RCX, align 8
  %5 = shl i64 %4, 3
  %6 = add i64 %5, %3
  %7 = load i64, i64* %PC, align 8
  %8 = add i64 %7, 4
  store i64 %8, i64* %PC, align 8
  %9 = inttoptr i64 %6 to i64*
  %10 = load i64, i64* %9, align 8
  store i64 %10, i64* %RDI, align 8
  ret %struct.Memory* %2
}

; Function Attrs: norecurse nounwind
define %struct.Memory* @routine_callq_.FSum(%struct.State* nocapture dereferenceable(3376), i64, %struct.Memory* readnone returned, i64 %rel_off1, i64 %rel_off2, i64 %rel_off3) local_unnamed_addr #2 {
block_400488:
  %PC = getelementptr inbounds %struct.State, %struct.State* %0, i64 0, i32 6, i32 33, i32 0, i32 0
  %3 = load i64, i64* %PC, align 8
  %4 = add i64 %3, %rel_off1
  %5 = add i64 %3, %rel_off2
  %6 = getelementptr inbounds %struct.State, %struct.State* %0, i64 0, i32 6, i32 13, i32 0, i32 0
  %7 = load i64, i64* %6, align 8
  %8 = add i64 %7, -8
  %9 = inttoptr i64 %8 to i64*
  store i64 %5, i64* %9, align 8
  store i64 %8, i64* %6, align 8
  store i64 %4, i64* %PC, align 8
  ret %struct.Memory* %2
}

; Function Attrs: norecurse nounwind
define %struct.Memory* @routine_movsd_0x20890__rip____xmm1(%struct.State* nocapture dereferenceable(3376), i64, %struct.Memory* readnone returned) local_unnamed_addr #2 {
block_400488:
  %PC = getelementptr inbounds %struct.State, %struct.State* %0, i64 0, i32 6, i32 33, i32 0, i32 0
  %3 = load i64, i64* %PC, align 8
  %4 = add i64 %3, ptrtoint (%G_0x20890__rip__type* @G_0x20890__rip_ to i64)
  %5 = add i64 %3, 8
  store i64 %5, i64* %PC, align 8
  %6 = inttoptr i64 %4 to i64*
  %7 = load i64, i64* %6, align 8
  %8 = getelementptr inbounds %struct.State, %struct.State* %0, i64 0, i32 1, i64 1, i32 0, i32 0, i32 0, i64 0
  store i64 %7, i64* %8, align 1
  %9 = getelementptr inbounds %struct.State, %struct.State* %0, i64 0, i32 1, i64 1, i32 0, i32 0, i32 0, i64 1
  %10 = bitcast i64* %9 to double*
  store double 0.000000e+00, double* %10, align 1
  ret %struct.Memory* %2
}

; Function Attrs: norecurse nounwind
define %struct.Memory* @routine_movss__xmm0__MINUS0x10__rbp_(%struct.State* nocapture dereferenceable(3376), i64, %struct.Memory* readnone returned) local_unnamed_addr #2 {
block_400488:
  %PC = getelementptr inbounds %struct.State, %struct.State* %0, i64 0, i32 6, i32 33, i32 0, i32 0
  %RBP = getelementptr inbounds %struct.State, %struct.State* %0, i64 0, i32 6, i32 15, i32 0, i32 0
  %3 = getelementptr inbounds %struct.State, %struct.State* %0, i64 0, i32 1, i64 0
  %4 = load i64, i64* %RBP, align 8
  %5 = add i64 %4, -16
  %6 = load i64, i64* %PC, align 8
  %7 = add i64 %6, 5
  store i64 %7, i64* %PC, align 8
  %8 = bitcast %union.VectorReg* %3 to <2 x float>*
  %9 = load <2 x float>, <2 x float>* %8, align 1
  %10 = extractelement <2 x float> %9, i32 0
  %11 = inttoptr i64 %5 to float*
  store float %10, float* %11, align 4
  ret %struct.Memory* %2
}

; Function Attrs: norecurse nounwind
define %struct.Memory* @routine_movss_MINUS0x10__rbp____xmm0(%struct.State* nocapture dereferenceable(3376), i64, %struct.Memory* readnone returned) local_unnamed_addr #2 {
block_400488:
  %PC = getelementptr inbounds %struct.State, %struct.State* %0, i64 0, i32 6, i32 33, i32 0, i32 0
  %RBP = getelementptr inbounds %struct.State, %struct.State* %0, i64 0, i32 6, i32 15, i32 0, i32 0
  %3 = getelementptr inbounds %struct.State, %struct.State* %0, i64 0, i32 1, i64 0
  %4 = bitcast %union.VectorReg* %3 to i8*
  %5 = load i64, i64* %RBP, align 8
  %6 = add i64 %5, -16
  %7 = load i64, i64* %PC, align 8
  %8 = add i64 %7, 5
  store i64 %8, i64* %PC, align 8
  %9 = inttoptr i64 %6 to i32*
  %10 = load i32, i32* %9, align 4
  %11 = bitcast %union.VectorReg* %3 to i32*
  store i32 %10, i32* %11, align 1
  %12 = getelementptr inbounds i8, i8* %4, i64 4
  %13 = bitcast i8* %12 to float*
  store float 0.000000e+00, float* %13, align 1
  %14 = getelementptr inbounds %struct.State, %struct.State* %0, i64 0, i32 1, i64 0, i32 0, i32 0, i32 0, i64 1
  %15 = bitcast i64* %14 to float*
  store float 0.000000e+00, float* %15, align 1
  %16 = getelementptr inbounds i8, i8* %4, i64 12
  %17 = bitcast i8* %16 to float*
  store float 0.000000e+00, float* %17, align 1
  ret %struct.Memory* %2
}

; Function Attrs: norecurse nounwind
define %struct.Memory* @routine_movss_MINUS0x10__rbp____xmm2(%struct.State* nocapture dereferenceable(3376), i64, %struct.Memory* readnone returned) local_unnamed_addr #2 {
block_400488:
  %PC = getelementptr inbounds %struct.State, %struct.State* %0, i64 0, i32 6, i32 33, i32 0, i32 0
  %RBP = getelementptr inbounds %struct.State, %struct.State* %0, i64 0, i32 6, i32 15, i32 0, i32 0
  %3 = getelementptr inbounds %struct.State, %struct.State* %0, i64 0, i32 1, i64 2
  %4 = bitcast %union.VectorReg* %3 to i8*
  %5 = load i64, i64* %RBP, align 8
  %6 = add i64 %5, -16
  %7 = load i64, i64* %PC, align 8
  %8 = add i64 %7, 5
  store i64 %8, i64* %PC, align 8
  %9 = inttoptr i64 %6 to i32*
  %10 = load i32, i32* %9, align 4
  %11 = bitcast %union.VectorReg* %3 to i32*
  store i32 %10, i32* %11, align 1
  %12 = getelementptr inbounds i8, i8* %4, i64 4
  %13 = bitcast i8* %12 to float*
  store float 0.000000e+00, float* %13, align 1
  %14 = getelementptr inbounds %struct.State, %struct.State* %0, i64 0, i32 1, i64 2, i32 0, i32 0, i32 0, i64 1
  %15 = bitcast i64* %14 to float*
  store float 0.000000e+00, float* %15, align 1
  %16 = getelementptr inbounds i8, i8* %4, i64 12
  %17 = bitcast i8* %16 to float*
  store float 0.000000e+00, float* %17, align 1
  ret %struct.Memory* %2
}

; Function Attrs: norecurse nounwind
define %struct.Memory* @routine_movq_0xd8__rax____rax(%struct.State* nocapture dereferenceable(3376), i64, %struct.Memory* readnone returned) local_unnamed_addr #2 {
block_400488:
  %PC = getelementptr inbounds %struct.State, %struct.State* %0, i64 0, i32 6, i32 33, i32 0, i32 0
  %RAX = getelementptr inbounds %struct.State, %struct.State* %0, i64 0, i32 6, i32 1, i32 0, i32 0
  %3 = load i64, i64* %RAX, align 8
  %4 = add i64 %3, 216
  %5 = load i64, i64* %PC, align 8
  %6 = add i64 %5, 7
  store i64 %6, i64* %PC, align 8
  %7 = inttoptr i64 %4 to i64*
  %8 = load i64, i64* %7, align 8
  store i64 %8, i64* %RAX, align 8
  ret %struct.Memory* %2
}

; Function Attrs: norecurse nounwind
define %struct.Memory* @routine_mulss___rax__rcx_4____xmm2(%struct.State* nocapture dereferenceable(3376), i64, %struct.Memory* readnone returned) local_unnamed_addr #2 {
block_400488:
  %PC = getelementptr inbounds %struct.State, %struct.State* %0, i64 0, i32 6, i32 33, i32 0, i32 0
  %RAX = getelementptr inbounds %struct.State, %struct.State* %0, i64 0, i32 6, i32 1, i32 0, i32 0
  %RCX = getelementptr inbounds %struct.State, %struct.State* %0, i64 0, i32 6, i32 5, i32 0, i32 0
  %3 = getelementptr inbounds %struct.State, %struct.State* %0, i64 0, i32 1, i64 2
  %4 = bitcast %union.VectorReg* %3 to i8*
  %5 = load i64, i64* %RAX, align 8
  %6 = load i64, i64* %RCX, align 8
  %7 = shl i64 %6, 2
  %8 = add i64 %7, %5
  %9 = load i64, i64* %PC, align 8
  %10 = add i64 %9, 5
  store i64 %10, i64* %PC, align 8
  %11 = bitcast %union.VectorReg* %3 to <2 x float>*
  %12 = load <2 x float>, <2 x float>* %11, align 1
  %13 = getelementptr inbounds %struct.State, %struct.State* %0, i64 0, i32 1, i64 2, i32 0, i32 0, i32 0, i64 1
  %14 = bitcast i64* %13 to <2 x i32>*
  %15 = load <2 x i32>, <2 x i32>* %14, align 1
  %16 = inttoptr i64 %8 to float*
  %17 = load float, float* %16, align 4
  %18 = extractelement <2 x float> %12, i32 0
  %19 = fmul float %18, %17
  %20 = bitcast %union.VectorReg* %3 to float*
  store float %19, float* %20, align 1
  %21 = bitcast <2 x float> %12 to <2 x i32>
  %22 = extractelement <2 x i32> %21, i32 1
  %23 = getelementptr inbounds i8, i8* %4, i64 4
  %24 = bitcast i8* %23 to i32*
  store i32 %22, i32* %24, align 1
  %25 = extractelement <2 x i32> %15, i32 0
  %26 = bitcast i64* %13 to i32*
  store i32 %25, i32* %26, align 1
  %27 = extractelement <2 x i32> %15, i32 1
  %28 = getelementptr inbounds i8, i8* %4, i64 12
  %29 = bitcast i8* %28 to i32*
  store i32 %27, i32* %29, align 1
  ret %struct.Memory* %2
}

; Function Attrs: norecurse nounwind
define %struct.Memory* @routine_addss__xmm2___xmm0(%struct.State* nocapture dereferenceable(3376), i64, %struct.Memory* readnone returned) local_unnamed_addr #2 {
block_400488:
  %PC = getelementptr inbounds %struct.State, %struct.State* %0, i64 0, i32 6, i32 33, i32 0, i32 0
  %3 = getelementptr inbounds %struct.State, %struct.State* %0, i64 0, i32 1
  %4 = getelementptr inbounds %struct.State, %struct.State* %0, i64 0, i32 1, i64 2
  %5 = bitcast [32 x %union.VectorReg]* %3 to i8*
  %6 = load i64, i64* %PC, align 8
  %7 = add i64 %6, 4
  store i64 %7, i64* %PC, align 8
  %8 = bitcast [32 x %union.VectorReg]* %3 to <2 x float>*
  %9 = load <2 x float>, <2 x float>* %8, align 1
  %10 = getelementptr inbounds %struct.State, %struct.State* %0, i64 0, i32 1, i64 0, i32 0, i32 0, i32 0, i64 1
  %11 = bitcast i64* %10 to <2 x i32>*
  %12 = load <2 x i32>, <2 x i32>* %11, align 1
  %13 = bitcast %union.VectorReg* %4 to <2 x float>*
  %14 = load <2 x float>, <2 x float>* %13, align 1
  %15 = extractelement <2 x float> %9, i32 0
  %16 = extractelement <2 x float> %14, i32 0
  %17 = fadd float %15, %16
  %18 = bitcast [32 x %union.VectorReg]* %3 to float*
  store float %17, float* %18, align 1
  %19 = bitcast <2 x float> %9 to <2 x i32>
  %20 = extractelement <2 x i32> %19, i32 1
  %21 = getelementptr inbounds i8, i8* %5, i64 4
  %22 = bitcast i8* %21 to i32*
  store i32 %20, i32* %22, align 1
  %23 = extractelement <2 x i32> %12, i32 0
  %24 = bitcast i64* %10 to i32*
  store i32 %23, i32* %24, align 1
  %25 = extractelement <2 x i32> %12, i32 1
  %26 = getelementptr inbounds i8, i8* %5, i64 12
  %27 = bitcast i8* %26 to i32*
  store i32 %25, i32* %27, align 1
  ret %struct.Memory* %2
}

; Function Attrs: norecurse nounwind
define %struct.Memory* @routine_cvtss2sd__xmm0___xmm0(%struct.State* nocapture dereferenceable(3376), i64, %struct.Memory* readnone returned) local_unnamed_addr #2 {
block_400488:
  %PC = getelementptr inbounds %struct.State, %struct.State* %0, i64 0, i32 6, i32 33, i32 0, i32 0
  %3 = getelementptr inbounds %struct.State, %struct.State* %0, i64 0, i32 1, i64 0
  %4 = load i64, i64* %PC, align 8
  %5 = add i64 %4, 4
  store i64 %5, i64* %PC, align 8
  %6 = bitcast %union.VectorReg* %3 to <2 x float>*
  %7 = load <2 x float>, <2 x float>* %6, align 1
  %8 = extractelement <2 x float> %7, i32 0
  %9 = fpext float %8 to double
  %10 = bitcast %union.VectorReg* %3 to double*
  store double %9, double* %10, align 1
  ret %struct.Memory* %2
}

; Function Attrs: norecurse nounwind
define %struct.Memory* @routine_divsd__xmm0___xmm1(%struct.State* nocapture dereferenceable(3376), i64, %struct.Memory* readnone returned) local_unnamed_addr #2 {
block_400488:
  %PC = getelementptr inbounds %struct.State, %struct.State* %0, i64 0, i32 6, i32 33, i32 0, i32 0
  %3 = getelementptr inbounds %struct.State, %struct.State* %0, i64 0, i32 1, i64 1
  %4 = getelementptr inbounds %struct.State, %struct.State* %0, i64 0, i32 1, i64 0
  %5 = load i64, i64* %PC, align 8
  %6 = add i64 %5, 4
  store i64 %6, i64* %PC, align 8
  %7 = bitcast %union.VectorReg* %3 to double*
  %8 = load double, double* %7, align 1
  %9 = bitcast %union.VectorReg* %4 to double*
  %10 = load double, double* %9, align 1
  %11 = fdiv double %8, %10
  store double %11, double* %7, align 1
  ret %struct.Memory* %2
}

; Function Attrs: norecurse nounwind
define %struct.Memory* @routine_cvtsd2ss__xmm1___xmm0(%struct.State* nocapture dereferenceable(3376), i64, %struct.Memory* readnone returned) local_unnamed_addr #2 {
block_400488:
  %PC = getelementptr inbounds %struct.State, %struct.State* %0, i64 0, i32 6, i32 33, i32 0, i32 0
  %3 = getelementptr inbounds %struct.State, %struct.State* %0, i64 0, i32 1
  %4 = getelementptr inbounds %struct.State, %struct.State* %0, i64 0, i32 1, i64 1
  %5 = bitcast [32 x %union.VectorReg]* %3 to i8*
  %6 = load i64, i64* %PC, align 8
  %7 = add i64 %6, 4
  store i64 %7, i64* %PC, align 8
  %8 = bitcast [32 x %union.VectorReg]* %3 to <2 x i32>*
  %9 = load <2 x i32>, <2 x i32>* %8, align 1
  %10 = getelementptr inbounds %struct.State, %struct.State* %0, i64 0, i32 1, i64 0, i32 0, i32 0, i32 0, i64 1
  %11 = bitcast i64* %10 to <2 x i32>*
  %12 = load <2 x i32>, <2 x i32>* %11, align 1
  %13 = bitcast %union.VectorReg* %4 to double*
  %14 = load double, double* %13, align 1
  %15 = fptrunc double %14 to float
  %16 = bitcast [32 x %union.VectorReg]* %3 to float*
  store float %15, float* %16, align 1
  %17 = extractelement <2 x i32> %9, i32 1
  %18 = getelementptr inbounds i8, i8* %5, i64 4
  %19 = bitcast i8* %18 to i32*
  store i32 %17, i32* %19, align 1
  %20 = extractelement <2 x i32> %12, i32 0
  %21 = bitcast i64* %10 to i32*
  store i32 %20, i32* %21, align 1
  %22 = extractelement <2 x i32> %12, i32 1
  %23 = getelementptr inbounds i8, i8* %5, i64 12
  %24 = bitcast i8* %23 to i32*
  store i32 %22, i32* %24, align 1
  ret %struct.Memory* %2
}

; Function Attrs: norecurse nounwind
define %struct.Memory* @routine_callq_.FScale(%struct.State* nocapture dereferenceable(3376), i64, %struct.Memory* readnone returned, i64 %rel_off1, i64 %rel_off2, i64 %rel_off3) local_unnamed_addr #2 {
block_400488:
  %PC = getelementptr inbounds %struct.State, %struct.State* %0, i64 0, i32 6, i32 33, i32 0, i32 0
  %3 = load i64, i64* %PC, align 8
  %4 = add i64 %3, %rel_off1
  %5 = add i64 %3, %rel_off2
  %6 = getelementptr inbounds %struct.State, %struct.State* %0, i64 0, i32 6, i32 13, i32 0, i32 0
  %7 = load i64, i64* %6, align 8
  %8 = add i64 %7, -8
  %9 = inttoptr i64 %8 to i64*
  store i64 %5, i64* %9, align 8
  store i64 %8, i64* %6, align 8
  store i64 %4, i64* %PC, align 8
  ret %struct.Memory* %2
}

; Function Attrs: nounwind
define %struct.Memory* @routine_addl__0x1___eax(%struct.State* nocapture dereferenceable(3376), i64, %struct.Memory* readnone returned) local_unnamed_addr #3 {
block_400488:
  %PC = getelementptr inbounds %struct.State, %struct.State* %0, i64 0, i32 6, i32 33, i32 0, i32 0
  %RAX = getelementptr inbounds %struct.State, %struct.State* %0, i64 0, i32 6, i32 1, i32 0, i32 0
  %3 = load i64, i64* %RAX, align 8
  %4 = load i64, i64* %PC, align 8
  %5 = add i64 %4, 3
  store i64 %5, i64* %PC, align 8
  %6 = trunc i64 %3 to i32
  %7 = add i32 %6, 1
  %8 = zext i32 %7 to i64
  store i64 %8, i64* %RAX, align 8
  %9 = icmp eq i32 %6, -1
  %10 = icmp eq i32 %7, 0
  %11 = or i1 %9, %10
  %12 = zext i1 %11 to i8
  %13 = getelementptr inbounds %struct.State, %struct.State* %0, i64 0, i32 2, i32 1
  store i8 %12, i8* %13, align 1
  %14 = and i32 %7, 255
  %15 = tail call i32 @llvm.ctpop.i32(i32 %14)
  %16 = trunc i32 %15 to i8
  %17 = and i8 %16, 1
  %18 = xor i8 %17, 1
  %19 = getelementptr inbounds %struct.State, %struct.State* %0, i64 0, i32 2, i32 3
  store i8 %18, i8* %19, align 1
  %20 = xor i32 %7, %6
  %21 = lshr i32 %20, 4
  %22 = trunc i32 %21 to i8
  %23 = and i8 %22, 1
  %24 = getelementptr inbounds %struct.State, %struct.State* %0, i64 0, i32 2, i32 5
  store i8 %23, i8* %24, align 1
  %25 = zext i1 %10 to i8
  %26 = getelementptr inbounds %struct.State, %struct.State* %0, i64 0, i32 2, i32 7
  store i8 %25, i8* %26, align 1
  %27 = lshr i32 %7, 31
  %28 = trunc i32 %27 to i8
  %29 = getelementptr inbounds %struct.State, %struct.State* %0, i64 0, i32 2, i32 9
  store i8 %28, i8* %29, align 1
  %30 = lshr i32 %6, 31
  %31 = xor i32 %27, %30
  %32 = add nuw nsw i32 %31, %27
  %33 = icmp eq i32 %32, 2
  %34 = zext i1 %33 to i8
  %35 = getelementptr inbounds %struct.State, %struct.State* %0, i64 0, i32 2, i32 13
  store i8 %34, i8* %35, align 1
  ret %struct.Memory* %2
}

; Function Attrs: norecurse nounwind
define %struct.Memory* @routine_movl__eax__MINUS0xc__rbp_(%struct.State* nocapture dereferenceable(3376), i64, %struct.Memory* readnone returned) local_unnamed_addr #2 {
block_400488:
  %PC = getelementptr inbounds %struct.State, %struct.State* %0, i64 0, i32 6, i32 33, i32 0, i32 0
  %3 = getelementptr inbounds %struct.State, %struct.State* %0, i64 0, i32 6, i32 1, i32 0
  %EAX = bitcast %union.anon* %3 to i32*
  %RBP = getelementptr inbounds %struct.State, %struct.State* %0, i64 0, i32 6, i32 15, i32 0, i32 0
  %4 = load i64, i64* %RBP, align 8
  %5 = add i64 %4, -12
  %6 = load i32, i32* %EAX, align 4
  %7 = load i64, i64* %PC, align 8
  %8 = add i64 %7, 3
  store i64 %8, i64* %PC, align 8
  %9 = inttoptr i64 %5 to i32*
  store i32 %6, i32* %9, align 4
  ret %struct.Memory* %2
}

; Function Attrs: norecurse nounwind
define %struct.Memory* @routine_jmpq_.L_433f13(%struct.State* nocapture dereferenceable(3376), i64, %struct.Memory* readnone returned, i64 %rel_off1, i64 %rel_off2) local_unnamed_addr #2 {
block_400488:
  %PC = getelementptr inbounds %struct.State, %struct.State* %0, i64 0, i32 6, i32 33, i32 0, i32 0
  %3 = load i64, i64* %PC, align 8
  %4 = add i64 %3, %rel_off1
  store i64 %4, i64* %PC, align 8
  ret %struct.Memory* %2
}

; Function Attrs: nounwind
define %struct.Memory* @routine_addq__0x10___rsp(%struct.State* nocapture dereferenceable(3376), i64, %struct.Memory* readnone returned) local_unnamed_addr #3 {
block_400488:
  %PC = getelementptr inbounds %struct.State, %struct.State* %0, i64 0, i32 6, i32 33, i32 0, i32 0
  %RSP = getelementptr inbounds %struct.State, %struct.State* %0, i64 0, i32 6, i32 13, i32 0, i32 0
  %3 = load i64, i64* %RSP, align 8
  %4 = load i64, i64* %PC, align 8
  %5 = add i64 %4, 4
  store i64 %5, i64* %PC, align 8
  %6 = add i64 %3, 16
  store i64 %6, i64* %RSP, align 8
  %7 = icmp ugt i64 %3, -17
  %8 = zext i1 %7 to i8
  %9 = getelementptr inbounds %struct.State, %struct.State* %0, i64 0, i32 2, i32 1
  store i8 %8, i8* %9, align 1
  %10 = trunc i64 %6 to i32
  %11 = and i32 %10, 255
  %12 = tail call i32 @llvm.ctpop.i32(i32 %11)
  %13 = trunc i32 %12 to i8
  %14 = and i8 %13, 1
  %15 = xor i8 %14, 1
  %16 = getelementptr inbounds %struct.State, %struct.State* %0, i64 0, i32 2, i32 3
  store i8 %15, i8* %16, align 1
  %17 = xor i64 %3, 16
  %18 = xor i64 %17, %6
  %19 = lshr i64 %18, 4
  %20 = trunc i64 %19 to i8
  %21 = and i8 %20, 1
  %22 = getelementptr inbounds %struct.State, %struct.State* %0, i64 0, i32 2, i32 5
  store i8 %21, i8* %22, align 1
  %23 = icmp eq i64 %6, 0
  %24 = zext i1 %23 to i8
  %25 = getelementptr inbounds %struct.State, %struct.State* %0, i64 0, i32 2, i32 7
  store i8 %24, i8* %25, align 1
  %26 = lshr i64 %6, 63
  %27 = trunc i64 %26 to i8
  %28 = getelementptr inbounds %struct.State, %struct.State* %0, i64 0, i32 2, i32 9
  store i8 %27, i8* %28, align 1
  %29 = lshr i64 %3, 63
  %30 = xor i64 %26, %29
  %31 = add nuw nsw i64 %30, %26
  %32 = icmp eq i64 %31, 2
  %33 = zext i1 %32 to i8
  %34 = getelementptr inbounds %struct.State, %struct.State* %0, i64 0, i32 2, i32 13
  store i8 %33, i8* %34, align 1
  ret %struct.Memory* %2
}

; Function Attrs: norecurse nounwind
define %struct.Memory* @routine_popq__rbp(%struct.State* nocapture dereferenceable(3376), i64, %struct.Memory* readnone returned) local_unnamed_addr #2 {
block_400488:
  %PC = getelementptr inbounds %struct.State, %struct.State* %0, i64 0, i32 6, i32 33, i32 0, i32 0
  %RBP = getelementptr inbounds %struct.State, %struct.State* %0, i64 0, i32 6, i32 15, i32 0, i32 0
  %3 = load i64, i64* %PC, align 8
  %4 = add i64 %3, 1
  store i64 %4, i64* %PC, align 8
  %5 = getelementptr inbounds %struct.State, %struct.State* %0, i64 0, i32 6, i32 13, i32 0, i32 0
  %6 = load i64, i64* %5, align 8
  %7 = add i64 %6, 8
  %8 = inttoptr i64 %6 to i64*
  %9 = load i64, i64* %8, align 8
  store i64 %9, i64* %RBP, align 8
  store i64 %7, i64* %5, align 8
  ret %struct.Memory* %2
}

; Function Attrs: norecurse nounwind
define %struct.Memory* @routine_retq(%struct.State* nocapture dereferenceable(3376), i64, %struct.Memory* readnone returned) local_unnamed_addr #2 {
block_400488:
  %PC = getelementptr inbounds %struct.State, %struct.State* %0, i64 0, i32 6, i32 33, i32 0, i32 0
  %3 = load i64, i64* %PC, align 8
  %4 = add i64 %3, 1
  store i64 %4, i64* %PC, align 8
  %5 = getelementptr inbounds %struct.State, %struct.State* %0, i64 0, i32 6, i32 13, i32 0, i32 0
  %6 = load i64, i64* %5, align 8
  %7 = inttoptr i64 %6 to i64*
  %8 = load i64, i64* %7, align 8
  store i64 %8, i64* %PC, align 8
  %9 = add i64 %6, 8
  store i64 %9, i64* %5, align 8
  ret %struct.Memory* %2
}

attributes #0 = { nounwind readnone }
attributes #1 = { alwaysinline }
attributes #2 = { norecurse nounwind }
attributes #3 = { nounwind }
