; ModuleID = 'mcsema/test.proposed.ll'
source_filename = "llvm-link"
target datalayout = "e-m:e-i64:64-f80:128-n8:16:32:64-S128"
target triple = "x86_64-pc-linux-gnu-elf"

%union.anon = type { i64 }
%seg_400370__init_type = type <{ [23 x i8] }>
%seg_400390__text_type = type <{ [354 x i8] }>
%seg_4004f4__fini_type = type <{ [9 x i8] }>
%seg_400500__rodata_type = type <{ [4 x i8] }>
%seg_400504__eh_frame_hdr_type = type <{ [52 x i8] }>
%seg_400538__eh_frame_type = type <{ [208 x i8] }>
%seg_601018__data_type = type <{ [16 x i8] }>
%__bss_start_type = type <{ [8 x i8] }>
%seg_400504__fini_type = type <{ [9 x i8] }>
%seg_400510__rodata_type = type <{ [4 x i8] }>
%seg_400514__eh_frame_hdr_type = type <{ [52 x i8] }>
%seg_400548__eh_frame_type = type <{ [208 x i8] }>
%G_0x622088_type = type <{ [16 x i8] }>
%G_0x6220a8_type = type <{ [4 x i8] }>
%G_0x9c2d__rip__4255179__type = type <{ [16 x i8] }>
%G__0x419d48_type = type <{ [8 x i8] }>
%struct.State = type { %struct.ArchState, [32 x %union.VectorReg], %struct.ArithFlags, %union.anon, %struct.Segments, %struct.AddressSpace, %struct.GPR, %struct.X87Stack, %struct.MMX, %struct.FPUStatusFlags, %union.anon, %union.FPU, %struct.SegmentCaches }
%struct.ArchState = type { i32, i32, %union.anon }
%union.VectorReg = type { %union.vec512_t }
%union.vec512_t = type { %struct.uint64v8_t }
%struct.uint64v8_t = type { [8 x i64] }
%struct.ArithFlags = type { i8, i8, i8, i8, i8, i8, i8, i8, i8, i8, i8, i8, i8, i8, i8, i8 }
%struct.Segments = type { i16, %union.SegmentSelector, i16, %union.SegmentSelector, i16, %union.SegmentSelector, i16, %union.SegmentSelector, i16, %union.SegmentSelector, i16, %union.SegmentSelector }
%union.SegmentSelector = type { i16 }
%struct.AddressSpace = type { i64, %struct.Reg, i64, %struct.Reg, i64, %struct.Reg, i64, %struct.Reg, i64, %struct.Reg, i64, %struct.Reg }
%struct.Reg = type { %union.anon }
%struct.GPR = type { i64, %struct.Reg, i64, %struct.Reg, i64, %struct.Reg, i64, %struct.Reg, i64, %struct.Reg, i64, %struct.Reg, i64, %struct.Reg, i64, %struct.Reg, i64, %struct.Reg, i64, %struct.Reg, i64, %struct.Reg, i64, %struct.Reg, i64, %struct.Reg, i64, %struct.Reg, i64, %struct.Reg, i64, %struct.Reg, i64, %struct.Reg }
%struct.X87Stack = type { [8 x %struct.anon.3] }
%struct.anon.3 = type { i64, double }
%struct.MMX = type { [8 x %struct.anon.4] }
%struct.anon.4 = type { i64, %union.vec64_t }
%union.vec64_t = type { %struct.uint64v1_t }
%struct.uint64v1_t = type { [1 x i64] }
%struct.FPUStatusFlags = type { i8, i8, i8, i8, i8, i8, i8, i8, i8, i8, i8, i8, i8, i8, i8, i8, i8, i8, i8, i8, [4 x i8] }
%union.FPU = type { %struct.anon.13 }
%struct.anon.13 = type { %struct.FpuFXSAVE, [96 x i8] }
%struct.FpuFXSAVE = type { %union.SegmentSelector, %union.SegmentSelector, %union.FPUAbridgedTagWord, i8, i16, i32, %union.SegmentSelector, i16, i32, %union.SegmentSelector, i16, %union.FPUControlStatus, %union.FPUControlStatus, [8 x %struct.FPUStackElem], [16 x %union.vec128_t] }
%union.FPUAbridgedTagWord = type { i8 }
%union.FPUControlStatus = type { i32 }
%struct.FPUStackElem = type { %union.anon.11, [6 x i8] }
%union.anon.11 = type { %struct.float80_t }
%struct.float80_t = type { [10 x i8] }
%union.vec128_t = type { %struct.uint128v1_t }
%struct.uint128v1_t = type { [1 x i128] }
%struct.SegmentCaches = type { %struct.SegmentShadow, %struct.SegmentShadow, %struct.SegmentShadow, %struct.SegmentShadow, %struct.SegmentShadow, %struct.SegmentShadow }
%struct.SegmentShadow = type { %union.anon, i32, i32 }
%struct.Memory = type opaque
%"class.std::bitset" = type { %struct.uint64v4_t }
%struct.uint64v4_t = type { [4 x i64] }
%struct.anon.2 = type { i8, i8 }

@switch.table = private unnamed_addr constant [4 x i32] [i32 2048, i32 3072, i32 0, i32 1024]
@DR0 = external global i64, align 8
@DR1 = external global i64, align 8
@DR2 = external global i64, align 8
@DR3 = external global i64, align 8
@DR4 = external global i64, align 8
@DR5 = external global i64, align 8
@DR6 = external global i64, align 8
@DR7 = external global i64, align 8
@gCR0 = external global %union.anon, align 1
@gCR1 = external global %union.anon, align 1
@gCR2 = external global %union.anon, align 1
@gCR3 = external global %union.anon, align 1
@gCR4 = external global %union.anon, align 1
@gCR8 = external global %union.anon, align 1
@seg_400370__init = internal constant %seg_400370__init_type <{ [23 x i8] c"H\83\EC\08H\8B\05}\0C \00H\85\C0t\02\FF\D0H\83\C4\08\C3" }>
@seg_400390__text = internal constant %seg_400390__text_type <{ [354 x i8] c"1\EDI\89\D1^H\89\E2H\83\E4\F0PTI\C7\C0\F0\04@\00H\C7\C1\80\04@\00H\C7\C7x\04@\00\FF\156\0C \00\F4\0F\1FD\00\00\F3\C3f.\0F\1F\84\00\00\00\00\00\0F\1F@\00U\B8(\10`\00H=(\10`\00H\89\E5t\17\B8\00\00\00\00H\85\C0t\0D]\BF(\10`\00\FF\E0\0F\1FD\00\00]\C3f\0F\1FD\00\00\BE(\10`\00UH\81\EE(\10`\00H\89\E5H\C1\FE\03H\89\F0H\C1\E8?H\01\C6H\D1\FEt\15\B8\00\00\00\00H\85\C0t\0B]\BF(\10`\00\FF\E0\0F\1F\00]\C3f\0F\1FD\00\00\80=\E1\0B \00\00u\17UH\89\E5\E8~\FF\FF\FF\C6\05\CF\0B \00\01]\C3\0F\1FD\00\00\F3\C3\0F\1F@\00f.\0F\1F\84\00\00\00\00\00UH\89\E5]\EB\89\90U\C3f\0F\1FD\00\00AWAVI\89\D7AUATL\8D%\BE\09 \00UH\8D-\BE\09 \00SA\89\FDI\89\F6L)\E5H\83\EC\08H\C1\FD\03\E8\BF\FE\FF\FFH\85\EDt 1\DB\0F\1F\84\00\00\00\00\00L\89\FAL\89\F6D\89\EFA\FF\14\DCH\83\C3\01H9\DDu\EAH\83\C4\08[]A\5CA]A^A_\C3\90f.\0F\1F\84\00\00\00\00\00\F3\C3" }>
@seg_4004f4__fini = internal constant %seg_4004f4__fini_type <{ [9 x i8] c"H\83\EC\08H\83\C4\08\C3" }>
@seg_400500__rodata = internal constant %seg_400500__rodata_type <{ [4 x i8] c"\01\00\02\00" }>
@seg_400504__eh_frame_hdr = internal constant %seg_400504__eh_frame_hdr_type <{ [52 x i8] c"\01\1B\03;0\00\00\00\05\00\00\00\8C\FE\FF\FFL\00\00\00\BC\FE\FF\FFx\00\00\00t\FF\FF\FF\8C\00\00\00|\FF\FF\FF\A4\00\00\00\EC\FF\FF\FF\EC\00\00\00" }>
@seg_400538__eh_frame = internal constant %seg_400538__eh_frame_type <{ [208 x i8] c"\14\00\00\00\00\00\00\00\01zR\00\01x\10\01\1B\0C\07\08\90\01\07\10\10\00\00\00\1C\00\00\008\FE\FF\FF+\00\00\00\00\00\00\00\14\00\00\00\00\00\00\00\01zR\00\01x\10\01\1B\0C\07\08\90\01\00\00\10\00\00\00\1C\00\00\00<\FE\FF\FF\02\00\00\00\00\00\00\00\14\00\00\000\00\00\00\E0\FE\FF\FF\02\00\00\00\00\00\00\00\00\00\00\00D\00\00\00H\00\00\00\D0\FE\FF\FFe\00\00\00\00B\0E\10\8F\02B\0E\18\8E\03E\0E \8D\04B\0E(\8C\05H\0E0\86\06H\0E8\83\07M\0E@r\0E8A\0E0A\0E(B\0E B\0E\18B\0E\10B\0E\08\00\10\00\00\00\90\00\00\00\F8\FE\FF\FF\02\00\00\00\00\00\00\00\00\00\00\00" }>
@seg_601018__data = internal global %seg_601018__data_type zeroinitializer
@__bss_start = global %__bss_start_type zeroinitializer
@0 = internal global i1 false
@seg_400504__fini = internal constant %seg_400504__fini_type <{ [9 x i8] c"H\83\EC\08H\83\C4\08\C3" }>
@seg_400510__rodata = internal constant %seg_400510__rodata_type <{ [4 x i8] c"\01\00\02\00" }>
@seg_400514__eh_frame_hdr = internal constant %seg_400514__eh_frame_hdr_type <{ [52 x i8] c"\01\1B\03;0\00\00\00\05\00\00\00|\FE\FF\FFL\00\00\00\AC\FE\FF\FFx\00\00\00d\FF\FF\FF\8C\00\00\00|\FF\FF\FF\A4\00\00\00\EC\FF\FF\FF\EC\00\00\00" }>
@seg_400548__eh_frame = internal constant %seg_400548__eh_frame_type <{ [208 x i8] c"\14\00\00\00\00\00\00\00\01zR\00\01x\10\01\1B\0C\07\08\90\01\07\10\10\00\00\00\1C\00\00\00(\FE\FF\FF+\00\00\00\00\00\00\00\14\00\00\00\00\00\00\00\01zR\00\01x\10\01\1B\0C\07\08\90\01\00\00\10\00\00\00\1C\00\00\00,\FE\FF\FF\02\00\00\00\00\00\00\00\14\00\00\000\00\00\00\D0\FE\FF\FF\0A\00\00\00\00\00\00\00\00\00\00\00D\00\00\00H\00\00\00\D0\FE\FF\FFe\00\00\00\00B\0E\10\8F\02B\0E\18\8E\03E\0E \8D\04B\0E(\8C\05H\0E0\86\06H\0E8\83\07M\0E@r\0E8A\0E0A\0E(B\0E B\0E\18B\0E\10B\0E\08\00\10\00\00\00\90\00\00\00\F8\FE\FF\FF\02\00\00\00\00\00\00\00\00\00\00\00" }>
@G_0x622088 = global %G_0x622088_type zeroinitializer
@G_0x6220a8 = global %G_0x6220a8_type zeroinitializer
@G_0x9c2d__rip__4255179_ = global %G_0x9c2d__rip__4255179__type zeroinitializer
@G__0x419d48 = global %G__0x419d48_type zeroinitializer

declare %struct.Memory* @__remill_error(%struct.State* dereferenceable(3376), i64, %struct.Memory*)

declare i32 @__remill_fpu_exception_test_and_clear(i32, i32)

; Function Attrs: argmemonly nounwind
declare void @llvm.lifetime.start(i64, i8* nocapture) #0

; Function Attrs: argmemonly nounwind
declare void @llvm.lifetime.end(i64, i8* nocapture) #0

; Function Attrs: nounwind readnone
declare i32 @llvm.ctpop.i32(i32) #1

; Function Attrs: nounwind readnone
declare i32 @llvm.bswap.i32(i32) #1

; Function Attrs: nounwind readnone
declare i64 @llvm.bswap.i64(i64) #1

; Function Attrs: nounwind readnone
declare i32 @llvm.cttz.i32(i32, i1) #1

; Function Attrs: nounwind readnone
declare i64 @llvm.cttz.i64(i64, i1) #1

; Function Attrs: nounwind readnone
declare i32 @llvm.ctlz.i32(i32, i1) #1

; Function Attrs: nounwind readnone
declare i64 @llvm.ctlz.i64(i64, i1) #1

; Function Attrs: argmemonly nounwind
declare void @llvm.memcpy.p0i8.p0i8.i64(i8* nocapture writeonly, i8* nocapture readonly, i64, i32, i1) #0

; Function Attrs: nounwind readnone
declare double @llvm.nearbyint.f64(double) #1

; Function Attrs: nounwind readnone
declare double @llvm.fabs.f64(double) #1

; Function Attrs: nounwind readnone
declare <4 x double> @llvm.nearbyint.v4f64(<4 x double>) #1

; Function Attrs: nounwind readnone
declare <4 x double> @llvm.fabs.v4f64(<4 x double>) #1

; Function Attrs: nounwind readnone
declare double @llvm.trunc.f64(double) #1

; Function Attrs: nounwind readnone
declare <4 x double> @llvm.trunc.v4f64(<4 x double>) #1

; Function Attrs: nounwind readnone
declare float @llvm.nearbyint.f32(float) #1

; Function Attrs: nounwind readnone
declare float @llvm.fabs.f32(float) #1

; Function Attrs: nounwind readnone
declare <4 x float> @llvm.nearbyint.v4f32(<4 x float>) #1

; Function Attrs: nounwind readnone
declare <4 x float> @llvm.fabs.v4f32(<4 x float>) #1

; Function Attrs: nounwind readnone
declare float @llvm.trunc.f32(float) #1

; Function Attrs: nounwind readnone
declare <4 x float> @llvm.trunc.v4f32(<4 x float>) #1

; Function Attrs: argmemonly nounwind
declare void @llvm.memset.p0i8.i64(i8* nocapture writeonly, i8, i64, i32, i1) #0

declare double @atan(double) local_unnamed_addr

declare double @cos(double) local_unnamed_addr

declare double @sin(double) local_unnamed_addr

declare double @sqrt(double) local_unnamed_addr

declare double @tan(double) local_unnamed_addr

declare extern_weak x86_64_sysvcc i64 @abort()

declare extern_weak x86_64_sysvcc i64 @abs(i64)

declare extern_weak x86_64_sysvcc i64 @asin(i64)

declare extern_weak x86_64_sysvcc i64 @atof(i64)

declare extern_weak x86_64_sysvcc i64 @atoi(i64)

declare extern_weak x86_64_sysvcc i64 @atol(i64)

declare extern_weak x86_64_sysvcc i64 @calloc(i64, i64)

declare extern_weak x86_64_sysvcc i64 @clock()

declare extern_weak x86_64_sysvcc i64 @cosf(i64)

declare extern_weak x86_64_sysvcc i64 @exit(i64)

declare extern_weak x86_64_sysvcc i64 @exp(i64)

declare extern_weak x86_64_sysvcc i64 @fflush(i64)

declare extern_weak x86_64_sysvcc i64 @floor(i64)

declare extern_weak x86_64_sysvcc i64 @fprintf(i64, i64, i64, i64, i64, i64, i64, i64, i64, i64, i64, i64, i64, i64, i64, i64)

declare extern_weak x86_64_sysvcc i64 @fputs(i64, i64)

declare extern_weak x86_64_sysvcc i64 @free(i64)

declare extern_weak x86_64_sysvcc i64 @fwrite(i64, i64, i64, i64)

declare extern_weak x86_64_sysvcc i64 @getchar()

declare extern_weak x86_64_sysvcc i64 @gettimeofday(i64, i64)

declare extern_weak x86_64_sysvcc i64 @__isoc99_fscanf(i64, i64, i64, i64, i64, i64, i64, i64, i64, i64, i64, i64, i64, i64, i64, i64)

declare extern_weak x86_64_sysvcc i64 @__isoc99_scanf(i64, i64, i64, i64, i64, i64, i64, i64, i64, i64, i64, i64, i64, i64, i64, i64)

declare extern_weak x86_64_sysvcc i64 @__isoc99_sscanf(i64, i64, i64, i64, i64, i64, i64, i64, i64, i64, i64, i64, i64, i64, i64, i64)

declare extern_weak x86_64_sysvcc i64 @log(i64)

declare extern_weak x86_64_sysvcc i64 @lrand48()

declare extern_weak x86_64_sysvcc i64 @malloc(i64)

declare extern_weak x86_64_sysvcc i64 @memalign(i64, i64)

declare extern_weak x86_64_sysvcc i64 @memcpy(i64, i64, i64)

declare extern_weak x86_64_sysvcc i64 @memset(i64, i64, i64)

declare extern_weak x86_64_sysvcc i64 @perror(i64)

declare extern_weak x86_64_sysvcc i64 @posix_memalign(i64, i64, i64)

declare extern_weak x86_64_sysvcc i64 @pow(i64, i64)

declare extern_weak x86_64_sysvcc i64 @printf(i64, i64, i64, i64, i64, i64, i64, i64, i64, i64, i64, i64, i64, i64, i64, i64)

declare extern_weak x86_64_sysvcc i64 @putchar(i64)

declare extern_weak x86_64_sysvcc i64 @puts(i64)

declare extern_weak x86_64_sysvcc i64 @rand()

declare extern_weak x86_64_sysvcc i64 @random()

declare extern_weak x86_64_sysvcc i64 @realloc(i64, i64)

declare extern_weak x86_64_sysvcc i64 @seed48(i64)

declare extern_weak x86_64_sysvcc i64 @sinf(i64)

declare extern_weak x86_64_sysvcc i64 @sprintf(i64, i64, i64, i64, i64, i64, i64, i64, i64, i64, i64, i64, i64, i64, i64, i64)

declare extern_weak x86_64_sysvcc i64 @srand(i64)

declare extern_weak x86_64_sysvcc i64 @strcat(i64, i64)

declare extern_weak x86_64_sysvcc i64 @strcmp(i64, i64)

declare extern_weak x86_64_sysvcc i64 @strcpy(i64, i64)

declare extern_weak x86_64_sysvcc i64 @strdup(i64)

declare extern_weak x86_64_sysvcc i64 @strlen(i64)

declare extern_weak x86_64_sysvcc i64 @strncmp(i64, i64, i64)

declare extern_weak x86_64_sysvcc i64 @strtoll(i64, i64, i64)

declare extern_weak x86_64_sysvcc i64 @time(i64)

declare extern_weak x86_64_sysvcc i64 @ungetc(i64, i64)

declare extern_weak x86_64_sysvcc i64 @pthread_join(i64, i64)

declare extern_weak x86_64_sysvcc i64 @pthread_create(i64, i64, i64, i64)

declare %struct.Memory* @__remill_function_call(%struct.State* dereferenceable(3376), i64, %struct.Memory*)

declare %struct.Memory* @ext_sqrt(%struct.State* noalias dereferenceable(3376), i64, %struct.Memory* noalias)

declare %struct.Memory* @ext_atan(%struct.State* noalias dereferenceable(3376), i64, %struct.Memory* noalias)

declare %struct.Memory* @ext_cos(%struct.State* noalias dereferenceable(3376), i64, %struct.Memory* noalias)

declare %struct.Memory* @ext_tan(%struct.State* noalias dereferenceable(3376), i64, %struct.Memory* noalias)

declare %struct.Memory* @ext_sin(%struct.State* noalias dereferenceable(3376), i64, %struct.Memory* noalias)

declare %struct.Memory* @sub_40ed80._ZN25custom_multiply_constantsIdE8do_shiftEd(%struct.State* noalias dereferenceable(3376), i64, %struct.Memory* noalias readnone returned)

declare %struct.Memory* @sub_40e640._Z15tolerance_equalIdEbRT_S1_(%struct.State* noalias dereferenceable(3376), i64, %struct.Memory* noalias readnone returned)

; Function Attrs: alwaysinline
define %struct.Memory* @_Z17check_shifted_sumId25custom_multiply_constantsIdEEvT_(%struct.State* noalias, i64, %struct.Memory* noalias) #2 {
entry:
  %3 = getelementptr inbounds %struct.State, %struct.State* %0, i64 0, i32 6, i32 33, i32 0, i32 0
  store i64 %1, i64* %3, align 8
  %BRANCH_TAKEN = alloca i8, align 1
  store i8 0, i8* %BRANCH_TAKEN, align 1
  %MEMORY = alloca %struct.Memory*, align 8
  store %struct.Memory* %2, %struct.Memory** %MEMORY, align 8
  %loadMem_40eda0 = load %struct.Memory*, %struct.Memory** %MEMORY
  %4 = getelementptr inbounds %struct.State, %struct.State* %0, i32 0, i32 6
  %5 = getelementptr inbounds %struct.GPR, %struct.GPR* %4, i32 0, i32 33
  %6 = getelementptr inbounds %struct.Reg, %struct.Reg* %5, i32 0, i32 0
  %PC.i = bitcast %union.anon* %6 to i64*
  %7 = getelementptr inbounds %struct.State, %struct.State* %0, i32 0, i32 6
  %8 = getelementptr inbounds %struct.GPR, %struct.GPR* %7, i32 0, i32 15
  %9 = getelementptr inbounds %struct.Reg, %struct.Reg* %8, i32 0, i32 0
  %RBP.i = bitcast %union.anon* %9 to i64*
  %10 = load i64, i64* %RBP.i
  %11 = load i64, i64* %PC.i
  %12 = add i64 %11, 1
  store i64 %12, i64* %PC.i
  %13 = getelementptr inbounds %struct.State, %struct.State* %0, i64 0, i32 6, i32 13, i32 0, i32 0
  %14 = load i64, i64* %13, align 8
  %15 = add i64 %14, -8
  %16 = inttoptr i64 %15 to i64*
  store i64 %10, i64* %16
  store i64 %15, i64* %13, align 8
  store %struct.Memory* %loadMem_40eda0, %struct.Memory** %MEMORY
  %loadMem_40eda1 = load %struct.Memory*, %struct.Memory** %MEMORY
  %17 = getelementptr inbounds %struct.State, %struct.State* %0, i32 0, i32 6
  %18 = getelementptr inbounds %struct.GPR, %struct.GPR* %17, i32 0, i32 33
  %19 = getelementptr inbounds %struct.Reg, %struct.Reg* %18, i32 0, i32 0
  %PC.i7 = bitcast %union.anon* %19 to i64*
  %20 = getelementptr inbounds %struct.State, %struct.State* %0, i32 0, i32 6
  %21 = getelementptr inbounds %struct.GPR, %struct.GPR* %20, i32 0, i32 13
  %22 = getelementptr inbounds %struct.Reg, %struct.Reg* %21, i32 0, i32 0
  %RSP.i8 = bitcast %union.anon* %22 to i64*
  %23 = getelementptr inbounds %struct.State, %struct.State* %0, i32 0, i32 6
  %24 = getelementptr inbounds %struct.GPR, %struct.GPR* %23, i32 0, i32 15
  %25 = getelementptr inbounds %struct.Reg, %struct.Reg* %24, i32 0, i32 0
  %RBP.i9 = bitcast %union.anon* %25 to i64*
  %26 = load i64, i64* %RSP.i8
  %27 = load i64, i64* %PC.i7
  %28 = add i64 %27, 3
  store i64 %28, i64* %PC.i7
  store i64 %26, i64* %RBP.i9, align 8
  store %struct.Memory* %loadMem_40eda1, %struct.Memory** %MEMORY
  %loadMem_40eda4 = load %struct.Memory*, %struct.Memory** %MEMORY
  %29 = getelementptr inbounds %struct.State, %struct.State* %0, i32 0, i32 6
  %30 = getelementptr inbounds %struct.GPR, %struct.GPR* %29, i32 0, i32 33
  %31 = getelementptr inbounds %struct.Reg, %struct.Reg* %30, i32 0, i32 0
  %PC.i34 = bitcast %union.anon* %31 to i64*
  %32 = getelementptr inbounds %struct.State, %struct.State* %0, i32 0, i32 6
  %33 = getelementptr inbounds %struct.GPR, %struct.GPR* %32, i32 0, i32 13
  %34 = getelementptr inbounds %struct.Reg, %struct.Reg* %33, i32 0, i32 0
  %RSP.i35 = bitcast %union.anon* %34 to i64*
  %35 = load i64, i64* %RSP.i35
  %36 = load i64, i64* %PC.i34
  %37 = add i64 %36, 4
  store i64 %37, i64* %PC.i34
  %38 = sub i64 %35, 32
  store i64 %38, i64* %RSP.i35, align 8
  %39 = icmp ult i64 %35, 32
  %40 = zext i1 %39 to i8
  %41 = getelementptr inbounds %struct.State, %struct.State* %0, i64 0, i32 2, i32 1
  store i8 %40, i8* %41, align 1
  %42 = trunc i64 %38 to i32
  %43 = and i32 %42, 255
  %44 = call i32 @llvm.ctpop.i32(i32 %43)
  %45 = trunc i32 %44 to i8
  %46 = and i8 %45, 1
  %47 = xor i8 %46, 1
  %48 = getelementptr inbounds %struct.State, %struct.State* %0, i64 0, i32 2, i32 3
  store i8 %47, i8* %48, align 1
  %49 = xor i64 32, %35
  %50 = xor i64 %49, %38
  %51 = lshr i64 %50, 4
  %52 = trunc i64 %51 to i8
  %53 = and i8 %52, 1
  %54 = getelementptr inbounds %struct.State, %struct.State* %0, i64 0, i32 2, i32 5
  store i8 %53, i8* %54, align 1
  %55 = icmp eq i64 %38, 0
  %56 = zext i1 %55 to i8
  %57 = getelementptr inbounds %struct.State, %struct.State* %0, i64 0, i32 2, i32 7
  store i8 %56, i8* %57, align 1
  %58 = lshr i64 %38, 63
  %59 = trunc i64 %58 to i8
  %60 = getelementptr inbounds %struct.State, %struct.State* %0, i64 0, i32 2, i32 9
  store i8 %59, i8* %60, align 1
  %61 = lshr i64 %35, 63
  %62 = xor i64 %58, %61
  %63 = add i64 %62, %61
  %64 = icmp eq i64 %63, 2
  %65 = zext i1 %64 to i8
  %66 = getelementptr inbounds %struct.State, %struct.State* %0, i64 0, i32 2, i32 13
  store i8 %65, i8* %66, align 1
  store %struct.Memory* %loadMem_40eda4, %struct.Memory** %MEMORY
  %loadMem_40eda8 = load %struct.Memory*, %struct.Memory** %MEMORY
  %67 = getelementptr inbounds %struct.State, %struct.State* %0, i32 0, i32 6
  %68 = getelementptr inbounds %struct.GPR, %struct.GPR* %67, i32 0, i32 33
  %69 = getelementptr inbounds %struct.Reg, %struct.Reg* %68, i32 0, i32 0
  %PC.i31 = bitcast %union.anon* %69 to i64*
  %70 = getelementptr inbounds %struct.State, %struct.State* %0, i32 0, i32 6
  %71 = getelementptr inbounds %struct.GPR, %struct.GPR* %70, i32 0, i32 15
  %72 = getelementptr inbounds %struct.Reg, %struct.Reg* %71, i32 0, i32 0
  %RBP.i32 = bitcast %union.anon* %72 to i64*
  %73 = getelementptr inbounds %struct.State, %struct.State* %0, i32 0, i32 1
  %74 = getelementptr inbounds [32 x %union.VectorReg], [32 x %union.VectorReg]* %73, i64 0, i64 0
  %XMM0.i33 = bitcast %union.VectorReg* %74 to %union.vec128_t*
  %75 = load i64, i64* %RBP.i32
  %76 = sub i64 %75, 8
  %77 = bitcast %union.vec128_t* %XMM0.i33 to i8*
  %78 = load i64, i64* %PC.i31
  %79 = add i64 %78, 5
  store i64 %79, i64* %PC.i31
  %80 = bitcast i8* %77 to double*
  %81 = load double, double* %80, align 1
  %82 = inttoptr i64 %76 to double*
  store double %81, double* %82
  store %struct.Memory* %loadMem_40eda8, %struct.Memory** %MEMORY
  %loadMem_40edad = load %struct.Memory*, %struct.Memory** %MEMORY
  %83 = getelementptr inbounds %struct.State, %struct.State* %0, i32 0, i32 6
  %84 = getelementptr inbounds %struct.GPR, %struct.GPR* %83, i32 0, i32 33
  %85 = getelementptr inbounds %struct.Reg, %struct.Reg* %84, i32 0, i32 0
  %PC.i30 = bitcast %union.anon* %85 to i64*
  %86 = getelementptr inbounds %struct.State, %struct.State* %0, i32 0, i32 1
  %87 = getelementptr inbounds [32 x %union.VectorReg], [32 x %union.VectorReg]* %86, i64 0, i64 0
  %YMM0.i = bitcast %union.VectorReg* %87 to %"class.std::bitset"*
  %88 = bitcast %"class.std::bitset"* %YMM0.i to i8*
  %89 = load i64, i64* %PC.i30
  %90 = add i64 %89, 9
  store i64 %90, i64* %PC.i30
  %91 = load double, double* bitcast (%G_0x622088_type* @G_0x622088 to double*)
  %92 = bitcast i8* %88 to double*
  store double %91, double* %92, align 1
  %93 = getelementptr inbounds i8, i8* %88, i64 8
  %94 = bitcast i8* %93 to double*
  store double 0.000000e+00, double* %94, align 1
  store %struct.Memory* %loadMem_40edad, %struct.Memory** %MEMORY
  %loadMem1_40edb6 = load %struct.Memory*, %struct.Memory** %MEMORY
  %95 = getelementptr inbounds %struct.State, %struct.State* %0, i32 0, i32 6
  %96 = getelementptr inbounds %struct.GPR, %struct.GPR* %95, i32 0, i32 33
  %97 = getelementptr inbounds %struct.Reg, %struct.Reg* %96, i32 0, i32 0
  %PC.i29 = bitcast %union.anon* %97 to i64*
  %98 = load i64, i64* %PC.i29
  %99 = add i64 %98, -54
  %100 = load i64, i64* %PC.i29
  %101 = add i64 %100, 5
  %102 = load i64, i64* %PC.i29
  %103 = add i64 %102, 5
  store i64 %103, i64* %PC.i29
  %104 = getelementptr inbounds %struct.State, %struct.State* %0, i64 0, i32 6, i32 13, i32 0, i32 0
  %105 = load i64, i64* %104, align 8
  %106 = add i64 %105, -8
  %107 = inttoptr i64 %106 to i64*
  store i64 %101, i64* %107
  store i64 %106, i64* %104, align 8
  %108 = getelementptr inbounds %struct.State, %struct.State* %0, i64 0, i32 6, i32 33, i32 0, i32 0
  store i64 %99, i64* %108, align 8
  store %struct.Memory* %loadMem1_40edb6, %struct.Memory** %MEMORY
  %loadMem2_40edb6 = load %struct.Memory*, %struct.Memory** %MEMORY
  %loadPC_40edb6 = load i64, i64* %3
  %call2_40edb6 = call %struct.Memory* @sub_40ed80._ZN25custom_multiply_constantsIdE8do_shiftEd(%struct.State* %0, i64 %loadPC_40edb6, %struct.Memory* %loadMem2_40edb6)
  store %struct.Memory* %call2_40edb6, %struct.Memory** %MEMORY
  %loadMem_40edbb = load %struct.Memory*, %struct.Memory** %MEMORY
  %109 = getelementptr inbounds %struct.State, %struct.State* %0, i32 0, i32 6
  %110 = getelementptr inbounds %struct.GPR, %struct.GPR* %109, i32 0, i32 33
  %111 = getelementptr inbounds %struct.Reg, %struct.Reg* %110, i32 0, i32 0
  %PC.i26 = bitcast %union.anon* %111 to i64*
  %112 = getelementptr inbounds %struct.State, %struct.State* %0, i32 0, i32 6
  %113 = getelementptr inbounds %struct.GPR, %struct.GPR* %112, i32 0, i32 11
  %114 = getelementptr inbounds %struct.Reg, %struct.Reg* %113, i32 0, i32 0
  %RDI.i27 = bitcast %union.anon* %114 to i64*
  %115 = getelementptr inbounds %struct.State, %struct.State* %0, i32 0, i32 6
  %116 = getelementptr inbounds %struct.GPR, %struct.GPR* %115, i32 0, i32 15
  %117 = getelementptr inbounds %struct.Reg, %struct.Reg* %116, i32 0, i32 0
  %RBP.i28 = bitcast %union.anon* %117 to i64*
  %118 = load i64, i64* %RBP.i28
  %119 = sub i64 %118, 8
  %120 = load i64, i64* %PC.i26
  %121 = add i64 %120, 4
  store i64 %121, i64* %PC.i26
  store i64 %119, i64* %RDI.i27, align 8
  store %struct.Memory* %loadMem_40edbb, %struct.Memory** %MEMORY
  %loadMem_40edbf = load %struct.Memory*, %struct.Memory** %MEMORY
  %122 = getelementptr inbounds %struct.State, %struct.State* %0, i32 0, i32 6
  %123 = getelementptr inbounds %struct.GPR, %struct.GPR* %122, i32 0, i32 33
  %124 = getelementptr inbounds %struct.Reg, %struct.Reg* %123, i32 0, i32 0
  %PC.i23 = bitcast %union.anon* %124 to i64*
  %125 = getelementptr inbounds %struct.State, %struct.State* %0, i32 0, i32 6
  %126 = getelementptr inbounds %struct.GPR, %struct.GPR* %125, i32 0, i32 9
  %127 = getelementptr inbounds %struct.Reg, %struct.Reg* %126, i32 0, i32 0
  %RSI.i24 = bitcast %union.anon* %127 to i64*
  %128 = getelementptr inbounds %struct.State, %struct.State* %0, i32 0, i32 6
  %129 = getelementptr inbounds %struct.GPR, %struct.GPR* %128, i32 0, i32 15
  %130 = getelementptr inbounds %struct.Reg, %struct.Reg* %129, i32 0, i32 0
  %RBP.i25 = bitcast %union.anon* %130 to i64*
  %131 = load i64, i64* %RBP.i25
  %132 = sub i64 %131, 16
  %133 = load i64, i64* %PC.i23
  %134 = add i64 %133, 4
  store i64 %134, i64* %PC.i23
  store i64 %132, i64* %RSI.i24, align 8
  store %struct.Memory* %loadMem_40edbf, %struct.Memory** %MEMORY
  %loadMem_40edc3 = load %struct.Memory*, %struct.Memory** %MEMORY
  %135 = getelementptr inbounds %struct.State, %struct.State* %0, i32 0, i32 6
  %136 = getelementptr inbounds %struct.GPR, %struct.GPR* %135, i32 0, i32 33
  %137 = getelementptr inbounds %struct.Reg, %struct.Reg* %136, i32 0, i32 0
  %PC.i21 = bitcast %union.anon* %137 to i64*
  %138 = getelementptr inbounds %struct.State, %struct.State* %0, i32 0, i32 1
  %139 = getelementptr inbounds [32 x %union.VectorReg], [32 x %union.VectorReg]* %138, i64 0, i64 1
  %YMM1.i22 = bitcast %union.VectorReg* %139 to %"class.std::bitset"*
  %140 = bitcast %"class.std::bitset"* %YMM1.i22 to i8*
  %141 = load i64, i64* %PC.i21
  %142 = load i64, i64* %PC.i21
  %143 = add i64 %142, 8
  store i64 %143, i64* %PC.i21
  %144 = load double, double* bitcast (%G_0x9c2d__rip__4255179__type* @G_0x9c2d__rip__4255179_ to double*)
  %145 = bitcast i8* %140 to double*
  store double %144, double* %145, align 1
  %146 = getelementptr inbounds i8, i8* %140, i64 8
  %147 = bitcast i8* %146 to double*
  store double 0.000000e+00, double* %147, align 1
  store %struct.Memory* %loadMem_40edc3, %struct.Memory** %MEMORY
  %loadMem_40edcb = load %struct.Memory*, %struct.Memory** %MEMORY
  %148 = getelementptr inbounds %struct.State, %struct.State* %0, i32 0, i32 6
  %149 = getelementptr inbounds %struct.GPR, %struct.GPR* %148, i32 0, i32 33
  %150 = getelementptr inbounds %struct.Reg, %struct.Reg* %149, i32 0, i32 0
  %PC.i20 = bitcast %union.anon* %150 to i64*
  %151 = getelementptr inbounds %struct.State, %struct.State* %0, i32 0, i32 1
  %152 = getelementptr inbounds [32 x %union.VectorReg], [32 x %union.VectorReg]* %151, i64 0, i64 1
  %YMM1.i = bitcast %union.VectorReg* %152 to %"class.std::bitset"*
  %153 = getelementptr inbounds %struct.State, %struct.State* %0, i32 0, i32 1
  %154 = getelementptr inbounds [32 x %union.VectorReg], [32 x %union.VectorReg]* %153, i64 0, i64 0
  %XMM0.i = bitcast %union.VectorReg* %154 to %union.vec128_t*
  %155 = bitcast %"class.std::bitset"* %YMM1.i to i8*
  %156 = bitcast %"class.std::bitset"* %YMM1.i to i8*
  %157 = bitcast %union.vec128_t* %XMM0.i to i8*
  %158 = load i64, i64* %PC.i20
  %159 = add i64 %158, 4
  store i64 %159, i64* %PC.i20
  %160 = bitcast i8* %156 to double*
  %161 = load double, double* %160, align 1
  %162 = getelementptr inbounds i8, i8* %156, i64 8
  %163 = bitcast i8* %162 to i64*
  %164 = load i64, i64* %163, align 1
  %165 = bitcast i8* %157 to double*
  %166 = load double, double* %165, align 1
  %167 = fmul double %161, %166
  %168 = bitcast i8* %155 to double*
  store double %167, double* %168, align 1
  %169 = getelementptr inbounds i8, i8* %155, i64 8
  %170 = bitcast i8* %169 to i64*
  store i64 %164, i64* %170, align 1
  store %struct.Memory* %loadMem_40edcb, %struct.Memory** %MEMORY
  %loadMem_40edcf = load %struct.Memory*, %struct.Memory** %MEMORY
  %171 = getelementptr inbounds %struct.State, %struct.State* %0, i32 0, i32 6
  %172 = getelementptr inbounds %struct.GPR, %struct.GPR* %171, i32 0, i32 33
  %173 = getelementptr inbounds %struct.Reg, %struct.Reg* %172, i32 0, i32 0
  %PC.i18 = bitcast %union.anon* %173 to i64*
  %174 = getelementptr inbounds %struct.State, %struct.State* %0, i32 0, i32 6
  %175 = getelementptr inbounds %struct.GPR, %struct.GPR* %174, i32 0, i32 15
  %176 = getelementptr inbounds %struct.Reg, %struct.Reg* %175, i32 0, i32 0
  %RBP.i19 = bitcast %union.anon* %176 to i64*
  %177 = getelementptr inbounds %struct.State, %struct.State* %0, i32 0, i32 1
  %178 = getelementptr inbounds [32 x %union.VectorReg], [32 x %union.VectorReg]* %177, i64 0, i64 1
  %XMM1.i = bitcast %union.VectorReg* %178 to %union.vec128_t*
  %179 = load i64, i64* %RBP.i19
  %180 = sub i64 %179, 16
  %181 = bitcast %union.vec128_t* %XMM1.i to i8*
  %182 = load i64, i64* %PC.i18
  %183 = add i64 %182, 5
  store i64 %183, i64* %PC.i18
  %184 = bitcast i8* %181 to double*
  %185 = load double, double* %184, align 1
  %186 = inttoptr i64 %180 to double*
  store double %185, double* %186
  store %struct.Memory* %loadMem_40edcf, %struct.Memory** %MEMORY
  %loadMem1_40edd4 = load %struct.Memory*, %struct.Memory** %MEMORY
  %187 = getelementptr inbounds %struct.State, %struct.State* %0, i32 0, i32 6
  %188 = getelementptr inbounds %struct.GPR, %struct.GPR* %187, i32 0, i32 33
  %189 = getelementptr inbounds %struct.Reg, %struct.Reg* %188, i32 0, i32 0
  %PC.i17 = bitcast %union.anon* %189 to i64*
  %190 = load i64, i64* %PC.i17
  %191 = add i64 %190, -1940
  %192 = load i64, i64* %PC.i17
  %193 = add i64 %192, 5
  %194 = load i64, i64* %PC.i17
  %195 = add i64 %194, 5
  store i64 %195, i64* %PC.i17
  %196 = getelementptr inbounds %struct.State, %struct.State* %0, i64 0, i32 6, i32 13, i32 0, i32 0
  %197 = load i64, i64* %196, align 8
  %198 = add i64 %197, -8
  %199 = inttoptr i64 %198 to i64*
  store i64 %193, i64* %199
  store i64 %198, i64* %196, align 8
  %200 = getelementptr inbounds %struct.State, %struct.State* %0, i64 0, i32 6, i32 33, i32 0, i32 0
  store i64 %191, i64* %200, align 8
  store %struct.Memory* %loadMem1_40edd4, %struct.Memory** %MEMORY
  %loadMem2_40edd4 = load %struct.Memory*, %struct.Memory** %MEMORY
  %loadPC_40edd4 = load i64, i64* %3
  %call2_40edd4 = call %struct.Memory* @sub_40e640._Z15tolerance_equalIdEbRT_S1_(%struct.State* %0, i64 %loadPC_40edd4, %struct.Memory* %loadMem2_40edd4)
  store %struct.Memory* %call2_40edd4, %struct.Memory** %MEMORY
  %loadMem_40edd9 = load %struct.Memory*, %struct.Memory** %MEMORY
  %201 = getelementptr inbounds %struct.State, %struct.State* %0, i32 0, i32 6
  %202 = getelementptr inbounds %struct.GPR, %struct.GPR* %201, i32 0, i32 33
  %203 = getelementptr inbounds %struct.Reg, %struct.Reg* %202, i32 0, i32 0
  %PC.i15 = bitcast %union.anon* %203 to i64*
  %204 = getelementptr inbounds %struct.State, %struct.State* %0, i32 0, i32 6
  %205 = getelementptr inbounds %struct.GPR, %struct.GPR* %204, i32 0, i32 1
  %206 = getelementptr inbounds %struct.Reg, %struct.Reg* %205, i32 0, i32 0
  %207 = bitcast %union.anon* %206 to %struct.anon.2*
  %AL.i16 = getelementptr inbounds %struct.anon.2, %struct.anon.2* %207, i32 0, i32 0
  %208 = load i8, i8* %AL.i16
  %209 = zext i8 %208 to i64
  %210 = load i64, i64* %PC.i15
  %211 = add i64 %210, 2
  store i64 %211, i64* %PC.i15
  %212 = and i64 1, %209
  %213 = trunc i64 %212 to i8
  %214 = getelementptr inbounds %struct.State, %struct.State* %0, i64 0, i32 2, i32 1
  store i8 0, i8* %214, align 1
  %215 = trunc i64 %212 to i32
  %216 = and i32 %215, 255
  %217 = call i32 @llvm.ctpop.i32(i32 %216)
  %218 = trunc i32 %217 to i8
  %219 = and i8 %218, 1
  %220 = xor i8 %219, 1
  %221 = getelementptr inbounds %struct.State, %struct.State* %0, i64 0, i32 2, i32 3
  store i8 %220, i8* %221, align 1
  %222 = icmp eq i8 %213, 0
  %223 = zext i1 %222 to i8
  %224 = getelementptr inbounds %struct.State, %struct.State* %0, i64 0, i32 2, i32 7
  store i8 %223, i8* %224, align 1
  %225 = getelementptr inbounds %struct.State, %struct.State* %0, i64 0, i32 2, i32 9
  store i8 0, i8* %225, align 1
  %226 = getelementptr inbounds %struct.State, %struct.State* %0, i64 0, i32 2, i32 13
  store i8 0, i8* %226, align 1
  %227 = getelementptr inbounds %struct.State, %struct.State* %0, i64 0, i32 2, i32 5
  store i8 0, i8* %227, align 1
  store %struct.Memory* %loadMem_40edd9, %struct.Memory** %MEMORY
  %loadMem_40eddb = load %struct.Memory*, %struct.Memory** %MEMORY
  %228 = getelementptr inbounds %struct.State, %struct.State* %0, i32 0, i32 6
  %229 = getelementptr inbounds %struct.GPR, %struct.GPR* %228, i32 0, i32 33
  %230 = getelementptr inbounds %struct.Reg, %struct.Reg* %229, i32 0, i32 0
  %PC.i14 = bitcast %union.anon* %230 to i64*
  %231 = load i64, i64* %PC.i14
  %232 = add i64 %231, 33
  %233 = load i64, i64* %PC.i14
  %234 = add i64 %233, 6
  %235 = load i64, i64* %PC.i14
  %236 = add i64 %235, 6
  store i64 %236, i64* %PC.i14
  %237 = getelementptr inbounds %struct.State, %struct.State* %0, i64 0, i32 2, i32 7
  %238 = load i8, i8* %237, align 1
  %239 = icmp eq i8 %238, 0
  %240 = zext i1 %239 to i8
  store i8 %240, i8* %BRANCH_TAKEN, align 1
  %241 = getelementptr inbounds %struct.State, %struct.State* %0, i64 0, i32 6, i32 33, i32 0, i32 0
  %242 = select i1 %239, i64 %232, i64 %234
  store i64 %242, i64* %241, align 8
  store %struct.Memory* %loadMem_40eddb, %struct.Memory** %MEMORY
  %loadBr_40eddb = load i8, i8* %BRANCH_TAKEN
  %cmpBr_40eddb = icmp eq i8 %loadBr_40eddb, 1
  br i1 %cmpBr_40eddb, label %block_.L_40edfc, label %block_40ede1

block_40ede1:                                     ; preds = %entry
  %loadMem_40ede1 = load %struct.Memory*, %struct.Memory** %MEMORY
  %243 = getelementptr inbounds %struct.State, %struct.State* %0, i32 0, i32 6
  %244 = getelementptr inbounds %struct.GPR, %struct.GPR* %243, i32 0, i32 33
  %245 = getelementptr inbounds %struct.Reg, %struct.Reg* %244, i32 0, i32 0
  %PC.i13 = bitcast %union.anon* %245 to i64*
  %246 = getelementptr inbounds %struct.State, %struct.State* %0, i32 0, i32 6
  %247 = getelementptr inbounds %struct.GPR, %struct.GPR* %246, i32 0, i32 11
  %248 = getelementptr inbounds %struct.Reg, %struct.Reg* %247, i32 0, i32 0
  %RDI.i = bitcast %union.anon* %248 to i64*
  %249 = load i64, i64* %PC.i13
  %250 = add i64 %249, 10
  store i64 %250, i64* %PC.i13
  store i64 ptrtoint (%G__0x419d48_type* @G__0x419d48 to i64), i64* %RDI.i, align 8
  store %struct.Memory* %loadMem_40ede1, %struct.Memory** %MEMORY
  %loadMem_40edeb = load %struct.Memory*, %struct.Memory** %MEMORY
  %251 = getelementptr inbounds %struct.State, %struct.State* %0, i32 0, i32 6
  %252 = getelementptr inbounds %struct.GPR, %struct.GPR* %251, i32 0, i32 33
  %253 = getelementptr inbounds %struct.Reg, %struct.Reg* %252, i32 0, i32 0
  %PC.i12 = bitcast %union.anon* %253 to i64*
  %254 = getelementptr inbounds %struct.State, %struct.State* %0, i32 0, i32 6
  %255 = getelementptr inbounds %struct.GPR, %struct.GPR* %254, i32 0, i32 9
  %256 = getelementptr inbounds %struct.Reg, %struct.Reg* %255, i32 0, i32 0
  %RSI.i = bitcast %union.anon* %256 to i64*
  %257 = load i64, i64* %PC.i12
  %258 = add i64 %257, 7
  store i64 %258, i64* %PC.i12
  %259 = load i32, i32* bitcast (%G_0x6220a8_type* @G_0x6220a8 to i32*)
  %260 = zext i32 %259 to i64
  store i64 %260, i64* %RSI.i, align 8
  store %struct.Memory* %loadMem_40edeb, %struct.Memory** %MEMORY
  %loadMem_40edf2 = load %struct.Memory*, %struct.Memory** %MEMORY
  %261 = getelementptr inbounds %struct.State, %struct.State* %0, i32 0, i32 6
  %262 = getelementptr inbounds %struct.GPR, %struct.GPR* %261, i32 0, i32 33
  %263 = getelementptr inbounds %struct.Reg, %struct.Reg* %262, i32 0, i32 0
  %PC.i11 = bitcast %union.anon* %263 to i64*
  %264 = getelementptr inbounds %struct.State, %struct.State* %0, i32 0, i32 6
  %265 = getelementptr inbounds %struct.GPR, %struct.GPR* %264, i32 0, i32 1
  %266 = getelementptr inbounds %struct.Reg, %struct.Reg* %265, i32 0, i32 0
  %267 = bitcast %union.anon* %266 to %struct.anon.2*
  %AL.i = getelementptr inbounds %struct.anon.2, %struct.anon.2* %267, i32 0, i32 0
  %268 = load i64, i64* %PC.i11
  %269 = add i64 %268, 2
  store i64 %269, i64* %PC.i11
  store i8 0, i8* %AL.i, align 1
  store %struct.Memory* %loadMem_40edf2, %struct.Memory** %MEMORY
  %loadMem1_40edf4 = load %struct.Memory*, %struct.Memory** %MEMORY
  %270 = getelementptr inbounds %struct.State, %struct.State* %0, i32 0, i32 6
  %271 = getelementptr inbounds %struct.GPR, %struct.GPR* %270, i32 0, i32 33
  %272 = getelementptr inbounds %struct.Reg, %struct.Reg* %271, i32 0, i32 0
  %PC.i10 = bitcast %union.anon* %272 to i64*
  %273 = load i64, i64* %PC.i10
  %274 = add i64 %273, -59252
  %275 = load i64, i64* %PC.i10
  %276 = add i64 %275, 5
  %277 = load i64, i64* %PC.i10
  %278 = add i64 %277, 5
  store i64 %278, i64* %PC.i10
  %279 = getelementptr inbounds %struct.State, %struct.State* %0, i64 0, i32 6, i32 13, i32 0, i32 0
  %280 = load i64, i64* %279, align 8
  %281 = add i64 %280, -8
  %282 = inttoptr i64 %281 to i64*
  store i64 %276, i64* %282
  store i64 %281, i64* %279, align 8
  %283 = getelementptr inbounds %struct.State, %struct.State* %0, i64 0, i32 6, i32 33, i32 0, i32 0
  store i64 %274, i64* %283, align 8
  store %struct.Memory* %loadMem1_40edf4, %struct.Memory** %MEMORY
  %loadMem2_40edf4 = load %struct.Memory*, %struct.Memory** %MEMORY
  %loadPC_40edf4 = load i64, i64* %3
  %284 = call %struct.Memory* @__remill_function_call(%struct.State* %0, i64 ptrtoint (i64 (i64, i64, i64, i64, i64, i64, i64, i64, i64, i64, i64, i64, i64, i64, i64, i64)* @printf to i64), %struct.Memory* %loadMem2_40edf4)
  store %struct.Memory* %284, %struct.Memory** %MEMORY
  %loadMem_40edf9 = load %struct.Memory*, %struct.Memory** %MEMORY
  %285 = getelementptr inbounds %struct.State, %struct.State* %0, i32 0, i32 6
  %286 = getelementptr inbounds %struct.GPR, %struct.GPR* %285, i32 0, i32 33
  %287 = getelementptr inbounds %struct.Reg, %struct.Reg* %286, i32 0, i32 0
  %PC.i5 = bitcast %union.anon* %287 to i64*
  %288 = getelementptr inbounds %struct.State, %struct.State* %0, i32 0, i32 6
  %289 = getelementptr inbounds %struct.GPR, %struct.GPR* %288, i32 0, i32 1
  %290 = getelementptr inbounds %struct.Reg, %struct.Reg* %289, i32 0, i32 0
  %EAX.i = bitcast %union.anon* %290 to i32*
  %291 = getelementptr inbounds %struct.State, %struct.State* %0, i32 0, i32 6
  %292 = getelementptr inbounds %struct.GPR, %struct.GPR* %291, i32 0, i32 15
  %293 = getelementptr inbounds %struct.Reg, %struct.Reg* %292, i32 0, i32 0
  %RBP.i6 = bitcast %union.anon* %293 to i64*
  %294 = load i64, i64* %RBP.i6
  %295 = sub i64 %294, 20
  %296 = load i32, i32* %EAX.i
  %297 = zext i32 %296 to i64
  %298 = load i64, i64* %PC.i5
  %299 = add i64 %298, 3
  store i64 %299, i64* %PC.i5
  %300 = inttoptr i64 %295 to i32*
  store i32 %296, i32* %300
  store %struct.Memory* %loadMem_40edf9, %struct.Memory** %MEMORY
  br label %block_.L_40edfc

block_.L_40edfc:                                  ; preds = %block_40ede1, %entry
  %loadMem_40edfc = load %struct.Memory*, %struct.Memory** %MEMORY
  %301 = getelementptr inbounds %struct.State, %struct.State* %0, i32 0, i32 6
  %302 = getelementptr inbounds %struct.GPR, %struct.GPR* %301, i32 0, i32 33
  %303 = getelementptr inbounds %struct.Reg, %struct.Reg* %302, i32 0, i32 0
  %PC.i4 = bitcast %union.anon* %303 to i64*
  %304 = getelementptr inbounds %struct.State, %struct.State* %0, i32 0, i32 6
  %305 = getelementptr inbounds %struct.GPR, %struct.GPR* %304, i32 0, i32 13
  %306 = getelementptr inbounds %struct.Reg, %struct.Reg* %305, i32 0, i32 0
  %RSP.i = bitcast %union.anon* %306 to i64*
  %307 = load i64, i64* %RSP.i
  %308 = load i64, i64* %PC.i4
  %309 = add i64 %308, 4
  store i64 %309, i64* %PC.i4
  %310 = add i64 32, %307
  store i64 %310, i64* %RSP.i, align 8
  %311 = icmp ult i64 %310, %307
  %312 = icmp ult i64 %310, 32
  %313 = or i1 %311, %312
  %314 = zext i1 %313 to i8
  %315 = getelementptr inbounds %struct.State, %struct.State* %0, i64 0, i32 2, i32 1
  store i8 %314, i8* %315, align 1
  %316 = trunc i64 %310 to i32
  %317 = and i32 %316, 255
  %318 = call i32 @llvm.ctpop.i32(i32 %317)
  %319 = trunc i32 %318 to i8
  %320 = and i8 %319, 1
  %321 = xor i8 %320, 1
  %322 = getelementptr inbounds %struct.State, %struct.State* %0, i64 0, i32 2, i32 3
  store i8 %321, i8* %322, align 1
  %323 = xor i64 32, %307
  %324 = xor i64 %323, %310
  %325 = lshr i64 %324, 4
  %326 = trunc i64 %325 to i8
  %327 = and i8 %326, 1
  %328 = getelementptr inbounds %struct.State, %struct.State* %0, i64 0, i32 2, i32 5
  store i8 %327, i8* %328, align 1
  %329 = icmp eq i64 %310, 0
  %330 = zext i1 %329 to i8
  %331 = getelementptr inbounds %struct.State, %struct.State* %0, i64 0, i32 2, i32 7
  store i8 %330, i8* %331, align 1
  %332 = lshr i64 %310, 63
  %333 = trunc i64 %332 to i8
  %334 = getelementptr inbounds %struct.State, %struct.State* %0, i64 0, i32 2, i32 9
  store i8 %333, i8* %334, align 1
  %335 = lshr i64 %307, 63
  %336 = xor i64 %332, %335
  %337 = add i64 %336, %332
  %338 = icmp eq i64 %337, 2
  %339 = zext i1 %338 to i8
  %340 = getelementptr inbounds %struct.State, %struct.State* %0, i64 0, i32 2, i32 13
  store i8 %339, i8* %340, align 1
  store %struct.Memory* %loadMem_40edfc, %struct.Memory** %MEMORY
  %loadMem_40ee00 = load %struct.Memory*, %struct.Memory** %MEMORY
  %341 = getelementptr inbounds %struct.State, %struct.State* %0, i32 0, i32 6
  %342 = getelementptr inbounds %struct.GPR, %struct.GPR* %341, i32 0, i32 33
  %343 = getelementptr inbounds %struct.Reg, %struct.Reg* %342, i32 0, i32 0
  %PC.i2 = bitcast %union.anon* %343 to i64*
  %344 = getelementptr inbounds %struct.State, %struct.State* %0, i32 0, i32 6
  %345 = getelementptr inbounds %struct.GPR, %struct.GPR* %344, i32 0, i32 15
  %346 = getelementptr inbounds %struct.Reg, %struct.Reg* %345, i32 0, i32 0
  %RBP.i3 = bitcast %union.anon* %346 to i64*
  %347 = load i64, i64* %PC.i2
  %348 = add i64 %347, 1
  store i64 %348, i64* %PC.i2
  %349 = getelementptr inbounds %struct.State, %struct.State* %0, i64 0, i32 6, i32 13, i32 0, i32 0
  %350 = load i64, i64* %349, align 8
  %351 = add i64 %350, 8
  %352 = inttoptr i64 %350 to i64*
  %353 = load i64, i64* %352
  store i64 %353, i64* %RBP.i3, align 8
  store i64 %351, i64* %349, align 8
  store %struct.Memory* %loadMem_40ee00, %struct.Memory** %MEMORY
  %loadMem_40ee01 = load %struct.Memory*, %struct.Memory** %MEMORY
  %354 = getelementptr inbounds %struct.State, %struct.State* %0, i32 0, i32 6
  %355 = getelementptr inbounds %struct.GPR, %struct.GPR* %354, i32 0, i32 33
  %356 = getelementptr inbounds %struct.Reg, %struct.Reg* %355, i32 0, i32 0
  %PC.i1 = bitcast %union.anon* %356 to i64*
  %357 = load i64, i64* %PC.i1
  %358 = add i64 %357, 1
  store i64 %358, i64* %PC.i1
  %359 = getelementptr inbounds %struct.State, %struct.State* %0, i64 0, i32 6, i32 33, i32 0, i32 0
  %360 = getelementptr inbounds %struct.State, %struct.State* %0, i64 0, i32 6, i32 13, i32 0, i32 0
  %361 = load i64, i64* %360, align 8
  %362 = inttoptr i64 %361 to i64*
  %363 = load i64, i64* %362
  store i64 %363, i64* %359, align 8
  %364 = add i64 %361, 8
  store i64 %364, i64* %360, align 8
  store %struct.Memory* %loadMem_40ee01, %struct.Memory** %MEMORY
  ret %struct.Memory* %loadMem_40ee01
}

define %struct.Memory* @routine_pushq__rbp(%struct.State* dereferenceable(3376), i64, %struct.Memory*) {
block_400478:
  %3 = getelementptr inbounds %struct.State, %struct.State* %0, i32 0, i32 6
  %4 = getelementptr inbounds %struct.GPR, %struct.GPR* %3, i32 0, i32 33
  %5 = getelementptr inbounds %struct.Reg, %struct.Reg* %4, i32 0, i32 0
  %PC = bitcast %union.anon* %5 to i64*
  %6 = getelementptr inbounds %struct.State, %struct.State* %0, i32 0, i32 6
  %7 = getelementptr inbounds %struct.GPR, %struct.GPR* %6, i32 0, i32 15
  %8 = getelementptr inbounds %struct.Reg, %struct.Reg* %7, i32 0, i32 0
  %RBP = bitcast %union.anon* %8 to i64*
  %9 = load i64, i64* %RBP
  %10 = load i64, i64* %PC
  %11 = add i64 %10, 1
  store i64 %11, i64* %PC
  %12 = getelementptr inbounds %struct.State, %struct.State* %0, i64 0, i32 6, i32 13, i32 0, i32 0
  %13 = load i64, i64* %12, align 8
  %14 = add i64 %13, -8
  %15 = inttoptr i64 %14 to i64*
  store i64 %9, i64* %15
  store i64 %14, i64* %12, align 8
  ret %struct.Memory* %2
}

define %struct.Memory* @routine_movq__rsp___rbp(%struct.State* dereferenceable(3376), i64, %struct.Memory*) {
block_400478:
  %3 = getelementptr inbounds %struct.State, %struct.State* %0, i32 0, i32 6
  %4 = getelementptr inbounds %struct.GPR, %struct.GPR* %3, i32 0, i32 33
  %5 = getelementptr inbounds %struct.Reg, %struct.Reg* %4, i32 0, i32 0
  %PC = bitcast %union.anon* %5 to i64*
  %6 = getelementptr inbounds %struct.State, %struct.State* %0, i32 0, i32 6
  %7 = getelementptr inbounds %struct.GPR, %struct.GPR* %6, i32 0, i32 13
  %8 = getelementptr inbounds %struct.Reg, %struct.Reg* %7, i32 0, i32 0
  %RSP = bitcast %union.anon* %8 to i64*
  %9 = getelementptr inbounds %struct.State, %struct.State* %0, i32 0, i32 6
  %10 = getelementptr inbounds %struct.GPR, %struct.GPR* %9, i32 0, i32 15
  %11 = getelementptr inbounds %struct.Reg, %struct.Reg* %10, i32 0, i32 0
  %RBP = bitcast %union.anon* %11 to i64*
  %12 = load i64, i64* %RSP
  %13 = load i64, i64* %PC
  %14 = add i64 %13, 3
  store i64 %14, i64* %PC
  store i64 %12, i64* %RBP, align 8
  ret %struct.Memory* %2
}

define %struct.Memory* @routine_subq__0x20___rsp(%struct.State* dereferenceable(3376), i64, %struct.Memory*) {
block_400478:
  %3 = getelementptr inbounds %struct.State, %struct.State* %0, i32 0, i32 6
  %4 = getelementptr inbounds %struct.GPR, %struct.GPR* %3, i32 0, i32 33
  %5 = getelementptr inbounds %struct.Reg, %struct.Reg* %4, i32 0, i32 0
  %PC = bitcast %union.anon* %5 to i64*
  %6 = getelementptr inbounds %struct.State, %struct.State* %0, i32 0, i32 6
  %7 = getelementptr inbounds %struct.GPR, %struct.GPR* %6, i32 0, i32 13
  %8 = getelementptr inbounds %struct.Reg, %struct.Reg* %7, i32 0, i32 0
  %RSP = bitcast %union.anon* %8 to i64*
  %9 = load i64, i64* %RSP
  %10 = load i64, i64* %PC
  %11 = add i64 %10, 4
  store i64 %11, i64* %PC
  %12 = sub i64 %9, 32
  store i64 %12, i64* %RSP, align 8
  %13 = icmp ult i64 %9, 32
  %14 = zext i1 %13 to i8
  %15 = getelementptr inbounds %struct.State, %struct.State* %0, i64 0, i32 2, i32 1
  store i8 %14, i8* %15, align 1
  %16 = trunc i64 %12 to i32
  %17 = and i32 %16, 255
  %18 = call i32 @llvm.ctpop.i32(i32 %17)
  %19 = trunc i32 %18 to i8
  %20 = and i8 %19, 1
  %21 = xor i8 %20, 1
  %22 = getelementptr inbounds %struct.State, %struct.State* %0, i64 0, i32 2, i32 3
  store i8 %21, i8* %22, align 1
  %23 = xor i64 32, %9
  %24 = xor i64 %23, %12
  %25 = lshr i64 %24, 4
  %26 = trunc i64 %25 to i8
  %27 = and i8 %26, 1
  %28 = getelementptr inbounds %struct.State, %struct.State* %0, i64 0, i32 2, i32 5
  store i8 %27, i8* %28, align 1
  %29 = icmp eq i64 %12, 0
  %30 = zext i1 %29 to i8
  %31 = getelementptr inbounds %struct.State, %struct.State* %0, i64 0, i32 2, i32 7
  store i8 %30, i8* %31, align 1
  %32 = lshr i64 %12, 63
  %33 = trunc i64 %32 to i8
  %34 = getelementptr inbounds %struct.State, %struct.State* %0, i64 0, i32 2, i32 9
  store i8 %33, i8* %34, align 1
  %35 = lshr i64 %9, 63
  %36 = xor i64 %32, %35
  %37 = add i64 %36, %35
  %38 = icmp eq i64 %37, 2
  %39 = zext i1 %38 to i8
  %40 = getelementptr inbounds %struct.State, %struct.State* %0, i64 0, i32 2, i32 13
  store i8 %39, i8* %40, align 1
  ret %struct.Memory* %2
}

define %struct.Memory* @routine_movsd__xmm0__MINUS0x8__rbp_(%struct.State* dereferenceable(3376), i64, %struct.Memory*) {
block_400478:
  %3 = getelementptr inbounds %struct.State, %struct.State* %0, i32 0, i32 6
  %4 = getelementptr inbounds %struct.GPR, %struct.GPR* %3, i32 0, i32 33
  %5 = getelementptr inbounds %struct.Reg, %struct.Reg* %4, i32 0, i32 0
  %PC = bitcast %union.anon* %5 to i64*
  %6 = getelementptr inbounds %struct.State, %struct.State* %0, i32 0, i32 6
  %7 = getelementptr inbounds %struct.GPR, %struct.GPR* %6, i32 0, i32 15
  %8 = getelementptr inbounds %struct.Reg, %struct.Reg* %7, i32 0, i32 0
  %RBP = bitcast %union.anon* %8 to i64*
  %9 = getelementptr inbounds %struct.State, %struct.State* %0, i32 0, i32 1
  %10 = getelementptr inbounds [32 x %union.VectorReg], [32 x %union.VectorReg]* %9, i64 0, i64 0
  %XMM0 = bitcast %union.VectorReg* %10 to %union.vec128_t*
  %11 = load i64, i64* %RBP
  %12 = sub i64 %11, 8
  %13 = bitcast %union.vec128_t* %XMM0 to i8*
  %14 = load i64, i64* %PC
  %15 = add i64 %14, 5
  store i64 %15, i64* %PC
  %16 = bitcast i8* %13 to double*
  %17 = load double, double* %16, align 1
  %18 = inttoptr i64 %12 to double*
  store double %17, double* %18
  ret %struct.Memory* %2
}

define %struct.Memory* @routine_movsd_0x622088___xmm0(%struct.State* dereferenceable(3376), i64, %struct.Memory*) {
block_400478:
  %3 = getelementptr inbounds %struct.State, %struct.State* %0, i32 0, i32 6
  %4 = getelementptr inbounds %struct.GPR, %struct.GPR* %3, i32 0, i32 33
  %5 = getelementptr inbounds %struct.Reg, %struct.Reg* %4, i32 0, i32 0
  %PC = bitcast %union.anon* %5 to i64*
  %6 = getelementptr inbounds %struct.State, %struct.State* %0, i32 0, i32 1
  %7 = getelementptr inbounds [32 x %union.VectorReg], [32 x %union.VectorReg]* %6, i64 0, i64 0
  %YMM0 = bitcast %union.VectorReg* %7 to %"class.std::bitset"*
  %8 = bitcast %"class.std::bitset"* %YMM0 to i8*
  %9 = load i64, i64* %PC
  %10 = add i64 %9, 9
  store i64 %10, i64* %PC
  %11 = load double, double* bitcast (%G_0x622088_type* @G_0x622088 to double*)
  %12 = bitcast i8* %8 to double*
  store double %11, double* %12, align 1
  %13 = getelementptr inbounds i8, i8* %8, i64 8
  %14 = bitcast i8* %13 to double*
  store double 0.000000e+00, double* %14, align 1
  ret %struct.Memory* %2
}

define %struct.Memory* @routine_callq_._ZN25custom_multiply_constantsIdE8do_shiftEd(%struct.State* dereferenceable(3376), i64, %struct.Memory*, i64 %rel_off1, i64 %rel_off2, i64 %rel_off3) {
block_400478:
  %3 = getelementptr inbounds %struct.State, %struct.State* %0, i32 0, i32 6
  %4 = getelementptr inbounds %struct.GPR, %struct.GPR* %3, i32 0, i32 33
  %5 = getelementptr inbounds %struct.Reg, %struct.Reg* %4, i32 0, i32 0
  %PC = bitcast %union.anon* %5 to i64*
  %6 = load i64, i64* %PC
  %7 = add i64 %6, %rel_off1
  %8 = load i64, i64* %PC
  %9 = add i64 %8, %rel_off2
  %10 = load i64, i64* %PC
  %11 = add i64 %10, %rel_off3
  store i64 %11, i64* %PC
  %12 = getelementptr inbounds %struct.State, %struct.State* %0, i64 0, i32 6, i32 13, i32 0, i32 0
  %13 = load i64, i64* %12, align 8
  %14 = add i64 %13, -8
  %15 = inttoptr i64 %14 to i64*
  store i64 %9, i64* %15
  store i64 %14, i64* %12, align 8
  %16 = getelementptr inbounds %struct.State, %struct.State* %0, i64 0, i32 6, i32 33, i32 0, i32 0
  store i64 %7, i64* %16, align 8
  ret %struct.Memory* %2
}

define %struct.Memory* @routine_leaq_MINUS0x8__rbp____rdi(%struct.State* dereferenceable(3376), i64, %struct.Memory*) {
block_400478:
  %3 = getelementptr inbounds %struct.State, %struct.State* %0, i32 0, i32 6
  %4 = getelementptr inbounds %struct.GPR, %struct.GPR* %3, i32 0, i32 33
  %5 = getelementptr inbounds %struct.Reg, %struct.Reg* %4, i32 0, i32 0
  %PC = bitcast %union.anon* %5 to i64*
  %6 = getelementptr inbounds %struct.State, %struct.State* %0, i32 0, i32 6
  %7 = getelementptr inbounds %struct.GPR, %struct.GPR* %6, i32 0, i32 11
  %8 = getelementptr inbounds %struct.Reg, %struct.Reg* %7, i32 0, i32 0
  %RDI = bitcast %union.anon* %8 to i64*
  %9 = getelementptr inbounds %struct.State, %struct.State* %0, i32 0, i32 6
  %10 = getelementptr inbounds %struct.GPR, %struct.GPR* %9, i32 0, i32 15
  %11 = getelementptr inbounds %struct.Reg, %struct.Reg* %10, i32 0, i32 0
  %RBP = bitcast %union.anon* %11 to i64*
  %12 = load i64, i64* %RBP
  %13 = sub i64 %12, 8
  %14 = load i64, i64* %PC
  %15 = add i64 %14, 4
  store i64 %15, i64* %PC
  store i64 %13, i64* %RDI, align 8
  ret %struct.Memory* %2
}

define %struct.Memory* @routine_leaq_MINUS0x10__rbp____rsi(%struct.State* dereferenceable(3376), i64, %struct.Memory*) {
block_400478:
  %3 = getelementptr inbounds %struct.State, %struct.State* %0, i32 0, i32 6
  %4 = getelementptr inbounds %struct.GPR, %struct.GPR* %3, i32 0, i32 33
  %5 = getelementptr inbounds %struct.Reg, %struct.Reg* %4, i32 0, i32 0
  %PC = bitcast %union.anon* %5 to i64*
  %6 = getelementptr inbounds %struct.State, %struct.State* %0, i32 0, i32 6
  %7 = getelementptr inbounds %struct.GPR, %struct.GPR* %6, i32 0, i32 9
  %8 = getelementptr inbounds %struct.Reg, %struct.Reg* %7, i32 0, i32 0
  %RSI = bitcast %union.anon* %8 to i64*
  %9 = getelementptr inbounds %struct.State, %struct.State* %0, i32 0, i32 6
  %10 = getelementptr inbounds %struct.GPR, %struct.GPR* %9, i32 0, i32 15
  %11 = getelementptr inbounds %struct.Reg, %struct.Reg* %10, i32 0, i32 0
  %RBP = bitcast %union.anon* %11 to i64*
  %12 = load i64, i64* %RBP
  %13 = sub i64 %12, 16
  %14 = load i64, i64* %PC
  %15 = add i64 %14, 4
  store i64 %15, i64* %PC
  store i64 %13, i64* %RSI, align 8
  ret %struct.Memory* %2
}

define %struct.Memory* @routine_movsd_0x9c2d__rip____xmm1(%struct.State* dereferenceable(3376), i64, %struct.Memory*) {
block_400478:
  %3 = getelementptr inbounds %struct.State, %struct.State* %0, i32 0, i32 6
  %4 = getelementptr inbounds %struct.GPR, %struct.GPR* %3, i32 0, i32 33
  %5 = getelementptr inbounds %struct.Reg, %struct.Reg* %4, i32 0, i32 0
  %PC = bitcast %union.anon* %5 to i64*
  %6 = getelementptr inbounds %struct.State, %struct.State* %0, i32 0, i32 1
  %7 = getelementptr inbounds [32 x %union.VectorReg], [32 x %union.VectorReg]* %6, i64 0, i64 1
  %YMM1 = bitcast %union.VectorReg* %7 to %"class.std::bitset"*
  %8 = bitcast %"class.std::bitset"* %YMM1 to i8*
  %9 = load i64, i64* %PC
  %10 = ptrtoint %G_0x9c2d__rip__4255179__type* @G_0x9c2d__rip__4255179_ to i64
  %11 = load i64, i64* %PC
  %12 = add i64 %11, 8
  store i64 %12, i64* %PC
  %13 = inttoptr i64 %10 to double*
  %14 = load double, double* %13
  %15 = bitcast i8* %8 to double*
  store double %14, double* %15, align 1
  %16 = getelementptr inbounds i8, i8* %8, i64 8
  %17 = bitcast i8* %16 to double*
  store double 0.000000e+00, double* %17, align 1
  ret %struct.Memory* %2
}

define %struct.Memory* @routine_mulsd__xmm0___xmm1(%struct.State* dereferenceable(3376), i64, %struct.Memory*) {
block_400478:
  %3 = getelementptr inbounds %struct.State, %struct.State* %0, i32 0, i32 6
  %4 = getelementptr inbounds %struct.GPR, %struct.GPR* %3, i32 0, i32 33
  %5 = getelementptr inbounds %struct.Reg, %struct.Reg* %4, i32 0, i32 0
  %PC = bitcast %union.anon* %5 to i64*
  %6 = getelementptr inbounds %struct.State, %struct.State* %0, i32 0, i32 1
  %7 = getelementptr inbounds [32 x %union.VectorReg], [32 x %union.VectorReg]* %6, i64 0, i64 1
  %YMM1 = bitcast %union.VectorReg* %7 to %"class.std::bitset"*
  %8 = getelementptr inbounds %struct.State, %struct.State* %0, i32 0, i32 1
  %9 = getelementptr inbounds [32 x %union.VectorReg], [32 x %union.VectorReg]* %8, i64 0, i64 0
  %XMM0 = bitcast %union.VectorReg* %9 to %union.vec128_t*
  %10 = bitcast %"class.std::bitset"* %YMM1 to i8*
  %11 = bitcast %"class.std::bitset"* %YMM1 to i8*
  %12 = bitcast %union.vec128_t* %XMM0 to i8*
  %13 = load i64, i64* %PC
  %14 = add i64 %13, 4
  store i64 %14, i64* %PC
  %15 = bitcast i8* %11 to double*
  %16 = load double, double* %15, align 1
  %17 = getelementptr inbounds i8, i8* %11, i64 8
  %18 = bitcast i8* %17 to i64*
  %19 = load i64, i64* %18, align 1
  %20 = bitcast i8* %12 to double*
  %21 = load double, double* %20, align 1
  %22 = fmul double %16, %21
  %23 = bitcast i8* %10 to double*
  store double %22, double* %23, align 1
  %24 = getelementptr inbounds i8, i8* %10, i64 8
  %25 = bitcast i8* %24 to i64*
  store i64 %19, i64* %25, align 1
  ret %struct.Memory* %2
}

define %struct.Memory* @routine_movsd__xmm1__MINUS0x10__rbp_(%struct.State* dereferenceable(3376), i64, %struct.Memory*) {
block_400478:
  %3 = getelementptr inbounds %struct.State, %struct.State* %0, i32 0, i32 6
  %4 = getelementptr inbounds %struct.GPR, %struct.GPR* %3, i32 0, i32 33
  %5 = getelementptr inbounds %struct.Reg, %struct.Reg* %4, i32 0, i32 0
  %PC = bitcast %union.anon* %5 to i64*
  %6 = getelementptr inbounds %struct.State, %struct.State* %0, i32 0, i32 6
  %7 = getelementptr inbounds %struct.GPR, %struct.GPR* %6, i32 0, i32 15
  %8 = getelementptr inbounds %struct.Reg, %struct.Reg* %7, i32 0, i32 0
  %RBP = bitcast %union.anon* %8 to i64*
  %9 = getelementptr inbounds %struct.State, %struct.State* %0, i32 0, i32 1
  %10 = getelementptr inbounds [32 x %union.VectorReg], [32 x %union.VectorReg]* %9, i64 0, i64 1
  %XMM1 = bitcast %union.VectorReg* %10 to %union.vec128_t*
  %11 = load i64, i64* %RBP
  %12 = sub i64 %11, 16
  %13 = bitcast %union.vec128_t* %XMM1 to i8*
  %14 = load i64, i64* %PC
  %15 = add i64 %14, 5
  store i64 %15, i64* %PC
  %16 = bitcast i8* %13 to double*
  %17 = load double, double* %16, align 1
  %18 = inttoptr i64 %12 to double*
  store double %17, double* %18
  ret %struct.Memory* %2
}

define %struct.Memory* @routine_callq_._Z15tolerance_equalIdEbRT_S1_(%struct.State* dereferenceable(3376), i64, %struct.Memory*, i64 %rel_off1, i64 %rel_off2, i64 %rel_off3) {
block_400478:
  %3 = getelementptr inbounds %struct.State, %struct.State* %0, i32 0, i32 6
  %4 = getelementptr inbounds %struct.GPR, %struct.GPR* %3, i32 0, i32 33
  %5 = getelementptr inbounds %struct.Reg, %struct.Reg* %4, i32 0, i32 0
  %PC = bitcast %union.anon* %5 to i64*
  %6 = load i64, i64* %PC
  %7 = add i64 %6, %rel_off1
  %8 = load i64, i64* %PC
  %9 = add i64 %8, %rel_off2
  %10 = load i64, i64* %PC
  %11 = add i64 %10, %rel_off3
  store i64 %11, i64* %PC
  %12 = getelementptr inbounds %struct.State, %struct.State* %0, i64 0, i32 6, i32 13, i32 0, i32 0
  %13 = load i64, i64* %12, align 8
  %14 = add i64 %13, -8
  %15 = inttoptr i64 %14 to i64*
  store i64 %9, i64* %15
  store i64 %14, i64* %12, align 8
  %16 = getelementptr inbounds %struct.State, %struct.State* %0, i64 0, i32 6, i32 33, i32 0, i32 0
  store i64 %7, i64* %16, align 8
  ret %struct.Memory* %2
}

define %struct.Memory* @routine_testb__0x1___al(%struct.State* dereferenceable(3376), i64, %struct.Memory*) {
block_400478:
  %3 = getelementptr inbounds %struct.State, %struct.State* %0, i32 0, i32 6
  %4 = getelementptr inbounds %struct.GPR, %struct.GPR* %3, i32 0, i32 33
  %5 = getelementptr inbounds %struct.Reg, %struct.Reg* %4, i32 0, i32 0
  %PC = bitcast %union.anon* %5 to i64*
  %6 = getelementptr inbounds %struct.State, %struct.State* %0, i32 0, i32 6
  %7 = getelementptr inbounds %struct.GPR, %struct.GPR* %6, i32 0, i32 1
  %8 = getelementptr inbounds %struct.Reg, %struct.Reg* %7, i32 0, i32 0
  %9 = bitcast %union.anon* %8 to %struct.anon.2*
  %AL = getelementptr inbounds %struct.anon.2, %struct.anon.2* %9, i32 0, i32 0
  %10 = load i8, i8* %AL
  %11 = zext i8 %10 to i64
  %12 = load i64, i64* %PC
  %13 = add i64 %12, 2
  store i64 %13, i64* %PC
  %14 = and i64 1, %11
  %15 = trunc i64 %14 to i8
  %16 = getelementptr inbounds %struct.State, %struct.State* %0, i64 0, i32 2, i32 1
  store i8 0, i8* %16, align 1
  %17 = trunc i64 %14 to i32
  %18 = and i32 %17, 255
  %19 = call i32 @llvm.ctpop.i32(i32 %18)
  %20 = trunc i32 %19 to i8
  %21 = and i8 %20, 1
  %22 = xor i8 %21, 1
  %23 = getelementptr inbounds %struct.State, %struct.State* %0, i64 0, i32 2, i32 3
  store i8 %22, i8* %23, align 1
  %24 = icmp eq i8 %15, 0
  %25 = zext i1 %24 to i8
  %26 = getelementptr inbounds %struct.State, %struct.State* %0, i64 0, i32 2, i32 7
  store i8 %25, i8* %26, align 1
  %27 = getelementptr inbounds %struct.State, %struct.State* %0, i64 0, i32 2, i32 9
  store i8 0, i8* %27, align 1
  %28 = getelementptr inbounds %struct.State, %struct.State* %0, i64 0, i32 2, i32 13
  store i8 0, i8* %28, align 1
  %29 = getelementptr inbounds %struct.State, %struct.State* %0, i64 0, i32 2, i32 5
  store i8 0, i8* %29, align 1
  ret %struct.Memory* %2
}

define %struct.Memory* @routine_jne_.L_40edfc(%struct.State* dereferenceable(3376), i64, %struct.Memory*, i8* %BRANCH_TAKEN, i64 %rel_off1, i64 %rel_off2, i64 %rel_off3) {
block_400478:
  %3 = getelementptr inbounds %struct.State, %struct.State* %0, i32 0, i32 6
  %4 = getelementptr inbounds %struct.GPR, %struct.GPR* %3, i32 0, i32 33
  %5 = getelementptr inbounds %struct.Reg, %struct.Reg* %4, i32 0, i32 0
  %PC = bitcast %union.anon* %5 to i64*
  %6 = load i64, i64* %PC
  %7 = add i64 %6, %rel_off1
  %8 = load i64, i64* %PC
  %9 = add i64 %8, %rel_off2
  %10 = load i64, i64* %PC
  %11 = add i64 %10, %rel_off3
  store i64 %11, i64* %PC
  %12 = getelementptr inbounds %struct.State, %struct.State* %0, i64 0, i32 2, i32 7
  %13 = load i8, i8* %12, align 1
  %14 = icmp eq i8 %13, 0
  %15 = zext i1 %14 to i8
  store i8 %15, i8* %BRANCH_TAKEN, align 1
  %16 = getelementptr inbounds %struct.State, %struct.State* %0, i64 0, i32 6, i32 33, i32 0, i32 0
  %17 = select i1 %14, i64 %7, i64 %9
  store i64 %17, i64* %16, align 8
  ret %struct.Memory* %2
}

define %struct.Memory* @routine_movq__0x419d48___rdi(%struct.State* dereferenceable(3376), i64, %struct.Memory*) {
block_400478:
  %3 = getelementptr inbounds %struct.State, %struct.State* %0, i32 0, i32 6
  %4 = getelementptr inbounds %struct.GPR, %struct.GPR* %3, i32 0, i32 33
  %5 = getelementptr inbounds %struct.Reg, %struct.Reg* %4, i32 0, i32 0
  %PC = bitcast %union.anon* %5 to i64*
  %6 = getelementptr inbounds %struct.State, %struct.State* %0, i32 0, i32 6
  %7 = getelementptr inbounds %struct.GPR, %struct.GPR* %6, i32 0, i32 11
  %8 = getelementptr inbounds %struct.Reg, %struct.Reg* %7, i32 0, i32 0
  %RDI = bitcast %union.anon* %8 to i64*
  %9 = load i64, i64* %PC
  %10 = add i64 %9, 10
  store i64 %10, i64* %PC
  store i64 ptrtoint (%G__0x419d48_type* @G__0x419d48 to i64), i64* %RDI, align 8
  ret %struct.Memory* %2
}

define %struct.Memory* @routine_movl_0x6220a8___esi(%struct.State* dereferenceable(3376), i64, %struct.Memory*) {
block_400478:
  %3 = getelementptr inbounds %struct.State, %struct.State* %0, i32 0, i32 6
  %4 = getelementptr inbounds %struct.GPR, %struct.GPR* %3, i32 0, i32 33
  %5 = getelementptr inbounds %struct.Reg, %struct.Reg* %4, i32 0, i32 0
  %PC = bitcast %union.anon* %5 to i64*
  %6 = getelementptr inbounds %struct.State, %struct.State* %0, i32 0, i32 6
  %7 = getelementptr inbounds %struct.GPR, %struct.GPR* %6, i32 0, i32 9
  %8 = getelementptr inbounds %struct.Reg, %struct.Reg* %7, i32 0, i32 0
  %RSI = bitcast %union.anon* %8 to i64*
  %9 = load i64, i64* %PC
  %10 = add i64 %9, 7
  store i64 %10, i64* %PC
  %11 = load i32, i32* bitcast (%G_0x6220a8_type* @G_0x6220a8 to i32*)
  %12 = zext i32 %11 to i64
  store i64 %12, i64* %RSI, align 8
  ret %struct.Memory* %2
}

define %struct.Memory* @routine_movb__0x0___al(%struct.State* dereferenceable(3376), i64, %struct.Memory*) {
block_400478:
  %3 = getelementptr inbounds %struct.State, %struct.State* %0, i32 0, i32 6
  %4 = getelementptr inbounds %struct.GPR, %struct.GPR* %3, i32 0, i32 33
  %5 = getelementptr inbounds %struct.Reg, %struct.Reg* %4, i32 0, i32 0
  %PC = bitcast %union.anon* %5 to i64*
  %6 = getelementptr inbounds %struct.State, %struct.State* %0, i32 0, i32 6
  %7 = getelementptr inbounds %struct.GPR, %struct.GPR* %6, i32 0, i32 1
  %8 = getelementptr inbounds %struct.Reg, %struct.Reg* %7, i32 0, i32 0
  %9 = bitcast %union.anon* %8 to %struct.anon.2*
  %AL = getelementptr inbounds %struct.anon.2, %struct.anon.2* %9, i32 0, i32 0
  %10 = load i64, i64* %PC
  %11 = add i64 %10, 2
  store i64 %11, i64* %PC
  store i8 0, i8* %AL, align 1
  ret %struct.Memory* %2
}

define %struct.Memory* @routine_callq_.printf_plt(%struct.State* dereferenceable(3376), i64, %struct.Memory*, i64 %rel_off1, i64 %rel_off2, i64 %rel_off3) {
block_400478:
  %3 = getelementptr inbounds %struct.State, %struct.State* %0, i32 0, i32 6
  %4 = getelementptr inbounds %struct.GPR, %struct.GPR* %3, i32 0, i32 33
  %5 = getelementptr inbounds %struct.Reg, %struct.Reg* %4, i32 0, i32 0
  %PC = bitcast %union.anon* %5 to i64*
  %6 = load i64, i64* %PC
  %7 = add i64 %6, %rel_off1
  %8 = load i64, i64* %PC
  %9 = add i64 %8, %rel_off2
  %10 = load i64, i64* %PC
  %11 = add i64 %10, %rel_off3
  store i64 %11, i64* %PC
  %12 = getelementptr inbounds %struct.State, %struct.State* %0, i64 0, i32 6, i32 13, i32 0, i32 0
  %13 = load i64, i64* %12, align 8
  %14 = add i64 %13, -8
  %15 = inttoptr i64 %14 to i64*
  store i64 %9, i64* %15
  store i64 %14, i64* %12, align 8
  %16 = getelementptr inbounds %struct.State, %struct.State* %0, i64 0, i32 6, i32 33, i32 0, i32 0
  store i64 %7, i64* %16, align 8
  ret %struct.Memory* %2
}

define %struct.Memory* @routine_movl__eax__MINUS0x14__rbp_(%struct.State* dereferenceable(3376), i64, %struct.Memory*) {
block_400478:
  %3 = getelementptr inbounds %struct.State, %struct.State* %0, i32 0, i32 6
  %4 = getelementptr inbounds %struct.GPR, %struct.GPR* %3, i32 0, i32 33
  %5 = getelementptr inbounds %struct.Reg, %struct.Reg* %4, i32 0, i32 0
  %PC = bitcast %union.anon* %5 to i64*
  %6 = getelementptr inbounds %struct.State, %struct.State* %0, i32 0, i32 6
  %7 = getelementptr inbounds %struct.GPR, %struct.GPR* %6, i32 0, i32 1
  %8 = getelementptr inbounds %struct.Reg, %struct.Reg* %7, i32 0, i32 0
  %EAX = bitcast %union.anon* %8 to i32*
  %9 = getelementptr inbounds %struct.State, %struct.State* %0, i32 0, i32 6
  %10 = getelementptr inbounds %struct.GPR, %struct.GPR* %9, i32 0, i32 15
  %11 = getelementptr inbounds %struct.Reg, %struct.Reg* %10, i32 0, i32 0
  %RBP = bitcast %union.anon* %11 to i64*
  %12 = load i64, i64* %RBP
  %13 = sub i64 %12, 20
  %14 = load i32, i32* %EAX
  %15 = zext i32 %14 to i64
  %16 = load i64, i64* %PC
  %17 = add i64 %16, 3
  store i64 %17, i64* %PC
  %18 = inttoptr i64 %13 to i32*
  store i32 %14, i32* %18
  ret %struct.Memory* %2
}

define %struct.Memory* @routine_addq__0x20___rsp(%struct.State* dereferenceable(3376), i64, %struct.Memory*) {
block_400478:
  %3 = getelementptr inbounds %struct.State, %struct.State* %0, i32 0, i32 6
  %4 = getelementptr inbounds %struct.GPR, %struct.GPR* %3, i32 0, i32 33
  %5 = getelementptr inbounds %struct.Reg, %struct.Reg* %4, i32 0, i32 0
  %PC = bitcast %union.anon* %5 to i64*
  %6 = getelementptr inbounds %struct.State, %struct.State* %0, i32 0, i32 6
  %7 = getelementptr inbounds %struct.GPR, %struct.GPR* %6, i32 0, i32 13
  %8 = getelementptr inbounds %struct.Reg, %struct.Reg* %7, i32 0, i32 0
  %RSP = bitcast %union.anon* %8 to i64*
  %9 = load i64, i64* %RSP
  %10 = load i64, i64* %PC
  %11 = add i64 %10, 4
  store i64 %11, i64* %PC
  %12 = add i64 32, %9
  store i64 %12, i64* %RSP, align 8
  %13 = icmp ult i64 %12, %9
  %14 = icmp ult i64 %12, 32
  %15 = or i1 %13, %14
  %16 = zext i1 %15 to i8
  %17 = getelementptr inbounds %struct.State, %struct.State* %0, i64 0, i32 2, i32 1
  store i8 %16, i8* %17, align 1
  %18 = trunc i64 %12 to i32
  %19 = and i32 %18, 255
  %20 = call i32 @llvm.ctpop.i32(i32 %19)
  %21 = trunc i32 %20 to i8
  %22 = and i8 %21, 1
  %23 = xor i8 %22, 1
  %24 = getelementptr inbounds %struct.State, %struct.State* %0, i64 0, i32 2, i32 3
  store i8 %23, i8* %24, align 1
  %25 = xor i64 32, %9
  %26 = xor i64 %25, %12
  %27 = lshr i64 %26, 4
  %28 = trunc i64 %27 to i8
  %29 = and i8 %28, 1
  %30 = getelementptr inbounds %struct.State, %struct.State* %0, i64 0, i32 2, i32 5
  store i8 %29, i8* %30, align 1
  %31 = icmp eq i64 %12, 0
  %32 = zext i1 %31 to i8
  %33 = getelementptr inbounds %struct.State, %struct.State* %0, i64 0, i32 2, i32 7
  store i8 %32, i8* %33, align 1
  %34 = lshr i64 %12, 63
  %35 = trunc i64 %34 to i8
  %36 = getelementptr inbounds %struct.State, %struct.State* %0, i64 0, i32 2, i32 9
  store i8 %35, i8* %36, align 1
  %37 = lshr i64 %9, 63
  %38 = xor i64 %34, %37
  %39 = add i64 %38, %34
  %40 = icmp eq i64 %39, 2
  %41 = zext i1 %40 to i8
  %42 = getelementptr inbounds %struct.State, %struct.State* %0, i64 0, i32 2, i32 13
  store i8 %41, i8* %42, align 1
  ret %struct.Memory* %2
}

define %struct.Memory* @routine_popq__rbp(%struct.State* dereferenceable(3376), i64, %struct.Memory*) {
block_400478:
  %3 = getelementptr inbounds %struct.State, %struct.State* %0, i32 0, i32 6
  %4 = getelementptr inbounds %struct.GPR, %struct.GPR* %3, i32 0, i32 33
  %5 = getelementptr inbounds %struct.Reg, %struct.Reg* %4, i32 0, i32 0
  %PC = bitcast %union.anon* %5 to i64*
  %6 = getelementptr inbounds %struct.State, %struct.State* %0, i32 0, i32 6
  %7 = getelementptr inbounds %struct.GPR, %struct.GPR* %6, i32 0, i32 15
  %8 = getelementptr inbounds %struct.Reg, %struct.Reg* %7, i32 0, i32 0
  %RBP = bitcast %union.anon* %8 to i64*
  %9 = load i64, i64* %PC
  %10 = add i64 %9, 1
  store i64 %10, i64* %PC
  %11 = getelementptr inbounds %struct.State, %struct.State* %0, i64 0, i32 6, i32 13, i32 0, i32 0
  %12 = load i64, i64* %11, align 8
  %13 = add i64 %12, 8
  %14 = inttoptr i64 %12 to i64*
  %15 = load i64, i64* %14
  store i64 %15, i64* %RBP, align 8
  store i64 %13, i64* %11, align 8
  ret %struct.Memory* %2
}

define %struct.Memory* @routine_retq(%struct.State* dereferenceable(3376), i64, %struct.Memory*) {
block_400478:
  %3 = getelementptr inbounds %struct.State, %struct.State* %0, i32 0, i32 6
  %4 = getelementptr inbounds %struct.GPR, %struct.GPR* %3, i32 0, i32 33
  %5 = getelementptr inbounds %struct.Reg, %struct.Reg* %4, i32 0, i32 0
  %PC = bitcast %union.anon* %5 to i64*
  %6 = load i64, i64* %PC
  %7 = add i64 %6, 1
  store i64 %7, i64* %PC
  %8 = getelementptr inbounds %struct.State, %struct.State* %0, i64 0, i32 6, i32 33, i32 0, i32 0
  %9 = getelementptr inbounds %struct.State, %struct.State* %0, i64 0, i32 6, i32 13, i32 0, i32 0
  %10 = load i64, i64* %9, align 8
  %11 = inttoptr i64 %10 to i64*
  %12 = load i64, i64* %11
  store i64 %12, i64* %8, align 8
  %13 = add i64 %10, 8
  store i64 %13, i64* %9, align 8
  ret %struct.Memory* %2
}

attributes #0 = { argmemonly nounwind }
attributes #1 = { nounwind readnone }
attributes #2 = { alwaysinline }
