; ModuleID = 'mcsema/test.proposed.ll'
source_filename = "llvm-link"
target datalayout = "e-m:e-i64:64-f80:128-n8:16:32:64-S128"
target triple = "x86_64-pc-linux-gnu-elf"

%union.anon = type { i64 }
%seg_400388__init_type = type <{ [23 x i8] }>
%seg_4003a0__text_type = type <{ [354 x i8] }>
%seg_400504__fini_type = type <{ [9 x i8] }>
%seg_400510__rodata_type = type <{ [4 x i8] }>
%seg_400514__eh_frame_hdr_type = type <{ [52 x i8] }>
%seg_400548__eh_frame_type = type <{ [208 x i8] }>
%seg_601018__data_type = type <{ [16 x i8] }>
%__bss_start_type = type <{ [8 x i8] }>
%struct.State = type { %struct.ArchState, [32 x %union.VectorReg], %struct.ArithFlags, %union.anon, %struct.Segments, %struct.AddressSpace, %struct.GPR, %struct.X87Stack, %struct.MMX, %struct.FPUStatusFlags, %union.anon, %union.FPU, %struct.SegmentCaches }
%struct.ArchState = type { i32, i32, %union.anon }
%union.VectorReg = type { %union.vec512_t }
%union.vec512_t = type { %struct.uint64v8_t }
%struct.uint64v8_t = type { [8 x i64] }
%struct.ArithFlags = type { i8, i8, i8, i8, i8, i8, i8, i8, i8, i8, i8, i8, i8, i8, i8, i8 }
%struct.Segments = type { i16, %union.SegmentSelector, i16, %union.SegmentSelector, i16, %union.SegmentSelector, i16, %union.SegmentSelector, i16, %union.SegmentSelector, i16, %union.SegmentSelector }
%union.SegmentSelector = type { i16 }
%struct.AddressSpace = type { i64, %struct.Reg, i64, %struct.Reg, i64, %struct.Reg, i64, %struct.Reg, i64, %struct.Reg, i64, %struct.Reg }
%struct.Reg = type { %union.anon }
%struct.GPR = type { i64, %struct.Reg, i64, %struct.Reg, i64, %struct.Reg, i64, %struct.Reg, i64, %struct.Reg, i64, %struct.Reg, i64, %struct.Reg, i64, %struct.Reg, i64, %struct.Reg, i64, %struct.Reg, i64, %struct.Reg, i64, %struct.Reg, i64, %struct.Reg, i64, %struct.Reg, i64, %struct.Reg, i64, %struct.Reg, i64, %struct.Reg }
%struct.X87Stack = type { [8 x %struct.anon.3] }
%struct.anon.3 = type { i64, double }
%struct.MMX = type { [8 x %struct.anon.4] }
%struct.anon.4 = type { i64, %union.vec64_t }
%union.vec64_t = type { %struct.uint64v1_t }
%struct.uint64v1_t = type { [1 x i64] }
%struct.FPUStatusFlags = type { i8, i8, i8, i8, i8, i8, i8, i8, i8, i8, i8, i8, i8, i8, i8, i8, i8, i8, i8, i8, [4 x i8] }
%union.FPU = type { %struct.anon.13 }
%struct.anon.13 = type { %struct.FpuFXSAVE, [96 x i8] }
%struct.FpuFXSAVE = type { %union.SegmentSelector, %union.SegmentSelector, %union.FPUAbridgedTagWord, i8, i16, i32, %union.SegmentSelector, i16, i32, %union.SegmentSelector, i16, %union.FPUControlStatus, %union.FPUControlStatus, [8 x %struct.FPUStackElem], [16 x %union.vec128_t] }
%union.FPUAbridgedTagWord = type { i8 }
%union.FPUControlStatus = type { i32 }
%struct.FPUStackElem = type { %union.anon.11, [6 x i8] }
%union.anon.11 = type { %struct.float80_t }
%struct.float80_t = type { [10 x i8] }
%union.vec128_t = type { %struct.uint128v1_t }
%struct.uint128v1_t = type { [1 x i128] }
%struct.SegmentCaches = type { %struct.SegmentShadow, %struct.SegmentShadow, %struct.SegmentShadow, %struct.SegmentShadow, %struct.SegmentShadow, %struct.SegmentShadow }
%struct.SegmentShadow = type { %union.anon, i32, i32 }
%struct.Memory = type opaque

@switch.table = private unnamed_addr constant [4 x i32] [i32 2048, i32 3072, i32 0, i32 1024]
@DR0 = external global i64, align 8
@DR1 = external global i64, align 8
@DR2 = external global i64, align 8
@DR3 = external global i64, align 8
@DR4 = external global i64, align 8
@DR5 = external global i64, align 8
@DR6 = external global i64, align 8
@DR7 = external global i64, align 8
@gCR0 = external global %union.anon, align 1
@gCR1 = external global %union.anon, align 1
@gCR2 = external global %union.anon, align 1
@gCR3 = external global %union.anon, align 1
@gCR4 = external global %union.anon, align 1
@gCR8 = external global %union.anon, align 1
@seg_400388__init = internal constant %seg_400388__init_type <{ [23 x i8] c"H\83\EC\08H\8B\05e\0C \00H\85\C0t\02\FF\D0H\83\C4\08\C3" }>
@seg_4003a0__text = internal constant %seg_4003a0__text_type <{ [354 x i8] c"1\EDI\89\D1^H\89\E2H\83\E4\F0PTI\C7\C0\00\05@\00H\C7\C1\90\04@\00H\C7\C7\88\04@\00\FF\15&\0C \00\F4\0F\1FD\00\00\F3\C3f.\0F\1F\84\00\00\00\00\00\0F\1F@\00U\B8(\10`\00H=(\10`\00H\89\E5t\17\B8\00\00\00\00H\85\C0t\0D]\BF(\10`\00\FF\E0\0F\1FD\00\00]\C3f\0F\1FD\00\00\BE(\10`\00UH\81\EE(\10`\00H\89\E5H\C1\FE\03H\89\F0H\C1\E8?H\01\C6H\D1\FEt\15\B8\00\00\00\00H\85\C0t\0B]\BF(\10`\00\FF\E0\0F\1F\00]\C3f\0F\1FD\00\00\80=\D1\0B \00\00u\17UH\89\E5\E8~\FF\FF\FF\C6\05\BF\0B \00\01]\C3\0F\1FD\00\00\F3\C3\0F\1F@\00f.\0F\1F\84\00\00\00\00\00UH\89\E5]\EB\89\90U\C3f\0F\1FD\00\00AWAVI\89\D7AUATL\8D%\9E\09 \00UH\8D-\9E\09 \00SA\89\FDI\89\F6L)\E5H\83\EC\08H\C1\FD\03\E8\C7\FE\FF\FFH\85\EDt 1\DB\0F\1F\84\00\00\00\00\00L\89\FAL\89\F6D\89\EFA\FF\14\DCH\83\C3\01H9\DDu\EAH\83\C4\08[]A\5CA]A^A_\C3\90f.\0F\1F\84\00\00\00\00\00\F3\C3" }>
@seg_400504__fini = internal constant %seg_400504__fini_type <{ [9 x i8] c"H\83\EC\08H\83\C4\08\C3" }>
@seg_400510__rodata = internal constant %seg_400510__rodata_type <{ [4 x i8] c"\01\00\02\00" }>
@seg_400514__eh_frame_hdr = internal constant %seg_400514__eh_frame_hdr_type <{ [52 x i8] c"\01\1B\03;0\00\00\00\05\00\00\00\8C\FE\FF\FFL\00\00\00\BC\FE\FF\FFx\00\00\00t\FF\FF\FF\8C\00\00\00|\FF\FF\FF\A4\00\00\00\EC\FF\FF\FF\EC\00\00\00" }>
@seg_400548__eh_frame = internal constant %seg_400548__eh_frame_type <{ [208 x i8] c"\14\00\00\00\00\00\00\00\01zR\00\01x\10\01\1B\0C\07\08\90\01\07\10\10\00\00\00\1C\00\00\008\FE\FF\FF+\00\00\00\00\00\00\00\14\00\00\00\00\00\00\00\01zR\00\01x\10\01\1B\0C\07\08\90\01\00\00\10\00\00\00\1C\00\00\00<\FE\FF\FF\02\00\00\00\00\00\00\00\14\00\00\000\00\00\00\E0\FE\FF\FF\02\00\00\00\00\00\00\00\00\00\00\00D\00\00\00H\00\00\00\D0\FE\FF\FFe\00\00\00\00B\0E\10\8F\02B\0E\18\8E\03E\0E \8D\04B\0E(\8C\05H\0E0\86\06H\0E8\83\07M\0E@r\0E8A\0E0A\0E(B\0E B\0E\18B\0E\10B\0E\08\00\10\00\00\00\90\00\00\00\F8\FE\FF\FF\02\00\00\00\00\00\00\00\00\00\00\00" }>
@seg_601018__data = internal global %seg_601018__data_type zeroinitializer
@__bss_start = global %__bss_start_type zeroinitializer
@0 = internal global i1 false

declare %struct.Memory* @__remill_error(%struct.State* dereferenceable(3376), i64, %struct.Memory*)

declare i32 @__remill_fpu_exception_test_and_clear(i32, i32)

; Function Attrs: argmemonly nounwind
declare void @llvm.lifetime.start(i64, i8* nocapture) #0

; Function Attrs: argmemonly nounwind
declare void @llvm.lifetime.end(i64, i8* nocapture) #0

; Function Attrs: nounwind readnone
declare i32 @llvm.ctpop.i32(i32) #1

; Function Attrs: nounwind readnone
declare i32 @llvm.bswap.i32(i32) #1

; Function Attrs: nounwind readnone
declare i64 @llvm.bswap.i64(i64) #1

; Function Attrs: nounwind readnone
declare i32 @llvm.cttz.i32(i32, i1) #1

; Function Attrs: nounwind readnone
declare i64 @llvm.cttz.i64(i64, i1) #1

; Function Attrs: nounwind readnone
declare i32 @llvm.ctlz.i32(i32, i1) #1

; Function Attrs: nounwind readnone
declare i64 @llvm.ctlz.i64(i64, i1) #1

; Function Attrs: argmemonly nounwind
declare void @llvm.memcpy.p0i8.p0i8.i64(i8* nocapture writeonly, i8* nocapture readonly, i64, i32, i1) #0

; Function Attrs: nounwind readnone
declare double @llvm.nearbyint.f64(double) #1

; Function Attrs: nounwind readnone
declare double @llvm.fabs.f64(double) #1

; Function Attrs: nounwind readnone
declare <4 x double> @llvm.nearbyint.v4f64(<4 x double>) #1

; Function Attrs: nounwind readnone
declare <4 x double> @llvm.fabs.v4f64(<4 x double>) #1

; Function Attrs: nounwind readnone
declare double @llvm.trunc.f64(double) #1

; Function Attrs: nounwind readnone
declare <4 x double> @llvm.trunc.v4f64(<4 x double>) #1

; Function Attrs: nounwind readnone
declare float @llvm.nearbyint.f32(float) #1

; Function Attrs: nounwind readnone
declare float @llvm.fabs.f32(float) #1

; Function Attrs: nounwind readnone
declare <4 x float> @llvm.nearbyint.v4f32(<4 x float>) #1

; Function Attrs: nounwind readnone
declare <4 x float> @llvm.fabs.v4f32(<4 x float>) #1

; Function Attrs: nounwind readnone
declare float @llvm.trunc.f32(float) #1

; Function Attrs: nounwind readnone
declare <4 x float> @llvm.trunc.v4f32(<4 x float>) #1

; Function Attrs: argmemonly nounwind
declare void @llvm.memset.p0i8.i64(i8* nocapture writeonly, i8, i64, i32, i1) #0

declare double @atan(double) local_unnamed_addr

declare double @cos(double) local_unnamed_addr

declare double @sin(double) local_unnamed_addr

declare double @sqrt(double) local_unnamed_addr

declare double @tan(double) local_unnamed_addr

declare extern_weak x86_64_sysvcc i64 @abort()

declare extern_weak x86_64_sysvcc i64 @abs(i64)

declare extern_weak x86_64_sysvcc i64 @asin(i64)

declare extern_weak x86_64_sysvcc i64 @atof(i64)

declare extern_weak x86_64_sysvcc i64 @atoi(i64)

declare extern_weak x86_64_sysvcc i64 @atol(i64)

declare extern_weak x86_64_sysvcc i64 @calloc(i64, i64)

declare extern_weak x86_64_sysvcc i64 @clock()

declare extern_weak x86_64_sysvcc i64 @cosf(i64)

declare extern_weak x86_64_sysvcc i64 @exit(i64)

declare extern_weak x86_64_sysvcc i64 @exp(i64)

declare extern_weak x86_64_sysvcc i64 @fflush(i64)

declare extern_weak x86_64_sysvcc i64 @floor(i64)

declare extern_weak x86_64_sysvcc i64 @fprintf(i64, i64, i64, i64, i64, i64, i64, i64, i64, i64, i64, i64, i64, i64, i64, i64)

declare extern_weak x86_64_sysvcc i64 @fputs(i64, i64)

declare extern_weak x86_64_sysvcc i64 @free(i64)

declare extern_weak x86_64_sysvcc i64 @fwrite(i64, i64, i64, i64)

declare extern_weak x86_64_sysvcc i64 @getchar()

declare extern_weak x86_64_sysvcc i64 @gettimeofday(i64, i64)

declare extern_weak x86_64_sysvcc i64 @__isoc99_fscanf(i64, i64, i64, i64, i64, i64, i64, i64, i64, i64, i64, i64, i64, i64, i64, i64)

declare extern_weak x86_64_sysvcc i64 @__isoc99_scanf(i64, i64, i64, i64, i64, i64, i64, i64, i64, i64, i64, i64, i64, i64, i64, i64)

declare extern_weak x86_64_sysvcc i64 @__isoc99_sscanf(i64, i64, i64, i64, i64, i64, i64, i64, i64, i64, i64, i64, i64, i64, i64, i64)

declare extern_weak x86_64_sysvcc i64 @log(i64)

declare extern_weak x86_64_sysvcc i64 @lrand48()

declare extern_weak x86_64_sysvcc i64 @malloc(i64)

declare extern_weak x86_64_sysvcc i64 @memalign(i64, i64)

declare extern_weak x86_64_sysvcc i64 @memcpy(i64, i64, i64)

declare extern_weak x86_64_sysvcc i64 @memset(i64, i64, i64)

declare extern_weak x86_64_sysvcc i64 @perror(i64)

declare extern_weak x86_64_sysvcc i64 @posix_memalign(i64, i64, i64)

declare extern_weak x86_64_sysvcc i64 @pow(i64, i64)

declare extern_weak x86_64_sysvcc i64 @printf(i64, i64, i64, i64, i64, i64, i64, i64, i64, i64, i64, i64, i64, i64, i64, i64)

declare extern_weak x86_64_sysvcc i64 @putchar(i64)

declare extern_weak x86_64_sysvcc i64 @puts(i64)

declare extern_weak x86_64_sysvcc i64 @rand()

declare extern_weak x86_64_sysvcc i64 @random()

declare extern_weak x86_64_sysvcc i64 @realloc(i64, i64)

declare extern_weak x86_64_sysvcc i64 @seed48(i64)

declare extern_weak x86_64_sysvcc i64 @sinf(i64)

declare extern_weak x86_64_sysvcc i64 @sprintf(i64, i64, i64, i64, i64, i64, i64, i64, i64, i64, i64, i64, i64, i64, i64, i64)

declare extern_weak x86_64_sysvcc i64 @srand(i64)

declare extern_weak x86_64_sysvcc i64 @strcat(i64, i64)

declare extern_weak x86_64_sysvcc i64 @strcmp(i64, i64)

declare extern_weak x86_64_sysvcc i64 @strcpy(i64, i64)

declare extern_weak x86_64_sysvcc i64 @strdup(i64)

declare extern_weak x86_64_sysvcc i64 @strlen(i64)

declare extern_weak x86_64_sysvcc i64 @strncmp(i64, i64, i64)

declare extern_weak x86_64_sysvcc i64 @strtoll(i64, i64, i64)

declare extern_weak x86_64_sysvcc i64 @time(i64)

declare extern_weak x86_64_sysvcc i64 @ungetc(i64, i64)

declare extern_weak x86_64_sysvcc i64 @pthread_join(i64, i64)

declare extern_weak x86_64_sysvcc i64 @pthread_create(i64, i64, i64, i64)

declare %struct.Memory* @__remill_function_call(%struct.State* dereferenceable(3376), i64, %struct.Memory*)

declare %struct.Memory* @ext_sqrt(%struct.State* noalias dereferenceable(3376), i64, %struct.Memory* noalias)

declare %struct.Memory* @ext_atan(%struct.State* noalias dereferenceable(3376), i64, %struct.Memory* noalias)

declare %struct.Memory* @ext_cos(%struct.State* noalias dereferenceable(3376), i64, %struct.Memory* noalias)

declare %struct.Memory* @ext_tan(%struct.State* noalias dereferenceable(3376), i64, %struct.Memory* noalias)

declare %struct.Memory* @ext_sin(%struct.State* noalias dereferenceable(3376), i64, %struct.Memory* noalias)

; Function Attrs: alwaysinline
define %struct.Memory* @FreeShadowMatrix(%struct.State* noalias, i64, %struct.Memory* noalias) #2 {
entry:
  %3 = getelementptr inbounds %struct.State, %struct.State* %0, i64 0, i32 6, i32 33, i32 0, i32 0
  store i64 %1, i64* %3, align 8
  %BRANCH_TAKEN = alloca i8, align 1
  store i8 0, i8* %BRANCH_TAKEN, align 1
  %MEMORY = alloca %struct.Memory*, align 8
  store %struct.Memory* %2, %struct.Memory** %MEMORY, align 8
  %loadMem_407d00 = load %struct.Memory*, %struct.Memory** %MEMORY
  %4 = getelementptr inbounds %struct.State, %struct.State* %0, i32 0, i32 6
  %5 = getelementptr inbounds %struct.GPR, %struct.GPR* %4, i32 0, i32 33
  %6 = getelementptr inbounds %struct.Reg, %struct.Reg* %5, i32 0, i32 0
  %PC.i = bitcast %union.anon* %6 to i64*
  %7 = getelementptr inbounds %struct.State, %struct.State* %0, i32 0, i32 6
  %8 = getelementptr inbounds %struct.GPR, %struct.GPR* %7, i32 0, i32 15
  %9 = getelementptr inbounds %struct.Reg, %struct.Reg* %8, i32 0, i32 0
  %RBP.i = bitcast %union.anon* %9 to i64*
  %10 = load i64, i64* %RBP.i
  %11 = load i64, i64* %PC.i
  %12 = add i64 %11, 1
  store i64 %12, i64* %PC.i
  %13 = getelementptr inbounds %struct.State, %struct.State* %0, i64 0, i32 6, i32 13, i32 0, i32 0
  %14 = load i64, i64* %13, align 8
  %15 = add i64 %14, -8
  %16 = inttoptr i64 %15 to i64*
  store i64 %10, i64* %16
  store i64 %15, i64* %13, align 8
  store %struct.Memory* %loadMem_407d00, %struct.Memory** %MEMORY
  %loadMem_407d01 = load %struct.Memory*, %struct.Memory** %MEMORY
  %17 = getelementptr inbounds %struct.State, %struct.State* %0, i32 0, i32 6
  %18 = getelementptr inbounds %struct.GPR, %struct.GPR* %17, i32 0, i32 33
  %19 = getelementptr inbounds %struct.Reg, %struct.Reg* %18, i32 0, i32 0
  %PC.i5 = bitcast %union.anon* %19 to i64*
  %20 = getelementptr inbounds %struct.State, %struct.State* %0, i32 0, i32 6
  %21 = getelementptr inbounds %struct.GPR, %struct.GPR* %20, i32 0, i32 13
  %22 = getelementptr inbounds %struct.Reg, %struct.Reg* %21, i32 0, i32 0
  %RSP.i6 = bitcast %union.anon* %22 to i64*
  %23 = getelementptr inbounds %struct.State, %struct.State* %0, i32 0, i32 6
  %24 = getelementptr inbounds %struct.GPR, %struct.GPR* %23, i32 0, i32 15
  %25 = getelementptr inbounds %struct.Reg, %struct.Reg* %24, i32 0, i32 0
  %RBP.i7 = bitcast %union.anon* %25 to i64*
  %26 = load i64, i64* %RSP.i6
  %27 = load i64, i64* %PC.i5
  %28 = add i64 %27, 3
  store i64 %28, i64* %PC.i5
  store i64 %26, i64* %RBP.i7, align 8
  store %struct.Memory* %loadMem_407d01, %struct.Memory** %MEMORY
  %loadMem_407d04 = load %struct.Memory*, %struct.Memory** %MEMORY
  %29 = getelementptr inbounds %struct.State, %struct.State* %0, i32 0, i32 6
  %30 = getelementptr inbounds %struct.GPR, %struct.GPR* %29, i32 0, i32 33
  %31 = getelementptr inbounds %struct.Reg, %struct.Reg* %30, i32 0, i32 0
  %PC.i11 = bitcast %union.anon* %31 to i64*
  %32 = getelementptr inbounds %struct.State, %struct.State* %0, i32 0, i32 6
  %33 = getelementptr inbounds %struct.GPR, %struct.GPR* %32, i32 0, i32 13
  %34 = getelementptr inbounds %struct.Reg, %struct.Reg* %33, i32 0, i32 0
  %RSP.i12 = bitcast %union.anon* %34 to i64*
  %35 = load i64, i64* %RSP.i12
  %36 = load i64, i64* %PC.i11
  %37 = add i64 %36, 4
  store i64 %37, i64* %PC.i11
  %38 = sub i64 %35, 16
  store i64 %38, i64* %RSP.i12, align 8
  %39 = icmp ult i64 %35, 16
  %40 = zext i1 %39 to i8
  %41 = getelementptr inbounds %struct.State, %struct.State* %0, i64 0, i32 2, i32 1
  store i8 %40, i8* %41, align 1
  %42 = trunc i64 %38 to i32
  %43 = and i32 %42, 255
  %44 = call i32 @llvm.ctpop.i32(i32 %43)
  %45 = trunc i32 %44 to i8
  %46 = and i8 %45, 1
  %47 = xor i8 %46, 1
  %48 = getelementptr inbounds %struct.State, %struct.State* %0, i64 0, i32 2, i32 3
  store i8 %47, i8* %48, align 1
  %49 = xor i64 16, %35
  %50 = xor i64 %49, %38
  %51 = lshr i64 %50, 4
  %52 = trunc i64 %51 to i8
  %53 = and i8 %52, 1
  %54 = getelementptr inbounds %struct.State, %struct.State* %0, i64 0, i32 2, i32 5
  store i8 %53, i8* %54, align 1
  %55 = icmp eq i64 %38, 0
  %56 = zext i1 %55 to i8
  %57 = getelementptr inbounds %struct.State, %struct.State* %0, i64 0, i32 2, i32 7
  store i8 %56, i8* %57, align 1
  %58 = lshr i64 %38, 63
  %59 = trunc i64 %58 to i8
  %60 = getelementptr inbounds %struct.State, %struct.State* %0, i64 0, i32 2, i32 9
  store i8 %59, i8* %60, align 1
  %61 = lshr i64 %35, 63
  %62 = xor i64 %58, %61
  %63 = add i64 %62, %61
  %64 = icmp eq i64 %63, 2
  %65 = zext i1 %64 to i8
  %66 = getelementptr inbounds %struct.State, %struct.State* %0, i64 0, i32 2, i32 13
  store i8 %65, i8* %66, align 1
  store %struct.Memory* %loadMem_407d04, %struct.Memory** %MEMORY
  %loadMem_407d08 = load %struct.Memory*, %struct.Memory** %MEMORY
  %67 = getelementptr inbounds %struct.State, %struct.State* %0, i32 0, i32 6
  %68 = getelementptr inbounds %struct.GPR, %struct.GPR* %67, i32 0, i32 33
  %69 = getelementptr inbounds %struct.Reg, %struct.Reg* %68, i32 0, i32 0
  %PC.i19 = bitcast %union.anon* %69 to i64*
  %70 = getelementptr inbounds %struct.State, %struct.State* %0, i32 0, i32 6
  %71 = getelementptr inbounds %struct.GPR, %struct.GPR* %70, i32 0, i32 11
  %72 = getelementptr inbounds %struct.Reg, %struct.Reg* %71, i32 0, i32 0
  %RDI.i20 = bitcast %union.anon* %72 to i64*
  %73 = getelementptr inbounds %struct.State, %struct.State* %0, i32 0, i32 6
  %74 = getelementptr inbounds %struct.GPR, %struct.GPR* %73, i32 0, i32 15
  %75 = getelementptr inbounds %struct.Reg, %struct.Reg* %74, i32 0, i32 0
  %RBP.i21 = bitcast %union.anon* %75 to i64*
  %76 = load i64, i64* %RBP.i21
  %77 = sub i64 %76, 8
  %78 = load i64, i64* %RDI.i20
  %79 = load i64, i64* %PC.i19
  %80 = add i64 %79, 4
  store i64 %80, i64* %PC.i19
  %81 = inttoptr i64 %77 to i64*
  store i64 %78, i64* %81
  store %struct.Memory* %loadMem_407d08, %struct.Memory** %MEMORY
  %loadMem_407d0c = load %struct.Memory*, %struct.Memory** %MEMORY
  %82 = getelementptr inbounds %struct.State, %struct.State* %0, i32 0, i32 6
  %83 = getelementptr inbounds %struct.GPR, %struct.GPR* %82, i32 0, i32 33
  %84 = getelementptr inbounds %struct.Reg, %struct.Reg* %83, i32 0, i32 0
  %PC.i28 = bitcast %union.anon* %84 to i64*
  %85 = getelementptr inbounds %struct.State, %struct.State* %0, i32 0, i32 6
  %86 = getelementptr inbounds %struct.GPR, %struct.GPR* %85, i32 0, i32 11
  %87 = getelementptr inbounds %struct.Reg, %struct.Reg* %86, i32 0, i32 0
  %RDI.i29 = bitcast %union.anon* %87 to i64*
  %88 = getelementptr inbounds %struct.State, %struct.State* %0, i32 0, i32 6
  %89 = getelementptr inbounds %struct.GPR, %struct.GPR* %88, i32 0, i32 15
  %90 = getelementptr inbounds %struct.Reg, %struct.Reg* %89, i32 0, i32 0
  %RBP.i30 = bitcast %union.anon* %90 to i64*
  %91 = load i64, i64* %RBP.i30
  %92 = sub i64 %91, 8
  %93 = load i64, i64* %PC.i28
  %94 = add i64 %93, 4
  store i64 %94, i64* %PC.i28
  %95 = inttoptr i64 %92 to i64*
  %96 = load i64, i64* %95
  store i64 %96, i64* %RDI.i29, align 8
  store %struct.Memory* %loadMem_407d0c, %struct.Memory** %MEMORY
  %loadMem_407d10 = load %struct.Memory*, %struct.Memory** %MEMORY
  %97 = getelementptr inbounds %struct.State, %struct.State* %0, i32 0, i32 6
  %98 = getelementptr inbounds %struct.GPR, %struct.GPR* %97, i32 0, i32 33
  %99 = getelementptr inbounds %struct.Reg, %struct.Reg* %98, i32 0, i32 0
  %PC.i37 = bitcast %union.anon* %99 to i64*
  %100 = getelementptr inbounds %struct.State, %struct.State* %0, i32 0, i32 6
  %101 = getelementptr inbounds %struct.GPR, %struct.GPR* %100, i32 0, i32 11
  %102 = getelementptr inbounds %struct.Reg, %struct.Reg* %101, i32 0, i32 0
  %RDI.i38 = bitcast %union.anon* %102 to i64*
  %103 = load i64, i64* %RDI.i38
  %104 = load i64, i64* %PC.i37
  %105 = add i64 %104, 3
  store i64 %105, i64* %PC.i37
  %106 = inttoptr i64 %103 to i64*
  %107 = load i64, i64* %106
  store i64 %107, i64* %RDI.i38, align 8
  store %struct.Memory* %loadMem_407d10, %struct.Memory** %MEMORY
  %loadMem_407d13 = load %struct.Memory*, %struct.Memory** %MEMORY
  %108 = getelementptr inbounds %struct.State, %struct.State* %0, i32 0, i32 6
  %109 = getelementptr inbounds %struct.GPR, %struct.GPR* %108, i32 0, i32 33
  %110 = getelementptr inbounds %struct.Reg, %struct.Reg* %109, i32 0, i32 0
  %PC.i45 = bitcast %union.anon* %110 to i64*
  %111 = getelementptr inbounds %struct.State, %struct.State* %0, i32 0, i32 6
  %112 = getelementptr inbounds %struct.GPR, %struct.GPR* %111, i32 0, i32 11
  %113 = getelementptr inbounds %struct.Reg, %struct.Reg* %112, i32 0, i32 0
  %RDI.i46 = bitcast %union.anon* %113 to i64*
  %114 = load i64, i64* %RDI.i46
  %115 = load i64, i64* %PC.i45
  %116 = add i64 %115, 3
  store i64 %116, i64* %PC.i45
  %117 = inttoptr i64 %114 to i64*
  %118 = load i64, i64* %117
  store i64 %118, i64* %RDI.i46, align 8
  store %struct.Memory* %loadMem_407d13, %struct.Memory** %MEMORY
  %loadMem1_407d16 = load %struct.Memory*, %struct.Memory** %MEMORY
  %119 = getelementptr inbounds %struct.State, %struct.State* %0, i32 0, i32 6
  %120 = getelementptr inbounds %struct.GPR, %struct.GPR* %119, i32 0, i32 33
  %121 = getelementptr inbounds %struct.Reg, %struct.Reg* %120, i32 0, i32 0
  %PC.i53 = bitcast %union.anon* %121 to i64*
  %122 = load i64, i64* %PC.i53
  %123 = add i64 %122, -27030
  %124 = load i64, i64* %PC.i53
  %125 = add i64 %124, 5
  %126 = load i64, i64* %PC.i53
  %127 = add i64 %126, 5
  store i64 %127, i64* %PC.i53
  %128 = getelementptr inbounds %struct.State, %struct.State* %0, i64 0, i32 6, i32 13, i32 0, i32 0
  %129 = load i64, i64* %128, align 8
  %130 = add i64 %129, -8
  %131 = inttoptr i64 %130 to i64*
  store i64 %125, i64* %131
  store i64 %130, i64* %128, align 8
  %132 = getelementptr inbounds %struct.State, %struct.State* %0, i64 0, i32 6, i32 33, i32 0, i32 0
  store i64 %123, i64* %132, align 8
  store %struct.Memory* %loadMem1_407d16, %struct.Memory** %MEMORY
  %loadMem2_407d16 = load %struct.Memory*, %struct.Memory** %MEMORY
  %loadPC_407d16 = load i64, i64* %3
  %133 = call %struct.Memory* @__remill_function_call(%struct.State* %0, i64 ptrtoint (i64 (i64)* @free to i64), %struct.Memory* %loadMem2_407d16)
  store %struct.Memory* %133, %struct.Memory** %MEMORY
  %loadMem_407d1b = load %struct.Memory*, %struct.Memory** %MEMORY
  %134 = getelementptr inbounds %struct.State, %struct.State* %0, i32 0, i32 6
  %135 = getelementptr inbounds %struct.GPR, %struct.GPR* %134, i32 0, i32 33
  %136 = getelementptr inbounds %struct.Reg, %struct.Reg* %135, i32 0, i32 0
  %PC.i62 = bitcast %union.anon* %136 to i64*
  %137 = getelementptr inbounds %struct.State, %struct.State* %0, i32 0, i32 6
  %138 = getelementptr inbounds %struct.GPR, %struct.GPR* %137, i32 0, i32 11
  %139 = getelementptr inbounds %struct.Reg, %struct.Reg* %138, i32 0, i32 0
  %RDI.i63 = bitcast %union.anon* %139 to i64*
  %140 = getelementptr inbounds %struct.State, %struct.State* %0, i32 0, i32 6
  %141 = getelementptr inbounds %struct.GPR, %struct.GPR* %140, i32 0, i32 15
  %142 = getelementptr inbounds %struct.Reg, %struct.Reg* %141, i32 0, i32 0
  %RBP.i64 = bitcast %union.anon* %142 to i64*
  %143 = load i64, i64* %RBP.i64
  %144 = sub i64 %143, 8
  %145 = load i64, i64* %PC.i62
  %146 = add i64 %145, 4
  store i64 %146, i64* %PC.i62
  %147 = inttoptr i64 %144 to i64*
  %148 = load i64, i64* %147
  store i64 %148, i64* %RDI.i63, align 8
  store %struct.Memory* %loadMem_407d1b, %struct.Memory** %MEMORY
  %loadMem_407d1f = load %struct.Memory*, %struct.Memory** %MEMORY
  %149 = getelementptr inbounds %struct.State, %struct.State* %0, i32 0, i32 6
  %150 = getelementptr inbounds %struct.GPR, %struct.GPR* %149, i32 0, i32 33
  %151 = getelementptr inbounds %struct.Reg, %struct.Reg* %150, i32 0, i32 0
  %PC.i73 = bitcast %union.anon* %151 to i64*
  %152 = getelementptr inbounds %struct.State, %struct.State* %0, i32 0, i32 6
  %153 = getelementptr inbounds %struct.GPR, %struct.GPR* %152, i32 0, i32 11
  %154 = getelementptr inbounds %struct.Reg, %struct.Reg* %153, i32 0, i32 0
  %RDI.i74 = bitcast %union.anon* %154 to i64*
  %155 = load i64, i64* %RDI.i74
  %156 = add i64 %155, 8
  %157 = load i64, i64* %PC.i73
  %158 = add i64 %157, 4
  store i64 %158, i64* %PC.i73
  %159 = inttoptr i64 %156 to i64*
  %160 = load i64, i64* %159
  store i64 %160, i64* %RDI.i74, align 8
  store %struct.Memory* %loadMem_407d1f, %struct.Memory** %MEMORY
  %loadMem_407d23 = load %struct.Memory*, %struct.Memory** %MEMORY
  %161 = getelementptr inbounds %struct.State, %struct.State* %0, i32 0, i32 6
  %162 = getelementptr inbounds %struct.GPR, %struct.GPR* %161, i32 0, i32 33
  %163 = getelementptr inbounds %struct.Reg, %struct.Reg* %162, i32 0, i32 0
  %PC.i76 = bitcast %union.anon* %163 to i64*
  %164 = getelementptr inbounds %struct.State, %struct.State* %0, i32 0, i32 6
  %165 = getelementptr inbounds %struct.GPR, %struct.GPR* %164, i32 0, i32 11
  %166 = getelementptr inbounds %struct.Reg, %struct.Reg* %165, i32 0, i32 0
  %RDI.i77 = bitcast %union.anon* %166 to i64*
  %167 = load i64, i64* %RDI.i77
  %168 = load i64, i64* %PC.i76
  %169 = add i64 %168, 3
  store i64 %169, i64* %PC.i76
  %170 = inttoptr i64 %167 to i64*
  %171 = load i64, i64* %170
  store i64 %171, i64* %RDI.i77, align 8
  store %struct.Memory* %loadMem_407d23, %struct.Memory** %MEMORY
  %loadMem1_407d26 = load %struct.Memory*, %struct.Memory** %MEMORY
  %172 = getelementptr inbounds %struct.State, %struct.State* %0, i32 0, i32 6
  %173 = getelementptr inbounds %struct.GPR, %struct.GPR* %172, i32 0, i32 33
  %174 = getelementptr inbounds %struct.Reg, %struct.Reg* %173, i32 0, i32 0
  %PC.i75 = bitcast %union.anon* %174 to i64*
  %175 = load i64, i64* %PC.i75
  %176 = add i64 %175, -27046
  %177 = load i64, i64* %PC.i75
  %178 = add i64 %177, 5
  %179 = load i64, i64* %PC.i75
  %180 = add i64 %179, 5
  store i64 %180, i64* %PC.i75
  %181 = getelementptr inbounds %struct.State, %struct.State* %0, i64 0, i32 6, i32 13, i32 0, i32 0
  %182 = load i64, i64* %181, align 8
  %183 = add i64 %182, -8
  %184 = inttoptr i64 %183 to i64*
  store i64 %178, i64* %184
  store i64 %183, i64* %181, align 8
  %185 = getelementptr inbounds %struct.State, %struct.State* %0, i64 0, i32 6, i32 33, i32 0, i32 0
  store i64 %176, i64* %185, align 8
  store %struct.Memory* %loadMem1_407d26, %struct.Memory** %MEMORY
  %loadMem2_407d26 = load %struct.Memory*, %struct.Memory** %MEMORY
  %loadPC_407d26 = load i64, i64* %3
  %186 = call %struct.Memory* @__remill_function_call(%struct.State* %0, i64 ptrtoint (i64 (i64)* @free to i64), %struct.Memory* %loadMem2_407d26)
  store %struct.Memory* %186, %struct.Memory** %MEMORY
  %loadMem_407d2b = load %struct.Memory*, %struct.Memory** %MEMORY
  %187 = getelementptr inbounds %struct.State, %struct.State* %0, i32 0, i32 6
  %188 = getelementptr inbounds %struct.GPR, %struct.GPR* %187, i32 0, i32 33
  %189 = getelementptr inbounds %struct.Reg, %struct.Reg* %188, i32 0, i32 0
  %PC.i70 = bitcast %union.anon* %189 to i64*
  %190 = getelementptr inbounds %struct.State, %struct.State* %0, i32 0, i32 6
  %191 = getelementptr inbounds %struct.GPR, %struct.GPR* %190, i32 0, i32 11
  %192 = getelementptr inbounds %struct.Reg, %struct.Reg* %191, i32 0, i32 0
  %RDI.i71 = bitcast %union.anon* %192 to i64*
  %193 = getelementptr inbounds %struct.State, %struct.State* %0, i32 0, i32 6
  %194 = getelementptr inbounds %struct.GPR, %struct.GPR* %193, i32 0, i32 15
  %195 = getelementptr inbounds %struct.Reg, %struct.Reg* %194, i32 0, i32 0
  %RBP.i72 = bitcast %union.anon* %195 to i64*
  %196 = load i64, i64* %RBP.i72
  %197 = sub i64 %196, 8
  %198 = load i64, i64* %PC.i70
  %199 = add i64 %198, 4
  store i64 %199, i64* %PC.i70
  %200 = inttoptr i64 %197 to i64*
  %201 = load i64, i64* %200
  store i64 %201, i64* %RDI.i71, align 8
  store %struct.Memory* %loadMem_407d2b, %struct.Memory** %MEMORY
  %loadMem_407d2f = load %struct.Memory*, %struct.Memory** %MEMORY
  %202 = getelementptr inbounds %struct.State, %struct.State* %0, i32 0, i32 6
  %203 = getelementptr inbounds %struct.GPR, %struct.GPR* %202, i32 0, i32 33
  %204 = getelementptr inbounds %struct.Reg, %struct.Reg* %203, i32 0, i32 0
  %PC.i68 = bitcast %union.anon* %204 to i64*
  %205 = getelementptr inbounds %struct.State, %struct.State* %0, i32 0, i32 6
  %206 = getelementptr inbounds %struct.GPR, %struct.GPR* %205, i32 0, i32 11
  %207 = getelementptr inbounds %struct.Reg, %struct.Reg* %206, i32 0, i32 0
  %RDI.i69 = bitcast %union.anon* %207 to i64*
  %208 = load i64, i64* %RDI.i69
  %209 = add i64 %208, 16
  %210 = load i64, i64* %PC.i68
  %211 = add i64 %210, 4
  store i64 %211, i64* %PC.i68
  %212 = inttoptr i64 %209 to i64*
  %213 = load i64, i64* %212
  store i64 %213, i64* %RDI.i69, align 8
  store %struct.Memory* %loadMem_407d2f, %struct.Memory** %MEMORY
  %loadMem_407d33 = load %struct.Memory*, %struct.Memory** %MEMORY
  %214 = getelementptr inbounds %struct.State, %struct.State* %0, i32 0, i32 6
  %215 = getelementptr inbounds %struct.GPR, %struct.GPR* %214, i32 0, i32 33
  %216 = getelementptr inbounds %struct.Reg, %struct.Reg* %215, i32 0, i32 0
  %PC.i66 = bitcast %union.anon* %216 to i64*
  %217 = getelementptr inbounds %struct.State, %struct.State* %0, i32 0, i32 6
  %218 = getelementptr inbounds %struct.GPR, %struct.GPR* %217, i32 0, i32 11
  %219 = getelementptr inbounds %struct.Reg, %struct.Reg* %218, i32 0, i32 0
  %RDI.i67 = bitcast %union.anon* %219 to i64*
  %220 = load i64, i64* %RDI.i67
  %221 = load i64, i64* %PC.i66
  %222 = add i64 %221, 3
  store i64 %222, i64* %PC.i66
  %223 = inttoptr i64 %220 to i64*
  %224 = load i64, i64* %223
  store i64 %224, i64* %RDI.i67, align 8
  store %struct.Memory* %loadMem_407d33, %struct.Memory** %MEMORY
  %loadMem1_407d36 = load %struct.Memory*, %struct.Memory** %MEMORY
  %225 = getelementptr inbounds %struct.State, %struct.State* %0, i32 0, i32 6
  %226 = getelementptr inbounds %struct.GPR, %struct.GPR* %225, i32 0, i32 33
  %227 = getelementptr inbounds %struct.Reg, %struct.Reg* %226, i32 0, i32 0
  %PC.i65 = bitcast %union.anon* %227 to i64*
  %228 = load i64, i64* %PC.i65
  %229 = add i64 %228, -27062
  %230 = load i64, i64* %PC.i65
  %231 = add i64 %230, 5
  %232 = load i64, i64* %PC.i65
  %233 = add i64 %232, 5
  store i64 %233, i64* %PC.i65
  %234 = getelementptr inbounds %struct.State, %struct.State* %0, i64 0, i32 6, i32 13, i32 0, i32 0
  %235 = load i64, i64* %234, align 8
  %236 = add i64 %235, -8
  %237 = inttoptr i64 %236 to i64*
  store i64 %231, i64* %237
  store i64 %236, i64* %234, align 8
  %238 = getelementptr inbounds %struct.State, %struct.State* %0, i64 0, i32 6, i32 33, i32 0, i32 0
  store i64 %229, i64* %238, align 8
  store %struct.Memory* %loadMem1_407d36, %struct.Memory** %MEMORY
  %loadMem2_407d36 = load %struct.Memory*, %struct.Memory** %MEMORY
  %loadPC_407d36 = load i64, i64* %3
  %239 = call %struct.Memory* @__remill_function_call(%struct.State* %0, i64 ptrtoint (i64 (i64)* @free to i64), %struct.Memory* %loadMem2_407d36)
  store %struct.Memory* %239, %struct.Memory** %MEMORY
  %loadMem_407d3b = load %struct.Memory*, %struct.Memory** %MEMORY
  %240 = getelementptr inbounds %struct.State, %struct.State* %0, i32 0, i32 6
  %241 = getelementptr inbounds %struct.GPR, %struct.GPR* %240, i32 0, i32 33
  %242 = getelementptr inbounds %struct.Reg, %struct.Reg* %241, i32 0, i32 0
  %PC.i59 = bitcast %union.anon* %242 to i64*
  %243 = getelementptr inbounds %struct.State, %struct.State* %0, i32 0, i32 6
  %244 = getelementptr inbounds %struct.GPR, %struct.GPR* %243, i32 0, i32 11
  %245 = getelementptr inbounds %struct.Reg, %struct.Reg* %244, i32 0, i32 0
  %RDI.i60 = bitcast %union.anon* %245 to i64*
  %246 = getelementptr inbounds %struct.State, %struct.State* %0, i32 0, i32 6
  %247 = getelementptr inbounds %struct.GPR, %struct.GPR* %246, i32 0, i32 15
  %248 = getelementptr inbounds %struct.Reg, %struct.Reg* %247, i32 0, i32 0
  %RBP.i61 = bitcast %union.anon* %248 to i64*
  %249 = load i64, i64* %RBP.i61
  %250 = sub i64 %249, 8
  %251 = load i64, i64* %PC.i59
  %252 = add i64 %251, 4
  store i64 %252, i64* %PC.i59
  %253 = inttoptr i64 %250 to i64*
  %254 = load i64, i64* %253
  store i64 %254, i64* %RDI.i60, align 8
  store %struct.Memory* %loadMem_407d3b, %struct.Memory** %MEMORY
  %loadMem_407d3f = load %struct.Memory*, %struct.Memory** %MEMORY
  %255 = getelementptr inbounds %struct.State, %struct.State* %0, i32 0, i32 6
  %256 = getelementptr inbounds %struct.GPR, %struct.GPR* %255, i32 0, i32 33
  %257 = getelementptr inbounds %struct.Reg, %struct.Reg* %256, i32 0, i32 0
  %PC.i57 = bitcast %union.anon* %257 to i64*
  %258 = getelementptr inbounds %struct.State, %struct.State* %0, i32 0, i32 6
  %259 = getelementptr inbounds %struct.GPR, %struct.GPR* %258, i32 0, i32 11
  %260 = getelementptr inbounds %struct.Reg, %struct.Reg* %259, i32 0, i32 0
  %RDI.i58 = bitcast %union.anon* %260 to i64*
  %261 = load i64, i64* %RDI.i58
  %262 = add i64 %261, 24
  %263 = load i64, i64* %PC.i57
  %264 = add i64 %263, 4
  store i64 %264, i64* %PC.i57
  %265 = inttoptr i64 %262 to i64*
  %266 = load i64, i64* %265
  store i64 %266, i64* %RDI.i58, align 8
  store %struct.Memory* %loadMem_407d3f, %struct.Memory** %MEMORY
  %loadMem_407d43 = load %struct.Memory*, %struct.Memory** %MEMORY
  %267 = getelementptr inbounds %struct.State, %struct.State* %0, i32 0, i32 6
  %268 = getelementptr inbounds %struct.GPR, %struct.GPR* %267, i32 0, i32 33
  %269 = getelementptr inbounds %struct.Reg, %struct.Reg* %268, i32 0, i32 0
  %PC.i55 = bitcast %union.anon* %269 to i64*
  %270 = getelementptr inbounds %struct.State, %struct.State* %0, i32 0, i32 6
  %271 = getelementptr inbounds %struct.GPR, %struct.GPR* %270, i32 0, i32 11
  %272 = getelementptr inbounds %struct.Reg, %struct.Reg* %271, i32 0, i32 0
  %RDI.i56 = bitcast %union.anon* %272 to i64*
  %273 = load i64, i64* %RDI.i56
  %274 = load i64, i64* %PC.i55
  %275 = add i64 %274, 3
  store i64 %275, i64* %PC.i55
  %276 = inttoptr i64 %273 to i64*
  %277 = load i64, i64* %276
  store i64 %277, i64* %RDI.i56, align 8
  store %struct.Memory* %loadMem_407d43, %struct.Memory** %MEMORY
  %loadMem1_407d46 = load %struct.Memory*, %struct.Memory** %MEMORY
  %278 = getelementptr inbounds %struct.State, %struct.State* %0, i32 0, i32 6
  %279 = getelementptr inbounds %struct.GPR, %struct.GPR* %278, i32 0, i32 33
  %280 = getelementptr inbounds %struct.Reg, %struct.Reg* %279, i32 0, i32 0
  %PC.i54 = bitcast %union.anon* %280 to i64*
  %281 = load i64, i64* %PC.i54
  %282 = add i64 %281, -27078
  %283 = load i64, i64* %PC.i54
  %284 = add i64 %283, 5
  %285 = load i64, i64* %PC.i54
  %286 = add i64 %285, 5
  store i64 %286, i64* %PC.i54
  %287 = getelementptr inbounds %struct.State, %struct.State* %0, i64 0, i32 6, i32 13, i32 0, i32 0
  %288 = load i64, i64* %287, align 8
  %289 = add i64 %288, -8
  %290 = inttoptr i64 %289 to i64*
  store i64 %284, i64* %290
  store i64 %289, i64* %287, align 8
  %291 = getelementptr inbounds %struct.State, %struct.State* %0, i64 0, i32 6, i32 33, i32 0, i32 0
  store i64 %282, i64* %291, align 8
  store %struct.Memory* %loadMem1_407d46, %struct.Memory** %MEMORY
  %loadMem2_407d46 = load %struct.Memory*, %struct.Memory** %MEMORY
  %loadPC_407d46 = load i64, i64* %3
  %292 = call %struct.Memory* @__remill_function_call(%struct.State* %0, i64 ptrtoint (i64 (i64)* @free to i64), %struct.Memory* %loadMem2_407d46)
  store %struct.Memory* %292, %struct.Memory** %MEMORY
  %loadMem_407d4b = load %struct.Memory*, %struct.Memory** %MEMORY
  %293 = getelementptr inbounds %struct.State, %struct.State* %0, i32 0, i32 6
  %294 = getelementptr inbounds %struct.GPR, %struct.GPR* %293, i32 0, i32 33
  %295 = getelementptr inbounds %struct.Reg, %struct.Reg* %294, i32 0, i32 0
  %PC.i50 = bitcast %union.anon* %295 to i64*
  %296 = getelementptr inbounds %struct.State, %struct.State* %0, i32 0, i32 6
  %297 = getelementptr inbounds %struct.GPR, %struct.GPR* %296, i32 0, i32 11
  %298 = getelementptr inbounds %struct.Reg, %struct.Reg* %297, i32 0, i32 0
  %RDI.i51 = bitcast %union.anon* %298 to i64*
  %299 = getelementptr inbounds %struct.State, %struct.State* %0, i32 0, i32 6
  %300 = getelementptr inbounds %struct.GPR, %struct.GPR* %299, i32 0, i32 15
  %301 = getelementptr inbounds %struct.Reg, %struct.Reg* %300, i32 0, i32 0
  %RBP.i52 = bitcast %union.anon* %301 to i64*
  %302 = load i64, i64* %RBP.i52
  %303 = sub i64 %302, 8
  %304 = load i64, i64* %PC.i50
  %305 = add i64 %304, 4
  store i64 %305, i64* %PC.i50
  %306 = inttoptr i64 %303 to i64*
  %307 = load i64, i64* %306
  store i64 %307, i64* %RDI.i51, align 8
  store %struct.Memory* %loadMem_407d4b, %struct.Memory** %MEMORY
  %loadMem_407d4f = load %struct.Memory*, %struct.Memory** %MEMORY
  %308 = getelementptr inbounds %struct.State, %struct.State* %0, i32 0, i32 6
  %309 = getelementptr inbounds %struct.GPR, %struct.GPR* %308, i32 0, i32 33
  %310 = getelementptr inbounds %struct.Reg, %struct.Reg* %309, i32 0, i32 0
  %PC.i48 = bitcast %union.anon* %310 to i64*
  %311 = getelementptr inbounds %struct.State, %struct.State* %0, i32 0, i32 6
  %312 = getelementptr inbounds %struct.GPR, %struct.GPR* %311, i32 0, i32 11
  %313 = getelementptr inbounds %struct.Reg, %struct.Reg* %312, i32 0, i32 0
  %RDI.i49 = bitcast %union.anon* %313 to i64*
  %314 = load i64, i64* %RDI.i49
  %315 = add i64 %314, 32
  %316 = load i64, i64* %PC.i48
  %317 = add i64 %316, 4
  store i64 %317, i64* %PC.i48
  %318 = inttoptr i64 %315 to i64*
  %319 = load i64, i64* %318
  store i64 %319, i64* %RDI.i49, align 8
  store %struct.Memory* %loadMem_407d4f, %struct.Memory** %MEMORY
  %loadMem1_407d53 = load %struct.Memory*, %struct.Memory** %MEMORY
  %320 = getelementptr inbounds %struct.State, %struct.State* %0, i32 0, i32 6
  %321 = getelementptr inbounds %struct.GPR, %struct.GPR* %320, i32 0, i32 33
  %322 = getelementptr inbounds %struct.Reg, %struct.Reg* %321, i32 0, i32 0
  %PC.i47 = bitcast %union.anon* %322 to i64*
  %323 = load i64, i64* %PC.i47
  %324 = add i64 %323, -27091
  %325 = load i64, i64* %PC.i47
  %326 = add i64 %325, 5
  %327 = load i64, i64* %PC.i47
  %328 = add i64 %327, 5
  store i64 %328, i64* %PC.i47
  %329 = getelementptr inbounds %struct.State, %struct.State* %0, i64 0, i32 6, i32 13, i32 0, i32 0
  %330 = load i64, i64* %329, align 8
  %331 = add i64 %330, -8
  %332 = inttoptr i64 %331 to i64*
  store i64 %326, i64* %332
  store i64 %331, i64* %329, align 8
  %333 = getelementptr inbounds %struct.State, %struct.State* %0, i64 0, i32 6, i32 33, i32 0, i32 0
  store i64 %324, i64* %333, align 8
  store %struct.Memory* %loadMem1_407d53, %struct.Memory** %MEMORY
  %loadMem2_407d53 = load %struct.Memory*, %struct.Memory** %MEMORY
  %loadPC_407d53 = load i64, i64* %3
  %334 = call %struct.Memory* @__remill_function_call(%struct.State* %0, i64 ptrtoint (i64 (i64)* @free to i64), %struct.Memory* %loadMem2_407d53)
  store %struct.Memory* %334, %struct.Memory** %MEMORY
  %loadMem_407d58 = load %struct.Memory*, %struct.Memory** %MEMORY
  %335 = getelementptr inbounds %struct.State, %struct.State* %0, i32 0, i32 6
  %336 = getelementptr inbounds %struct.GPR, %struct.GPR* %335, i32 0, i32 33
  %337 = getelementptr inbounds %struct.Reg, %struct.Reg* %336, i32 0, i32 0
  %PC.i42 = bitcast %union.anon* %337 to i64*
  %338 = getelementptr inbounds %struct.State, %struct.State* %0, i32 0, i32 6
  %339 = getelementptr inbounds %struct.GPR, %struct.GPR* %338, i32 0, i32 11
  %340 = getelementptr inbounds %struct.Reg, %struct.Reg* %339, i32 0, i32 0
  %RDI.i43 = bitcast %union.anon* %340 to i64*
  %341 = getelementptr inbounds %struct.State, %struct.State* %0, i32 0, i32 6
  %342 = getelementptr inbounds %struct.GPR, %struct.GPR* %341, i32 0, i32 15
  %343 = getelementptr inbounds %struct.Reg, %struct.Reg* %342, i32 0, i32 0
  %RBP.i44 = bitcast %union.anon* %343 to i64*
  %344 = load i64, i64* %RBP.i44
  %345 = sub i64 %344, 8
  %346 = load i64, i64* %PC.i42
  %347 = add i64 %346, 4
  store i64 %347, i64* %PC.i42
  %348 = inttoptr i64 %345 to i64*
  %349 = load i64, i64* %348
  store i64 %349, i64* %RDI.i43, align 8
  store %struct.Memory* %loadMem_407d58, %struct.Memory** %MEMORY
  %loadMem_407d5c = load %struct.Memory*, %struct.Memory** %MEMORY
  %350 = getelementptr inbounds %struct.State, %struct.State* %0, i32 0, i32 6
  %351 = getelementptr inbounds %struct.GPR, %struct.GPR* %350, i32 0, i32 33
  %352 = getelementptr inbounds %struct.Reg, %struct.Reg* %351, i32 0, i32 0
  %PC.i40 = bitcast %union.anon* %352 to i64*
  %353 = getelementptr inbounds %struct.State, %struct.State* %0, i32 0, i32 6
  %354 = getelementptr inbounds %struct.GPR, %struct.GPR* %353, i32 0, i32 11
  %355 = getelementptr inbounds %struct.Reg, %struct.Reg* %354, i32 0, i32 0
  %RDI.i41 = bitcast %union.anon* %355 to i64*
  %356 = load i64, i64* %RDI.i41
  %357 = load i64, i64* %PC.i40
  %358 = add i64 %357, 3
  store i64 %358, i64* %PC.i40
  %359 = inttoptr i64 %356 to i64*
  %360 = load i64, i64* %359
  store i64 %360, i64* %RDI.i41, align 8
  store %struct.Memory* %loadMem_407d5c, %struct.Memory** %MEMORY
  %loadMem1_407d5f = load %struct.Memory*, %struct.Memory** %MEMORY
  %361 = getelementptr inbounds %struct.State, %struct.State* %0, i32 0, i32 6
  %362 = getelementptr inbounds %struct.GPR, %struct.GPR* %361, i32 0, i32 33
  %363 = getelementptr inbounds %struct.Reg, %struct.Reg* %362, i32 0, i32 0
  %PC.i39 = bitcast %union.anon* %363 to i64*
  %364 = load i64, i64* %PC.i39
  %365 = add i64 %364, -27103
  %366 = load i64, i64* %PC.i39
  %367 = add i64 %366, 5
  %368 = load i64, i64* %PC.i39
  %369 = add i64 %368, 5
  store i64 %369, i64* %PC.i39
  %370 = getelementptr inbounds %struct.State, %struct.State* %0, i64 0, i32 6, i32 13, i32 0, i32 0
  %371 = load i64, i64* %370, align 8
  %372 = add i64 %371, -8
  %373 = inttoptr i64 %372 to i64*
  store i64 %367, i64* %373
  store i64 %372, i64* %370, align 8
  %374 = getelementptr inbounds %struct.State, %struct.State* %0, i64 0, i32 6, i32 33, i32 0, i32 0
  store i64 %365, i64* %374, align 8
  store %struct.Memory* %loadMem1_407d5f, %struct.Memory** %MEMORY
  %loadMem2_407d5f = load %struct.Memory*, %struct.Memory** %MEMORY
  %loadPC_407d5f = load i64, i64* %3
  %375 = call %struct.Memory* @__remill_function_call(%struct.State* %0, i64 ptrtoint (i64 (i64)* @free to i64), %struct.Memory* %loadMem2_407d5f)
  store %struct.Memory* %375, %struct.Memory** %MEMORY
  %loadMem_407d64 = load %struct.Memory*, %struct.Memory** %MEMORY
  %376 = getelementptr inbounds %struct.State, %struct.State* %0, i32 0, i32 6
  %377 = getelementptr inbounds %struct.GPR, %struct.GPR* %376, i32 0, i32 33
  %378 = getelementptr inbounds %struct.Reg, %struct.Reg* %377, i32 0, i32 0
  %PC.i34 = bitcast %union.anon* %378 to i64*
  %379 = getelementptr inbounds %struct.State, %struct.State* %0, i32 0, i32 6
  %380 = getelementptr inbounds %struct.GPR, %struct.GPR* %379, i32 0, i32 11
  %381 = getelementptr inbounds %struct.Reg, %struct.Reg* %380, i32 0, i32 0
  %RDI.i35 = bitcast %union.anon* %381 to i64*
  %382 = getelementptr inbounds %struct.State, %struct.State* %0, i32 0, i32 6
  %383 = getelementptr inbounds %struct.GPR, %struct.GPR* %382, i32 0, i32 15
  %384 = getelementptr inbounds %struct.Reg, %struct.Reg* %383, i32 0, i32 0
  %RBP.i36 = bitcast %union.anon* %384 to i64*
  %385 = load i64, i64* %RBP.i36
  %386 = sub i64 %385, 8
  %387 = load i64, i64* %PC.i34
  %388 = add i64 %387, 4
  store i64 %388, i64* %PC.i34
  %389 = inttoptr i64 %386 to i64*
  %390 = load i64, i64* %389
  store i64 %390, i64* %RDI.i35, align 8
  store %struct.Memory* %loadMem_407d64, %struct.Memory** %MEMORY
  %loadMem_407d68 = load %struct.Memory*, %struct.Memory** %MEMORY
  %391 = getelementptr inbounds %struct.State, %struct.State* %0, i32 0, i32 6
  %392 = getelementptr inbounds %struct.GPR, %struct.GPR* %391, i32 0, i32 33
  %393 = getelementptr inbounds %struct.Reg, %struct.Reg* %392, i32 0, i32 0
  %PC.i32 = bitcast %union.anon* %393 to i64*
  %394 = getelementptr inbounds %struct.State, %struct.State* %0, i32 0, i32 6
  %395 = getelementptr inbounds %struct.GPR, %struct.GPR* %394, i32 0, i32 11
  %396 = getelementptr inbounds %struct.Reg, %struct.Reg* %395, i32 0, i32 0
  %RDI.i33 = bitcast %union.anon* %396 to i64*
  %397 = load i64, i64* %RDI.i33
  %398 = add i64 %397, 8
  %399 = load i64, i64* %PC.i32
  %400 = add i64 %399, 4
  store i64 %400, i64* %PC.i32
  %401 = inttoptr i64 %398 to i64*
  %402 = load i64, i64* %401
  store i64 %402, i64* %RDI.i33, align 8
  store %struct.Memory* %loadMem_407d68, %struct.Memory** %MEMORY
  %loadMem1_407d6c = load %struct.Memory*, %struct.Memory** %MEMORY
  %403 = getelementptr inbounds %struct.State, %struct.State* %0, i32 0, i32 6
  %404 = getelementptr inbounds %struct.GPR, %struct.GPR* %403, i32 0, i32 33
  %405 = getelementptr inbounds %struct.Reg, %struct.Reg* %404, i32 0, i32 0
  %PC.i31 = bitcast %union.anon* %405 to i64*
  %406 = load i64, i64* %PC.i31
  %407 = add i64 %406, -27116
  %408 = load i64, i64* %PC.i31
  %409 = add i64 %408, 5
  %410 = load i64, i64* %PC.i31
  %411 = add i64 %410, 5
  store i64 %411, i64* %PC.i31
  %412 = getelementptr inbounds %struct.State, %struct.State* %0, i64 0, i32 6, i32 13, i32 0, i32 0
  %413 = load i64, i64* %412, align 8
  %414 = add i64 %413, -8
  %415 = inttoptr i64 %414 to i64*
  store i64 %409, i64* %415
  store i64 %414, i64* %412, align 8
  %416 = getelementptr inbounds %struct.State, %struct.State* %0, i64 0, i32 6, i32 33, i32 0, i32 0
  store i64 %407, i64* %416, align 8
  store %struct.Memory* %loadMem1_407d6c, %struct.Memory** %MEMORY
  %loadMem2_407d6c = load %struct.Memory*, %struct.Memory** %MEMORY
  %loadPC_407d6c = load i64, i64* %3
  %417 = call %struct.Memory* @__remill_function_call(%struct.State* %0, i64 ptrtoint (i64 (i64)* @free to i64), %struct.Memory* %loadMem2_407d6c)
  store %struct.Memory* %417, %struct.Memory** %MEMORY
  %loadMem_407d71 = load %struct.Memory*, %struct.Memory** %MEMORY
  %418 = getelementptr inbounds %struct.State, %struct.State* %0, i32 0, i32 6
  %419 = getelementptr inbounds %struct.GPR, %struct.GPR* %418, i32 0, i32 33
  %420 = getelementptr inbounds %struct.Reg, %struct.Reg* %419, i32 0, i32 0
  %PC.i25 = bitcast %union.anon* %420 to i64*
  %421 = getelementptr inbounds %struct.State, %struct.State* %0, i32 0, i32 6
  %422 = getelementptr inbounds %struct.GPR, %struct.GPR* %421, i32 0, i32 11
  %423 = getelementptr inbounds %struct.Reg, %struct.Reg* %422, i32 0, i32 0
  %RDI.i26 = bitcast %union.anon* %423 to i64*
  %424 = getelementptr inbounds %struct.State, %struct.State* %0, i32 0, i32 6
  %425 = getelementptr inbounds %struct.GPR, %struct.GPR* %424, i32 0, i32 15
  %426 = getelementptr inbounds %struct.Reg, %struct.Reg* %425, i32 0, i32 0
  %RBP.i27 = bitcast %union.anon* %426 to i64*
  %427 = load i64, i64* %RBP.i27
  %428 = sub i64 %427, 8
  %429 = load i64, i64* %PC.i25
  %430 = add i64 %429, 4
  store i64 %430, i64* %PC.i25
  %431 = inttoptr i64 %428 to i64*
  %432 = load i64, i64* %431
  store i64 %432, i64* %RDI.i26, align 8
  store %struct.Memory* %loadMem_407d71, %struct.Memory** %MEMORY
  %loadMem_407d75 = load %struct.Memory*, %struct.Memory** %MEMORY
  %433 = getelementptr inbounds %struct.State, %struct.State* %0, i32 0, i32 6
  %434 = getelementptr inbounds %struct.GPR, %struct.GPR* %433, i32 0, i32 33
  %435 = getelementptr inbounds %struct.Reg, %struct.Reg* %434, i32 0, i32 0
  %PC.i23 = bitcast %union.anon* %435 to i64*
  %436 = getelementptr inbounds %struct.State, %struct.State* %0, i32 0, i32 6
  %437 = getelementptr inbounds %struct.GPR, %struct.GPR* %436, i32 0, i32 11
  %438 = getelementptr inbounds %struct.Reg, %struct.Reg* %437, i32 0, i32 0
  %RDI.i24 = bitcast %union.anon* %438 to i64*
  %439 = load i64, i64* %RDI.i24
  %440 = add i64 %439, 16
  %441 = load i64, i64* %PC.i23
  %442 = add i64 %441, 4
  store i64 %442, i64* %PC.i23
  %443 = inttoptr i64 %440 to i64*
  %444 = load i64, i64* %443
  store i64 %444, i64* %RDI.i24, align 8
  store %struct.Memory* %loadMem_407d75, %struct.Memory** %MEMORY
  %loadMem1_407d79 = load %struct.Memory*, %struct.Memory** %MEMORY
  %445 = getelementptr inbounds %struct.State, %struct.State* %0, i32 0, i32 6
  %446 = getelementptr inbounds %struct.GPR, %struct.GPR* %445, i32 0, i32 33
  %447 = getelementptr inbounds %struct.Reg, %struct.Reg* %446, i32 0, i32 0
  %PC.i22 = bitcast %union.anon* %447 to i64*
  %448 = load i64, i64* %PC.i22
  %449 = add i64 %448, -27129
  %450 = load i64, i64* %PC.i22
  %451 = add i64 %450, 5
  %452 = load i64, i64* %PC.i22
  %453 = add i64 %452, 5
  store i64 %453, i64* %PC.i22
  %454 = getelementptr inbounds %struct.State, %struct.State* %0, i64 0, i32 6, i32 13, i32 0, i32 0
  %455 = load i64, i64* %454, align 8
  %456 = add i64 %455, -8
  %457 = inttoptr i64 %456 to i64*
  store i64 %451, i64* %457
  store i64 %456, i64* %454, align 8
  %458 = getelementptr inbounds %struct.State, %struct.State* %0, i64 0, i32 6, i32 33, i32 0, i32 0
  store i64 %449, i64* %458, align 8
  store %struct.Memory* %loadMem1_407d79, %struct.Memory** %MEMORY
  %loadMem2_407d79 = load %struct.Memory*, %struct.Memory** %MEMORY
  %loadPC_407d79 = load i64, i64* %3
  %459 = call %struct.Memory* @__remill_function_call(%struct.State* %0, i64 ptrtoint (i64 (i64)* @free to i64), %struct.Memory* %loadMem2_407d79)
  store %struct.Memory* %459, %struct.Memory** %MEMORY
  %loadMem_407d7e = load %struct.Memory*, %struct.Memory** %MEMORY
  %460 = getelementptr inbounds %struct.State, %struct.State* %0, i32 0, i32 6
  %461 = getelementptr inbounds %struct.GPR, %struct.GPR* %460, i32 0, i32 33
  %462 = getelementptr inbounds %struct.Reg, %struct.Reg* %461, i32 0, i32 0
  %PC.i16 = bitcast %union.anon* %462 to i64*
  %463 = getelementptr inbounds %struct.State, %struct.State* %0, i32 0, i32 6
  %464 = getelementptr inbounds %struct.GPR, %struct.GPR* %463, i32 0, i32 11
  %465 = getelementptr inbounds %struct.Reg, %struct.Reg* %464, i32 0, i32 0
  %RDI.i17 = bitcast %union.anon* %465 to i64*
  %466 = getelementptr inbounds %struct.State, %struct.State* %0, i32 0, i32 6
  %467 = getelementptr inbounds %struct.GPR, %struct.GPR* %466, i32 0, i32 15
  %468 = getelementptr inbounds %struct.Reg, %struct.Reg* %467, i32 0, i32 0
  %RBP.i18 = bitcast %union.anon* %468 to i64*
  %469 = load i64, i64* %RBP.i18
  %470 = sub i64 %469, 8
  %471 = load i64, i64* %PC.i16
  %472 = add i64 %471, 4
  store i64 %472, i64* %PC.i16
  %473 = inttoptr i64 %470 to i64*
  %474 = load i64, i64* %473
  store i64 %474, i64* %RDI.i17, align 8
  store %struct.Memory* %loadMem_407d7e, %struct.Memory** %MEMORY
  %loadMem_407d82 = load %struct.Memory*, %struct.Memory** %MEMORY
  %475 = getelementptr inbounds %struct.State, %struct.State* %0, i32 0, i32 6
  %476 = getelementptr inbounds %struct.GPR, %struct.GPR* %475, i32 0, i32 33
  %477 = getelementptr inbounds %struct.Reg, %struct.Reg* %476, i32 0, i32 0
  %PC.i14 = bitcast %union.anon* %477 to i64*
  %478 = getelementptr inbounds %struct.State, %struct.State* %0, i32 0, i32 6
  %479 = getelementptr inbounds %struct.GPR, %struct.GPR* %478, i32 0, i32 11
  %480 = getelementptr inbounds %struct.Reg, %struct.Reg* %479, i32 0, i32 0
  %RDI.i15 = bitcast %union.anon* %480 to i64*
  %481 = load i64, i64* %RDI.i15
  %482 = add i64 %481, 24
  %483 = load i64, i64* %PC.i14
  %484 = add i64 %483, 4
  store i64 %484, i64* %PC.i14
  %485 = inttoptr i64 %482 to i64*
  %486 = load i64, i64* %485
  store i64 %486, i64* %RDI.i15, align 8
  store %struct.Memory* %loadMem_407d82, %struct.Memory** %MEMORY
  %loadMem1_407d86 = load %struct.Memory*, %struct.Memory** %MEMORY
  %487 = getelementptr inbounds %struct.State, %struct.State* %0, i32 0, i32 6
  %488 = getelementptr inbounds %struct.GPR, %struct.GPR* %487, i32 0, i32 33
  %489 = getelementptr inbounds %struct.Reg, %struct.Reg* %488, i32 0, i32 0
  %PC.i13 = bitcast %union.anon* %489 to i64*
  %490 = load i64, i64* %PC.i13
  %491 = add i64 %490, -27142
  %492 = load i64, i64* %PC.i13
  %493 = add i64 %492, 5
  %494 = load i64, i64* %PC.i13
  %495 = add i64 %494, 5
  store i64 %495, i64* %PC.i13
  %496 = getelementptr inbounds %struct.State, %struct.State* %0, i64 0, i32 6, i32 13, i32 0, i32 0
  %497 = load i64, i64* %496, align 8
  %498 = add i64 %497, -8
  %499 = inttoptr i64 %498 to i64*
  store i64 %493, i64* %499
  store i64 %498, i64* %496, align 8
  %500 = getelementptr inbounds %struct.State, %struct.State* %0, i64 0, i32 6, i32 33, i32 0, i32 0
  store i64 %491, i64* %500, align 8
  store %struct.Memory* %loadMem1_407d86, %struct.Memory** %MEMORY
  %loadMem2_407d86 = load %struct.Memory*, %struct.Memory** %MEMORY
  %loadPC_407d86 = load i64, i64* %3
  %501 = call %struct.Memory* @__remill_function_call(%struct.State* %0, i64 ptrtoint (i64 (i64)* @free to i64), %struct.Memory* %loadMem2_407d86)
  store %struct.Memory* %501, %struct.Memory** %MEMORY
  %loadMem_407d8b = load %struct.Memory*, %struct.Memory** %MEMORY
  %502 = getelementptr inbounds %struct.State, %struct.State* %0, i32 0, i32 6
  %503 = getelementptr inbounds %struct.GPR, %struct.GPR* %502, i32 0, i32 33
  %504 = getelementptr inbounds %struct.Reg, %struct.Reg* %503, i32 0, i32 0
  %PC.i9 = bitcast %union.anon* %504 to i64*
  %505 = getelementptr inbounds %struct.State, %struct.State* %0, i32 0, i32 6
  %506 = getelementptr inbounds %struct.GPR, %struct.GPR* %505, i32 0, i32 11
  %507 = getelementptr inbounds %struct.Reg, %struct.Reg* %506, i32 0, i32 0
  %RDI.i = bitcast %union.anon* %507 to i64*
  %508 = getelementptr inbounds %struct.State, %struct.State* %0, i32 0, i32 6
  %509 = getelementptr inbounds %struct.GPR, %struct.GPR* %508, i32 0, i32 15
  %510 = getelementptr inbounds %struct.Reg, %struct.Reg* %509, i32 0, i32 0
  %RBP.i10 = bitcast %union.anon* %510 to i64*
  %511 = load i64, i64* %RBP.i10
  %512 = sub i64 %511, 8
  %513 = load i64, i64* %PC.i9
  %514 = add i64 %513, 4
  store i64 %514, i64* %PC.i9
  %515 = inttoptr i64 %512 to i64*
  %516 = load i64, i64* %515
  store i64 %516, i64* %RDI.i, align 8
  store %struct.Memory* %loadMem_407d8b, %struct.Memory** %MEMORY
  %loadMem1_407d8f = load %struct.Memory*, %struct.Memory** %MEMORY
  %517 = getelementptr inbounds %struct.State, %struct.State* %0, i32 0, i32 6
  %518 = getelementptr inbounds %struct.GPR, %struct.GPR* %517, i32 0, i32 33
  %519 = getelementptr inbounds %struct.Reg, %struct.Reg* %518, i32 0, i32 0
  %PC.i8 = bitcast %union.anon* %519 to i64*
  %520 = load i64, i64* %PC.i8
  %521 = add i64 %520, -27151
  %522 = load i64, i64* %PC.i8
  %523 = add i64 %522, 5
  %524 = load i64, i64* %PC.i8
  %525 = add i64 %524, 5
  store i64 %525, i64* %PC.i8
  %526 = getelementptr inbounds %struct.State, %struct.State* %0, i64 0, i32 6, i32 13, i32 0, i32 0
  %527 = load i64, i64* %526, align 8
  %528 = add i64 %527, -8
  %529 = inttoptr i64 %528 to i64*
  store i64 %523, i64* %529
  store i64 %528, i64* %526, align 8
  %530 = getelementptr inbounds %struct.State, %struct.State* %0, i64 0, i32 6, i32 33, i32 0, i32 0
  store i64 %521, i64* %530, align 8
  store %struct.Memory* %loadMem1_407d8f, %struct.Memory** %MEMORY
  %loadMem2_407d8f = load %struct.Memory*, %struct.Memory** %MEMORY
  %loadPC_407d8f = load i64, i64* %3
  %531 = call %struct.Memory* @__remill_function_call(%struct.State* %0, i64 ptrtoint (i64 (i64)* @free to i64), %struct.Memory* %loadMem2_407d8f)
  store %struct.Memory* %531, %struct.Memory** %MEMORY
  %loadMem_407d94 = load %struct.Memory*, %struct.Memory** %MEMORY
  %532 = getelementptr inbounds %struct.State, %struct.State* %0, i32 0, i32 6
  %533 = getelementptr inbounds %struct.GPR, %struct.GPR* %532, i32 0, i32 33
  %534 = getelementptr inbounds %struct.Reg, %struct.Reg* %533, i32 0, i32 0
  %PC.i4 = bitcast %union.anon* %534 to i64*
  %535 = getelementptr inbounds %struct.State, %struct.State* %0, i32 0, i32 6
  %536 = getelementptr inbounds %struct.GPR, %struct.GPR* %535, i32 0, i32 13
  %537 = getelementptr inbounds %struct.Reg, %struct.Reg* %536, i32 0, i32 0
  %RSP.i = bitcast %union.anon* %537 to i64*
  %538 = load i64, i64* %RSP.i
  %539 = load i64, i64* %PC.i4
  %540 = add i64 %539, 4
  store i64 %540, i64* %PC.i4
  %541 = add i64 16, %538
  store i64 %541, i64* %RSP.i, align 8
  %542 = icmp ult i64 %541, %538
  %543 = icmp ult i64 %541, 16
  %544 = or i1 %542, %543
  %545 = zext i1 %544 to i8
  %546 = getelementptr inbounds %struct.State, %struct.State* %0, i64 0, i32 2, i32 1
  store i8 %545, i8* %546, align 1
  %547 = trunc i64 %541 to i32
  %548 = and i32 %547, 255
  %549 = call i32 @llvm.ctpop.i32(i32 %548)
  %550 = trunc i32 %549 to i8
  %551 = and i8 %550, 1
  %552 = xor i8 %551, 1
  %553 = getelementptr inbounds %struct.State, %struct.State* %0, i64 0, i32 2, i32 3
  store i8 %552, i8* %553, align 1
  %554 = xor i64 16, %538
  %555 = xor i64 %554, %541
  %556 = lshr i64 %555, 4
  %557 = trunc i64 %556 to i8
  %558 = and i8 %557, 1
  %559 = getelementptr inbounds %struct.State, %struct.State* %0, i64 0, i32 2, i32 5
  store i8 %558, i8* %559, align 1
  %560 = icmp eq i64 %541, 0
  %561 = zext i1 %560 to i8
  %562 = getelementptr inbounds %struct.State, %struct.State* %0, i64 0, i32 2, i32 7
  store i8 %561, i8* %562, align 1
  %563 = lshr i64 %541, 63
  %564 = trunc i64 %563 to i8
  %565 = getelementptr inbounds %struct.State, %struct.State* %0, i64 0, i32 2, i32 9
  store i8 %564, i8* %565, align 1
  %566 = lshr i64 %538, 63
  %567 = xor i64 %563, %566
  %568 = add i64 %567, %563
  %569 = icmp eq i64 %568, 2
  %570 = zext i1 %569 to i8
  %571 = getelementptr inbounds %struct.State, %struct.State* %0, i64 0, i32 2, i32 13
  store i8 %570, i8* %571, align 1
  store %struct.Memory* %loadMem_407d94, %struct.Memory** %MEMORY
  %loadMem_407d98 = load %struct.Memory*, %struct.Memory** %MEMORY
  %572 = getelementptr inbounds %struct.State, %struct.State* %0, i32 0, i32 6
  %573 = getelementptr inbounds %struct.GPR, %struct.GPR* %572, i32 0, i32 33
  %574 = getelementptr inbounds %struct.Reg, %struct.Reg* %573, i32 0, i32 0
  %PC.i2 = bitcast %union.anon* %574 to i64*
  %575 = getelementptr inbounds %struct.State, %struct.State* %0, i32 0, i32 6
  %576 = getelementptr inbounds %struct.GPR, %struct.GPR* %575, i32 0, i32 15
  %577 = getelementptr inbounds %struct.Reg, %struct.Reg* %576, i32 0, i32 0
  %RBP.i3 = bitcast %union.anon* %577 to i64*
  %578 = load i64, i64* %PC.i2
  %579 = add i64 %578, 1
  store i64 %579, i64* %PC.i2
  %580 = getelementptr inbounds %struct.State, %struct.State* %0, i64 0, i32 6, i32 13, i32 0, i32 0
  %581 = load i64, i64* %580, align 8
  %582 = add i64 %581, 8
  %583 = inttoptr i64 %581 to i64*
  %584 = load i64, i64* %583
  store i64 %584, i64* %RBP.i3, align 8
  store i64 %582, i64* %580, align 8
  store %struct.Memory* %loadMem_407d98, %struct.Memory** %MEMORY
  %loadMem_407d99 = load %struct.Memory*, %struct.Memory** %MEMORY
  %585 = getelementptr inbounds %struct.State, %struct.State* %0, i32 0, i32 6
  %586 = getelementptr inbounds %struct.GPR, %struct.GPR* %585, i32 0, i32 33
  %587 = getelementptr inbounds %struct.Reg, %struct.Reg* %586, i32 0, i32 0
  %PC.i1 = bitcast %union.anon* %587 to i64*
  %588 = load i64, i64* %PC.i1
  %589 = add i64 %588, 1
  store i64 %589, i64* %PC.i1
  %590 = getelementptr inbounds %struct.State, %struct.State* %0, i64 0, i32 6, i32 33, i32 0, i32 0
  %591 = getelementptr inbounds %struct.State, %struct.State* %0, i64 0, i32 6, i32 13, i32 0, i32 0
  %592 = load i64, i64* %591, align 8
  %593 = inttoptr i64 %592 to i64*
  %594 = load i64, i64* %593
  store i64 %594, i64* %590, align 8
  %595 = add i64 %592, 8
  store i64 %595, i64* %591, align 8
  store %struct.Memory* %loadMem_407d99, %struct.Memory** %MEMORY
  ret %struct.Memory* %loadMem_407d99
}

define %struct.Memory* @routine_pushq__rbp(%struct.State* dereferenceable(3376), i64, %struct.Memory*) {
block_400488:
  %3 = getelementptr inbounds %struct.State, %struct.State* %0, i32 0, i32 6
  %4 = getelementptr inbounds %struct.GPR, %struct.GPR* %3, i32 0, i32 33
  %5 = getelementptr inbounds %struct.Reg, %struct.Reg* %4, i32 0, i32 0
  %PC = bitcast %union.anon* %5 to i64*
  %6 = getelementptr inbounds %struct.State, %struct.State* %0, i32 0, i32 6
  %7 = getelementptr inbounds %struct.GPR, %struct.GPR* %6, i32 0, i32 15
  %8 = getelementptr inbounds %struct.Reg, %struct.Reg* %7, i32 0, i32 0
  %RBP = bitcast %union.anon* %8 to i64*
  %9 = load i64, i64* %RBP
  %10 = load i64, i64* %PC
  %11 = add i64 %10, 1
  store i64 %11, i64* %PC
  %12 = getelementptr inbounds %struct.State, %struct.State* %0, i64 0, i32 6, i32 13, i32 0, i32 0
  %13 = load i64, i64* %12, align 8
  %14 = add i64 %13, -8
  %15 = inttoptr i64 %14 to i64*
  store i64 %9, i64* %15
  store i64 %14, i64* %12, align 8
  ret %struct.Memory* %2
}

define %struct.Memory* @routine_movq__rsp___rbp(%struct.State* dereferenceable(3376), i64, %struct.Memory*) {
block_400488:
  %3 = getelementptr inbounds %struct.State, %struct.State* %0, i32 0, i32 6
  %4 = getelementptr inbounds %struct.GPR, %struct.GPR* %3, i32 0, i32 33
  %5 = getelementptr inbounds %struct.Reg, %struct.Reg* %4, i32 0, i32 0
  %PC = bitcast %union.anon* %5 to i64*
  %6 = getelementptr inbounds %struct.State, %struct.State* %0, i32 0, i32 6
  %7 = getelementptr inbounds %struct.GPR, %struct.GPR* %6, i32 0, i32 13
  %8 = getelementptr inbounds %struct.Reg, %struct.Reg* %7, i32 0, i32 0
  %RSP = bitcast %union.anon* %8 to i64*
  %9 = getelementptr inbounds %struct.State, %struct.State* %0, i32 0, i32 6
  %10 = getelementptr inbounds %struct.GPR, %struct.GPR* %9, i32 0, i32 15
  %11 = getelementptr inbounds %struct.Reg, %struct.Reg* %10, i32 0, i32 0
  %RBP = bitcast %union.anon* %11 to i64*
  %12 = load i64, i64* %RSP
  %13 = load i64, i64* %PC
  %14 = add i64 %13, 3
  store i64 %14, i64* %PC
  store i64 %12, i64* %RBP, align 8
  ret %struct.Memory* %2
}

define %struct.Memory* @routine_subq__0x10___rsp(%struct.State* dereferenceable(3376), i64, %struct.Memory*) {
block_400488:
  %3 = getelementptr inbounds %struct.State, %struct.State* %0, i32 0, i32 6
  %4 = getelementptr inbounds %struct.GPR, %struct.GPR* %3, i32 0, i32 33
  %5 = getelementptr inbounds %struct.Reg, %struct.Reg* %4, i32 0, i32 0
  %PC = bitcast %union.anon* %5 to i64*
  %6 = getelementptr inbounds %struct.State, %struct.State* %0, i32 0, i32 6
  %7 = getelementptr inbounds %struct.GPR, %struct.GPR* %6, i32 0, i32 13
  %8 = getelementptr inbounds %struct.Reg, %struct.Reg* %7, i32 0, i32 0
  %RSP = bitcast %union.anon* %8 to i64*
  %9 = load i64, i64* %RSP
  %10 = load i64, i64* %PC
  %11 = add i64 %10, 4
  store i64 %11, i64* %PC
  %12 = sub i64 %9, 16
  store i64 %12, i64* %RSP, align 8
  %13 = icmp ult i64 %9, 16
  %14 = zext i1 %13 to i8
  %15 = getelementptr inbounds %struct.State, %struct.State* %0, i64 0, i32 2, i32 1
  store i8 %14, i8* %15, align 1
  %16 = trunc i64 %12 to i32
  %17 = and i32 %16, 255
  %18 = call i32 @llvm.ctpop.i32(i32 %17)
  %19 = trunc i32 %18 to i8
  %20 = and i8 %19, 1
  %21 = xor i8 %20, 1
  %22 = getelementptr inbounds %struct.State, %struct.State* %0, i64 0, i32 2, i32 3
  store i8 %21, i8* %22, align 1
  %23 = xor i64 16, %9
  %24 = xor i64 %23, %12
  %25 = lshr i64 %24, 4
  %26 = trunc i64 %25 to i8
  %27 = and i8 %26, 1
  %28 = getelementptr inbounds %struct.State, %struct.State* %0, i64 0, i32 2, i32 5
  store i8 %27, i8* %28, align 1
  %29 = icmp eq i64 %12, 0
  %30 = zext i1 %29 to i8
  %31 = getelementptr inbounds %struct.State, %struct.State* %0, i64 0, i32 2, i32 7
  store i8 %30, i8* %31, align 1
  %32 = lshr i64 %12, 63
  %33 = trunc i64 %32 to i8
  %34 = getelementptr inbounds %struct.State, %struct.State* %0, i64 0, i32 2, i32 9
  store i8 %33, i8* %34, align 1
  %35 = lshr i64 %9, 63
  %36 = xor i64 %32, %35
  %37 = add i64 %36, %35
  %38 = icmp eq i64 %37, 2
  %39 = zext i1 %38 to i8
  %40 = getelementptr inbounds %struct.State, %struct.State* %0, i64 0, i32 2, i32 13
  store i8 %39, i8* %40, align 1
  ret %struct.Memory* %2
}

define %struct.Memory* @routine_movq__rdi__MINUS0x8__rbp_(%struct.State* dereferenceable(3376), i64, %struct.Memory*) {
block_400488:
  %3 = getelementptr inbounds %struct.State, %struct.State* %0, i32 0, i32 6
  %4 = getelementptr inbounds %struct.GPR, %struct.GPR* %3, i32 0, i32 33
  %5 = getelementptr inbounds %struct.Reg, %struct.Reg* %4, i32 0, i32 0
  %PC = bitcast %union.anon* %5 to i64*
  %6 = getelementptr inbounds %struct.State, %struct.State* %0, i32 0, i32 6
  %7 = getelementptr inbounds %struct.GPR, %struct.GPR* %6, i32 0, i32 11
  %8 = getelementptr inbounds %struct.Reg, %struct.Reg* %7, i32 0, i32 0
  %RDI = bitcast %union.anon* %8 to i64*
  %9 = getelementptr inbounds %struct.State, %struct.State* %0, i32 0, i32 6
  %10 = getelementptr inbounds %struct.GPR, %struct.GPR* %9, i32 0, i32 15
  %11 = getelementptr inbounds %struct.Reg, %struct.Reg* %10, i32 0, i32 0
  %RBP = bitcast %union.anon* %11 to i64*
  %12 = load i64, i64* %RBP
  %13 = sub i64 %12, 8
  %14 = load i64, i64* %RDI
  %15 = load i64, i64* %PC
  %16 = add i64 %15, 4
  store i64 %16, i64* %PC
  %17 = inttoptr i64 %13 to i64*
  store i64 %14, i64* %17
  ret %struct.Memory* %2
}

define %struct.Memory* @routine_movq_MINUS0x8__rbp____rdi(%struct.State* dereferenceable(3376), i64, %struct.Memory*) {
block_400488:
  %3 = getelementptr inbounds %struct.State, %struct.State* %0, i32 0, i32 6
  %4 = getelementptr inbounds %struct.GPR, %struct.GPR* %3, i32 0, i32 33
  %5 = getelementptr inbounds %struct.Reg, %struct.Reg* %4, i32 0, i32 0
  %PC = bitcast %union.anon* %5 to i64*
  %6 = getelementptr inbounds %struct.State, %struct.State* %0, i32 0, i32 6
  %7 = getelementptr inbounds %struct.GPR, %struct.GPR* %6, i32 0, i32 11
  %8 = getelementptr inbounds %struct.Reg, %struct.Reg* %7, i32 0, i32 0
  %RDI = bitcast %union.anon* %8 to i64*
  %9 = getelementptr inbounds %struct.State, %struct.State* %0, i32 0, i32 6
  %10 = getelementptr inbounds %struct.GPR, %struct.GPR* %9, i32 0, i32 15
  %11 = getelementptr inbounds %struct.Reg, %struct.Reg* %10, i32 0, i32 0
  %RBP = bitcast %union.anon* %11 to i64*
  %12 = load i64, i64* %RBP
  %13 = sub i64 %12, 8
  %14 = load i64, i64* %PC
  %15 = add i64 %14, 4
  store i64 %15, i64* %PC
  %16 = inttoptr i64 %13 to i64*
  %17 = load i64, i64* %16
  store i64 %17, i64* %RDI, align 8
  ret %struct.Memory* %2
}

define %struct.Memory* @routine_movq___rdi____rdi(%struct.State* dereferenceable(3376), i64, %struct.Memory*) {
block_400488:
  %3 = getelementptr inbounds %struct.State, %struct.State* %0, i32 0, i32 6
  %4 = getelementptr inbounds %struct.GPR, %struct.GPR* %3, i32 0, i32 33
  %5 = getelementptr inbounds %struct.Reg, %struct.Reg* %4, i32 0, i32 0
  %PC = bitcast %union.anon* %5 to i64*
  %6 = getelementptr inbounds %struct.State, %struct.State* %0, i32 0, i32 6
  %7 = getelementptr inbounds %struct.GPR, %struct.GPR* %6, i32 0, i32 11
  %8 = getelementptr inbounds %struct.Reg, %struct.Reg* %7, i32 0, i32 0
  %RDI = bitcast %union.anon* %8 to i64*
  %9 = load i64, i64* %RDI
  %10 = load i64, i64* %PC
  %11 = add i64 %10, 3
  store i64 %11, i64* %PC
  %12 = inttoptr i64 %9 to i64*
  %13 = load i64, i64* %12
  store i64 %13, i64* %RDI, align 8
  ret %struct.Memory* %2
}

define %struct.Memory* @routine_callq_.free_plt(%struct.State* dereferenceable(3376), i64, %struct.Memory*, i64 %rel_off1, i64 %rel_off2, i64 %rel_off3) {
block_400488:
  %3 = getelementptr inbounds %struct.State, %struct.State* %0, i32 0, i32 6
  %4 = getelementptr inbounds %struct.GPR, %struct.GPR* %3, i32 0, i32 33
  %5 = getelementptr inbounds %struct.Reg, %struct.Reg* %4, i32 0, i32 0
  %PC = bitcast %union.anon* %5 to i64*
  %6 = load i64, i64* %PC
  %7 = add i64 %6, %rel_off1
  %8 = load i64, i64* %PC
  %9 = add i64 %8, %rel_off2
  %10 = load i64, i64* %PC
  %11 = add i64 %10, %rel_off3
  store i64 %11, i64* %PC
  %12 = getelementptr inbounds %struct.State, %struct.State* %0, i64 0, i32 6, i32 13, i32 0, i32 0
  %13 = load i64, i64* %12, align 8
  %14 = add i64 %13, -8
  %15 = inttoptr i64 %14 to i64*
  store i64 %9, i64* %15
  store i64 %14, i64* %12, align 8
  %16 = getelementptr inbounds %struct.State, %struct.State* %0, i64 0, i32 6, i32 33, i32 0, i32 0
  store i64 %7, i64* %16, align 8
  ret %struct.Memory* %2
}

define %struct.Memory* @routine_movq_0x8__rdi____rdi(%struct.State* dereferenceable(3376), i64, %struct.Memory*) {
block_400488:
  %3 = getelementptr inbounds %struct.State, %struct.State* %0, i32 0, i32 6
  %4 = getelementptr inbounds %struct.GPR, %struct.GPR* %3, i32 0, i32 33
  %5 = getelementptr inbounds %struct.Reg, %struct.Reg* %4, i32 0, i32 0
  %PC = bitcast %union.anon* %5 to i64*
  %6 = getelementptr inbounds %struct.State, %struct.State* %0, i32 0, i32 6
  %7 = getelementptr inbounds %struct.GPR, %struct.GPR* %6, i32 0, i32 11
  %8 = getelementptr inbounds %struct.Reg, %struct.Reg* %7, i32 0, i32 0
  %RDI = bitcast %union.anon* %8 to i64*
  %9 = load i64, i64* %RDI
  %10 = add i64 %9, 8
  %11 = load i64, i64* %PC
  %12 = add i64 %11, 4
  store i64 %12, i64* %PC
  %13 = inttoptr i64 %10 to i64*
  %14 = load i64, i64* %13
  store i64 %14, i64* %RDI, align 8
  ret %struct.Memory* %2
}

define %struct.Memory* @routine_movq_0x10__rdi____rdi(%struct.State* dereferenceable(3376), i64, %struct.Memory*) {
block_400488:
  %3 = getelementptr inbounds %struct.State, %struct.State* %0, i32 0, i32 6
  %4 = getelementptr inbounds %struct.GPR, %struct.GPR* %3, i32 0, i32 33
  %5 = getelementptr inbounds %struct.Reg, %struct.Reg* %4, i32 0, i32 0
  %PC = bitcast %union.anon* %5 to i64*
  %6 = getelementptr inbounds %struct.State, %struct.State* %0, i32 0, i32 6
  %7 = getelementptr inbounds %struct.GPR, %struct.GPR* %6, i32 0, i32 11
  %8 = getelementptr inbounds %struct.Reg, %struct.Reg* %7, i32 0, i32 0
  %RDI = bitcast %union.anon* %8 to i64*
  %9 = load i64, i64* %RDI
  %10 = add i64 %9, 16
  %11 = load i64, i64* %PC
  %12 = add i64 %11, 4
  store i64 %12, i64* %PC
  %13 = inttoptr i64 %10 to i64*
  %14 = load i64, i64* %13
  store i64 %14, i64* %RDI, align 8
  ret %struct.Memory* %2
}

define %struct.Memory* @routine_movq_0x18__rdi____rdi(%struct.State* dereferenceable(3376), i64, %struct.Memory*) {
block_400488:
  %3 = getelementptr inbounds %struct.State, %struct.State* %0, i32 0, i32 6
  %4 = getelementptr inbounds %struct.GPR, %struct.GPR* %3, i32 0, i32 33
  %5 = getelementptr inbounds %struct.Reg, %struct.Reg* %4, i32 0, i32 0
  %PC = bitcast %union.anon* %5 to i64*
  %6 = getelementptr inbounds %struct.State, %struct.State* %0, i32 0, i32 6
  %7 = getelementptr inbounds %struct.GPR, %struct.GPR* %6, i32 0, i32 11
  %8 = getelementptr inbounds %struct.Reg, %struct.Reg* %7, i32 0, i32 0
  %RDI = bitcast %union.anon* %8 to i64*
  %9 = load i64, i64* %RDI
  %10 = add i64 %9, 24
  %11 = load i64, i64* %PC
  %12 = add i64 %11, 4
  store i64 %12, i64* %PC
  %13 = inttoptr i64 %10 to i64*
  %14 = load i64, i64* %13
  store i64 %14, i64* %RDI, align 8
  ret %struct.Memory* %2
}

define %struct.Memory* @routine_movq_0x20__rdi____rdi(%struct.State* dereferenceable(3376), i64, %struct.Memory*) {
block_400488:
  %3 = getelementptr inbounds %struct.State, %struct.State* %0, i32 0, i32 6
  %4 = getelementptr inbounds %struct.GPR, %struct.GPR* %3, i32 0, i32 33
  %5 = getelementptr inbounds %struct.Reg, %struct.Reg* %4, i32 0, i32 0
  %PC = bitcast %union.anon* %5 to i64*
  %6 = getelementptr inbounds %struct.State, %struct.State* %0, i32 0, i32 6
  %7 = getelementptr inbounds %struct.GPR, %struct.GPR* %6, i32 0, i32 11
  %8 = getelementptr inbounds %struct.Reg, %struct.Reg* %7, i32 0, i32 0
  %RDI = bitcast %union.anon* %8 to i64*
  %9 = load i64, i64* %RDI
  %10 = add i64 %9, 32
  %11 = load i64, i64* %PC
  %12 = add i64 %11, 4
  store i64 %12, i64* %PC
  %13 = inttoptr i64 %10 to i64*
  %14 = load i64, i64* %13
  store i64 %14, i64* %RDI, align 8
  ret %struct.Memory* %2
}

define %struct.Memory* @routine_addq__0x10___rsp(%struct.State* dereferenceable(3376), i64, %struct.Memory*) {
block_400488:
  %3 = getelementptr inbounds %struct.State, %struct.State* %0, i32 0, i32 6
  %4 = getelementptr inbounds %struct.GPR, %struct.GPR* %3, i32 0, i32 33
  %5 = getelementptr inbounds %struct.Reg, %struct.Reg* %4, i32 0, i32 0
  %PC = bitcast %union.anon* %5 to i64*
  %6 = getelementptr inbounds %struct.State, %struct.State* %0, i32 0, i32 6
  %7 = getelementptr inbounds %struct.GPR, %struct.GPR* %6, i32 0, i32 13
  %8 = getelementptr inbounds %struct.Reg, %struct.Reg* %7, i32 0, i32 0
  %RSP = bitcast %union.anon* %8 to i64*
  %9 = load i64, i64* %RSP
  %10 = load i64, i64* %PC
  %11 = add i64 %10, 4
  store i64 %11, i64* %PC
  %12 = add i64 16, %9
  store i64 %12, i64* %RSP, align 8
  %13 = icmp ult i64 %12, %9
  %14 = icmp ult i64 %12, 16
  %15 = or i1 %13, %14
  %16 = zext i1 %15 to i8
  %17 = getelementptr inbounds %struct.State, %struct.State* %0, i64 0, i32 2, i32 1
  store i8 %16, i8* %17, align 1
  %18 = trunc i64 %12 to i32
  %19 = and i32 %18, 255
  %20 = call i32 @llvm.ctpop.i32(i32 %19)
  %21 = trunc i32 %20 to i8
  %22 = and i8 %21, 1
  %23 = xor i8 %22, 1
  %24 = getelementptr inbounds %struct.State, %struct.State* %0, i64 0, i32 2, i32 3
  store i8 %23, i8* %24, align 1
  %25 = xor i64 16, %9
  %26 = xor i64 %25, %12
  %27 = lshr i64 %26, 4
  %28 = trunc i64 %27 to i8
  %29 = and i8 %28, 1
  %30 = getelementptr inbounds %struct.State, %struct.State* %0, i64 0, i32 2, i32 5
  store i8 %29, i8* %30, align 1
  %31 = icmp eq i64 %12, 0
  %32 = zext i1 %31 to i8
  %33 = getelementptr inbounds %struct.State, %struct.State* %0, i64 0, i32 2, i32 7
  store i8 %32, i8* %33, align 1
  %34 = lshr i64 %12, 63
  %35 = trunc i64 %34 to i8
  %36 = getelementptr inbounds %struct.State, %struct.State* %0, i64 0, i32 2, i32 9
  store i8 %35, i8* %36, align 1
  %37 = lshr i64 %9, 63
  %38 = xor i64 %34, %37
  %39 = add i64 %38, %34
  %40 = icmp eq i64 %39, 2
  %41 = zext i1 %40 to i8
  %42 = getelementptr inbounds %struct.State, %struct.State* %0, i64 0, i32 2, i32 13
  store i8 %41, i8* %42, align 1
  ret %struct.Memory* %2
}

define %struct.Memory* @routine_popq__rbp(%struct.State* dereferenceable(3376), i64, %struct.Memory*) {
block_400488:
  %3 = getelementptr inbounds %struct.State, %struct.State* %0, i32 0, i32 6
  %4 = getelementptr inbounds %struct.GPR, %struct.GPR* %3, i32 0, i32 33
  %5 = getelementptr inbounds %struct.Reg, %struct.Reg* %4, i32 0, i32 0
  %PC = bitcast %union.anon* %5 to i64*
  %6 = getelementptr inbounds %struct.State, %struct.State* %0, i32 0, i32 6
  %7 = getelementptr inbounds %struct.GPR, %struct.GPR* %6, i32 0, i32 15
  %8 = getelementptr inbounds %struct.Reg, %struct.Reg* %7, i32 0, i32 0
  %RBP = bitcast %union.anon* %8 to i64*
  %9 = load i64, i64* %PC
  %10 = add i64 %9, 1
  store i64 %10, i64* %PC
  %11 = getelementptr inbounds %struct.State, %struct.State* %0, i64 0, i32 6, i32 13, i32 0, i32 0
  %12 = load i64, i64* %11, align 8
  %13 = add i64 %12, 8
  %14 = inttoptr i64 %12 to i64*
  %15 = load i64, i64* %14
  store i64 %15, i64* %RBP, align 8
  store i64 %13, i64* %11, align 8
  ret %struct.Memory* %2
}

define %struct.Memory* @routine_retq(%struct.State* dereferenceable(3376), i64, %struct.Memory*) {
block_400488:
  %3 = getelementptr inbounds %struct.State, %struct.State* %0, i32 0, i32 6
  %4 = getelementptr inbounds %struct.GPR, %struct.GPR* %3, i32 0, i32 33
  %5 = getelementptr inbounds %struct.Reg, %struct.Reg* %4, i32 0, i32 0
  %PC = bitcast %union.anon* %5 to i64*
  %6 = load i64, i64* %PC
  %7 = add i64 %6, 1
  store i64 %7, i64* %PC
  %8 = getelementptr inbounds %struct.State, %struct.State* %0, i64 0, i32 6, i32 33, i32 0, i32 0
  %9 = getelementptr inbounds %struct.State, %struct.State* %0, i64 0, i32 6, i32 13, i32 0, i32 0
  %10 = load i64, i64* %9, align 8
  %11 = inttoptr i64 %10 to i64*
  %12 = load i64, i64* %11
  store i64 %12, i64* %8, align 8
  %13 = add i64 %10, 8
  store i64 %13, i64* %9, align 8
  ret %struct.Memory* %2
}

attributes #0 = { argmemonly nounwind }
attributes #1 = { nounwind readnone }
attributes #2 = { alwaysinline }
