; ModuleID = 'mcsema/test.proposed.inline.ll'
source_filename = "llvm-link"
target datalayout = "e-m:e-i64:64-f80:128-n8:16:32:64-S128"
target triple = "x86_64-pc-linux-gnu-elf"

%__bss_start_type = type <{ [8 x i8] }>
%struct.State = type { %struct.ArchState, [32 x %union.VectorReg], %struct.ArithFlags, %union.anon, %struct.Segments, %struct.AddressSpace, %struct.GPR, %struct.X87Stack, %struct.MMX, %struct.FPUStatusFlags, %union.anon, %union.FPU, %struct.SegmentCaches }
%struct.ArchState = type { i32, i32, %union.anon }
%union.VectorReg = type { %union.vec512_t }
%union.vec512_t = type { %struct.uint64v8_t }
%struct.uint64v8_t = type { [8 x i64] }
%struct.ArithFlags = type { i8, i8, i8, i8, i8, i8, i8, i8, i8, i8, i8, i8, i8, i8, i8, i8 }
%struct.Segments = type { i16, %union.SegmentSelector, i16, %union.SegmentSelector, i16, %union.SegmentSelector, i16, %union.SegmentSelector, i16, %union.SegmentSelector, i16, %union.SegmentSelector }
%union.SegmentSelector = type { i16 }
%struct.AddressSpace = type { i64, %struct.Reg, i64, %struct.Reg, i64, %struct.Reg, i64, %struct.Reg, i64, %struct.Reg, i64, %struct.Reg }
%struct.Reg = type { %union.anon }
%struct.GPR = type { i64, %struct.Reg, i64, %struct.Reg, i64, %struct.Reg, i64, %struct.Reg, i64, %struct.Reg, i64, %struct.Reg, i64, %struct.Reg, i64, %struct.Reg, i64, %struct.Reg, i64, %struct.Reg, i64, %struct.Reg, i64, %struct.Reg, i64, %struct.Reg, i64, %struct.Reg, i64, %struct.Reg, i64, %struct.Reg, i64, %struct.Reg }
%struct.X87Stack = type { [8 x %struct.anon.3] }
%struct.anon.3 = type { i64, double }
%struct.MMX = type { [8 x %struct.anon.4] }
%struct.anon.4 = type { i64, %union.vec64_t }
%union.vec64_t = type { %struct.uint64v1_t }
%struct.uint64v1_t = type { [1 x i64] }
%struct.FPUStatusFlags = type { i8, i8, i8, i8, i8, i8, i8, i8, i8, i8, i8, i8, i8, i8, i8, i8, i8, i8, i8, i8, [4 x i8] }
%union.anon = type { i64 }
%union.FPU = type { %struct.anon.13 }
%struct.anon.13 = type { %struct.FpuFXSAVE, [96 x i8] }
%struct.FpuFXSAVE = type { %union.SegmentSelector, %union.SegmentSelector, %union.FPUAbridgedTagWord, i8, i16, i32, %union.SegmentSelector, i16, i32, %union.SegmentSelector, i16, %union.FPUControlStatus, %union.FPUControlStatus, [8 x %struct.FPUStackElem], [16 x %union.vec128_t] }
%union.FPUAbridgedTagWord = type { i8 }
%union.FPUControlStatus = type { i32 }
%struct.FPUStackElem = type { %union.anon.11, [6 x i8] }
%union.anon.11 = type { %struct.float80_t }
%struct.float80_t = type { [10 x i8] }
%union.vec128_t = type { %struct.uint128v1_t }
%struct.uint128v1_t = type { [1 x i128] }
%struct.SegmentCaches = type { %struct.SegmentShadow, %struct.SegmentShadow, %struct.SegmentShadow, %struct.SegmentShadow, %struct.SegmentShadow, %struct.SegmentShadow }
%struct.SegmentShadow = type { %union.anon, i32, i32 }
%struct.Memory = type opaque

@__bss_start = local_unnamed_addr global %__bss_start_type zeroinitializer

; Function Attrs: nounwind readnone
declare i32 @llvm.ctpop.i32(i32) #0

; Function Attrs: alwaysinline nounwind
define %struct.Memory* @s_rook_mobility(%struct.State* noalias, i64, %struct.Memory* noalias readnone returned) local_unnamed_addr #1 {
entry:
  %3 = getelementptr inbounds %struct.State, %struct.State* %0, i64 0, i32 6, i32 33, i32 0, i32 0
  %RBP.i = getelementptr inbounds %struct.State, %struct.State* %0, i64 0, i32 6, i32 15, i32 0, i32 0
  %4 = load i64, i64* %RBP.i, align 8
  %5 = add i64 %1, 1
  store i64 %5, i64* %3, align 8
  %6 = getelementptr inbounds %struct.State, %struct.State* %0, i64 0, i32 6, i32 13, i32 0, i32 0
  %7 = load i64, i64* %6, align 8
  %8 = add i64 %7, -8
  %9 = inttoptr i64 %8 to i64*
  store i64 %4, i64* %9, align 8
  store i64 %8, i64* %6, align 8
  %10 = load i64, i64* %3, align 8
  store i64 %8, i64* %RBP.i, align 8
  %11 = getelementptr inbounds %struct.State, %struct.State* %0, i64 0, i32 6, i32 11, i32 0
  %EDI.i132 = bitcast %union.anon* %11 to i32*
  %12 = add i64 %7, -12
  %13 = load i32, i32* %EDI.i132, align 4
  %14 = add i64 %10, 6
  store i64 %14, i64* %3, align 8
  %15 = inttoptr i64 %12 to i32*
  store i32 %13, i32* %15, align 4
  %16 = load i64, i64* %RBP.i, align 8
  %17 = add i64 %16, -12
  %18 = load i64, i64* %3, align 8
  %19 = add i64 %18, 7
  store i64 %19, i64* %3, align 8
  %20 = inttoptr i64 %17 to i32*
  store i32 0, i32* %20, align 4
  %RDI.i127 = getelementptr inbounds %union.anon, %union.anon* %11, i64 0, i32 0
  %21 = load i64, i64* %RBP.i, align 8
  %22 = add i64 %21, -4
  %23 = load i64, i64* %3, align 8
  %24 = add i64 %23, 3
  store i64 %24, i64* %3, align 8
  %25 = inttoptr i64 %22 to i32*
  %26 = load i32, i32* %25, align 4
  %27 = add i32 %26, -12
  %28 = zext i32 %27 to i64
  store i64 %28, i64* %RDI.i127, align 8
  %29 = icmp ult i32 %26, 12
  %30 = zext i1 %29 to i8
  %31 = getelementptr inbounds %struct.State, %struct.State* %0, i64 0, i32 2, i32 1
  store i8 %30, i8* %31, align 1
  %32 = and i32 %27, 255
  %33 = tail call i32 @llvm.ctpop.i32(i32 %32)
  %34 = trunc i32 %33 to i8
  %35 = and i8 %34, 1
  %36 = xor i8 %35, 1
  %37 = getelementptr inbounds %struct.State, %struct.State* %0, i64 0, i32 2, i32 3
  store i8 %36, i8* %37, align 1
  %38 = xor i32 %27, %26
  %39 = lshr i32 %38, 4
  %40 = trunc i32 %39 to i8
  %41 = and i8 %40, 1
  %42 = getelementptr inbounds %struct.State, %struct.State* %0, i64 0, i32 2, i32 5
  store i8 %41, i8* %42, align 1
  %43 = icmp eq i32 %27, 0
  %44 = zext i1 %43 to i8
  %45 = getelementptr inbounds %struct.State, %struct.State* %0, i64 0, i32 2, i32 7
  store i8 %44, i8* %45, align 1
  %46 = lshr i32 %27, 31
  %47 = trunc i32 %46 to i8
  %48 = getelementptr inbounds %struct.State, %struct.State* %0, i64 0, i32 2, i32 9
  store i8 %47, i8* %48, align 1
  %49 = lshr i32 %26, 31
  %50 = xor i32 %46, %49
  %51 = add nuw nsw i32 %50, %49
  %52 = icmp eq i32 %51, 2
  %53 = zext i1 %52 to i8
  %54 = getelementptr inbounds %struct.State, %struct.State* %0, i64 0, i32 2, i32 13
  store i8 %53, i8* %54, align 1
  %55 = add i64 %21, -8
  %56 = add i64 %23, 9
  store i64 %56, i64* %3, align 8
  %57 = inttoptr i64 %55 to i32*
  store i32 %27, i32* %57, align 4
  %RAX.i121 = getelementptr inbounds %struct.State, %struct.State* %0, i64 0, i32 6, i32 1, i32 0, i32 0
  %.pre = load i64, i64* %3, align 8
  br label %block_.L_41d957

block_.L_41d957:                                  ; preds = %block_41d969, %entry
  %58 = phi i64 [ %150, %block_41d969 ], [ %.pre, %entry ]
  %59 = load i64, i64* %RBP.i, align 8
  %60 = add i64 %59, -8
  %61 = add i64 %58, 4
  store i64 %61, i64* %3, align 8
  %62 = inttoptr i64 %60 to i32*
  %63 = load i32, i32* %62, align 4
  %64 = sext i32 %63 to i64
  store i64 %64, i64* %RAX.i121, align 8
  %65 = shl nsw i64 %64, 2
  %66 = add nsw i64 %65, 8807744
  %67 = add i64 %58, 12
  store i64 %67, i64* %3, align 8
  %68 = inttoptr i64 %66 to i32*
  %69 = load i32, i32* %68, align 4
  %70 = add i32 %69, -13
  %71 = icmp ult i32 %69, 13
  %72 = zext i1 %71 to i8
  store i8 %72, i8* %31, align 1
  %73 = and i32 %70, 255
  %74 = tail call i32 @llvm.ctpop.i32(i32 %73)
  %75 = trunc i32 %74 to i8
  %76 = and i8 %75, 1
  %77 = xor i8 %76, 1
  store i8 %77, i8* %37, align 1
  %78 = xor i32 %70, %69
  %79 = lshr i32 %78, 4
  %80 = trunc i32 %79 to i8
  %81 = and i8 %80, 1
  store i8 %81, i8* %42, align 1
  %82 = icmp eq i32 %70, 0
  %83 = zext i1 %82 to i8
  store i8 %83, i8* %45, align 1
  %84 = lshr i32 %70, 31
  %85 = trunc i32 %84 to i8
  store i8 %85, i8* %48, align 1
  %86 = lshr i32 %69, 31
  %87 = xor i32 %84, %86
  %88 = add nuw nsw i32 %87, %86
  %89 = icmp eq i32 %88, 2
  %90 = zext i1 %89 to i8
  store i8 %90, i8* %54, align 1
  %.v20 = select i1 %82, i64 18, i64 41
  %91 = add i64 %58, %.v20
  store i64 %91, i64* %3, align 8
  br i1 %82, label %block_41d969, label %block_.L_41d980

block_41d969:                                     ; preds = %block_.L_41d957
  %92 = add i64 %59, -12
  %93 = add i64 %91, 3
  store i64 %93, i64* %3, align 8
  %94 = inttoptr i64 %92 to i32*
  %95 = load i32, i32* %94, align 4
  %96 = add i32 %95, 1
  %97 = zext i32 %96 to i64
  store i64 %97, i64* %RAX.i121, align 8
  %98 = icmp eq i32 %95, -1
  %99 = icmp eq i32 %96, 0
  %100 = or i1 %98, %99
  %101 = zext i1 %100 to i8
  store i8 %101, i8* %31, align 1
  %102 = and i32 %96, 255
  %103 = tail call i32 @llvm.ctpop.i32(i32 %102)
  %104 = trunc i32 %103 to i8
  %105 = and i8 %104, 1
  %106 = xor i8 %105, 1
  store i8 %106, i8* %37, align 1
  %107 = xor i32 %96, %95
  %108 = lshr i32 %107, 4
  %109 = trunc i32 %108 to i8
  %110 = and i8 %109, 1
  store i8 %110, i8* %42, align 1
  %111 = zext i1 %99 to i8
  store i8 %111, i8* %45, align 1
  %112 = lshr i32 %96, 31
  %113 = trunc i32 %112 to i8
  store i8 %113, i8* %48, align 1
  %114 = lshr i32 %95, 31
  %115 = xor i32 %112, %114
  %116 = add nuw nsw i32 %115, %112
  %117 = icmp eq i32 %116, 2
  %118 = zext i1 %117 to i8
  store i8 %118, i8* %54, align 1
  %119 = add i64 %91, 9
  store i64 %119, i64* %3, align 8
  store i32 %96, i32* %94, align 4
  %120 = load i64, i64* %RBP.i, align 8
  %121 = add i64 %120, -8
  %122 = load i64, i64* %3, align 8
  %123 = add i64 %122, 3
  store i64 %123, i64* %3, align 8
  %124 = inttoptr i64 %121 to i32*
  %125 = load i32, i32* %124, align 4
  %126 = add i32 %125, -12
  %127 = zext i32 %126 to i64
  store i64 %127, i64* %RAX.i121, align 8
  %128 = icmp ult i32 %125, 12
  %129 = zext i1 %128 to i8
  store i8 %129, i8* %31, align 1
  %130 = and i32 %126, 255
  %131 = tail call i32 @llvm.ctpop.i32(i32 %130)
  %132 = trunc i32 %131 to i8
  %133 = and i8 %132, 1
  %134 = xor i8 %133, 1
  store i8 %134, i8* %37, align 1
  %135 = xor i32 %126, %125
  %136 = lshr i32 %135, 4
  %137 = trunc i32 %136 to i8
  %138 = and i8 %137, 1
  store i8 %138, i8* %42, align 1
  %139 = icmp eq i32 %126, 0
  %140 = zext i1 %139 to i8
  store i8 %140, i8* %45, align 1
  %141 = lshr i32 %126, 31
  %142 = trunc i32 %141 to i8
  store i8 %142, i8* %48, align 1
  %143 = lshr i32 %125, 31
  %144 = xor i32 %141, %143
  %145 = add nuw nsw i32 %144, %143
  %146 = icmp eq i32 %145, 2
  %147 = zext i1 %146 to i8
  store i8 %147, i8* %54, align 1
  %148 = add i64 %122, 9
  store i64 %148, i64* %3, align 8
  store i32 %126, i32* %124, align 4
  %149 = load i64, i64* %3, align 8
  %150 = add i64 %149, -36
  store i64 %150, i64* %3, align 8
  br label %block_.L_41d957

block_.L_41d980:                                  ; preds = %block_.L_41d957
  %151 = add i64 %59, -4
  %152 = add i64 %91, 3
  store i64 %152, i64* %3, align 8
  %153 = inttoptr i64 %151 to i32*
  %154 = load i32, i32* %153, align 4
  %155 = add i32 %154, -1
  %156 = zext i32 %155 to i64
  store i64 %156, i64* %RAX.i121, align 8
  %157 = icmp eq i32 %154, 0
  %158 = zext i1 %157 to i8
  store i8 %158, i8* %31, align 1
  %159 = and i32 %155, 255
  %160 = tail call i32 @llvm.ctpop.i32(i32 %159)
  %161 = trunc i32 %160 to i8
  %162 = and i8 %161, 1
  %163 = xor i8 %162, 1
  store i8 %163, i8* %37, align 1
  %164 = xor i32 %155, %154
  %165 = lshr i32 %164, 4
  %166 = trunc i32 %165 to i8
  %167 = and i8 %166, 1
  store i8 %167, i8* %42, align 1
  %168 = icmp eq i32 %155, 0
  %169 = zext i1 %168 to i8
  store i8 %169, i8* %45, align 1
  %170 = lshr i32 %155, 31
  %171 = trunc i32 %170 to i8
  store i8 %171, i8* %48, align 1
  %172 = lshr i32 %154, 31
  %173 = xor i32 %170, %172
  %174 = add nuw nsw i32 %173, %172
  %175 = icmp eq i32 %174, 2
  %176 = zext i1 %175 to i8
  store i8 %176, i8* %54, align 1
  %177 = add i64 %91, 9
  store i64 %177, i64* %3, align 8
  store i32 %155, i32* %62, align 4
  %.pre17 = load i64, i64* %3, align 8
  br label %block_.L_41d989

block_.L_41d989:                                  ; preds = %block_41d99b, %block_.L_41d980
  %178 = phi i64 [ %270, %block_41d99b ], [ %.pre17, %block_.L_41d980 ]
  %179 = load i64, i64* %RBP.i, align 8
  %180 = add i64 %179, -8
  %181 = add i64 %178, 4
  store i64 %181, i64* %3, align 8
  %182 = inttoptr i64 %180 to i32*
  %183 = load i32, i32* %182, align 4
  %184 = sext i32 %183 to i64
  store i64 %184, i64* %RAX.i121, align 8
  %185 = shl nsw i64 %184, 2
  %186 = add nsw i64 %185, 8807744
  %187 = add i64 %178, 12
  store i64 %187, i64* %3, align 8
  %188 = inttoptr i64 %186 to i32*
  %189 = load i32, i32* %188, align 4
  %190 = add i32 %189, -13
  %191 = icmp ult i32 %189, 13
  %192 = zext i1 %191 to i8
  store i8 %192, i8* %31, align 1
  %193 = and i32 %190, 255
  %194 = tail call i32 @llvm.ctpop.i32(i32 %193)
  %195 = trunc i32 %194 to i8
  %196 = and i8 %195, 1
  %197 = xor i8 %196, 1
  store i8 %197, i8* %37, align 1
  %198 = xor i32 %190, %189
  %199 = lshr i32 %198, 4
  %200 = trunc i32 %199 to i8
  %201 = and i8 %200, 1
  store i8 %201, i8* %42, align 1
  %202 = icmp eq i32 %190, 0
  %203 = zext i1 %202 to i8
  store i8 %203, i8* %45, align 1
  %204 = lshr i32 %190, 31
  %205 = trunc i32 %204 to i8
  store i8 %205, i8* %48, align 1
  %206 = lshr i32 %189, 31
  %207 = xor i32 %204, %206
  %208 = add nuw nsw i32 %207, %206
  %209 = icmp eq i32 %208, 2
  %210 = zext i1 %209 to i8
  store i8 %210, i8* %54, align 1
  %.v21 = select i1 %202, i64 18, i64 41
  %211 = add i64 %178, %.v21
  store i64 %211, i64* %3, align 8
  br i1 %202, label %block_41d99b, label %block_.L_41d9b2

block_41d99b:                                     ; preds = %block_.L_41d989
  %212 = add i64 %179, -12
  %213 = add i64 %211, 3
  store i64 %213, i64* %3, align 8
  %214 = inttoptr i64 %212 to i32*
  %215 = load i32, i32* %214, align 4
  %216 = add i32 %215, 1
  %217 = zext i32 %216 to i64
  store i64 %217, i64* %RAX.i121, align 8
  %218 = icmp eq i32 %215, -1
  %219 = icmp eq i32 %216, 0
  %220 = or i1 %218, %219
  %221 = zext i1 %220 to i8
  store i8 %221, i8* %31, align 1
  %222 = and i32 %216, 255
  %223 = tail call i32 @llvm.ctpop.i32(i32 %222)
  %224 = trunc i32 %223 to i8
  %225 = and i8 %224, 1
  %226 = xor i8 %225, 1
  store i8 %226, i8* %37, align 1
  %227 = xor i32 %216, %215
  %228 = lshr i32 %227, 4
  %229 = trunc i32 %228 to i8
  %230 = and i8 %229, 1
  store i8 %230, i8* %42, align 1
  %231 = zext i1 %219 to i8
  store i8 %231, i8* %45, align 1
  %232 = lshr i32 %216, 31
  %233 = trunc i32 %232 to i8
  store i8 %233, i8* %48, align 1
  %234 = lshr i32 %215, 31
  %235 = xor i32 %232, %234
  %236 = add nuw nsw i32 %235, %232
  %237 = icmp eq i32 %236, 2
  %238 = zext i1 %237 to i8
  store i8 %238, i8* %54, align 1
  %239 = add i64 %211, 9
  store i64 %239, i64* %3, align 8
  store i32 %216, i32* %214, align 4
  %240 = load i64, i64* %RBP.i, align 8
  %241 = add i64 %240, -8
  %242 = load i64, i64* %3, align 8
  %243 = add i64 %242, 3
  store i64 %243, i64* %3, align 8
  %244 = inttoptr i64 %241 to i32*
  %245 = load i32, i32* %244, align 4
  %246 = add i32 %245, -1
  %247 = zext i32 %246 to i64
  store i64 %247, i64* %RAX.i121, align 8
  %248 = icmp eq i32 %245, 0
  %249 = zext i1 %248 to i8
  store i8 %249, i8* %31, align 1
  %250 = and i32 %246, 255
  %251 = tail call i32 @llvm.ctpop.i32(i32 %250)
  %252 = trunc i32 %251 to i8
  %253 = and i8 %252, 1
  %254 = xor i8 %253, 1
  store i8 %254, i8* %37, align 1
  %255 = xor i32 %246, %245
  %256 = lshr i32 %255, 4
  %257 = trunc i32 %256 to i8
  %258 = and i8 %257, 1
  store i8 %258, i8* %42, align 1
  %259 = icmp eq i32 %246, 0
  %260 = zext i1 %259 to i8
  store i8 %260, i8* %45, align 1
  %261 = lshr i32 %246, 31
  %262 = trunc i32 %261 to i8
  store i8 %262, i8* %48, align 1
  %263 = lshr i32 %245, 31
  %264 = xor i32 %261, %263
  %265 = add nuw nsw i32 %264, %263
  %266 = icmp eq i32 %265, 2
  %267 = zext i1 %266 to i8
  store i8 %267, i8* %54, align 1
  %268 = add i64 %242, 9
  store i64 %268, i64* %3, align 8
  store i32 %246, i32* %244, align 4
  %269 = load i64, i64* %3, align 8
  %270 = add i64 %269, -36
  store i64 %270, i64* %3, align 8
  br label %block_.L_41d989

block_.L_41d9b2:                                  ; preds = %block_.L_41d989
  %271 = add i64 %179, -4
  %272 = add i64 %211, 3
  store i64 %272, i64* %3, align 8
  %273 = inttoptr i64 %271 to i32*
  %274 = load i32, i32* %273, align 4
  %275 = add i32 %274, 1
  %276 = zext i32 %275 to i64
  store i64 %276, i64* %RAX.i121, align 8
  %277 = icmp eq i32 %274, -1
  %278 = icmp eq i32 %275, 0
  %279 = or i1 %277, %278
  %280 = zext i1 %279 to i8
  store i8 %280, i8* %31, align 1
  %281 = and i32 %275, 255
  %282 = tail call i32 @llvm.ctpop.i32(i32 %281)
  %283 = trunc i32 %282 to i8
  %284 = and i8 %283, 1
  %285 = xor i8 %284, 1
  store i8 %285, i8* %37, align 1
  %286 = xor i32 %275, %274
  %287 = lshr i32 %286, 4
  %288 = trunc i32 %287 to i8
  %289 = and i8 %288, 1
  store i8 %289, i8* %42, align 1
  %290 = zext i1 %278 to i8
  store i8 %290, i8* %45, align 1
  %291 = lshr i32 %275, 31
  %292 = trunc i32 %291 to i8
  store i8 %292, i8* %48, align 1
  %293 = lshr i32 %274, 31
  %294 = xor i32 %291, %293
  %295 = add nuw nsw i32 %294, %291
  %296 = icmp eq i32 %295, 2
  %297 = zext i1 %296 to i8
  store i8 %297, i8* %54, align 1
  %298 = add i64 %211, 9
  store i64 %298, i64* %3, align 8
  store i32 %275, i32* %182, align 4
  %.pre18 = load i64, i64* %3, align 8
  br label %block_.L_41d9bb

block_.L_41d9bb:                                  ; preds = %block_41d9cd, %block_.L_41d9b2
  %299 = phi i64 [ %392, %block_41d9cd ], [ %.pre18, %block_.L_41d9b2 ]
  %300 = load i64, i64* %RBP.i, align 8
  %301 = add i64 %300, -8
  %302 = add i64 %299, 4
  store i64 %302, i64* %3, align 8
  %303 = inttoptr i64 %301 to i32*
  %304 = load i32, i32* %303, align 4
  %305 = sext i32 %304 to i64
  store i64 %305, i64* %RAX.i121, align 8
  %306 = shl nsw i64 %305, 2
  %307 = add nsw i64 %306, 8807744
  %308 = add i64 %299, 12
  store i64 %308, i64* %3, align 8
  %309 = inttoptr i64 %307 to i32*
  %310 = load i32, i32* %309, align 4
  %311 = add i32 %310, -13
  %312 = icmp ult i32 %310, 13
  %313 = zext i1 %312 to i8
  store i8 %313, i8* %31, align 1
  %314 = and i32 %311, 255
  %315 = tail call i32 @llvm.ctpop.i32(i32 %314)
  %316 = trunc i32 %315 to i8
  %317 = and i8 %316, 1
  %318 = xor i8 %317, 1
  store i8 %318, i8* %37, align 1
  %319 = xor i32 %311, %310
  %320 = lshr i32 %319, 4
  %321 = trunc i32 %320 to i8
  %322 = and i8 %321, 1
  store i8 %322, i8* %42, align 1
  %323 = icmp eq i32 %311, 0
  %324 = zext i1 %323 to i8
  store i8 %324, i8* %45, align 1
  %325 = lshr i32 %311, 31
  %326 = trunc i32 %325 to i8
  store i8 %326, i8* %48, align 1
  %327 = lshr i32 %310, 31
  %328 = xor i32 %325, %327
  %329 = add nuw nsw i32 %328, %327
  %330 = icmp eq i32 %329, 2
  %331 = zext i1 %330 to i8
  store i8 %331, i8* %54, align 1
  %.v22 = select i1 %323, i64 18, i64 41
  %332 = add i64 %299, %.v22
  store i64 %332, i64* %3, align 8
  br i1 %323, label %block_41d9cd, label %block_.L_41d9e4

block_41d9cd:                                     ; preds = %block_.L_41d9bb
  %333 = add i64 %300, -12
  %334 = add i64 %332, 3
  store i64 %334, i64* %3, align 8
  %335 = inttoptr i64 %333 to i32*
  %336 = load i32, i32* %335, align 4
  %337 = add i32 %336, 1
  %338 = zext i32 %337 to i64
  store i64 %338, i64* %RAX.i121, align 8
  %339 = icmp eq i32 %336, -1
  %340 = icmp eq i32 %337, 0
  %341 = or i1 %339, %340
  %342 = zext i1 %341 to i8
  store i8 %342, i8* %31, align 1
  %343 = and i32 %337, 255
  %344 = tail call i32 @llvm.ctpop.i32(i32 %343)
  %345 = trunc i32 %344 to i8
  %346 = and i8 %345, 1
  %347 = xor i8 %346, 1
  store i8 %347, i8* %37, align 1
  %348 = xor i32 %337, %336
  %349 = lshr i32 %348, 4
  %350 = trunc i32 %349 to i8
  %351 = and i8 %350, 1
  store i8 %351, i8* %42, align 1
  %352 = zext i1 %340 to i8
  store i8 %352, i8* %45, align 1
  %353 = lshr i32 %337, 31
  %354 = trunc i32 %353 to i8
  store i8 %354, i8* %48, align 1
  %355 = lshr i32 %336, 31
  %356 = xor i32 %353, %355
  %357 = add nuw nsw i32 %356, %353
  %358 = icmp eq i32 %357, 2
  %359 = zext i1 %358 to i8
  store i8 %359, i8* %54, align 1
  %360 = add i64 %332, 9
  store i64 %360, i64* %3, align 8
  store i32 %337, i32* %335, align 4
  %361 = load i64, i64* %RBP.i, align 8
  %362 = add i64 %361, -8
  %363 = load i64, i64* %3, align 8
  %364 = add i64 %363, 3
  store i64 %364, i64* %3, align 8
  %365 = inttoptr i64 %362 to i32*
  %366 = load i32, i32* %365, align 4
  %367 = add i32 %366, 1
  %368 = zext i32 %367 to i64
  store i64 %368, i64* %RAX.i121, align 8
  %369 = icmp eq i32 %366, -1
  %370 = icmp eq i32 %367, 0
  %371 = or i1 %369, %370
  %372 = zext i1 %371 to i8
  store i8 %372, i8* %31, align 1
  %373 = and i32 %367, 255
  %374 = tail call i32 @llvm.ctpop.i32(i32 %373)
  %375 = trunc i32 %374 to i8
  %376 = and i8 %375, 1
  %377 = xor i8 %376, 1
  store i8 %377, i8* %37, align 1
  %378 = xor i32 %367, %366
  %379 = lshr i32 %378, 4
  %380 = trunc i32 %379 to i8
  %381 = and i8 %380, 1
  store i8 %381, i8* %42, align 1
  %382 = zext i1 %370 to i8
  store i8 %382, i8* %45, align 1
  %383 = lshr i32 %367, 31
  %384 = trunc i32 %383 to i8
  store i8 %384, i8* %48, align 1
  %385 = lshr i32 %366, 31
  %386 = xor i32 %383, %385
  %387 = add nuw nsw i32 %386, %383
  %388 = icmp eq i32 %387, 2
  %389 = zext i1 %388 to i8
  store i8 %389, i8* %54, align 1
  %390 = add i64 %363, 9
  store i64 %390, i64* %3, align 8
  store i32 %367, i32* %365, align 4
  %391 = load i64, i64* %3, align 8
  %392 = add i64 %391, -36
  store i64 %392, i64* %3, align 8
  br label %block_.L_41d9bb

block_.L_41d9e4:                                  ; preds = %block_.L_41d9bb
  %393 = add i64 %300, -4
  %394 = add i64 %332, 3
  store i64 %394, i64* %3, align 8
  %395 = inttoptr i64 %393 to i32*
  %396 = load i32, i32* %395, align 4
  %397 = add i32 %396, 12
  %398 = zext i32 %397 to i64
  store i64 %398, i64* %RAX.i121, align 8
  %399 = icmp ugt i32 %396, -13
  %400 = zext i1 %399 to i8
  store i8 %400, i8* %31, align 1
  %401 = and i32 %397, 255
  %402 = tail call i32 @llvm.ctpop.i32(i32 %401)
  %403 = trunc i32 %402 to i8
  %404 = and i8 %403, 1
  %405 = xor i8 %404, 1
  store i8 %405, i8* %37, align 1
  %406 = xor i32 %397, %396
  %407 = lshr i32 %406, 4
  %408 = trunc i32 %407 to i8
  %409 = and i8 %408, 1
  store i8 %409, i8* %42, align 1
  %410 = icmp eq i32 %397, 0
  %411 = zext i1 %410 to i8
  store i8 %411, i8* %45, align 1
  %412 = lshr i32 %397, 31
  %413 = trunc i32 %412 to i8
  store i8 %413, i8* %48, align 1
  %414 = lshr i32 %396, 31
  %415 = xor i32 %412, %414
  %416 = add nuw nsw i32 %415, %412
  %417 = icmp eq i32 %416, 2
  %418 = zext i1 %417 to i8
  store i8 %418, i8* %54, align 1
  %419 = add i64 %332, 9
  store i64 %419, i64* %3, align 8
  store i32 %397, i32* %303, align 4
  %.pre19 = load i64, i64* %3, align 8
  br label %block_.L_41d9ed

block_.L_41d9ed:                                  ; preds = %block_41d9ff, %block_.L_41d9e4
  %420 = phi i64 [ %514, %block_41d9ff ], [ %.pre19, %block_.L_41d9e4 ]
  %421 = load i64, i64* %RBP.i, align 8
  %422 = add i64 %421, -8
  %423 = add i64 %420, 4
  store i64 %423, i64* %3, align 8
  %424 = inttoptr i64 %422 to i32*
  %425 = load i32, i32* %424, align 4
  %426 = sext i32 %425 to i64
  store i64 %426, i64* %RAX.i121, align 8
  %427 = shl nsw i64 %426, 2
  %428 = add nsw i64 %427, 8807744
  %429 = add i64 %420, 12
  store i64 %429, i64* %3, align 8
  %430 = inttoptr i64 %428 to i32*
  %431 = load i32, i32* %430, align 4
  %432 = add i32 %431, -13
  %433 = icmp ult i32 %431, 13
  %434 = zext i1 %433 to i8
  store i8 %434, i8* %31, align 1
  %435 = and i32 %432, 255
  %436 = tail call i32 @llvm.ctpop.i32(i32 %435)
  %437 = trunc i32 %436 to i8
  %438 = and i8 %437, 1
  %439 = xor i8 %438, 1
  store i8 %439, i8* %37, align 1
  %440 = xor i32 %432, %431
  %441 = lshr i32 %440, 4
  %442 = trunc i32 %441 to i8
  %443 = and i8 %442, 1
  store i8 %443, i8* %42, align 1
  %444 = icmp eq i32 %432, 0
  %445 = zext i1 %444 to i8
  store i8 %445, i8* %45, align 1
  %446 = lshr i32 %432, 31
  %447 = trunc i32 %446 to i8
  store i8 %447, i8* %48, align 1
  %448 = lshr i32 %431, 31
  %449 = xor i32 %446, %448
  %450 = add nuw nsw i32 %449, %448
  %451 = icmp eq i32 %450, 2
  %452 = zext i1 %451 to i8
  store i8 %452, i8* %54, align 1
  %.v = select i1 %444, i64 18, i64 41
  %453 = add i64 %420, %.v
  %454 = add i64 %421, -12
  %455 = add i64 %453, 3
  store i64 %455, i64* %3, align 8
  %456 = inttoptr i64 %454 to i32*
  %457 = load i32, i32* %456, align 4
  %458 = zext i32 %457 to i64
  store i64 %458, i64* %RAX.i121, align 8
  %459 = add i64 %453, 6
  store i64 %459, i64* %3, align 8
  br i1 %444, label %block_41d9ff, label %block_.L_41da16

block_41d9ff:                                     ; preds = %block_.L_41d9ed
  %460 = add i32 %457, 1
  %461 = zext i32 %460 to i64
  store i64 %461, i64* %RAX.i121, align 8
  %462 = icmp eq i32 %457, -1
  %463 = icmp eq i32 %460, 0
  %464 = or i1 %462, %463
  %465 = zext i1 %464 to i8
  store i8 %465, i8* %31, align 1
  %466 = and i32 %460, 255
  %467 = tail call i32 @llvm.ctpop.i32(i32 %466)
  %468 = trunc i32 %467 to i8
  %469 = and i8 %468, 1
  %470 = xor i8 %469, 1
  store i8 %470, i8* %37, align 1
  %471 = xor i32 %460, %457
  %472 = lshr i32 %471, 4
  %473 = trunc i32 %472 to i8
  %474 = and i8 %473, 1
  store i8 %474, i8* %42, align 1
  %475 = zext i1 %463 to i8
  store i8 %475, i8* %45, align 1
  %476 = lshr i32 %460, 31
  %477 = trunc i32 %476 to i8
  store i8 %477, i8* %48, align 1
  %478 = lshr i32 %457, 31
  %479 = xor i32 %476, %478
  %480 = add nuw nsw i32 %479, %476
  %481 = icmp eq i32 %480, 2
  %482 = zext i1 %481 to i8
  store i8 %482, i8* %54, align 1
  %483 = add i64 %453, 9
  store i64 %483, i64* %3, align 8
  store i32 %460, i32* %456, align 4
  %484 = load i64, i64* %RBP.i, align 8
  %485 = add i64 %484, -8
  %486 = load i64, i64* %3, align 8
  %487 = add i64 %486, 3
  store i64 %487, i64* %3, align 8
  %488 = inttoptr i64 %485 to i32*
  %489 = load i32, i32* %488, align 4
  %490 = add i32 %489, 12
  %491 = zext i32 %490 to i64
  store i64 %491, i64* %RAX.i121, align 8
  %492 = icmp ugt i32 %489, -13
  %493 = zext i1 %492 to i8
  store i8 %493, i8* %31, align 1
  %494 = and i32 %490, 255
  %495 = tail call i32 @llvm.ctpop.i32(i32 %494)
  %496 = trunc i32 %495 to i8
  %497 = and i8 %496, 1
  %498 = xor i8 %497, 1
  store i8 %498, i8* %37, align 1
  %499 = xor i32 %490, %489
  %500 = lshr i32 %499, 4
  %501 = trunc i32 %500 to i8
  %502 = and i8 %501, 1
  store i8 %502, i8* %42, align 1
  %503 = icmp eq i32 %490, 0
  %504 = zext i1 %503 to i8
  store i8 %504, i8* %45, align 1
  %505 = lshr i32 %490, 31
  %506 = trunc i32 %505 to i8
  store i8 %506, i8* %48, align 1
  %507 = lshr i32 %489, 31
  %508 = xor i32 %505, %507
  %509 = add nuw nsw i32 %508, %505
  %510 = icmp eq i32 %509, 2
  %511 = zext i1 %510 to i8
  store i8 %511, i8* %54, align 1
  %512 = add i64 %486, 9
  store i64 %512, i64* %3, align 8
  store i32 %490, i32* %488, align 4
  %513 = load i64, i64* %3, align 8
  %514 = add i64 %513, -36
  store i64 %514, i64* %3, align 8
  br label %block_.L_41d9ed

block_.L_41da16:                                  ; preds = %block_.L_41d9ed
  %515 = shl i32 %457, 2
  %516 = zext i32 %515 to i64
  store i64 %516, i64* %RAX.i121, align 8
  %517 = lshr i32 %457, 30
  %518 = trunc i32 %517 to i8
  %519 = and i8 %518, 1
  store i8 %519, i8* %31, align 1
  %520 = and i32 %515, 252
  %521 = tail call i32 @llvm.ctpop.i32(i32 %520)
  %522 = trunc i32 %521 to i8
  %523 = and i8 %522, 1
  %524 = xor i8 %523, 1
  store i8 %524, i8* %37, align 1
  store i8 0, i8* %42, align 1
  %525 = icmp eq i32 %515, 0
  %526 = zext i1 %525 to i8
  store i8 %526, i8* %45, align 1
  %527 = lshr i32 %457, 29
  %528 = trunc i32 %527 to i8
  %529 = and i8 %528, 1
  store i8 %529, i8* %48, align 1
  store i8 0, i8* %54, align 1
  %530 = add i64 %453, 7
  store i64 %530, i64* %3, align 8
  %531 = load i64, i64* %6, align 8
  %532 = add i64 %531, 8
  %533 = inttoptr i64 %531 to i64*
  %534 = load i64, i64* %533, align 8
  store i64 %534, i64* %RBP.i, align 8
  store i64 %532, i64* %6, align 8
  %535 = add i64 %453, 8
  store i64 %535, i64* %3, align 8
  %536 = inttoptr i64 %532 to i64*
  %537 = load i64, i64* %536, align 8
  store i64 %537, i64* %3, align 8
  %538 = add i64 %531, 16
  store i64 %538, i64* %6, align 8
  ret %struct.Memory* %2
}

; Function Attrs: norecurse nounwind
define %struct.Memory* @routine_pushq__rbp(%struct.State* nocapture dereferenceable(3376), i64, %struct.Memory* readnone returned) local_unnamed_addr #2 {
block_400488:
  %PC = getelementptr inbounds %struct.State, %struct.State* %0, i64 0, i32 6, i32 33, i32 0, i32 0
  %RBP = getelementptr inbounds %struct.State, %struct.State* %0, i64 0, i32 6, i32 15, i32 0, i32 0
  %3 = load i64, i64* %RBP, align 8
  %4 = load i64, i64* %PC, align 8
  %5 = add i64 %4, 1
  store i64 %5, i64* %PC, align 8
  %6 = getelementptr inbounds %struct.State, %struct.State* %0, i64 0, i32 6, i32 13, i32 0, i32 0
  %7 = load i64, i64* %6, align 8
  %8 = add i64 %7, -8
  %9 = inttoptr i64 %8 to i64*
  store i64 %3, i64* %9, align 8
  store i64 %8, i64* %6, align 8
  ret %struct.Memory* %2
}

; Function Attrs: norecurse nounwind
define %struct.Memory* @routine_movq__rsp___rbp(%struct.State* nocapture dereferenceable(3376), i64, %struct.Memory* readnone returned) local_unnamed_addr #2 {
block_400488:
  %PC = getelementptr inbounds %struct.State, %struct.State* %0, i64 0, i32 6, i32 33, i32 0, i32 0
  %RSP = getelementptr inbounds %struct.State, %struct.State* %0, i64 0, i32 6, i32 13, i32 0, i32 0
  %RBP = getelementptr inbounds %struct.State, %struct.State* %0, i64 0, i32 6, i32 15, i32 0, i32 0
  %3 = load i64, i64* %RSP, align 8
  %4 = load i64, i64* %PC, align 8
  %5 = add i64 %4, 3
  store i64 %5, i64* %PC, align 8
  store i64 %3, i64* %RBP, align 8
  ret %struct.Memory* %2
}

; Function Attrs: norecurse nounwind
define %struct.Memory* @routine_movl__edi__MINUS0x4__rbp_(%struct.State* nocapture dereferenceable(3376), i64, %struct.Memory* readnone returned) local_unnamed_addr #2 {
block_400488:
  %PC = getelementptr inbounds %struct.State, %struct.State* %0, i64 0, i32 6, i32 33, i32 0, i32 0
  %3 = getelementptr inbounds %struct.State, %struct.State* %0, i64 0, i32 6, i32 11, i32 0
  %EDI = bitcast %union.anon* %3 to i32*
  %RBP = getelementptr inbounds %struct.State, %struct.State* %0, i64 0, i32 6, i32 15, i32 0, i32 0
  %4 = load i64, i64* %RBP, align 8
  %5 = add i64 %4, -4
  %6 = load i32, i32* %EDI, align 4
  %7 = load i64, i64* %PC, align 8
  %8 = add i64 %7, 3
  store i64 %8, i64* %PC, align 8
  %9 = inttoptr i64 %5 to i32*
  store i32 %6, i32* %9, align 4
  ret %struct.Memory* %2
}

; Function Attrs: norecurse nounwind
define %struct.Memory* @routine_movl__0x0__MINUS0xc__rbp_(%struct.State* nocapture dereferenceable(3376), i64, %struct.Memory* readnone returned) local_unnamed_addr #2 {
block_400488:
  %PC = getelementptr inbounds %struct.State, %struct.State* %0, i64 0, i32 6, i32 33, i32 0, i32 0
  %RBP = getelementptr inbounds %struct.State, %struct.State* %0, i64 0, i32 6, i32 15, i32 0, i32 0
  %3 = load i64, i64* %RBP, align 8
  %4 = add i64 %3, -12
  %5 = load i64, i64* %PC, align 8
  %6 = add i64 %5, 7
  store i64 %6, i64* %PC, align 8
  %7 = inttoptr i64 %4 to i32*
  store i32 0, i32* %7, align 4
  ret %struct.Memory* %2
}

; Function Attrs: norecurse nounwind
define %struct.Memory* @routine_movl_MINUS0x4__rbp____edi(%struct.State* nocapture dereferenceable(3376), i64, %struct.Memory* readnone returned) local_unnamed_addr #2 {
block_400488:
  %PC = getelementptr inbounds %struct.State, %struct.State* %0, i64 0, i32 6, i32 33, i32 0, i32 0
  %RDI = getelementptr inbounds %struct.State, %struct.State* %0, i64 0, i32 6, i32 11, i32 0, i32 0
  %RBP = getelementptr inbounds %struct.State, %struct.State* %0, i64 0, i32 6, i32 15, i32 0, i32 0
  %3 = load i64, i64* %RBP, align 8
  %4 = add i64 %3, -4
  %5 = load i64, i64* %PC, align 8
  %6 = add i64 %5, 3
  store i64 %6, i64* %PC, align 8
  %7 = inttoptr i64 %4 to i32*
  %8 = load i32, i32* %7, align 4
  %9 = zext i32 %8 to i64
  store i64 %9, i64* %RDI, align 8
  ret %struct.Memory* %2
}

; Function Attrs: nounwind
define %struct.Memory* @routine_subl__0xc___edi(%struct.State* nocapture dereferenceable(3376), i64, %struct.Memory* readnone returned) local_unnamed_addr #3 {
block_400488:
  %PC = getelementptr inbounds %struct.State, %struct.State* %0, i64 0, i32 6, i32 33, i32 0, i32 0
  %RDI = getelementptr inbounds %struct.State, %struct.State* %0, i64 0, i32 6, i32 11, i32 0, i32 0
  %3 = load i64, i64* %RDI, align 8
  %4 = load i64, i64* %PC, align 8
  %5 = add i64 %4, 3
  store i64 %5, i64* %PC, align 8
  %6 = trunc i64 %3 to i32
  %7 = add i32 %6, -12
  %8 = zext i32 %7 to i64
  store i64 %8, i64* %RDI, align 8
  %9 = icmp ult i32 %6, 12
  %10 = zext i1 %9 to i8
  %11 = getelementptr inbounds %struct.State, %struct.State* %0, i64 0, i32 2, i32 1
  store i8 %10, i8* %11, align 1
  %12 = and i32 %7, 255
  %13 = tail call i32 @llvm.ctpop.i32(i32 %12)
  %14 = trunc i32 %13 to i8
  %15 = and i8 %14, 1
  %16 = xor i8 %15, 1
  %17 = getelementptr inbounds %struct.State, %struct.State* %0, i64 0, i32 2, i32 3
  store i8 %16, i8* %17, align 1
  %18 = xor i32 %7, %6
  %19 = lshr i32 %18, 4
  %20 = trunc i32 %19 to i8
  %21 = and i8 %20, 1
  %22 = getelementptr inbounds %struct.State, %struct.State* %0, i64 0, i32 2, i32 5
  store i8 %21, i8* %22, align 1
  %23 = icmp eq i32 %7, 0
  %24 = zext i1 %23 to i8
  %25 = getelementptr inbounds %struct.State, %struct.State* %0, i64 0, i32 2, i32 7
  store i8 %24, i8* %25, align 1
  %26 = lshr i32 %7, 31
  %27 = trunc i32 %26 to i8
  %28 = getelementptr inbounds %struct.State, %struct.State* %0, i64 0, i32 2, i32 9
  store i8 %27, i8* %28, align 1
  %29 = lshr i32 %6, 31
  %30 = xor i32 %26, %29
  %31 = add nuw nsw i32 %30, %29
  %32 = icmp eq i32 %31, 2
  %33 = zext i1 %32 to i8
  %34 = getelementptr inbounds %struct.State, %struct.State* %0, i64 0, i32 2, i32 13
  store i8 %33, i8* %34, align 1
  ret %struct.Memory* %2
}

; Function Attrs: norecurse nounwind
define %struct.Memory* @routine_movl__edi__MINUS0x8__rbp_(%struct.State* nocapture dereferenceable(3376), i64, %struct.Memory* readnone returned) local_unnamed_addr #2 {
block_400488:
  %PC = getelementptr inbounds %struct.State, %struct.State* %0, i64 0, i32 6, i32 33, i32 0, i32 0
  %3 = getelementptr inbounds %struct.State, %struct.State* %0, i64 0, i32 6, i32 11, i32 0
  %EDI = bitcast %union.anon* %3 to i32*
  %RBP = getelementptr inbounds %struct.State, %struct.State* %0, i64 0, i32 6, i32 15, i32 0, i32 0
  %4 = load i64, i64* %RBP, align 8
  %5 = add i64 %4, -8
  %6 = load i32, i32* %EDI, align 4
  %7 = load i64, i64* %PC, align 8
  %8 = add i64 %7, 3
  store i64 %8, i64* %PC, align 8
  %9 = inttoptr i64 %5 to i32*
  store i32 %6, i32* %9, align 4
  ret %struct.Memory* %2
}

; Function Attrs: norecurse nounwind
define %struct.Memory* @routine_movslq_MINUS0x8__rbp____rax(%struct.State* nocapture dereferenceable(3376), i64, %struct.Memory* readnone returned) local_unnamed_addr #2 {
block_400488:
  %PC = getelementptr inbounds %struct.State, %struct.State* %0, i64 0, i32 6, i32 33, i32 0, i32 0
  %RAX = getelementptr inbounds %struct.State, %struct.State* %0, i64 0, i32 6, i32 1, i32 0, i32 0
  %RBP = getelementptr inbounds %struct.State, %struct.State* %0, i64 0, i32 6, i32 15, i32 0, i32 0
  %3 = load i64, i64* %RBP, align 8
  %4 = add i64 %3, -8
  %5 = load i64, i64* %PC, align 8
  %6 = add i64 %5, 4
  store i64 %6, i64* %PC, align 8
  %7 = inttoptr i64 %4 to i32*
  %8 = load i32, i32* %7, align 4
  %9 = sext i32 %8 to i64
  store i64 %9, i64* %RAX, align 8
  ret %struct.Memory* %2
}

; Function Attrs: nounwind
define %struct.Memory* @routine_cmpl__0xd__0x866540___rax_4_(%struct.State* nocapture dereferenceable(3376), i64, %struct.Memory* readnone returned) local_unnamed_addr #3 {
block_400488:
  %PC = getelementptr inbounds %struct.State, %struct.State* %0, i64 0, i32 6, i32 33, i32 0, i32 0
  %RAX = getelementptr inbounds %struct.State, %struct.State* %0, i64 0, i32 6, i32 1, i32 0, i32 0
  %3 = load i64, i64* %RAX, align 8
  %4 = shl i64 %3, 2
  %5 = add i64 %4, 8807744
  %6 = load i64, i64* %PC, align 8
  %7 = add i64 %6, 8
  store i64 %7, i64* %PC, align 8
  %8 = inttoptr i64 %5 to i32*
  %9 = load i32, i32* %8, align 4
  %10 = add i32 %9, -13
  %11 = icmp ult i32 %9, 13
  %12 = zext i1 %11 to i8
  %13 = getelementptr inbounds %struct.State, %struct.State* %0, i64 0, i32 2, i32 1
  store i8 %12, i8* %13, align 1
  %14 = and i32 %10, 255
  %15 = tail call i32 @llvm.ctpop.i32(i32 %14)
  %16 = trunc i32 %15 to i8
  %17 = and i8 %16, 1
  %18 = xor i8 %17, 1
  %19 = getelementptr inbounds %struct.State, %struct.State* %0, i64 0, i32 2, i32 3
  store i8 %18, i8* %19, align 1
  %20 = xor i32 %10, %9
  %21 = lshr i32 %20, 4
  %22 = trunc i32 %21 to i8
  %23 = and i8 %22, 1
  %24 = getelementptr inbounds %struct.State, %struct.State* %0, i64 0, i32 2, i32 5
  store i8 %23, i8* %24, align 1
  %25 = icmp eq i32 %10, 0
  %26 = zext i1 %25 to i8
  %27 = getelementptr inbounds %struct.State, %struct.State* %0, i64 0, i32 2, i32 7
  store i8 %26, i8* %27, align 1
  %28 = lshr i32 %10, 31
  %29 = trunc i32 %28 to i8
  %30 = getelementptr inbounds %struct.State, %struct.State* %0, i64 0, i32 2, i32 9
  store i8 %29, i8* %30, align 1
  %31 = lshr i32 %9, 31
  %32 = xor i32 %28, %31
  %33 = add nuw nsw i32 %32, %31
  %34 = icmp eq i32 %33, 2
  %35 = zext i1 %34 to i8
  %36 = getelementptr inbounds %struct.State, %struct.State* %0, i64 0, i32 2, i32 13
  store i8 %35, i8* %36, align 1
  ret %struct.Memory* %2
}

; Function Attrs: norecurse nounwind
define %struct.Memory* @routine_jne_.L_41d980(%struct.State* nocapture dereferenceable(3376), i64, %struct.Memory* readnone returned, i8* nocapture %BRANCH_TAKEN, i64 %rel_off1, i64 %rel_off2, i64 %rel_off3) local_unnamed_addr #2 {
block_400488:
  %PC = getelementptr inbounds %struct.State, %struct.State* %0, i64 0, i32 6, i32 33, i32 0, i32 0
  %3 = load i64, i64* %PC, align 8
  %4 = getelementptr inbounds %struct.State, %struct.State* %0, i64 0, i32 2, i32 7
  %5 = load i8, i8* %4, align 1
  %6 = icmp eq i8 %5, 0
  %7 = zext i1 %6 to i8
  store i8 %7, i8* %BRANCH_TAKEN, align 1
  %.v = select i1 %6, i64 %rel_off1, i64 %rel_off2
  %8 = add i64 %.v, %3
  store i64 %8, i64* %PC, align 8
  ret %struct.Memory* %2
}

; Function Attrs: norecurse nounwind
define %struct.Memory* @routine_movl_MINUS0xc__rbp____eax(%struct.State* nocapture dereferenceable(3376), i64, %struct.Memory* readnone returned) local_unnamed_addr #2 {
block_400488:
  %PC = getelementptr inbounds %struct.State, %struct.State* %0, i64 0, i32 6, i32 33, i32 0, i32 0
  %RAX = getelementptr inbounds %struct.State, %struct.State* %0, i64 0, i32 6, i32 1, i32 0, i32 0
  %RBP = getelementptr inbounds %struct.State, %struct.State* %0, i64 0, i32 6, i32 15, i32 0, i32 0
  %3 = load i64, i64* %RBP, align 8
  %4 = add i64 %3, -12
  %5 = load i64, i64* %PC, align 8
  %6 = add i64 %5, 3
  store i64 %6, i64* %PC, align 8
  %7 = inttoptr i64 %4 to i32*
  %8 = load i32, i32* %7, align 4
  %9 = zext i32 %8 to i64
  store i64 %9, i64* %RAX, align 8
  ret %struct.Memory* %2
}

; Function Attrs: nounwind
define %struct.Memory* @routine_addl__0x1___eax(%struct.State* nocapture dereferenceable(3376), i64, %struct.Memory* readnone returned) local_unnamed_addr #3 {
block_400488:
  %PC = getelementptr inbounds %struct.State, %struct.State* %0, i64 0, i32 6, i32 33, i32 0, i32 0
  %RAX = getelementptr inbounds %struct.State, %struct.State* %0, i64 0, i32 6, i32 1, i32 0, i32 0
  %3 = load i64, i64* %RAX, align 8
  %4 = load i64, i64* %PC, align 8
  %5 = add i64 %4, 3
  store i64 %5, i64* %PC, align 8
  %6 = trunc i64 %3 to i32
  %7 = add i32 %6, 1
  %8 = zext i32 %7 to i64
  store i64 %8, i64* %RAX, align 8
  %9 = icmp eq i32 %6, -1
  %10 = icmp eq i32 %7, 0
  %11 = or i1 %9, %10
  %12 = zext i1 %11 to i8
  %13 = getelementptr inbounds %struct.State, %struct.State* %0, i64 0, i32 2, i32 1
  store i8 %12, i8* %13, align 1
  %14 = and i32 %7, 255
  %15 = tail call i32 @llvm.ctpop.i32(i32 %14)
  %16 = trunc i32 %15 to i8
  %17 = and i8 %16, 1
  %18 = xor i8 %17, 1
  %19 = getelementptr inbounds %struct.State, %struct.State* %0, i64 0, i32 2, i32 3
  store i8 %18, i8* %19, align 1
  %20 = xor i32 %7, %6
  %21 = lshr i32 %20, 4
  %22 = trunc i32 %21 to i8
  %23 = and i8 %22, 1
  %24 = getelementptr inbounds %struct.State, %struct.State* %0, i64 0, i32 2, i32 5
  store i8 %23, i8* %24, align 1
  %25 = zext i1 %10 to i8
  %26 = getelementptr inbounds %struct.State, %struct.State* %0, i64 0, i32 2, i32 7
  store i8 %25, i8* %26, align 1
  %27 = lshr i32 %7, 31
  %28 = trunc i32 %27 to i8
  %29 = getelementptr inbounds %struct.State, %struct.State* %0, i64 0, i32 2, i32 9
  store i8 %28, i8* %29, align 1
  %30 = lshr i32 %6, 31
  %31 = xor i32 %27, %30
  %32 = add nuw nsw i32 %31, %27
  %33 = icmp eq i32 %32, 2
  %34 = zext i1 %33 to i8
  %35 = getelementptr inbounds %struct.State, %struct.State* %0, i64 0, i32 2, i32 13
  store i8 %34, i8* %35, align 1
  ret %struct.Memory* %2
}

; Function Attrs: norecurse nounwind
define %struct.Memory* @routine_movl__eax__MINUS0xc__rbp_(%struct.State* nocapture dereferenceable(3376), i64, %struct.Memory* readnone returned) local_unnamed_addr #2 {
block_400488:
  %PC = getelementptr inbounds %struct.State, %struct.State* %0, i64 0, i32 6, i32 33, i32 0, i32 0
  %3 = getelementptr inbounds %struct.State, %struct.State* %0, i64 0, i32 6, i32 1, i32 0
  %EAX = bitcast %union.anon* %3 to i32*
  %RBP = getelementptr inbounds %struct.State, %struct.State* %0, i64 0, i32 6, i32 15, i32 0, i32 0
  %4 = load i64, i64* %RBP, align 8
  %5 = add i64 %4, -12
  %6 = load i32, i32* %EAX, align 4
  %7 = load i64, i64* %PC, align 8
  %8 = add i64 %7, 3
  store i64 %8, i64* %PC, align 8
  %9 = inttoptr i64 %5 to i32*
  store i32 %6, i32* %9, align 4
  ret %struct.Memory* %2
}

; Function Attrs: norecurse nounwind
define %struct.Memory* @routine_movl_MINUS0x8__rbp____eax(%struct.State* nocapture dereferenceable(3376), i64, %struct.Memory* readnone returned) local_unnamed_addr #2 {
block_400488:
  %PC = getelementptr inbounds %struct.State, %struct.State* %0, i64 0, i32 6, i32 33, i32 0, i32 0
  %RAX = getelementptr inbounds %struct.State, %struct.State* %0, i64 0, i32 6, i32 1, i32 0, i32 0
  %RBP = getelementptr inbounds %struct.State, %struct.State* %0, i64 0, i32 6, i32 15, i32 0, i32 0
  %3 = load i64, i64* %RBP, align 8
  %4 = add i64 %3, -8
  %5 = load i64, i64* %PC, align 8
  %6 = add i64 %5, 3
  store i64 %6, i64* %PC, align 8
  %7 = inttoptr i64 %4 to i32*
  %8 = load i32, i32* %7, align 4
  %9 = zext i32 %8 to i64
  store i64 %9, i64* %RAX, align 8
  ret %struct.Memory* %2
}

; Function Attrs: nounwind
define %struct.Memory* @routine_subl__0xc___eax(%struct.State* nocapture dereferenceable(3376), i64, %struct.Memory* readnone returned) local_unnamed_addr #3 {
block_400488:
  %PC = getelementptr inbounds %struct.State, %struct.State* %0, i64 0, i32 6, i32 33, i32 0, i32 0
  %RAX = getelementptr inbounds %struct.State, %struct.State* %0, i64 0, i32 6, i32 1, i32 0, i32 0
  %3 = load i64, i64* %RAX, align 8
  %4 = load i64, i64* %PC, align 8
  %5 = add i64 %4, 3
  store i64 %5, i64* %PC, align 8
  %6 = trunc i64 %3 to i32
  %7 = add i32 %6, -12
  %8 = zext i32 %7 to i64
  store i64 %8, i64* %RAX, align 8
  %9 = icmp ult i32 %6, 12
  %10 = zext i1 %9 to i8
  %11 = getelementptr inbounds %struct.State, %struct.State* %0, i64 0, i32 2, i32 1
  store i8 %10, i8* %11, align 1
  %12 = and i32 %7, 255
  %13 = tail call i32 @llvm.ctpop.i32(i32 %12)
  %14 = trunc i32 %13 to i8
  %15 = and i8 %14, 1
  %16 = xor i8 %15, 1
  %17 = getelementptr inbounds %struct.State, %struct.State* %0, i64 0, i32 2, i32 3
  store i8 %16, i8* %17, align 1
  %18 = xor i32 %7, %6
  %19 = lshr i32 %18, 4
  %20 = trunc i32 %19 to i8
  %21 = and i8 %20, 1
  %22 = getelementptr inbounds %struct.State, %struct.State* %0, i64 0, i32 2, i32 5
  store i8 %21, i8* %22, align 1
  %23 = icmp eq i32 %7, 0
  %24 = zext i1 %23 to i8
  %25 = getelementptr inbounds %struct.State, %struct.State* %0, i64 0, i32 2, i32 7
  store i8 %24, i8* %25, align 1
  %26 = lshr i32 %7, 31
  %27 = trunc i32 %26 to i8
  %28 = getelementptr inbounds %struct.State, %struct.State* %0, i64 0, i32 2, i32 9
  store i8 %27, i8* %28, align 1
  %29 = lshr i32 %6, 31
  %30 = xor i32 %26, %29
  %31 = add nuw nsw i32 %30, %29
  %32 = icmp eq i32 %31, 2
  %33 = zext i1 %32 to i8
  %34 = getelementptr inbounds %struct.State, %struct.State* %0, i64 0, i32 2, i32 13
  store i8 %33, i8* %34, align 1
  ret %struct.Memory* %2
}

; Function Attrs: norecurse nounwind
define %struct.Memory* @routine_movl__eax__MINUS0x8__rbp_(%struct.State* nocapture dereferenceable(3376), i64, %struct.Memory* readnone returned) local_unnamed_addr #2 {
block_400488:
  %PC = getelementptr inbounds %struct.State, %struct.State* %0, i64 0, i32 6, i32 33, i32 0, i32 0
  %3 = getelementptr inbounds %struct.State, %struct.State* %0, i64 0, i32 6, i32 1, i32 0
  %EAX = bitcast %union.anon* %3 to i32*
  %RBP = getelementptr inbounds %struct.State, %struct.State* %0, i64 0, i32 6, i32 15, i32 0, i32 0
  %4 = load i64, i64* %RBP, align 8
  %5 = add i64 %4, -8
  %6 = load i32, i32* %EAX, align 4
  %7 = load i64, i64* %PC, align 8
  %8 = add i64 %7, 3
  store i64 %8, i64* %PC, align 8
  %9 = inttoptr i64 %5 to i32*
  store i32 %6, i32* %9, align 4
  ret %struct.Memory* %2
}

; Function Attrs: norecurse nounwind
define %struct.Memory* @routine_jmpq_.L_41d957(%struct.State* nocapture dereferenceable(3376), i64, %struct.Memory* readnone returned, i64 %rel_off1, i64 %rel_off2) local_unnamed_addr #2 {
block_400488:
  %PC = getelementptr inbounds %struct.State, %struct.State* %0, i64 0, i32 6, i32 33, i32 0, i32 0
  %3 = load i64, i64* %PC, align 8
  %4 = add i64 %3, %rel_off1
  store i64 %4, i64* %PC, align 8
  ret %struct.Memory* %2
}

; Function Attrs: norecurse nounwind
define %struct.Memory* @routine_movl_MINUS0x4__rbp____eax(%struct.State* nocapture dereferenceable(3376), i64, %struct.Memory* readnone returned) local_unnamed_addr #2 {
block_400488:
  %PC = getelementptr inbounds %struct.State, %struct.State* %0, i64 0, i32 6, i32 33, i32 0, i32 0
  %RAX = getelementptr inbounds %struct.State, %struct.State* %0, i64 0, i32 6, i32 1, i32 0, i32 0
  %RBP = getelementptr inbounds %struct.State, %struct.State* %0, i64 0, i32 6, i32 15, i32 0, i32 0
  %3 = load i64, i64* %RBP, align 8
  %4 = add i64 %3, -4
  %5 = load i64, i64* %PC, align 8
  %6 = add i64 %5, 3
  store i64 %6, i64* %PC, align 8
  %7 = inttoptr i64 %4 to i32*
  %8 = load i32, i32* %7, align 4
  %9 = zext i32 %8 to i64
  store i64 %9, i64* %RAX, align 8
  ret %struct.Memory* %2
}

; Function Attrs: nounwind
define %struct.Memory* @routine_subl__0x1___eax(%struct.State* nocapture dereferenceable(3376), i64, %struct.Memory* readnone returned) local_unnamed_addr #3 {
block_400488:
  %PC = getelementptr inbounds %struct.State, %struct.State* %0, i64 0, i32 6, i32 33, i32 0, i32 0
  %RAX = getelementptr inbounds %struct.State, %struct.State* %0, i64 0, i32 6, i32 1, i32 0, i32 0
  %3 = load i64, i64* %RAX, align 8
  %4 = load i64, i64* %PC, align 8
  %5 = add i64 %4, 3
  store i64 %5, i64* %PC, align 8
  %6 = trunc i64 %3 to i32
  %7 = add i32 %6, -1
  %8 = zext i32 %7 to i64
  store i64 %8, i64* %RAX, align 8
  %9 = icmp eq i32 %6, 0
  %10 = zext i1 %9 to i8
  %11 = getelementptr inbounds %struct.State, %struct.State* %0, i64 0, i32 2, i32 1
  store i8 %10, i8* %11, align 1
  %12 = and i32 %7, 255
  %13 = tail call i32 @llvm.ctpop.i32(i32 %12)
  %14 = trunc i32 %13 to i8
  %15 = and i8 %14, 1
  %16 = xor i8 %15, 1
  %17 = getelementptr inbounds %struct.State, %struct.State* %0, i64 0, i32 2, i32 3
  store i8 %16, i8* %17, align 1
  %18 = xor i32 %7, %6
  %19 = lshr i32 %18, 4
  %20 = trunc i32 %19 to i8
  %21 = and i8 %20, 1
  %22 = getelementptr inbounds %struct.State, %struct.State* %0, i64 0, i32 2, i32 5
  store i8 %21, i8* %22, align 1
  %23 = icmp eq i32 %7, 0
  %24 = zext i1 %23 to i8
  %25 = getelementptr inbounds %struct.State, %struct.State* %0, i64 0, i32 2, i32 7
  store i8 %24, i8* %25, align 1
  %26 = lshr i32 %7, 31
  %27 = trunc i32 %26 to i8
  %28 = getelementptr inbounds %struct.State, %struct.State* %0, i64 0, i32 2, i32 9
  store i8 %27, i8* %28, align 1
  %29 = lshr i32 %6, 31
  %30 = xor i32 %26, %29
  %31 = add nuw nsw i32 %30, %29
  %32 = icmp eq i32 %31, 2
  %33 = zext i1 %32 to i8
  %34 = getelementptr inbounds %struct.State, %struct.State* %0, i64 0, i32 2, i32 13
  store i8 %33, i8* %34, align 1
  ret %struct.Memory* %2
}

; Function Attrs: norecurse nounwind
define %struct.Memory* @routine_jne_.L_41d9b2(%struct.State* nocapture dereferenceable(3376), i64, %struct.Memory* readnone returned, i8* nocapture %BRANCH_TAKEN, i64 %rel_off1, i64 %rel_off2, i64 %rel_off3) local_unnamed_addr #2 {
block_400488:
  %PC = getelementptr inbounds %struct.State, %struct.State* %0, i64 0, i32 6, i32 33, i32 0, i32 0
  %3 = load i64, i64* %PC, align 8
  %4 = getelementptr inbounds %struct.State, %struct.State* %0, i64 0, i32 2, i32 7
  %5 = load i8, i8* %4, align 1
  %6 = icmp eq i8 %5, 0
  %7 = zext i1 %6 to i8
  store i8 %7, i8* %BRANCH_TAKEN, align 1
  %.v = select i1 %6, i64 %rel_off1, i64 %rel_off2
  %8 = add i64 %.v, %3
  store i64 %8, i64* %PC, align 8
  ret %struct.Memory* %2
}

; Function Attrs: norecurse nounwind
define %struct.Memory* @routine_jmpq_.L_41d989(%struct.State* nocapture dereferenceable(3376), i64, %struct.Memory* readnone returned, i64 %rel_off1, i64 %rel_off2) local_unnamed_addr #2 {
block_400488:
  %PC = getelementptr inbounds %struct.State, %struct.State* %0, i64 0, i32 6, i32 33, i32 0, i32 0
  %3 = load i64, i64* %PC, align 8
  %4 = add i64 %3, %rel_off1
  store i64 %4, i64* %PC, align 8
  ret %struct.Memory* %2
}

; Function Attrs: norecurse nounwind
define %struct.Memory* @routine_jne_.L_41d9e4(%struct.State* nocapture dereferenceable(3376), i64, %struct.Memory* readnone returned, i8* nocapture %BRANCH_TAKEN, i64 %rel_off1, i64 %rel_off2, i64 %rel_off3) local_unnamed_addr #2 {
block_400488:
  %PC = getelementptr inbounds %struct.State, %struct.State* %0, i64 0, i32 6, i32 33, i32 0, i32 0
  %3 = load i64, i64* %PC, align 8
  %4 = getelementptr inbounds %struct.State, %struct.State* %0, i64 0, i32 2, i32 7
  %5 = load i8, i8* %4, align 1
  %6 = icmp eq i8 %5, 0
  %7 = zext i1 %6 to i8
  store i8 %7, i8* %BRANCH_TAKEN, align 1
  %.v = select i1 %6, i64 %rel_off1, i64 %rel_off2
  %8 = add i64 %.v, %3
  store i64 %8, i64* %PC, align 8
  ret %struct.Memory* %2
}

; Function Attrs: norecurse nounwind
define %struct.Memory* @routine_jmpq_.L_41d9bb(%struct.State* nocapture dereferenceable(3376), i64, %struct.Memory* readnone returned, i64 %rel_off1, i64 %rel_off2) local_unnamed_addr #2 {
block_400488:
  %PC = getelementptr inbounds %struct.State, %struct.State* %0, i64 0, i32 6, i32 33, i32 0, i32 0
  %3 = load i64, i64* %PC, align 8
  %4 = add i64 %3, %rel_off1
  store i64 %4, i64* %PC, align 8
  ret %struct.Memory* %2
}

; Function Attrs: nounwind
define %struct.Memory* @routine_addl__0xc___eax(%struct.State* nocapture dereferenceable(3376), i64, %struct.Memory* readnone returned) local_unnamed_addr #3 {
block_400488:
  %PC = getelementptr inbounds %struct.State, %struct.State* %0, i64 0, i32 6, i32 33, i32 0, i32 0
  %RAX = getelementptr inbounds %struct.State, %struct.State* %0, i64 0, i32 6, i32 1, i32 0, i32 0
  %3 = load i64, i64* %RAX, align 8
  %4 = load i64, i64* %PC, align 8
  %5 = add i64 %4, 3
  store i64 %5, i64* %PC, align 8
  %6 = trunc i64 %3 to i32
  %7 = add i32 %6, 12
  %8 = zext i32 %7 to i64
  store i64 %8, i64* %RAX, align 8
  %9 = icmp ugt i32 %6, -13
  %10 = zext i1 %9 to i8
  %11 = getelementptr inbounds %struct.State, %struct.State* %0, i64 0, i32 2, i32 1
  store i8 %10, i8* %11, align 1
  %12 = and i32 %7, 255
  %13 = tail call i32 @llvm.ctpop.i32(i32 %12)
  %14 = trunc i32 %13 to i8
  %15 = and i8 %14, 1
  %16 = xor i8 %15, 1
  %17 = getelementptr inbounds %struct.State, %struct.State* %0, i64 0, i32 2, i32 3
  store i8 %16, i8* %17, align 1
  %18 = xor i32 %7, %6
  %19 = lshr i32 %18, 4
  %20 = trunc i32 %19 to i8
  %21 = and i8 %20, 1
  %22 = getelementptr inbounds %struct.State, %struct.State* %0, i64 0, i32 2, i32 5
  store i8 %21, i8* %22, align 1
  %23 = icmp eq i32 %7, 0
  %24 = zext i1 %23 to i8
  %25 = getelementptr inbounds %struct.State, %struct.State* %0, i64 0, i32 2, i32 7
  store i8 %24, i8* %25, align 1
  %26 = lshr i32 %7, 31
  %27 = trunc i32 %26 to i8
  %28 = getelementptr inbounds %struct.State, %struct.State* %0, i64 0, i32 2, i32 9
  store i8 %27, i8* %28, align 1
  %29 = lshr i32 %6, 31
  %30 = xor i32 %26, %29
  %31 = add nuw nsw i32 %30, %26
  %32 = icmp eq i32 %31, 2
  %33 = zext i1 %32 to i8
  %34 = getelementptr inbounds %struct.State, %struct.State* %0, i64 0, i32 2, i32 13
  store i8 %33, i8* %34, align 1
  ret %struct.Memory* %2
}

; Function Attrs: norecurse nounwind
define %struct.Memory* @routine_jne_.L_41da16(%struct.State* nocapture dereferenceable(3376), i64, %struct.Memory* readnone returned, i8* nocapture %BRANCH_TAKEN, i64 %rel_off1, i64 %rel_off2, i64 %rel_off3) local_unnamed_addr #2 {
block_400488:
  %PC = getelementptr inbounds %struct.State, %struct.State* %0, i64 0, i32 6, i32 33, i32 0, i32 0
  %3 = load i64, i64* %PC, align 8
  %4 = getelementptr inbounds %struct.State, %struct.State* %0, i64 0, i32 2, i32 7
  %5 = load i8, i8* %4, align 1
  %6 = icmp eq i8 %5, 0
  %7 = zext i1 %6 to i8
  store i8 %7, i8* %BRANCH_TAKEN, align 1
  %.v = select i1 %6, i64 %rel_off1, i64 %rel_off2
  %8 = add i64 %.v, %3
  store i64 %8, i64* %PC, align 8
  ret %struct.Memory* %2
}

; Function Attrs: norecurse nounwind
define %struct.Memory* @routine_jmpq_.L_41d9ed(%struct.State* nocapture dereferenceable(3376), i64, %struct.Memory* readnone returned, i64 %rel_off1, i64 %rel_off2) local_unnamed_addr #2 {
block_400488:
  %PC = getelementptr inbounds %struct.State, %struct.State* %0, i64 0, i32 6, i32 33, i32 0, i32 0
  %3 = load i64, i64* %PC, align 8
  %4 = add i64 %3, %rel_off1
  store i64 %4, i64* %PC, align 8
  ret %struct.Memory* %2
}

; Function Attrs: nounwind
define %struct.Memory* @routine_shll__0x2___eax(%struct.State* nocapture dereferenceable(3376), i64, %struct.Memory* readnone returned) local_unnamed_addr #3 {
block_400488:
  %PC = getelementptr inbounds %struct.State, %struct.State* %0, i64 0, i32 6, i32 33, i32 0, i32 0
  %RAX = getelementptr inbounds %struct.State, %struct.State* %0, i64 0, i32 6, i32 1, i32 0, i32 0
  %3 = load i64, i64* %RAX, align 8
  %4 = load i64, i64* %PC, align 8
  %5 = add i64 %4, 3
  store i64 %5, i64* %PC, align 8
  %.tr = trunc i64 %3 to i32
  %6 = shl i32 %.tr, 2
  %7 = zext i32 %6 to i64
  store i64 %7, i64* %RAX, align 8
  %8 = getelementptr inbounds %struct.State, %struct.State* %0, i64 0, i32 2, i32 1
  %9 = lshr i64 %3, 30
  %10 = trunc i64 %9 to i8
  %11 = and i8 %10, 1
  store i8 %11, i8* %8, align 1
  %12 = getelementptr inbounds %struct.State, %struct.State* %0, i64 0, i32 2, i32 3
  %13 = and i32 %6, 252
  %14 = tail call i32 @llvm.ctpop.i32(i32 %13)
  %15 = trunc i32 %14 to i8
  %16 = and i8 %15, 1
  %17 = xor i8 %16, 1
  store i8 %17, i8* %12, align 1
  %18 = getelementptr inbounds %struct.State, %struct.State* %0, i64 0, i32 2, i32 5
  store i8 0, i8* %18, align 1
  %19 = getelementptr inbounds %struct.State, %struct.State* %0, i64 0, i32 2, i32 7
  %20 = icmp eq i32 %6, 0
  %21 = zext i1 %20 to i8
  store i8 %21, i8* %19, align 1
  %22 = getelementptr inbounds %struct.State, %struct.State* %0, i64 0, i32 2, i32 9
  %23 = lshr i32 %.tr, 29
  %24 = trunc i32 %23 to i8
  %25 = and i8 %24, 1
  store i8 %25, i8* %22, align 1
  %26 = getelementptr inbounds %struct.State, %struct.State* %0, i64 0, i32 2, i32 13
  store i8 0, i8* %26, align 1
  ret %struct.Memory* %2
}

; Function Attrs: norecurse nounwind
define %struct.Memory* @routine_popq__rbp(%struct.State* nocapture dereferenceable(3376), i64, %struct.Memory* readnone returned) local_unnamed_addr #2 {
block_400488:
  %PC = getelementptr inbounds %struct.State, %struct.State* %0, i64 0, i32 6, i32 33, i32 0, i32 0
  %RBP = getelementptr inbounds %struct.State, %struct.State* %0, i64 0, i32 6, i32 15, i32 0, i32 0
  %3 = load i64, i64* %PC, align 8
  %4 = add i64 %3, 1
  store i64 %4, i64* %PC, align 8
  %5 = getelementptr inbounds %struct.State, %struct.State* %0, i64 0, i32 6, i32 13, i32 0, i32 0
  %6 = load i64, i64* %5, align 8
  %7 = add i64 %6, 8
  %8 = inttoptr i64 %6 to i64*
  %9 = load i64, i64* %8, align 8
  store i64 %9, i64* %RBP, align 8
  store i64 %7, i64* %5, align 8
  ret %struct.Memory* %2
}

; Function Attrs: norecurse nounwind
define %struct.Memory* @routine_retq(%struct.State* nocapture dereferenceable(3376), i64, %struct.Memory* readnone returned) local_unnamed_addr #2 {
block_400488:
  %PC = getelementptr inbounds %struct.State, %struct.State* %0, i64 0, i32 6, i32 33, i32 0, i32 0
  %3 = load i64, i64* %PC, align 8
  %4 = add i64 %3, 1
  store i64 %4, i64* %PC, align 8
  %5 = getelementptr inbounds %struct.State, %struct.State* %0, i64 0, i32 6, i32 13, i32 0, i32 0
  %6 = load i64, i64* %5, align 8
  %7 = inttoptr i64 %6 to i64*
  %8 = load i64, i64* %7, align 8
  store i64 %8, i64* %PC, align 8
  %9 = add i64 %6, 8
  store i64 %9, i64* %5, align 8
  ret %struct.Memory* %2
}

attributes #0 = { nounwind readnone }
attributes #1 = { alwaysinline nounwind }
attributes #2 = { norecurse nounwind }
attributes #3 = { nounwind }
