; ModuleID = 'mcsema/test.proposed.ll'
source_filename = "llvm-link"
target datalayout = "e-m:e-i64:64-f80:128-n8:16:32:64-S128"
target triple = "x86_64-pc-linux-gnu-elf"

%union.anon = type { i64 }
%seg_400388__init_type = type <{ [23 x i8] }>
%seg_4003a0__text_type = type <{ [354 x i8] }>
%seg_400504__fini_type = type <{ [9 x i8] }>
%seg_400510__rodata_type = type <{ [4 x i8] }>
%seg_400514__eh_frame_hdr_type = type <{ [52 x i8] }>
%seg_400548__eh_frame_type = type <{ [208 x i8] }>
%seg_601018__data_type = type <{ [16 x i8] }>
%__bss_start_type = type <{ [8 x i8] }>
%struct.State = type { %struct.ArchState, [32 x %union.VectorReg], %struct.ArithFlags, %union.anon, %struct.Segments, %struct.AddressSpace, %struct.GPR, %struct.X87Stack, %struct.MMX, %struct.FPUStatusFlags, %union.anon, %union.FPU, %struct.SegmentCaches }
%struct.ArchState = type { i32, i32, %union.anon }
%union.VectorReg = type { %union.vec512_t }
%union.vec512_t = type { %struct.uint64v8_t }
%struct.uint64v8_t = type { [8 x i64] }
%struct.ArithFlags = type { i8, i8, i8, i8, i8, i8, i8, i8, i8, i8, i8, i8, i8, i8, i8, i8 }
%struct.Segments = type { i16, %union.SegmentSelector, i16, %union.SegmentSelector, i16, %union.SegmentSelector, i16, %union.SegmentSelector, i16, %union.SegmentSelector, i16, %union.SegmentSelector }
%union.SegmentSelector = type { i16 }
%struct.AddressSpace = type { i64, %struct.Reg, i64, %struct.Reg, i64, %struct.Reg, i64, %struct.Reg, i64, %struct.Reg, i64, %struct.Reg }
%struct.Reg = type { %union.anon }
%struct.GPR = type { i64, %struct.Reg, i64, %struct.Reg, i64, %struct.Reg, i64, %struct.Reg, i64, %struct.Reg, i64, %struct.Reg, i64, %struct.Reg, i64, %struct.Reg, i64, %struct.Reg, i64, %struct.Reg, i64, %struct.Reg, i64, %struct.Reg, i64, %struct.Reg, i64, %struct.Reg, i64, %struct.Reg, i64, %struct.Reg, i64, %struct.Reg }
%struct.X87Stack = type { [8 x %struct.anon.3] }
%struct.anon.3 = type { i64, double }
%struct.MMX = type { [8 x %struct.anon.4] }
%struct.anon.4 = type { i64, %union.vec64_t }
%union.vec64_t = type { %struct.uint64v1_t }
%struct.uint64v1_t = type { [1 x i64] }
%struct.FPUStatusFlags = type { i8, i8, i8, i8, i8, i8, i8, i8, i8, i8, i8, i8, i8, i8, i8, i8, i8, i8, i8, i8, [4 x i8] }
%union.FPU = type { %struct.anon.13 }
%struct.anon.13 = type { %struct.FpuFXSAVE, [96 x i8] }
%struct.FpuFXSAVE = type { %union.SegmentSelector, %union.SegmentSelector, %union.FPUAbridgedTagWord, i8, i16, i32, %union.SegmentSelector, i16, i32, %union.SegmentSelector, i16, %union.FPUControlStatus, %union.FPUControlStatus, [8 x %struct.FPUStackElem], [16 x %union.vec128_t] }
%union.FPUAbridgedTagWord = type { i8 }
%union.FPUControlStatus = type { i32 }
%struct.FPUStackElem = type { %union.anon.11, [6 x i8] }
%union.anon.11 = type { %struct.float80_t }
%struct.float80_t = type { [10 x i8] }
%union.vec128_t = type { %struct.uint128v1_t }
%struct.uint128v1_t = type { [1 x i128] }
%struct.SegmentCaches = type { %struct.SegmentShadow, %struct.SegmentShadow, %struct.SegmentShadow, %struct.SegmentShadow, %struct.SegmentShadow, %struct.SegmentShadow }
%struct.SegmentShadow = type { %union.anon, i32, i32 }
%struct.Memory = type opaque
%"class.std::bitset" = type { %struct.uint64v4_t }
%struct.uint64v4_t = type { [4 x i64] }

@switch.table = private unnamed_addr constant [4 x i32] [i32 2048, i32 3072, i32 0, i32 1024]
@DR0 = external global i64, align 8
@DR1 = external global i64, align 8
@DR2 = external global i64, align 8
@DR3 = external global i64, align 8
@DR4 = external global i64, align 8
@DR5 = external global i64, align 8
@DR6 = external global i64, align 8
@DR7 = external global i64, align 8
@gCR0 = external global %union.anon, align 1
@gCR1 = external global %union.anon, align 1
@gCR2 = external global %union.anon, align 1
@gCR3 = external global %union.anon, align 1
@gCR4 = external global %union.anon, align 1
@gCR8 = external global %union.anon, align 1
@seg_400388__init = internal constant %seg_400388__init_type <{ [23 x i8] c"H\83\EC\08H\8B\05e\0C \00H\85\C0t\02\FF\D0H\83\C4\08\C3" }>
@seg_4003a0__text = internal constant %seg_4003a0__text_type <{ [354 x i8] c"1\EDI\89\D1^H\89\E2H\83\E4\F0PTI\C7\C0\00\05@\00H\C7\C1\90\04@\00H\C7\C7\88\04@\00\FF\15&\0C \00\F4\0F\1FD\00\00\F3\C3f.\0F\1F\84\00\00\00\00\00\0F\1F@\00U\B8(\10`\00H=(\10`\00H\89\E5t\17\B8\00\00\00\00H\85\C0t\0D]\BF(\10`\00\FF\E0\0F\1FD\00\00]\C3f\0F\1FD\00\00\BE(\10`\00UH\81\EE(\10`\00H\89\E5H\C1\FE\03H\89\F0H\C1\E8?H\01\C6H\D1\FEt\15\B8\00\00\00\00H\85\C0t\0B]\BF(\10`\00\FF\E0\0F\1F\00]\C3f\0F\1FD\00\00\80=\D1\0B \00\00u\17UH\89\E5\E8~\FF\FF\FF\C6\05\BF\0B \00\01]\C3\0F\1FD\00\00\F3\C3\0F\1F@\00f.\0F\1F\84\00\00\00\00\00UH\89\E5]\EB\89\90U\C3f\0F\1FD\00\00AWAVI\89\D7AUATL\8D%\9E\09 \00UH\8D-\9E\09 \00SA\89\FDI\89\F6L)\E5H\83\EC\08H\C1\FD\03\E8\C7\FE\FF\FFH\85\EDt 1\DB\0F\1F\84\00\00\00\00\00L\89\FAL\89\F6D\89\EFA\FF\14\DCH\83\C3\01H9\DDu\EAH\83\C4\08[]A\5CA]A^A_\C3\90f.\0F\1F\84\00\00\00\00\00\F3\C3" }>
@seg_400504__fini = internal constant %seg_400504__fini_type <{ [9 x i8] c"H\83\EC\08H\83\C4\08\C3" }>
@seg_400510__rodata = internal constant %seg_400510__rodata_type <{ [4 x i8] c"\01\00\02\00" }>
@seg_400514__eh_frame_hdr = internal constant %seg_400514__eh_frame_hdr_type <{ [52 x i8] c"\01\1B\03;0\00\00\00\05\00\00\00\8C\FE\FF\FFL\00\00\00\BC\FE\FF\FFx\00\00\00t\FF\FF\FF\8C\00\00\00|\FF\FF\FF\A4\00\00\00\EC\FF\FF\FF\EC\00\00\00" }>
@seg_400548__eh_frame = internal constant %seg_400548__eh_frame_type <{ [208 x i8] c"\14\00\00\00\00\00\00\00\01zR\00\01x\10\01\1B\0C\07\08\90\01\07\10\10\00\00\00\1C\00\00\008\FE\FF\FF+\00\00\00\00\00\00\00\14\00\00\00\00\00\00\00\01zR\00\01x\10\01\1B\0C\07\08\90\01\00\00\10\00\00\00\1C\00\00\00<\FE\FF\FF\02\00\00\00\00\00\00\00\14\00\00\000\00\00\00\E0\FE\FF\FF\02\00\00\00\00\00\00\00\00\00\00\00D\00\00\00H\00\00\00\D0\FE\FF\FFe\00\00\00\00B\0E\10\8F\02B\0E\18\8E\03E\0E \8D\04B\0E(\8C\05H\0E0\86\06H\0E8\83\07M\0E@r\0E8A\0E0A\0E(B\0E B\0E\18B\0E\10B\0E\08\00\10\00\00\00\90\00\00\00\F8\FE\FF\FF\02\00\00\00\00\00\00\00\00\00\00\00" }>
@seg_601018__data = internal global %seg_601018__data_type zeroinitializer
@__bss_start = global %__bss_start_type zeroinitializer
@0 = internal global i1 false

declare %struct.Memory* @__remill_error(%struct.State* dereferenceable(3376), i64, %struct.Memory*)

declare i32 @__remill_fpu_exception_test_and_clear(i32, i32)

; Function Attrs: argmemonly nounwind
declare void @llvm.lifetime.start(i64, i8* nocapture) #0

; Function Attrs: argmemonly nounwind
declare void @llvm.lifetime.end(i64, i8* nocapture) #0

; Function Attrs: nounwind readnone
declare i32 @llvm.ctpop.i32(i32) #1

; Function Attrs: nounwind readnone
declare i32 @llvm.bswap.i32(i32) #1

; Function Attrs: nounwind readnone
declare i64 @llvm.bswap.i64(i64) #1

; Function Attrs: nounwind readnone
declare i32 @llvm.cttz.i32(i32, i1) #1

; Function Attrs: nounwind readnone
declare i64 @llvm.cttz.i64(i64, i1) #1

; Function Attrs: nounwind readnone
declare i32 @llvm.ctlz.i32(i32, i1) #1

; Function Attrs: nounwind readnone
declare i64 @llvm.ctlz.i64(i64, i1) #1

; Function Attrs: argmemonly nounwind
declare void @llvm.memcpy.p0i8.p0i8.i64(i8* nocapture writeonly, i8* nocapture readonly, i64, i32, i1) #0

; Function Attrs: nounwind readnone
declare double @llvm.nearbyint.f64(double) #1

; Function Attrs: nounwind readnone
declare double @llvm.fabs.f64(double) #1

; Function Attrs: nounwind readnone
declare <4 x double> @llvm.nearbyint.v4f64(<4 x double>) #1

; Function Attrs: nounwind readnone
declare <4 x double> @llvm.fabs.v4f64(<4 x double>) #1

; Function Attrs: nounwind readnone
declare double @llvm.trunc.f64(double) #1

; Function Attrs: nounwind readnone
declare <4 x double> @llvm.trunc.v4f64(<4 x double>) #1

; Function Attrs: nounwind readnone
declare float @llvm.nearbyint.f32(float) #1

; Function Attrs: nounwind readnone
declare float @llvm.fabs.f32(float) #1

; Function Attrs: nounwind readnone
declare <4 x float> @llvm.nearbyint.v4f32(<4 x float>) #1

; Function Attrs: nounwind readnone
declare <4 x float> @llvm.fabs.v4f32(<4 x float>) #1

; Function Attrs: nounwind readnone
declare float @llvm.trunc.f32(float) #1

; Function Attrs: nounwind readnone
declare <4 x float> @llvm.trunc.v4f32(<4 x float>) #1

; Function Attrs: argmemonly nounwind
declare void @llvm.memset.p0i8.i64(i8* nocapture writeonly, i8, i64, i32, i1) #0

declare double @atan(double) local_unnamed_addr

declare double @cos(double) local_unnamed_addr

declare double @sin(double) local_unnamed_addr

declare double @sqrt(double) local_unnamed_addr

declare double @tan(double) local_unnamed_addr

declare extern_weak x86_64_sysvcc i64 @abort()

declare extern_weak x86_64_sysvcc i64 @abs(i64)

declare extern_weak x86_64_sysvcc i64 @asin(i64)

declare extern_weak x86_64_sysvcc i64 @atof(i64)

declare extern_weak x86_64_sysvcc i64 @atoi(i64)

declare extern_weak x86_64_sysvcc i64 @atol(i64)

declare extern_weak x86_64_sysvcc i64 @calloc(i64, i64)

declare extern_weak x86_64_sysvcc i64 @clock()

declare extern_weak x86_64_sysvcc i64 @cosf(i64)

declare extern_weak x86_64_sysvcc i64 @exit(i64)

declare extern_weak x86_64_sysvcc i64 @exp(i64)

declare extern_weak x86_64_sysvcc i64 @fflush(i64)

declare extern_weak x86_64_sysvcc i64 @floor(i64)

declare extern_weak x86_64_sysvcc i64 @fprintf(i64, i64, i64, i64, i64, i64, i64, i64, i64, i64, i64, i64, i64, i64, i64, i64)

declare extern_weak x86_64_sysvcc i64 @fputs(i64, i64)

declare extern_weak x86_64_sysvcc i64 @free(i64)

declare extern_weak x86_64_sysvcc i64 @fwrite(i64, i64, i64, i64)

declare extern_weak x86_64_sysvcc i64 @getchar()

declare extern_weak x86_64_sysvcc i64 @gettimeofday(i64, i64)

declare extern_weak x86_64_sysvcc i64 @__isoc99_fscanf(i64, i64, i64, i64, i64, i64, i64, i64, i64, i64, i64, i64, i64, i64, i64, i64)

declare extern_weak x86_64_sysvcc i64 @__isoc99_scanf(i64, i64, i64, i64, i64, i64, i64, i64, i64, i64, i64, i64, i64, i64, i64, i64)

declare extern_weak x86_64_sysvcc i64 @__isoc99_sscanf(i64, i64, i64, i64, i64, i64, i64, i64, i64, i64, i64, i64, i64, i64, i64, i64)

declare extern_weak x86_64_sysvcc i64 @log(i64)

declare extern_weak x86_64_sysvcc i64 @lrand48()

declare extern_weak x86_64_sysvcc i64 @malloc(i64)

declare extern_weak x86_64_sysvcc i64 @memalign(i64, i64)

declare extern_weak x86_64_sysvcc i64 @memcpy(i64, i64, i64)

declare extern_weak x86_64_sysvcc i64 @memset(i64, i64, i64)

declare extern_weak x86_64_sysvcc i64 @perror(i64)

declare extern_weak x86_64_sysvcc i64 @posix_memalign(i64, i64, i64)

declare extern_weak x86_64_sysvcc i64 @pow(i64, i64)

declare extern_weak x86_64_sysvcc i64 @printf(i64, i64, i64, i64, i64, i64, i64, i64, i64, i64, i64, i64, i64, i64, i64, i64)

declare extern_weak x86_64_sysvcc i64 @putchar(i64)

declare extern_weak x86_64_sysvcc i64 @puts(i64)

declare extern_weak x86_64_sysvcc i64 @rand()

declare extern_weak x86_64_sysvcc i64 @random()

declare extern_weak x86_64_sysvcc i64 @realloc(i64, i64)

declare extern_weak x86_64_sysvcc i64 @seed48(i64)

declare extern_weak x86_64_sysvcc i64 @sinf(i64)

declare extern_weak x86_64_sysvcc i64 @sprintf(i64, i64, i64, i64, i64, i64, i64, i64, i64, i64, i64, i64, i64, i64, i64, i64)

declare extern_weak x86_64_sysvcc i64 @srand(i64)

declare extern_weak x86_64_sysvcc i64 @strcat(i64, i64)

declare extern_weak x86_64_sysvcc i64 @strcmp(i64, i64)

declare extern_weak x86_64_sysvcc i64 @strcpy(i64, i64)

declare extern_weak x86_64_sysvcc i64 @strdup(i64)

declare extern_weak x86_64_sysvcc i64 @strlen(i64)

declare extern_weak x86_64_sysvcc i64 @strncmp(i64, i64, i64)

declare extern_weak x86_64_sysvcc i64 @strtoll(i64, i64, i64)

declare extern_weak x86_64_sysvcc i64 @time(i64)

declare extern_weak x86_64_sysvcc i64 @ungetc(i64, i64)

declare extern_weak x86_64_sysvcc i64 @pthread_join(i64, i64)

declare extern_weak x86_64_sysvcc i64 @pthread_create(i64, i64, i64, i64)

declare %struct.Memory* @__remill_function_call(%struct.State* dereferenceable(3376), i64, %struct.Memory*)

declare %struct.Memory* @ext_sqrt(%struct.State* noalias dereferenceable(3376), i64, %struct.Memory* noalias)

declare %struct.Memory* @ext_atan(%struct.State* noalias dereferenceable(3376), i64, %struct.Memory* noalias)

declare %struct.Memory* @ext_cos(%struct.State* noalias dereferenceable(3376), i64, %struct.Memory* noalias)

declare %struct.Memory* @ext_tan(%struct.State* noalias dereferenceable(3376), i64, %struct.Memory* noalias)

declare %struct.Memory* @ext_sin(%struct.State* noalias dereferenceable(3376), i64, %struct.Memory* noalias)

; Function Attrs: alwaysinline
define %struct.Memory* @rd_pic_decision(%struct.State* noalias, i64, %struct.Memory* noalias) #2 {
entry:
  %3 = getelementptr inbounds %struct.State, %struct.State* %0, i64 0, i32 6, i32 33, i32 0, i32 0
  store i64 %1, i64* %3, align 8
  %BRANCH_TAKEN = alloca i8, align 1
  store i8 0, i8* %BRANCH_TAKEN, align 1
  %MEMORY = alloca %struct.Memory*, align 8
  store %struct.Memory* %2, %struct.Memory** %MEMORY, align 8
  %loadMem_49df40 = load %struct.Memory*, %struct.Memory** %MEMORY
  %4 = getelementptr inbounds %struct.State, %struct.State* %0, i32 0, i32 6
  %5 = getelementptr inbounds %struct.GPR, %struct.GPR* %4, i32 0, i32 33
  %6 = getelementptr inbounds %struct.Reg, %struct.Reg* %5, i32 0, i32 0
  %PC.i = bitcast %union.anon* %6 to i64*
  %7 = getelementptr inbounds %struct.State, %struct.State* %0, i32 0, i32 6
  %8 = getelementptr inbounds %struct.GPR, %struct.GPR* %7, i32 0, i32 15
  %9 = getelementptr inbounds %struct.Reg, %struct.Reg* %8, i32 0, i32 0
  %RBP.i = bitcast %union.anon* %9 to i64*
  %10 = load i64, i64* %RBP.i
  %11 = load i64, i64* %PC.i
  %12 = add i64 %11, 1
  store i64 %12, i64* %PC.i
  %13 = getelementptr inbounds %struct.State, %struct.State* %0, i64 0, i32 6, i32 13, i32 0, i32 0
  %14 = load i64, i64* %13, align 8
  %15 = add i64 %14, -8
  %16 = inttoptr i64 %15 to i64*
  store i64 %10, i64* %16
  store i64 %15, i64* %13, align 8
  store %struct.Memory* %loadMem_49df40, %struct.Memory** %MEMORY
  %loadMem_49df41 = load %struct.Memory*, %struct.Memory** %MEMORY
  %17 = getelementptr inbounds %struct.State, %struct.State* %0, i32 0, i32 6
  %18 = getelementptr inbounds %struct.GPR, %struct.GPR* %17, i32 0, i32 33
  %19 = getelementptr inbounds %struct.Reg, %struct.Reg* %18, i32 0, i32 0
  %PC.i14 = bitcast %union.anon* %19 to i64*
  %20 = getelementptr inbounds %struct.State, %struct.State* %0, i32 0, i32 6
  %21 = getelementptr inbounds %struct.GPR, %struct.GPR* %20, i32 0, i32 13
  %22 = getelementptr inbounds %struct.Reg, %struct.Reg* %21, i32 0, i32 0
  %RSP.i = bitcast %union.anon* %22 to i64*
  %23 = getelementptr inbounds %struct.State, %struct.State* %0, i32 0, i32 6
  %24 = getelementptr inbounds %struct.GPR, %struct.GPR* %23, i32 0, i32 15
  %25 = getelementptr inbounds %struct.Reg, %struct.Reg* %24, i32 0, i32 0
  %RBP.i15 = bitcast %union.anon* %25 to i64*
  %26 = load i64, i64* %RSP.i
  %27 = load i64, i64* %PC.i14
  %28 = add i64 %27, 3
  store i64 %28, i64* %PC.i14
  store i64 %26, i64* %RBP.i15, align 8
  store %struct.Memory* %loadMem_49df41, %struct.Memory** %MEMORY
  %loadMem_49df44 = load %struct.Memory*, %struct.Memory** %MEMORY
  %29 = getelementptr inbounds %struct.State, %struct.State* %0, i32 0, i32 6
  %30 = getelementptr inbounds %struct.GPR, %struct.GPR* %29, i32 0, i32 33
  %31 = getelementptr inbounds %struct.Reg, %struct.Reg* %30, i32 0, i32 0
  %PC.i23 = bitcast %union.anon* %31 to i64*
  %32 = getelementptr inbounds %struct.State, %struct.State* %0, i32 0, i32 6
  %33 = getelementptr inbounds %struct.GPR, %struct.GPR* %32, i32 0, i32 15
  %34 = getelementptr inbounds %struct.Reg, %struct.Reg* %33, i32 0, i32 0
  %RBP.i24 = bitcast %union.anon* %34 to i64*
  %35 = getelementptr inbounds %struct.State, %struct.State* %0, i32 0, i32 1
  %36 = getelementptr inbounds [32 x %union.VectorReg], [32 x %union.VectorReg]* %35, i64 0, i64 0
  %XMM0.i25 = bitcast %union.VectorReg* %36 to %union.vec128_t*
  %37 = load i64, i64* %RBP.i24
  %38 = sub i64 %37, 16
  %39 = bitcast %union.vec128_t* %XMM0.i25 to i8*
  %40 = load i64, i64* %PC.i23
  %41 = add i64 %40, 5
  store i64 %41, i64* %PC.i23
  %42 = bitcast i8* %39 to double*
  %43 = load double, double* %42, align 1
  %44 = inttoptr i64 %38 to double*
  store double %43, double* %44
  store %struct.Memory* %loadMem_49df44, %struct.Memory** %MEMORY
  %loadMem_49df49 = load %struct.Memory*, %struct.Memory** %MEMORY
  %45 = getelementptr inbounds %struct.State, %struct.State* %0, i32 0, i32 6
  %46 = getelementptr inbounds %struct.GPR, %struct.GPR* %45, i32 0, i32 33
  %47 = getelementptr inbounds %struct.Reg, %struct.Reg* %46, i32 0, i32 0
  %PC.i34 = bitcast %union.anon* %47 to i64*
  %48 = getelementptr inbounds %struct.State, %struct.State* %0, i32 0, i32 6
  %49 = getelementptr inbounds %struct.GPR, %struct.GPR* %48, i32 0, i32 15
  %50 = getelementptr inbounds %struct.Reg, %struct.Reg* %49, i32 0, i32 0
  %RBP.i35 = bitcast %union.anon* %50 to i64*
  %51 = getelementptr inbounds %struct.State, %struct.State* %0, i32 0, i32 1
  %52 = getelementptr inbounds [32 x %union.VectorReg], [32 x %union.VectorReg]* %51, i64 0, i64 1
  %XMM1.i = bitcast %union.VectorReg* %52 to %union.vec128_t*
  %53 = load i64, i64* %RBP.i35
  %54 = sub i64 %53, 24
  %55 = bitcast %union.vec128_t* %XMM1.i to i8*
  %56 = load i64, i64* %PC.i34
  %57 = add i64 %56, 5
  store i64 %57, i64* %PC.i34
  %58 = bitcast i8* %55 to double*
  %59 = load double, double* %58, align 1
  %60 = inttoptr i64 %54 to double*
  store double %59, double* %60
  store %struct.Memory* %loadMem_49df49, %struct.Memory** %MEMORY
  %loadMem_49df4e = load %struct.Memory*, %struct.Memory** %MEMORY
  %61 = getelementptr inbounds %struct.State, %struct.State* %0, i32 0, i32 6
  %62 = getelementptr inbounds %struct.GPR, %struct.GPR* %61, i32 0, i32 33
  %63 = getelementptr inbounds %struct.Reg, %struct.Reg* %62, i32 0, i32 0
  %PC.i67 = bitcast %union.anon* %63 to i64*
  %64 = getelementptr inbounds %struct.State, %struct.State* %0, i32 0, i32 6
  %65 = getelementptr inbounds %struct.GPR, %struct.GPR* %64, i32 0, i32 11
  %66 = getelementptr inbounds %struct.Reg, %struct.Reg* %65, i32 0, i32 0
  %EDI.i = bitcast %union.anon* %66 to i32*
  %67 = getelementptr inbounds %struct.State, %struct.State* %0, i32 0, i32 6
  %68 = getelementptr inbounds %struct.GPR, %struct.GPR* %67, i32 0, i32 15
  %69 = getelementptr inbounds %struct.Reg, %struct.Reg* %68, i32 0, i32 0
  %RBP.i68 = bitcast %union.anon* %69 to i64*
  %70 = load i64, i64* %RBP.i68
  %71 = sub i64 %70, 28
  %72 = load i32, i32* %EDI.i
  %73 = zext i32 %72 to i64
  %74 = load i64, i64* %PC.i67
  %75 = add i64 %74, 3
  store i64 %75, i64* %PC.i67
  %76 = inttoptr i64 %71 to i32*
  store i32 %72, i32* %76
  store %struct.Memory* %loadMem_49df4e, %struct.Memory** %MEMORY
  %loadMem_49df51 = load %struct.Memory*, %struct.Memory** %MEMORY
  %77 = getelementptr inbounds %struct.State, %struct.State* %0, i32 0, i32 6
  %78 = getelementptr inbounds %struct.GPR, %struct.GPR* %77, i32 0, i32 33
  %79 = getelementptr inbounds %struct.Reg, %struct.Reg* %78, i32 0, i32 0
  %PC.i65 = bitcast %union.anon* %79 to i64*
  %80 = getelementptr inbounds %struct.State, %struct.State* %0, i32 0, i32 6
  %81 = getelementptr inbounds %struct.GPR, %struct.GPR* %80, i32 0, i32 9
  %82 = getelementptr inbounds %struct.Reg, %struct.Reg* %81, i32 0, i32 0
  %ESI.i = bitcast %union.anon* %82 to i32*
  %83 = getelementptr inbounds %struct.State, %struct.State* %0, i32 0, i32 6
  %84 = getelementptr inbounds %struct.GPR, %struct.GPR* %83, i32 0, i32 15
  %85 = getelementptr inbounds %struct.Reg, %struct.Reg* %84, i32 0, i32 0
  %RBP.i66 = bitcast %union.anon* %85 to i64*
  %86 = load i64, i64* %RBP.i66
  %87 = sub i64 %86, 32
  %88 = load i32, i32* %ESI.i
  %89 = zext i32 %88 to i64
  %90 = load i64, i64* %PC.i65
  %91 = add i64 %90, 3
  store i64 %91, i64* %PC.i65
  %92 = inttoptr i64 %87 to i32*
  store i32 %88, i32* %92
  store %struct.Memory* %loadMem_49df51, %struct.Memory** %MEMORY
  %loadMem_49df54 = load %struct.Memory*, %struct.Memory** %MEMORY
  %93 = getelementptr inbounds %struct.State, %struct.State* %0, i32 0, i32 6
  %94 = getelementptr inbounds %struct.GPR, %struct.GPR* %93, i32 0, i32 33
  %95 = getelementptr inbounds %struct.Reg, %struct.Reg* %94, i32 0, i32 0
  %PC.i63 = bitcast %union.anon* %95 to i64*
  %96 = getelementptr inbounds %struct.State, %struct.State* %0, i32 0, i32 6
  %97 = getelementptr inbounds %struct.GPR, %struct.GPR* %96, i32 0, i32 15
  %98 = getelementptr inbounds %struct.Reg, %struct.Reg* %97, i32 0, i32 0
  %RBP.i64 = bitcast %union.anon* %98 to i64*
  %99 = getelementptr inbounds %struct.State, %struct.State* %0, i32 0, i32 1
  %100 = getelementptr inbounds [32 x %union.VectorReg], [32 x %union.VectorReg]* %99, i64 0, i64 2
  %XMM2.i = bitcast %union.VectorReg* %100 to %union.vec128_t*
  %101 = load i64, i64* %RBP.i64
  %102 = sub i64 %101, 40
  %103 = bitcast %union.vec128_t* %XMM2.i to i8*
  %104 = load i64, i64* %PC.i63
  %105 = add i64 %104, 5
  store i64 %105, i64* %PC.i63
  %106 = bitcast i8* %103 to double*
  %107 = load double, double* %106, align 1
  %108 = inttoptr i64 %102 to double*
  store double %107, double* %108
  store %struct.Memory* %loadMem_49df54, %struct.Memory** %MEMORY
  %loadMem_49df59 = load %struct.Memory*, %struct.Memory** %MEMORY
  %109 = getelementptr inbounds %struct.State, %struct.State* %0, i32 0, i32 6
  %110 = getelementptr inbounds %struct.GPR, %struct.GPR* %109, i32 0, i32 33
  %111 = getelementptr inbounds %struct.Reg, %struct.Reg* %110, i32 0, i32 0
  %PC.i60 = bitcast %union.anon* %111 to i64*
  %112 = getelementptr inbounds %struct.State, %struct.State* %0, i32 0, i32 6
  %113 = getelementptr inbounds %struct.GPR, %struct.GPR* %112, i32 0, i32 15
  %114 = getelementptr inbounds %struct.Reg, %struct.Reg* %113, i32 0, i32 0
  %RBP.i61 = bitcast %union.anon* %114 to i64*
  %115 = getelementptr inbounds %struct.State, %struct.State* %0, i32 0, i32 1
  %116 = getelementptr inbounds [32 x %union.VectorReg], [32 x %union.VectorReg]* %115, i64 0, i64 0
  %YMM0.i62 = bitcast %union.VectorReg* %116 to %"class.std::bitset"*
  %117 = bitcast %"class.std::bitset"* %YMM0.i62 to i8*
  %118 = load i64, i64* %RBP.i61
  %119 = sub i64 %118, 28
  %120 = load i64, i64* %PC.i60
  %121 = add i64 %120, 5
  store i64 %121, i64* %PC.i60
  %122 = inttoptr i64 %119 to i32*
  %123 = load i32, i32* %122
  %124 = sitofp i32 %123 to double
  %125 = bitcast i8* %117 to double*
  store double %124, double* %125, align 1
  store %struct.Memory* %loadMem_49df59, %struct.Memory** %MEMORY
  %loadMem_49df5e = load %struct.Memory*, %struct.Memory** %MEMORY
  %126 = getelementptr inbounds %struct.State, %struct.State* %0, i32 0, i32 6
  %127 = getelementptr inbounds %struct.GPR, %struct.GPR* %126, i32 0, i32 33
  %128 = getelementptr inbounds %struct.Reg, %struct.Reg* %127, i32 0, i32 0
  %PC.i57 = bitcast %union.anon* %128 to i64*
  %129 = getelementptr inbounds %struct.State, %struct.State* %0, i32 0, i32 6
  %130 = getelementptr inbounds %struct.GPR, %struct.GPR* %129, i32 0, i32 15
  %131 = getelementptr inbounds %struct.Reg, %struct.Reg* %130, i32 0, i32 0
  %RBP.i58 = bitcast %union.anon* %131 to i64*
  %132 = getelementptr inbounds %struct.State, %struct.State* %0, i32 0, i32 1
  %133 = getelementptr inbounds [32 x %union.VectorReg], [32 x %union.VectorReg]* %132, i64 0, i64 0
  %YMM0.i59 = bitcast %union.VectorReg* %133 to %"class.std::bitset"*
  %134 = bitcast %"class.std::bitset"* %YMM0.i59 to i8*
  %135 = bitcast %"class.std::bitset"* %YMM0.i59 to i8*
  %136 = load i64, i64* %RBP.i58
  %137 = sub i64 %136, 40
  %138 = load i64, i64* %PC.i57
  %139 = add i64 %138, 5
  store i64 %139, i64* %PC.i57
  %140 = bitcast i8* %135 to double*
  %141 = load double, double* %140, align 1
  %142 = getelementptr inbounds i8, i8* %135, i64 8
  %143 = bitcast i8* %142 to i64*
  %144 = load i64, i64* %143, align 1
  %145 = inttoptr i64 %137 to double*
  %146 = load double, double* %145
  %147 = fmul double %141, %146
  %148 = bitcast i8* %134 to double*
  store double %147, double* %148, align 1
  %149 = getelementptr inbounds i8, i8* %134, i64 8
  %150 = bitcast i8* %149 to i64*
  store i64 %144, i64* %150, align 1
  store %struct.Memory* %loadMem_49df5e, %struct.Memory** %MEMORY
  %loadMem_49df63 = load %struct.Memory*, %struct.Memory** %MEMORY
  %151 = getelementptr inbounds %struct.State, %struct.State* %0, i32 0, i32 6
  %152 = getelementptr inbounds %struct.GPR, %struct.GPR* %151, i32 0, i32 33
  %153 = getelementptr inbounds %struct.Reg, %struct.Reg* %152, i32 0, i32 0
  %PC.i54 = bitcast %union.anon* %153 to i64*
  %154 = getelementptr inbounds %struct.State, %struct.State* %0, i32 0, i32 6
  %155 = getelementptr inbounds %struct.GPR, %struct.GPR* %154, i32 0, i32 15
  %156 = getelementptr inbounds %struct.Reg, %struct.Reg* %155, i32 0, i32 0
  %RBP.i55 = bitcast %union.anon* %156 to i64*
  %157 = getelementptr inbounds %struct.State, %struct.State* %0, i32 0, i32 1
  %158 = getelementptr inbounds [32 x %union.VectorReg], [32 x %union.VectorReg]* %157, i64 0, i64 0
  %YMM0.i56 = bitcast %union.VectorReg* %158 to %"class.std::bitset"*
  %159 = bitcast %"class.std::bitset"* %YMM0.i56 to i8*
  %160 = bitcast %"class.std::bitset"* %YMM0.i56 to i8*
  %161 = load i64, i64* %RBP.i55
  %162 = sub i64 %161, 16
  %163 = load i64, i64* %PC.i54
  %164 = add i64 %163, 5
  store i64 %164, i64* %PC.i54
  %165 = bitcast i8* %160 to double*
  %166 = load double, double* %165, align 1
  %167 = getelementptr inbounds i8, i8* %160, i64 8
  %168 = bitcast i8* %167 to i64*
  %169 = load i64, i64* %168, align 1
  %170 = inttoptr i64 %162 to double*
  %171 = load double, double* %170
  %172 = fadd double %166, %171
  %173 = bitcast i8* %159 to double*
  store double %172, double* %173, align 1
  %174 = getelementptr inbounds i8, i8* %159, i64 8
  %175 = bitcast i8* %174 to i64*
  store i64 %169, i64* %175, align 1
  store %struct.Memory* %loadMem_49df63, %struct.Memory** %MEMORY
  %loadMem_49df68 = load %struct.Memory*, %struct.Memory** %MEMORY
  %176 = getelementptr inbounds %struct.State, %struct.State* %0, i32 0, i32 6
  %177 = getelementptr inbounds %struct.GPR, %struct.GPR* %176, i32 0, i32 33
  %178 = getelementptr inbounds %struct.Reg, %struct.Reg* %177, i32 0, i32 0
  %PC.i51 = bitcast %union.anon* %178 to i64*
  %179 = getelementptr inbounds %struct.State, %struct.State* %0, i32 0, i32 6
  %180 = getelementptr inbounds %struct.GPR, %struct.GPR* %179, i32 0, i32 15
  %181 = getelementptr inbounds %struct.Reg, %struct.Reg* %180, i32 0, i32 0
  %RBP.i52 = bitcast %union.anon* %181 to i64*
  %182 = getelementptr inbounds %struct.State, %struct.State* %0, i32 0, i32 1
  %183 = getelementptr inbounds [32 x %union.VectorReg], [32 x %union.VectorReg]* %182, i64 0, i64 0
  %XMM0.i53 = bitcast %union.VectorReg* %183 to %union.vec128_t*
  %184 = load i64, i64* %RBP.i52
  %185 = sub i64 %184, 48
  %186 = bitcast %union.vec128_t* %XMM0.i53 to i8*
  %187 = load i64, i64* %PC.i51
  %188 = add i64 %187, 5
  store i64 %188, i64* %PC.i51
  %189 = bitcast i8* %186 to double*
  %190 = load double, double* %189, align 1
  %191 = inttoptr i64 %185 to double*
  store double %190, double* %191
  store %struct.Memory* %loadMem_49df68, %struct.Memory** %MEMORY
  %loadMem_49df6d = load %struct.Memory*, %struct.Memory** %MEMORY
  %192 = getelementptr inbounds %struct.State, %struct.State* %0, i32 0, i32 6
  %193 = getelementptr inbounds %struct.GPR, %struct.GPR* %192, i32 0, i32 33
  %194 = getelementptr inbounds %struct.Reg, %struct.Reg* %193, i32 0, i32 0
  %PC.i48 = bitcast %union.anon* %194 to i64*
  %195 = getelementptr inbounds %struct.State, %struct.State* %0, i32 0, i32 6
  %196 = getelementptr inbounds %struct.GPR, %struct.GPR* %195, i32 0, i32 15
  %197 = getelementptr inbounds %struct.Reg, %struct.Reg* %196, i32 0, i32 0
  %RBP.i49 = bitcast %union.anon* %197 to i64*
  %198 = getelementptr inbounds %struct.State, %struct.State* %0, i32 0, i32 1
  %199 = getelementptr inbounds [32 x %union.VectorReg], [32 x %union.VectorReg]* %198, i64 0, i64 0
  %YMM0.i50 = bitcast %union.VectorReg* %199 to %"class.std::bitset"*
  %200 = bitcast %"class.std::bitset"* %YMM0.i50 to i8*
  %201 = load i64, i64* %RBP.i49
  %202 = sub i64 %201, 32
  %203 = load i64, i64* %PC.i48
  %204 = add i64 %203, 5
  store i64 %204, i64* %PC.i48
  %205 = inttoptr i64 %202 to i32*
  %206 = load i32, i32* %205
  %207 = sitofp i32 %206 to double
  %208 = bitcast i8* %200 to double*
  store double %207, double* %208, align 1
  store %struct.Memory* %loadMem_49df6d, %struct.Memory** %MEMORY
  %loadMem_49df72 = load %struct.Memory*, %struct.Memory** %MEMORY
  %209 = getelementptr inbounds %struct.State, %struct.State* %0, i32 0, i32 6
  %210 = getelementptr inbounds %struct.GPR, %struct.GPR* %209, i32 0, i32 33
  %211 = getelementptr inbounds %struct.Reg, %struct.Reg* %210, i32 0, i32 0
  %PC.i45 = bitcast %union.anon* %211 to i64*
  %212 = getelementptr inbounds %struct.State, %struct.State* %0, i32 0, i32 6
  %213 = getelementptr inbounds %struct.GPR, %struct.GPR* %212, i32 0, i32 15
  %214 = getelementptr inbounds %struct.Reg, %struct.Reg* %213, i32 0, i32 0
  %RBP.i46 = bitcast %union.anon* %214 to i64*
  %215 = getelementptr inbounds %struct.State, %struct.State* %0, i32 0, i32 1
  %216 = getelementptr inbounds [32 x %union.VectorReg], [32 x %union.VectorReg]* %215, i64 0, i64 0
  %YMM0.i47 = bitcast %union.VectorReg* %216 to %"class.std::bitset"*
  %217 = bitcast %"class.std::bitset"* %YMM0.i47 to i8*
  %218 = bitcast %"class.std::bitset"* %YMM0.i47 to i8*
  %219 = load i64, i64* %RBP.i46
  %220 = sub i64 %219, 40
  %221 = load i64, i64* %PC.i45
  %222 = add i64 %221, 5
  store i64 %222, i64* %PC.i45
  %223 = bitcast i8* %218 to double*
  %224 = load double, double* %223, align 1
  %225 = getelementptr inbounds i8, i8* %218, i64 8
  %226 = bitcast i8* %225 to i64*
  %227 = load i64, i64* %226, align 1
  %228 = inttoptr i64 %220 to double*
  %229 = load double, double* %228
  %230 = fmul double %224, %229
  %231 = bitcast i8* %217 to double*
  store double %230, double* %231, align 1
  %232 = getelementptr inbounds i8, i8* %217, i64 8
  %233 = bitcast i8* %232 to i64*
  store i64 %227, i64* %233, align 1
  store %struct.Memory* %loadMem_49df72, %struct.Memory** %MEMORY
  %loadMem_49df77 = load %struct.Memory*, %struct.Memory** %MEMORY
  %234 = getelementptr inbounds %struct.State, %struct.State* %0, i32 0, i32 6
  %235 = getelementptr inbounds %struct.GPR, %struct.GPR* %234, i32 0, i32 33
  %236 = getelementptr inbounds %struct.Reg, %struct.Reg* %235, i32 0, i32 0
  %PC.i42 = bitcast %union.anon* %236 to i64*
  %237 = getelementptr inbounds %struct.State, %struct.State* %0, i32 0, i32 6
  %238 = getelementptr inbounds %struct.GPR, %struct.GPR* %237, i32 0, i32 15
  %239 = getelementptr inbounds %struct.Reg, %struct.Reg* %238, i32 0, i32 0
  %RBP.i43 = bitcast %union.anon* %239 to i64*
  %240 = getelementptr inbounds %struct.State, %struct.State* %0, i32 0, i32 1
  %241 = getelementptr inbounds [32 x %union.VectorReg], [32 x %union.VectorReg]* %240, i64 0, i64 0
  %YMM0.i44 = bitcast %union.VectorReg* %241 to %"class.std::bitset"*
  %242 = bitcast %"class.std::bitset"* %YMM0.i44 to i8*
  %243 = bitcast %"class.std::bitset"* %YMM0.i44 to i8*
  %244 = load i64, i64* %RBP.i43
  %245 = sub i64 %244, 24
  %246 = load i64, i64* %PC.i42
  %247 = add i64 %246, 5
  store i64 %247, i64* %PC.i42
  %248 = bitcast i8* %243 to double*
  %249 = load double, double* %248, align 1
  %250 = getelementptr inbounds i8, i8* %243, i64 8
  %251 = bitcast i8* %250 to i64*
  %252 = load i64, i64* %251, align 1
  %253 = inttoptr i64 %245 to double*
  %254 = load double, double* %253
  %255 = fadd double %249, %254
  %256 = bitcast i8* %242 to double*
  store double %255, double* %256, align 1
  %257 = getelementptr inbounds i8, i8* %242, i64 8
  %258 = bitcast i8* %257 to i64*
  store i64 %252, i64* %258, align 1
  store %struct.Memory* %loadMem_49df77, %struct.Memory** %MEMORY
  %loadMem_49df7c = load %struct.Memory*, %struct.Memory** %MEMORY
  %259 = getelementptr inbounds %struct.State, %struct.State* %0, i32 0, i32 6
  %260 = getelementptr inbounds %struct.GPR, %struct.GPR* %259, i32 0, i32 33
  %261 = getelementptr inbounds %struct.Reg, %struct.Reg* %260, i32 0, i32 0
  %PC.i39 = bitcast %union.anon* %261 to i64*
  %262 = getelementptr inbounds %struct.State, %struct.State* %0, i32 0, i32 6
  %263 = getelementptr inbounds %struct.GPR, %struct.GPR* %262, i32 0, i32 15
  %264 = getelementptr inbounds %struct.Reg, %struct.Reg* %263, i32 0, i32 0
  %RBP.i40 = bitcast %union.anon* %264 to i64*
  %265 = getelementptr inbounds %struct.State, %struct.State* %0, i32 0, i32 1
  %266 = getelementptr inbounds [32 x %union.VectorReg], [32 x %union.VectorReg]* %265, i64 0, i64 0
  %XMM0.i41 = bitcast %union.VectorReg* %266 to %union.vec128_t*
  %267 = load i64, i64* %RBP.i40
  %268 = sub i64 %267, 56
  %269 = bitcast %union.vec128_t* %XMM0.i41 to i8*
  %270 = load i64, i64* %PC.i39
  %271 = add i64 %270, 5
  store i64 %271, i64* %PC.i39
  %272 = bitcast i8* %269 to double*
  %273 = load double, double* %272, align 1
  %274 = inttoptr i64 %268 to double*
  store double %273, double* %274
  store %struct.Memory* %loadMem_49df7c, %struct.Memory** %MEMORY
  %loadMem_49df81 = load %struct.Memory*, %struct.Memory** %MEMORY
  %275 = getelementptr inbounds %struct.State, %struct.State* %0, i32 0, i32 6
  %276 = getelementptr inbounds %struct.GPR, %struct.GPR* %275, i32 0, i32 33
  %277 = getelementptr inbounds %struct.Reg, %struct.Reg* %276, i32 0, i32 0
  %PC.i36 = bitcast %union.anon* %277 to i64*
  %278 = getelementptr inbounds %struct.State, %struct.State* %0, i32 0, i32 6
  %279 = getelementptr inbounds %struct.GPR, %struct.GPR* %278, i32 0, i32 15
  %280 = getelementptr inbounds %struct.Reg, %struct.Reg* %279, i32 0, i32 0
  %RBP.i37 = bitcast %union.anon* %280 to i64*
  %281 = getelementptr inbounds %struct.State, %struct.State* %0, i32 0, i32 1
  %282 = getelementptr inbounds [32 x %union.VectorReg], [32 x %union.VectorReg]* %281, i64 0, i64 0
  %YMM0.i38 = bitcast %union.VectorReg* %282 to %"class.std::bitset"*
  %283 = bitcast %"class.std::bitset"* %YMM0.i38 to i8*
  %284 = load i64, i64* %RBP.i37
  %285 = sub i64 %284, 56
  %286 = load i64, i64* %PC.i36
  %287 = add i64 %286, 5
  store i64 %287, i64* %PC.i36
  %288 = inttoptr i64 %285 to double*
  %289 = load double, double* %288
  %290 = bitcast i8* %283 to double*
  store double %289, double* %290, align 1
  %291 = getelementptr inbounds i8, i8* %283, i64 8
  %292 = bitcast i8* %291 to double*
  store double 0.000000e+00, double* %292, align 1
  store %struct.Memory* %loadMem_49df81, %struct.Memory** %MEMORY
  %loadMem_49df86 = load %struct.Memory*, %struct.Memory** %MEMORY
  %293 = getelementptr inbounds %struct.State, %struct.State* %0, i32 0, i32 6
  %294 = getelementptr inbounds %struct.GPR, %struct.GPR* %293, i32 0, i32 33
  %295 = getelementptr inbounds %struct.Reg, %struct.Reg* %294, i32 0, i32 0
  %PC.i30 = bitcast %union.anon* %295 to i64*
  %296 = getelementptr inbounds %struct.State, %struct.State* %0, i32 0, i32 6
  %297 = getelementptr inbounds %struct.GPR, %struct.GPR* %296, i32 0, i32 15
  %298 = getelementptr inbounds %struct.Reg, %struct.Reg* %297, i32 0, i32 0
  %RBP.i31 = bitcast %union.anon* %298 to i64*
  %299 = getelementptr inbounds %struct.State, %struct.State* %0, i32 0, i32 1
  %300 = getelementptr inbounds [32 x %union.VectorReg], [32 x %union.VectorReg]* %299, i64 0, i64 0
  %XMM0.i32 = bitcast %union.VectorReg* %300 to %union.vec128_t*
  %301 = bitcast %union.vec128_t* %XMM0.i32 to i8*
  %302 = load i64, i64* %RBP.i31
  %303 = sub i64 %302, 48
  %304 = load i64, i64* %PC.i30
  %305 = add i64 %304, 5
  store i64 %305, i64* %PC.i30
  %306 = bitcast i8* %301 to double*
  %307 = load double, double* %306, align 1
  %308 = inttoptr i64 %303 to double*
  %309 = load double, double* %308
  %310 = fcmp uno double %307, %309
  br i1 %310, label %311, label %323

; <label>:311:                                    ; preds = %entry
  %312 = fadd double %307, %309
  %313 = bitcast double %312 to i64
  %314 = and i64 %313, 9221120237041090560
  %315 = icmp eq i64 %314, 9218868437227405312
  %316 = and i64 %313, 2251799813685247
  %317 = icmp ne i64 %316, 0
  %318 = and i1 %315, %317
  br i1 %318, label %319, label %329

; <label>:319:                                    ; preds = %311
  %320 = getelementptr inbounds %struct.State, %struct.State* %0, i64 0, i32 6, i32 33, i32 0, i32 0
  %321 = load i64, i64* %320, align 8
  %322 = call %struct.Memory* @__remill_error(%struct.State* nonnull dereferenceable(3376) %0, i64 %321, %struct.Memory* %loadMem_49df86)
  br label %routine_ucomisd_MINUS0x30__rbp____xmm0.exit33

; <label>:323:                                    ; preds = %entry
  %324 = fcmp ogt double %307, %309
  br i1 %324, label %329, label %325

; <label>:325:                                    ; preds = %323
  %326 = fcmp olt double %307, %309
  br i1 %326, label %329, label %327

; <label>:327:                                    ; preds = %325
  %328 = fcmp oeq double %307, %309
  br i1 %328, label %329, label %336

; <label>:329:                                    ; preds = %327, %325, %323, %311
  %330 = phi i8 [ 0, %323 ], [ 0, %325 ], [ 1, %327 ], [ 1, %311 ]
  %331 = phi i8 [ 0, %323 ], [ 0, %325 ], [ 0, %327 ], [ 1, %311 ]
  %332 = phi i8 [ 0, %323 ], [ 1, %325 ], [ 0, %327 ], [ 1, %311 ]
  %333 = getelementptr inbounds %struct.State, %struct.State* %0, i64 0, i32 2, i32 7
  store i8 %330, i8* %333, align 1
  %334 = getelementptr inbounds %struct.State, %struct.State* %0, i64 0, i32 2, i32 3
  store i8 %331, i8* %334, align 1
  %335 = getelementptr inbounds %struct.State, %struct.State* %0, i64 0, i32 2, i32 1
  store i8 %332, i8* %335, align 1
  br label %336

; <label>:336:                                    ; preds = %329, %327
  %337 = getelementptr inbounds %struct.State, %struct.State* %0, i64 0, i32 2, i32 13
  store i8 0, i8* %337, align 1
  %338 = getelementptr inbounds %struct.State, %struct.State* %0, i64 0, i32 2, i32 9
  store i8 0, i8* %338, align 1
  %339 = getelementptr inbounds %struct.State, %struct.State* %0, i64 0, i32 2, i32 5
  store i8 0, i8* %339, align 1
  br label %routine_ucomisd_MINUS0x30__rbp____xmm0.exit33

routine_ucomisd_MINUS0x30__rbp____xmm0.exit33:    ; preds = %319, %336
  %340 = phi %struct.Memory* [ %322, %319 ], [ %loadMem_49df86, %336 ]
  store %struct.Memory* %340, %struct.Memory** %MEMORY
  %loadMem_49df8b = load %struct.Memory*, %struct.Memory** %MEMORY
  %341 = getelementptr inbounds %struct.State, %struct.State* %0, i32 0, i32 6
  %342 = getelementptr inbounds %struct.GPR, %struct.GPR* %341, i32 0, i32 33
  %343 = getelementptr inbounds %struct.Reg, %struct.Reg* %342, i32 0, i32 0
  %PC.i29 = bitcast %union.anon* %343 to i64*
  %344 = load i64, i64* %PC.i29
  %345 = add i64 %344, 44
  %346 = load i64, i64* %PC.i29
  %347 = add i64 %346, 6
  %348 = load i64, i64* %PC.i29
  %349 = add i64 %348, 6
  store i64 %349, i64* %PC.i29
  %350 = getelementptr inbounds %struct.State, %struct.State* %0, i64 0, i32 2, i32 1
  %351 = load i8, i8* %350, align 1
  %352 = getelementptr inbounds %struct.State, %struct.State* %0, i64 0, i32 2, i32 7
  %353 = load i8, i8* %352, align 1
  %354 = or i8 %353, %351
  %355 = icmp eq i8 %354, 0
  %356 = zext i1 %355 to i8
  store i8 %356, i8* %BRANCH_TAKEN, align 1
  %357 = getelementptr inbounds %struct.State, %struct.State* %0, i64 0, i32 6, i32 33, i32 0, i32 0
  %358 = select i1 %355, i64 %345, i64 %347
  store i64 %358, i64* %357, align 8
  store %struct.Memory* %loadMem_49df8b, %struct.Memory** %MEMORY
  %loadBr_49df8b = load i8, i8* %BRANCH_TAKEN
  %cmpBr_49df8b = icmp eq i8 %loadBr_49df8b, 1
  br i1 %cmpBr_49df8b, label %block_.L_49dfb7, label %block_49df91

block_49df91:                                     ; preds = %routine_ucomisd_MINUS0x30__rbp____xmm0.exit33
  %loadMem_49df91 = load %struct.Memory*, %struct.Memory** %MEMORY
  %359 = getelementptr inbounds %struct.State, %struct.State* %0, i32 0, i32 6
  %360 = getelementptr inbounds %struct.GPR, %struct.GPR* %359, i32 0, i32 33
  %361 = getelementptr inbounds %struct.Reg, %struct.Reg* %360, i32 0, i32 0
  %PC.i26 = bitcast %union.anon* %361 to i64*
  %362 = getelementptr inbounds %struct.State, %struct.State* %0, i32 0, i32 6
  %363 = getelementptr inbounds %struct.GPR, %struct.GPR* %362, i32 0, i32 15
  %364 = getelementptr inbounds %struct.Reg, %struct.Reg* %363, i32 0, i32 0
  %RBP.i27 = bitcast %union.anon* %364 to i64*
  %365 = getelementptr inbounds %struct.State, %struct.State* %0, i32 0, i32 1
  %366 = getelementptr inbounds [32 x %union.VectorReg], [32 x %union.VectorReg]* %365, i64 0, i64 0
  %YMM0.i28 = bitcast %union.VectorReg* %366 to %"class.std::bitset"*
  %367 = bitcast %"class.std::bitset"* %YMM0.i28 to i8*
  %368 = load i64, i64* %RBP.i27
  %369 = sub i64 %368, 56
  %370 = load i64, i64* %PC.i26
  %371 = add i64 %370, 5
  store i64 %371, i64* %PC.i26
  %372 = inttoptr i64 %369 to double*
  %373 = load double, double* %372
  %374 = bitcast i8* %367 to double*
  store double %373, double* %374, align 1
  %375 = getelementptr inbounds i8, i8* %367, i64 8
  %376 = bitcast i8* %375 to double*
  store double 0.000000e+00, double* %376, align 1
  store %struct.Memory* %loadMem_49df91, %struct.Memory** %MEMORY
  %loadMem_49df96 = load %struct.Memory*, %struct.Memory** %MEMORY
  %377 = getelementptr inbounds %struct.State, %struct.State* %0, i32 0, i32 6
  %378 = getelementptr inbounds %struct.GPR, %struct.GPR* %377, i32 0, i32 33
  %379 = getelementptr inbounds %struct.Reg, %struct.Reg* %378, i32 0, i32 0
  %PC.i20 = bitcast %union.anon* %379 to i64*
  %380 = getelementptr inbounds %struct.State, %struct.State* %0, i32 0, i32 6
  %381 = getelementptr inbounds %struct.GPR, %struct.GPR* %380, i32 0, i32 15
  %382 = getelementptr inbounds %struct.Reg, %struct.Reg* %381, i32 0, i32 0
  %RBP.i21 = bitcast %union.anon* %382 to i64*
  %383 = getelementptr inbounds %struct.State, %struct.State* %0, i32 0, i32 1
  %384 = getelementptr inbounds [32 x %union.VectorReg], [32 x %union.VectorReg]* %383, i64 0, i64 0
  %XMM0.i22 = bitcast %union.VectorReg* %384 to %union.vec128_t*
  %385 = bitcast %union.vec128_t* %XMM0.i22 to i8*
  %386 = load i64, i64* %RBP.i21
  %387 = sub i64 %386, 48
  %388 = load i64, i64* %PC.i20
  %389 = add i64 %388, 5
  store i64 %389, i64* %PC.i20
  %390 = bitcast i8* %385 to double*
  %391 = load double, double* %390, align 1
  %392 = inttoptr i64 %387 to double*
  %393 = load double, double* %392
  %394 = fcmp uno double %391, %393
  br i1 %394, label %395, label %407

; <label>:395:                                    ; preds = %block_49df91
  %396 = fadd double %391, %393
  %397 = bitcast double %396 to i64
  %398 = and i64 %397, 9221120237041090560
  %399 = icmp eq i64 %398, 9218868437227405312
  %400 = and i64 %397, 2251799813685247
  %401 = icmp ne i64 %400, 0
  %402 = and i1 %399, %401
  br i1 %402, label %403, label %413

; <label>:403:                                    ; preds = %395
  %404 = getelementptr inbounds %struct.State, %struct.State* %0, i64 0, i32 6, i32 33, i32 0, i32 0
  %405 = load i64, i64* %404, align 8
  %406 = call %struct.Memory* @__remill_error(%struct.State* nonnull dereferenceable(3376) %0, i64 %405, %struct.Memory* %loadMem_49df96)
  br label %routine_ucomisd_MINUS0x30__rbp____xmm0.exit

; <label>:407:                                    ; preds = %block_49df91
  %408 = fcmp ogt double %391, %393
  br i1 %408, label %413, label %409

; <label>:409:                                    ; preds = %407
  %410 = fcmp olt double %391, %393
  br i1 %410, label %413, label %411

; <label>:411:                                    ; preds = %409
  %412 = fcmp oeq double %391, %393
  br i1 %412, label %413, label %420

; <label>:413:                                    ; preds = %411, %409, %407, %395
  %414 = phi i8 [ 0, %407 ], [ 0, %409 ], [ 1, %411 ], [ 1, %395 ]
  %415 = phi i8 [ 0, %407 ], [ 0, %409 ], [ 0, %411 ], [ 1, %395 ]
  %416 = phi i8 [ 0, %407 ], [ 1, %409 ], [ 0, %411 ], [ 1, %395 ]
  %417 = getelementptr inbounds %struct.State, %struct.State* %0, i64 0, i32 2, i32 7
  store i8 %414, i8* %417, align 1
  %418 = getelementptr inbounds %struct.State, %struct.State* %0, i64 0, i32 2, i32 3
  store i8 %415, i8* %418, align 1
  %419 = getelementptr inbounds %struct.State, %struct.State* %0, i64 0, i32 2, i32 1
  store i8 %416, i8* %419, align 1
  br label %420

; <label>:420:                                    ; preds = %413, %411
  %421 = getelementptr inbounds %struct.State, %struct.State* %0, i64 0, i32 2, i32 13
  store i8 0, i8* %421, align 1
  %422 = getelementptr inbounds %struct.State, %struct.State* %0, i64 0, i32 2, i32 9
  store i8 0, i8* %422, align 1
  %423 = getelementptr inbounds %struct.State, %struct.State* %0, i64 0, i32 2, i32 5
  store i8 0, i8* %423, align 1
  br label %routine_ucomisd_MINUS0x30__rbp____xmm0.exit

routine_ucomisd_MINUS0x30__rbp____xmm0.exit:      ; preds = %403, %420
  %424 = phi %struct.Memory* [ %406, %403 ], [ %loadMem_49df96, %420 ]
  store %struct.Memory* %424, %struct.Memory** %MEMORY
  %loadMem_49df9b = load %struct.Memory*, %struct.Memory** %MEMORY
  %425 = getelementptr inbounds %struct.State, %struct.State* %0, i32 0, i32 6
  %426 = getelementptr inbounds %struct.GPR, %struct.GPR* %425, i32 0, i32 33
  %427 = getelementptr inbounds %struct.Reg, %struct.Reg* %426, i32 0, i32 0
  %PC.i19 = bitcast %union.anon* %427 to i64*
  %428 = load i64, i64* %PC.i19
  %429 = add i64 %428, 40
  %430 = load i64, i64* %PC.i19
  %431 = add i64 %430, 6
  %432 = load i64, i64* %PC.i19
  %433 = add i64 %432, 6
  store i64 %433, i64* %PC.i19
  %434 = getelementptr inbounds %struct.State, %struct.State* %0, i64 0, i32 2, i32 7
  %435 = load i8, i8* %434, align 1
  %436 = icmp eq i8 %435, 0
  %437 = zext i1 %436 to i8
  store i8 %437, i8* %BRANCH_TAKEN, align 1
  %438 = getelementptr inbounds %struct.State, %struct.State* %0, i64 0, i32 6, i32 33, i32 0, i32 0
  %439 = select i1 %436, i64 %429, i64 %431
  store i64 %439, i64* %438, align 8
  store %struct.Memory* %loadMem_49df9b, %struct.Memory** %MEMORY
  %loadBr_49df9b = load i8, i8* %BRANCH_TAKEN
  %cmpBr_49df9b = icmp eq i8 %loadBr_49df9b, 1
  br i1 %cmpBr_49df9b, label %block_.L_49dfc3, label %block_49dfa1

block_49dfa1:                                     ; preds = %routine_ucomisd_MINUS0x30__rbp____xmm0.exit
  %loadMem_49dfa1 = load %struct.Memory*, %struct.Memory** %MEMORY
  %440 = getelementptr inbounds %struct.State, %struct.State* %0, i32 0, i32 6
  %441 = getelementptr inbounds %struct.GPR, %struct.GPR* %440, i32 0, i32 33
  %442 = getelementptr inbounds %struct.Reg, %struct.Reg* %441, i32 0, i32 0
  %PC.i18 = bitcast %union.anon* %442 to i64*
  %443 = load i64, i64* %PC.i18
  %444 = add i64 %443, 34
  %445 = load i64, i64* %PC.i18
  %446 = add i64 %445, 6
  %447 = load i64, i64* %PC.i18
  %448 = add i64 %447, 6
  store i64 %448, i64* %PC.i18
  %449 = getelementptr inbounds %struct.State, %struct.State* %0, i64 0, i32 2, i32 3
  %450 = load i8, i8* %449, align 1
  store i8 %450, i8* %BRANCH_TAKEN, align 1
  %451 = getelementptr inbounds %struct.State, %struct.State* %0, i64 0, i32 6, i32 33, i32 0, i32 0
  %452 = icmp ne i8 %450, 0
  %453 = select i1 %452, i64 %444, i64 %446
  store i64 %453, i64* %451, align 8
  store %struct.Memory* %loadMem_49dfa1, %struct.Memory** %MEMORY
  %loadBr_49dfa1 = load i8, i8* %BRANCH_TAKEN
  %cmpBr_49dfa1 = icmp eq i8 %loadBr_49dfa1, 1
  br i1 %cmpBr_49dfa1, label %block_.L_49dfc3, label %block_49dfa7

block_49dfa7:                                     ; preds = %block_49dfa1
  %loadMem_49dfa7 = load %struct.Memory*, %struct.Memory** %MEMORY
  %454 = getelementptr inbounds %struct.State, %struct.State* %0, i32 0, i32 6
  %455 = getelementptr inbounds %struct.GPR, %struct.GPR* %454, i32 0, i32 33
  %456 = getelementptr inbounds %struct.Reg, %struct.Reg* %455, i32 0, i32 0
  %PC.i16 = bitcast %union.anon* %456 to i64*
  %457 = getelementptr inbounds %struct.State, %struct.State* %0, i32 0, i32 6
  %458 = getelementptr inbounds %struct.GPR, %struct.GPR* %457, i32 0, i32 15
  %459 = getelementptr inbounds %struct.Reg, %struct.Reg* %458, i32 0, i32 0
  %RBP.i17 = bitcast %union.anon* %459 to i64*
  %460 = getelementptr inbounds %struct.State, %struct.State* %0, i32 0, i32 1
  %461 = getelementptr inbounds [32 x %union.VectorReg], [32 x %union.VectorReg]* %460, i64 0, i64 0
  %YMM0.i = bitcast %union.VectorReg* %461 to %"class.std::bitset"*
  %462 = bitcast %"class.std::bitset"* %YMM0.i to i8*
  %463 = load i64, i64* %RBP.i17
  %464 = sub i64 %463, 24
  %465 = load i64, i64* %PC.i16
  %466 = add i64 %465, 5
  store i64 %466, i64* %PC.i16
  %467 = inttoptr i64 %464 to double*
  %468 = load double, double* %467
  %469 = bitcast i8* %462 to double*
  store double %468, double* %469, align 1
  %470 = getelementptr inbounds i8, i8* %462, i64 8
  %471 = bitcast i8* %470 to double*
  store double 0.000000e+00, double* %471, align 1
  store %struct.Memory* %loadMem_49dfa7, %struct.Memory** %MEMORY
  %loadMem_49dfac = load %struct.Memory*, %struct.Memory** %MEMORY
  %472 = getelementptr inbounds %struct.State, %struct.State* %0, i32 0, i32 6
  %473 = getelementptr inbounds %struct.GPR, %struct.GPR* %472, i32 0, i32 33
  %474 = getelementptr inbounds %struct.Reg, %struct.Reg* %473, i32 0, i32 0
  %PC.i12 = bitcast %union.anon* %474 to i64*
  %475 = getelementptr inbounds %struct.State, %struct.State* %0, i32 0, i32 6
  %476 = getelementptr inbounds %struct.GPR, %struct.GPR* %475, i32 0, i32 15
  %477 = getelementptr inbounds %struct.Reg, %struct.Reg* %476, i32 0, i32 0
  %RBP.i13 = bitcast %union.anon* %477 to i64*
  %478 = getelementptr inbounds %struct.State, %struct.State* %0, i32 0, i32 1
  %479 = getelementptr inbounds [32 x %union.VectorReg], [32 x %union.VectorReg]* %478, i64 0, i64 0
  %XMM0.i = bitcast %union.VectorReg* %479 to %union.vec128_t*
  %480 = bitcast %union.vec128_t* %XMM0.i to i8*
  %481 = load i64, i64* %RBP.i13
  %482 = sub i64 %481, 16
  %483 = load i64, i64* %PC.i12
  %484 = add i64 %483, 5
  store i64 %484, i64* %PC.i12
  %485 = bitcast i8* %480 to double*
  %486 = load double, double* %485, align 1
  %487 = inttoptr i64 %482 to double*
  %488 = load double, double* %487
  %489 = fcmp uno double %486, %488
  br i1 %489, label %490, label %502

; <label>:490:                                    ; preds = %block_49dfa7
  %491 = fadd double %486, %488
  %492 = bitcast double %491 to i64
  %493 = and i64 %492, 9221120237041090560
  %494 = icmp eq i64 %493, 9218868437227405312
  %495 = and i64 %492, 2251799813685247
  %496 = icmp ne i64 %495, 0
  %497 = and i1 %494, %496
  br i1 %497, label %498, label %508

; <label>:498:                                    ; preds = %490
  %499 = getelementptr inbounds %struct.State, %struct.State* %0, i64 0, i32 6, i32 33, i32 0, i32 0
  %500 = load i64, i64* %499, align 8
  %501 = call %struct.Memory* @__remill_error(%struct.State* nonnull dereferenceable(3376) %0, i64 %500, %struct.Memory* %loadMem_49dfac)
  br label %routine_ucomisd_MINUS0x10__rbp____xmm0.exit

; <label>:502:                                    ; preds = %block_49dfa7
  %503 = fcmp ogt double %486, %488
  br i1 %503, label %508, label %504

; <label>:504:                                    ; preds = %502
  %505 = fcmp olt double %486, %488
  br i1 %505, label %508, label %506

; <label>:506:                                    ; preds = %504
  %507 = fcmp oeq double %486, %488
  br i1 %507, label %508, label %515

; <label>:508:                                    ; preds = %506, %504, %502, %490
  %509 = phi i8 [ 0, %502 ], [ 0, %504 ], [ 1, %506 ], [ 1, %490 ]
  %510 = phi i8 [ 0, %502 ], [ 0, %504 ], [ 0, %506 ], [ 1, %490 ]
  %511 = phi i8 [ 0, %502 ], [ 1, %504 ], [ 0, %506 ], [ 1, %490 ]
  %512 = getelementptr inbounds %struct.State, %struct.State* %0, i64 0, i32 2, i32 7
  store i8 %509, i8* %512, align 1
  %513 = getelementptr inbounds %struct.State, %struct.State* %0, i64 0, i32 2, i32 3
  store i8 %510, i8* %513, align 1
  %514 = getelementptr inbounds %struct.State, %struct.State* %0, i64 0, i32 2, i32 1
  store i8 %511, i8* %514, align 1
  br label %515

; <label>:515:                                    ; preds = %508, %506
  %516 = getelementptr inbounds %struct.State, %struct.State* %0, i64 0, i32 2, i32 13
  store i8 0, i8* %516, align 1
  %517 = getelementptr inbounds %struct.State, %struct.State* %0, i64 0, i32 2, i32 9
  store i8 0, i8* %517, align 1
  %518 = getelementptr inbounds %struct.State, %struct.State* %0, i64 0, i32 2, i32 5
  store i8 0, i8* %518, align 1
  br label %routine_ucomisd_MINUS0x10__rbp____xmm0.exit

routine_ucomisd_MINUS0x10__rbp____xmm0.exit:      ; preds = %498, %515
  %519 = phi %struct.Memory* [ %501, %498 ], [ %loadMem_49dfac, %515 ]
  store %struct.Memory* %519, %struct.Memory** %MEMORY
  %loadMem_49dfb1 = load %struct.Memory*, %struct.Memory** %MEMORY
  %520 = getelementptr inbounds %struct.State, %struct.State* %0, i32 0, i32 6
  %521 = getelementptr inbounds %struct.GPR, %struct.GPR* %520, i32 0, i32 33
  %522 = getelementptr inbounds %struct.Reg, %struct.Reg* %521, i32 0, i32 0
  %PC.i11 = bitcast %union.anon* %522 to i64*
  %523 = load i64, i64* %PC.i11
  %524 = add i64 %523, 18
  %525 = load i64, i64* %PC.i11
  %526 = add i64 %525, 6
  %527 = load i64, i64* %PC.i11
  %528 = add i64 %527, 6
  store i64 %528, i64* %PC.i11
  %529 = getelementptr inbounds %struct.State, %struct.State* %0, i64 0, i32 2, i32 1
  %530 = load i8, i8* %529, align 1
  store i8 %530, i8* %BRANCH_TAKEN, align 1
  %531 = getelementptr inbounds %struct.State, %struct.State* %0, i64 0, i32 6, i32 33, i32 0, i32 0
  %532 = icmp ne i8 %530, 0
  %533 = select i1 %532, i64 %524, i64 %526
  store i64 %533, i64* %531, align 8
  store %struct.Memory* %loadMem_49dfb1, %struct.Memory** %MEMORY
  %loadBr_49dfb1 = load i8, i8* %BRANCH_TAKEN
  %cmpBr_49dfb1 = icmp eq i8 %loadBr_49dfb1, 1
  br i1 %cmpBr_49dfb1, label %block_.L_49dfc3, label %block_.L_49dfb7

block_.L_49dfb7:                                  ; preds = %routine_ucomisd_MINUS0x10__rbp____xmm0.exit, %routine_ucomisd_MINUS0x30__rbp____xmm0.exit33
  %loadMem_49dfb7 = load %struct.Memory*, %struct.Memory** %MEMORY
  %534 = getelementptr inbounds %struct.State, %struct.State* %0, i32 0, i32 6
  %535 = getelementptr inbounds %struct.GPR, %struct.GPR* %534, i32 0, i32 33
  %536 = getelementptr inbounds %struct.Reg, %struct.Reg* %535, i32 0, i32 0
  %PC.i9 = bitcast %union.anon* %536 to i64*
  %537 = getelementptr inbounds %struct.State, %struct.State* %0, i32 0, i32 6
  %538 = getelementptr inbounds %struct.GPR, %struct.GPR* %537, i32 0, i32 15
  %539 = getelementptr inbounds %struct.Reg, %struct.Reg* %538, i32 0, i32 0
  %RBP.i10 = bitcast %union.anon* %539 to i64*
  %540 = load i64, i64* %RBP.i10
  %541 = sub i64 %540, 4
  %542 = load i64, i64* %PC.i9
  %543 = add i64 %542, 7
  store i64 %543, i64* %PC.i9
  %544 = inttoptr i64 %541 to i32*
  store i32 0, i32* %544
  store %struct.Memory* %loadMem_49dfb7, %struct.Memory** %MEMORY
  %loadMem_49dfbe = load %struct.Memory*, %struct.Memory** %MEMORY
  %545 = getelementptr inbounds %struct.State, %struct.State* %0, i32 0, i32 6
  %546 = getelementptr inbounds %struct.GPR, %struct.GPR* %545, i32 0, i32 33
  %547 = getelementptr inbounds %struct.Reg, %struct.Reg* %546, i32 0, i32 0
  %PC.i8 = bitcast %union.anon* %547 to i64*
  %548 = load i64, i64* %PC.i8
  %549 = add i64 %548, 12
  %550 = load i64, i64* %PC.i8
  %551 = add i64 %550, 5
  store i64 %551, i64* %PC.i8
  %552 = getelementptr inbounds %struct.State, %struct.State* %0, i64 0, i32 6, i32 33, i32 0, i32 0
  store i64 %549, i64* %552, align 8
  store %struct.Memory* %loadMem_49dfbe, %struct.Memory** %MEMORY
  br label %block_.L_49dfca

block_.L_49dfc3:                                  ; preds = %routine_ucomisd_MINUS0x10__rbp____xmm0.exit, %block_49dfa1, %routine_ucomisd_MINUS0x30__rbp____xmm0.exit
  %loadMem_49dfc3 = load %struct.Memory*, %struct.Memory** %MEMORY
  %553 = getelementptr inbounds %struct.State, %struct.State* %0, i32 0, i32 6
  %554 = getelementptr inbounds %struct.GPR, %struct.GPR* %553, i32 0, i32 33
  %555 = getelementptr inbounds %struct.Reg, %struct.Reg* %554, i32 0, i32 0
  %PC.i6 = bitcast %union.anon* %555 to i64*
  %556 = getelementptr inbounds %struct.State, %struct.State* %0, i32 0, i32 6
  %557 = getelementptr inbounds %struct.GPR, %struct.GPR* %556, i32 0, i32 15
  %558 = getelementptr inbounds %struct.Reg, %struct.Reg* %557, i32 0, i32 0
  %RBP.i7 = bitcast %union.anon* %558 to i64*
  %559 = load i64, i64* %RBP.i7
  %560 = sub i64 %559, 4
  %561 = load i64, i64* %PC.i6
  %562 = add i64 %561, 7
  store i64 %562, i64* %PC.i6
  %563 = inttoptr i64 %560 to i32*
  store i32 1, i32* %563
  store %struct.Memory* %loadMem_49dfc3, %struct.Memory** %MEMORY
  br label %block_.L_49dfca

block_.L_49dfca:                                  ; preds = %block_.L_49dfc3, %block_.L_49dfb7
  %loadMem_49dfca = load %struct.Memory*, %struct.Memory** %MEMORY
  %564 = getelementptr inbounds %struct.State, %struct.State* %0, i32 0, i32 6
  %565 = getelementptr inbounds %struct.GPR, %struct.GPR* %564, i32 0, i32 33
  %566 = getelementptr inbounds %struct.Reg, %struct.Reg* %565, i32 0, i32 0
  %PC.i4 = bitcast %union.anon* %566 to i64*
  %567 = getelementptr inbounds %struct.State, %struct.State* %0, i32 0, i32 6
  %568 = getelementptr inbounds %struct.GPR, %struct.GPR* %567, i32 0, i32 1
  %569 = getelementptr inbounds %struct.Reg, %struct.Reg* %568, i32 0, i32 0
  %RAX.i = bitcast %union.anon* %569 to i64*
  %570 = getelementptr inbounds %struct.State, %struct.State* %0, i32 0, i32 6
  %571 = getelementptr inbounds %struct.GPR, %struct.GPR* %570, i32 0, i32 15
  %572 = getelementptr inbounds %struct.Reg, %struct.Reg* %571, i32 0, i32 0
  %RBP.i5 = bitcast %union.anon* %572 to i64*
  %573 = load i64, i64* %RBP.i5
  %574 = sub i64 %573, 4
  %575 = load i64, i64* %PC.i4
  %576 = add i64 %575, 3
  store i64 %576, i64* %PC.i4
  %577 = inttoptr i64 %574 to i32*
  %578 = load i32, i32* %577
  %579 = zext i32 %578 to i64
  store i64 %579, i64* %RAX.i, align 8
  store %struct.Memory* %loadMem_49dfca, %struct.Memory** %MEMORY
  %loadMem_49dfcd = load %struct.Memory*, %struct.Memory** %MEMORY
  %580 = getelementptr inbounds %struct.State, %struct.State* %0, i32 0, i32 6
  %581 = getelementptr inbounds %struct.GPR, %struct.GPR* %580, i32 0, i32 33
  %582 = getelementptr inbounds %struct.Reg, %struct.Reg* %581, i32 0, i32 0
  %PC.i2 = bitcast %union.anon* %582 to i64*
  %583 = getelementptr inbounds %struct.State, %struct.State* %0, i32 0, i32 6
  %584 = getelementptr inbounds %struct.GPR, %struct.GPR* %583, i32 0, i32 15
  %585 = getelementptr inbounds %struct.Reg, %struct.Reg* %584, i32 0, i32 0
  %RBP.i3 = bitcast %union.anon* %585 to i64*
  %586 = load i64, i64* %PC.i2
  %587 = add i64 %586, 1
  store i64 %587, i64* %PC.i2
  %588 = getelementptr inbounds %struct.State, %struct.State* %0, i64 0, i32 6, i32 13, i32 0, i32 0
  %589 = load i64, i64* %588, align 8
  %590 = add i64 %589, 8
  %591 = inttoptr i64 %589 to i64*
  %592 = load i64, i64* %591
  store i64 %592, i64* %RBP.i3, align 8
  store i64 %590, i64* %588, align 8
  store %struct.Memory* %loadMem_49dfcd, %struct.Memory** %MEMORY
  %loadMem_49dfce = load %struct.Memory*, %struct.Memory** %MEMORY
  %593 = getelementptr inbounds %struct.State, %struct.State* %0, i32 0, i32 6
  %594 = getelementptr inbounds %struct.GPR, %struct.GPR* %593, i32 0, i32 33
  %595 = getelementptr inbounds %struct.Reg, %struct.Reg* %594, i32 0, i32 0
  %PC.i1 = bitcast %union.anon* %595 to i64*
  %596 = load i64, i64* %PC.i1
  %597 = add i64 %596, 1
  store i64 %597, i64* %PC.i1
  %598 = getelementptr inbounds %struct.State, %struct.State* %0, i64 0, i32 6, i32 33, i32 0, i32 0
  %599 = getelementptr inbounds %struct.State, %struct.State* %0, i64 0, i32 6, i32 13, i32 0, i32 0
  %600 = load i64, i64* %599, align 8
  %601 = inttoptr i64 %600 to i64*
  %602 = load i64, i64* %601
  store i64 %602, i64* %598, align 8
  %603 = add i64 %600, 8
  store i64 %603, i64* %599, align 8
  store %struct.Memory* %loadMem_49dfce, %struct.Memory** %MEMORY
  ret %struct.Memory* %loadMem_49dfce
}

define %struct.Memory* @routine_pushq__rbp(%struct.State* dereferenceable(3376), i64, %struct.Memory*) {
block_400488:
  %3 = getelementptr inbounds %struct.State, %struct.State* %0, i32 0, i32 6
  %4 = getelementptr inbounds %struct.GPR, %struct.GPR* %3, i32 0, i32 33
  %5 = getelementptr inbounds %struct.Reg, %struct.Reg* %4, i32 0, i32 0
  %PC = bitcast %union.anon* %5 to i64*
  %6 = getelementptr inbounds %struct.State, %struct.State* %0, i32 0, i32 6
  %7 = getelementptr inbounds %struct.GPR, %struct.GPR* %6, i32 0, i32 15
  %8 = getelementptr inbounds %struct.Reg, %struct.Reg* %7, i32 0, i32 0
  %RBP = bitcast %union.anon* %8 to i64*
  %9 = load i64, i64* %RBP
  %10 = load i64, i64* %PC
  %11 = add i64 %10, 1
  store i64 %11, i64* %PC
  %12 = getelementptr inbounds %struct.State, %struct.State* %0, i64 0, i32 6, i32 13, i32 0, i32 0
  %13 = load i64, i64* %12, align 8
  %14 = add i64 %13, -8
  %15 = inttoptr i64 %14 to i64*
  store i64 %9, i64* %15
  store i64 %14, i64* %12, align 8
  ret %struct.Memory* %2
}

define %struct.Memory* @routine_movq__rsp___rbp(%struct.State* dereferenceable(3376), i64, %struct.Memory*) {
block_400488:
  %3 = getelementptr inbounds %struct.State, %struct.State* %0, i32 0, i32 6
  %4 = getelementptr inbounds %struct.GPR, %struct.GPR* %3, i32 0, i32 33
  %5 = getelementptr inbounds %struct.Reg, %struct.Reg* %4, i32 0, i32 0
  %PC = bitcast %union.anon* %5 to i64*
  %6 = getelementptr inbounds %struct.State, %struct.State* %0, i32 0, i32 6
  %7 = getelementptr inbounds %struct.GPR, %struct.GPR* %6, i32 0, i32 13
  %8 = getelementptr inbounds %struct.Reg, %struct.Reg* %7, i32 0, i32 0
  %RSP = bitcast %union.anon* %8 to i64*
  %9 = getelementptr inbounds %struct.State, %struct.State* %0, i32 0, i32 6
  %10 = getelementptr inbounds %struct.GPR, %struct.GPR* %9, i32 0, i32 15
  %11 = getelementptr inbounds %struct.Reg, %struct.Reg* %10, i32 0, i32 0
  %RBP = bitcast %union.anon* %11 to i64*
  %12 = load i64, i64* %RSP
  %13 = load i64, i64* %PC
  %14 = add i64 %13, 3
  store i64 %14, i64* %PC
  store i64 %12, i64* %RBP, align 8
  ret %struct.Memory* %2
}

define %struct.Memory* @routine_movsd__xmm0__MINUS0x10__rbp_(%struct.State* dereferenceable(3376), i64, %struct.Memory*) {
block_400488:
  %3 = getelementptr inbounds %struct.State, %struct.State* %0, i32 0, i32 6
  %4 = getelementptr inbounds %struct.GPR, %struct.GPR* %3, i32 0, i32 33
  %5 = getelementptr inbounds %struct.Reg, %struct.Reg* %4, i32 0, i32 0
  %PC = bitcast %union.anon* %5 to i64*
  %6 = getelementptr inbounds %struct.State, %struct.State* %0, i32 0, i32 6
  %7 = getelementptr inbounds %struct.GPR, %struct.GPR* %6, i32 0, i32 15
  %8 = getelementptr inbounds %struct.Reg, %struct.Reg* %7, i32 0, i32 0
  %RBP = bitcast %union.anon* %8 to i64*
  %9 = getelementptr inbounds %struct.State, %struct.State* %0, i32 0, i32 1
  %10 = getelementptr inbounds [32 x %union.VectorReg], [32 x %union.VectorReg]* %9, i64 0, i64 0
  %XMM0 = bitcast %union.VectorReg* %10 to %union.vec128_t*
  %11 = load i64, i64* %RBP
  %12 = sub i64 %11, 16
  %13 = bitcast %union.vec128_t* %XMM0 to i8*
  %14 = load i64, i64* %PC
  %15 = add i64 %14, 5
  store i64 %15, i64* %PC
  %16 = bitcast i8* %13 to double*
  %17 = load double, double* %16, align 1
  %18 = inttoptr i64 %12 to double*
  store double %17, double* %18
  ret %struct.Memory* %2
}

define %struct.Memory* @routine_movsd__xmm1__MINUS0x18__rbp_(%struct.State* dereferenceable(3376), i64, %struct.Memory*) {
block_400488:
  %3 = getelementptr inbounds %struct.State, %struct.State* %0, i32 0, i32 6
  %4 = getelementptr inbounds %struct.GPR, %struct.GPR* %3, i32 0, i32 33
  %5 = getelementptr inbounds %struct.Reg, %struct.Reg* %4, i32 0, i32 0
  %PC = bitcast %union.anon* %5 to i64*
  %6 = getelementptr inbounds %struct.State, %struct.State* %0, i32 0, i32 6
  %7 = getelementptr inbounds %struct.GPR, %struct.GPR* %6, i32 0, i32 15
  %8 = getelementptr inbounds %struct.Reg, %struct.Reg* %7, i32 0, i32 0
  %RBP = bitcast %union.anon* %8 to i64*
  %9 = getelementptr inbounds %struct.State, %struct.State* %0, i32 0, i32 1
  %10 = getelementptr inbounds [32 x %union.VectorReg], [32 x %union.VectorReg]* %9, i64 0, i64 1
  %XMM1 = bitcast %union.VectorReg* %10 to %union.vec128_t*
  %11 = load i64, i64* %RBP
  %12 = sub i64 %11, 24
  %13 = bitcast %union.vec128_t* %XMM1 to i8*
  %14 = load i64, i64* %PC
  %15 = add i64 %14, 5
  store i64 %15, i64* %PC
  %16 = bitcast i8* %13 to double*
  %17 = load double, double* %16, align 1
  %18 = inttoptr i64 %12 to double*
  store double %17, double* %18
  ret %struct.Memory* %2
}

define %struct.Memory* @routine_movl__edi__MINUS0x1c__rbp_(%struct.State* dereferenceable(3376), i64, %struct.Memory*) {
block_400488:
  %3 = getelementptr inbounds %struct.State, %struct.State* %0, i32 0, i32 6
  %4 = getelementptr inbounds %struct.GPR, %struct.GPR* %3, i32 0, i32 33
  %5 = getelementptr inbounds %struct.Reg, %struct.Reg* %4, i32 0, i32 0
  %PC = bitcast %union.anon* %5 to i64*
  %6 = getelementptr inbounds %struct.State, %struct.State* %0, i32 0, i32 6
  %7 = getelementptr inbounds %struct.GPR, %struct.GPR* %6, i32 0, i32 11
  %8 = getelementptr inbounds %struct.Reg, %struct.Reg* %7, i32 0, i32 0
  %EDI = bitcast %union.anon* %8 to i32*
  %9 = getelementptr inbounds %struct.State, %struct.State* %0, i32 0, i32 6
  %10 = getelementptr inbounds %struct.GPR, %struct.GPR* %9, i32 0, i32 15
  %11 = getelementptr inbounds %struct.Reg, %struct.Reg* %10, i32 0, i32 0
  %RBP = bitcast %union.anon* %11 to i64*
  %12 = load i64, i64* %RBP
  %13 = sub i64 %12, 28
  %14 = load i32, i32* %EDI
  %15 = zext i32 %14 to i64
  %16 = load i64, i64* %PC
  %17 = add i64 %16, 3
  store i64 %17, i64* %PC
  %18 = inttoptr i64 %13 to i32*
  store i32 %14, i32* %18
  ret %struct.Memory* %2
}

define %struct.Memory* @routine_movl__esi__MINUS0x20__rbp_(%struct.State* dereferenceable(3376), i64, %struct.Memory*) {
block_400488:
  %3 = getelementptr inbounds %struct.State, %struct.State* %0, i32 0, i32 6
  %4 = getelementptr inbounds %struct.GPR, %struct.GPR* %3, i32 0, i32 33
  %5 = getelementptr inbounds %struct.Reg, %struct.Reg* %4, i32 0, i32 0
  %PC = bitcast %union.anon* %5 to i64*
  %6 = getelementptr inbounds %struct.State, %struct.State* %0, i32 0, i32 6
  %7 = getelementptr inbounds %struct.GPR, %struct.GPR* %6, i32 0, i32 9
  %8 = getelementptr inbounds %struct.Reg, %struct.Reg* %7, i32 0, i32 0
  %ESI = bitcast %union.anon* %8 to i32*
  %9 = getelementptr inbounds %struct.State, %struct.State* %0, i32 0, i32 6
  %10 = getelementptr inbounds %struct.GPR, %struct.GPR* %9, i32 0, i32 15
  %11 = getelementptr inbounds %struct.Reg, %struct.Reg* %10, i32 0, i32 0
  %RBP = bitcast %union.anon* %11 to i64*
  %12 = load i64, i64* %RBP
  %13 = sub i64 %12, 32
  %14 = load i32, i32* %ESI
  %15 = zext i32 %14 to i64
  %16 = load i64, i64* %PC
  %17 = add i64 %16, 3
  store i64 %17, i64* %PC
  %18 = inttoptr i64 %13 to i32*
  store i32 %14, i32* %18
  ret %struct.Memory* %2
}

define %struct.Memory* @routine_movsd__xmm2__MINUS0x28__rbp_(%struct.State* dereferenceable(3376), i64, %struct.Memory*) {
block_400488:
  %3 = getelementptr inbounds %struct.State, %struct.State* %0, i32 0, i32 6
  %4 = getelementptr inbounds %struct.GPR, %struct.GPR* %3, i32 0, i32 33
  %5 = getelementptr inbounds %struct.Reg, %struct.Reg* %4, i32 0, i32 0
  %PC = bitcast %union.anon* %5 to i64*
  %6 = getelementptr inbounds %struct.State, %struct.State* %0, i32 0, i32 6
  %7 = getelementptr inbounds %struct.GPR, %struct.GPR* %6, i32 0, i32 15
  %8 = getelementptr inbounds %struct.Reg, %struct.Reg* %7, i32 0, i32 0
  %RBP = bitcast %union.anon* %8 to i64*
  %9 = getelementptr inbounds %struct.State, %struct.State* %0, i32 0, i32 1
  %10 = getelementptr inbounds [32 x %union.VectorReg], [32 x %union.VectorReg]* %9, i64 0, i64 2
  %XMM2 = bitcast %union.VectorReg* %10 to %union.vec128_t*
  %11 = load i64, i64* %RBP
  %12 = sub i64 %11, 40
  %13 = bitcast %union.vec128_t* %XMM2 to i8*
  %14 = load i64, i64* %PC
  %15 = add i64 %14, 5
  store i64 %15, i64* %PC
  %16 = bitcast i8* %13 to double*
  %17 = load double, double* %16, align 1
  %18 = inttoptr i64 %12 to double*
  store double %17, double* %18
  ret %struct.Memory* %2
}

define %struct.Memory* @routine_cvtsi2sdl_MINUS0x1c__rbp____xmm0(%struct.State* dereferenceable(3376), i64, %struct.Memory*) {
block_400488:
  %3 = getelementptr inbounds %struct.State, %struct.State* %0, i32 0, i32 6
  %4 = getelementptr inbounds %struct.GPR, %struct.GPR* %3, i32 0, i32 33
  %5 = getelementptr inbounds %struct.Reg, %struct.Reg* %4, i32 0, i32 0
  %PC = bitcast %union.anon* %5 to i64*
  %6 = getelementptr inbounds %struct.State, %struct.State* %0, i32 0, i32 6
  %7 = getelementptr inbounds %struct.GPR, %struct.GPR* %6, i32 0, i32 15
  %8 = getelementptr inbounds %struct.Reg, %struct.Reg* %7, i32 0, i32 0
  %RBP = bitcast %union.anon* %8 to i64*
  %9 = getelementptr inbounds %struct.State, %struct.State* %0, i32 0, i32 1
  %10 = getelementptr inbounds [32 x %union.VectorReg], [32 x %union.VectorReg]* %9, i64 0, i64 0
  %YMM0 = bitcast %union.VectorReg* %10 to %"class.std::bitset"*
  %11 = bitcast %"class.std::bitset"* %YMM0 to i8*
  %12 = load i64, i64* %RBP
  %13 = sub i64 %12, 28
  %14 = load i64, i64* %PC
  %15 = add i64 %14, 5
  store i64 %15, i64* %PC
  %16 = inttoptr i64 %13 to i32*
  %17 = load i32, i32* %16
  %18 = sitofp i32 %17 to double
  %19 = bitcast i8* %11 to double*
  store double %18, double* %19, align 1
  ret %struct.Memory* %2
}

define %struct.Memory* @routine_mulsd_MINUS0x28__rbp____xmm0(%struct.State* dereferenceable(3376), i64, %struct.Memory*) {
block_400488:
  %3 = getelementptr inbounds %struct.State, %struct.State* %0, i32 0, i32 6
  %4 = getelementptr inbounds %struct.GPR, %struct.GPR* %3, i32 0, i32 33
  %5 = getelementptr inbounds %struct.Reg, %struct.Reg* %4, i32 0, i32 0
  %PC = bitcast %union.anon* %5 to i64*
  %6 = getelementptr inbounds %struct.State, %struct.State* %0, i32 0, i32 6
  %7 = getelementptr inbounds %struct.GPR, %struct.GPR* %6, i32 0, i32 15
  %8 = getelementptr inbounds %struct.Reg, %struct.Reg* %7, i32 0, i32 0
  %RBP = bitcast %union.anon* %8 to i64*
  %9 = getelementptr inbounds %struct.State, %struct.State* %0, i32 0, i32 1
  %10 = getelementptr inbounds [32 x %union.VectorReg], [32 x %union.VectorReg]* %9, i64 0, i64 0
  %YMM0 = bitcast %union.VectorReg* %10 to %"class.std::bitset"*
  %11 = bitcast %"class.std::bitset"* %YMM0 to i8*
  %12 = bitcast %"class.std::bitset"* %YMM0 to i8*
  %13 = load i64, i64* %RBP
  %14 = sub i64 %13, 40
  %15 = load i64, i64* %PC
  %16 = add i64 %15, 5
  store i64 %16, i64* %PC
  %17 = bitcast i8* %12 to double*
  %18 = load double, double* %17, align 1
  %19 = getelementptr inbounds i8, i8* %12, i64 8
  %20 = bitcast i8* %19 to i64*
  %21 = load i64, i64* %20, align 1
  %22 = inttoptr i64 %14 to double*
  %23 = load double, double* %22
  %24 = fmul double %18, %23
  %25 = bitcast i8* %11 to double*
  store double %24, double* %25, align 1
  %26 = getelementptr inbounds i8, i8* %11, i64 8
  %27 = bitcast i8* %26 to i64*
  store i64 %21, i64* %27, align 1
  ret %struct.Memory* %2
}

define %struct.Memory* @routine_addsd_MINUS0x10__rbp____xmm0(%struct.State* dereferenceable(3376), i64, %struct.Memory*) {
block_400488:
  %3 = getelementptr inbounds %struct.State, %struct.State* %0, i32 0, i32 6
  %4 = getelementptr inbounds %struct.GPR, %struct.GPR* %3, i32 0, i32 33
  %5 = getelementptr inbounds %struct.Reg, %struct.Reg* %4, i32 0, i32 0
  %PC = bitcast %union.anon* %5 to i64*
  %6 = getelementptr inbounds %struct.State, %struct.State* %0, i32 0, i32 6
  %7 = getelementptr inbounds %struct.GPR, %struct.GPR* %6, i32 0, i32 15
  %8 = getelementptr inbounds %struct.Reg, %struct.Reg* %7, i32 0, i32 0
  %RBP = bitcast %union.anon* %8 to i64*
  %9 = getelementptr inbounds %struct.State, %struct.State* %0, i32 0, i32 1
  %10 = getelementptr inbounds [32 x %union.VectorReg], [32 x %union.VectorReg]* %9, i64 0, i64 0
  %YMM0 = bitcast %union.VectorReg* %10 to %"class.std::bitset"*
  %11 = bitcast %"class.std::bitset"* %YMM0 to i8*
  %12 = bitcast %"class.std::bitset"* %YMM0 to i8*
  %13 = load i64, i64* %RBP
  %14 = sub i64 %13, 16
  %15 = load i64, i64* %PC
  %16 = add i64 %15, 5
  store i64 %16, i64* %PC
  %17 = bitcast i8* %12 to double*
  %18 = load double, double* %17, align 1
  %19 = getelementptr inbounds i8, i8* %12, i64 8
  %20 = bitcast i8* %19 to i64*
  %21 = load i64, i64* %20, align 1
  %22 = inttoptr i64 %14 to double*
  %23 = load double, double* %22
  %24 = fadd double %18, %23
  %25 = bitcast i8* %11 to double*
  store double %24, double* %25, align 1
  %26 = getelementptr inbounds i8, i8* %11, i64 8
  %27 = bitcast i8* %26 to i64*
  store i64 %21, i64* %27, align 1
  ret %struct.Memory* %2
}

define %struct.Memory* @routine_movsd__xmm0__MINUS0x30__rbp_(%struct.State* dereferenceable(3376), i64, %struct.Memory*) {
block_400488:
  %3 = getelementptr inbounds %struct.State, %struct.State* %0, i32 0, i32 6
  %4 = getelementptr inbounds %struct.GPR, %struct.GPR* %3, i32 0, i32 33
  %5 = getelementptr inbounds %struct.Reg, %struct.Reg* %4, i32 0, i32 0
  %PC = bitcast %union.anon* %5 to i64*
  %6 = getelementptr inbounds %struct.State, %struct.State* %0, i32 0, i32 6
  %7 = getelementptr inbounds %struct.GPR, %struct.GPR* %6, i32 0, i32 15
  %8 = getelementptr inbounds %struct.Reg, %struct.Reg* %7, i32 0, i32 0
  %RBP = bitcast %union.anon* %8 to i64*
  %9 = getelementptr inbounds %struct.State, %struct.State* %0, i32 0, i32 1
  %10 = getelementptr inbounds [32 x %union.VectorReg], [32 x %union.VectorReg]* %9, i64 0, i64 0
  %XMM0 = bitcast %union.VectorReg* %10 to %union.vec128_t*
  %11 = load i64, i64* %RBP
  %12 = sub i64 %11, 48
  %13 = bitcast %union.vec128_t* %XMM0 to i8*
  %14 = load i64, i64* %PC
  %15 = add i64 %14, 5
  store i64 %15, i64* %PC
  %16 = bitcast i8* %13 to double*
  %17 = load double, double* %16, align 1
  %18 = inttoptr i64 %12 to double*
  store double %17, double* %18
  ret %struct.Memory* %2
}

define %struct.Memory* @routine_cvtsi2sdl_MINUS0x20__rbp____xmm0(%struct.State* dereferenceable(3376), i64, %struct.Memory*) {
block_400488:
  %3 = getelementptr inbounds %struct.State, %struct.State* %0, i32 0, i32 6
  %4 = getelementptr inbounds %struct.GPR, %struct.GPR* %3, i32 0, i32 33
  %5 = getelementptr inbounds %struct.Reg, %struct.Reg* %4, i32 0, i32 0
  %PC = bitcast %union.anon* %5 to i64*
  %6 = getelementptr inbounds %struct.State, %struct.State* %0, i32 0, i32 6
  %7 = getelementptr inbounds %struct.GPR, %struct.GPR* %6, i32 0, i32 15
  %8 = getelementptr inbounds %struct.Reg, %struct.Reg* %7, i32 0, i32 0
  %RBP = bitcast %union.anon* %8 to i64*
  %9 = getelementptr inbounds %struct.State, %struct.State* %0, i32 0, i32 1
  %10 = getelementptr inbounds [32 x %union.VectorReg], [32 x %union.VectorReg]* %9, i64 0, i64 0
  %YMM0 = bitcast %union.VectorReg* %10 to %"class.std::bitset"*
  %11 = bitcast %"class.std::bitset"* %YMM0 to i8*
  %12 = load i64, i64* %RBP
  %13 = sub i64 %12, 32
  %14 = load i64, i64* %PC
  %15 = add i64 %14, 5
  store i64 %15, i64* %PC
  %16 = inttoptr i64 %13 to i32*
  %17 = load i32, i32* %16
  %18 = sitofp i32 %17 to double
  %19 = bitcast i8* %11 to double*
  store double %18, double* %19, align 1
  ret %struct.Memory* %2
}

define %struct.Memory* @routine_addsd_MINUS0x18__rbp____xmm0(%struct.State* dereferenceable(3376), i64, %struct.Memory*) {
block_400488:
  %3 = getelementptr inbounds %struct.State, %struct.State* %0, i32 0, i32 6
  %4 = getelementptr inbounds %struct.GPR, %struct.GPR* %3, i32 0, i32 33
  %5 = getelementptr inbounds %struct.Reg, %struct.Reg* %4, i32 0, i32 0
  %PC = bitcast %union.anon* %5 to i64*
  %6 = getelementptr inbounds %struct.State, %struct.State* %0, i32 0, i32 6
  %7 = getelementptr inbounds %struct.GPR, %struct.GPR* %6, i32 0, i32 15
  %8 = getelementptr inbounds %struct.Reg, %struct.Reg* %7, i32 0, i32 0
  %RBP = bitcast %union.anon* %8 to i64*
  %9 = getelementptr inbounds %struct.State, %struct.State* %0, i32 0, i32 1
  %10 = getelementptr inbounds [32 x %union.VectorReg], [32 x %union.VectorReg]* %9, i64 0, i64 0
  %YMM0 = bitcast %union.VectorReg* %10 to %"class.std::bitset"*
  %11 = bitcast %"class.std::bitset"* %YMM0 to i8*
  %12 = bitcast %"class.std::bitset"* %YMM0 to i8*
  %13 = load i64, i64* %RBP
  %14 = sub i64 %13, 24
  %15 = load i64, i64* %PC
  %16 = add i64 %15, 5
  store i64 %16, i64* %PC
  %17 = bitcast i8* %12 to double*
  %18 = load double, double* %17, align 1
  %19 = getelementptr inbounds i8, i8* %12, i64 8
  %20 = bitcast i8* %19 to i64*
  %21 = load i64, i64* %20, align 1
  %22 = inttoptr i64 %14 to double*
  %23 = load double, double* %22
  %24 = fadd double %18, %23
  %25 = bitcast i8* %11 to double*
  store double %24, double* %25, align 1
  %26 = getelementptr inbounds i8, i8* %11, i64 8
  %27 = bitcast i8* %26 to i64*
  store i64 %21, i64* %27, align 1
  ret %struct.Memory* %2
}

define %struct.Memory* @routine_movsd__xmm0__MINUS0x38__rbp_(%struct.State* dereferenceable(3376), i64, %struct.Memory*) {
block_400488:
  %3 = getelementptr inbounds %struct.State, %struct.State* %0, i32 0, i32 6
  %4 = getelementptr inbounds %struct.GPR, %struct.GPR* %3, i32 0, i32 33
  %5 = getelementptr inbounds %struct.Reg, %struct.Reg* %4, i32 0, i32 0
  %PC = bitcast %union.anon* %5 to i64*
  %6 = getelementptr inbounds %struct.State, %struct.State* %0, i32 0, i32 6
  %7 = getelementptr inbounds %struct.GPR, %struct.GPR* %6, i32 0, i32 15
  %8 = getelementptr inbounds %struct.Reg, %struct.Reg* %7, i32 0, i32 0
  %RBP = bitcast %union.anon* %8 to i64*
  %9 = getelementptr inbounds %struct.State, %struct.State* %0, i32 0, i32 1
  %10 = getelementptr inbounds [32 x %union.VectorReg], [32 x %union.VectorReg]* %9, i64 0, i64 0
  %XMM0 = bitcast %union.VectorReg* %10 to %union.vec128_t*
  %11 = load i64, i64* %RBP
  %12 = sub i64 %11, 56
  %13 = bitcast %union.vec128_t* %XMM0 to i8*
  %14 = load i64, i64* %PC
  %15 = add i64 %14, 5
  store i64 %15, i64* %PC
  %16 = bitcast i8* %13 to double*
  %17 = load double, double* %16, align 1
  %18 = inttoptr i64 %12 to double*
  store double %17, double* %18
  ret %struct.Memory* %2
}

define %struct.Memory* @routine_movsd_MINUS0x38__rbp____xmm0(%struct.State* dereferenceable(3376), i64, %struct.Memory*) {
block_400488:
  %3 = getelementptr inbounds %struct.State, %struct.State* %0, i32 0, i32 6
  %4 = getelementptr inbounds %struct.GPR, %struct.GPR* %3, i32 0, i32 33
  %5 = getelementptr inbounds %struct.Reg, %struct.Reg* %4, i32 0, i32 0
  %PC = bitcast %union.anon* %5 to i64*
  %6 = getelementptr inbounds %struct.State, %struct.State* %0, i32 0, i32 6
  %7 = getelementptr inbounds %struct.GPR, %struct.GPR* %6, i32 0, i32 15
  %8 = getelementptr inbounds %struct.Reg, %struct.Reg* %7, i32 0, i32 0
  %RBP = bitcast %union.anon* %8 to i64*
  %9 = getelementptr inbounds %struct.State, %struct.State* %0, i32 0, i32 1
  %10 = getelementptr inbounds [32 x %union.VectorReg], [32 x %union.VectorReg]* %9, i64 0, i64 0
  %YMM0 = bitcast %union.VectorReg* %10 to %"class.std::bitset"*
  %11 = bitcast %"class.std::bitset"* %YMM0 to i8*
  %12 = load i64, i64* %RBP
  %13 = sub i64 %12, 56
  %14 = load i64, i64* %PC
  %15 = add i64 %14, 5
  store i64 %15, i64* %PC
  %16 = inttoptr i64 %13 to double*
  %17 = load double, double* %16
  %18 = bitcast i8* %11 to double*
  store double %17, double* %18, align 1
  %19 = getelementptr inbounds i8, i8* %11, i64 8
  %20 = bitcast i8* %19 to double*
  store double 0.000000e+00, double* %20, align 1
  ret %struct.Memory* %2
}

define %struct.Memory* @routine_ucomisd_MINUS0x30__rbp____xmm0(%struct.State* dereferenceable(3376), i64, %struct.Memory*) {
block_400488:
  %3 = getelementptr inbounds %struct.State, %struct.State* %0, i32 0, i32 6
  %4 = getelementptr inbounds %struct.GPR, %struct.GPR* %3, i32 0, i32 33
  %5 = getelementptr inbounds %struct.Reg, %struct.Reg* %4, i32 0, i32 0
  %PC = bitcast %union.anon* %5 to i64*
  %6 = getelementptr inbounds %struct.State, %struct.State* %0, i32 0, i32 6
  %7 = getelementptr inbounds %struct.GPR, %struct.GPR* %6, i32 0, i32 15
  %8 = getelementptr inbounds %struct.Reg, %struct.Reg* %7, i32 0, i32 0
  %RBP = bitcast %union.anon* %8 to i64*
  %9 = getelementptr inbounds %struct.State, %struct.State* %0, i32 0, i32 1
  %10 = getelementptr inbounds [32 x %union.VectorReg], [32 x %union.VectorReg]* %9, i64 0, i64 0
  %XMM0 = bitcast %union.VectorReg* %10 to %union.vec128_t*
  %11 = bitcast %union.vec128_t* %XMM0 to i8*
  %12 = load i64, i64* %RBP
  %13 = sub i64 %12, 48
  %14 = load i64, i64* %PC
  %15 = add i64 %14, 5
  store i64 %15, i64* %PC
  %16 = bitcast i8* %11 to double*
  %17 = load double, double* %16, align 1
  %18 = inttoptr i64 %13 to double*
  %19 = load double, double* %18
  %20 = fcmp uno double %17, %19
  br i1 %20, label %21, label %33

; <label>:21:                                     ; preds = %block_400488
  %22 = fadd double %17, %19
  %23 = bitcast double %22 to i64
  %24 = and i64 %23, 9221120237041090560
  %25 = icmp eq i64 %24, 9218868437227405312
  %26 = and i64 %23, 2251799813685247
  %27 = icmp ne i64 %26, 0
  %28 = and i1 %25, %27
  br i1 %28, label %29, label %39

; <label>:29:                                     ; preds = %21
  %30 = getelementptr inbounds %struct.State, %struct.State* %0, i64 0, i32 6, i32 33, i32 0, i32 0
  %31 = load i64, i64* %30, align 8
  %32 = call %struct.Memory* @__remill_error(%struct.State* nonnull dereferenceable(3376) %0, i64 %31, %struct.Memory* %2)
  br label %_ZN12_GLOBAL__N_1L6COMISDI2VnI8vec128_tE3MVnI7vec64_tEEEP6MemoryS8_R5StateT_T0_.exit

; <label>:33:                                     ; preds = %block_400488
  %34 = fcmp ogt double %17, %19
  br i1 %34, label %39, label %35

; <label>:35:                                     ; preds = %33
  %36 = fcmp olt double %17, %19
  br i1 %36, label %39, label %37

; <label>:37:                                     ; preds = %35
  %38 = fcmp oeq double %17, %19
  br i1 %38, label %39, label %46

; <label>:39:                                     ; preds = %37, %35, %33, %21
  %40 = phi i8 [ 0, %33 ], [ 0, %35 ], [ 1, %37 ], [ 1, %21 ]
  %41 = phi i8 [ 0, %33 ], [ 0, %35 ], [ 0, %37 ], [ 1, %21 ]
  %42 = phi i8 [ 0, %33 ], [ 1, %35 ], [ 0, %37 ], [ 1, %21 ]
  %43 = getelementptr inbounds %struct.State, %struct.State* %0, i64 0, i32 2, i32 7
  store i8 %40, i8* %43, align 1
  %44 = getelementptr inbounds %struct.State, %struct.State* %0, i64 0, i32 2, i32 3
  store i8 %41, i8* %44, align 1
  %45 = getelementptr inbounds %struct.State, %struct.State* %0, i64 0, i32 2, i32 1
  store i8 %42, i8* %45, align 1
  br label %46

; <label>:46:                                     ; preds = %39, %37
  %47 = getelementptr inbounds %struct.State, %struct.State* %0, i64 0, i32 2, i32 13
  store i8 0, i8* %47, align 1
  %48 = getelementptr inbounds %struct.State, %struct.State* %0, i64 0, i32 2, i32 9
  store i8 0, i8* %48, align 1
  %49 = getelementptr inbounds %struct.State, %struct.State* %0, i64 0, i32 2, i32 5
  store i8 0, i8* %49, align 1
  br label %_ZN12_GLOBAL__N_1L6COMISDI2VnI8vec128_tE3MVnI7vec64_tEEEP6MemoryS8_R5StateT_T0_.exit

_ZN12_GLOBAL__N_1L6COMISDI2VnI8vec128_tE3MVnI7vec64_tEEEP6MemoryS8_R5StateT_T0_.exit: ; preds = %29, %46
  %50 = phi %struct.Memory* [ %32, %29 ], [ %2, %46 ]
  ret %struct.Memory* %50
}

define %struct.Memory* @routine_ja_.L_49dfb7(%struct.State* dereferenceable(3376), i64, %struct.Memory*, i8* %BRANCH_TAKEN, i64 %rel_off1, i64 %rel_off2, i64 %rel_off3) {
block_400488:
  %3 = getelementptr inbounds %struct.State, %struct.State* %0, i32 0, i32 6
  %4 = getelementptr inbounds %struct.GPR, %struct.GPR* %3, i32 0, i32 33
  %5 = getelementptr inbounds %struct.Reg, %struct.Reg* %4, i32 0, i32 0
  %PC = bitcast %union.anon* %5 to i64*
  %6 = load i64, i64* %PC
  %7 = add i64 %6, %rel_off1
  %8 = load i64, i64* %PC
  %9 = add i64 %8, %rel_off2
  %10 = load i64, i64* %PC
  %11 = add i64 %10, %rel_off3
  store i64 %11, i64* %PC
  %12 = getelementptr inbounds %struct.State, %struct.State* %0, i64 0, i32 2, i32 1
  %13 = load i8, i8* %12, align 1
  %14 = getelementptr inbounds %struct.State, %struct.State* %0, i64 0, i32 2, i32 7
  %15 = load i8, i8* %14, align 1
  %16 = or i8 %15, %13
  %17 = icmp eq i8 %16, 0
  %18 = zext i1 %17 to i8
  store i8 %18, i8* %BRANCH_TAKEN, align 1
  %19 = getelementptr inbounds %struct.State, %struct.State* %0, i64 0, i32 6, i32 33, i32 0, i32 0
  %20 = select i1 %17, i64 %7, i64 %9
  store i64 %20, i64* %19, align 8
  ret %struct.Memory* %2
}

define %struct.Memory* @routine_jne_.L_49dfc3(%struct.State* dereferenceable(3376), i64, %struct.Memory*, i8* %BRANCH_TAKEN, i64 %rel_off1, i64 %rel_off2, i64 %rel_off3) {
block_400488:
  %3 = getelementptr inbounds %struct.State, %struct.State* %0, i32 0, i32 6
  %4 = getelementptr inbounds %struct.GPR, %struct.GPR* %3, i32 0, i32 33
  %5 = getelementptr inbounds %struct.Reg, %struct.Reg* %4, i32 0, i32 0
  %PC = bitcast %union.anon* %5 to i64*
  %6 = load i64, i64* %PC
  %7 = add i64 %6, %rel_off1
  %8 = load i64, i64* %PC
  %9 = add i64 %8, %rel_off2
  %10 = load i64, i64* %PC
  %11 = add i64 %10, %rel_off3
  store i64 %11, i64* %PC
  %12 = getelementptr inbounds %struct.State, %struct.State* %0, i64 0, i32 2, i32 7
  %13 = load i8, i8* %12, align 1
  %14 = icmp eq i8 %13, 0
  %15 = zext i1 %14 to i8
  store i8 %15, i8* %BRANCH_TAKEN, align 1
  %16 = getelementptr inbounds %struct.State, %struct.State* %0, i64 0, i32 6, i32 33, i32 0, i32 0
  %17 = select i1 %14, i64 %7, i64 %9
  store i64 %17, i64* %16, align 8
  ret %struct.Memory* %2
}

define %struct.Memory* @routine_jp_.L_49dfc3(%struct.State* dereferenceable(3376), i64, %struct.Memory*, i8* %BRANCH_TAKEN, i64 %rel_off1, i64 %rel_off2, i64 %rel_off3) {
block_400488:
  %3 = getelementptr inbounds %struct.State, %struct.State* %0, i32 0, i32 6
  %4 = getelementptr inbounds %struct.GPR, %struct.GPR* %3, i32 0, i32 33
  %5 = getelementptr inbounds %struct.Reg, %struct.Reg* %4, i32 0, i32 0
  %PC = bitcast %union.anon* %5 to i64*
  %6 = load i64, i64* %PC
  %7 = add i64 %6, %rel_off1
  %8 = load i64, i64* %PC
  %9 = add i64 %8, %rel_off2
  %10 = load i64, i64* %PC
  %11 = add i64 %10, %rel_off3
  store i64 %11, i64* %PC
  %12 = getelementptr inbounds %struct.State, %struct.State* %0, i64 0, i32 2, i32 3
  %13 = load i8, i8* %12, align 1
  store i8 %13, i8* %BRANCH_TAKEN, align 1
  %14 = getelementptr inbounds %struct.State, %struct.State* %0, i64 0, i32 6, i32 33, i32 0, i32 0
  %15 = icmp ne i8 %13, 0
  %16 = select i1 %15, i64 %7, i64 %9
  store i64 %16, i64* %14, align 8
  ret %struct.Memory* %2
}

define %struct.Memory* @routine_movsd_MINUS0x18__rbp____xmm0(%struct.State* dereferenceable(3376), i64, %struct.Memory*) {
block_400488:
  %3 = getelementptr inbounds %struct.State, %struct.State* %0, i32 0, i32 6
  %4 = getelementptr inbounds %struct.GPR, %struct.GPR* %3, i32 0, i32 33
  %5 = getelementptr inbounds %struct.Reg, %struct.Reg* %4, i32 0, i32 0
  %PC = bitcast %union.anon* %5 to i64*
  %6 = getelementptr inbounds %struct.State, %struct.State* %0, i32 0, i32 6
  %7 = getelementptr inbounds %struct.GPR, %struct.GPR* %6, i32 0, i32 15
  %8 = getelementptr inbounds %struct.Reg, %struct.Reg* %7, i32 0, i32 0
  %RBP = bitcast %union.anon* %8 to i64*
  %9 = getelementptr inbounds %struct.State, %struct.State* %0, i32 0, i32 1
  %10 = getelementptr inbounds [32 x %union.VectorReg], [32 x %union.VectorReg]* %9, i64 0, i64 0
  %YMM0 = bitcast %union.VectorReg* %10 to %"class.std::bitset"*
  %11 = bitcast %"class.std::bitset"* %YMM0 to i8*
  %12 = load i64, i64* %RBP
  %13 = sub i64 %12, 24
  %14 = load i64, i64* %PC
  %15 = add i64 %14, 5
  store i64 %15, i64* %PC
  %16 = inttoptr i64 %13 to double*
  %17 = load double, double* %16
  %18 = bitcast i8* %11 to double*
  store double %17, double* %18, align 1
  %19 = getelementptr inbounds i8, i8* %11, i64 8
  %20 = bitcast i8* %19 to double*
  store double 0.000000e+00, double* %20, align 1
  ret %struct.Memory* %2
}

define %struct.Memory* @routine_ucomisd_MINUS0x10__rbp____xmm0(%struct.State* dereferenceable(3376), i64, %struct.Memory*) {
block_400488:
  %3 = getelementptr inbounds %struct.State, %struct.State* %0, i32 0, i32 6
  %4 = getelementptr inbounds %struct.GPR, %struct.GPR* %3, i32 0, i32 33
  %5 = getelementptr inbounds %struct.Reg, %struct.Reg* %4, i32 0, i32 0
  %PC = bitcast %union.anon* %5 to i64*
  %6 = getelementptr inbounds %struct.State, %struct.State* %0, i32 0, i32 6
  %7 = getelementptr inbounds %struct.GPR, %struct.GPR* %6, i32 0, i32 15
  %8 = getelementptr inbounds %struct.Reg, %struct.Reg* %7, i32 0, i32 0
  %RBP = bitcast %union.anon* %8 to i64*
  %9 = getelementptr inbounds %struct.State, %struct.State* %0, i32 0, i32 1
  %10 = getelementptr inbounds [32 x %union.VectorReg], [32 x %union.VectorReg]* %9, i64 0, i64 0
  %XMM0 = bitcast %union.VectorReg* %10 to %union.vec128_t*
  %11 = bitcast %union.vec128_t* %XMM0 to i8*
  %12 = load i64, i64* %RBP
  %13 = sub i64 %12, 16
  %14 = load i64, i64* %PC
  %15 = add i64 %14, 5
  store i64 %15, i64* %PC
  %16 = bitcast i8* %11 to double*
  %17 = load double, double* %16, align 1
  %18 = inttoptr i64 %13 to double*
  %19 = load double, double* %18
  %20 = fcmp uno double %17, %19
  br i1 %20, label %21, label %33

; <label>:21:                                     ; preds = %block_400488
  %22 = fadd double %17, %19
  %23 = bitcast double %22 to i64
  %24 = and i64 %23, 9221120237041090560
  %25 = icmp eq i64 %24, 9218868437227405312
  %26 = and i64 %23, 2251799813685247
  %27 = icmp ne i64 %26, 0
  %28 = and i1 %25, %27
  br i1 %28, label %29, label %39

; <label>:29:                                     ; preds = %21
  %30 = getelementptr inbounds %struct.State, %struct.State* %0, i64 0, i32 6, i32 33, i32 0, i32 0
  %31 = load i64, i64* %30, align 8
  %32 = call %struct.Memory* @__remill_error(%struct.State* nonnull dereferenceable(3376) %0, i64 %31, %struct.Memory* %2)
  br label %_ZN12_GLOBAL__N_1L6COMISDI2VnI8vec128_tE3MVnI7vec64_tEEEP6MemoryS8_R5StateT_T0_.exit

; <label>:33:                                     ; preds = %block_400488
  %34 = fcmp ogt double %17, %19
  br i1 %34, label %39, label %35

; <label>:35:                                     ; preds = %33
  %36 = fcmp olt double %17, %19
  br i1 %36, label %39, label %37

; <label>:37:                                     ; preds = %35
  %38 = fcmp oeq double %17, %19
  br i1 %38, label %39, label %46

; <label>:39:                                     ; preds = %37, %35, %33, %21
  %40 = phi i8 [ 0, %33 ], [ 0, %35 ], [ 1, %37 ], [ 1, %21 ]
  %41 = phi i8 [ 0, %33 ], [ 0, %35 ], [ 0, %37 ], [ 1, %21 ]
  %42 = phi i8 [ 0, %33 ], [ 1, %35 ], [ 0, %37 ], [ 1, %21 ]
  %43 = getelementptr inbounds %struct.State, %struct.State* %0, i64 0, i32 2, i32 7
  store i8 %40, i8* %43, align 1
  %44 = getelementptr inbounds %struct.State, %struct.State* %0, i64 0, i32 2, i32 3
  store i8 %41, i8* %44, align 1
  %45 = getelementptr inbounds %struct.State, %struct.State* %0, i64 0, i32 2, i32 1
  store i8 %42, i8* %45, align 1
  br label %46

; <label>:46:                                     ; preds = %39, %37
  %47 = getelementptr inbounds %struct.State, %struct.State* %0, i64 0, i32 2, i32 13
  store i8 0, i8* %47, align 1
  %48 = getelementptr inbounds %struct.State, %struct.State* %0, i64 0, i32 2, i32 9
  store i8 0, i8* %48, align 1
  %49 = getelementptr inbounds %struct.State, %struct.State* %0, i64 0, i32 2, i32 5
  store i8 0, i8* %49, align 1
  br label %_ZN12_GLOBAL__N_1L6COMISDI2VnI8vec128_tE3MVnI7vec64_tEEEP6MemoryS8_R5StateT_T0_.exit

_ZN12_GLOBAL__N_1L6COMISDI2VnI8vec128_tE3MVnI7vec64_tEEEP6MemoryS8_R5StateT_T0_.exit: ; preds = %29, %46
  %50 = phi %struct.Memory* [ %32, %29 ], [ %2, %46 ]
  ret %struct.Memory* %50
}

define %struct.Memory* @routine_jb_.L_49dfc3(%struct.State* dereferenceable(3376), i64, %struct.Memory*, i8* %BRANCH_TAKEN, i64 %rel_off1, i64 %rel_off2, i64 %rel_off3) {
block_400488:
  %3 = getelementptr inbounds %struct.State, %struct.State* %0, i32 0, i32 6
  %4 = getelementptr inbounds %struct.GPR, %struct.GPR* %3, i32 0, i32 33
  %5 = getelementptr inbounds %struct.Reg, %struct.Reg* %4, i32 0, i32 0
  %PC = bitcast %union.anon* %5 to i64*
  %6 = load i64, i64* %PC
  %7 = add i64 %6, %rel_off1
  %8 = load i64, i64* %PC
  %9 = add i64 %8, %rel_off2
  %10 = load i64, i64* %PC
  %11 = add i64 %10, %rel_off3
  store i64 %11, i64* %PC
  %12 = getelementptr inbounds %struct.State, %struct.State* %0, i64 0, i32 2, i32 1
  %13 = load i8, i8* %12, align 1
  store i8 %13, i8* %BRANCH_TAKEN, align 1
  %14 = getelementptr inbounds %struct.State, %struct.State* %0, i64 0, i32 6, i32 33, i32 0, i32 0
  %15 = icmp ne i8 %13, 0
  %16 = select i1 %15, i64 %7, i64 %9
  store i64 %16, i64* %14, align 8
  ret %struct.Memory* %2
}

define %struct.Memory* @routine_movl__0x0__MINUS0x4__rbp_(%struct.State* dereferenceable(3376), i64, %struct.Memory*) {
block_400488:
  %3 = getelementptr inbounds %struct.State, %struct.State* %0, i32 0, i32 6
  %4 = getelementptr inbounds %struct.GPR, %struct.GPR* %3, i32 0, i32 33
  %5 = getelementptr inbounds %struct.Reg, %struct.Reg* %4, i32 0, i32 0
  %PC = bitcast %union.anon* %5 to i64*
  %6 = getelementptr inbounds %struct.State, %struct.State* %0, i32 0, i32 6
  %7 = getelementptr inbounds %struct.GPR, %struct.GPR* %6, i32 0, i32 15
  %8 = getelementptr inbounds %struct.Reg, %struct.Reg* %7, i32 0, i32 0
  %RBP = bitcast %union.anon* %8 to i64*
  %9 = load i64, i64* %RBP
  %10 = sub i64 %9, 4
  %11 = load i64, i64* %PC
  %12 = add i64 %11, 7
  store i64 %12, i64* %PC
  %13 = inttoptr i64 %10 to i32*
  store i32 0, i32* %13
  ret %struct.Memory* %2
}

define %struct.Memory* @routine_jmpq_.L_49dfca(%struct.State* dereferenceable(3376), i64, %struct.Memory*, i64 %rel_off1, i64 %rel_off2) {
block_400488:
  %3 = getelementptr inbounds %struct.State, %struct.State* %0, i32 0, i32 6
  %4 = getelementptr inbounds %struct.GPR, %struct.GPR* %3, i32 0, i32 33
  %5 = getelementptr inbounds %struct.Reg, %struct.Reg* %4, i32 0, i32 0
  %PC = bitcast %union.anon* %5 to i64*
  %6 = load i64, i64* %PC
  %7 = add i64 %6, %rel_off1
  %8 = load i64, i64* %PC
  %9 = add i64 %8, %rel_off2
  store i64 %9, i64* %PC
  %10 = getelementptr inbounds %struct.State, %struct.State* %0, i64 0, i32 6, i32 33, i32 0, i32 0
  store i64 %7, i64* %10, align 8
  ret %struct.Memory* %2
}

define %struct.Memory* @routine_movl__0x1__MINUS0x4__rbp_(%struct.State* dereferenceable(3376), i64, %struct.Memory*) {
block_400488:
  %3 = getelementptr inbounds %struct.State, %struct.State* %0, i32 0, i32 6
  %4 = getelementptr inbounds %struct.GPR, %struct.GPR* %3, i32 0, i32 33
  %5 = getelementptr inbounds %struct.Reg, %struct.Reg* %4, i32 0, i32 0
  %PC = bitcast %union.anon* %5 to i64*
  %6 = getelementptr inbounds %struct.State, %struct.State* %0, i32 0, i32 6
  %7 = getelementptr inbounds %struct.GPR, %struct.GPR* %6, i32 0, i32 15
  %8 = getelementptr inbounds %struct.Reg, %struct.Reg* %7, i32 0, i32 0
  %RBP = bitcast %union.anon* %8 to i64*
  %9 = load i64, i64* %RBP
  %10 = sub i64 %9, 4
  %11 = load i64, i64* %PC
  %12 = add i64 %11, 7
  store i64 %12, i64* %PC
  %13 = inttoptr i64 %10 to i32*
  store i32 1, i32* %13
  ret %struct.Memory* %2
}

define %struct.Memory* @routine_movl_MINUS0x4__rbp____eax(%struct.State* dereferenceable(3376), i64, %struct.Memory*) {
block_400488:
  %3 = getelementptr inbounds %struct.State, %struct.State* %0, i32 0, i32 6
  %4 = getelementptr inbounds %struct.GPR, %struct.GPR* %3, i32 0, i32 33
  %5 = getelementptr inbounds %struct.Reg, %struct.Reg* %4, i32 0, i32 0
  %PC = bitcast %union.anon* %5 to i64*
  %6 = getelementptr inbounds %struct.State, %struct.State* %0, i32 0, i32 6
  %7 = getelementptr inbounds %struct.GPR, %struct.GPR* %6, i32 0, i32 1
  %8 = getelementptr inbounds %struct.Reg, %struct.Reg* %7, i32 0, i32 0
  %RAX = bitcast %union.anon* %8 to i64*
  %9 = getelementptr inbounds %struct.State, %struct.State* %0, i32 0, i32 6
  %10 = getelementptr inbounds %struct.GPR, %struct.GPR* %9, i32 0, i32 15
  %11 = getelementptr inbounds %struct.Reg, %struct.Reg* %10, i32 0, i32 0
  %RBP = bitcast %union.anon* %11 to i64*
  %12 = load i64, i64* %RBP
  %13 = sub i64 %12, 4
  %14 = load i64, i64* %PC
  %15 = add i64 %14, 3
  store i64 %15, i64* %PC
  %16 = inttoptr i64 %13 to i32*
  %17 = load i32, i32* %16
  %18 = zext i32 %17 to i64
  store i64 %18, i64* %RAX, align 8
  ret %struct.Memory* %2
}

define %struct.Memory* @routine_popq__rbp(%struct.State* dereferenceable(3376), i64, %struct.Memory*) {
block_400488:
  %3 = getelementptr inbounds %struct.State, %struct.State* %0, i32 0, i32 6
  %4 = getelementptr inbounds %struct.GPR, %struct.GPR* %3, i32 0, i32 33
  %5 = getelementptr inbounds %struct.Reg, %struct.Reg* %4, i32 0, i32 0
  %PC = bitcast %union.anon* %5 to i64*
  %6 = getelementptr inbounds %struct.State, %struct.State* %0, i32 0, i32 6
  %7 = getelementptr inbounds %struct.GPR, %struct.GPR* %6, i32 0, i32 15
  %8 = getelementptr inbounds %struct.Reg, %struct.Reg* %7, i32 0, i32 0
  %RBP = bitcast %union.anon* %8 to i64*
  %9 = load i64, i64* %PC
  %10 = add i64 %9, 1
  store i64 %10, i64* %PC
  %11 = getelementptr inbounds %struct.State, %struct.State* %0, i64 0, i32 6, i32 13, i32 0, i32 0
  %12 = load i64, i64* %11, align 8
  %13 = add i64 %12, 8
  %14 = inttoptr i64 %12 to i64*
  %15 = load i64, i64* %14
  store i64 %15, i64* %RBP, align 8
  store i64 %13, i64* %11, align 8
  ret %struct.Memory* %2
}

define %struct.Memory* @routine_retq(%struct.State* dereferenceable(3376), i64, %struct.Memory*) {
block_400488:
  %3 = getelementptr inbounds %struct.State, %struct.State* %0, i32 0, i32 6
  %4 = getelementptr inbounds %struct.GPR, %struct.GPR* %3, i32 0, i32 33
  %5 = getelementptr inbounds %struct.Reg, %struct.Reg* %4, i32 0, i32 0
  %PC = bitcast %union.anon* %5 to i64*
  %6 = load i64, i64* %PC
  %7 = add i64 %6, 1
  store i64 %7, i64* %PC
  %8 = getelementptr inbounds %struct.State, %struct.State* %0, i64 0, i32 6, i32 33, i32 0, i32 0
  %9 = getelementptr inbounds %struct.State, %struct.State* %0, i64 0, i32 6, i32 13, i32 0, i32 0
  %10 = load i64, i64* %9, align 8
  %11 = inttoptr i64 %10 to i64*
  %12 = load i64, i64* %11
  store i64 %12, i64* %8, align 8
  %13 = add i64 %10, 8
  store i64 %13, i64* %9, align 8
  ret %struct.Memory* %2
}

attributes #0 = { argmemonly nounwind }
attributes #1 = { nounwind readnone }
attributes #2 = { alwaysinline }
