; ModuleID = 'mcsema/test.proposed.ll'
source_filename = "llvm-link"
target datalayout = "e-m:e-i64:64-f80:128-n8:16:32:64-S128"
target triple = "x86_64-pc-linux-gnu-elf"

%union.anon = type { i64 }
%seg_400370__init_type = type <{ [23 x i8] }>
%seg_400390__text_type = type <{ [354 x i8] }>
%seg_4004f4__fini_type = type <{ [9 x i8] }>
%seg_400500__rodata_type = type <{ [4 x i8] }>
%seg_400504__eh_frame_hdr_type = type <{ [52 x i8] }>
%seg_400538__eh_frame_type = type <{ [208 x i8] }>
%seg_601018__data_type = type <{ [16 x i8] }>
%__bss_start_type = type <{ [8 x i8] }>
%struct.State = type { %struct.ArchState, [32 x %union.VectorReg], %struct.ArithFlags, %union.anon, %struct.Segments, %struct.AddressSpace, %struct.GPR, %struct.X87Stack, %struct.MMX, %struct.FPUStatusFlags, %union.anon, %union.FPU, %struct.SegmentCaches }
%struct.ArchState = type { i32, i32, %union.anon }
%union.VectorReg = type { %union.vec512_t }
%union.vec512_t = type { %struct.uint64v8_t }
%struct.uint64v8_t = type { [8 x i64] }
%struct.ArithFlags = type { i8, i8, i8, i8, i8, i8, i8, i8, i8, i8, i8, i8, i8, i8, i8, i8 }
%struct.Segments = type { i16, %union.SegmentSelector, i16, %union.SegmentSelector, i16, %union.SegmentSelector, i16, %union.SegmentSelector, i16, %union.SegmentSelector, i16, %union.SegmentSelector }
%union.SegmentSelector = type { i16 }
%struct.AddressSpace = type { i64, %struct.Reg, i64, %struct.Reg, i64, %struct.Reg, i64, %struct.Reg, i64, %struct.Reg, i64, %struct.Reg }
%struct.Reg = type { %union.anon }
%struct.GPR = type { i64, %struct.Reg, i64, %struct.Reg, i64, %struct.Reg, i64, %struct.Reg, i64, %struct.Reg, i64, %struct.Reg, i64, %struct.Reg, i64, %struct.Reg, i64, %struct.Reg, i64, %struct.Reg, i64, %struct.Reg, i64, %struct.Reg, i64, %struct.Reg, i64, %struct.Reg, i64, %struct.Reg, i64, %struct.Reg, i64, %struct.Reg }
%struct.X87Stack = type { [8 x %struct.anon.3] }
%struct.anon.3 = type { i64, double }
%struct.MMX = type { [8 x %struct.anon.4] }
%struct.anon.4 = type { i64, %union.vec64_t }
%union.vec64_t = type { %struct.uint64v1_t }
%struct.uint64v1_t = type { [1 x i64] }
%struct.FPUStatusFlags = type { i8, i8, i8, i8, i8, i8, i8, i8, i8, i8, i8, i8, i8, i8, i8, i8, i8, i8, i8, i8, [4 x i8] }
%union.FPU = type { %struct.anon.13 }
%struct.anon.13 = type { %struct.FpuFXSAVE, [96 x i8] }
%struct.FpuFXSAVE = type { %union.SegmentSelector, %union.SegmentSelector, %union.FPUAbridgedTagWord, i8, i16, i32, %union.SegmentSelector, i16, i32, %union.SegmentSelector, i16, %union.FPUControlStatus, %union.FPUControlStatus, [8 x %struct.FPUStackElem], [16 x %union.vec128_t] }
%union.FPUAbridgedTagWord = type { i8 }
%union.FPUControlStatus = type { i32 }
%struct.FPUStackElem = type { %union.anon.11, [6 x i8] }
%union.anon.11 = type { %struct.float80_t }
%struct.float80_t = type { [10 x i8] }
%union.vec128_t = type { %struct.uint128v1_t }
%struct.uint128v1_t = type { [1 x i128] }
%struct.SegmentCaches = type { %struct.SegmentShadow, %struct.SegmentShadow, %struct.SegmentShadow, %struct.SegmentShadow, %struct.SegmentShadow, %struct.SegmentShadow }
%struct.SegmentShadow = type { %union.anon, i32, i32 }
%struct.Memory = type opaque

@switch.table = private unnamed_addr constant [4 x i32] [i32 2048, i32 3072, i32 0, i32 1024]
@DR0 = external global i64, align 8
@DR1 = external global i64, align 8
@DR2 = external global i64, align 8
@DR3 = external global i64, align 8
@DR4 = external global i64, align 8
@DR5 = external global i64, align 8
@DR6 = external global i64, align 8
@DR7 = external global i64, align 8
@gCR0 = external global %union.anon, align 1
@gCR1 = external global %union.anon, align 1
@gCR2 = external global %union.anon, align 1
@gCR3 = external global %union.anon, align 1
@gCR4 = external global %union.anon, align 1
@gCR8 = external global %union.anon, align 1
@seg_400370__init = internal constant %seg_400370__init_type <{ [23 x i8] c"H\83\EC\08H\8B\05}\0C \00H\85\C0t\02\FF\D0H\83\C4\08\C3" }>
@seg_400390__text = internal constant %seg_400390__text_type <{ [354 x i8] c"1\EDI\89\D1^H\89\E2H\83\E4\F0PTI\C7\C0\F0\04@\00H\C7\C1\80\04@\00H\C7\C7x\04@\00\FF\156\0C \00\F4\0F\1FD\00\00\F3\C3f.\0F\1F\84\00\00\00\00\00\0F\1F@\00U\B8(\10`\00H=(\10`\00H\89\E5t\17\B8\00\00\00\00H\85\C0t\0D]\BF(\10`\00\FF\E0\0F\1FD\00\00]\C3f\0F\1FD\00\00\BE(\10`\00UH\81\EE(\10`\00H\89\E5H\C1\FE\03H\89\F0H\C1\E8?H\01\C6H\D1\FEt\15\B8\00\00\00\00H\85\C0t\0B]\BF(\10`\00\FF\E0\0F\1F\00]\C3f\0F\1FD\00\00\80=\E1\0B \00\00u\17UH\89\E5\E8~\FF\FF\FF\C6\05\CF\0B \00\01]\C3\0F\1FD\00\00\F3\C3\0F\1F@\00f.\0F\1F\84\00\00\00\00\00UH\89\E5]\EB\89\90U\C3f\0F\1FD\00\00AWAVI\89\D7AUATL\8D%\BE\09 \00UH\8D-\BE\09 \00SA\89\FDI\89\F6L)\E5H\83\EC\08H\C1\FD\03\E8\BF\FE\FF\FFH\85\EDt 1\DB\0F\1F\84\00\00\00\00\00L\89\FAL\89\F6D\89\EFA\FF\14\DCH\83\C3\01H9\DDu\EAH\83\C4\08[]A\5CA]A^A_\C3\90f.\0F\1F\84\00\00\00\00\00\F3\C3" }>
@seg_4004f4__fini = internal constant %seg_4004f4__fini_type <{ [9 x i8] c"H\83\EC\08H\83\C4\08\C3" }>
@seg_400500__rodata = internal constant %seg_400500__rodata_type <{ [4 x i8] c"\01\00\02\00" }>
@seg_400504__eh_frame_hdr = internal constant %seg_400504__eh_frame_hdr_type <{ [52 x i8] c"\01\1B\03;0\00\00\00\05\00\00\00\8C\FE\FF\FFL\00\00\00\BC\FE\FF\FFx\00\00\00t\FF\FF\FF\8C\00\00\00|\FF\FF\FF\A4\00\00\00\EC\FF\FF\FF\EC\00\00\00" }>
@seg_400538__eh_frame = internal constant %seg_400538__eh_frame_type <{ [208 x i8] c"\14\00\00\00\00\00\00\00\01zR\00\01x\10\01\1B\0C\07\08\90\01\07\10\10\00\00\00\1C\00\00\008\FE\FF\FF+\00\00\00\00\00\00\00\14\00\00\00\00\00\00\00\01zR\00\01x\10\01\1B\0C\07\08\90\01\00\00\10\00\00\00\1C\00\00\00<\FE\FF\FF\02\00\00\00\00\00\00\00\14\00\00\000\00\00\00\E0\FE\FF\FF\02\00\00\00\00\00\00\00\00\00\00\00D\00\00\00H\00\00\00\D0\FE\FF\FFe\00\00\00\00B\0E\10\8F\02B\0E\18\8E\03E\0E \8D\04B\0E(\8C\05H\0E0\86\06H\0E8\83\07M\0E@r\0E8A\0E0A\0E(B\0E B\0E\18B\0E\10B\0E\08\00\10\00\00\00\90\00\00\00\F8\FE\FF\FF\02\00\00\00\00\00\00\00\00\00\00\00" }>
@seg_601018__data = internal global %seg_601018__data_type zeroinitializer
@__bss_start = global %__bss_start_type zeroinitializer
@0 = internal global i1 false

declare %struct.Memory* @__remill_error(%struct.State* dereferenceable(3376), i64, %struct.Memory*)

declare i32 @__remill_fpu_exception_test_and_clear(i32, i32)

; Function Attrs: argmemonly nounwind
declare void @llvm.lifetime.start(i64, i8* nocapture) #0

; Function Attrs: argmemonly nounwind
declare void @llvm.lifetime.end(i64, i8* nocapture) #0

; Function Attrs: nounwind readnone
declare i32 @llvm.ctpop.i32(i32) #1

; Function Attrs: nounwind readnone
declare i32 @llvm.bswap.i32(i32) #1

; Function Attrs: nounwind readnone
declare i64 @llvm.bswap.i64(i64) #1

; Function Attrs: nounwind readnone
declare i32 @llvm.cttz.i32(i32, i1) #1

; Function Attrs: nounwind readnone
declare i64 @llvm.cttz.i64(i64, i1) #1

; Function Attrs: nounwind readnone
declare i32 @llvm.ctlz.i32(i32, i1) #1

; Function Attrs: nounwind readnone
declare i64 @llvm.ctlz.i64(i64, i1) #1

; Function Attrs: argmemonly nounwind
declare void @llvm.memcpy.p0i8.p0i8.i64(i8* nocapture writeonly, i8* nocapture readonly, i64, i32, i1) #0

; Function Attrs: nounwind readnone
declare double @llvm.nearbyint.f64(double) #1

; Function Attrs: nounwind readnone
declare double @llvm.fabs.f64(double) #1

; Function Attrs: nounwind readnone
declare <4 x double> @llvm.nearbyint.v4f64(<4 x double>) #1

; Function Attrs: nounwind readnone
declare <4 x double> @llvm.fabs.v4f64(<4 x double>) #1

; Function Attrs: nounwind readnone
declare double @llvm.trunc.f64(double) #1

; Function Attrs: nounwind readnone
declare <4 x double> @llvm.trunc.v4f64(<4 x double>) #1

; Function Attrs: nounwind readnone
declare float @llvm.nearbyint.f32(float) #1

; Function Attrs: nounwind readnone
declare float @llvm.fabs.f32(float) #1

; Function Attrs: nounwind readnone
declare <4 x float> @llvm.nearbyint.v4f32(<4 x float>) #1

; Function Attrs: nounwind readnone
declare <4 x float> @llvm.fabs.v4f32(<4 x float>) #1

; Function Attrs: nounwind readnone
declare float @llvm.trunc.f32(float) #1

; Function Attrs: nounwind readnone
declare <4 x float> @llvm.trunc.v4f32(<4 x float>) #1

; Function Attrs: argmemonly nounwind
declare void @llvm.memset.p0i8.i64(i8* nocapture writeonly, i8, i64, i32, i1) #0

declare double @atan(double) local_unnamed_addr

declare double @cos(double) local_unnamed_addr

declare double @sin(double) local_unnamed_addr

declare double @sqrt(double) local_unnamed_addr

declare double @tan(double) local_unnamed_addr

declare extern_weak x86_64_sysvcc i64 @abort()

declare extern_weak x86_64_sysvcc i64 @abs(i64)

declare extern_weak x86_64_sysvcc i64 @asin(i64)

declare extern_weak x86_64_sysvcc i64 @atof(i64)

declare extern_weak x86_64_sysvcc i64 @atoi(i64)

declare extern_weak x86_64_sysvcc i64 @atol(i64)

declare extern_weak x86_64_sysvcc i64 @calloc(i64, i64)

declare extern_weak x86_64_sysvcc i64 @clock()

declare extern_weak x86_64_sysvcc i64 @cosf(i64)

declare extern_weak x86_64_sysvcc i64 @exit(i64)

declare extern_weak x86_64_sysvcc i64 @exp(i64)

declare extern_weak x86_64_sysvcc i64 @fflush(i64)

declare extern_weak x86_64_sysvcc i64 @floor(i64)

declare extern_weak x86_64_sysvcc i64 @fprintf(i64, i64, i64, i64, i64, i64, i64, i64, i64, i64, i64, i64, i64, i64, i64, i64)

declare extern_weak x86_64_sysvcc i64 @fputs(i64, i64)

declare extern_weak x86_64_sysvcc i64 @free(i64)

declare extern_weak x86_64_sysvcc i64 @fwrite(i64, i64, i64, i64)

declare extern_weak x86_64_sysvcc i64 @getchar()

declare extern_weak x86_64_sysvcc i64 @gettimeofday(i64, i64)

declare extern_weak x86_64_sysvcc i64 @__isoc99_fscanf(i64, i64, i64, i64, i64, i64, i64, i64, i64, i64, i64, i64, i64, i64, i64, i64)

declare extern_weak x86_64_sysvcc i64 @__isoc99_scanf(i64, i64, i64, i64, i64, i64, i64, i64, i64, i64, i64, i64, i64, i64, i64, i64)

declare extern_weak x86_64_sysvcc i64 @__isoc99_sscanf(i64, i64, i64, i64, i64, i64, i64, i64, i64, i64, i64, i64, i64, i64, i64, i64)

declare extern_weak x86_64_sysvcc i64 @log(i64)

declare extern_weak x86_64_sysvcc i64 @lrand48()

declare extern_weak x86_64_sysvcc i64 @malloc(i64)

declare extern_weak x86_64_sysvcc i64 @memalign(i64, i64)

declare extern_weak x86_64_sysvcc i64 @memcpy(i64, i64, i64)

declare extern_weak x86_64_sysvcc i64 @memset(i64, i64, i64)

declare extern_weak x86_64_sysvcc i64 @perror(i64)

declare extern_weak x86_64_sysvcc i64 @posix_memalign(i64, i64, i64)

declare extern_weak x86_64_sysvcc i64 @pow(i64, i64)

declare extern_weak x86_64_sysvcc i64 @printf(i64, i64, i64, i64, i64, i64, i64, i64, i64, i64, i64, i64, i64, i64, i64, i64)

declare extern_weak x86_64_sysvcc i64 @putchar(i64)

declare extern_weak x86_64_sysvcc i64 @puts(i64)

declare extern_weak x86_64_sysvcc i64 @rand()

declare extern_weak x86_64_sysvcc i64 @random()

declare extern_weak x86_64_sysvcc i64 @realloc(i64, i64)

declare extern_weak x86_64_sysvcc i64 @seed48(i64)

declare extern_weak x86_64_sysvcc i64 @sinf(i64)

declare extern_weak x86_64_sysvcc i64 @sprintf(i64, i64, i64, i64, i64, i64, i64, i64, i64, i64, i64, i64, i64, i64, i64, i64)

declare extern_weak x86_64_sysvcc i64 @srand(i64)

declare extern_weak x86_64_sysvcc i64 @strcat(i64, i64)

declare extern_weak x86_64_sysvcc i64 @strcmp(i64, i64)

declare extern_weak x86_64_sysvcc i64 @strcpy(i64, i64)

declare extern_weak x86_64_sysvcc i64 @strdup(i64)

declare extern_weak x86_64_sysvcc i64 @strlen(i64)

declare extern_weak x86_64_sysvcc i64 @strncmp(i64, i64, i64)

declare extern_weak x86_64_sysvcc i64 @strtoll(i64, i64, i64)

declare extern_weak x86_64_sysvcc i64 @time(i64)

declare extern_weak x86_64_sysvcc i64 @ungetc(i64, i64)

declare extern_weak x86_64_sysvcc i64 @pthread_join(i64, i64)

declare extern_weak x86_64_sysvcc i64 @pthread_create(i64, i64, i64, i64)

declare %struct.Memory* @__remill_function_call(%struct.State* dereferenceable(3376), i64, %struct.Memory*)

declare %struct.Memory* @ext_sqrt(%struct.State* noalias dereferenceable(3376), i64, %struct.Memory* noalias)

declare %struct.Memory* @ext_atan(%struct.State* noalias dereferenceable(3376), i64, %struct.Memory* noalias)

declare %struct.Memory* @ext_cos(%struct.State* noalias dereferenceable(3376), i64, %struct.Memory* noalias)

declare %struct.Memory* @ext_tan(%struct.State* noalias dereferenceable(3376), i64, %struct.Memory* noalias)

declare %struct.Memory* @ext_sin(%struct.State* noalias dereferenceable(3376), i64, %struct.Memory* noalias)

; Function Attrs: alwaysinline
define %struct.Memory* @_ZN32custom_divide_multiple_variable2ItE8do_shiftEttttt(%struct.State* noalias, i64, %struct.Memory* noalias) #2 {
entry:
  %3 = getelementptr inbounds %struct.State, %struct.State* %0, i64 0, i32 6, i32 33, i32 0, i32 0
  store i64 %1, i64* %3, align 8
  %BRANCH_TAKEN = alloca i8, align 1
  store i8 0, i8* %BRANCH_TAKEN, align 1
  %MEMORY = alloca %struct.Memory*, align 8
  store %struct.Memory* %2, %struct.Memory** %MEMORY, align 8
  %loadMem_4107d0 = load %struct.Memory*, %struct.Memory** %MEMORY
  %4 = getelementptr inbounds %struct.State, %struct.State* %0, i32 0, i32 6
  %5 = getelementptr inbounds %struct.GPR, %struct.GPR* %4, i32 0, i32 33
  %6 = getelementptr inbounds %struct.Reg, %struct.Reg* %5, i32 0, i32 0
  %PC.i = bitcast %union.anon* %6 to i64*
  %7 = getelementptr inbounds %struct.State, %struct.State* %0, i32 0, i32 6
  %8 = getelementptr inbounds %struct.GPR, %struct.GPR* %7, i32 0, i32 15
  %9 = getelementptr inbounds %struct.Reg, %struct.Reg* %8, i32 0, i32 0
  %RBP.i = bitcast %union.anon* %9 to i64*
  %10 = load i64, i64* %RBP.i
  %11 = load i64, i64* %PC.i
  %12 = add i64 %11, 1
  store i64 %12, i64* %PC.i
  %13 = getelementptr inbounds %struct.State, %struct.State* %0, i64 0, i32 6, i32 13, i32 0, i32 0
  %14 = load i64, i64* %13, align 8
  %15 = add i64 %14, -8
  %16 = inttoptr i64 %15 to i64*
  store i64 %10, i64* %16
  store i64 %15, i64* %13, align 8
  store %struct.Memory* %loadMem_4107d0, %struct.Memory** %MEMORY
  %loadMem_4107d1 = load %struct.Memory*, %struct.Memory** %MEMORY
  %17 = getelementptr inbounds %struct.State, %struct.State* %0, i32 0, i32 6
  %18 = getelementptr inbounds %struct.GPR, %struct.GPR* %17, i32 0, i32 33
  %19 = getelementptr inbounds %struct.Reg, %struct.Reg* %18, i32 0, i32 0
  %PC.i10 = bitcast %union.anon* %19 to i64*
  %20 = getelementptr inbounds %struct.State, %struct.State* %0, i32 0, i32 6
  %21 = getelementptr inbounds %struct.GPR, %struct.GPR* %20, i32 0, i32 13
  %22 = getelementptr inbounds %struct.Reg, %struct.Reg* %21, i32 0, i32 0
  %RSP.i = bitcast %union.anon* %22 to i64*
  %23 = getelementptr inbounds %struct.State, %struct.State* %0, i32 0, i32 6
  %24 = getelementptr inbounds %struct.GPR, %struct.GPR* %23, i32 0, i32 15
  %25 = getelementptr inbounds %struct.Reg, %struct.Reg* %24, i32 0, i32 0
  %RBP.i11 = bitcast %union.anon* %25 to i64*
  %26 = load i64, i64* %RSP.i
  %27 = load i64, i64* %PC.i10
  %28 = add i64 %27, 3
  store i64 %28, i64* %PC.i10
  store i64 %26, i64* %RBP.i11, align 8
  store %struct.Memory* %loadMem_4107d1, %struct.Memory** %MEMORY
  %loadMem_4107d4 = load %struct.Memory*, %struct.Memory** %MEMORY
  %29 = getelementptr inbounds %struct.State, %struct.State* %0, i32 0, i32 6
  %30 = getelementptr inbounds %struct.GPR, %struct.GPR* %29, i32 0, i32 33
  %31 = getelementptr inbounds %struct.Reg, %struct.Reg* %30, i32 0, i32 0
  %PC.i18 = bitcast %union.anon* %31 to i64*
  %32 = getelementptr inbounds %struct.State, %struct.State* %0, i32 0, i32 6
  %33 = getelementptr inbounds %struct.GPR, %struct.GPR* %32, i32 0, i32 3
  %34 = getelementptr inbounds %struct.Reg, %struct.Reg* %33, i32 0, i32 0
  %RBX.i19 = bitcast %union.anon* %34 to i64*
  %35 = load i64, i64* %RBX.i19
  %36 = load i64, i64* %PC.i18
  %37 = add i64 %36, 1
  store i64 %37, i64* %PC.i18
  %38 = getelementptr inbounds %struct.State, %struct.State* %0, i64 0, i32 6, i32 13, i32 0, i32 0
  %39 = load i64, i64* %38, align 8
  %40 = add i64 %39, -8
  %41 = inttoptr i64 %40 to i64*
  store i64 %35, i64* %41
  store i64 %40, i64* %38, align 8
  store %struct.Memory* %loadMem_4107d4, %struct.Memory** %MEMORY
  %loadMem_4107d5 = load %struct.Memory*, %struct.Memory** %MEMORY
  %42 = getelementptr inbounds %struct.State, %struct.State* %0, i32 0, i32 6
  %43 = getelementptr inbounds %struct.GPR, %struct.GPR* %42, i32 0, i32 33
  %44 = getelementptr inbounds %struct.Reg, %struct.Reg* %43, i32 0, i32 0
  %PC.i25 = bitcast %union.anon* %44 to i64*
  %45 = getelementptr inbounds %struct.State, %struct.State* %0, i32 0, i32 6
  %46 = getelementptr inbounds %struct.GPR, %struct.GPR* %45, i32 0, i32 1
  %47 = getelementptr inbounds %struct.Reg, %struct.Reg* %46, i32 0, i32 0
  %AX.i = bitcast %union.anon* %47 to i16*
  %48 = getelementptr inbounds %struct.State, %struct.State* %0, i32 0, i32 6
  %49 = getelementptr inbounds %struct.GPR, %struct.GPR* %48, i32 0, i32 17
  %50 = getelementptr inbounds %struct.Reg, %struct.Reg* %49, i32 0, i32 0
  %R8W.i = bitcast %union.anon* %50 to i16*
  %51 = load i16, i16* %R8W.i
  %52 = zext i16 %51 to i64
  %53 = load i64, i64* %PC.i25
  %54 = add i64 %53, 4
  store i64 %54, i64* %PC.i25
  store i16 %51, i16* %AX.i, align 2
  store %struct.Memory* %loadMem_4107d5, %struct.Memory** %MEMORY
  %loadMem_4107d9 = load %struct.Memory*, %struct.Memory** %MEMORY
  %55 = getelementptr inbounds %struct.State, %struct.State* %0, i32 0, i32 6
  %56 = getelementptr inbounds %struct.GPR, %struct.GPR* %55, i32 0, i32 33
  %57 = getelementptr inbounds %struct.Reg, %struct.Reg* %56, i32 0, i32 0
  %PC.i57 = bitcast %union.anon* %57 to i64*
  %58 = getelementptr inbounds %struct.State, %struct.State* %0, i32 0, i32 6
  %59 = getelementptr inbounds %struct.GPR, %struct.GPR* %58, i32 0, i32 5
  %60 = getelementptr inbounds %struct.Reg, %struct.Reg* %59, i32 0, i32 0
  %CX.i58 = bitcast %union.anon* %60 to i16*
  %61 = getelementptr inbounds %struct.State, %struct.State* %0, i32 0, i32 6
  %62 = getelementptr inbounds %struct.GPR, %struct.GPR* %61, i32 0, i32 19
  %63 = getelementptr inbounds %struct.Reg, %struct.Reg* %62, i32 0, i32 0
  %R9W.i59 = bitcast %union.anon* %63 to i16*
  %64 = load i16, i16* %CX.i58
  %65 = zext i16 %64 to i64
  %66 = load i64, i64* %PC.i57
  %67 = add i64 %66, 4
  store i64 %67, i64* %PC.i57
  store i16 %64, i16* %R9W.i59, align 2
  store %struct.Memory* %loadMem_4107d9, %struct.Memory** %MEMORY
  %loadMem_4107dd = load %struct.Memory*, %struct.Memory** %MEMORY
  %68 = getelementptr inbounds %struct.State, %struct.State* %0, i32 0, i32 6
  %69 = getelementptr inbounds %struct.GPR, %struct.GPR* %68, i32 0, i32 33
  %70 = getelementptr inbounds %struct.Reg, %struct.Reg* %69, i32 0, i32 0
  %PC.i55 = bitcast %union.anon* %70 to i64*
  %71 = getelementptr inbounds %struct.State, %struct.State* %0, i32 0, i32 6
  %72 = getelementptr inbounds %struct.GPR, %struct.GPR* %71, i32 0, i32 7
  %73 = getelementptr inbounds %struct.Reg, %struct.Reg* %72, i32 0, i32 0
  %DX.i = bitcast %union.anon* %73 to i16*
  %74 = getelementptr inbounds %struct.State, %struct.State* %0, i32 0, i32 6
  %75 = getelementptr inbounds %struct.GPR, %struct.GPR* %74, i32 0, i32 21
  %76 = getelementptr inbounds %struct.Reg, %struct.Reg* %75, i32 0, i32 0
  %R10W.i56 = bitcast %union.anon* %76 to i16*
  %77 = load i16, i16* %DX.i
  %78 = zext i16 %77 to i64
  %79 = load i64, i64* %PC.i55
  %80 = add i64 %79, 4
  store i64 %80, i64* %PC.i55
  store i16 %77, i16* %R10W.i56, align 2
  store %struct.Memory* %loadMem_4107dd, %struct.Memory** %MEMORY
  %loadMem_4107e1 = load %struct.Memory*, %struct.Memory** %MEMORY
  %81 = getelementptr inbounds %struct.State, %struct.State* %0, i32 0, i32 6
  %82 = getelementptr inbounds %struct.GPR, %struct.GPR* %81, i32 0, i32 33
  %83 = getelementptr inbounds %struct.Reg, %struct.Reg* %82, i32 0, i32 0
  %PC.i53 = bitcast %union.anon* %83 to i64*
  %84 = getelementptr inbounds %struct.State, %struct.State* %0, i32 0, i32 6
  %85 = getelementptr inbounds %struct.GPR, %struct.GPR* %84, i32 0, i32 9
  %86 = getelementptr inbounds %struct.Reg, %struct.Reg* %85, i32 0, i32 0
  %SI.i = bitcast %union.anon* %86 to i16*
  %87 = getelementptr inbounds %struct.State, %struct.State* %0, i32 0, i32 6
  %88 = getelementptr inbounds %struct.GPR, %struct.GPR* %87, i32 0, i32 23
  %89 = getelementptr inbounds %struct.Reg, %struct.Reg* %88, i32 0, i32 0
  %R11W.i54 = bitcast %union.anon* %89 to i16*
  %90 = load i16, i16* %SI.i
  %91 = zext i16 %90 to i64
  %92 = load i64, i64* %PC.i53
  %93 = add i64 %92, 4
  store i64 %93, i64* %PC.i53
  store i16 %90, i16* %R11W.i54, align 2
  store %struct.Memory* %loadMem_4107e1, %struct.Memory** %MEMORY
  %loadMem_4107e5 = load %struct.Memory*, %struct.Memory** %MEMORY
  %94 = getelementptr inbounds %struct.State, %struct.State* %0, i32 0, i32 6
  %95 = getelementptr inbounds %struct.GPR, %struct.GPR* %94, i32 0, i32 33
  %96 = getelementptr inbounds %struct.Reg, %struct.Reg* %95, i32 0, i32 0
  %PC.i51 = bitcast %union.anon* %96 to i64*
  %97 = getelementptr inbounds %struct.State, %struct.State* %0, i32 0, i32 6
  %98 = getelementptr inbounds %struct.GPR, %struct.GPR* %97, i32 0, i32 3
  %99 = getelementptr inbounds %struct.Reg, %struct.Reg* %98, i32 0, i32 0
  %BX.i52 = bitcast %union.anon* %99 to i16*
  %100 = getelementptr inbounds %struct.State, %struct.State* %0, i32 0, i32 6
  %101 = getelementptr inbounds %struct.GPR, %struct.GPR* %100, i32 0, i32 11
  %102 = getelementptr inbounds %struct.Reg, %struct.Reg* %101, i32 0, i32 0
  %DI.i = bitcast %union.anon* %102 to i16*
  %103 = load i16, i16* %DI.i
  %104 = zext i16 %103 to i64
  %105 = load i64, i64* %PC.i51
  %106 = add i64 %105, 3
  store i64 %106, i64* %PC.i51
  store i16 %103, i16* %BX.i52, align 2
  store %struct.Memory* %loadMem_4107e5, %struct.Memory** %MEMORY
  %loadMem_4107e8 = load %struct.Memory*, %struct.Memory** %MEMORY
  %107 = getelementptr inbounds %struct.State, %struct.State* %0, i32 0, i32 6
  %108 = getelementptr inbounds %struct.GPR, %struct.GPR* %107, i32 0, i32 33
  %109 = getelementptr inbounds %struct.Reg, %struct.Reg* %108, i32 0, i32 0
  %PC.i49 = bitcast %union.anon* %109 to i64*
  %110 = getelementptr inbounds %struct.State, %struct.State* %0, i32 0, i32 6
  %111 = getelementptr inbounds %struct.GPR, %struct.GPR* %110, i32 0, i32 3
  %112 = getelementptr inbounds %struct.Reg, %struct.Reg* %111, i32 0, i32 0
  %BX.i = bitcast %union.anon* %112 to i16*
  %113 = getelementptr inbounds %struct.State, %struct.State* %0, i32 0, i32 6
  %114 = getelementptr inbounds %struct.GPR, %struct.GPR* %113, i32 0, i32 15
  %115 = getelementptr inbounds %struct.Reg, %struct.Reg* %114, i32 0, i32 0
  %RBP.i50 = bitcast %union.anon* %115 to i64*
  %116 = load i64, i64* %RBP.i50
  %117 = sub i64 %116, 10
  %118 = load i16, i16* %BX.i
  %119 = zext i16 %118 to i64
  %120 = load i64, i64* %PC.i49
  %121 = add i64 %120, 4
  store i64 %121, i64* %PC.i49
  %122 = inttoptr i64 %117 to i16*
  store i16 %118, i16* %122
  store %struct.Memory* %loadMem_4107e8, %struct.Memory** %MEMORY
  %loadMem_4107ec = load %struct.Memory*, %struct.Memory** %MEMORY
  %123 = getelementptr inbounds %struct.State, %struct.State* %0, i32 0, i32 6
  %124 = getelementptr inbounds %struct.GPR, %struct.GPR* %123, i32 0, i32 33
  %125 = getelementptr inbounds %struct.Reg, %struct.Reg* %124, i32 0, i32 0
  %PC.i47 = bitcast %union.anon* %125 to i64*
  %126 = getelementptr inbounds %struct.State, %struct.State* %0, i32 0, i32 6
  %127 = getelementptr inbounds %struct.GPR, %struct.GPR* %126, i32 0, i32 23
  %128 = getelementptr inbounds %struct.Reg, %struct.Reg* %127, i32 0, i32 0
  %R11W.i = bitcast %union.anon* %128 to i16*
  %129 = getelementptr inbounds %struct.State, %struct.State* %0, i32 0, i32 6
  %130 = getelementptr inbounds %struct.GPR, %struct.GPR* %129, i32 0, i32 15
  %131 = getelementptr inbounds %struct.Reg, %struct.Reg* %130, i32 0, i32 0
  %RBP.i48 = bitcast %union.anon* %131 to i64*
  %132 = load i64, i64* %RBP.i48
  %133 = sub i64 %132, 12
  %134 = load i16, i16* %R11W.i
  %135 = zext i16 %134 to i64
  %136 = load i64, i64* %PC.i47
  %137 = add i64 %136, 5
  store i64 %137, i64* %PC.i47
  %138 = inttoptr i64 %133 to i16*
  store i16 %134, i16* %138
  store %struct.Memory* %loadMem_4107ec, %struct.Memory** %MEMORY
  %loadMem_4107f1 = load %struct.Memory*, %struct.Memory** %MEMORY
  %139 = getelementptr inbounds %struct.State, %struct.State* %0, i32 0, i32 6
  %140 = getelementptr inbounds %struct.GPR, %struct.GPR* %139, i32 0, i32 33
  %141 = getelementptr inbounds %struct.Reg, %struct.Reg* %140, i32 0, i32 0
  %PC.i45 = bitcast %union.anon* %141 to i64*
  %142 = getelementptr inbounds %struct.State, %struct.State* %0, i32 0, i32 6
  %143 = getelementptr inbounds %struct.GPR, %struct.GPR* %142, i32 0, i32 21
  %144 = getelementptr inbounds %struct.Reg, %struct.Reg* %143, i32 0, i32 0
  %R10W.i = bitcast %union.anon* %144 to i16*
  %145 = getelementptr inbounds %struct.State, %struct.State* %0, i32 0, i32 6
  %146 = getelementptr inbounds %struct.GPR, %struct.GPR* %145, i32 0, i32 15
  %147 = getelementptr inbounds %struct.Reg, %struct.Reg* %146, i32 0, i32 0
  %RBP.i46 = bitcast %union.anon* %147 to i64*
  %148 = load i64, i64* %RBP.i46
  %149 = sub i64 %148, 14
  %150 = load i16, i16* %R10W.i
  %151 = zext i16 %150 to i64
  %152 = load i64, i64* %PC.i45
  %153 = add i64 %152, 5
  store i64 %153, i64* %PC.i45
  %154 = inttoptr i64 %149 to i16*
  store i16 %150, i16* %154
  store %struct.Memory* %loadMem_4107f1, %struct.Memory** %MEMORY
  %loadMem_4107f6 = load %struct.Memory*, %struct.Memory** %MEMORY
  %155 = getelementptr inbounds %struct.State, %struct.State* %0, i32 0, i32 6
  %156 = getelementptr inbounds %struct.GPR, %struct.GPR* %155, i32 0, i32 33
  %157 = getelementptr inbounds %struct.Reg, %struct.Reg* %156, i32 0, i32 0
  %PC.i42 = bitcast %union.anon* %157 to i64*
  %158 = getelementptr inbounds %struct.State, %struct.State* %0, i32 0, i32 6
  %159 = getelementptr inbounds %struct.GPR, %struct.GPR* %158, i32 0, i32 19
  %160 = getelementptr inbounds %struct.Reg, %struct.Reg* %159, i32 0, i32 0
  %R9W.i43 = bitcast %union.anon* %160 to i16*
  %161 = getelementptr inbounds %struct.State, %struct.State* %0, i32 0, i32 6
  %162 = getelementptr inbounds %struct.GPR, %struct.GPR* %161, i32 0, i32 15
  %163 = getelementptr inbounds %struct.Reg, %struct.Reg* %162, i32 0, i32 0
  %RBP.i44 = bitcast %union.anon* %163 to i64*
  %164 = load i64, i64* %RBP.i44
  %165 = sub i64 %164, 16
  %166 = load i16, i16* %R9W.i43
  %167 = zext i16 %166 to i64
  %168 = load i64, i64* %PC.i42
  %169 = add i64 %168, 5
  store i64 %169, i64* %PC.i42
  %170 = inttoptr i64 %165 to i16*
  store i16 %166, i16* %170
  store %struct.Memory* %loadMem_4107f6, %struct.Memory** %MEMORY
  %loadMem_4107fb = load %struct.Memory*, %struct.Memory** %MEMORY
  %171 = getelementptr inbounds %struct.State, %struct.State* %0, i32 0, i32 6
  %172 = getelementptr inbounds %struct.GPR, %struct.GPR* %171, i32 0, i32 33
  %173 = getelementptr inbounds %struct.Reg, %struct.Reg* %172, i32 0, i32 0
  %PC.i39 = bitcast %union.anon* %173 to i64*
  %174 = getelementptr inbounds %struct.State, %struct.State* %0, i32 0, i32 6
  %175 = getelementptr inbounds %struct.GPR, %struct.GPR* %174, i32 0, i32 1
  %176 = getelementptr inbounds %struct.Reg, %struct.Reg* %175, i32 0, i32 0
  %AX.i40 = bitcast %union.anon* %176 to i16*
  %177 = getelementptr inbounds %struct.State, %struct.State* %0, i32 0, i32 6
  %178 = getelementptr inbounds %struct.GPR, %struct.GPR* %177, i32 0, i32 15
  %179 = getelementptr inbounds %struct.Reg, %struct.Reg* %178, i32 0, i32 0
  %RBP.i41 = bitcast %union.anon* %179 to i64*
  %180 = load i64, i64* %RBP.i41
  %181 = sub i64 %180, 18
  %182 = load i16, i16* %AX.i40
  %183 = zext i16 %182 to i64
  %184 = load i64, i64* %PC.i39
  %185 = add i64 %184, 4
  store i64 %185, i64* %PC.i39
  %186 = inttoptr i64 %181 to i16*
  store i16 %182, i16* %186
  store %struct.Memory* %loadMem_4107fb, %struct.Memory** %MEMORY
  %loadMem_4107ff = load %struct.Memory*, %struct.Memory** %MEMORY
  %187 = getelementptr inbounds %struct.State, %struct.State* %0, i32 0, i32 6
  %188 = getelementptr inbounds %struct.GPR, %struct.GPR* %187, i32 0, i32 33
  %189 = getelementptr inbounds %struct.Reg, %struct.Reg* %188, i32 0, i32 0
  %PC.i36 = bitcast %union.anon* %189 to i64*
  %190 = getelementptr inbounds %struct.State, %struct.State* %0, i32 0, i32 6
  %191 = getelementptr inbounds %struct.GPR, %struct.GPR* %190, i32 0, i32 5
  %192 = getelementptr inbounds %struct.Reg, %struct.Reg* %191, i32 0, i32 0
  %RCX.i37 = bitcast %union.anon* %192 to i64*
  %193 = getelementptr inbounds %struct.State, %struct.State* %0, i32 0, i32 6
  %194 = getelementptr inbounds %struct.GPR, %struct.GPR* %193, i32 0, i32 15
  %195 = getelementptr inbounds %struct.Reg, %struct.Reg* %194, i32 0, i32 0
  %RBP.i38 = bitcast %union.anon* %195 to i64*
  %196 = load i64, i64* %RBP.i38
  %197 = sub i64 %196, 10
  %198 = load i64, i64* %PC.i36
  %199 = add i64 %198, 4
  store i64 %199, i64* %PC.i36
  %200 = inttoptr i64 %197 to i16*
  %201 = load i16, i16* %200
  %202 = zext i16 %201 to i64
  store i64 %202, i64* %RCX.i37, align 8
  store %struct.Memory* %loadMem_4107ff, %struct.Memory** %MEMORY
  %loadMem_410803 = load %struct.Memory*, %struct.Memory** %MEMORY
  %203 = getelementptr inbounds %struct.State, %struct.State* %0, i32 0, i32 6
  %204 = getelementptr inbounds %struct.GPR, %struct.GPR* %203, i32 0, i32 33
  %205 = getelementptr inbounds %struct.Reg, %struct.Reg* %204, i32 0, i32 0
  %PC.i33 = bitcast %union.anon* %205 to i64*
  %206 = getelementptr inbounds %struct.State, %struct.State* %0, i32 0, i32 6
  %207 = getelementptr inbounds %struct.GPR, %struct.GPR* %206, i32 0, i32 1
  %208 = getelementptr inbounds %struct.Reg, %struct.Reg* %207, i32 0, i32 0
  %RAX.i34 = bitcast %union.anon* %208 to i64*
  %209 = getelementptr inbounds %struct.State, %struct.State* %0, i32 0, i32 6
  %210 = getelementptr inbounds %struct.GPR, %struct.GPR* %209, i32 0, i32 15
  %211 = getelementptr inbounds %struct.Reg, %struct.Reg* %210, i32 0, i32 0
  %RBP.i35 = bitcast %union.anon* %211 to i64*
  %212 = load i64, i64* %RBP.i35
  %213 = sub i64 %212, 12
  %214 = load i64, i64* %PC.i33
  %215 = add i64 %214, 4
  store i64 %215, i64* %PC.i33
  %216 = inttoptr i64 %213 to i16*
  %217 = load i16, i16* %216
  %218 = zext i16 %217 to i64
  store i64 %218, i64* %RAX.i34, align 8
  store %struct.Memory* %loadMem_410803, %struct.Memory** %MEMORY
  %loadMem_410807 = load %struct.Memory*, %struct.Memory** %MEMORY
  %219 = getelementptr inbounds %struct.State, %struct.State* %0, i32 0, i32 6
  %220 = getelementptr inbounds %struct.GPR, %struct.GPR* %219, i32 0, i32 33
  %221 = getelementptr inbounds %struct.Reg, %struct.Reg* %220, i32 0, i32 0
  %PC.i31 = bitcast %union.anon* %221 to i64*
  %222 = getelementptr inbounds %struct.State, %struct.State* %0, i32 0, i32 6
  %223 = getelementptr inbounds %struct.GPR, %struct.GPR* %222, i32 0, i32 7
  %224 = getelementptr inbounds %struct.Reg, %struct.Reg* %223, i32 0, i32 0
  %RDX.i = bitcast %union.anon* %224 to i64*
  %225 = getelementptr inbounds %struct.State, %struct.State* %0, i32 0, i32 6
  %226 = getelementptr inbounds %struct.GPR, %struct.GPR* %225, i32 0, i32 15
  %227 = getelementptr inbounds %struct.Reg, %struct.Reg* %226, i32 0, i32 0
  %RBP.i32 = bitcast %union.anon* %227 to i64*
  %228 = load i64, i64* %RBP.i32
  %229 = sub i64 %228, 14
  %230 = load i64, i64* %PC.i31
  %231 = add i64 %230, 4
  store i64 %231, i64* %PC.i31
  %232 = inttoptr i64 %229 to i16*
  %233 = load i16, i16* %232
  %234 = zext i16 %233 to i64
  store i64 %234, i64* %RDX.i, align 8
  store %struct.Memory* %loadMem_410807, %struct.Memory** %MEMORY
  %loadMem_41080b = load %struct.Memory*, %struct.Memory** %MEMORY
  %235 = getelementptr inbounds %struct.State, %struct.State* %0, i32 0, i32 6
  %236 = getelementptr inbounds %struct.GPR, %struct.GPR* %235, i32 0, i32 33
  %237 = getelementptr inbounds %struct.Reg, %struct.Reg* %236, i32 0, i32 0
  %PC.i29 = bitcast %union.anon* %237 to i64*
  %238 = getelementptr inbounds %struct.State, %struct.State* %0, i32 0, i32 6
  %239 = getelementptr inbounds %struct.GPR, %struct.GPR* %238, i32 0, i32 7
  %240 = getelementptr inbounds %struct.Reg, %struct.Reg* %239, i32 0, i32 0
  %EDX.i = bitcast %union.anon* %240 to i32*
  %241 = getelementptr inbounds %struct.State, %struct.State* %0, i32 0, i32 6
  %242 = getelementptr inbounds %struct.GPR, %struct.GPR* %241, i32 0, i32 15
  %243 = getelementptr inbounds %struct.Reg, %struct.Reg* %242, i32 0, i32 0
  %RBP.i30 = bitcast %union.anon* %243 to i64*
  %244 = load i64, i64* %RBP.i30
  %245 = sub i64 %244, 24
  %246 = load i32, i32* %EDX.i
  %247 = zext i32 %246 to i64
  %248 = load i64, i64* %PC.i29
  %249 = add i64 %248, 3
  store i64 %249, i64* %PC.i29
  %250 = inttoptr i64 %245 to i32*
  store i32 %246, i32* %250
  store %struct.Memory* %loadMem_41080b, %struct.Memory** %MEMORY
  %loadMem_41080e = load %struct.Memory*, %struct.Memory** %MEMORY
  %251 = getelementptr inbounds %struct.State, %struct.State* %0, i32 0, i32 6
  %252 = getelementptr inbounds %struct.GPR, %struct.GPR* %251, i32 0, i32 33
  %253 = getelementptr inbounds %struct.Reg, %struct.Reg* %252, i32 0, i32 0
  %PC.i28 = bitcast %union.anon* %253 to i64*
  %254 = load i64, i64* %PC.i28
  %255 = add i64 %254, 1
  store i64 %255, i64* %PC.i28
  %256 = getelementptr inbounds %struct.State, %struct.State* %0, i64 0, i32 6, i32 7, i32 0, i32 0
  %257 = getelementptr inbounds %struct.State, %struct.State* %0, i64 0, i32 6, i32 1, i32 0
  %258 = bitcast %union.anon* %257 to i32*
  %259 = load i32, i32* %258, align 8
  %260 = sext i32 %259 to i64
  %261 = lshr i64 %260, 32
  store i64 %261, i64* %256, align 8
  store %struct.Memory* %loadMem_41080e, %struct.Memory** %MEMORY
  %loadMem_41080f = load %struct.Memory*, %struct.Memory** %MEMORY
  %262 = getelementptr inbounds %struct.State, %struct.State* %0, i32 0, i32 6
  %263 = getelementptr inbounds %struct.GPR, %struct.GPR* %262, i32 0, i32 33
  %264 = getelementptr inbounds %struct.Reg, %struct.Reg* %263, i32 0, i32 0
  %PC.i26 = bitcast %union.anon* %264 to i64*
  %265 = getelementptr inbounds %struct.State, %struct.State* %0, i32 0, i32 6
  %266 = getelementptr inbounds %struct.GPR, %struct.GPR* %265, i32 0, i32 9
  %267 = getelementptr inbounds %struct.Reg, %struct.Reg* %266, i32 0, i32 0
  %RSI.i = bitcast %union.anon* %267 to i64*
  %268 = getelementptr inbounds %struct.State, %struct.State* %0, i32 0, i32 6
  %269 = getelementptr inbounds %struct.GPR, %struct.GPR* %268, i32 0, i32 15
  %270 = getelementptr inbounds %struct.Reg, %struct.Reg* %269, i32 0, i32 0
  %RBP.i27 = bitcast %union.anon* %270 to i64*
  %271 = load i64, i64* %RBP.i27
  %272 = sub i64 %271, 24
  %273 = load i64, i64* %PC.i26
  %274 = add i64 %273, 3
  store i64 %274, i64* %PC.i26
  %275 = inttoptr i64 %272 to i32*
  %276 = load i32, i32* %275
  %277 = zext i32 %276 to i64
  store i64 %277, i64* %RSI.i, align 8
  store %struct.Memory* %loadMem_41080f, %struct.Memory** %MEMORY
  %loadMem_410812 = load %struct.Memory*, %struct.Memory** %MEMORY
  %278 = getelementptr inbounds %struct.State, %struct.State* %0, i32 0, i32 6
  %279 = getelementptr inbounds %struct.GPR, %struct.GPR* %278, i32 0, i32 33
  %280 = getelementptr inbounds %struct.Reg, %struct.Reg* %279, i32 0, i32 0
  %PC.i24 = bitcast %union.anon* %280 to i64*
  %281 = getelementptr inbounds %struct.State, %struct.State* %0, i32 0, i32 6
  %282 = getelementptr inbounds %struct.GPR, %struct.GPR* %281, i32 0, i32 9
  %283 = getelementptr inbounds %struct.Reg, %struct.Reg* %282, i32 0, i32 0
  %ESI.i = bitcast %union.anon* %283 to i32*
  %284 = load i32, i32* %ESI.i
  %285 = zext i32 %284 to i64
  %286 = load i64, i64* %PC.i24
  %287 = add i64 %286, 2
  store i64 %287, i64* %PC.i24
  %288 = getelementptr inbounds %struct.State, %struct.State* %0, i64 0, i32 6, i32 1, i32 0
  %289 = bitcast %union.anon* %288 to i32*
  %290 = load i32, i32* %289, align 8
  %291 = zext i32 %290 to i64
  %292 = getelementptr inbounds %struct.State, %struct.State* %0, i64 0, i32 6, i32 7, i32 0
  %293 = bitcast %union.anon* %292 to i32*
  %294 = load i32, i32* %293, align 8
  %295 = zext i32 %294 to i64
  %296 = shl i64 %285, 32
  %297 = ashr exact i64 %296, 32
  %298 = shl i64 %295, 32
  %299 = or i64 %298, %291
  %300 = sdiv i64 %299, %297
  %301 = shl i64 %300, 32
  %302 = ashr exact i64 %301, 32
  %303 = icmp eq i64 %300, %302
  br i1 %303, label %308, label %304

; <label>:304:                                    ; preds = %entry
  %305 = getelementptr inbounds %struct.State, %struct.State* %0, i64 0, i32 6, i32 33, i32 0, i32 0
  %306 = load i64, i64* %305, align 8
  %307 = call %struct.Memory* @__remill_error(%struct.State* nonnull dereferenceable(3376) %0, i64 %306, %struct.Memory* %loadMem_410812)
  br label %routine_idivl__esi.exit

; <label>:308:                                    ; preds = %entry
  %309 = srem i64 %299, %297
  %310 = getelementptr inbounds %union.anon, %union.anon* %288, i64 0, i32 0
  %311 = and i64 %300, 4294967295
  store i64 %311, i64* %310, align 8
  %312 = getelementptr inbounds %union.anon, %union.anon* %292, i64 0, i32 0
  %313 = and i64 %309, 4294967295
  store i64 %313, i64* %312, align 8
  %314 = getelementptr inbounds %struct.State, %struct.State* %0, i64 0, i32 2, i32 1
  store i8 0, i8* %314, align 1
  %315 = getelementptr inbounds %struct.State, %struct.State* %0, i64 0, i32 2, i32 3
  store i8 0, i8* %315, align 1
  %316 = getelementptr inbounds %struct.State, %struct.State* %0, i64 0, i32 2, i32 5
  store i8 0, i8* %316, align 1
  %317 = getelementptr inbounds %struct.State, %struct.State* %0, i64 0, i32 2, i32 7
  store i8 0, i8* %317, align 1
  %318 = getelementptr inbounds %struct.State, %struct.State* %0, i64 0, i32 2, i32 9
  store i8 0, i8* %318, align 1
  %319 = getelementptr inbounds %struct.State, %struct.State* %0, i64 0, i32 2, i32 13
  store i8 0, i8* %319, align 1
  br label %routine_idivl__esi.exit

routine_idivl__esi.exit:                          ; preds = %304, %308
  %320 = phi %struct.Memory* [ %307, %304 ], [ %loadMem_410812, %308 ]
  store %struct.Memory* %320, %struct.Memory** %MEMORY
  %loadMem_410814 = load %struct.Memory*, %struct.Memory** %MEMORY
  %321 = getelementptr inbounds %struct.State, %struct.State* %0, i32 0, i32 6
  %322 = getelementptr inbounds %struct.GPR, %struct.GPR* %321, i32 0, i32 33
  %323 = getelementptr inbounds %struct.Reg, %struct.Reg* %322, i32 0, i32 0
  %PC.i21 = bitcast %union.anon* %323 to i64*
  %324 = getelementptr inbounds %struct.State, %struct.State* %0, i32 0, i32 6
  %325 = getelementptr inbounds %struct.GPR, %struct.GPR* %324, i32 0, i32 11
  %326 = getelementptr inbounds %struct.Reg, %struct.Reg* %325, i32 0, i32 0
  %RDI.i22 = bitcast %union.anon* %326 to i64*
  %327 = getelementptr inbounds %struct.State, %struct.State* %0, i32 0, i32 6
  %328 = getelementptr inbounds %struct.GPR, %struct.GPR* %327, i32 0, i32 15
  %329 = getelementptr inbounds %struct.Reg, %struct.Reg* %328, i32 0, i32 0
  %RBP.i23 = bitcast %union.anon* %329 to i64*
  %330 = load i64, i64* %RBP.i23
  %331 = sub i64 %330, 16
  %332 = load i64, i64* %PC.i21
  %333 = add i64 %332, 4
  store i64 %333, i64* %PC.i21
  %334 = inttoptr i64 %331 to i16*
  %335 = load i16, i16* %334
  %336 = zext i16 %335 to i64
  store i64 %336, i64* %RDI.i22, align 8
  store %struct.Memory* %loadMem_410814, %struct.Memory** %MEMORY
  %loadMem_410818 = load %struct.Memory*, %struct.Memory** %MEMORY
  %337 = getelementptr inbounds %struct.State, %struct.State* %0, i32 0, i32 6
  %338 = getelementptr inbounds %struct.GPR, %struct.GPR* %337, i32 0, i32 33
  %339 = getelementptr inbounds %struct.Reg, %struct.Reg* %338, i32 0, i32 0
  %PC.i20 = bitcast %union.anon* %339 to i64*
  %340 = load i64, i64* %PC.i20
  %341 = add i64 %340, 1
  store i64 %341, i64* %PC.i20
  %342 = getelementptr inbounds %struct.State, %struct.State* %0, i64 0, i32 6, i32 7, i32 0, i32 0
  %343 = getelementptr inbounds %struct.State, %struct.State* %0, i64 0, i32 6, i32 1, i32 0
  %344 = bitcast %union.anon* %343 to i32*
  %345 = load i32, i32* %344, align 8
  %346 = sext i32 %345 to i64
  %347 = lshr i64 %346, 32
  store i64 %347, i64* %342, align 8
  store %struct.Memory* %loadMem_410818, %struct.Memory** %MEMORY
  %loadMem_410819 = load %struct.Memory*, %struct.Memory** %MEMORY
  %348 = getelementptr inbounds %struct.State, %struct.State* %0, i32 0, i32 6
  %349 = getelementptr inbounds %struct.GPR, %struct.GPR* %348, i32 0, i32 33
  %350 = getelementptr inbounds %struct.Reg, %struct.Reg* %349, i32 0, i32 0
  %PC.i15 = bitcast %union.anon* %350 to i64*
  %351 = getelementptr inbounds %struct.State, %struct.State* %0, i32 0, i32 6
  %352 = getelementptr inbounds %struct.GPR, %struct.GPR* %351, i32 0, i32 11
  %353 = getelementptr inbounds %struct.Reg, %struct.Reg* %352, i32 0, i32 0
  %EDI.i16 = bitcast %union.anon* %353 to i32*
  %354 = load i32, i32* %EDI.i16
  %355 = zext i32 %354 to i64
  %356 = load i64, i64* %PC.i15
  %357 = add i64 %356, 2
  store i64 %357, i64* %PC.i15
  %358 = getelementptr inbounds %struct.State, %struct.State* %0, i64 0, i32 6, i32 1, i32 0
  %359 = bitcast %union.anon* %358 to i32*
  %360 = load i32, i32* %359, align 8
  %361 = zext i32 %360 to i64
  %362 = getelementptr inbounds %struct.State, %struct.State* %0, i64 0, i32 6, i32 7, i32 0
  %363 = bitcast %union.anon* %362 to i32*
  %364 = load i32, i32* %363, align 8
  %365 = zext i32 %364 to i64
  %366 = shl i64 %355, 32
  %367 = ashr exact i64 %366, 32
  %368 = shl i64 %365, 32
  %369 = or i64 %368, %361
  %370 = sdiv i64 %369, %367
  %371 = shl i64 %370, 32
  %372 = ashr exact i64 %371, 32
  %373 = icmp eq i64 %370, %372
  br i1 %373, label %378, label %374

; <label>:374:                                    ; preds = %routine_idivl__esi.exit
  %375 = getelementptr inbounds %struct.State, %struct.State* %0, i64 0, i32 6, i32 33, i32 0, i32 0
  %376 = load i64, i64* %375, align 8
  %377 = call %struct.Memory* @__remill_error(%struct.State* nonnull dereferenceable(3376) %0, i64 %376, %struct.Memory* %loadMem_410819)
  br label %routine_idivl__edi.exit17

; <label>:378:                                    ; preds = %routine_idivl__esi.exit
  %379 = srem i64 %369, %367
  %380 = getelementptr inbounds %union.anon, %union.anon* %358, i64 0, i32 0
  %381 = and i64 %370, 4294967295
  store i64 %381, i64* %380, align 8
  %382 = getelementptr inbounds %union.anon, %union.anon* %362, i64 0, i32 0
  %383 = and i64 %379, 4294967295
  store i64 %383, i64* %382, align 8
  %384 = getelementptr inbounds %struct.State, %struct.State* %0, i64 0, i32 2, i32 1
  store i8 0, i8* %384, align 1
  %385 = getelementptr inbounds %struct.State, %struct.State* %0, i64 0, i32 2, i32 3
  store i8 0, i8* %385, align 1
  %386 = getelementptr inbounds %struct.State, %struct.State* %0, i64 0, i32 2, i32 5
  store i8 0, i8* %386, align 1
  %387 = getelementptr inbounds %struct.State, %struct.State* %0, i64 0, i32 2, i32 7
  store i8 0, i8* %387, align 1
  %388 = getelementptr inbounds %struct.State, %struct.State* %0, i64 0, i32 2, i32 9
  store i8 0, i8* %388, align 1
  %389 = getelementptr inbounds %struct.State, %struct.State* %0, i64 0, i32 2, i32 13
  store i8 0, i8* %389, align 1
  br label %routine_idivl__edi.exit17

routine_idivl__edi.exit17:                        ; preds = %374, %378
  %390 = phi %struct.Memory* [ %377, %374 ], [ %loadMem_410819, %378 ]
  store %struct.Memory* %390, %struct.Memory** %MEMORY
  %loadMem_41081b = load %struct.Memory*, %struct.Memory** %MEMORY
  %391 = getelementptr inbounds %struct.State, %struct.State* %0, i32 0, i32 6
  %392 = getelementptr inbounds %struct.GPR, %struct.GPR* %391, i32 0, i32 33
  %393 = getelementptr inbounds %struct.Reg, %struct.Reg* %392, i32 0, i32 0
  %PC.i13 = bitcast %union.anon* %393 to i64*
  %394 = getelementptr inbounds %struct.State, %struct.State* %0, i32 0, i32 6
  %395 = getelementptr inbounds %struct.GPR, %struct.GPR* %394, i32 0, i32 11
  %396 = getelementptr inbounds %struct.Reg, %struct.Reg* %395, i32 0, i32 0
  %RDI.i = bitcast %union.anon* %396 to i64*
  %397 = getelementptr inbounds %struct.State, %struct.State* %0, i32 0, i32 6
  %398 = getelementptr inbounds %struct.GPR, %struct.GPR* %397, i32 0, i32 15
  %399 = getelementptr inbounds %struct.Reg, %struct.Reg* %398, i32 0, i32 0
  %RBP.i14 = bitcast %union.anon* %399 to i64*
  %400 = load i64, i64* %RBP.i14
  %401 = sub i64 %400, 18
  %402 = load i64, i64* %PC.i13
  %403 = add i64 %402, 4
  store i64 %403, i64* %PC.i13
  %404 = inttoptr i64 %401 to i16*
  %405 = load i16, i16* %404
  %406 = zext i16 %405 to i64
  store i64 %406, i64* %RDI.i, align 8
  store %struct.Memory* %loadMem_41081b, %struct.Memory** %MEMORY
  %loadMem_41081f = load %struct.Memory*, %struct.Memory** %MEMORY
  %407 = getelementptr inbounds %struct.State, %struct.State* %0, i32 0, i32 6
  %408 = getelementptr inbounds %struct.GPR, %struct.GPR* %407, i32 0, i32 33
  %409 = getelementptr inbounds %struct.Reg, %struct.Reg* %408, i32 0, i32 0
  %PC.i12 = bitcast %union.anon* %409 to i64*
  %410 = load i64, i64* %PC.i12
  %411 = add i64 %410, 1
  store i64 %411, i64* %PC.i12
  %412 = getelementptr inbounds %struct.State, %struct.State* %0, i64 0, i32 6, i32 7, i32 0, i32 0
  %413 = getelementptr inbounds %struct.State, %struct.State* %0, i64 0, i32 6, i32 1, i32 0
  %414 = bitcast %union.anon* %413 to i32*
  %415 = load i32, i32* %414, align 8
  %416 = sext i32 %415 to i64
  %417 = lshr i64 %416, 32
  store i64 %417, i64* %412, align 8
  store %struct.Memory* %loadMem_41081f, %struct.Memory** %MEMORY
  %loadMem_410820 = load %struct.Memory*, %struct.Memory** %MEMORY
  %418 = getelementptr inbounds %struct.State, %struct.State* %0, i32 0, i32 6
  %419 = getelementptr inbounds %struct.GPR, %struct.GPR* %418, i32 0, i32 33
  %420 = getelementptr inbounds %struct.Reg, %struct.Reg* %419, i32 0, i32 0
  %PC.i9 = bitcast %union.anon* %420 to i64*
  %421 = getelementptr inbounds %struct.State, %struct.State* %0, i32 0, i32 6
  %422 = getelementptr inbounds %struct.GPR, %struct.GPR* %421, i32 0, i32 11
  %423 = getelementptr inbounds %struct.Reg, %struct.Reg* %422, i32 0, i32 0
  %EDI.i = bitcast %union.anon* %423 to i32*
  %424 = load i32, i32* %EDI.i
  %425 = zext i32 %424 to i64
  %426 = load i64, i64* %PC.i9
  %427 = add i64 %426, 2
  store i64 %427, i64* %PC.i9
  %428 = getelementptr inbounds %struct.State, %struct.State* %0, i64 0, i32 6, i32 1, i32 0
  %429 = bitcast %union.anon* %428 to i32*
  %430 = load i32, i32* %429, align 8
  %431 = zext i32 %430 to i64
  %432 = getelementptr inbounds %struct.State, %struct.State* %0, i64 0, i32 6, i32 7, i32 0
  %433 = bitcast %union.anon* %432 to i32*
  %434 = load i32, i32* %433, align 8
  %435 = zext i32 %434 to i64
  %436 = shl i64 %425, 32
  %437 = ashr exact i64 %436, 32
  %438 = shl i64 %435, 32
  %439 = or i64 %438, %431
  %440 = sdiv i64 %439, %437
  %441 = shl i64 %440, 32
  %442 = ashr exact i64 %441, 32
  %443 = icmp eq i64 %440, %442
  br i1 %443, label %448, label %444

; <label>:444:                                    ; preds = %routine_idivl__edi.exit17
  %445 = getelementptr inbounds %struct.State, %struct.State* %0, i64 0, i32 6, i32 33, i32 0, i32 0
  %446 = load i64, i64* %445, align 8
  %447 = call %struct.Memory* @__remill_error(%struct.State* nonnull dereferenceable(3376) %0, i64 %446, %struct.Memory* %loadMem_410820)
  br label %routine_idivl__edi.exit

; <label>:448:                                    ; preds = %routine_idivl__edi.exit17
  %449 = srem i64 %439, %437
  %450 = getelementptr inbounds %union.anon, %union.anon* %428, i64 0, i32 0
  %451 = and i64 %440, 4294967295
  store i64 %451, i64* %450, align 8
  %452 = getelementptr inbounds %union.anon, %union.anon* %432, i64 0, i32 0
  %453 = and i64 %449, 4294967295
  store i64 %453, i64* %452, align 8
  %454 = getelementptr inbounds %struct.State, %struct.State* %0, i64 0, i32 2, i32 1
  store i8 0, i8* %454, align 1
  %455 = getelementptr inbounds %struct.State, %struct.State* %0, i64 0, i32 2, i32 3
  store i8 0, i8* %455, align 1
  %456 = getelementptr inbounds %struct.State, %struct.State* %0, i64 0, i32 2, i32 5
  store i8 0, i8* %456, align 1
  %457 = getelementptr inbounds %struct.State, %struct.State* %0, i64 0, i32 2, i32 7
  store i8 0, i8* %457, align 1
  %458 = getelementptr inbounds %struct.State, %struct.State* %0, i64 0, i32 2, i32 9
  store i8 0, i8* %458, align 1
  %459 = getelementptr inbounds %struct.State, %struct.State* %0, i64 0, i32 2, i32 13
  store i8 0, i8* %459, align 1
  br label %routine_idivl__edi.exit

routine_idivl__edi.exit:                          ; preds = %444, %448
  %460 = phi %struct.Memory* [ %447, %444 ], [ %loadMem_410820, %448 ]
  store %struct.Memory* %460, %struct.Memory** %MEMORY
  %loadMem_410822 = load %struct.Memory*, %struct.Memory** %MEMORY
  %461 = getelementptr inbounds %struct.State, %struct.State* %0, i32 0, i32 6
  %462 = getelementptr inbounds %struct.GPR, %struct.GPR* %461, i32 0, i32 33
  %463 = getelementptr inbounds %struct.Reg, %struct.Reg* %462, i32 0, i32 0
  %PC.i8 = bitcast %union.anon* %463 to i64*
  %464 = getelementptr inbounds %struct.State, %struct.State* %0, i32 0, i32 6
  %465 = getelementptr inbounds %struct.GPR, %struct.GPR* %464, i32 0, i32 1
  %466 = getelementptr inbounds %struct.Reg, %struct.Reg* %465, i32 0, i32 0
  %EAX.i = bitcast %union.anon* %466 to i32*
  %467 = getelementptr inbounds %struct.State, %struct.State* %0, i32 0, i32 6
  %468 = getelementptr inbounds %struct.GPR, %struct.GPR* %467, i32 0, i32 5
  %469 = getelementptr inbounds %struct.Reg, %struct.Reg* %468, i32 0, i32 0
  %RCX.i = bitcast %union.anon* %469 to i64*
  %470 = load i64, i64* %RCX.i
  %471 = load i32, i32* %EAX.i
  %472 = zext i32 %471 to i64
  %473 = load i64, i64* %PC.i8
  %474 = add i64 %473, 2
  store i64 %474, i64* %PC.i8
  %475 = trunc i64 %470 to i32
  %476 = add i32 %471, %475
  %477 = zext i32 %476 to i64
  store i64 %477, i64* %RCX.i, align 8
  %478 = icmp ult i32 %476, %475
  %479 = icmp ult i32 %476, %471
  %480 = or i1 %478, %479
  %481 = zext i1 %480 to i8
  %482 = getelementptr inbounds %struct.State, %struct.State* %0, i64 0, i32 2, i32 1
  store i8 %481, i8* %482, align 1
  %483 = and i32 %476, 255
  %484 = call i32 @llvm.ctpop.i32(i32 %483)
  %485 = trunc i32 %484 to i8
  %486 = and i8 %485, 1
  %487 = xor i8 %486, 1
  %488 = getelementptr inbounds %struct.State, %struct.State* %0, i64 0, i32 2, i32 3
  store i8 %487, i8* %488, align 1
  %489 = xor i64 %472, %470
  %490 = trunc i64 %489 to i32
  %491 = xor i32 %490, %476
  %492 = lshr i32 %491, 4
  %493 = trunc i32 %492 to i8
  %494 = and i8 %493, 1
  %495 = getelementptr inbounds %struct.State, %struct.State* %0, i64 0, i32 2, i32 5
  store i8 %494, i8* %495, align 1
  %496 = icmp eq i32 %476, 0
  %497 = zext i1 %496 to i8
  %498 = getelementptr inbounds %struct.State, %struct.State* %0, i64 0, i32 2, i32 7
  store i8 %497, i8* %498, align 1
  %499 = lshr i32 %476, 31
  %500 = trunc i32 %499 to i8
  %501 = getelementptr inbounds %struct.State, %struct.State* %0, i64 0, i32 2, i32 9
  store i8 %500, i8* %501, align 1
  %502 = lshr i32 %475, 31
  %503 = lshr i32 %471, 31
  %504 = xor i32 %499, %502
  %505 = xor i32 %499, %503
  %506 = add i32 %504, %505
  %507 = icmp eq i32 %506, 2
  %508 = zext i1 %507 to i8
  %509 = getelementptr inbounds %struct.State, %struct.State* %0, i64 0, i32 2, i32 13
  store i8 %508, i8* %509, align 1
  store %struct.Memory* %loadMem_410822, %struct.Memory** %MEMORY
  %loadMem_410824 = load %struct.Memory*, %struct.Memory** %MEMORY
  %510 = getelementptr inbounds %struct.State, %struct.State* %0, i32 0, i32 6
  %511 = getelementptr inbounds %struct.GPR, %struct.GPR* %510, i32 0, i32 33
  %512 = getelementptr inbounds %struct.Reg, %struct.Reg* %511, i32 0, i32 0
  %PC.i6 = bitcast %union.anon* %512 to i64*
  %513 = getelementptr inbounds %struct.State, %struct.State* %0, i32 0, i32 6
  %514 = getelementptr inbounds %struct.GPR, %struct.GPR* %513, i32 0, i32 5
  %515 = getelementptr inbounds %struct.Reg, %struct.Reg* %514, i32 0, i32 0
  %CX.i = bitcast %union.anon* %515 to i16*
  %516 = getelementptr inbounds %struct.State, %struct.State* %0, i32 0, i32 6
  %517 = getelementptr inbounds %struct.GPR, %struct.GPR* %516, i32 0, i32 19
  %518 = getelementptr inbounds %struct.Reg, %struct.Reg* %517, i32 0, i32 0
  %R9W.i7 = bitcast %union.anon* %518 to i16*
  %519 = load i16, i16* %CX.i
  %520 = zext i16 %519 to i64
  %521 = load i64, i64* %PC.i6
  %522 = add i64 %521, 4
  store i64 %522, i64* %PC.i6
  store i16 %519, i16* %R9W.i7, align 2
  store %struct.Memory* %loadMem_410824, %struct.Memory** %MEMORY
  %loadMem_410828 = load %struct.Memory*, %struct.Memory** %MEMORY
  %523 = getelementptr inbounds %struct.State, %struct.State* %0, i32 0, i32 6
  %524 = getelementptr inbounds %struct.GPR, %struct.GPR* %523, i32 0, i32 33
  %525 = getelementptr inbounds %struct.Reg, %struct.Reg* %524, i32 0, i32 0
  %PC.i5 = bitcast %union.anon* %525 to i64*
  %526 = getelementptr inbounds %struct.State, %struct.State* %0, i32 0, i32 6
  %527 = getelementptr inbounds %struct.GPR, %struct.GPR* %526, i32 0, i32 19
  %528 = getelementptr inbounds %struct.Reg, %struct.Reg* %527, i32 0, i32 0
  %R9W.i = bitcast %union.anon* %528 to i16*
  %529 = getelementptr inbounds %struct.State, %struct.State* %0, i32 0, i32 6
  %530 = getelementptr inbounds %struct.GPR, %struct.GPR* %529, i32 0, i32 1
  %531 = getelementptr inbounds %struct.Reg, %struct.Reg* %530, i32 0, i32 0
  %RAX.i = bitcast %union.anon* %531 to i64*
  %532 = load i16, i16* %R9W.i
  %533 = zext i16 %532 to i64
  %534 = load i64, i64* %PC.i5
  %535 = add i64 %534, 4
  store i64 %535, i64* %PC.i5
  %536 = and i64 %533, 65535
  store i64 %536, i64* %RAX.i, align 8
  store %struct.Memory* %loadMem_410828, %struct.Memory** %MEMORY
  %loadMem_41082c = load %struct.Memory*, %struct.Memory** %MEMORY
  %537 = getelementptr inbounds %struct.State, %struct.State* %0, i32 0, i32 6
  %538 = getelementptr inbounds %struct.GPR, %struct.GPR* %537, i32 0, i32 33
  %539 = getelementptr inbounds %struct.Reg, %struct.Reg* %538, i32 0, i32 0
  %PC.i4 = bitcast %union.anon* %539 to i64*
  %540 = getelementptr inbounds %struct.State, %struct.State* %0, i32 0, i32 6
  %541 = getelementptr inbounds %struct.GPR, %struct.GPR* %540, i32 0, i32 3
  %542 = getelementptr inbounds %struct.Reg, %struct.Reg* %541, i32 0, i32 0
  %RBX.i = bitcast %union.anon* %542 to i64*
  %543 = load i64, i64* %PC.i4
  %544 = add i64 %543, 1
  store i64 %544, i64* %PC.i4
  %545 = getelementptr inbounds %struct.State, %struct.State* %0, i64 0, i32 6, i32 13, i32 0, i32 0
  %546 = load i64, i64* %545, align 8
  %547 = add i64 %546, 8
  %548 = inttoptr i64 %546 to i64*
  %549 = load i64, i64* %548
  store i64 %549, i64* %RBX.i, align 8
  store i64 %547, i64* %545, align 8
  store %struct.Memory* %loadMem_41082c, %struct.Memory** %MEMORY
  %loadMem_41082d = load %struct.Memory*, %struct.Memory** %MEMORY
  %550 = getelementptr inbounds %struct.State, %struct.State* %0, i32 0, i32 6
  %551 = getelementptr inbounds %struct.GPR, %struct.GPR* %550, i32 0, i32 33
  %552 = getelementptr inbounds %struct.Reg, %struct.Reg* %551, i32 0, i32 0
  %PC.i2 = bitcast %union.anon* %552 to i64*
  %553 = getelementptr inbounds %struct.State, %struct.State* %0, i32 0, i32 6
  %554 = getelementptr inbounds %struct.GPR, %struct.GPR* %553, i32 0, i32 15
  %555 = getelementptr inbounds %struct.Reg, %struct.Reg* %554, i32 0, i32 0
  %RBP.i3 = bitcast %union.anon* %555 to i64*
  %556 = load i64, i64* %PC.i2
  %557 = add i64 %556, 1
  store i64 %557, i64* %PC.i2
  %558 = getelementptr inbounds %struct.State, %struct.State* %0, i64 0, i32 6, i32 13, i32 0, i32 0
  %559 = load i64, i64* %558, align 8
  %560 = add i64 %559, 8
  %561 = inttoptr i64 %559 to i64*
  %562 = load i64, i64* %561
  store i64 %562, i64* %RBP.i3, align 8
  store i64 %560, i64* %558, align 8
  store %struct.Memory* %loadMem_41082d, %struct.Memory** %MEMORY
  %loadMem_41082e = load %struct.Memory*, %struct.Memory** %MEMORY
  %563 = getelementptr inbounds %struct.State, %struct.State* %0, i32 0, i32 6
  %564 = getelementptr inbounds %struct.GPR, %struct.GPR* %563, i32 0, i32 33
  %565 = getelementptr inbounds %struct.Reg, %struct.Reg* %564, i32 0, i32 0
  %PC.i1 = bitcast %union.anon* %565 to i64*
  %566 = load i64, i64* %PC.i1
  %567 = add i64 %566, 1
  store i64 %567, i64* %PC.i1
  %568 = getelementptr inbounds %struct.State, %struct.State* %0, i64 0, i32 6, i32 33, i32 0, i32 0
  %569 = getelementptr inbounds %struct.State, %struct.State* %0, i64 0, i32 6, i32 13, i32 0, i32 0
  %570 = load i64, i64* %569, align 8
  %571 = inttoptr i64 %570 to i64*
  %572 = load i64, i64* %571
  store i64 %572, i64* %568, align 8
  %573 = add i64 %570, 8
  store i64 %573, i64* %569, align 8
  store %struct.Memory* %loadMem_41082e, %struct.Memory** %MEMORY
  ret %struct.Memory* %loadMem_41082e
}

define %struct.Memory* @routine_pushq__rbp(%struct.State* dereferenceable(3376), i64, %struct.Memory*) {
block_400478:
  %3 = getelementptr inbounds %struct.State, %struct.State* %0, i32 0, i32 6
  %4 = getelementptr inbounds %struct.GPR, %struct.GPR* %3, i32 0, i32 33
  %5 = getelementptr inbounds %struct.Reg, %struct.Reg* %4, i32 0, i32 0
  %PC = bitcast %union.anon* %5 to i64*
  %6 = getelementptr inbounds %struct.State, %struct.State* %0, i32 0, i32 6
  %7 = getelementptr inbounds %struct.GPR, %struct.GPR* %6, i32 0, i32 15
  %8 = getelementptr inbounds %struct.Reg, %struct.Reg* %7, i32 0, i32 0
  %RBP = bitcast %union.anon* %8 to i64*
  %9 = load i64, i64* %RBP
  %10 = load i64, i64* %PC
  %11 = add i64 %10, 1
  store i64 %11, i64* %PC
  %12 = getelementptr inbounds %struct.State, %struct.State* %0, i64 0, i32 6, i32 13, i32 0, i32 0
  %13 = load i64, i64* %12, align 8
  %14 = add i64 %13, -8
  %15 = inttoptr i64 %14 to i64*
  store i64 %9, i64* %15
  store i64 %14, i64* %12, align 8
  ret %struct.Memory* %2
}

define %struct.Memory* @routine_movq__rsp___rbp(%struct.State* dereferenceable(3376), i64, %struct.Memory*) {
block_400478:
  %3 = getelementptr inbounds %struct.State, %struct.State* %0, i32 0, i32 6
  %4 = getelementptr inbounds %struct.GPR, %struct.GPR* %3, i32 0, i32 33
  %5 = getelementptr inbounds %struct.Reg, %struct.Reg* %4, i32 0, i32 0
  %PC = bitcast %union.anon* %5 to i64*
  %6 = getelementptr inbounds %struct.State, %struct.State* %0, i32 0, i32 6
  %7 = getelementptr inbounds %struct.GPR, %struct.GPR* %6, i32 0, i32 13
  %8 = getelementptr inbounds %struct.Reg, %struct.Reg* %7, i32 0, i32 0
  %RSP = bitcast %union.anon* %8 to i64*
  %9 = getelementptr inbounds %struct.State, %struct.State* %0, i32 0, i32 6
  %10 = getelementptr inbounds %struct.GPR, %struct.GPR* %9, i32 0, i32 15
  %11 = getelementptr inbounds %struct.Reg, %struct.Reg* %10, i32 0, i32 0
  %RBP = bitcast %union.anon* %11 to i64*
  %12 = load i64, i64* %RSP
  %13 = load i64, i64* %PC
  %14 = add i64 %13, 3
  store i64 %14, i64* %PC
  store i64 %12, i64* %RBP, align 8
  ret %struct.Memory* %2
}

define %struct.Memory* @routine_pushq__rbx(%struct.State* dereferenceable(3376), i64, %struct.Memory*) {
block_400478:
  %3 = getelementptr inbounds %struct.State, %struct.State* %0, i32 0, i32 6
  %4 = getelementptr inbounds %struct.GPR, %struct.GPR* %3, i32 0, i32 33
  %5 = getelementptr inbounds %struct.Reg, %struct.Reg* %4, i32 0, i32 0
  %PC = bitcast %union.anon* %5 to i64*
  %6 = getelementptr inbounds %struct.State, %struct.State* %0, i32 0, i32 6
  %7 = getelementptr inbounds %struct.GPR, %struct.GPR* %6, i32 0, i32 3
  %8 = getelementptr inbounds %struct.Reg, %struct.Reg* %7, i32 0, i32 0
  %RBX = bitcast %union.anon* %8 to i64*
  %9 = load i64, i64* %RBX
  %10 = load i64, i64* %PC
  %11 = add i64 %10, 1
  store i64 %11, i64* %PC
  %12 = getelementptr inbounds %struct.State, %struct.State* %0, i64 0, i32 6, i32 13, i32 0, i32 0
  %13 = load i64, i64* %12, align 8
  %14 = add i64 %13, -8
  %15 = inttoptr i64 %14 to i64*
  store i64 %9, i64* %15
  store i64 %14, i64* %12, align 8
  ret %struct.Memory* %2
}

define %struct.Memory* @routine_movw__r8w___ax(%struct.State* dereferenceable(3376), i64, %struct.Memory*) {
block_400478:
  %3 = getelementptr inbounds %struct.State, %struct.State* %0, i32 0, i32 6
  %4 = getelementptr inbounds %struct.GPR, %struct.GPR* %3, i32 0, i32 33
  %5 = getelementptr inbounds %struct.Reg, %struct.Reg* %4, i32 0, i32 0
  %PC = bitcast %union.anon* %5 to i64*
  %6 = getelementptr inbounds %struct.State, %struct.State* %0, i32 0, i32 6
  %7 = getelementptr inbounds %struct.GPR, %struct.GPR* %6, i32 0, i32 1
  %8 = getelementptr inbounds %struct.Reg, %struct.Reg* %7, i32 0, i32 0
  %AX = bitcast %union.anon* %8 to i16*
  %9 = getelementptr inbounds %struct.State, %struct.State* %0, i32 0, i32 6
  %10 = getelementptr inbounds %struct.GPR, %struct.GPR* %9, i32 0, i32 17
  %11 = getelementptr inbounds %struct.Reg, %struct.Reg* %10, i32 0, i32 0
  %R8W = bitcast %union.anon* %11 to i16*
  %12 = load i16, i16* %R8W
  %13 = zext i16 %12 to i64
  %14 = load i64, i64* %PC
  %15 = add i64 %14, 4
  store i64 %15, i64* %PC
  store i16 %12, i16* %AX, align 2
  ret %struct.Memory* %2
}

define %struct.Memory* @routine_movw__cx___r9w(%struct.State* dereferenceable(3376), i64, %struct.Memory*) {
block_400478:
  %3 = getelementptr inbounds %struct.State, %struct.State* %0, i32 0, i32 6
  %4 = getelementptr inbounds %struct.GPR, %struct.GPR* %3, i32 0, i32 33
  %5 = getelementptr inbounds %struct.Reg, %struct.Reg* %4, i32 0, i32 0
  %PC = bitcast %union.anon* %5 to i64*
  %6 = getelementptr inbounds %struct.State, %struct.State* %0, i32 0, i32 6
  %7 = getelementptr inbounds %struct.GPR, %struct.GPR* %6, i32 0, i32 5
  %8 = getelementptr inbounds %struct.Reg, %struct.Reg* %7, i32 0, i32 0
  %CX = bitcast %union.anon* %8 to i16*
  %9 = getelementptr inbounds %struct.State, %struct.State* %0, i32 0, i32 6
  %10 = getelementptr inbounds %struct.GPR, %struct.GPR* %9, i32 0, i32 19
  %11 = getelementptr inbounds %struct.Reg, %struct.Reg* %10, i32 0, i32 0
  %R9W = bitcast %union.anon* %11 to i16*
  %12 = load i16, i16* %CX
  %13 = zext i16 %12 to i64
  %14 = load i64, i64* %PC
  %15 = add i64 %14, 4
  store i64 %15, i64* %PC
  store i16 %12, i16* %R9W, align 2
  ret %struct.Memory* %2
}

define %struct.Memory* @routine_movw__dx___r10w(%struct.State* dereferenceable(3376), i64, %struct.Memory*) {
block_400478:
  %3 = getelementptr inbounds %struct.State, %struct.State* %0, i32 0, i32 6
  %4 = getelementptr inbounds %struct.GPR, %struct.GPR* %3, i32 0, i32 33
  %5 = getelementptr inbounds %struct.Reg, %struct.Reg* %4, i32 0, i32 0
  %PC = bitcast %union.anon* %5 to i64*
  %6 = getelementptr inbounds %struct.State, %struct.State* %0, i32 0, i32 6
  %7 = getelementptr inbounds %struct.GPR, %struct.GPR* %6, i32 0, i32 7
  %8 = getelementptr inbounds %struct.Reg, %struct.Reg* %7, i32 0, i32 0
  %DX = bitcast %union.anon* %8 to i16*
  %9 = getelementptr inbounds %struct.State, %struct.State* %0, i32 0, i32 6
  %10 = getelementptr inbounds %struct.GPR, %struct.GPR* %9, i32 0, i32 21
  %11 = getelementptr inbounds %struct.Reg, %struct.Reg* %10, i32 0, i32 0
  %R10W = bitcast %union.anon* %11 to i16*
  %12 = load i16, i16* %DX
  %13 = zext i16 %12 to i64
  %14 = load i64, i64* %PC
  %15 = add i64 %14, 4
  store i64 %15, i64* %PC
  store i16 %12, i16* %R10W, align 2
  ret %struct.Memory* %2
}

define %struct.Memory* @routine_movw__si___r11w(%struct.State* dereferenceable(3376), i64, %struct.Memory*) {
block_400478:
  %3 = getelementptr inbounds %struct.State, %struct.State* %0, i32 0, i32 6
  %4 = getelementptr inbounds %struct.GPR, %struct.GPR* %3, i32 0, i32 33
  %5 = getelementptr inbounds %struct.Reg, %struct.Reg* %4, i32 0, i32 0
  %PC = bitcast %union.anon* %5 to i64*
  %6 = getelementptr inbounds %struct.State, %struct.State* %0, i32 0, i32 6
  %7 = getelementptr inbounds %struct.GPR, %struct.GPR* %6, i32 0, i32 9
  %8 = getelementptr inbounds %struct.Reg, %struct.Reg* %7, i32 0, i32 0
  %SI = bitcast %union.anon* %8 to i16*
  %9 = getelementptr inbounds %struct.State, %struct.State* %0, i32 0, i32 6
  %10 = getelementptr inbounds %struct.GPR, %struct.GPR* %9, i32 0, i32 23
  %11 = getelementptr inbounds %struct.Reg, %struct.Reg* %10, i32 0, i32 0
  %R11W = bitcast %union.anon* %11 to i16*
  %12 = load i16, i16* %SI
  %13 = zext i16 %12 to i64
  %14 = load i64, i64* %PC
  %15 = add i64 %14, 4
  store i64 %15, i64* %PC
  store i16 %12, i16* %R11W, align 2
  ret %struct.Memory* %2
}

define %struct.Memory* @routine_movw__di___bx(%struct.State* dereferenceable(3376), i64, %struct.Memory*) {
block_400478:
  %3 = getelementptr inbounds %struct.State, %struct.State* %0, i32 0, i32 6
  %4 = getelementptr inbounds %struct.GPR, %struct.GPR* %3, i32 0, i32 33
  %5 = getelementptr inbounds %struct.Reg, %struct.Reg* %4, i32 0, i32 0
  %PC = bitcast %union.anon* %5 to i64*
  %6 = getelementptr inbounds %struct.State, %struct.State* %0, i32 0, i32 6
  %7 = getelementptr inbounds %struct.GPR, %struct.GPR* %6, i32 0, i32 3
  %8 = getelementptr inbounds %struct.Reg, %struct.Reg* %7, i32 0, i32 0
  %BX = bitcast %union.anon* %8 to i16*
  %9 = getelementptr inbounds %struct.State, %struct.State* %0, i32 0, i32 6
  %10 = getelementptr inbounds %struct.GPR, %struct.GPR* %9, i32 0, i32 11
  %11 = getelementptr inbounds %struct.Reg, %struct.Reg* %10, i32 0, i32 0
  %DI = bitcast %union.anon* %11 to i16*
  %12 = load i16, i16* %DI
  %13 = zext i16 %12 to i64
  %14 = load i64, i64* %PC
  %15 = add i64 %14, 3
  store i64 %15, i64* %PC
  store i16 %12, i16* %BX, align 2
  ret %struct.Memory* %2
}

define %struct.Memory* @routine_movw__bx__MINUS0xa__rbp_(%struct.State* dereferenceable(3376), i64, %struct.Memory*) {
block_400478:
  %3 = getelementptr inbounds %struct.State, %struct.State* %0, i32 0, i32 6
  %4 = getelementptr inbounds %struct.GPR, %struct.GPR* %3, i32 0, i32 33
  %5 = getelementptr inbounds %struct.Reg, %struct.Reg* %4, i32 0, i32 0
  %PC = bitcast %union.anon* %5 to i64*
  %6 = getelementptr inbounds %struct.State, %struct.State* %0, i32 0, i32 6
  %7 = getelementptr inbounds %struct.GPR, %struct.GPR* %6, i32 0, i32 3
  %8 = getelementptr inbounds %struct.Reg, %struct.Reg* %7, i32 0, i32 0
  %BX = bitcast %union.anon* %8 to i16*
  %9 = getelementptr inbounds %struct.State, %struct.State* %0, i32 0, i32 6
  %10 = getelementptr inbounds %struct.GPR, %struct.GPR* %9, i32 0, i32 15
  %11 = getelementptr inbounds %struct.Reg, %struct.Reg* %10, i32 0, i32 0
  %RBP = bitcast %union.anon* %11 to i64*
  %12 = load i64, i64* %RBP
  %13 = sub i64 %12, 10
  %14 = load i16, i16* %BX
  %15 = zext i16 %14 to i64
  %16 = load i64, i64* %PC
  %17 = add i64 %16, 4
  store i64 %17, i64* %PC
  %18 = inttoptr i64 %13 to i16*
  store i16 %14, i16* %18
  ret %struct.Memory* %2
}

define %struct.Memory* @routine_movw__r11w__MINUS0xc__rbp_(%struct.State* dereferenceable(3376), i64, %struct.Memory*) {
block_400478:
  %3 = getelementptr inbounds %struct.State, %struct.State* %0, i32 0, i32 6
  %4 = getelementptr inbounds %struct.GPR, %struct.GPR* %3, i32 0, i32 33
  %5 = getelementptr inbounds %struct.Reg, %struct.Reg* %4, i32 0, i32 0
  %PC = bitcast %union.anon* %5 to i64*
  %6 = getelementptr inbounds %struct.State, %struct.State* %0, i32 0, i32 6
  %7 = getelementptr inbounds %struct.GPR, %struct.GPR* %6, i32 0, i32 23
  %8 = getelementptr inbounds %struct.Reg, %struct.Reg* %7, i32 0, i32 0
  %R11W = bitcast %union.anon* %8 to i16*
  %9 = getelementptr inbounds %struct.State, %struct.State* %0, i32 0, i32 6
  %10 = getelementptr inbounds %struct.GPR, %struct.GPR* %9, i32 0, i32 15
  %11 = getelementptr inbounds %struct.Reg, %struct.Reg* %10, i32 0, i32 0
  %RBP = bitcast %union.anon* %11 to i64*
  %12 = load i64, i64* %RBP
  %13 = sub i64 %12, 12
  %14 = load i16, i16* %R11W
  %15 = zext i16 %14 to i64
  %16 = load i64, i64* %PC
  %17 = add i64 %16, 5
  store i64 %17, i64* %PC
  %18 = inttoptr i64 %13 to i16*
  store i16 %14, i16* %18
  ret %struct.Memory* %2
}

define %struct.Memory* @routine_movw__r10w__MINUS0xe__rbp_(%struct.State* dereferenceable(3376), i64, %struct.Memory*) {
block_400478:
  %3 = getelementptr inbounds %struct.State, %struct.State* %0, i32 0, i32 6
  %4 = getelementptr inbounds %struct.GPR, %struct.GPR* %3, i32 0, i32 33
  %5 = getelementptr inbounds %struct.Reg, %struct.Reg* %4, i32 0, i32 0
  %PC = bitcast %union.anon* %5 to i64*
  %6 = getelementptr inbounds %struct.State, %struct.State* %0, i32 0, i32 6
  %7 = getelementptr inbounds %struct.GPR, %struct.GPR* %6, i32 0, i32 21
  %8 = getelementptr inbounds %struct.Reg, %struct.Reg* %7, i32 0, i32 0
  %R10W = bitcast %union.anon* %8 to i16*
  %9 = getelementptr inbounds %struct.State, %struct.State* %0, i32 0, i32 6
  %10 = getelementptr inbounds %struct.GPR, %struct.GPR* %9, i32 0, i32 15
  %11 = getelementptr inbounds %struct.Reg, %struct.Reg* %10, i32 0, i32 0
  %RBP = bitcast %union.anon* %11 to i64*
  %12 = load i64, i64* %RBP
  %13 = sub i64 %12, 14
  %14 = load i16, i16* %R10W
  %15 = zext i16 %14 to i64
  %16 = load i64, i64* %PC
  %17 = add i64 %16, 5
  store i64 %17, i64* %PC
  %18 = inttoptr i64 %13 to i16*
  store i16 %14, i16* %18
  ret %struct.Memory* %2
}

define %struct.Memory* @routine_movw__r9w__MINUS0x10__rbp_(%struct.State* dereferenceable(3376), i64, %struct.Memory*) {
block_400478:
  %3 = getelementptr inbounds %struct.State, %struct.State* %0, i32 0, i32 6
  %4 = getelementptr inbounds %struct.GPR, %struct.GPR* %3, i32 0, i32 33
  %5 = getelementptr inbounds %struct.Reg, %struct.Reg* %4, i32 0, i32 0
  %PC = bitcast %union.anon* %5 to i64*
  %6 = getelementptr inbounds %struct.State, %struct.State* %0, i32 0, i32 6
  %7 = getelementptr inbounds %struct.GPR, %struct.GPR* %6, i32 0, i32 19
  %8 = getelementptr inbounds %struct.Reg, %struct.Reg* %7, i32 0, i32 0
  %R9W = bitcast %union.anon* %8 to i16*
  %9 = getelementptr inbounds %struct.State, %struct.State* %0, i32 0, i32 6
  %10 = getelementptr inbounds %struct.GPR, %struct.GPR* %9, i32 0, i32 15
  %11 = getelementptr inbounds %struct.Reg, %struct.Reg* %10, i32 0, i32 0
  %RBP = bitcast %union.anon* %11 to i64*
  %12 = load i64, i64* %RBP
  %13 = sub i64 %12, 16
  %14 = load i16, i16* %R9W
  %15 = zext i16 %14 to i64
  %16 = load i64, i64* %PC
  %17 = add i64 %16, 5
  store i64 %17, i64* %PC
  %18 = inttoptr i64 %13 to i16*
  store i16 %14, i16* %18
  ret %struct.Memory* %2
}

define %struct.Memory* @routine_movw__ax__MINUS0x12__rbp_(%struct.State* dereferenceable(3376), i64, %struct.Memory*) {
block_400478:
  %3 = getelementptr inbounds %struct.State, %struct.State* %0, i32 0, i32 6
  %4 = getelementptr inbounds %struct.GPR, %struct.GPR* %3, i32 0, i32 33
  %5 = getelementptr inbounds %struct.Reg, %struct.Reg* %4, i32 0, i32 0
  %PC = bitcast %union.anon* %5 to i64*
  %6 = getelementptr inbounds %struct.State, %struct.State* %0, i32 0, i32 6
  %7 = getelementptr inbounds %struct.GPR, %struct.GPR* %6, i32 0, i32 1
  %8 = getelementptr inbounds %struct.Reg, %struct.Reg* %7, i32 0, i32 0
  %AX = bitcast %union.anon* %8 to i16*
  %9 = getelementptr inbounds %struct.State, %struct.State* %0, i32 0, i32 6
  %10 = getelementptr inbounds %struct.GPR, %struct.GPR* %9, i32 0, i32 15
  %11 = getelementptr inbounds %struct.Reg, %struct.Reg* %10, i32 0, i32 0
  %RBP = bitcast %union.anon* %11 to i64*
  %12 = load i64, i64* %RBP
  %13 = sub i64 %12, 18
  %14 = load i16, i16* %AX
  %15 = zext i16 %14 to i64
  %16 = load i64, i64* %PC
  %17 = add i64 %16, 4
  store i64 %17, i64* %PC
  %18 = inttoptr i64 %13 to i16*
  store i16 %14, i16* %18
  ret %struct.Memory* %2
}

define %struct.Memory* @routine_movzwl_MINUS0xa__rbp____ecx(%struct.State* dereferenceable(3376), i64, %struct.Memory*) {
block_400478:
  %3 = getelementptr inbounds %struct.State, %struct.State* %0, i32 0, i32 6
  %4 = getelementptr inbounds %struct.GPR, %struct.GPR* %3, i32 0, i32 33
  %5 = getelementptr inbounds %struct.Reg, %struct.Reg* %4, i32 0, i32 0
  %PC = bitcast %union.anon* %5 to i64*
  %6 = getelementptr inbounds %struct.State, %struct.State* %0, i32 0, i32 6
  %7 = getelementptr inbounds %struct.GPR, %struct.GPR* %6, i32 0, i32 5
  %8 = getelementptr inbounds %struct.Reg, %struct.Reg* %7, i32 0, i32 0
  %RCX = bitcast %union.anon* %8 to i64*
  %9 = getelementptr inbounds %struct.State, %struct.State* %0, i32 0, i32 6
  %10 = getelementptr inbounds %struct.GPR, %struct.GPR* %9, i32 0, i32 15
  %11 = getelementptr inbounds %struct.Reg, %struct.Reg* %10, i32 0, i32 0
  %RBP = bitcast %union.anon* %11 to i64*
  %12 = load i64, i64* %RBP
  %13 = sub i64 %12, 10
  %14 = load i64, i64* %PC
  %15 = add i64 %14, 4
  store i64 %15, i64* %PC
  %16 = inttoptr i64 %13 to i16*
  %17 = load i16, i16* %16
  %18 = zext i16 %17 to i64
  store i64 %18, i64* %RCX, align 8
  ret %struct.Memory* %2
}

define %struct.Memory* @routine_movzwl_MINUS0xc__rbp____eax(%struct.State* dereferenceable(3376), i64, %struct.Memory*) {
block_400478:
  %3 = getelementptr inbounds %struct.State, %struct.State* %0, i32 0, i32 6
  %4 = getelementptr inbounds %struct.GPR, %struct.GPR* %3, i32 0, i32 33
  %5 = getelementptr inbounds %struct.Reg, %struct.Reg* %4, i32 0, i32 0
  %PC = bitcast %union.anon* %5 to i64*
  %6 = getelementptr inbounds %struct.State, %struct.State* %0, i32 0, i32 6
  %7 = getelementptr inbounds %struct.GPR, %struct.GPR* %6, i32 0, i32 1
  %8 = getelementptr inbounds %struct.Reg, %struct.Reg* %7, i32 0, i32 0
  %RAX = bitcast %union.anon* %8 to i64*
  %9 = getelementptr inbounds %struct.State, %struct.State* %0, i32 0, i32 6
  %10 = getelementptr inbounds %struct.GPR, %struct.GPR* %9, i32 0, i32 15
  %11 = getelementptr inbounds %struct.Reg, %struct.Reg* %10, i32 0, i32 0
  %RBP = bitcast %union.anon* %11 to i64*
  %12 = load i64, i64* %RBP
  %13 = sub i64 %12, 12
  %14 = load i64, i64* %PC
  %15 = add i64 %14, 4
  store i64 %15, i64* %PC
  %16 = inttoptr i64 %13 to i16*
  %17 = load i16, i16* %16
  %18 = zext i16 %17 to i64
  store i64 %18, i64* %RAX, align 8
  ret %struct.Memory* %2
}

define %struct.Memory* @routine_movzwl_MINUS0xe__rbp____edx(%struct.State* dereferenceable(3376), i64, %struct.Memory*) {
block_400478:
  %3 = getelementptr inbounds %struct.State, %struct.State* %0, i32 0, i32 6
  %4 = getelementptr inbounds %struct.GPR, %struct.GPR* %3, i32 0, i32 33
  %5 = getelementptr inbounds %struct.Reg, %struct.Reg* %4, i32 0, i32 0
  %PC = bitcast %union.anon* %5 to i64*
  %6 = getelementptr inbounds %struct.State, %struct.State* %0, i32 0, i32 6
  %7 = getelementptr inbounds %struct.GPR, %struct.GPR* %6, i32 0, i32 7
  %8 = getelementptr inbounds %struct.Reg, %struct.Reg* %7, i32 0, i32 0
  %RDX = bitcast %union.anon* %8 to i64*
  %9 = getelementptr inbounds %struct.State, %struct.State* %0, i32 0, i32 6
  %10 = getelementptr inbounds %struct.GPR, %struct.GPR* %9, i32 0, i32 15
  %11 = getelementptr inbounds %struct.Reg, %struct.Reg* %10, i32 0, i32 0
  %RBP = bitcast %union.anon* %11 to i64*
  %12 = load i64, i64* %RBP
  %13 = sub i64 %12, 14
  %14 = load i64, i64* %PC
  %15 = add i64 %14, 4
  store i64 %15, i64* %PC
  %16 = inttoptr i64 %13 to i16*
  %17 = load i16, i16* %16
  %18 = zext i16 %17 to i64
  store i64 %18, i64* %RDX, align 8
  ret %struct.Memory* %2
}

define %struct.Memory* @routine_movl__edx__MINUS0x18__rbp_(%struct.State* dereferenceable(3376), i64, %struct.Memory*) {
block_400478:
  %3 = getelementptr inbounds %struct.State, %struct.State* %0, i32 0, i32 6
  %4 = getelementptr inbounds %struct.GPR, %struct.GPR* %3, i32 0, i32 33
  %5 = getelementptr inbounds %struct.Reg, %struct.Reg* %4, i32 0, i32 0
  %PC = bitcast %union.anon* %5 to i64*
  %6 = getelementptr inbounds %struct.State, %struct.State* %0, i32 0, i32 6
  %7 = getelementptr inbounds %struct.GPR, %struct.GPR* %6, i32 0, i32 7
  %8 = getelementptr inbounds %struct.Reg, %struct.Reg* %7, i32 0, i32 0
  %EDX = bitcast %union.anon* %8 to i32*
  %9 = getelementptr inbounds %struct.State, %struct.State* %0, i32 0, i32 6
  %10 = getelementptr inbounds %struct.GPR, %struct.GPR* %9, i32 0, i32 15
  %11 = getelementptr inbounds %struct.Reg, %struct.Reg* %10, i32 0, i32 0
  %RBP = bitcast %union.anon* %11 to i64*
  %12 = load i64, i64* %RBP
  %13 = sub i64 %12, 24
  %14 = load i32, i32* %EDX
  %15 = zext i32 %14 to i64
  %16 = load i64, i64* %PC
  %17 = add i64 %16, 3
  store i64 %17, i64* %PC
  %18 = inttoptr i64 %13 to i32*
  store i32 %14, i32* %18
  ret %struct.Memory* %2
}

define %struct.Memory* @routine_cltd(%struct.State* dereferenceable(3376), i64, %struct.Memory*) {
block_400478:
  %3 = getelementptr inbounds %struct.State, %struct.State* %0, i32 0, i32 6
  %4 = getelementptr inbounds %struct.GPR, %struct.GPR* %3, i32 0, i32 33
  %5 = getelementptr inbounds %struct.Reg, %struct.Reg* %4, i32 0, i32 0
  %PC = bitcast %union.anon* %5 to i64*
  %6 = load i64, i64* %PC
  %7 = add i64 %6, 1
  store i64 %7, i64* %PC
  %8 = getelementptr inbounds %struct.State, %struct.State* %0, i64 0, i32 6, i32 7, i32 0, i32 0
  %9 = getelementptr inbounds %struct.State, %struct.State* %0, i64 0, i32 6, i32 1, i32 0
  %10 = bitcast %union.anon* %9 to i32*
  %11 = load i32, i32* %10, align 8
  %12 = sext i32 %11 to i64
  %13 = lshr i64 %12, 32
  store i64 %13, i64* %8, align 8
  ret %struct.Memory* %2
}

define %struct.Memory* @routine_movl_MINUS0x18__rbp____esi(%struct.State* dereferenceable(3376), i64, %struct.Memory*) {
block_400478:
  %3 = getelementptr inbounds %struct.State, %struct.State* %0, i32 0, i32 6
  %4 = getelementptr inbounds %struct.GPR, %struct.GPR* %3, i32 0, i32 33
  %5 = getelementptr inbounds %struct.Reg, %struct.Reg* %4, i32 0, i32 0
  %PC = bitcast %union.anon* %5 to i64*
  %6 = getelementptr inbounds %struct.State, %struct.State* %0, i32 0, i32 6
  %7 = getelementptr inbounds %struct.GPR, %struct.GPR* %6, i32 0, i32 9
  %8 = getelementptr inbounds %struct.Reg, %struct.Reg* %7, i32 0, i32 0
  %RSI = bitcast %union.anon* %8 to i64*
  %9 = getelementptr inbounds %struct.State, %struct.State* %0, i32 0, i32 6
  %10 = getelementptr inbounds %struct.GPR, %struct.GPR* %9, i32 0, i32 15
  %11 = getelementptr inbounds %struct.Reg, %struct.Reg* %10, i32 0, i32 0
  %RBP = bitcast %union.anon* %11 to i64*
  %12 = load i64, i64* %RBP
  %13 = sub i64 %12, 24
  %14 = load i64, i64* %PC
  %15 = add i64 %14, 3
  store i64 %15, i64* %PC
  %16 = inttoptr i64 %13 to i32*
  %17 = load i32, i32* %16
  %18 = zext i32 %17 to i64
  store i64 %18, i64* %RSI, align 8
  ret %struct.Memory* %2
}

define %struct.Memory* @routine_idivl__esi(%struct.State* dereferenceable(3376), i64, %struct.Memory*) {
block_400478:
  %3 = getelementptr inbounds %struct.State, %struct.State* %0, i32 0, i32 6
  %4 = getelementptr inbounds %struct.GPR, %struct.GPR* %3, i32 0, i32 33
  %5 = getelementptr inbounds %struct.Reg, %struct.Reg* %4, i32 0, i32 0
  %PC = bitcast %union.anon* %5 to i64*
  %6 = getelementptr inbounds %struct.State, %struct.State* %0, i32 0, i32 6
  %7 = getelementptr inbounds %struct.GPR, %struct.GPR* %6, i32 0, i32 9
  %8 = getelementptr inbounds %struct.Reg, %struct.Reg* %7, i32 0, i32 0
  %ESI = bitcast %union.anon* %8 to i32*
  %9 = load i32, i32* %ESI
  %10 = zext i32 %9 to i64
  %11 = load i64, i64* %PC
  %12 = add i64 %11, 2
  store i64 %12, i64* %PC
  %13 = getelementptr inbounds %struct.State, %struct.State* %0, i64 0, i32 6, i32 1, i32 0
  %14 = bitcast %union.anon* %13 to i32*
  %15 = load i32, i32* %14, align 8
  %16 = zext i32 %15 to i64
  %17 = getelementptr inbounds %struct.State, %struct.State* %0, i64 0, i32 6, i32 7, i32 0
  %18 = bitcast %union.anon* %17 to i32*
  %19 = load i32, i32* %18, align 8
  %20 = zext i32 %19 to i64
  %21 = shl i64 %10, 32
  %22 = ashr exact i64 %21, 32
  %23 = shl i64 %20, 32
  %24 = or i64 %23, %16
  %25 = sdiv i64 %24, %22
  %26 = shl i64 %25, 32
  %27 = ashr exact i64 %26, 32
  %28 = icmp eq i64 %25, %27
  br i1 %28, label %33, label %29

; <label>:29:                                     ; preds = %block_400478
  %30 = getelementptr inbounds %struct.State, %struct.State* %0, i64 0, i32 6, i32 33, i32 0, i32 0
  %31 = load i64, i64* %30, align 8
  %32 = call %struct.Memory* @__remill_error(%struct.State* nonnull dereferenceable(3376) %0, i64 %31, %struct.Memory* %2)
  br label %_ZN12_GLOBAL__N_1L10IDIVedxeaxI2RnIjEEEP6MemoryS4_R5StateT_.exit

; <label>:33:                                     ; preds = %block_400478
  %34 = srem i64 %24, %22
  %35 = getelementptr inbounds %union.anon, %union.anon* %13, i64 0, i32 0
  %36 = and i64 %25, 4294967295
  store i64 %36, i64* %35, align 8
  %37 = getelementptr inbounds %union.anon, %union.anon* %17, i64 0, i32 0
  %38 = and i64 %34, 4294967295
  store i64 %38, i64* %37, align 8
  %39 = getelementptr inbounds %struct.State, %struct.State* %0, i64 0, i32 2, i32 1
  store i8 0, i8* %39, align 1
  %40 = getelementptr inbounds %struct.State, %struct.State* %0, i64 0, i32 2, i32 3
  store i8 0, i8* %40, align 1
  %41 = getelementptr inbounds %struct.State, %struct.State* %0, i64 0, i32 2, i32 5
  store i8 0, i8* %41, align 1
  %42 = getelementptr inbounds %struct.State, %struct.State* %0, i64 0, i32 2, i32 7
  store i8 0, i8* %42, align 1
  %43 = getelementptr inbounds %struct.State, %struct.State* %0, i64 0, i32 2, i32 9
  store i8 0, i8* %43, align 1
  %44 = getelementptr inbounds %struct.State, %struct.State* %0, i64 0, i32 2, i32 13
  store i8 0, i8* %44, align 1
  br label %_ZN12_GLOBAL__N_1L10IDIVedxeaxI2RnIjEEEP6MemoryS4_R5StateT_.exit

_ZN12_GLOBAL__N_1L10IDIVedxeaxI2RnIjEEEP6MemoryS4_R5StateT_.exit: ; preds = %29, %33
  %45 = phi %struct.Memory* [ %32, %29 ], [ %2, %33 ]
  ret %struct.Memory* %45
}

define %struct.Memory* @routine_movzwl_MINUS0x10__rbp____edi(%struct.State* dereferenceable(3376), i64, %struct.Memory*) {
block_400478:
  %3 = getelementptr inbounds %struct.State, %struct.State* %0, i32 0, i32 6
  %4 = getelementptr inbounds %struct.GPR, %struct.GPR* %3, i32 0, i32 33
  %5 = getelementptr inbounds %struct.Reg, %struct.Reg* %4, i32 0, i32 0
  %PC = bitcast %union.anon* %5 to i64*
  %6 = getelementptr inbounds %struct.State, %struct.State* %0, i32 0, i32 6
  %7 = getelementptr inbounds %struct.GPR, %struct.GPR* %6, i32 0, i32 11
  %8 = getelementptr inbounds %struct.Reg, %struct.Reg* %7, i32 0, i32 0
  %RDI = bitcast %union.anon* %8 to i64*
  %9 = getelementptr inbounds %struct.State, %struct.State* %0, i32 0, i32 6
  %10 = getelementptr inbounds %struct.GPR, %struct.GPR* %9, i32 0, i32 15
  %11 = getelementptr inbounds %struct.Reg, %struct.Reg* %10, i32 0, i32 0
  %RBP = bitcast %union.anon* %11 to i64*
  %12 = load i64, i64* %RBP
  %13 = sub i64 %12, 16
  %14 = load i64, i64* %PC
  %15 = add i64 %14, 4
  store i64 %15, i64* %PC
  %16 = inttoptr i64 %13 to i16*
  %17 = load i16, i16* %16
  %18 = zext i16 %17 to i64
  store i64 %18, i64* %RDI, align 8
  ret %struct.Memory* %2
}

define %struct.Memory* @routine_idivl__edi(%struct.State* dereferenceable(3376), i64, %struct.Memory*) {
block_400478:
  %3 = getelementptr inbounds %struct.State, %struct.State* %0, i32 0, i32 6
  %4 = getelementptr inbounds %struct.GPR, %struct.GPR* %3, i32 0, i32 33
  %5 = getelementptr inbounds %struct.Reg, %struct.Reg* %4, i32 0, i32 0
  %PC = bitcast %union.anon* %5 to i64*
  %6 = getelementptr inbounds %struct.State, %struct.State* %0, i32 0, i32 6
  %7 = getelementptr inbounds %struct.GPR, %struct.GPR* %6, i32 0, i32 11
  %8 = getelementptr inbounds %struct.Reg, %struct.Reg* %7, i32 0, i32 0
  %EDI = bitcast %union.anon* %8 to i32*
  %9 = load i32, i32* %EDI
  %10 = zext i32 %9 to i64
  %11 = load i64, i64* %PC
  %12 = add i64 %11, 2
  store i64 %12, i64* %PC
  %13 = getelementptr inbounds %struct.State, %struct.State* %0, i64 0, i32 6, i32 1, i32 0
  %14 = bitcast %union.anon* %13 to i32*
  %15 = load i32, i32* %14, align 8
  %16 = zext i32 %15 to i64
  %17 = getelementptr inbounds %struct.State, %struct.State* %0, i64 0, i32 6, i32 7, i32 0
  %18 = bitcast %union.anon* %17 to i32*
  %19 = load i32, i32* %18, align 8
  %20 = zext i32 %19 to i64
  %21 = shl i64 %10, 32
  %22 = ashr exact i64 %21, 32
  %23 = shl i64 %20, 32
  %24 = or i64 %23, %16
  %25 = sdiv i64 %24, %22
  %26 = shl i64 %25, 32
  %27 = ashr exact i64 %26, 32
  %28 = icmp eq i64 %25, %27
  br i1 %28, label %33, label %29

; <label>:29:                                     ; preds = %block_400478
  %30 = getelementptr inbounds %struct.State, %struct.State* %0, i64 0, i32 6, i32 33, i32 0, i32 0
  %31 = load i64, i64* %30, align 8
  %32 = call %struct.Memory* @__remill_error(%struct.State* nonnull dereferenceable(3376) %0, i64 %31, %struct.Memory* %2)
  br label %_ZN12_GLOBAL__N_1L10IDIVedxeaxI2RnIjEEEP6MemoryS4_R5StateT_.exit

; <label>:33:                                     ; preds = %block_400478
  %34 = srem i64 %24, %22
  %35 = getelementptr inbounds %union.anon, %union.anon* %13, i64 0, i32 0
  %36 = and i64 %25, 4294967295
  store i64 %36, i64* %35, align 8
  %37 = getelementptr inbounds %union.anon, %union.anon* %17, i64 0, i32 0
  %38 = and i64 %34, 4294967295
  store i64 %38, i64* %37, align 8
  %39 = getelementptr inbounds %struct.State, %struct.State* %0, i64 0, i32 2, i32 1
  store i8 0, i8* %39, align 1
  %40 = getelementptr inbounds %struct.State, %struct.State* %0, i64 0, i32 2, i32 3
  store i8 0, i8* %40, align 1
  %41 = getelementptr inbounds %struct.State, %struct.State* %0, i64 0, i32 2, i32 5
  store i8 0, i8* %41, align 1
  %42 = getelementptr inbounds %struct.State, %struct.State* %0, i64 0, i32 2, i32 7
  store i8 0, i8* %42, align 1
  %43 = getelementptr inbounds %struct.State, %struct.State* %0, i64 0, i32 2, i32 9
  store i8 0, i8* %43, align 1
  %44 = getelementptr inbounds %struct.State, %struct.State* %0, i64 0, i32 2, i32 13
  store i8 0, i8* %44, align 1
  br label %_ZN12_GLOBAL__N_1L10IDIVedxeaxI2RnIjEEEP6MemoryS4_R5StateT_.exit

_ZN12_GLOBAL__N_1L10IDIVedxeaxI2RnIjEEEP6MemoryS4_R5StateT_.exit: ; preds = %29, %33
  %45 = phi %struct.Memory* [ %32, %29 ], [ %2, %33 ]
  ret %struct.Memory* %45
}

define %struct.Memory* @routine_movzwl_MINUS0x12__rbp____edi(%struct.State* dereferenceable(3376), i64, %struct.Memory*) {
block_400478:
  %3 = getelementptr inbounds %struct.State, %struct.State* %0, i32 0, i32 6
  %4 = getelementptr inbounds %struct.GPR, %struct.GPR* %3, i32 0, i32 33
  %5 = getelementptr inbounds %struct.Reg, %struct.Reg* %4, i32 0, i32 0
  %PC = bitcast %union.anon* %5 to i64*
  %6 = getelementptr inbounds %struct.State, %struct.State* %0, i32 0, i32 6
  %7 = getelementptr inbounds %struct.GPR, %struct.GPR* %6, i32 0, i32 11
  %8 = getelementptr inbounds %struct.Reg, %struct.Reg* %7, i32 0, i32 0
  %RDI = bitcast %union.anon* %8 to i64*
  %9 = getelementptr inbounds %struct.State, %struct.State* %0, i32 0, i32 6
  %10 = getelementptr inbounds %struct.GPR, %struct.GPR* %9, i32 0, i32 15
  %11 = getelementptr inbounds %struct.Reg, %struct.Reg* %10, i32 0, i32 0
  %RBP = bitcast %union.anon* %11 to i64*
  %12 = load i64, i64* %RBP
  %13 = sub i64 %12, 18
  %14 = load i64, i64* %PC
  %15 = add i64 %14, 4
  store i64 %15, i64* %PC
  %16 = inttoptr i64 %13 to i16*
  %17 = load i16, i16* %16
  %18 = zext i16 %17 to i64
  store i64 %18, i64* %RDI, align 8
  ret %struct.Memory* %2
}

define %struct.Memory* @routine_addl__eax___ecx(%struct.State* dereferenceable(3376), i64, %struct.Memory*) {
block_400478:
  %3 = getelementptr inbounds %struct.State, %struct.State* %0, i32 0, i32 6
  %4 = getelementptr inbounds %struct.GPR, %struct.GPR* %3, i32 0, i32 33
  %5 = getelementptr inbounds %struct.Reg, %struct.Reg* %4, i32 0, i32 0
  %PC = bitcast %union.anon* %5 to i64*
  %6 = getelementptr inbounds %struct.State, %struct.State* %0, i32 0, i32 6
  %7 = getelementptr inbounds %struct.GPR, %struct.GPR* %6, i32 0, i32 1
  %8 = getelementptr inbounds %struct.Reg, %struct.Reg* %7, i32 0, i32 0
  %EAX = bitcast %union.anon* %8 to i32*
  %9 = getelementptr inbounds %struct.State, %struct.State* %0, i32 0, i32 6
  %10 = getelementptr inbounds %struct.GPR, %struct.GPR* %9, i32 0, i32 5
  %11 = getelementptr inbounds %struct.Reg, %struct.Reg* %10, i32 0, i32 0
  %RCX = bitcast %union.anon* %11 to i64*
  %12 = load i64, i64* %RCX
  %13 = load i32, i32* %EAX
  %14 = zext i32 %13 to i64
  %15 = load i64, i64* %PC
  %16 = add i64 %15, 2
  store i64 %16, i64* %PC
  %17 = trunc i64 %12 to i32
  %18 = add i32 %13, %17
  %19 = zext i32 %18 to i64
  store i64 %19, i64* %RCX, align 8
  %20 = icmp ult i32 %18, %17
  %21 = icmp ult i32 %18, %13
  %22 = or i1 %20, %21
  %23 = zext i1 %22 to i8
  %24 = getelementptr inbounds %struct.State, %struct.State* %0, i64 0, i32 2, i32 1
  store i8 %23, i8* %24, align 1
  %25 = and i32 %18, 255
  %26 = call i32 @llvm.ctpop.i32(i32 %25)
  %27 = trunc i32 %26 to i8
  %28 = and i8 %27, 1
  %29 = xor i8 %28, 1
  %30 = getelementptr inbounds %struct.State, %struct.State* %0, i64 0, i32 2, i32 3
  store i8 %29, i8* %30, align 1
  %31 = xor i64 %14, %12
  %32 = trunc i64 %31 to i32
  %33 = xor i32 %32, %18
  %34 = lshr i32 %33, 4
  %35 = trunc i32 %34 to i8
  %36 = and i8 %35, 1
  %37 = getelementptr inbounds %struct.State, %struct.State* %0, i64 0, i32 2, i32 5
  store i8 %36, i8* %37, align 1
  %38 = icmp eq i32 %18, 0
  %39 = zext i1 %38 to i8
  %40 = getelementptr inbounds %struct.State, %struct.State* %0, i64 0, i32 2, i32 7
  store i8 %39, i8* %40, align 1
  %41 = lshr i32 %18, 31
  %42 = trunc i32 %41 to i8
  %43 = getelementptr inbounds %struct.State, %struct.State* %0, i64 0, i32 2, i32 9
  store i8 %42, i8* %43, align 1
  %44 = lshr i32 %17, 31
  %45 = lshr i32 %13, 31
  %46 = xor i32 %41, %44
  %47 = xor i32 %41, %45
  %48 = add i32 %46, %47
  %49 = icmp eq i32 %48, 2
  %50 = zext i1 %49 to i8
  %51 = getelementptr inbounds %struct.State, %struct.State* %0, i64 0, i32 2, i32 13
  store i8 %50, i8* %51, align 1
  ret %struct.Memory* %2
}

define %struct.Memory* @routine_movzwl__r9w___eax(%struct.State* dereferenceable(3376), i64, %struct.Memory*) {
block_400478:
  %3 = getelementptr inbounds %struct.State, %struct.State* %0, i32 0, i32 6
  %4 = getelementptr inbounds %struct.GPR, %struct.GPR* %3, i32 0, i32 33
  %5 = getelementptr inbounds %struct.Reg, %struct.Reg* %4, i32 0, i32 0
  %PC = bitcast %union.anon* %5 to i64*
  %6 = getelementptr inbounds %struct.State, %struct.State* %0, i32 0, i32 6
  %7 = getelementptr inbounds %struct.GPR, %struct.GPR* %6, i32 0, i32 19
  %8 = getelementptr inbounds %struct.Reg, %struct.Reg* %7, i32 0, i32 0
  %R9W = bitcast %union.anon* %8 to i16*
  %9 = getelementptr inbounds %struct.State, %struct.State* %0, i32 0, i32 6
  %10 = getelementptr inbounds %struct.GPR, %struct.GPR* %9, i32 0, i32 1
  %11 = getelementptr inbounds %struct.Reg, %struct.Reg* %10, i32 0, i32 0
  %RAX = bitcast %union.anon* %11 to i64*
  %12 = load i16, i16* %R9W
  %13 = zext i16 %12 to i64
  %14 = load i64, i64* %PC
  %15 = add i64 %14, 4
  store i64 %15, i64* %PC
  %16 = and i64 %13, 65535
  store i64 %16, i64* %RAX, align 8
  ret %struct.Memory* %2
}

define %struct.Memory* @routine_popq__rbx(%struct.State* dereferenceable(3376), i64, %struct.Memory*) {
block_400478:
  %3 = getelementptr inbounds %struct.State, %struct.State* %0, i32 0, i32 6
  %4 = getelementptr inbounds %struct.GPR, %struct.GPR* %3, i32 0, i32 33
  %5 = getelementptr inbounds %struct.Reg, %struct.Reg* %4, i32 0, i32 0
  %PC = bitcast %union.anon* %5 to i64*
  %6 = getelementptr inbounds %struct.State, %struct.State* %0, i32 0, i32 6
  %7 = getelementptr inbounds %struct.GPR, %struct.GPR* %6, i32 0, i32 3
  %8 = getelementptr inbounds %struct.Reg, %struct.Reg* %7, i32 0, i32 0
  %RBX = bitcast %union.anon* %8 to i64*
  %9 = load i64, i64* %PC
  %10 = add i64 %9, 1
  store i64 %10, i64* %PC
  %11 = getelementptr inbounds %struct.State, %struct.State* %0, i64 0, i32 6, i32 13, i32 0, i32 0
  %12 = load i64, i64* %11, align 8
  %13 = add i64 %12, 8
  %14 = inttoptr i64 %12 to i64*
  %15 = load i64, i64* %14
  store i64 %15, i64* %RBX, align 8
  store i64 %13, i64* %11, align 8
  ret %struct.Memory* %2
}

define %struct.Memory* @routine_popq__rbp(%struct.State* dereferenceable(3376), i64, %struct.Memory*) {
block_400478:
  %3 = getelementptr inbounds %struct.State, %struct.State* %0, i32 0, i32 6
  %4 = getelementptr inbounds %struct.GPR, %struct.GPR* %3, i32 0, i32 33
  %5 = getelementptr inbounds %struct.Reg, %struct.Reg* %4, i32 0, i32 0
  %PC = bitcast %union.anon* %5 to i64*
  %6 = getelementptr inbounds %struct.State, %struct.State* %0, i32 0, i32 6
  %7 = getelementptr inbounds %struct.GPR, %struct.GPR* %6, i32 0, i32 15
  %8 = getelementptr inbounds %struct.Reg, %struct.Reg* %7, i32 0, i32 0
  %RBP = bitcast %union.anon* %8 to i64*
  %9 = load i64, i64* %PC
  %10 = add i64 %9, 1
  store i64 %10, i64* %PC
  %11 = getelementptr inbounds %struct.State, %struct.State* %0, i64 0, i32 6, i32 13, i32 0, i32 0
  %12 = load i64, i64* %11, align 8
  %13 = add i64 %12, 8
  %14 = inttoptr i64 %12 to i64*
  %15 = load i64, i64* %14
  store i64 %15, i64* %RBP, align 8
  store i64 %13, i64* %11, align 8
  ret %struct.Memory* %2
}

define %struct.Memory* @routine_retq(%struct.State* dereferenceable(3376), i64, %struct.Memory*) {
block_400478:
  %3 = getelementptr inbounds %struct.State, %struct.State* %0, i32 0, i32 6
  %4 = getelementptr inbounds %struct.GPR, %struct.GPR* %3, i32 0, i32 33
  %5 = getelementptr inbounds %struct.Reg, %struct.Reg* %4, i32 0, i32 0
  %PC = bitcast %union.anon* %5 to i64*
  %6 = load i64, i64* %PC
  %7 = add i64 %6, 1
  store i64 %7, i64* %PC
  %8 = getelementptr inbounds %struct.State, %struct.State* %0, i64 0, i32 6, i32 33, i32 0, i32 0
  %9 = getelementptr inbounds %struct.State, %struct.State* %0, i64 0, i32 6, i32 13, i32 0, i32 0
  %10 = load i64, i64* %9, align 8
  %11 = inttoptr i64 %10 to i64*
  %12 = load i64, i64* %11
  store i64 %12, i64* %8, align 8
  %13 = add i64 %10, 8
  store i64 %13, i64* %9, align 8
  ret %struct.Memory* %2
}

attributes #0 = { argmemonly nounwind }
attributes #1 = { nounwind readnone }
attributes #2 = { alwaysinline }
