[     1s]    INFO tuneNormalizer:  Search Space: ['-mem2reg', '-licm', '-gvn', '-early-cse', '-globalopt', '-simplifycfg', '-basicaa', '-aa', '-memdep', '-dse', '-deadargelim', '-libcalls-shrinkwrap', '-tailcallelim', '-instcombine', '-memcpyopt', '-early-cse-memssa']


[     2s] WARNING opentuner.search.simplextechniques: only 1 point in simplex, will not use RandomNelderMead
[   115s]    INFO opentuner.search.plugin.DisplayPlugin: tests=4, best #280, cost time=0.0097, found by DifferentialEvolutionAlt
[   181s]    INFO opentuner.search.plugin.DisplayPlugin: tests=8, best #280, cost time=0.0097, found by DifferentialEvolutionAlt
[   235s]    INFO tuneNormalizer: run_precompiled: Early Exit: Optimal pass sequence written to mcsema//normalizer_final_config.json: [ -gvn -early-cse -simplifycfg -memdep -dse -libcalls-shrinkwrap -tailcallelim -instcombine -early-cse-memssa]
[   248s]    INFO opentuner.search.plugin.DisplayPlugin: tests=12, best #315, cost time=0.0000, found by NormalGreedyMutation
[   294s]    INFO tuneNormalizer: run_precompiled: Early Exit: Optimal pass sequence written to mcsema//normalizer_final_config.json: [ -gvn -simplifycfg -memdep -dse -libcalls-shrinkwrap -tailcallelim -instcombine -early-cse-memssa]
[   308s]    INFO tuneNormalizer: run_precompiled: Early Exit: Optimal pass sequence written to mcsema//normalizer_final_config.json: [ -gvn -early-cse -globalopt -simplifycfg -aa -memdep -dse -libcalls-shrinkwrap -tailcallelim -instcombine]
[   328s]    INFO opentuner.search.plugin.DisplayPlugin: tests=16, best #315, cost time=0.0000, found by NormalGreedyMutation
[   433s]    INFO opentuner.search.plugin.DisplayPlugin: tests=20, best #315, cost time=0.0000, found by NormalGreedyMutation
[   535s]    INFO opentuner.search.plugin.DisplayPlugin: tests=24, best #315, cost time=0.0000, found by NormalGreedyMutation
[   561s]    INFO tuneNormalizer: run_precompiled: Early Exit: Optimal pass sequence written to mcsema//normalizer_final_config.json: [ -gvn -early-cse -basicaa -memdep -dse -deadargelim -instcombine -memcpyopt]
[   623s]    INFO opentuner.search.plugin.DisplayPlugin: tests=28, best #315, cost time=0.0000, found by NormalGreedyMutation
[   664s]    INFO tuneNormalizer: run_precompiled: Early Exit: Optimal pass sequence written to mcsema//normalizer_final_config.json: [ -gvn -early-cse -instcombine -memcpyopt -early-cse-memssa]
[   707s]    INFO tuneNormalizer: run_precompiled: Early Exit: Optimal pass sequence written to mcsema//normalizer_final_config.json: [ -gvn -early-cse -simplifycfg -memdep -libcalls-shrinkwrap -tailcallelim -instcombine -memcpyopt -early-cse-memssa]
[   724s]    INFO tuneNormalizer: run_precompiled: Early Exit: Optimal pass sequence written to mcsema//normalizer_final_config.json: [ -licm -gvn -early-cse -simplifycfg -basicaa -memdep -deadargelim -libcalls-shrinkwrap -tailcallelim -instcombine -early-cse-memssa]
[   724s]    INFO opentuner.search.plugin.DisplayPlugin: tests=32, best #315, cost time=0.0000, found by NormalGreedyMutation
[   827s]    INFO opentuner.search.plugin.DisplayPlugin: tests=36, best #315, cost time=0.0000, found by NormalGreedyMutation
[   868s]    INFO tuneNormalizer: run_precompiled: Early Exit: Optimal pass sequence written to mcsema//normalizer_final_config.json: [ -gvn -early-cse -libcalls-shrinkwrap -tailcallelim -instcombine -early-cse-memssa]
[   906s]    INFO tuneNormalizer: run_precompiled: Early Exit: Optimal pass sequence written to mcsema//normalizer_final_config.json: [ -gvn -early-cse -basicaa -memdep -libcalls-shrinkwrap -tailcallelim -instcombine -early-cse-memssa]
[   928s]    INFO tuneNormalizer: run_precompiled: Early Exit: Optimal pass sequence written to mcsema//normalizer_final_config.json: [ -gvn -early-cse -simplifycfg -memdep -libcalls-shrinkwrap -tailcallelim -instcombine -early-cse-memssa]
[   928s]    INFO opentuner.search.plugin.DisplayPlugin: tests=40, best #315, cost time=0.0000, found by NormalGreedyMutation
[   964s]    INFO tuneNormalizer: run_precompiled: Early Exit: Optimal pass sequence written to mcsema//normalizer_final_config.json: [ -gvn -early-cse -simplifycfg -memdep -dse -libcalls-shrinkwrap -tailcallelim -instcombine -memcpyopt -early-cse-memssa]
[   978s]    INFO tuneNormalizer: run_precompiled: Early Exit: Optimal pass sequence written to mcsema//normalizer_final_config.json: [ -gvn -early-cse -simplifycfg -memdep -dse -tailcallelim -instcombine -early-cse-memssa]
[  1018s]    INFO opentuner.search.plugin.DisplayPlugin: tests=44, best #315, cost time=0.0000, found by NormalGreedyMutation
[  1044s]    INFO tuneNormalizer: run_precompiled: Early Exit: Optimal pass sequence written to mcsema//normalizer_final_config.json: [ -gvn -early-cse -simplifycfg -dse -libcalls-shrinkwrap -instcombine -early-cse-memssa]
[  1057s]    INFO tuneNormalizer: run_precompiled: Early Exit: Optimal pass sequence written to mcsema//normalizer_final_config.json: [ -gvn -early-cse -simplifycfg -memdep -dse -libcalls-shrinkwrap -tailcallelim -instcombine]
[  1086s]    INFO tuneNormalizer: run_precompiled: Early Exit: Optimal pass sequence written to mcsema//normalizer_final_config.json: [ -mem2reg -gvn -simplifycfg -memdep -libcalls-shrinkwrap -instcombine -early-cse-memssa]
[  1086s]    INFO opentuner.search.plugin.DisplayPlugin: tests=48, best #315, cost time=0.0000, found by NormalGreedyMutation
[  1139s]    INFO tuneNormalizer: run_precompiled: Early Exit: Optimal pass sequence written to mcsema//normalizer_final_config.json: [ -gvn -aa -memdep -dse -deadargelim -tailcallelim -instcombine -early-cse-memssa]
[  1177s]    INFO opentuner.search.plugin.DisplayPlugin: tests=52, best #315, cost time=0.0000, found by NormalGreedyMutation
[  1204s]    INFO tuneNormalizer: run_precompiled: Early Exit: Optimal pass sequence written to mcsema//normalizer_final_config.json: [ -gvn -early-cse -simplifycfg -aa -memdep -dse -libcalls-shrinkwrap -tailcallelim -instcombine -early-cse-memssa]
[  1218s]    INFO tuneNormalizer: run_precompiled: Early Exit: Optimal pass sequence written to mcsema//normalizer_final_config.json: [ -gvn -early-cse -simplifycfg -memdep -dse -tailcallelim -instcombine -early-cse-memssa]
[  1246s]    INFO tuneNormalizer: run_precompiled: Early Exit: Optimal pass sequence written to mcsema//normalizer_final_config.json: [ -gvn -simplifycfg -memdep -dse -libcalls-shrinkwrap -tailcallelim -instcombine -early-cse-memssa]
[  1246s]    INFO opentuner.search.plugin.DisplayPlugin: tests=56, best #315, cost time=0.0000, found by NormalGreedyMutation
[  1327s]    INFO opentuner.search.plugin.DisplayPlugin: tests=60, best #315, cost time=0.0000, found by NormalGreedyMutation
[  1414s]    INFO opentuner.search.plugin.DisplayPlugin: tests=64, best #315, cost time=0.0000, found by NormalGreedyMutation
[  1456s]    INFO tuneNormalizer: run_precompiled: Early Exit: Optimal pass sequence written to mcsema//normalizer_final_config.json: [ -licm -gvn -early-cse -simplifycfg -memdep -dse -tailcallelim -instcombine]
[  1469s]    INFO tuneNormalizer: run_precompiled: Early Exit: Optimal pass sequence written to mcsema//normalizer_final_config.json: [ -gvn -early-cse -simplifycfg -dse -tailcallelim -instcombine -early-cse-memssa]
[  1487s]    INFO opentuner.search.plugin.DisplayPlugin: tests=68, best #315, cost time=0.0000, found by NormalGreedyMutation
[  1512s]    INFO tuneNormalizer: run_precompiled: Early Exit: Optimal pass sequence written to mcsema//normalizer_final_config.json: [ -mem2reg -gvn -early-cse -globalopt -simplifycfg -memdep -dse -libcalls-shrinkwrap -tailcallelim -instcombine -early-cse-memssa]
[  1525s]    INFO tuneNormalizer: run_precompiled: Early Exit: Optimal pass sequence written to mcsema//normalizer_final_config.json: [ -gvn -simplifycfg -memdep -dse -libcalls-shrinkwrap -tailcallelim -instcombine]
[  1562s]    INFO opentuner.search.plugin.DisplayPlugin: tests=72, best #315, cost time=0.0000, found by NormalGreedyMutation
[  1666s]    INFO opentuner.search.plugin.DisplayPlugin: tests=76, best #315, cost time=0.0000, found by NormalGreedyMutation
[  1692s]    INFO tuneNormalizer: run_precompiled: Early Exit: Optimal pass sequence written to mcsema//normalizer_final_config.json: [ -gvn -simplifycfg -dse -libcalls-shrinkwrap -instcombine -memcpyopt -early-cse-memssa]
[  1722s]    INFO tuneNormalizer: run_precompiled: Early Exit: Optimal pass sequence written to mcsema//normalizer_final_config.json: [ -gvn -simplifycfg -memdep -dse -tailcallelim -instcombine -early-cse-memssa]
[  1735s]    INFO tuneNormalizer: run_precompiled: Early Exit: Optimal pass sequence written to mcsema//normalizer_final_config.json: [ -gvn -early-cse -simplifycfg -memdep -dse -libcalls-shrinkwrap -tailcallelim -instcombine]
[  1735s]    INFO opentuner.search.plugin.DisplayPlugin: tests=80, best #315, cost time=0.0000, found by NormalGreedyMutation
[  1784s]    INFO tuneNormalizer: run_precompiled: Early Exit: Optimal pass sequence written to mcsema//normalizer_final_config.json: [ -gvn -early-cse -simplifycfg -memdep -libcalls-shrinkwrap -instcombine -early-cse-memssa]
[  1797s]    INFO tuneNormalizer: run_precompiled: Early Exit: Optimal pass sequence written to mcsema//normalizer_final_config.json: [ -gvn -early-cse -simplifycfg -basicaa -memdep -dse -libcalls-shrinkwrap -tailcallelim -instcombine -early-cse-memssa]
[  1813s]    INFO tuneNormalizer: run_precompiled: Early Exit: Optimal pass sequence written to mcsema//normalizer_final_config.json: [ -gvn -early-cse -simplifycfg -memdep -libcalls-shrinkwrap -tailcallelim -instcombine -early-cse-memssa]
[  1813s]    INFO opentuner.search.plugin.DisplayPlugin: tests=84, best #315, cost time=0.0000, found by NormalGreedyMutation
[  1890s]    INFO opentuner.search.plugin.DisplayPlugin: tests=88, best #315, cost time=0.0000, found by NormalGreedyMutation
[  1939s]    INFO tuneNormalizer: run_precompiled: Early Exit: Optimal pass sequence written to mcsema//normalizer_final_config.json: [ -gvn -aa -memdep -dse -instcombine]
[  1969s]    INFO opentuner.search.plugin.DisplayPlugin: tests=92, best #315, cost time=0.0000, found by NormalGreedyMutation
[  1997s]    INFO tuneNormalizer: run_precompiled: Early Exit: Optimal pass sequence written to mcsema//normalizer_final_config.json: [ -gvn -early-cse -simplifycfg -memdep -dse -libcalls-shrinkwrap -tailcallelim -instcombine -early-cse-memssa]
[  2009s]    INFO tuneNormalizer: run_precompiled: Early Exit: Optimal pass sequence written to mcsema//normalizer_final_config.json: [ -gvn -early-cse -simplifycfg -memdep -dse -libcalls-shrinkwrap -tailcallelim -instcombine -early-cse-memssa]
[  2022s]    INFO tuneNormalizer: run_precompiled: Early Exit: Optimal pass sequence written to mcsema//normalizer_final_config.json: [ -licm -gvn -early-cse -simplifycfg -dse -libcalls-shrinkwrap -tailcallelim -instcombine -early-cse-memssa]
[  2036s]    INFO tuneNormalizer: run_precompiled: Early Exit: Optimal pass sequence written to mcsema//normalizer_final_config.json: [ -gvn -simplifycfg -memdep -dse -deadargelim -libcalls-shrinkwrap -tailcallelim -instcombine -early-cse-memssa]
[  2036s]    INFO opentuner.search.plugin.DisplayPlugin: tests=96, best #315, cost time=0.0000, found by NormalGreedyMutation
[  2113s]    INFO opentuner.search.plugin.DisplayPlugin: tests=100, best #315, cost time=0.0000, found by NormalGreedyMutation
[  2139s]    INFO tuneNormalizer: run_precompiled: Early Exit: Optimal pass sequence written to mcsema//normalizer_final_config.json: [ -gvn -early-cse -simplifycfg -memdep -dse -libcalls-shrinkwrap -tailcallelim -instcombine -early-cse-memssa]
[  2185s]    INFO tuneNormalizer: run_precompiled: Early Exit: Optimal pass sequence written to mcsema//normalizer_final_config.json: [ -gvn -early-cse -simplifycfg -memdep -dse -libcalls-shrinkwrap -tailcallelim -instcombine]
[  2185s]    INFO opentuner.search.plugin.DisplayPlugin: tests=104, best #315, cost time=0.0000, found by NormalGreedyMutation
[  2185s]    INFO opentuner.search.plugin.DisplayPlugin: tests=104, best #315, cost time=0.0000, found by NormalGreedyMutation
[  2185s]    INFO tuneNormalizer: Optimal pass sequence seen so far: [-early-cse -memdep -simplifycfg -libcalls-shrinkwrap -dse -instcombine -early-cse-memssa -tailcallelim -gvn ]
2395.68user 48.54system 36:25.75elapsed 111%CPU (0avgtext+0avgdata 116372maxresident)k
0inputs+2674912outputs (0major+5515842minor)pagefaults 0swaps
