; ModuleID = 'mcsema/test.proposed.inline.ll'
source_filename = "llvm-link"
target datalayout = "e-m:e-i64:64-f80:128-n8:16:32:64-S128"
target triple = "x86_64-pc-linux-gnu-elf"

%__bss_start_type = type <{ [8 x i8] }>
%G__0x45882f_type = type <{ [8 x i8] }>
%struct.State = type { %struct.ArchState, [32 x %union.VectorReg], %struct.ArithFlags, %union.anon, %struct.Segments, %struct.AddressSpace, %struct.GPR, %struct.X87Stack, %struct.MMX, %struct.FPUStatusFlags, %union.anon, %union.FPU, %struct.SegmentCaches }
%struct.ArchState = type { i32, i32, %union.anon }
%union.VectorReg = type { %union.vec512_t }
%union.vec512_t = type { %struct.uint64v8_t }
%struct.uint64v8_t = type { [8 x i64] }
%struct.ArithFlags = type { i8, i8, i8, i8, i8, i8, i8, i8, i8, i8, i8, i8, i8, i8, i8, i8 }
%struct.Segments = type { i16, %union.SegmentSelector, i16, %union.SegmentSelector, i16, %union.SegmentSelector, i16, %union.SegmentSelector, i16, %union.SegmentSelector, i16, %union.SegmentSelector }
%union.SegmentSelector = type { i16 }
%struct.AddressSpace = type { i64, %struct.Reg, i64, %struct.Reg, i64, %struct.Reg, i64, %struct.Reg, i64, %struct.Reg, i64, %struct.Reg }
%struct.Reg = type { %union.anon }
%struct.GPR = type { i64, %struct.Reg, i64, %struct.Reg, i64, %struct.Reg, i64, %struct.Reg, i64, %struct.Reg, i64, %struct.Reg, i64, %struct.Reg, i64, %struct.Reg, i64, %struct.Reg, i64, %struct.Reg, i64, %struct.Reg, i64, %struct.Reg, i64, %struct.Reg, i64, %struct.Reg, i64, %struct.Reg, i64, %struct.Reg, i64, %struct.Reg }
%struct.X87Stack = type { [8 x %struct.anon.3] }
%struct.anon.3 = type { i64, double }
%struct.MMX = type { [8 x %struct.anon.4] }
%struct.anon.4 = type { i64, %union.vec64_t }
%union.vec64_t = type { %struct.uint64v1_t }
%struct.uint64v1_t = type { [1 x i64] }
%struct.FPUStatusFlags = type { i8, i8, i8, i8, i8, i8, i8, i8, i8, i8, i8, i8, i8, i8, i8, i8, i8, i8, i8, i8, [4 x i8] }
%union.anon = type { i64 }
%union.FPU = type { %struct.anon.13 }
%struct.anon.13 = type { %struct.FpuFXSAVE, [96 x i8] }
%struct.FpuFXSAVE = type { %union.SegmentSelector, %union.SegmentSelector, %union.FPUAbridgedTagWord, i8, i16, i32, %union.SegmentSelector, i16, i32, %union.SegmentSelector, i16, %union.FPUControlStatus, %union.FPUControlStatus, [8 x %struct.FPUStackElem], [16 x %union.vec128_t] }
%union.FPUAbridgedTagWord = type { i8 }
%union.FPUControlStatus = type { i32 }
%struct.FPUStackElem = type { %union.anon.11, [6 x i8] }
%union.anon.11 = type { %struct.float80_t }
%struct.float80_t = type { [10 x i8] }
%union.vec128_t = type { %struct.uint128v1_t }
%struct.uint128v1_t = type { [1 x i128] }
%struct.SegmentCaches = type { %struct.SegmentShadow, %struct.SegmentShadow, %struct.SegmentShadow, %struct.SegmentShadow, %struct.SegmentShadow, %struct.SegmentShadow }
%struct.SegmentShadow = type { %union.anon, i32, i32 }
%struct.Memory = type opaque

@__bss_start = local_unnamed_addr global %__bss_start_type zeroinitializer
@G__0x45882f = global %G__0x45882f_type zeroinitializer

; Function Attrs: nounwind readnone
declare i32 @llvm.ctpop.i32(i32) #0

declare extern_weak x86_64_sysvcc i64 @free(i64)

declare %struct.Memory* @__remill_function_call(%struct.State* dereferenceable(3376), i64, %struct.Memory*) local_unnamed_addr

declare %struct.Memory* @sub_446060.sre_malloc(%struct.State* noalias dereferenceable(3376), i64, %struct.Memory* noalias readnone returned) local_unnamed_addr

declare %struct.Memory* @sub_42fa00.MSAShorterAlignment(%struct.State* noalias dereferenceable(3376), i64, %struct.Memory* noalias readnone returned) local_unnamed_addr

; Function Attrs: alwaysinline
define %struct.Memory* @MSANogap(%struct.State* noalias, i64, %struct.Memory* noalias) local_unnamed_addr #1 {
entry:
  %3 = getelementptr inbounds %struct.State, %struct.State* %0, i64 0, i32 6, i32 33, i32 0, i32 0
  %RBP.i = getelementptr inbounds %struct.State, %struct.State* %0, i64 0, i32 6, i32 15, i32 0, i32 0
  %4 = load i64, i64* %RBP.i, align 8
  %5 = add i64 %1, 1
  store i64 %5, i64* %3, align 8
  %6 = getelementptr inbounds %struct.State, %struct.State* %0, i64 0, i32 6, i32 13, i32 0, i32 0
  %7 = load i64, i64* %6, align 8
  %8 = add i64 %7, -8
  %9 = inttoptr i64 %8 to i64*
  store i64 %4, i64* %9, align 8
  %10 = load i64, i64* %3, align 8
  store i64 %8, i64* %RBP.i, align 8
  %11 = add i64 %7, -40
  store i64 %11, i64* %6, align 8
  %12 = icmp ult i64 %8, 32
  %13 = zext i1 %12 to i8
  %14 = getelementptr inbounds %struct.State, %struct.State* %0, i64 0, i32 2, i32 1
  store i8 %13, i8* %14, align 1
  %15 = trunc i64 %11 to i32
  %16 = and i32 %15, 255
  %17 = tail call i32 @llvm.ctpop.i32(i32 %16)
  %18 = trunc i32 %17 to i8
  %19 = and i8 %18, 1
  %20 = xor i8 %19, 1
  %21 = getelementptr inbounds %struct.State, %struct.State* %0, i64 0, i32 2, i32 3
  store i8 %20, i8* %21, align 1
  %22 = xor i64 %8, %11
  %23 = lshr i64 %22, 4
  %24 = trunc i64 %23 to i8
  %25 = and i8 %24, 1
  %26 = getelementptr inbounds %struct.State, %struct.State* %0, i64 0, i32 2, i32 5
  store i8 %25, i8* %26, align 1
  %27 = icmp eq i64 %11, 0
  %28 = zext i1 %27 to i8
  %29 = getelementptr inbounds %struct.State, %struct.State* %0, i64 0, i32 2, i32 7
  store i8 %28, i8* %29, align 1
  %30 = lshr i64 %11, 63
  %31 = trunc i64 %30 to i8
  %32 = getelementptr inbounds %struct.State, %struct.State* %0, i64 0, i32 2, i32 9
  store i8 %31, i8* %32, align 1
  %33 = lshr i64 %8, 63
  %34 = xor i64 %30, %33
  %35 = add nuw nsw i64 %34, %33
  %36 = icmp eq i64 %35, 2
  %37 = zext i1 %36 to i8
  %38 = getelementptr inbounds %struct.State, %struct.State* %0, i64 0, i32 2, i32 13
  store i8 %37, i8* %38, align 1
  %RAX.i220 = getelementptr inbounds %struct.State, %struct.State* %0, i64 0, i32 6, i32 1, i32 0, i32 0
  store i64 ptrtoint (%G__0x45882f_type* @G__0x45882f to i64), i64* %RAX.i220, align 8
  %RSI.i218 = getelementptr inbounds %struct.State, %struct.State* %0, i64 0, i32 6, i32 9, i32 0, i32 0
  store i64 1189, i64* %RSI.i218, align 8
  %RDI.i215 = getelementptr inbounds %struct.State, %struct.State* %0, i64 0, i32 6, i32 11, i32 0, i32 0
  %39 = add i64 %7, -16
  %40 = load i64, i64* %RDI.i215, align 8
  %41 = add i64 %10, 26
  store i64 %41, i64* %3, align 8
  %42 = inttoptr i64 %39 to i64*
  store i64 %40, i64* %42, align 8
  %43 = load i64, i64* %RBP.i, align 8
  %44 = add i64 %43, -8
  %45 = load i64, i64* %3, align 8
  %46 = add i64 %45, 4
  store i64 %46, i64* %3, align 8
  %47 = inttoptr i64 %44 to i64*
  %48 = load i64, i64* %47, align 8
  store i64 %48, i64* %RDI.i215, align 8
  %49 = add i64 %48, 24
  %50 = add i64 %45, 8
  store i64 %50, i64* %3, align 8
  %51 = inttoptr i64 %49 to i32*
  %52 = load i32, i32* %51, align 4
  %53 = sext i32 %52 to i64
  %54 = shl nsw i64 %53, 2
  %.lobit = lshr i32 %52, 31
  %55 = trunc i32 %.lobit to i8
  store i8 %55, i8* %14, align 1
  %56 = trunc i64 %54 to i32
  %57 = and i32 %56, 252
  %58 = tail call i32 @llvm.ctpop.i32(i32 %57)
  %59 = trunc i32 %58 to i8
  %60 = and i8 %59, 1
  %61 = xor i8 %60, 1
  store i8 %61, i8* %21, align 1
  store i8 0, i8* %26, align 1
  %62 = icmp eq i32 %52, 0
  %63 = zext i1 %62 to i8
  store i8 %63, i8* %29, align 1
  %64 = lshr i64 %53, 61
  %65 = trunc i64 %64 to i8
  %66 = and i8 %65, 1
  store i8 %66, i8* %32, align 1
  store i8 0, i8* %38, align 1
  %67 = add i64 %43, -32
  %68 = add i64 %45, 16
  store i64 %68, i64* %3, align 8
  %69 = inttoptr i64 %67 to i64*
  store i64 %54, i64* %69, align 8
  %70 = load i64, i64* %RAX.i220, align 8
  %71 = load i64, i64* %3, align 8
  store i64 %70, i64* %RDI.i215, align 8
  %RDX.i199 = getelementptr inbounds %struct.State, %struct.State* %0, i64 0, i32 6, i32 7, i32 0, i32 0
  %72 = load i64, i64* %RBP.i, align 8
  %73 = add i64 %72, -32
  %74 = add i64 %71, 7
  store i64 %74, i64* %3, align 8
  %75 = inttoptr i64 %73 to i64*
  %76 = load i64, i64* %75, align 8
  store i64 %76, i64* %RDX.i199, align 8
  %77 = add i64 %71, 90485
  %78 = add i64 %71, 12
  %79 = load i64, i64* %6, align 8
  %80 = add i64 %79, -8
  %81 = inttoptr i64 %80 to i64*
  store i64 %78, i64* %81, align 8
  store i64 %80, i64* %6, align 8
  store i64 %77, i64* %3, align 8
  %call2_42fef2 = tail call %struct.Memory* @sub_446060.sre_malloc(%struct.State* %0, i64 %77, %struct.Memory* %2)
  %82 = load i64, i64* %RBP.i, align 8
  %83 = add i64 %82, -16
  %84 = load i64, i64* %RAX.i220, align 8
  %85 = load i64, i64* %3, align 8
  %86 = add i64 %85, 4
  store i64 %86, i64* %3, align 8
  %87 = inttoptr i64 %83 to i64*
  store i64 %84, i64* %87, align 8
  %88 = load i64, i64* %RBP.i, align 8
  %89 = add i64 %88, -20
  %90 = load i64, i64* %3, align 8
  %91 = add i64 %90, 7
  store i64 %91, i64* %3, align 8
  %92 = inttoptr i64 %89 to i32*
  store i32 0, i32* %92, align 4
  %RCX.i187 = getelementptr inbounds %struct.State, %struct.State* %0, i64 0, i32 6, i32 5, i32 0, i32 0
  %.pre = load i64, i64* %3, align 8
  br label %block_.L_42ff02

block_.L_42ff02:                                  ; preds = %block_.L_430014, %entry
  %93 = phi i64 [ %518, %block_.L_430014 ], [ %.pre, %entry ]
  %94 = load i64, i64* %RBP.i, align 8
  %95 = add i64 %94, -20
  %96 = add i64 %93, 3
  store i64 %96, i64* %3, align 8
  %97 = inttoptr i64 %95 to i32*
  %98 = load i32, i32* %97, align 4
  %99 = zext i32 %98 to i64
  store i64 %99, i64* %RAX.i220, align 8
  %100 = add i64 %94, -8
  %101 = add i64 %93, 7
  store i64 %101, i64* %3, align 8
  %102 = inttoptr i64 %100 to i64*
  %103 = load i64, i64* %102, align 8
  store i64 %103, i64* %RCX.i187, align 8
  %104 = add i64 %103, 24
  %105 = add i64 %93, 10
  store i64 %105, i64* %3, align 8
  %106 = inttoptr i64 %104 to i32*
  %107 = load i32, i32* %106, align 4
  %108 = sub i32 %98, %107
  %109 = icmp ult i32 %98, %107
  %110 = zext i1 %109 to i8
  store i8 %110, i8* %14, align 1
  %111 = and i32 %108, 255
  %112 = tail call i32 @llvm.ctpop.i32(i32 %111)
  %113 = trunc i32 %112 to i8
  %114 = and i8 %113, 1
  %115 = xor i8 %114, 1
  store i8 %115, i8* %21, align 1
  %116 = xor i32 %107, %98
  %117 = xor i32 %116, %108
  %118 = lshr i32 %117, 4
  %119 = trunc i32 %118 to i8
  %120 = and i8 %119, 1
  store i8 %120, i8* %26, align 1
  %121 = icmp eq i32 %108, 0
  %122 = zext i1 %121 to i8
  store i8 %122, i8* %29, align 1
  %123 = lshr i32 %108, 31
  %124 = trunc i32 %123 to i8
  store i8 %124, i8* %32, align 1
  %125 = lshr i32 %98, 31
  %126 = lshr i32 %107, 31
  %127 = xor i32 %126, %125
  %128 = xor i32 %123, %125
  %129 = add nuw nsw i32 %128, %127
  %130 = icmp eq i32 %129, 2
  %131 = zext i1 %130 to i8
  store i8 %131, i8* %38, align 1
  %132 = icmp ne i8 %124, 0
  %133 = xor i1 %132, %130
  %.v21 = select i1 %133, i64 16, i64 293
  %134 = add i64 %93, %.v21
  store i64 %134, i64* %3, align 8
  br i1 %133, label %block_42ff12, label %block_.L_430027

block_42ff12:                                     ; preds = %block_.L_42ff02
  %135 = add i64 %94, -24
  %136 = add i64 %134, 7
  store i64 %136, i64* %3, align 8
  %137 = inttoptr i64 %135 to i32*
  store i32 0, i32* %137, align 4
  %.pre10 = load i64, i64* %3, align 8
  br label %block_.L_42ff19

block_.L_42ff19:                                  ; preds = %block_.L_42ffce, %block_42ff12
  %138 = phi i64 [ %438, %block_.L_42ffce ], [ %.pre10, %block_42ff12 ]
  %139 = load i64, i64* %RBP.i, align 8
  %140 = add i64 %139, -24
  %141 = add i64 %138, 3
  store i64 %141, i64* %3, align 8
  %142 = inttoptr i64 %140 to i32*
  %143 = load i32, i32* %142, align 4
  %144 = zext i32 %143 to i64
  store i64 %144, i64* %RAX.i220, align 8
  %145 = add i64 %139, -8
  %146 = add i64 %138, 7
  store i64 %146, i64* %3, align 8
  %147 = inttoptr i64 %145 to i64*
  %148 = load i64, i64* %147, align 8
  store i64 %148, i64* %RCX.i187, align 8
  %149 = add i64 %148, 28
  %150 = add i64 %138, 10
  store i64 %150, i64* %3, align 8
  %151 = inttoptr i64 %149 to i32*
  %152 = load i32, i32* %151, align 4
  %153 = sub i32 %143, %152
  %154 = icmp ult i32 %143, %152
  %155 = zext i1 %154 to i8
  store i8 %155, i8* %14, align 1
  %156 = and i32 %153, 255
  %157 = tail call i32 @llvm.ctpop.i32(i32 %156)
  %158 = trunc i32 %157 to i8
  %159 = and i8 %158, 1
  %160 = xor i8 %159, 1
  store i8 %160, i8* %21, align 1
  %161 = xor i32 %152, %143
  %162 = xor i32 %161, %153
  %163 = lshr i32 %162, 4
  %164 = trunc i32 %163 to i8
  %165 = and i8 %164, 1
  store i8 %165, i8* %26, align 1
  %166 = icmp eq i32 %153, 0
  %167 = zext i1 %166 to i8
  store i8 %167, i8* %29, align 1
  %168 = lshr i32 %153, 31
  %169 = trunc i32 %168 to i8
  store i8 %169, i8* %32, align 1
  %170 = lshr i32 %143, 31
  %171 = lshr i32 %152, 31
  %172 = xor i32 %171, %170
  %173 = xor i32 %168, %170
  %174 = add nuw nsw i32 %173, %172
  %175 = icmp eq i32 %174, 2
  %176 = zext i1 %175 to i8
  store i8 %176, i8* %38, align 1
  %177 = icmp ne i8 %169, 0
  %178 = xor i1 %177, %175
  %.v20 = select i1 %178, i64 16, i64 200
  %179 = add i64 %138, %.v20
  store i64 %179, i64* %3, align 8
  br i1 %178, label %block_42ff29, label %block_.L_42ffe1.loopexit

block_42ff29:                                     ; preds = %block_.L_42ff19
  %180 = add i64 %179, 4
  store i64 %180, i64* %3, align 8
  %181 = load i64, i64* %147, align 8
  store i64 %181, i64* %RAX.i220, align 8
  %182 = add i64 %179, 7
  store i64 %182, i64* %3, align 8
  %183 = inttoptr i64 %181 to i64*
  %184 = load i64, i64* %183, align 8
  store i64 %184, i64* %RAX.i220, align 8
  %185 = add i64 %179, 11
  store i64 %185, i64* %3, align 8
  %186 = load i32, i32* %142, align 4
  %187 = sext i32 %186 to i64
  store i64 %187, i64* %RCX.i187, align 8
  %188 = shl nsw i64 %187, 3
  %189 = add i64 %188, %184
  %190 = add i64 %179, 15
  store i64 %190, i64* %3, align 8
  %191 = inttoptr i64 %189 to i64*
  %192 = load i64, i64* %191, align 8
  store i64 %192, i64* %RAX.i220, align 8
  %193 = add i64 %139, -20
  %194 = add i64 %179, 19
  store i64 %194, i64* %3, align 8
  %195 = inttoptr i64 %193 to i32*
  %196 = load i32, i32* %195, align 4
  %197 = sext i32 %196 to i64
  store i64 %197, i64* %RCX.i187, align 8
  %198 = add i64 %192, %197
  %199 = add i64 %179, 23
  store i64 %199, i64* %3, align 8
  %200 = inttoptr i64 %198 to i8*
  %201 = load i8, i8* %200, align 1
  %202 = sext i8 %201 to i64
  %203 = and i64 %202, 4294967295
  store i64 %203, i64* %RDX.i199, align 8
  %204 = sext i8 %201 to i32
  %205 = add nsw i32 %204, -32
  %206 = icmp ult i8 %201, 32
  %207 = zext i1 %206 to i8
  store i8 %207, i8* %14, align 1
  %208 = and i32 %205, 255
  %209 = tail call i32 @llvm.ctpop.i32(i32 %208)
  %210 = trunc i32 %209 to i8
  %211 = and i8 %210, 1
  %212 = xor i8 %211, 1
  store i8 %212, i8* %21, align 1
  %213 = xor i32 %205, %204
  %214 = lshr i32 %213, 4
  %215 = trunc i32 %214 to i8
  %216 = and i8 %215, 1
  store i8 %216, i8* %26, align 1
  %217 = icmp eq i32 %205, 0
  %218 = zext i1 %217 to i8
  store i8 %218, i8* %29, align 1
  %219 = lshr i32 %205, 31
  %220 = trunc i32 %219 to i8
  store i8 %220, i8* %32, align 1
  %221 = lshr i32 %204, 31
  %222 = xor i32 %219, %221
  %223 = add nuw nsw i32 %222, %221
  %224 = icmp eq i32 %223, 2
  %225 = zext i1 %224 to i8
  store i8 %225, i8* %38, align 1
  %.v19 = select i1 %217, i64 160, i64 32
  %226 = add i64 %179, %.v19
  store i64 %226, i64* %3, align 8
  br i1 %217, label %block_.L_42ffc9, label %block_42ff49

block_42ff49:                                     ; preds = %block_42ff29
  %227 = add i64 %226, 4
  store i64 %227, i64* %3, align 8
  %228 = load i64, i64* %147, align 8
  store i64 %228, i64* %RAX.i220, align 8
  %229 = add i64 %226, 7
  store i64 %229, i64* %3, align 8
  %230 = inttoptr i64 %228 to i64*
  %231 = load i64, i64* %230, align 8
  store i64 %231, i64* %RAX.i220, align 8
  %232 = add i64 %226, 11
  store i64 %232, i64* %3, align 8
  %233 = load i32, i32* %142, align 4
  %234 = sext i32 %233 to i64
  store i64 %234, i64* %RCX.i187, align 8
  %235 = shl nsw i64 %234, 3
  %236 = add i64 %235, %231
  %237 = add i64 %226, 15
  store i64 %237, i64* %3, align 8
  %238 = inttoptr i64 %236 to i64*
  %239 = load i64, i64* %238, align 8
  store i64 %239, i64* %RAX.i220, align 8
  %240 = add i64 %226, 19
  store i64 %240, i64* %3, align 8
  %241 = load i32, i32* %195, align 4
  %242 = sext i32 %241 to i64
  store i64 %242, i64* %RCX.i187, align 8
  %243 = add i64 %239, %242
  %244 = add i64 %226, 23
  store i64 %244, i64* %3, align 8
  %245 = inttoptr i64 %243 to i8*
  %246 = load i8, i8* %245, align 1
  %247 = sext i8 %246 to i64
  %248 = and i64 %247, 4294967295
  store i64 %248, i64* %RDX.i199, align 8
  %249 = sext i8 %246 to i32
  %250 = add nsw i32 %249, -46
  %251 = icmp ult i8 %246, 46
  %252 = zext i1 %251 to i8
  store i8 %252, i8* %14, align 1
  %253 = and i32 %250, 255
  %254 = tail call i32 @llvm.ctpop.i32(i32 %253)
  %255 = trunc i32 %254 to i8
  %256 = and i8 %255, 1
  %257 = xor i8 %256, 1
  store i8 %257, i8* %21, align 1
  %258 = xor i32 %250, %249
  %259 = lshr i32 %258, 4
  %260 = trunc i32 %259 to i8
  %261 = and i8 %260, 1
  store i8 %261, i8* %26, align 1
  %262 = icmp eq i32 %250, 0
  %263 = zext i1 %262 to i8
  store i8 %263, i8* %29, align 1
  %264 = lshr i32 %250, 31
  %265 = trunc i32 %264 to i8
  store i8 %265, i8* %32, align 1
  %266 = lshr i32 %249, 31
  %267 = xor i32 %264, %266
  %268 = add nuw nsw i32 %267, %266
  %269 = icmp eq i32 %268, 2
  %270 = zext i1 %269 to i8
  store i8 %270, i8* %38, align 1
  %.v18 = select i1 %262, i64 128, i64 32
  %271 = add i64 %226, %.v18
  store i64 %271, i64* %3, align 8
  br i1 %262, label %block_.L_42ffc9, label %block_42ff69

block_42ff69:                                     ; preds = %block_42ff49
  %272 = add i64 %271, 4
  store i64 %272, i64* %3, align 8
  %273 = load i64, i64* %147, align 8
  store i64 %273, i64* %RAX.i220, align 8
  %274 = add i64 %271, 7
  store i64 %274, i64* %3, align 8
  %275 = inttoptr i64 %273 to i64*
  %276 = load i64, i64* %275, align 8
  store i64 %276, i64* %RAX.i220, align 8
  %277 = add i64 %271, 11
  store i64 %277, i64* %3, align 8
  %278 = load i32, i32* %142, align 4
  %279 = sext i32 %278 to i64
  store i64 %279, i64* %RCX.i187, align 8
  %280 = shl nsw i64 %279, 3
  %281 = add i64 %280, %276
  %282 = add i64 %271, 15
  store i64 %282, i64* %3, align 8
  %283 = inttoptr i64 %281 to i64*
  %284 = load i64, i64* %283, align 8
  store i64 %284, i64* %RAX.i220, align 8
  %285 = add i64 %271, 19
  store i64 %285, i64* %3, align 8
  %286 = load i32, i32* %195, align 4
  %287 = sext i32 %286 to i64
  store i64 %287, i64* %RCX.i187, align 8
  %288 = add i64 %284, %287
  %289 = add i64 %271, 23
  store i64 %289, i64* %3, align 8
  %290 = inttoptr i64 %288 to i8*
  %291 = load i8, i8* %290, align 1
  %292 = sext i8 %291 to i64
  %293 = and i64 %292, 4294967295
  store i64 %293, i64* %RDX.i199, align 8
  %294 = sext i8 %291 to i32
  %295 = add nsw i32 %294, -95
  %296 = icmp ult i8 %291, 95
  %297 = zext i1 %296 to i8
  store i8 %297, i8* %14, align 1
  %298 = and i32 %295, 255
  %299 = tail call i32 @llvm.ctpop.i32(i32 %298)
  %300 = trunc i32 %299 to i8
  %301 = and i8 %300, 1
  %302 = xor i8 %301, 1
  store i8 %302, i8* %21, align 1
  %303 = xor i32 %294, 16
  %304 = xor i32 %303, %295
  %305 = lshr i32 %304, 4
  %306 = trunc i32 %305 to i8
  %307 = and i8 %306, 1
  store i8 %307, i8* %26, align 1
  %308 = icmp eq i32 %295, 0
  %309 = zext i1 %308 to i8
  store i8 %309, i8* %29, align 1
  %310 = lshr i32 %295, 31
  %311 = trunc i32 %310 to i8
  store i8 %311, i8* %32, align 1
  %312 = lshr i32 %294, 31
  %313 = xor i32 %310, %312
  %314 = add nuw nsw i32 %313, %312
  %315 = icmp eq i32 %314, 2
  %316 = zext i1 %315 to i8
  store i8 %316, i8* %38, align 1
  %.v17 = select i1 %308, i64 96, i64 32
  %317 = add i64 %271, %.v17
  store i64 %317, i64* %3, align 8
  br i1 %308, label %block_.L_42ffc9, label %block_42ff89

block_42ff89:                                     ; preds = %block_42ff69
  %318 = add i64 %317, 4
  store i64 %318, i64* %3, align 8
  %319 = load i64, i64* %147, align 8
  store i64 %319, i64* %RAX.i220, align 8
  %320 = add i64 %317, 7
  store i64 %320, i64* %3, align 8
  %321 = inttoptr i64 %319 to i64*
  %322 = load i64, i64* %321, align 8
  store i64 %322, i64* %RAX.i220, align 8
  %323 = add i64 %317, 11
  store i64 %323, i64* %3, align 8
  %324 = load i32, i32* %142, align 4
  %325 = sext i32 %324 to i64
  store i64 %325, i64* %RCX.i187, align 8
  %326 = shl nsw i64 %325, 3
  %327 = add i64 %326, %322
  %328 = add i64 %317, 15
  store i64 %328, i64* %3, align 8
  %329 = inttoptr i64 %327 to i64*
  %330 = load i64, i64* %329, align 8
  store i64 %330, i64* %RAX.i220, align 8
  %331 = add i64 %317, 19
  store i64 %331, i64* %3, align 8
  %332 = load i32, i32* %195, align 4
  %333 = sext i32 %332 to i64
  store i64 %333, i64* %RCX.i187, align 8
  %334 = add i64 %330, %333
  %335 = add i64 %317, 23
  store i64 %335, i64* %3, align 8
  %336 = inttoptr i64 %334 to i8*
  %337 = load i8, i8* %336, align 1
  %338 = sext i8 %337 to i64
  %339 = and i64 %338, 4294967295
  store i64 %339, i64* %RDX.i199, align 8
  %340 = sext i8 %337 to i32
  %341 = add nsw i32 %340, -45
  %342 = icmp ult i8 %337, 45
  %343 = zext i1 %342 to i8
  store i8 %343, i8* %14, align 1
  %344 = and i32 %341, 255
  %345 = tail call i32 @llvm.ctpop.i32(i32 %344)
  %346 = trunc i32 %345 to i8
  %347 = and i8 %346, 1
  %348 = xor i8 %347, 1
  store i8 %348, i8* %21, align 1
  %349 = xor i32 %341, %340
  %350 = lshr i32 %349, 4
  %351 = trunc i32 %350 to i8
  %352 = and i8 %351, 1
  store i8 %352, i8* %26, align 1
  %353 = icmp eq i32 %341, 0
  %354 = zext i1 %353 to i8
  store i8 %354, i8* %29, align 1
  %355 = lshr i32 %341, 31
  %356 = trunc i32 %355 to i8
  store i8 %356, i8* %32, align 1
  %357 = lshr i32 %340, 31
  %358 = xor i32 %355, %357
  %359 = add nuw nsw i32 %358, %357
  %360 = icmp eq i32 %359, 2
  %361 = zext i1 %360 to i8
  store i8 %361, i8* %38, align 1
  %.v16 = select i1 %353, i64 64, i64 32
  %362 = add i64 %317, %.v16
  store i64 %362, i64* %3, align 8
  br i1 %353, label %block_.L_42ffc9, label %block_42ffa9

block_42ffa9:                                     ; preds = %block_42ff89
  %363 = add i64 %362, 4
  store i64 %363, i64* %3, align 8
  %364 = load i64, i64* %147, align 8
  store i64 %364, i64* %RAX.i220, align 8
  %365 = add i64 %362, 7
  store i64 %365, i64* %3, align 8
  %366 = inttoptr i64 %364 to i64*
  %367 = load i64, i64* %366, align 8
  store i64 %367, i64* %RAX.i220, align 8
  %368 = add i64 %362, 11
  store i64 %368, i64* %3, align 8
  %369 = load i32, i32* %142, align 4
  %370 = sext i32 %369 to i64
  store i64 %370, i64* %RCX.i187, align 8
  %371 = shl nsw i64 %370, 3
  %372 = add i64 %371, %367
  %373 = add i64 %362, 15
  store i64 %373, i64* %3, align 8
  %374 = inttoptr i64 %372 to i64*
  %375 = load i64, i64* %374, align 8
  store i64 %375, i64* %RAX.i220, align 8
  %376 = add i64 %362, 19
  store i64 %376, i64* %3, align 8
  %377 = load i32, i32* %195, align 4
  %378 = sext i32 %377 to i64
  store i64 %378, i64* %RCX.i187, align 8
  %379 = add i64 %375, %378
  %380 = add i64 %362, 23
  store i64 %380, i64* %3, align 8
  %381 = inttoptr i64 %379 to i8*
  %382 = load i8, i8* %381, align 1
  %383 = sext i8 %382 to i64
  %384 = and i64 %383, 4294967295
  store i64 %384, i64* %RDX.i199, align 8
  %385 = sext i8 %382 to i32
  %386 = add nsw i32 %385, -126
  %387 = icmp ult i8 %382, 126
  %388 = zext i1 %387 to i8
  store i8 %388, i8* %14, align 1
  %389 = and i32 %386, 255
  %390 = tail call i32 @llvm.ctpop.i32(i32 %389)
  %391 = trunc i32 %390 to i8
  %392 = and i8 %391, 1
  %393 = xor i8 %392, 1
  store i8 %393, i8* %21, align 1
  %394 = xor i32 %385, 16
  %395 = xor i32 %394, %386
  %396 = lshr i32 %395, 4
  %397 = trunc i32 %396 to i8
  %398 = and i8 %397, 1
  store i8 %398, i8* %26, align 1
  %399 = icmp eq i32 %386, 0
  %400 = zext i1 %399 to i8
  store i8 %400, i8* %29, align 1
  %401 = lshr i32 %386, 31
  %402 = trunc i32 %401 to i8
  store i8 %402, i8* %32, align 1
  %403 = lshr i32 %385, 31
  %404 = xor i32 %401, %403
  %405 = add nuw nsw i32 %404, %403
  %406 = icmp eq i32 %405, 2
  %407 = zext i1 %406 to i8
  store i8 %407, i8* %38, align 1
  %.v15 = select i1 %399, i64 32, i64 37
  %408 = add i64 %362, %.v15
  store i64 %408, i64* %3, align 8
  br i1 %399, label %block_.L_42ffc9, label %block_.L_42ffce

block_.L_42ffc9:                                  ; preds = %block_42ffa9, %block_42ff89, %block_42ff69, %block_42ff49, %block_42ff29
  %409 = phi i64 [ %408, %block_42ffa9 ], [ %362, %block_42ff89 ], [ %317, %block_42ff69 ], [ %271, %block_42ff49 ], [ %226, %block_42ff29 ]
  %410 = add i64 %409, 24
  store i64 %410, i64* %3, align 8
  br label %block_.L_42ffe1

block_.L_42ffce:                                  ; preds = %block_42ffa9
  %411 = add i64 %408, 8
  store i64 %411, i64* %3, align 8
  %412 = load i32, i32* %142, align 4
  %413 = add i32 %412, 1
  %414 = zext i32 %413 to i64
  store i64 %414, i64* %RAX.i220, align 8
  %415 = icmp eq i32 %412, -1
  %416 = icmp eq i32 %413, 0
  %417 = or i1 %415, %416
  %418 = zext i1 %417 to i8
  store i8 %418, i8* %14, align 1
  %419 = and i32 %413, 255
  %420 = tail call i32 @llvm.ctpop.i32(i32 %419)
  %421 = trunc i32 %420 to i8
  %422 = and i8 %421, 1
  %423 = xor i8 %422, 1
  store i8 %423, i8* %21, align 1
  %424 = xor i32 %413, %412
  %425 = lshr i32 %424, 4
  %426 = trunc i32 %425 to i8
  %427 = and i8 %426, 1
  store i8 %427, i8* %26, align 1
  %428 = zext i1 %416 to i8
  store i8 %428, i8* %29, align 1
  %429 = lshr i32 %413, 31
  %430 = trunc i32 %429 to i8
  store i8 %430, i8* %32, align 1
  %431 = lshr i32 %412, 31
  %432 = xor i32 %429, %431
  %433 = add nuw nsw i32 %432, %429
  %434 = icmp eq i32 %433, 2
  %435 = zext i1 %434 to i8
  store i8 %435, i8* %38, align 1
  %436 = add i64 %408, 14
  store i64 %436, i64* %3, align 8
  store i32 %413, i32* %142, align 4
  %437 = load i64, i64* %3, align 8
  %438 = add i64 %437, -195
  store i64 %438, i64* %3, align 8
  br label %block_.L_42ff19

block_.L_42ffe1.loopexit:                         ; preds = %block_.L_42ff19
  %.pre12 = add i64 %139, -20
  %.pre13 = inttoptr i64 %.pre12 to i32*
  br label %block_.L_42ffe1

block_.L_42ffe1:                                  ; preds = %block_.L_42ffe1.loopexit, %block_.L_42ffc9
  %.pre-phi14 = phi i32* [ %.pre13, %block_.L_42ffe1.loopexit ], [ %195, %block_.L_42ffc9 ]
  %439 = phi i64 [ %179, %block_.L_42ffe1.loopexit ], [ %410, %block_.L_42ffc9 ]
  %440 = add i64 %439, 3
  store i64 %440, i64* %3, align 8
  %441 = load i32, i32* %142, align 4
  %442 = zext i32 %441 to i64
  store i64 %442, i64* %RAX.i220, align 8
  %443 = add i64 %439, 7
  store i64 %443, i64* %3, align 8
  %444 = load i64, i64* %147, align 8
  store i64 %444, i64* %RCX.i187, align 8
  %445 = add i64 %444, 28
  %446 = add i64 %439, 10
  store i64 %446, i64* %3, align 8
  %447 = inttoptr i64 %445 to i32*
  %448 = load i32, i32* %447, align 4
  %449 = sub i32 %441, %448
  %450 = icmp ult i32 %441, %448
  %451 = zext i1 %450 to i8
  store i8 %451, i8* %14, align 1
  %452 = and i32 %449, 255
  %453 = tail call i32 @llvm.ctpop.i32(i32 %452)
  %454 = trunc i32 %453 to i8
  %455 = and i8 %454, 1
  %456 = xor i8 %455, 1
  store i8 %456, i8* %21, align 1
  %457 = xor i32 %448, %441
  %458 = xor i32 %457, %449
  %459 = lshr i32 %458, 4
  %460 = trunc i32 %459 to i8
  %461 = and i8 %460, 1
  store i8 %461, i8* %26, align 1
  %462 = icmp eq i32 %449, 0
  %463 = zext i1 %462 to i8
  store i8 %463, i8* %29, align 1
  %464 = lshr i32 %449, 31
  %465 = trunc i32 %464 to i8
  store i8 %465, i8* %32, align 1
  %466 = lshr i32 %441, 31
  %467 = lshr i32 %448, 31
  %468 = xor i32 %467, %466
  %469 = xor i32 %464, %466
  %470 = add nuw nsw i32 %469, %468
  %471 = icmp eq i32 %470, 2
  %472 = zext i1 %471 to i8
  store i8 %472, i8* %38, align 1
  %.v = select i1 %462, i64 16, i64 36
  %473 = add i64 %439, %.v
  %474 = add i64 %139, -16
  %475 = add i64 %473, 4
  store i64 %475, i64* %3, align 8
  %476 = inttoptr i64 %474 to i64*
  %477 = load i64, i64* %476, align 8
  store i64 %477, i64* %RAX.i220, align 8
  %478 = add i64 %473, 8
  store i64 %478, i64* %3, align 8
  %479 = load i32, i32* %.pre-phi14, align 4
  %480 = sext i32 %479 to i64
  store i64 %480, i64* %RCX.i187, align 8
  %481 = shl nsw i64 %480, 2
  %482 = add i64 %481, %477
  %483 = add i64 %473, 15
  store i64 %483, i64* %3, align 8
  %484 = inttoptr i64 %482 to i32*
  br i1 %462, label %block_42fff1, label %block_.L_430005

block_42fff1:                                     ; preds = %block_.L_42ffe1
  store i32 1, i32* %484, align 4
  %485 = load i64, i64* %3, align 8
  %486 = add i64 %485, 20
  store i64 %486, i64* %3, align 8
  br label %block_.L_430014

block_.L_430005:                                  ; preds = %block_.L_42ffe1
  store i32 0, i32* %484, align 4
  %.pre11 = load i64, i64* %3, align 8
  br label %block_.L_430014

block_.L_430014:                                  ; preds = %block_.L_430005, %block_42fff1
  %487 = phi i64 [ %.pre11, %block_.L_430005 ], [ %486, %block_42fff1 ]
  %488 = load i64, i64* %RBP.i, align 8
  %489 = add i64 %488, -20
  %490 = add i64 %487, 8
  store i64 %490, i64* %3, align 8
  %491 = inttoptr i64 %489 to i32*
  %492 = load i32, i32* %491, align 4
  %493 = add i32 %492, 1
  %494 = zext i32 %493 to i64
  store i64 %494, i64* %RAX.i220, align 8
  %495 = icmp eq i32 %492, -1
  %496 = icmp eq i32 %493, 0
  %497 = or i1 %495, %496
  %498 = zext i1 %497 to i8
  store i8 %498, i8* %14, align 1
  %499 = and i32 %493, 255
  %500 = tail call i32 @llvm.ctpop.i32(i32 %499)
  %501 = trunc i32 %500 to i8
  %502 = and i8 %501, 1
  %503 = xor i8 %502, 1
  store i8 %503, i8* %21, align 1
  %504 = xor i32 %493, %492
  %505 = lshr i32 %504, 4
  %506 = trunc i32 %505 to i8
  %507 = and i8 %506, 1
  store i8 %507, i8* %26, align 1
  %508 = zext i1 %496 to i8
  store i8 %508, i8* %29, align 1
  %509 = lshr i32 %493, 31
  %510 = trunc i32 %509 to i8
  store i8 %510, i8* %32, align 1
  %511 = lshr i32 %492, 31
  %512 = xor i32 %509, %511
  %513 = add nuw nsw i32 %512, %509
  %514 = icmp eq i32 %513, 2
  %515 = zext i1 %514 to i8
  store i8 %515, i8* %38, align 1
  %516 = add i64 %487, 14
  store i64 %516, i64* %3, align 8
  store i32 %493, i32* %491, align 4
  %517 = load i64, i64* %3, align 8
  %518 = add i64 %517, -288
  store i64 %518, i64* %3, align 8
  br label %block_.L_42ff02

block_.L_430027:                                  ; preds = %block_.L_42ff02
  %519 = add i64 %134, 4
  store i64 %519, i64* %3, align 8
  %520 = load i64, i64* %102, align 8
  store i64 %520, i64* %RDI.i215, align 8
  %521 = add i64 %94, -16
  %522 = add i64 %134, 8
  store i64 %522, i64* %3, align 8
  %523 = inttoptr i64 %521 to i64*
  %524 = load i64, i64* %523, align 8
  store i64 %524, i64* %RSI.i218, align 8
  %525 = add i64 %134, -1575
  %526 = add i64 %134, 13
  %527 = load i64, i64* %6, align 8
  %528 = add i64 %527, -8
  %529 = inttoptr i64 %528 to i64*
  store i64 %526, i64* %529, align 8
  store i64 %528, i64* %6, align 8
  store i64 %525, i64* %3, align 8
  %call2_43002f = tail call %struct.Memory* @sub_42fa00.MSAShorterAlignment(%struct.State* nonnull %0, i64 %525, %struct.Memory* %call2_42fef2)
  %530 = load i64, i64* %RBP.i, align 8
  %531 = add i64 %530, -16
  %532 = load i64, i64* %3, align 8
  %533 = add i64 %532, 4
  store i64 %533, i64* %3, align 8
  %534 = inttoptr i64 %531 to i64*
  %535 = load i64, i64* %534, align 8
  store i64 %535, i64* %RSI.i218, align 8
  store i64 %535, i64* %RDI.i215, align 8
  %536 = add i64 %532, -191668
  %537 = add i64 %532, 12
  %538 = load i64, i64* %6, align 8
  %539 = add i64 %538, -8
  %540 = inttoptr i64 %539 to i64*
  store i64 %537, i64* %540, align 8
  store i64 %539, i64* %6, align 8
  store i64 %536, i64* %3, align 8
  %541 = tail call %struct.Memory* @__remill_function_call(%struct.State* nonnull %0, i64 ptrtoint (i64 (i64)* @free to i64), %struct.Memory* %call2_43002f)
  %542 = load i64, i64* %6, align 8
  %543 = load i64, i64* %3, align 8
  %544 = add i64 %542, 32
  store i64 %544, i64* %6, align 8
  %545 = icmp ugt i64 %542, -33
  %546 = zext i1 %545 to i8
  store i8 %546, i8* %14, align 1
  %547 = trunc i64 %544 to i32
  %548 = and i32 %547, 255
  %549 = tail call i32 @llvm.ctpop.i32(i32 %548)
  %550 = trunc i32 %549 to i8
  %551 = and i8 %550, 1
  %552 = xor i8 %551, 1
  store i8 %552, i8* %21, align 1
  %553 = xor i64 %544, %542
  %554 = lshr i64 %553, 4
  %555 = trunc i64 %554 to i8
  %556 = and i8 %555, 1
  store i8 %556, i8* %26, align 1
  %557 = icmp eq i64 %544, 0
  %558 = zext i1 %557 to i8
  store i8 %558, i8* %29, align 1
  %559 = lshr i64 %544, 63
  %560 = trunc i64 %559 to i8
  store i8 %560, i8* %32, align 1
  %561 = lshr i64 %542, 63
  %562 = xor i64 %559, %561
  %563 = add nuw nsw i64 %562, %559
  %564 = icmp eq i64 %563, 2
  %565 = zext i1 %564 to i8
  store i8 %565, i8* %38, align 1
  %566 = add i64 %543, 5
  store i64 %566, i64* %3, align 8
  %567 = add i64 %542, 40
  %568 = inttoptr i64 %544 to i64*
  %569 = load i64, i64* %568, align 8
  store i64 %569, i64* %RBP.i, align 8
  store i64 %567, i64* %6, align 8
  %570 = add i64 %543, 6
  store i64 %570, i64* %3, align 8
  %571 = inttoptr i64 %567 to i64*
  %572 = load i64, i64* %571, align 8
  store i64 %572, i64* %3, align 8
  %573 = add i64 %542, 48
  store i64 %573, i64* %6, align 8
  ret %struct.Memory* %541
}

; Function Attrs: norecurse nounwind
define %struct.Memory* @routine_pushq__rbp(%struct.State* nocapture dereferenceable(3376), i64, %struct.Memory* readnone returned) local_unnamed_addr #2 {
block_400488:
  %PC = getelementptr inbounds %struct.State, %struct.State* %0, i64 0, i32 6, i32 33, i32 0, i32 0
  %RBP = getelementptr inbounds %struct.State, %struct.State* %0, i64 0, i32 6, i32 15, i32 0, i32 0
  %3 = load i64, i64* %RBP, align 8
  %4 = load i64, i64* %PC, align 8
  %5 = add i64 %4, 1
  store i64 %5, i64* %PC, align 8
  %6 = getelementptr inbounds %struct.State, %struct.State* %0, i64 0, i32 6, i32 13, i32 0, i32 0
  %7 = load i64, i64* %6, align 8
  %8 = add i64 %7, -8
  %9 = inttoptr i64 %8 to i64*
  store i64 %3, i64* %9, align 8
  store i64 %8, i64* %6, align 8
  ret %struct.Memory* %2
}

; Function Attrs: norecurse nounwind
define %struct.Memory* @routine_movq__rsp___rbp(%struct.State* nocapture dereferenceable(3376), i64, %struct.Memory* readnone returned) local_unnamed_addr #2 {
block_400488:
  %PC = getelementptr inbounds %struct.State, %struct.State* %0, i64 0, i32 6, i32 33, i32 0, i32 0
  %RSP = getelementptr inbounds %struct.State, %struct.State* %0, i64 0, i32 6, i32 13, i32 0, i32 0
  %RBP = getelementptr inbounds %struct.State, %struct.State* %0, i64 0, i32 6, i32 15, i32 0, i32 0
  %3 = load i64, i64* %RSP, align 8
  %4 = load i64, i64* %PC, align 8
  %5 = add i64 %4, 3
  store i64 %5, i64* %PC, align 8
  store i64 %3, i64* %RBP, align 8
  ret %struct.Memory* %2
}

; Function Attrs: nounwind
define %struct.Memory* @routine_subq__0x20___rsp(%struct.State* nocapture dereferenceable(3376), i64, %struct.Memory* readnone returned) local_unnamed_addr #3 {
block_400488:
  %PC = getelementptr inbounds %struct.State, %struct.State* %0, i64 0, i32 6, i32 33, i32 0, i32 0
  %RSP = getelementptr inbounds %struct.State, %struct.State* %0, i64 0, i32 6, i32 13, i32 0, i32 0
  %3 = load i64, i64* %RSP, align 8
  %4 = load i64, i64* %PC, align 8
  %5 = add i64 %4, 4
  store i64 %5, i64* %PC, align 8
  %6 = add i64 %3, -32
  store i64 %6, i64* %RSP, align 8
  %7 = icmp ult i64 %3, 32
  %8 = zext i1 %7 to i8
  %9 = getelementptr inbounds %struct.State, %struct.State* %0, i64 0, i32 2, i32 1
  store i8 %8, i8* %9, align 1
  %10 = trunc i64 %6 to i32
  %11 = and i32 %10, 255
  %12 = tail call i32 @llvm.ctpop.i32(i32 %11)
  %13 = trunc i32 %12 to i8
  %14 = and i8 %13, 1
  %15 = xor i8 %14, 1
  %16 = getelementptr inbounds %struct.State, %struct.State* %0, i64 0, i32 2, i32 3
  store i8 %15, i8* %16, align 1
  %17 = xor i64 %6, %3
  %18 = lshr i64 %17, 4
  %19 = trunc i64 %18 to i8
  %20 = and i8 %19, 1
  %21 = getelementptr inbounds %struct.State, %struct.State* %0, i64 0, i32 2, i32 5
  store i8 %20, i8* %21, align 1
  %22 = icmp eq i64 %6, 0
  %23 = zext i1 %22 to i8
  %24 = getelementptr inbounds %struct.State, %struct.State* %0, i64 0, i32 2, i32 7
  store i8 %23, i8* %24, align 1
  %25 = lshr i64 %6, 63
  %26 = trunc i64 %25 to i8
  %27 = getelementptr inbounds %struct.State, %struct.State* %0, i64 0, i32 2, i32 9
  store i8 %26, i8* %27, align 1
  %28 = lshr i64 %3, 63
  %29 = xor i64 %25, %28
  %30 = add nuw nsw i64 %29, %28
  %31 = icmp eq i64 %30, 2
  %32 = zext i1 %31 to i8
  %33 = getelementptr inbounds %struct.State, %struct.State* %0, i64 0, i32 2, i32 13
  store i8 %32, i8* %33, align 1
  ret %struct.Memory* %2
}

; Function Attrs: norecurse nounwind
define %struct.Memory* @routine_movq__0x45882f___rax(%struct.State* nocapture dereferenceable(3376), i64, %struct.Memory* readnone returned) local_unnamed_addr #2 {
block_400488:
  %PC = getelementptr inbounds %struct.State, %struct.State* %0, i64 0, i32 6, i32 33, i32 0, i32 0
  %RAX = getelementptr inbounds %struct.State, %struct.State* %0, i64 0, i32 6, i32 1, i32 0, i32 0
  %3 = load i64, i64* %PC, align 8
  %4 = add i64 %3, 10
  store i64 %4, i64* %PC, align 8
  store i64 ptrtoint (%G__0x45882f_type* @G__0x45882f to i64), i64* %RAX, align 8
  ret %struct.Memory* %2
}

; Function Attrs: norecurse nounwind
define %struct.Memory* @routine_movl__0x4a5___esi(%struct.State* nocapture dereferenceable(3376), i64, %struct.Memory* readnone returned) local_unnamed_addr #2 {
block_400488:
  %PC = getelementptr inbounds %struct.State, %struct.State* %0, i64 0, i32 6, i32 33, i32 0, i32 0
  %RSI = getelementptr inbounds %struct.State, %struct.State* %0, i64 0, i32 6, i32 9, i32 0, i32 0
  %3 = load i64, i64* %PC, align 8
  %4 = add i64 %3, 5
  store i64 %4, i64* %PC, align 8
  store i64 1189, i64* %RSI, align 8
  ret %struct.Memory* %2
}

; Function Attrs: norecurse nounwind
define %struct.Memory* @routine_movq__rdi__MINUS0x8__rbp_(%struct.State* nocapture dereferenceable(3376), i64, %struct.Memory* readnone returned) local_unnamed_addr #2 {
block_400488:
  %PC = getelementptr inbounds %struct.State, %struct.State* %0, i64 0, i32 6, i32 33, i32 0, i32 0
  %RDI = getelementptr inbounds %struct.State, %struct.State* %0, i64 0, i32 6, i32 11, i32 0, i32 0
  %RBP = getelementptr inbounds %struct.State, %struct.State* %0, i64 0, i32 6, i32 15, i32 0, i32 0
  %3 = load i64, i64* %RBP, align 8
  %4 = add i64 %3, -8
  %5 = load i64, i64* %RDI, align 8
  %6 = load i64, i64* %PC, align 8
  %7 = add i64 %6, 4
  store i64 %7, i64* %PC, align 8
  %8 = inttoptr i64 %4 to i64*
  store i64 %5, i64* %8, align 8
  ret %struct.Memory* %2
}

; Function Attrs: norecurse nounwind
define %struct.Memory* @routine_movq_MINUS0x8__rbp____rdi(%struct.State* nocapture dereferenceable(3376), i64, %struct.Memory* readnone returned) local_unnamed_addr #2 {
block_400488:
  %PC = getelementptr inbounds %struct.State, %struct.State* %0, i64 0, i32 6, i32 33, i32 0, i32 0
  %RDI = getelementptr inbounds %struct.State, %struct.State* %0, i64 0, i32 6, i32 11, i32 0, i32 0
  %RBP = getelementptr inbounds %struct.State, %struct.State* %0, i64 0, i32 6, i32 15, i32 0, i32 0
  %3 = load i64, i64* %RBP, align 8
  %4 = add i64 %3, -8
  %5 = load i64, i64* %PC, align 8
  %6 = add i64 %5, 4
  store i64 %6, i64* %PC, align 8
  %7 = inttoptr i64 %4 to i64*
  %8 = load i64, i64* %7, align 8
  store i64 %8, i64* %RDI, align 8
  ret %struct.Memory* %2
}

; Function Attrs: norecurse nounwind
define %struct.Memory* @routine_movslq_0x18__rdi____rdi(%struct.State* nocapture dereferenceable(3376), i64, %struct.Memory* readnone returned) local_unnamed_addr #2 {
block_400488:
  %PC = getelementptr inbounds %struct.State, %struct.State* %0, i64 0, i32 6, i32 33, i32 0, i32 0
  %RDI = getelementptr inbounds %struct.State, %struct.State* %0, i64 0, i32 6, i32 11, i32 0, i32 0
  %3 = load i64, i64* %RDI, align 8
  %4 = add i64 %3, 24
  %5 = load i64, i64* %PC, align 8
  %6 = add i64 %5, 4
  store i64 %6, i64* %PC, align 8
  %7 = inttoptr i64 %4 to i32*
  %8 = load i32, i32* %7, align 4
  %9 = sext i32 %8 to i64
  store i64 %9, i64* %RDI, align 8
  ret %struct.Memory* %2
}

; Function Attrs: nounwind
define %struct.Memory* @routine_shlq__0x2___rdi(%struct.State* nocapture dereferenceable(3376), i64, %struct.Memory* readnone returned) local_unnamed_addr #3 {
block_400488:
  %PC = getelementptr inbounds %struct.State, %struct.State* %0, i64 0, i32 6, i32 33, i32 0, i32 0
  %RDI = getelementptr inbounds %struct.State, %struct.State* %0, i64 0, i32 6, i32 11, i32 0, i32 0
  %3 = load i64, i64* %RDI, align 8
  %4 = load i64, i64* %PC, align 8
  %5 = add i64 %4, 4
  store i64 %5, i64* %PC, align 8
  %6 = shl i64 %3, 2
  store i64 %6, i64* %RDI, align 8
  %7 = getelementptr inbounds %struct.State, %struct.State* %0, i64 0, i32 2, i32 1
  %8 = lshr i64 %3, 62
  %9 = trunc i64 %8 to i8
  %10 = and i8 %9, 1
  store i8 %10, i8* %7, align 1
  %11 = getelementptr inbounds %struct.State, %struct.State* %0, i64 0, i32 2, i32 3
  %12 = trunc i64 %6 to i32
  %13 = and i32 %12, 252
  %14 = tail call i32 @llvm.ctpop.i32(i32 %13)
  %15 = trunc i32 %14 to i8
  %16 = and i8 %15, 1
  %17 = xor i8 %16, 1
  store i8 %17, i8* %11, align 1
  %18 = getelementptr inbounds %struct.State, %struct.State* %0, i64 0, i32 2, i32 5
  store i8 0, i8* %18, align 1
  %19 = getelementptr inbounds %struct.State, %struct.State* %0, i64 0, i32 2, i32 7
  %20 = icmp eq i64 %6, 0
  %21 = zext i1 %20 to i8
  store i8 %21, i8* %19, align 1
  %22 = getelementptr inbounds %struct.State, %struct.State* %0, i64 0, i32 2, i32 9
  %23 = lshr i64 %3, 61
  %24 = trunc i64 %23 to i8
  %25 = and i8 %24, 1
  store i8 %25, i8* %22, align 1
  %26 = getelementptr inbounds %struct.State, %struct.State* %0, i64 0, i32 2, i32 13
  store i8 0, i8* %26, align 1
  ret %struct.Memory* %2
}

; Function Attrs: norecurse nounwind
define %struct.Memory* @routine_movq__rdi__MINUS0x20__rbp_(%struct.State* nocapture dereferenceable(3376), i64, %struct.Memory* readnone returned) local_unnamed_addr #2 {
block_400488:
  %PC = getelementptr inbounds %struct.State, %struct.State* %0, i64 0, i32 6, i32 33, i32 0, i32 0
  %RDI = getelementptr inbounds %struct.State, %struct.State* %0, i64 0, i32 6, i32 11, i32 0, i32 0
  %RBP = getelementptr inbounds %struct.State, %struct.State* %0, i64 0, i32 6, i32 15, i32 0, i32 0
  %3 = load i64, i64* %RBP, align 8
  %4 = add i64 %3, -32
  %5 = load i64, i64* %RDI, align 8
  %6 = load i64, i64* %PC, align 8
  %7 = add i64 %6, 4
  store i64 %7, i64* %PC, align 8
  %8 = inttoptr i64 %4 to i64*
  store i64 %5, i64* %8, align 8
  ret %struct.Memory* %2
}

; Function Attrs: norecurse nounwind
define %struct.Memory* @routine_movq__rax___rdi(%struct.State* nocapture dereferenceable(3376), i64, %struct.Memory* readnone returned) local_unnamed_addr #2 {
block_400488:
  %PC = getelementptr inbounds %struct.State, %struct.State* %0, i64 0, i32 6, i32 33, i32 0, i32 0
  %RAX = getelementptr inbounds %struct.State, %struct.State* %0, i64 0, i32 6, i32 1, i32 0, i32 0
  %RDI = getelementptr inbounds %struct.State, %struct.State* %0, i64 0, i32 6, i32 11, i32 0, i32 0
  %3 = load i64, i64* %RAX, align 8
  %4 = load i64, i64* %PC, align 8
  %5 = add i64 %4, 3
  store i64 %5, i64* %PC, align 8
  store i64 %3, i64* %RDI, align 8
  ret %struct.Memory* %2
}

; Function Attrs: norecurse nounwind
define %struct.Memory* @routine_movq_MINUS0x20__rbp____rdx(%struct.State* nocapture dereferenceable(3376), i64, %struct.Memory* readnone returned) local_unnamed_addr #2 {
block_400488:
  %PC = getelementptr inbounds %struct.State, %struct.State* %0, i64 0, i32 6, i32 33, i32 0, i32 0
  %RDX = getelementptr inbounds %struct.State, %struct.State* %0, i64 0, i32 6, i32 7, i32 0, i32 0
  %RBP = getelementptr inbounds %struct.State, %struct.State* %0, i64 0, i32 6, i32 15, i32 0, i32 0
  %3 = load i64, i64* %RBP, align 8
  %4 = add i64 %3, -32
  %5 = load i64, i64* %PC, align 8
  %6 = add i64 %5, 4
  store i64 %6, i64* %PC, align 8
  %7 = inttoptr i64 %4 to i64*
  %8 = load i64, i64* %7, align 8
  store i64 %8, i64* %RDX, align 8
  ret %struct.Memory* %2
}

; Function Attrs: norecurse nounwind
define %struct.Memory* @routine_callq_.sre_malloc(%struct.State* nocapture dereferenceable(3376), i64, %struct.Memory* readnone returned, i64 %rel_off1, i64 %rel_off2, i64 %rel_off3) local_unnamed_addr #2 {
block_400488:
  %PC = getelementptr inbounds %struct.State, %struct.State* %0, i64 0, i32 6, i32 33, i32 0, i32 0
  %3 = load i64, i64* %PC, align 8
  %4 = add i64 %3, %rel_off1
  %5 = add i64 %3, %rel_off2
  %6 = getelementptr inbounds %struct.State, %struct.State* %0, i64 0, i32 6, i32 13, i32 0, i32 0
  %7 = load i64, i64* %6, align 8
  %8 = add i64 %7, -8
  %9 = inttoptr i64 %8 to i64*
  store i64 %5, i64* %9, align 8
  store i64 %8, i64* %6, align 8
  store i64 %4, i64* %PC, align 8
  ret %struct.Memory* %2
}

; Function Attrs: norecurse nounwind
define %struct.Memory* @routine_movq__rax__MINUS0x10__rbp_(%struct.State* nocapture dereferenceable(3376), i64, %struct.Memory* readnone returned) local_unnamed_addr #2 {
block_400488:
  %PC = getelementptr inbounds %struct.State, %struct.State* %0, i64 0, i32 6, i32 33, i32 0, i32 0
  %RAX = getelementptr inbounds %struct.State, %struct.State* %0, i64 0, i32 6, i32 1, i32 0, i32 0
  %RBP = getelementptr inbounds %struct.State, %struct.State* %0, i64 0, i32 6, i32 15, i32 0, i32 0
  %3 = load i64, i64* %RBP, align 8
  %4 = add i64 %3, -16
  %5 = load i64, i64* %RAX, align 8
  %6 = load i64, i64* %PC, align 8
  %7 = add i64 %6, 4
  store i64 %7, i64* %PC, align 8
  %8 = inttoptr i64 %4 to i64*
  store i64 %5, i64* %8, align 8
  ret %struct.Memory* %2
}

; Function Attrs: norecurse nounwind
define %struct.Memory* @routine_movl__0x0__MINUS0x14__rbp_(%struct.State* nocapture dereferenceable(3376), i64, %struct.Memory* readnone returned) local_unnamed_addr #2 {
block_400488:
  %PC = getelementptr inbounds %struct.State, %struct.State* %0, i64 0, i32 6, i32 33, i32 0, i32 0
  %RBP = getelementptr inbounds %struct.State, %struct.State* %0, i64 0, i32 6, i32 15, i32 0, i32 0
  %3 = load i64, i64* %RBP, align 8
  %4 = add i64 %3, -20
  %5 = load i64, i64* %PC, align 8
  %6 = add i64 %5, 7
  store i64 %6, i64* %PC, align 8
  %7 = inttoptr i64 %4 to i32*
  store i32 0, i32* %7, align 4
  ret %struct.Memory* %2
}

; Function Attrs: norecurse nounwind
define %struct.Memory* @routine_movl_MINUS0x14__rbp____eax(%struct.State* nocapture dereferenceable(3376), i64, %struct.Memory* readnone returned) local_unnamed_addr #2 {
block_400488:
  %PC = getelementptr inbounds %struct.State, %struct.State* %0, i64 0, i32 6, i32 33, i32 0, i32 0
  %RAX = getelementptr inbounds %struct.State, %struct.State* %0, i64 0, i32 6, i32 1, i32 0, i32 0
  %RBP = getelementptr inbounds %struct.State, %struct.State* %0, i64 0, i32 6, i32 15, i32 0, i32 0
  %3 = load i64, i64* %RBP, align 8
  %4 = add i64 %3, -20
  %5 = load i64, i64* %PC, align 8
  %6 = add i64 %5, 3
  store i64 %6, i64* %PC, align 8
  %7 = inttoptr i64 %4 to i32*
  %8 = load i32, i32* %7, align 4
  %9 = zext i32 %8 to i64
  store i64 %9, i64* %RAX, align 8
  ret %struct.Memory* %2
}

; Function Attrs: norecurse nounwind
define %struct.Memory* @routine_movq_MINUS0x8__rbp____rcx(%struct.State* nocapture dereferenceable(3376), i64, %struct.Memory* readnone returned) local_unnamed_addr #2 {
block_400488:
  %PC = getelementptr inbounds %struct.State, %struct.State* %0, i64 0, i32 6, i32 33, i32 0, i32 0
  %RCX = getelementptr inbounds %struct.State, %struct.State* %0, i64 0, i32 6, i32 5, i32 0, i32 0
  %RBP = getelementptr inbounds %struct.State, %struct.State* %0, i64 0, i32 6, i32 15, i32 0, i32 0
  %3 = load i64, i64* %RBP, align 8
  %4 = add i64 %3, -8
  %5 = load i64, i64* %PC, align 8
  %6 = add i64 %5, 4
  store i64 %6, i64* %PC, align 8
  %7 = inttoptr i64 %4 to i64*
  %8 = load i64, i64* %7, align 8
  store i64 %8, i64* %RCX, align 8
  ret %struct.Memory* %2
}

; Function Attrs: nounwind
define %struct.Memory* @routine_cmpl_0x18__rcx____eax(%struct.State* nocapture dereferenceable(3376), i64, %struct.Memory* readnone returned) local_unnamed_addr #3 {
block_400488:
  %PC = getelementptr inbounds %struct.State, %struct.State* %0, i64 0, i32 6, i32 33, i32 0, i32 0
  %3 = getelementptr inbounds %struct.State, %struct.State* %0, i64 0, i32 6, i32 1, i32 0
  %EAX = bitcast %union.anon* %3 to i32*
  %RCX = getelementptr inbounds %struct.State, %struct.State* %0, i64 0, i32 6, i32 5, i32 0, i32 0
  %4 = load i32, i32* %EAX, align 4
  %5 = load i64, i64* %RCX, align 8
  %6 = add i64 %5, 24
  %7 = load i64, i64* %PC, align 8
  %8 = add i64 %7, 3
  store i64 %8, i64* %PC, align 8
  %9 = inttoptr i64 %6 to i32*
  %10 = load i32, i32* %9, align 4
  %11 = sub i32 %4, %10
  %12 = icmp ult i32 %4, %10
  %13 = zext i1 %12 to i8
  %14 = getelementptr inbounds %struct.State, %struct.State* %0, i64 0, i32 2, i32 1
  store i8 %13, i8* %14, align 1
  %15 = and i32 %11, 255
  %16 = tail call i32 @llvm.ctpop.i32(i32 %15)
  %17 = trunc i32 %16 to i8
  %18 = and i8 %17, 1
  %19 = xor i8 %18, 1
  %20 = getelementptr inbounds %struct.State, %struct.State* %0, i64 0, i32 2, i32 3
  store i8 %19, i8* %20, align 1
  %21 = xor i32 %10, %4
  %22 = xor i32 %21, %11
  %23 = lshr i32 %22, 4
  %24 = trunc i32 %23 to i8
  %25 = and i8 %24, 1
  %26 = getelementptr inbounds %struct.State, %struct.State* %0, i64 0, i32 2, i32 5
  store i8 %25, i8* %26, align 1
  %27 = icmp eq i32 %11, 0
  %28 = zext i1 %27 to i8
  %29 = getelementptr inbounds %struct.State, %struct.State* %0, i64 0, i32 2, i32 7
  store i8 %28, i8* %29, align 1
  %30 = lshr i32 %11, 31
  %31 = trunc i32 %30 to i8
  %32 = getelementptr inbounds %struct.State, %struct.State* %0, i64 0, i32 2, i32 9
  store i8 %31, i8* %32, align 1
  %33 = lshr i32 %4, 31
  %34 = lshr i32 %10, 31
  %35 = xor i32 %34, %33
  %36 = xor i32 %30, %33
  %37 = add nuw nsw i32 %36, %35
  %38 = icmp eq i32 %37, 2
  %39 = zext i1 %38 to i8
  %40 = getelementptr inbounds %struct.State, %struct.State* %0, i64 0, i32 2, i32 13
  store i8 %39, i8* %40, align 1
  ret %struct.Memory* %2
}

; Function Attrs: norecurse nounwind
define %struct.Memory* @routine_jge_.L_430027(%struct.State* nocapture dereferenceable(3376), i64, %struct.Memory* readnone returned, i8* nocapture %BRANCH_TAKEN, i64 %rel_off1, i64 %rel_off2, i64 %rel_off3) local_unnamed_addr #2 {
block_400488:
  %PC = getelementptr inbounds %struct.State, %struct.State* %0, i64 0, i32 6, i32 33, i32 0, i32 0
  %3 = load i64, i64* %PC, align 8
  %4 = getelementptr inbounds %struct.State, %struct.State* %0, i64 0, i32 2, i32 9
  %5 = load i8, i8* %4, align 1
  %6 = icmp ne i8 %5, 0
  %7 = getelementptr inbounds %struct.State, %struct.State* %0, i64 0, i32 2, i32 13
  %8 = load i8, i8* %7, align 1
  %9 = icmp ne i8 %8, 0
  %10 = xor i1 %6, %9
  %11 = xor i1 %10, true
  %12 = zext i1 %11 to i8
  store i8 %12, i8* %BRANCH_TAKEN, align 1
  %.v = select i1 %10, i64 %rel_off2, i64 %rel_off1
  %13 = add i64 %.v, %3
  store i64 %13, i64* %PC, align 8
  ret %struct.Memory* %2
}

; Function Attrs: norecurse nounwind
define %struct.Memory* @routine_movl__0x0__MINUS0x18__rbp_(%struct.State* nocapture dereferenceable(3376), i64, %struct.Memory* readnone returned) local_unnamed_addr #2 {
block_400488:
  %PC = getelementptr inbounds %struct.State, %struct.State* %0, i64 0, i32 6, i32 33, i32 0, i32 0
  %RBP = getelementptr inbounds %struct.State, %struct.State* %0, i64 0, i32 6, i32 15, i32 0, i32 0
  %3 = load i64, i64* %RBP, align 8
  %4 = add i64 %3, -24
  %5 = load i64, i64* %PC, align 8
  %6 = add i64 %5, 7
  store i64 %6, i64* %PC, align 8
  %7 = inttoptr i64 %4 to i32*
  store i32 0, i32* %7, align 4
  ret %struct.Memory* %2
}

; Function Attrs: norecurse nounwind
define %struct.Memory* @routine_movl_MINUS0x18__rbp____eax(%struct.State* nocapture dereferenceable(3376), i64, %struct.Memory* readnone returned) local_unnamed_addr #2 {
block_400488:
  %PC = getelementptr inbounds %struct.State, %struct.State* %0, i64 0, i32 6, i32 33, i32 0, i32 0
  %RAX = getelementptr inbounds %struct.State, %struct.State* %0, i64 0, i32 6, i32 1, i32 0, i32 0
  %RBP = getelementptr inbounds %struct.State, %struct.State* %0, i64 0, i32 6, i32 15, i32 0, i32 0
  %3 = load i64, i64* %RBP, align 8
  %4 = add i64 %3, -24
  %5 = load i64, i64* %PC, align 8
  %6 = add i64 %5, 3
  store i64 %6, i64* %PC, align 8
  %7 = inttoptr i64 %4 to i32*
  %8 = load i32, i32* %7, align 4
  %9 = zext i32 %8 to i64
  store i64 %9, i64* %RAX, align 8
  ret %struct.Memory* %2
}

; Function Attrs: nounwind
define %struct.Memory* @routine_cmpl_0x1c__rcx____eax(%struct.State* nocapture dereferenceable(3376), i64, %struct.Memory* readnone returned) local_unnamed_addr #3 {
block_400488:
  %PC = getelementptr inbounds %struct.State, %struct.State* %0, i64 0, i32 6, i32 33, i32 0, i32 0
  %3 = getelementptr inbounds %struct.State, %struct.State* %0, i64 0, i32 6, i32 1, i32 0
  %EAX = bitcast %union.anon* %3 to i32*
  %RCX = getelementptr inbounds %struct.State, %struct.State* %0, i64 0, i32 6, i32 5, i32 0, i32 0
  %4 = load i32, i32* %EAX, align 4
  %5 = load i64, i64* %RCX, align 8
  %6 = add i64 %5, 28
  %7 = load i64, i64* %PC, align 8
  %8 = add i64 %7, 3
  store i64 %8, i64* %PC, align 8
  %9 = inttoptr i64 %6 to i32*
  %10 = load i32, i32* %9, align 4
  %11 = sub i32 %4, %10
  %12 = icmp ult i32 %4, %10
  %13 = zext i1 %12 to i8
  %14 = getelementptr inbounds %struct.State, %struct.State* %0, i64 0, i32 2, i32 1
  store i8 %13, i8* %14, align 1
  %15 = and i32 %11, 255
  %16 = tail call i32 @llvm.ctpop.i32(i32 %15)
  %17 = trunc i32 %16 to i8
  %18 = and i8 %17, 1
  %19 = xor i8 %18, 1
  %20 = getelementptr inbounds %struct.State, %struct.State* %0, i64 0, i32 2, i32 3
  store i8 %19, i8* %20, align 1
  %21 = xor i32 %10, %4
  %22 = xor i32 %21, %11
  %23 = lshr i32 %22, 4
  %24 = trunc i32 %23 to i8
  %25 = and i8 %24, 1
  %26 = getelementptr inbounds %struct.State, %struct.State* %0, i64 0, i32 2, i32 5
  store i8 %25, i8* %26, align 1
  %27 = icmp eq i32 %11, 0
  %28 = zext i1 %27 to i8
  %29 = getelementptr inbounds %struct.State, %struct.State* %0, i64 0, i32 2, i32 7
  store i8 %28, i8* %29, align 1
  %30 = lshr i32 %11, 31
  %31 = trunc i32 %30 to i8
  %32 = getelementptr inbounds %struct.State, %struct.State* %0, i64 0, i32 2, i32 9
  store i8 %31, i8* %32, align 1
  %33 = lshr i32 %4, 31
  %34 = lshr i32 %10, 31
  %35 = xor i32 %34, %33
  %36 = xor i32 %30, %33
  %37 = add nuw nsw i32 %36, %35
  %38 = icmp eq i32 %37, 2
  %39 = zext i1 %38 to i8
  %40 = getelementptr inbounds %struct.State, %struct.State* %0, i64 0, i32 2, i32 13
  store i8 %39, i8* %40, align 1
  ret %struct.Memory* %2
}

; Function Attrs: norecurse nounwind
define %struct.Memory* @routine_jge_.L_42ffe1(%struct.State* nocapture dereferenceable(3376), i64, %struct.Memory* readnone returned, i8* nocapture %BRANCH_TAKEN, i64 %rel_off1, i64 %rel_off2, i64 %rel_off3) local_unnamed_addr #2 {
block_400488:
  %PC = getelementptr inbounds %struct.State, %struct.State* %0, i64 0, i32 6, i32 33, i32 0, i32 0
  %3 = load i64, i64* %PC, align 8
  %4 = getelementptr inbounds %struct.State, %struct.State* %0, i64 0, i32 2, i32 9
  %5 = load i8, i8* %4, align 1
  %6 = icmp ne i8 %5, 0
  %7 = getelementptr inbounds %struct.State, %struct.State* %0, i64 0, i32 2, i32 13
  %8 = load i8, i8* %7, align 1
  %9 = icmp ne i8 %8, 0
  %10 = xor i1 %6, %9
  %11 = xor i1 %10, true
  %12 = zext i1 %11 to i8
  store i8 %12, i8* %BRANCH_TAKEN, align 1
  %.v = select i1 %10, i64 %rel_off2, i64 %rel_off1
  %13 = add i64 %.v, %3
  store i64 %13, i64* %PC, align 8
  ret %struct.Memory* %2
}

; Function Attrs: norecurse nounwind
define %struct.Memory* @routine_movq_MINUS0x8__rbp____rax(%struct.State* nocapture dereferenceable(3376), i64, %struct.Memory* readnone returned) local_unnamed_addr #2 {
block_400488:
  %PC = getelementptr inbounds %struct.State, %struct.State* %0, i64 0, i32 6, i32 33, i32 0, i32 0
  %RAX = getelementptr inbounds %struct.State, %struct.State* %0, i64 0, i32 6, i32 1, i32 0, i32 0
  %RBP = getelementptr inbounds %struct.State, %struct.State* %0, i64 0, i32 6, i32 15, i32 0, i32 0
  %3 = load i64, i64* %RBP, align 8
  %4 = add i64 %3, -8
  %5 = load i64, i64* %PC, align 8
  %6 = add i64 %5, 4
  store i64 %6, i64* %PC, align 8
  %7 = inttoptr i64 %4 to i64*
  %8 = load i64, i64* %7, align 8
  store i64 %8, i64* %RAX, align 8
  ret %struct.Memory* %2
}

; Function Attrs: norecurse nounwind
define %struct.Memory* @routine_movq___rax____rax(%struct.State* nocapture dereferenceable(3376), i64, %struct.Memory* readnone returned) local_unnamed_addr #2 {
block_400488:
  %PC = getelementptr inbounds %struct.State, %struct.State* %0, i64 0, i32 6, i32 33, i32 0, i32 0
  %RAX = getelementptr inbounds %struct.State, %struct.State* %0, i64 0, i32 6, i32 1, i32 0, i32 0
  %3 = bitcast i64* %RAX to i64**
  %4 = load i64*, i64** %3, align 8
  %5 = load i64, i64* %PC, align 8
  %6 = add i64 %5, 3
  store i64 %6, i64* %PC, align 8
  %7 = load i64, i64* %4, align 8
  store i64 %7, i64* %RAX, align 8
  ret %struct.Memory* %2
}

; Function Attrs: norecurse nounwind
define %struct.Memory* @routine_movslq_MINUS0x18__rbp____rcx(%struct.State* nocapture dereferenceable(3376), i64, %struct.Memory* readnone returned) local_unnamed_addr #2 {
block_400488:
  %PC = getelementptr inbounds %struct.State, %struct.State* %0, i64 0, i32 6, i32 33, i32 0, i32 0
  %RCX = getelementptr inbounds %struct.State, %struct.State* %0, i64 0, i32 6, i32 5, i32 0, i32 0
  %RBP = getelementptr inbounds %struct.State, %struct.State* %0, i64 0, i32 6, i32 15, i32 0, i32 0
  %3 = load i64, i64* %RBP, align 8
  %4 = add i64 %3, -24
  %5 = load i64, i64* %PC, align 8
  %6 = add i64 %5, 4
  store i64 %6, i64* %PC, align 8
  %7 = inttoptr i64 %4 to i32*
  %8 = load i32, i32* %7, align 4
  %9 = sext i32 %8 to i64
  store i64 %9, i64* %RCX, align 8
  ret %struct.Memory* %2
}

; Function Attrs: norecurse nounwind
define %struct.Memory* @routine_movq___rax__rcx_8____rax(%struct.State* nocapture dereferenceable(3376), i64, %struct.Memory* readnone returned) local_unnamed_addr #2 {
block_400488:
  %PC = getelementptr inbounds %struct.State, %struct.State* %0, i64 0, i32 6, i32 33, i32 0, i32 0
  %RAX = getelementptr inbounds %struct.State, %struct.State* %0, i64 0, i32 6, i32 1, i32 0, i32 0
  %RCX = getelementptr inbounds %struct.State, %struct.State* %0, i64 0, i32 6, i32 5, i32 0, i32 0
  %3 = load i64, i64* %RAX, align 8
  %4 = load i64, i64* %RCX, align 8
  %5 = shl i64 %4, 3
  %6 = add i64 %5, %3
  %7 = load i64, i64* %PC, align 8
  %8 = add i64 %7, 4
  store i64 %8, i64* %PC, align 8
  %9 = inttoptr i64 %6 to i64*
  %10 = load i64, i64* %9, align 8
  store i64 %10, i64* %RAX, align 8
  ret %struct.Memory* %2
}

; Function Attrs: norecurse nounwind
define %struct.Memory* @routine_movslq_MINUS0x14__rbp____rcx(%struct.State* nocapture dereferenceable(3376), i64, %struct.Memory* readnone returned) local_unnamed_addr #2 {
block_400488:
  %PC = getelementptr inbounds %struct.State, %struct.State* %0, i64 0, i32 6, i32 33, i32 0, i32 0
  %RCX = getelementptr inbounds %struct.State, %struct.State* %0, i64 0, i32 6, i32 5, i32 0, i32 0
  %RBP = getelementptr inbounds %struct.State, %struct.State* %0, i64 0, i32 6, i32 15, i32 0, i32 0
  %3 = load i64, i64* %RBP, align 8
  %4 = add i64 %3, -20
  %5 = load i64, i64* %PC, align 8
  %6 = add i64 %5, 4
  store i64 %6, i64* %PC, align 8
  %7 = inttoptr i64 %4 to i32*
  %8 = load i32, i32* %7, align 4
  %9 = sext i32 %8 to i64
  store i64 %9, i64* %RCX, align 8
  ret %struct.Memory* %2
}

; Function Attrs: norecurse nounwind
define %struct.Memory* @routine_movsbl___rax__rcx_1____edx(%struct.State* nocapture dereferenceable(3376), i64, %struct.Memory* readnone returned) local_unnamed_addr #2 {
block_400488:
  %PC = getelementptr inbounds %struct.State, %struct.State* %0, i64 0, i32 6, i32 33, i32 0, i32 0
  %RAX = getelementptr inbounds %struct.State, %struct.State* %0, i64 0, i32 6, i32 1, i32 0, i32 0
  %RCX = getelementptr inbounds %struct.State, %struct.State* %0, i64 0, i32 6, i32 5, i32 0, i32 0
  %RDX = getelementptr inbounds %struct.State, %struct.State* %0, i64 0, i32 6, i32 7, i32 0, i32 0
  %3 = load i64, i64* %RAX, align 8
  %4 = load i64, i64* %RCX, align 8
  %5 = add i64 %4, %3
  %6 = load i64, i64* %PC, align 8
  %7 = add i64 %6, 4
  store i64 %7, i64* %PC, align 8
  %8 = inttoptr i64 %5 to i8*
  %9 = load i8, i8* %8, align 1
  %10 = sext i8 %9 to i64
  %11 = and i64 %10, 4294967295
  store i64 %11, i64* %RDX, align 8
  ret %struct.Memory* %2
}

; Function Attrs: nounwind
define %struct.Memory* @routine_cmpl__0x20___edx(%struct.State* nocapture dereferenceable(3376), i64, %struct.Memory* readnone returned) local_unnamed_addr #3 {
block_400488:
  %PC = getelementptr inbounds %struct.State, %struct.State* %0, i64 0, i32 6, i32 33, i32 0, i32 0
  %3 = getelementptr inbounds %struct.State, %struct.State* %0, i64 0, i32 6, i32 7, i32 0
  %EDX = bitcast %union.anon* %3 to i32*
  %4 = load i32, i32* %EDX, align 4
  %5 = load i64, i64* %PC, align 8
  %6 = add i64 %5, 3
  store i64 %6, i64* %PC, align 8
  %7 = add i32 %4, -32
  %8 = icmp ult i32 %4, 32
  %9 = zext i1 %8 to i8
  %10 = getelementptr inbounds %struct.State, %struct.State* %0, i64 0, i32 2, i32 1
  store i8 %9, i8* %10, align 1
  %11 = and i32 %7, 255
  %12 = tail call i32 @llvm.ctpop.i32(i32 %11)
  %13 = trunc i32 %12 to i8
  %14 = and i8 %13, 1
  %15 = xor i8 %14, 1
  %16 = getelementptr inbounds %struct.State, %struct.State* %0, i64 0, i32 2, i32 3
  store i8 %15, i8* %16, align 1
  %17 = xor i32 %7, %4
  %18 = lshr i32 %17, 4
  %19 = trunc i32 %18 to i8
  %20 = and i8 %19, 1
  %21 = getelementptr inbounds %struct.State, %struct.State* %0, i64 0, i32 2, i32 5
  store i8 %20, i8* %21, align 1
  %22 = icmp eq i32 %7, 0
  %23 = zext i1 %22 to i8
  %24 = getelementptr inbounds %struct.State, %struct.State* %0, i64 0, i32 2, i32 7
  store i8 %23, i8* %24, align 1
  %25 = lshr i32 %7, 31
  %26 = trunc i32 %25 to i8
  %27 = getelementptr inbounds %struct.State, %struct.State* %0, i64 0, i32 2, i32 9
  store i8 %26, i8* %27, align 1
  %28 = lshr i32 %4, 31
  %29 = xor i32 %25, %28
  %30 = add nuw nsw i32 %29, %28
  %31 = icmp eq i32 %30, 2
  %32 = zext i1 %31 to i8
  %33 = getelementptr inbounds %struct.State, %struct.State* %0, i64 0, i32 2, i32 13
  store i8 %32, i8* %33, align 1
  ret %struct.Memory* %2
}

; Function Attrs: norecurse nounwind
define %struct.Memory* @routine_je_.L_42ffc9(%struct.State* nocapture dereferenceable(3376), i64, %struct.Memory* readnone returned, i8* nocapture %BRANCH_TAKEN, i64 %rel_off1, i64 %rel_off2, i64 %rel_off3) local_unnamed_addr #2 {
block_400488:
  %PC = getelementptr inbounds %struct.State, %struct.State* %0, i64 0, i32 6, i32 33, i32 0, i32 0
  %3 = load i64, i64* %PC, align 8
  %4 = getelementptr inbounds %struct.State, %struct.State* %0, i64 0, i32 2, i32 7
  %5 = load i8, i8* %4, align 1
  store i8 %5, i8* %BRANCH_TAKEN, align 1
  %6 = icmp ne i8 %5, 0
  %.v = select i1 %6, i64 %rel_off1, i64 %rel_off2
  %7 = add i64 %.v, %3
  store i64 %7, i64* %PC, align 8
  ret %struct.Memory* %2
}

; Function Attrs: nounwind
define %struct.Memory* @routine_cmpl__0x2e___edx(%struct.State* nocapture dereferenceable(3376), i64, %struct.Memory* readnone returned) local_unnamed_addr #3 {
block_400488:
  %PC = getelementptr inbounds %struct.State, %struct.State* %0, i64 0, i32 6, i32 33, i32 0, i32 0
  %3 = getelementptr inbounds %struct.State, %struct.State* %0, i64 0, i32 6, i32 7, i32 0
  %EDX = bitcast %union.anon* %3 to i32*
  %4 = load i32, i32* %EDX, align 4
  %5 = load i64, i64* %PC, align 8
  %6 = add i64 %5, 3
  store i64 %6, i64* %PC, align 8
  %7 = add i32 %4, -46
  %8 = icmp ult i32 %4, 46
  %9 = zext i1 %8 to i8
  %10 = getelementptr inbounds %struct.State, %struct.State* %0, i64 0, i32 2, i32 1
  store i8 %9, i8* %10, align 1
  %11 = and i32 %7, 255
  %12 = tail call i32 @llvm.ctpop.i32(i32 %11)
  %13 = trunc i32 %12 to i8
  %14 = and i8 %13, 1
  %15 = xor i8 %14, 1
  %16 = getelementptr inbounds %struct.State, %struct.State* %0, i64 0, i32 2, i32 3
  store i8 %15, i8* %16, align 1
  %17 = xor i32 %7, %4
  %18 = lshr i32 %17, 4
  %19 = trunc i32 %18 to i8
  %20 = and i8 %19, 1
  %21 = getelementptr inbounds %struct.State, %struct.State* %0, i64 0, i32 2, i32 5
  store i8 %20, i8* %21, align 1
  %22 = icmp eq i32 %7, 0
  %23 = zext i1 %22 to i8
  %24 = getelementptr inbounds %struct.State, %struct.State* %0, i64 0, i32 2, i32 7
  store i8 %23, i8* %24, align 1
  %25 = lshr i32 %7, 31
  %26 = trunc i32 %25 to i8
  %27 = getelementptr inbounds %struct.State, %struct.State* %0, i64 0, i32 2, i32 9
  store i8 %26, i8* %27, align 1
  %28 = lshr i32 %4, 31
  %29 = xor i32 %25, %28
  %30 = add nuw nsw i32 %29, %28
  %31 = icmp eq i32 %30, 2
  %32 = zext i1 %31 to i8
  %33 = getelementptr inbounds %struct.State, %struct.State* %0, i64 0, i32 2, i32 13
  store i8 %32, i8* %33, align 1
  ret %struct.Memory* %2
}

; Function Attrs: nounwind
define %struct.Memory* @routine_cmpl__0x5f___edx(%struct.State* nocapture dereferenceable(3376), i64, %struct.Memory* readnone returned) local_unnamed_addr #3 {
block_400488:
  %PC = getelementptr inbounds %struct.State, %struct.State* %0, i64 0, i32 6, i32 33, i32 0, i32 0
  %3 = getelementptr inbounds %struct.State, %struct.State* %0, i64 0, i32 6, i32 7, i32 0
  %EDX = bitcast %union.anon* %3 to i32*
  %4 = load i32, i32* %EDX, align 4
  %5 = load i64, i64* %PC, align 8
  %6 = add i64 %5, 3
  store i64 %6, i64* %PC, align 8
  %7 = add i32 %4, -95
  %8 = icmp ult i32 %4, 95
  %9 = zext i1 %8 to i8
  %10 = getelementptr inbounds %struct.State, %struct.State* %0, i64 0, i32 2, i32 1
  store i8 %9, i8* %10, align 1
  %11 = and i32 %7, 255
  %12 = tail call i32 @llvm.ctpop.i32(i32 %11)
  %13 = trunc i32 %12 to i8
  %14 = and i8 %13, 1
  %15 = xor i8 %14, 1
  %16 = getelementptr inbounds %struct.State, %struct.State* %0, i64 0, i32 2, i32 3
  store i8 %15, i8* %16, align 1
  %17 = xor i32 %4, 16
  %18 = xor i32 %17, %7
  %19 = lshr i32 %18, 4
  %20 = trunc i32 %19 to i8
  %21 = and i8 %20, 1
  %22 = getelementptr inbounds %struct.State, %struct.State* %0, i64 0, i32 2, i32 5
  store i8 %21, i8* %22, align 1
  %23 = icmp eq i32 %7, 0
  %24 = zext i1 %23 to i8
  %25 = getelementptr inbounds %struct.State, %struct.State* %0, i64 0, i32 2, i32 7
  store i8 %24, i8* %25, align 1
  %26 = lshr i32 %7, 31
  %27 = trunc i32 %26 to i8
  %28 = getelementptr inbounds %struct.State, %struct.State* %0, i64 0, i32 2, i32 9
  store i8 %27, i8* %28, align 1
  %29 = lshr i32 %4, 31
  %30 = xor i32 %26, %29
  %31 = add nuw nsw i32 %30, %29
  %32 = icmp eq i32 %31, 2
  %33 = zext i1 %32 to i8
  %34 = getelementptr inbounds %struct.State, %struct.State* %0, i64 0, i32 2, i32 13
  store i8 %33, i8* %34, align 1
  ret %struct.Memory* %2
}

; Function Attrs: nounwind
define %struct.Memory* @routine_cmpl__0x2d___edx(%struct.State* nocapture dereferenceable(3376), i64, %struct.Memory* readnone returned) local_unnamed_addr #3 {
block_400488:
  %PC = getelementptr inbounds %struct.State, %struct.State* %0, i64 0, i32 6, i32 33, i32 0, i32 0
  %3 = getelementptr inbounds %struct.State, %struct.State* %0, i64 0, i32 6, i32 7, i32 0
  %EDX = bitcast %union.anon* %3 to i32*
  %4 = load i32, i32* %EDX, align 4
  %5 = load i64, i64* %PC, align 8
  %6 = add i64 %5, 3
  store i64 %6, i64* %PC, align 8
  %7 = add i32 %4, -45
  %8 = icmp ult i32 %4, 45
  %9 = zext i1 %8 to i8
  %10 = getelementptr inbounds %struct.State, %struct.State* %0, i64 0, i32 2, i32 1
  store i8 %9, i8* %10, align 1
  %11 = and i32 %7, 255
  %12 = tail call i32 @llvm.ctpop.i32(i32 %11)
  %13 = trunc i32 %12 to i8
  %14 = and i8 %13, 1
  %15 = xor i8 %14, 1
  %16 = getelementptr inbounds %struct.State, %struct.State* %0, i64 0, i32 2, i32 3
  store i8 %15, i8* %16, align 1
  %17 = xor i32 %7, %4
  %18 = lshr i32 %17, 4
  %19 = trunc i32 %18 to i8
  %20 = and i8 %19, 1
  %21 = getelementptr inbounds %struct.State, %struct.State* %0, i64 0, i32 2, i32 5
  store i8 %20, i8* %21, align 1
  %22 = icmp eq i32 %7, 0
  %23 = zext i1 %22 to i8
  %24 = getelementptr inbounds %struct.State, %struct.State* %0, i64 0, i32 2, i32 7
  store i8 %23, i8* %24, align 1
  %25 = lshr i32 %7, 31
  %26 = trunc i32 %25 to i8
  %27 = getelementptr inbounds %struct.State, %struct.State* %0, i64 0, i32 2, i32 9
  store i8 %26, i8* %27, align 1
  %28 = lshr i32 %4, 31
  %29 = xor i32 %25, %28
  %30 = add nuw nsw i32 %29, %28
  %31 = icmp eq i32 %30, 2
  %32 = zext i1 %31 to i8
  %33 = getelementptr inbounds %struct.State, %struct.State* %0, i64 0, i32 2, i32 13
  store i8 %32, i8* %33, align 1
  ret %struct.Memory* %2
}

; Function Attrs: nounwind
define %struct.Memory* @routine_cmpl__0x7e___edx(%struct.State* nocapture dereferenceable(3376), i64, %struct.Memory* readnone returned) local_unnamed_addr #3 {
block_400488:
  %PC = getelementptr inbounds %struct.State, %struct.State* %0, i64 0, i32 6, i32 33, i32 0, i32 0
  %3 = getelementptr inbounds %struct.State, %struct.State* %0, i64 0, i32 6, i32 7, i32 0
  %EDX = bitcast %union.anon* %3 to i32*
  %4 = load i32, i32* %EDX, align 4
  %5 = load i64, i64* %PC, align 8
  %6 = add i64 %5, 3
  store i64 %6, i64* %PC, align 8
  %7 = add i32 %4, -126
  %8 = icmp ult i32 %4, 126
  %9 = zext i1 %8 to i8
  %10 = getelementptr inbounds %struct.State, %struct.State* %0, i64 0, i32 2, i32 1
  store i8 %9, i8* %10, align 1
  %11 = and i32 %7, 255
  %12 = tail call i32 @llvm.ctpop.i32(i32 %11)
  %13 = trunc i32 %12 to i8
  %14 = and i8 %13, 1
  %15 = xor i8 %14, 1
  %16 = getelementptr inbounds %struct.State, %struct.State* %0, i64 0, i32 2, i32 3
  store i8 %15, i8* %16, align 1
  %17 = xor i32 %4, 16
  %18 = xor i32 %17, %7
  %19 = lshr i32 %18, 4
  %20 = trunc i32 %19 to i8
  %21 = and i8 %20, 1
  %22 = getelementptr inbounds %struct.State, %struct.State* %0, i64 0, i32 2, i32 5
  store i8 %21, i8* %22, align 1
  %23 = icmp eq i32 %7, 0
  %24 = zext i1 %23 to i8
  %25 = getelementptr inbounds %struct.State, %struct.State* %0, i64 0, i32 2, i32 7
  store i8 %24, i8* %25, align 1
  %26 = lshr i32 %7, 31
  %27 = trunc i32 %26 to i8
  %28 = getelementptr inbounds %struct.State, %struct.State* %0, i64 0, i32 2, i32 9
  store i8 %27, i8* %28, align 1
  %29 = lshr i32 %4, 31
  %30 = xor i32 %26, %29
  %31 = add nuw nsw i32 %30, %29
  %32 = icmp eq i32 %31, 2
  %33 = zext i1 %32 to i8
  %34 = getelementptr inbounds %struct.State, %struct.State* %0, i64 0, i32 2, i32 13
  store i8 %33, i8* %34, align 1
  ret %struct.Memory* %2
}

; Function Attrs: norecurse nounwind
define %struct.Memory* @routine_jne_.L_42ffce(%struct.State* nocapture dereferenceable(3376), i64, %struct.Memory* readnone returned, i8* nocapture %BRANCH_TAKEN, i64 %rel_off1, i64 %rel_off2, i64 %rel_off3) local_unnamed_addr #2 {
block_400488:
  %PC = getelementptr inbounds %struct.State, %struct.State* %0, i64 0, i32 6, i32 33, i32 0, i32 0
  %3 = load i64, i64* %PC, align 8
  %4 = getelementptr inbounds %struct.State, %struct.State* %0, i64 0, i32 2, i32 7
  %5 = load i8, i8* %4, align 1
  %6 = icmp eq i8 %5, 0
  %7 = zext i1 %6 to i8
  store i8 %7, i8* %BRANCH_TAKEN, align 1
  %.v = select i1 %6, i64 %rel_off1, i64 %rel_off2
  %8 = add i64 %.v, %3
  store i64 %8, i64* %PC, align 8
  ret %struct.Memory* %2
}

; Function Attrs: norecurse nounwind
define %struct.Memory* @routine_jmpq_.L_42ffe1(%struct.State* nocapture dereferenceable(3376), i64, %struct.Memory* readnone returned, i64 %rel_off1, i64 %rel_off2) local_unnamed_addr #2 {
block_400488:
  %PC = getelementptr inbounds %struct.State, %struct.State* %0, i64 0, i32 6, i32 33, i32 0, i32 0
  %3 = load i64, i64* %PC, align 8
  %4 = add i64 %3, %rel_off1
  store i64 %4, i64* %PC, align 8
  ret %struct.Memory* %2
}

; Function Attrs: norecurse nounwind
define %struct.Memory* @routine_jmpq_.L_42ffd3(%struct.State* nocapture dereferenceable(3376), i64, %struct.Memory* readnone returned, i64 %rel_off1, i64 %rel_off2) local_unnamed_addr #2 {
block_400488:
  %PC = getelementptr inbounds %struct.State, %struct.State* %0, i64 0, i32 6, i32 33, i32 0, i32 0
  %3 = load i64, i64* %PC, align 8
  %4 = add i64 %3, %rel_off1
  store i64 %4, i64* %PC, align 8
  ret %struct.Memory* %2
}

; Function Attrs: nounwind
define %struct.Memory* @routine_addl__0x1___eax(%struct.State* nocapture dereferenceable(3376), i64, %struct.Memory* readnone returned) local_unnamed_addr #3 {
block_400488:
  %PC = getelementptr inbounds %struct.State, %struct.State* %0, i64 0, i32 6, i32 33, i32 0, i32 0
  %RAX = getelementptr inbounds %struct.State, %struct.State* %0, i64 0, i32 6, i32 1, i32 0, i32 0
  %3 = load i64, i64* %RAX, align 8
  %4 = load i64, i64* %PC, align 8
  %5 = add i64 %4, 3
  store i64 %5, i64* %PC, align 8
  %6 = trunc i64 %3 to i32
  %7 = add i32 %6, 1
  %8 = zext i32 %7 to i64
  store i64 %8, i64* %RAX, align 8
  %9 = icmp eq i32 %6, -1
  %10 = icmp eq i32 %7, 0
  %11 = or i1 %9, %10
  %12 = zext i1 %11 to i8
  %13 = getelementptr inbounds %struct.State, %struct.State* %0, i64 0, i32 2, i32 1
  store i8 %12, i8* %13, align 1
  %14 = and i32 %7, 255
  %15 = tail call i32 @llvm.ctpop.i32(i32 %14)
  %16 = trunc i32 %15 to i8
  %17 = and i8 %16, 1
  %18 = xor i8 %17, 1
  %19 = getelementptr inbounds %struct.State, %struct.State* %0, i64 0, i32 2, i32 3
  store i8 %18, i8* %19, align 1
  %20 = xor i32 %7, %6
  %21 = lshr i32 %20, 4
  %22 = trunc i32 %21 to i8
  %23 = and i8 %22, 1
  %24 = getelementptr inbounds %struct.State, %struct.State* %0, i64 0, i32 2, i32 5
  store i8 %23, i8* %24, align 1
  %25 = zext i1 %10 to i8
  %26 = getelementptr inbounds %struct.State, %struct.State* %0, i64 0, i32 2, i32 7
  store i8 %25, i8* %26, align 1
  %27 = lshr i32 %7, 31
  %28 = trunc i32 %27 to i8
  %29 = getelementptr inbounds %struct.State, %struct.State* %0, i64 0, i32 2, i32 9
  store i8 %28, i8* %29, align 1
  %30 = lshr i32 %6, 31
  %31 = xor i32 %27, %30
  %32 = add nuw nsw i32 %31, %27
  %33 = icmp eq i32 %32, 2
  %34 = zext i1 %33 to i8
  %35 = getelementptr inbounds %struct.State, %struct.State* %0, i64 0, i32 2, i32 13
  store i8 %34, i8* %35, align 1
  ret %struct.Memory* %2
}

; Function Attrs: norecurse nounwind
define %struct.Memory* @routine_movl__eax__MINUS0x18__rbp_(%struct.State* nocapture dereferenceable(3376), i64, %struct.Memory* readnone returned) local_unnamed_addr #2 {
block_400488:
  %PC = getelementptr inbounds %struct.State, %struct.State* %0, i64 0, i32 6, i32 33, i32 0, i32 0
  %3 = getelementptr inbounds %struct.State, %struct.State* %0, i64 0, i32 6, i32 1, i32 0
  %EAX = bitcast %union.anon* %3 to i32*
  %RBP = getelementptr inbounds %struct.State, %struct.State* %0, i64 0, i32 6, i32 15, i32 0, i32 0
  %4 = load i64, i64* %RBP, align 8
  %5 = add i64 %4, -24
  %6 = load i32, i32* %EAX, align 4
  %7 = load i64, i64* %PC, align 8
  %8 = add i64 %7, 3
  store i64 %8, i64* %PC, align 8
  %9 = inttoptr i64 %5 to i32*
  store i32 %6, i32* %9, align 4
  ret %struct.Memory* %2
}

; Function Attrs: norecurse nounwind
define %struct.Memory* @routine_jmpq_.L_42ff19(%struct.State* nocapture dereferenceable(3376), i64, %struct.Memory* readnone returned, i64 %rel_off1, i64 %rel_off2) local_unnamed_addr #2 {
block_400488:
  %PC = getelementptr inbounds %struct.State, %struct.State* %0, i64 0, i32 6, i32 33, i32 0, i32 0
  %3 = load i64, i64* %PC, align 8
  %4 = add i64 %3, %rel_off1
  store i64 %4, i64* %PC, align 8
  ret %struct.Memory* %2
}

; Function Attrs: norecurse nounwind
define %struct.Memory* @routine_jne_.L_430005(%struct.State* nocapture dereferenceable(3376), i64, %struct.Memory* readnone returned, i8* nocapture %BRANCH_TAKEN, i64 %rel_off1, i64 %rel_off2, i64 %rel_off3) local_unnamed_addr #2 {
block_400488:
  %PC = getelementptr inbounds %struct.State, %struct.State* %0, i64 0, i32 6, i32 33, i32 0, i32 0
  %3 = load i64, i64* %PC, align 8
  %4 = getelementptr inbounds %struct.State, %struct.State* %0, i64 0, i32 2, i32 7
  %5 = load i8, i8* %4, align 1
  %6 = icmp eq i8 %5, 0
  %7 = zext i1 %6 to i8
  store i8 %7, i8* %BRANCH_TAKEN, align 1
  %.v = select i1 %6, i64 %rel_off1, i64 %rel_off2
  %8 = add i64 %.v, %3
  store i64 %8, i64* %PC, align 8
  ret %struct.Memory* %2
}

; Function Attrs: norecurse nounwind
define %struct.Memory* @routine_movq_MINUS0x10__rbp____rax(%struct.State* nocapture dereferenceable(3376), i64, %struct.Memory* readnone returned) local_unnamed_addr #2 {
block_400488:
  %PC = getelementptr inbounds %struct.State, %struct.State* %0, i64 0, i32 6, i32 33, i32 0, i32 0
  %RAX = getelementptr inbounds %struct.State, %struct.State* %0, i64 0, i32 6, i32 1, i32 0, i32 0
  %RBP = getelementptr inbounds %struct.State, %struct.State* %0, i64 0, i32 6, i32 15, i32 0, i32 0
  %3 = load i64, i64* %RBP, align 8
  %4 = add i64 %3, -16
  %5 = load i64, i64* %PC, align 8
  %6 = add i64 %5, 4
  store i64 %6, i64* %PC, align 8
  %7 = inttoptr i64 %4 to i64*
  %8 = load i64, i64* %7, align 8
  store i64 %8, i64* %RAX, align 8
  ret %struct.Memory* %2
}

; Function Attrs: norecurse nounwind
define %struct.Memory* @routine_movl__0x1____rax__rcx_4_(%struct.State* nocapture dereferenceable(3376), i64, %struct.Memory* readnone returned) local_unnamed_addr #2 {
block_400488:
  %PC = getelementptr inbounds %struct.State, %struct.State* %0, i64 0, i32 6, i32 33, i32 0, i32 0
  %RAX = getelementptr inbounds %struct.State, %struct.State* %0, i64 0, i32 6, i32 1, i32 0, i32 0
  %RCX = getelementptr inbounds %struct.State, %struct.State* %0, i64 0, i32 6, i32 5, i32 0, i32 0
  %3 = load i64, i64* %RAX, align 8
  %4 = load i64, i64* %RCX, align 8
  %5 = shl i64 %4, 2
  %6 = add i64 %5, %3
  %7 = load i64, i64* %PC, align 8
  %8 = add i64 %7, 7
  store i64 %8, i64* %PC, align 8
  %9 = inttoptr i64 %6 to i32*
  store i32 1, i32* %9, align 4
  ret %struct.Memory* %2
}

; Function Attrs: norecurse nounwind
define %struct.Memory* @routine_jmpq_.L_430014(%struct.State* nocapture dereferenceable(3376), i64, %struct.Memory* readnone returned, i64 %rel_off1, i64 %rel_off2) local_unnamed_addr #2 {
block_400488:
  %PC = getelementptr inbounds %struct.State, %struct.State* %0, i64 0, i32 6, i32 33, i32 0, i32 0
  %3 = load i64, i64* %PC, align 8
  %4 = add i64 %3, %rel_off1
  store i64 %4, i64* %PC, align 8
  ret %struct.Memory* %2
}

; Function Attrs: norecurse nounwind
define %struct.Memory* @routine_movl__0x0____rax__rcx_4_(%struct.State* nocapture dereferenceable(3376), i64, %struct.Memory* readnone returned) local_unnamed_addr #2 {
block_400488:
  %PC = getelementptr inbounds %struct.State, %struct.State* %0, i64 0, i32 6, i32 33, i32 0, i32 0
  %RAX = getelementptr inbounds %struct.State, %struct.State* %0, i64 0, i32 6, i32 1, i32 0, i32 0
  %RCX = getelementptr inbounds %struct.State, %struct.State* %0, i64 0, i32 6, i32 5, i32 0, i32 0
  %3 = load i64, i64* %RAX, align 8
  %4 = load i64, i64* %RCX, align 8
  %5 = shl i64 %4, 2
  %6 = add i64 %5, %3
  %7 = load i64, i64* %PC, align 8
  %8 = add i64 %7, 7
  store i64 %8, i64* %PC, align 8
  %9 = inttoptr i64 %6 to i32*
  store i32 0, i32* %9, align 4
  ret %struct.Memory* %2
}

; Function Attrs: norecurse nounwind
define %struct.Memory* @routine_jmpq_.L_430019(%struct.State* nocapture dereferenceable(3376), i64, %struct.Memory* readnone returned, i64 %rel_off1, i64 %rel_off2) local_unnamed_addr #2 {
block_400488:
  %PC = getelementptr inbounds %struct.State, %struct.State* %0, i64 0, i32 6, i32 33, i32 0, i32 0
  %3 = load i64, i64* %PC, align 8
  %4 = add i64 %3, %rel_off1
  store i64 %4, i64* %PC, align 8
  ret %struct.Memory* %2
}

; Function Attrs: norecurse nounwind
define %struct.Memory* @routine_movl__eax__MINUS0x14__rbp_(%struct.State* nocapture dereferenceable(3376), i64, %struct.Memory* readnone returned) local_unnamed_addr #2 {
block_400488:
  %PC = getelementptr inbounds %struct.State, %struct.State* %0, i64 0, i32 6, i32 33, i32 0, i32 0
  %3 = getelementptr inbounds %struct.State, %struct.State* %0, i64 0, i32 6, i32 1, i32 0
  %EAX = bitcast %union.anon* %3 to i32*
  %RBP = getelementptr inbounds %struct.State, %struct.State* %0, i64 0, i32 6, i32 15, i32 0, i32 0
  %4 = load i64, i64* %RBP, align 8
  %5 = add i64 %4, -20
  %6 = load i32, i32* %EAX, align 4
  %7 = load i64, i64* %PC, align 8
  %8 = add i64 %7, 3
  store i64 %8, i64* %PC, align 8
  %9 = inttoptr i64 %5 to i32*
  store i32 %6, i32* %9, align 4
  ret %struct.Memory* %2
}

; Function Attrs: norecurse nounwind
define %struct.Memory* @routine_jmpq_.L_42ff02(%struct.State* nocapture dereferenceable(3376), i64, %struct.Memory* readnone returned, i64 %rel_off1, i64 %rel_off2) local_unnamed_addr #2 {
block_400488:
  %PC = getelementptr inbounds %struct.State, %struct.State* %0, i64 0, i32 6, i32 33, i32 0, i32 0
  %3 = load i64, i64* %PC, align 8
  %4 = add i64 %3, %rel_off1
  store i64 %4, i64* %PC, align 8
  ret %struct.Memory* %2
}

; Function Attrs: norecurse nounwind
define %struct.Memory* @routine_movq_MINUS0x10__rbp____rsi(%struct.State* nocapture dereferenceable(3376), i64, %struct.Memory* readnone returned) local_unnamed_addr #2 {
block_400488:
  %PC = getelementptr inbounds %struct.State, %struct.State* %0, i64 0, i32 6, i32 33, i32 0, i32 0
  %RSI = getelementptr inbounds %struct.State, %struct.State* %0, i64 0, i32 6, i32 9, i32 0, i32 0
  %RBP = getelementptr inbounds %struct.State, %struct.State* %0, i64 0, i32 6, i32 15, i32 0, i32 0
  %3 = load i64, i64* %RBP, align 8
  %4 = add i64 %3, -16
  %5 = load i64, i64* %PC, align 8
  %6 = add i64 %5, 4
  store i64 %6, i64* %PC, align 8
  %7 = inttoptr i64 %4 to i64*
  %8 = load i64, i64* %7, align 8
  store i64 %8, i64* %RSI, align 8
  ret %struct.Memory* %2
}

; Function Attrs: norecurse nounwind
define %struct.Memory* @routine_callq_.MSAShorterAlignment(%struct.State* nocapture dereferenceable(3376), i64, %struct.Memory* readnone returned, i64 %rel_off1, i64 %rel_off2, i64 %rel_off3) local_unnamed_addr #2 {
block_400488:
  %PC = getelementptr inbounds %struct.State, %struct.State* %0, i64 0, i32 6, i32 33, i32 0, i32 0
  %3 = load i64, i64* %PC, align 8
  %4 = add i64 %3, %rel_off1
  %5 = add i64 %3, %rel_off2
  %6 = getelementptr inbounds %struct.State, %struct.State* %0, i64 0, i32 6, i32 13, i32 0, i32 0
  %7 = load i64, i64* %6, align 8
  %8 = add i64 %7, -8
  %9 = inttoptr i64 %8 to i64*
  store i64 %5, i64* %9, align 8
  store i64 %8, i64* %6, align 8
  store i64 %4, i64* %PC, align 8
  ret %struct.Memory* %2
}

; Function Attrs: norecurse nounwind
define %struct.Memory* @routine_movq__rsi___rdi(%struct.State* nocapture dereferenceable(3376), i64, %struct.Memory* readnone returned) local_unnamed_addr #2 {
block_400488:
  %PC = getelementptr inbounds %struct.State, %struct.State* %0, i64 0, i32 6, i32 33, i32 0, i32 0
  %RSI = getelementptr inbounds %struct.State, %struct.State* %0, i64 0, i32 6, i32 9, i32 0, i32 0
  %RDI = getelementptr inbounds %struct.State, %struct.State* %0, i64 0, i32 6, i32 11, i32 0, i32 0
  %3 = load i64, i64* %RSI, align 8
  %4 = load i64, i64* %PC, align 8
  %5 = add i64 %4, 3
  store i64 %5, i64* %PC, align 8
  store i64 %3, i64* %RDI, align 8
  ret %struct.Memory* %2
}

; Function Attrs: norecurse nounwind
define %struct.Memory* @routine_callq_.free_plt(%struct.State* nocapture dereferenceable(3376), i64, %struct.Memory* readnone returned, i64 %rel_off1, i64 %rel_off2, i64 %rel_off3) local_unnamed_addr #2 {
block_400488:
  %PC = getelementptr inbounds %struct.State, %struct.State* %0, i64 0, i32 6, i32 33, i32 0, i32 0
  %3 = load i64, i64* %PC, align 8
  %4 = add i64 %3, %rel_off1
  %5 = add i64 %3, %rel_off2
  %6 = getelementptr inbounds %struct.State, %struct.State* %0, i64 0, i32 6, i32 13, i32 0, i32 0
  %7 = load i64, i64* %6, align 8
  %8 = add i64 %7, -8
  %9 = inttoptr i64 %8 to i64*
  store i64 %5, i64* %9, align 8
  store i64 %8, i64* %6, align 8
  store i64 %4, i64* %PC, align 8
  ret %struct.Memory* %2
}

; Function Attrs: nounwind
define %struct.Memory* @routine_addq__0x20___rsp(%struct.State* nocapture dereferenceable(3376), i64, %struct.Memory* readnone returned) local_unnamed_addr #3 {
block_400488:
  %PC = getelementptr inbounds %struct.State, %struct.State* %0, i64 0, i32 6, i32 33, i32 0, i32 0
  %RSP = getelementptr inbounds %struct.State, %struct.State* %0, i64 0, i32 6, i32 13, i32 0, i32 0
  %3 = load i64, i64* %RSP, align 8
  %4 = load i64, i64* %PC, align 8
  %5 = add i64 %4, 4
  store i64 %5, i64* %PC, align 8
  %6 = add i64 %3, 32
  store i64 %6, i64* %RSP, align 8
  %7 = icmp ugt i64 %3, -33
  %8 = zext i1 %7 to i8
  %9 = getelementptr inbounds %struct.State, %struct.State* %0, i64 0, i32 2, i32 1
  store i8 %8, i8* %9, align 1
  %10 = trunc i64 %6 to i32
  %11 = and i32 %10, 255
  %12 = tail call i32 @llvm.ctpop.i32(i32 %11)
  %13 = trunc i32 %12 to i8
  %14 = and i8 %13, 1
  %15 = xor i8 %14, 1
  %16 = getelementptr inbounds %struct.State, %struct.State* %0, i64 0, i32 2, i32 3
  store i8 %15, i8* %16, align 1
  %17 = xor i64 %6, %3
  %18 = lshr i64 %17, 4
  %19 = trunc i64 %18 to i8
  %20 = and i8 %19, 1
  %21 = getelementptr inbounds %struct.State, %struct.State* %0, i64 0, i32 2, i32 5
  store i8 %20, i8* %21, align 1
  %22 = icmp eq i64 %6, 0
  %23 = zext i1 %22 to i8
  %24 = getelementptr inbounds %struct.State, %struct.State* %0, i64 0, i32 2, i32 7
  store i8 %23, i8* %24, align 1
  %25 = lshr i64 %6, 63
  %26 = trunc i64 %25 to i8
  %27 = getelementptr inbounds %struct.State, %struct.State* %0, i64 0, i32 2, i32 9
  store i8 %26, i8* %27, align 1
  %28 = lshr i64 %3, 63
  %29 = xor i64 %25, %28
  %30 = add nuw nsw i64 %29, %25
  %31 = icmp eq i64 %30, 2
  %32 = zext i1 %31 to i8
  %33 = getelementptr inbounds %struct.State, %struct.State* %0, i64 0, i32 2, i32 13
  store i8 %32, i8* %33, align 1
  ret %struct.Memory* %2
}

; Function Attrs: norecurse nounwind
define %struct.Memory* @routine_popq__rbp(%struct.State* nocapture dereferenceable(3376), i64, %struct.Memory* readnone returned) local_unnamed_addr #2 {
block_400488:
  %PC = getelementptr inbounds %struct.State, %struct.State* %0, i64 0, i32 6, i32 33, i32 0, i32 0
  %RBP = getelementptr inbounds %struct.State, %struct.State* %0, i64 0, i32 6, i32 15, i32 0, i32 0
  %3 = load i64, i64* %PC, align 8
  %4 = add i64 %3, 1
  store i64 %4, i64* %PC, align 8
  %5 = getelementptr inbounds %struct.State, %struct.State* %0, i64 0, i32 6, i32 13, i32 0, i32 0
  %6 = load i64, i64* %5, align 8
  %7 = add i64 %6, 8
  %8 = inttoptr i64 %6 to i64*
  %9 = load i64, i64* %8, align 8
  store i64 %9, i64* %RBP, align 8
  store i64 %7, i64* %5, align 8
  ret %struct.Memory* %2
}

; Function Attrs: norecurse nounwind
define %struct.Memory* @routine_retq(%struct.State* nocapture dereferenceable(3376), i64, %struct.Memory* readnone returned) local_unnamed_addr #2 {
block_400488:
  %PC = getelementptr inbounds %struct.State, %struct.State* %0, i64 0, i32 6, i32 33, i32 0, i32 0
  %3 = load i64, i64* %PC, align 8
  %4 = add i64 %3, 1
  store i64 %4, i64* %PC, align 8
  %5 = getelementptr inbounds %struct.State, %struct.State* %0, i64 0, i32 6, i32 13, i32 0, i32 0
  %6 = load i64, i64* %5, align 8
  %7 = inttoptr i64 %6 to i64*
  %8 = load i64, i64* %7, align 8
  store i64 %8, i64* %PC, align 8
  %9 = add i64 %6, 8
  store i64 %9, i64* %5, align 8
  ret %struct.Memory* %2
}

attributes #0 = { nounwind readnone }
attributes #1 = { alwaysinline }
attributes #2 = { norecurse nounwind }
attributes #3 = { nounwind }
