; ModuleID = 'mcsema/test.proposed.ll'
source_filename = "llvm-link"
target datalayout = "e-m:e-i64:64-f80:128-n8:16:32:64-S128"
target triple = "x86_64-pc-linux-gnu-elf"

%union.anon = type { i64 }
%seg_400388__init_type = type <{ [23 x i8] }>
%seg_4003a0__text_type = type <{ [354 x i8] }>
%seg_400504__fini_type = type <{ [9 x i8] }>
%seg_400510__rodata_type = type <{ [4 x i8] }>
%seg_400514__eh_frame_hdr_type = type <{ [52 x i8] }>
%seg_400548__eh_frame_type = type <{ [208 x i8] }>
%seg_601018__data_type = type <{ [16 x i8] }>
%__bss_start_type = type <{ [8 x i8] }>
%struct.State = type { %struct.ArchState, [32 x %union.VectorReg], %struct.ArithFlags, %union.anon, %struct.Segments, %struct.AddressSpace, %struct.GPR, %struct.X87Stack, %struct.MMX, %struct.FPUStatusFlags, %union.anon, %union.FPU, %struct.SegmentCaches }
%struct.ArchState = type { i32, i32, %union.anon }
%union.VectorReg = type { %union.vec512_t }
%union.vec512_t = type { %struct.uint64v8_t }
%struct.uint64v8_t = type { [8 x i64] }
%struct.ArithFlags = type { i8, i8, i8, i8, i8, i8, i8, i8, i8, i8, i8, i8, i8, i8, i8, i8 }
%struct.Segments = type { i16, %union.SegmentSelector, i16, %union.SegmentSelector, i16, %union.SegmentSelector, i16, %union.SegmentSelector, i16, %union.SegmentSelector, i16, %union.SegmentSelector }
%union.SegmentSelector = type { i16 }
%struct.AddressSpace = type { i64, %struct.Reg, i64, %struct.Reg, i64, %struct.Reg, i64, %struct.Reg, i64, %struct.Reg, i64, %struct.Reg }
%struct.Reg = type { %union.anon }
%struct.GPR = type { i64, %struct.Reg, i64, %struct.Reg, i64, %struct.Reg, i64, %struct.Reg, i64, %struct.Reg, i64, %struct.Reg, i64, %struct.Reg, i64, %struct.Reg, i64, %struct.Reg, i64, %struct.Reg, i64, %struct.Reg, i64, %struct.Reg, i64, %struct.Reg, i64, %struct.Reg, i64, %struct.Reg, i64, %struct.Reg, i64, %struct.Reg }
%struct.X87Stack = type { [8 x %struct.anon.3] }
%struct.anon.3 = type { i64, double }
%struct.MMX = type { [8 x %struct.anon.4] }
%struct.anon.4 = type { i64, %union.vec64_t }
%union.vec64_t = type { %struct.uint64v1_t }
%struct.uint64v1_t = type { [1 x i64] }
%struct.FPUStatusFlags = type { i8, i8, i8, i8, i8, i8, i8, i8, i8, i8, i8, i8, i8, i8, i8, i8, i8, i8, i8, i8, [4 x i8] }
%union.FPU = type { %struct.anon.13 }
%struct.anon.13 = type { %struct.FpuFXSAVE, [96 x i8] }
%struct.FpuFXSAVE = type { %union.SegmentSelector, %union.SegmentSelector, %union.FPUAbridgedTagWord, i8, i16, i32, %union.SegmentSelector, i16, i32, %union.SegmentSelector, i16, %union.FPUControlStatus, %union.FPUControlStatus, [8 x %struct.FPUStackElem], [16 x %union.vec128_t] }
%union.FPUAbridgedTagWord = type { i8 }
%union.FPUControlStatus = type { i32 }
%struct.FPUStackElem = type { %union.anon.11, [6 x i8] }
%union.anon.11 = type { %struct.float80_t }
%struct.float80_t = type { [10 x i8] }
%union.vec128_t = type { %struct.uint128v1_t }
%struct.uint128v1_t = type { [1 x i128] }
%struct.SegmentCaches = type { %struct.SegmentShadow, %struct.SegmentShadow, %struct.SegmentShadow, %struct.SegmentShadow, %struct.SegmentShadow, %struct.SegmentShadow }
%struct.SegmentShadow = type { %union.anon, i32, i32 }
%struct.Memory = type opaque
%struct.anon.2 = type { i8, i8 }

@switch.table = private unnamed_addr constant [4 x i32] [i32 2048, i32 3072, i32 0, i32 1024]
@DR0 = external global i64, align 8
@DR1 = external global i64, align 8
@DR2 = external global i64, align 8
@DR3 = external global i64, align 8
@DR4 = external global i64, align 8
@DR5 = external global i64, align 8
@DR6 = external global i64, align 8
@DR7 = external global i64, align 8
@gCR0 = external global %union.anon, align 1
@gCR1 = external global %union.anon, align 1
@gCR2 = external global %union.anon, align 1
@gCR3 = external global %union.anon, align 1
@gCR4 = external global %union.anon, align 1
@gCR8 = external global %union.anon, align 1
@seg_400388__init = internal constant %seg_400388__init_type <{ [23 x i8] c"H\83\EC\08H\8B\05e\0C \00H\85\C0t\02\FF\D0H\83\C4\08\C3" }>
@seg_4003a0__text = internal constant %seg_4003a0__text_type <{ [354 x i8] c"1\EDI\89\D1^H\89\E2H\83\E4\F0PTI\C7\C0\00\05@\00H\C7\C1\90\04@\00H\C7\C7\88\04@\00\FF\15&\0C \00\F4\0F\1FD\00\00\F3\C3f.\0F\1F\84\00\00\00\00\00\0F\1F@\00U\B8(\10`\00H=(\10`\00H\89\E5t\17\B8\00\00\00\00H\85\C0t\0D]\BF(\10`\00\FF\E0\0F\1FD\00\00]\C3f\0F\1FD\00\00\BE(\10`\00UH\81\EE(\10`\00H\89\E5H\C1\FE\03H\89\F0H\C1\E8?H\01\C6H\D1\FEt\15\B8\00\00\00\00H\85\C0t\0B]\BF(\10`\00\FF\E0\0F\1F\00]\C3f\0F\1FD\00\00\80=\D1\0B \00\00u\17UH\89\E5\E8~\FF\FF\FF\C6\05\BF\0B \00\01]\C3\0F\1FD\00\00\F3\C3\0F\1F@\00f.\0F\1F\84\00\00\00\00\00UH\89\E5]\EB\89\90U\C3f\0F\1FD\00\00AWAVI\89\D7AUATL\8D%\9E\09 \00UH\8D-\9E\09 \00SA\89\FDI\89\F6L)\E5H\83\EC\08H\C1\FD\03\E8\C7\FE\FF\FFH\85\EDt 1\DB\0F\1F\84\00\00\00\00\00L\89\FAL\89\F6D\89\EFA\FF\14\DCH\83\C3\01H9\DDu\EAH\83\C4\08[]A\5CA]A^A_\C3\90f.\0F\1F\84\00\00\00\00\00\F3\C3" }>
@seg_400504__fini = internal constant %seg_400504__fini_type <{ [9 x i8] c"H\83\EC\08H\83\C4\08\C3" }>
@seg_400510__rodata = internal constant %seg_400510__rodata_type <{ [4 x i8] c"\01\00\02\00" }>
@seg_400514__eh_frame_hdr = internal constant %seg_400514__eh_frame_hdr_type <{ [52 x i8] c"\01\1B\03;0\00\00\00\05\00\00\00\8C\FE\FF\FFL\00\00\00\BC\FE\FF\FFx\00\00\00t\FF\FF\FF\8C\00\00\00|\FF\FF\FF\A4\00\00\00\EC\FF\FF\FF\EC\00\00\00" }>
@seg_400548__eh_frame = internal constant %seg_400548__eh_frame_type <{ [208 x i8] c"\14\00\00\00\00\00\00\00\01zR\00\01x\10\01\1B\0C\07\08\90\01\07\10\10\00\00\00\1C\00\00\008\FE\FF\FF+\00\00\00\00\00\00\00\14\00\00\00\00\00\00\00\01zR\00\01x\10\01\1B\0C\07\08\90\01\00\00\10\00\00\00\1C\00\00\00<\FE\FF\FF\02\00\00\00\00\00\00\00\14\00\00\000\00\00\00\E0\FE\FF\FF\02\00\00\00\00\00\00\00\00\00\00\00D\00\00\00H\00\00\00\D0\FE\FF\FFe\00\00\00\00B\0E\10\8F\02B\0E\18\8E\03E\0E \8D\04B\0E(\8C\05H\0E0\86\06H\0E8\83\07M\0E@r\0E8A\0E0A\0E(B\0E B\0E\18B\0E\10B\0E\08\00\10\00\00\00\90\00\00\00\F8\FE\FF\FF\02\00\00\00\00\00\00\00\00\00\00\00" }>
@seg_601018__data = internal global %seg_601018__data_type zeroinitializer
@__bss_start = global %__bss_start_type zeroinitializer
@0 = internal global i1 false

declare %struct.Memory* @__remill_error(%struct.State* dereferenceable(3376), i64, %struct.Memory*)

declare i32 @__remill_fpu_exception_test_and_clear(i32, i32)

; Function Attrs: argmemonly nounwind
declare void @llvm.lifetime.start(i64, i8* nocapture) #0

; Function Attrs: argmemonly nounwind
declare void @llvm.lifetime.end(i64, i8* nocapture) #0

; Function Attrs: nounwind readnone
declare i32 @llvm.ctpop.i32(i32) #1

; Function Attrs: nounwind readnone
declare i32 @llvm.bswap.i32(i32) #1

; Function Attrs: nounwind readnone
declare i64 @llvm.bswap.i64(i64) #1

; Function Attrs: nounwind readnone
declare i32 @llvm.cttz.i32(i32, i1) #1

; Function Attrs: nounwind readnone
declare i64 @llvm.cttz.i64(i64, i1) #1

; Function Attrs: nounwind readnone
declare i32 @llvm.ctlz.i32(i32, i1) #1

; Function Attrs: nounwind readnone
declare i64 @llvm.ctlz.i64(i64, i1) #1

; Function Attrs: argmemonly nounwind
declare void @llvm.memcpy.p0i8.p0i8.i64(i8* nocapture writeonly, i8* nocapture readonly, i64, i32, i1) #0

; Function Attrs: nounwind readnone
declare double @llvm.nearbyint.f64(double) #1

; Function Attrs: nounwind readnone
declare double @llvm.fabs.f64(double) #1

; Function Attrs: nounwind readnone
declare <4 x double> @llvm.nearbyint.v4f64(<4 x double>) #1

; Function Attrs: nounwind readnone
declare <4 x double> @llvm.fabs.v4f64(<4 x double>) #1

; Function Attrs: nounwind readnone
declare double @llvm.trunc.f64(double) #1

; Function Attrs: nounwind readnone
declare <4 x double> @llvm.trunc.v4f64(<4 x double>) #1

; Function Attrs: nounwind readnone
declare float @llvm.nearbyint.f32(float) #1

; Function Attrs: nounwind readnone
declare float @llvm.fabs.f32(float) #1

; Function Attrs: nounwind readnone
declare <4 x float> @llvm.nearbyint.v4f32(<4 x float>) #1

; Function Attrs: nounwind readnone
declare <4 x float> @llvm.fabs.v4f32(<4 x float>) #1

; Function Attrs: nounwind readnone
declare float @llvm.trunc.f32(float) #1

; Function Attrs: nounwind readnone
declare <4 x float> @llvm.trunc.v4f32(<4 x float>) #1

; Function Attrs: argmemonly nounwind
declare void @llvm.memset.p0i8.i64(i8* nocapture writeonly, i8, i64, i32, i1) #0

declare double @atan(double) local_unnamed_addr

declare double @cos(double) local_unnamed_addr

declare double @sin(double) local_unnamed_addr

declare double @sqrt(double) local_unnamed_addr

declare double @tan(double) local_unnamed_addr

declare extern_weak x86_64_sysvcc i64 @abort()

declare extern_weak x86_64_sysvcc i64 @abs(i64)

declare extern_weak x86_64_sysvcc i64 @asin(i64)

declare extern_weak x86_64_sysvcc i64 @atof(i64)

declare extern_weak x86_64_sysvcc i64 @atoi(i64)

declare extern_weak x86_64_sysvcc i64 @atol(i64)

declare extern_weak x86_64_sysvcc i64 @calloc(i64, i64)

declare extern_weak x86_64_sysvcc i64 @clock()

declare extern_weak x86_64_sysvcc i64 @cosf(i64)

declare extern_weak x86_64_sysvcc i64 @exit(i64)

declare extern_weak x86_64_sysvcc i64 @exp(i64)

declare extern_weak x86_64_sysvcc i64 @fflush(i64)

declare extern_weak x86_64_sysvcc i64 @floor(i64)

declare extern_weak x86_64_sysvcc i64 @fprintf(i64, i64, i64, i64, i64, i64, i64, i64, i64, i64, i64, i64, i64, i64, i64, i64)

declare extern_weak x86_64_sysvcc i64 @fputs(i64, i64)

declare extern_weak x86_64_sysvcc i64 @free(i64)

declare extern_weak x86_64_sysvcc i64 @fwrite(i64, i64, i64, i64)

declare extern_weak x86_64_sysvcc i64 @getchar()

declare extern_weak x86_64_sysvcc i64 @gettimeofday(i64, i64)

declare extern_weak x86_64_sysvcc i64 @__isoc99_fscanf(i64, i64, i64, i64, i64, i64, i64, i64, i64, i64, i64, i64, i64, i64, i64, i64)

declare extern_weak x86_64_sysvcc i64 @__isoc99_scanf(i64, i64, i64, i64, i64, i64, i64, i64, i64, i64, i64, i64, i64, i64, i64, i64)

declare extern_weak x86_64_sysvcc i64 @__isoc99_sscanf(i64, i64, i64, i64, i64, i64, i64, i64, i64, i64, i64, i64, i64, i64, i64, i64)

declare extern_weak x86_64_sysvcc i64 @log(i64)

declare extern_weak x86_64_sysvcc i64 @lrand48()

declare extern_weak x86_64_sysvcc i64 @malloc(i64)

declare extern_weak x86_64_sysvcc i64 @memalign(i64, i64)

declare extern_weak x86_64_sysvcc i64 @memcpy(i64, i64, i64)

declare extern_weak x86_64_sysvcc i64 @memset(i64, i64, i64)

declare extern_weak x86_64_sysvcc i64 @perror(i64)

declare extern_weak x86_64_sysvcc i64 @posix_memalign(i64, i64, i64)

declare extern_weak x86_64_sysvcc i64 @pow(i64, i64)

declare extern_weak x86_64_sysvcc i64 @printf(i64, i64, i64, i64, i64, i64, i64, i64, i64, i64, i64, i64, i64, i64, i64, i64)

declare extern_weak x86_64_sysvcc i64 @putchar(i64)

declare extern_weak x86_64_sysvcc i64 @puts(i64)

declare extern_weak x86_64_sysvcc i64 @rand()

declare extern_weak x86_64_sysvcc i64 @random()

declare extern_weak x86_64_sysvcc i64 @realloc(i64, i64)

declare extern_weak x86_64_sysvcc i64 @seed48(i64)

declare extern_weak x86_64_sysvcc i64 @sinf(i64)

declare extern_weak x86_64_sysvcc i64 @sprintf(i64, i64, i64, i64, i64, i64, i64, i64, i64, i64, i64, i64, i64, i64, i64, i64)

declare extern_weak x86_64_sysvcc i64 @srand(i64)

declare extern_weak x86_64_sysvcc i64 @strcat(i64, i64)

declare extern_weak x86_64_sysvcc i64 @strcmp(i64, i64)

declare extern_weak x86_64_sysvcc i64 @strcpy(i64, i64)

declare extern_weak x86_64_sysvcc i64 @strdup(i64)

declare extern_weak x86_64_sysvcc i64 @strlen(i64)

declare extern_weak x86_64_sysvcc i64 @strncmp(i64, i64, i64)

declare extern_weak x86_64_sysvcc i64 @strtoll(i64, i64, i64)

declare extern_weak x86_64_sysvcc i64 @time(i64)

declare extern_weak x86_64_sysvcc i64 @ungetc(i64, i64)

declare extern_weak x86_64_sysvcc i64 @pthread_join(i64, i64)

declare extern_weak x86_64_sysvcc i64 @pthread_create(i64, i64, i64, i64)

declare %struct.Memory* @__remill_function_call(%struct.State* dereferenceable(3376), i64, %struct.Memory*)

declare %struct.Memory* @ext_sqrt(%struct.State* noalias dereferenceable(3376), i64, %struct.Memory* noalias)

declare %struct.Memory* @ext_atan(%struct.State* noalias dereferenceable(3376), i64, %struct.Memory* noalias)

declare %struct.Memory* @ext_cos(%struct.State* noalias dereferenceable(3376), i64, %struct.Memory* noalias)

declare %struct.Memory* @ext_tan(%struct.State* noalias dereferenceable(3376), i64, %struct.Memory* noalias)

declare %struct.Memory* @ext_sin(%struct.State* noalias dereferenceable(3376), i64, %struct.Memory* noalias)

declare %struct.Memory* @sub_44da20.owl_escape_value(%struct.State* noalias dereferenceable(3376), i64, %struct.Memory* noalias readnone returned)

; Function Attrs: alwaysinline
define %struct.Memory* @autohelperowl_defendpat323(%struct.State* noalias, i64, %struct.Memory* noalias) #2 {
entry:
  %3 = getelementptr inbounds %struct.State, %struct.State* %0, i64 0, i32 6, i32 33, i32 0, i32 0
  store i64 %1, i64* %3, align 8
  %BRANCH_TAKEN = alloca i8, align 1
  store i8 0, i8* %BRANCH_TAKEN, align 1
  %MEMORY = alloca %struct.Memory*, align 8
  store %struct.Memory* %2, %struct.Memory** %MEMORY, align 8
  %loadMem_4c1d90 = load %struct.Memory*, %struct.Memory** %MEMORY
  %4 = getelementptr inbounds %struct.State, %struct.State* %0, i32 0, i32 6
  %5 = getelementptr inbounds %struct.GPR, %struct.GPR* %4, i32 0, i32 33
  %6 = getelementptr inbounds %struct.Reg, %struct.Reg* %5, i32 0, i32 0
  %PC.i = bitcast %union.anon* %6 to i64*
  %7 = getelementptr inbounds %struct.State, %struct.State* %0, i32 0, i32 6
  %8 = getelementptr inbounds %struct.GPR, %struct.GPR* %7, i32 0, i32 15
  %9 = getelementptr inbounds %struct.Reg, %struct.Reg* %8, i32 0, i32 0
  %RBP.i = bitcast %union.anon* %9 to i64*
  %10 = load i64, i64* %RBP.i
  %11 = load i64, i64* %PC.i
  %12 = add i64 %11, 1
  store i64 %12, i64* %PC.i
  %13 = getelementptr inbounds %struct.State, %struct.State* %0, i64 0, i32 6, i32 13, i32 0, i32 0
  %14 = load i64, i64* %13, align 8
  %15 = add i64 %14, -8
  %16 = inttoptr i64 %15 to i64*
  store i64 %10, i64* %16
  store i64 %15, i64* %13, align 8
  store %struct.Memory* %loadMem_4c1d90, %struct.Memory** %MEMORY
  %loadMem_4c1d91 = load %struct.Memory*, %struct.Memory** %MEMORY
  %17 = getelementptr inbounds %struct.State, %struct.State* %0, i32 0, i32 6
  %18 = getelementptr inbounds %struct.GPR, %struct.GPR* %17, i32 0, i32 33
  %19 = getelementptr inbounds %struct.Reg, %struct.Reg* %18, i32 0, i32 0
  %PC.i63 = bitcast %union.anon* %19 to i64*
  %20 = getelementptr inbounds %struct.State, %struct.State* %0, i32 0, i32 6
  %21 = getelementptr inbounds %struct.GPR, %struct.GPR* %20, i32 0, i32 13
  %22 = getelementptr inbounds %struct.Reg, %struct.Reg* %21, i32 0, i32 0
  %RSP.i64 = bitcast %union.anon* %22 to i64*
  %23 = getelementptr inbounds %struct.State, %struct.State* %0, i32 0, i32 6
  %24 = getelementptr inbounds %struct.GPR, %struct.GPR* %23, i32 0, i32 15
  %25 = getelementptr inbounds %struct.Reg, %struct.Reg* %24, i32 0, i32 0
  %RBP.i65 = bitcast %union.anon* %25 to i64*
  %26 = load i64, i64* %RSP.i64
  %27 = load i64, i64* %PC.i63
  %28 = add i64 %27, 3
  store i64 %28, i64* %PC.i63
  store i64 %26, i64* %RBP.i65, align 8
  store %struct.Memory* %loadMem_4c1d91, %struct.Memory** %MEMORY
  %loadMem_4c1d94 = load %struct.Memory*, %struct.Memory** %MEMORY
  %29 = getelementptr inbounds %struct.State, %struct.State* %0, i32 0, i32 6
  %30 = getelementptr inbounds %struct.GPR, %struct.GPR* %29, i32 0, i32 33
  %31 = getelementptr inbounds %struct.Reg, %struct.Reg* %30, i32 0, i32 0
  %PC.i61 = bitcast %union.anon* %31 to i64*
  %32 = getelementptr inbounds %struct.State, %struct.State* %0, i32 0, i32 6
  %33 = getelementptr inbounds %struct.GPR, %struct.GPR* %32, i32 0, i32 13
  %34 = getelementptr inbounds %struct.Reg, %struct.Reg* %33, i32 0, i32 0
  %RSP.i62 = bitcast %union.anon* %34 to i64*
  %35 = load i64, i64* %RSP.i62
  %36 = load i64, i64* %PC.i61
  %37 = add i64 %36, 4
  store i64 %37, i64* %PC.i61
  %38 = sub i64 %35, 32
  store i64 %38, i64* %RSP.i62, align 8
  %39 = icmp ult i64 %35, 32
  %40 = zext i1 %39 to i8
  %41 = getelementptr inbounds %struct.State, %struct.State* %0, i64 0, i32 2, i32 1
  store i8 %40, i8* %41, align 1
  %42 = trunc i64 %38 to i32
  %43 = and i32 %42, 255
  %44 = call i32 @llvm.ctpop.i32(i32 %43)
  %45 = trunc i32 %44 to i8
  %46 = and i8 %45, 1
  %47 = xor i8 %46, 1
  %48 = getelementptr inbounds %struct.State, %struct.State* %0, i64 0, i32 2, i32 3
  store i8 %47, i8* %48, align 1
  %49 = xor i64 32, %35
  %50 = xor i64 %49, %38
  %51 = lshr i64 %50, 4
  %52 = trunc i64 %51 to i8
  %53 = and i8 %52, 1
  %54 = getelementptr inbounds %struct.State, %struct.State* %0, i64 0, i32 2, i32 5
  store i8 %53, i8* %54, align 1
  %55 = icmp eq i64 %38, 0
  %56 = zext i1 %55 to i8
  %57 = getelementptr inbounds %struct.State, %struct.State* %0, i64 0, i32 2, i32 7
  store i8 %56, i8* %57, align 1
  %58 = lshr i64 %38, 63
  %59 = trunc i64 %58 to i8
  %60 = getelementptr inbounds %struct.State, %struct.State* %0, i64 0, i32 2, i32 9
  store i8 %59, i8* %60, align 1
  %61 = lshr i64 %35, 63
  %62 = xor i64 %58, %61
  %63 = add i64 %62, %61
  %64 = icmp eq i64 %63, 2
  %65 = zext i1 %64 to i8
  %66 = getelementptr inbounds %struct.State, %struct.State* %0, i64 0, i32 2, i32 13
  store i8 %65, i8* %66, align 1
  store %struct.Memory* %loadMem_4c1d94, %struct.Memory** %MEMORY
  %loadMem_4c1d98 = load %struct.Memory*, %struct.Memory** %MEMORY
  %67 = getelementptr inbounds %struct.State, %struct.State* %0, i32 0, i32 6
  %68 = getelementptr inbounds %struct.GPR, %struct.GPR* %67, i32 0, i32 33
  %69 = getelementptr inbounds %struct.Reg, %struct.Reg* %68, i32 0, i32 0
  %PC.i59 = bitcast %union.anon* %69 to i64*
  %70 = getelementptr inbounds %struct.State, %struct.State* %0, i32 0, i32 6
  %71 = getelementptr inbounds %struct.GPR, %struct.GPR* %70, i32 0, i32 11
  %72 = getelementptr inbounds %struct.Reg, %struct.Reg* %71, i32 0, i32 0
  %EDI.i = bitcast %union.anon* %72 to i32*
  %73 = getelementptr inbounds %struct.State, %struct.State* %0, i32 0, i32 6
  %74 = getelementptr inbounds %struct.GPR, %struct.GPR* %73, i32 0, i32 15
  %75 = getelementptr inbounds %struct.Reg, %struct.Reg* %74, i32 0, i32 0
  %RBP.i60 = bitcast %union.anon* %75 to i64*
  %76 = load i64, i64* %RBP.i60
  %77 = sub i64 %76, 4
  %78 = load i32, i32* %EDI.i
  %79 = zext i32 %78 to i64
  %80 = load i64, i64* %PC.i59
  %81 = add i64 %80, 3
  store i64 %81, i64* %PC.i59
  %82 = inttoptr i64 %77 to i32*
  store i32 %78, i32* %82
  store %struct.Memory* %loadMem_4c1d98, %struct.Memory** %MEMORY
  %loadMem_4c1d9b = load %struct.Memory*, %struct.Memory** %MEMORY
  %83 = getelementptr inbounds %struct.State, %struct.State* %0, i32 0, i32 6
  %84 = getelementptr inbounds %struct.GPR, %struct.GPR* %83, i32 0, i32 33
  %85 = getelementptr inbounds %struct.Reg, %struct.Reg* %84, i32 0, i32 0
  %PC.i57 = bitcast %union.anon* %85 to i64*
  %86 = getelementptr inbounds %struct.State, %struct.State* %0, i32 0, i32 6
  %87 = getelementptr inbounds %struct.GPR, %struct.GPR* %86, i32 0, i32 9
  %88 = getelementptr inbounds %struct.Reg, %struct.Reg* %87, i32 0, i32 0
  %ESI.i = bitcast %union.anon* %88 to i32*
  %89 = getelementptr inbounds %struct.State, %struct.State* %0, i32 0, i32 6
  %90 = getelementptr inbounds %struct.GPR, %struct.GPR* %89, i32 0, i32 15
  %91 = getelementptr inbounds %struct.Reg, %struct.Reg* %90, i32 0, i32 0
  %RBP.i58 = bitcast %union.anon* %91 to i64*
  %92 = load i64, i64* %RBP.i58
  %93 = sub i64 %92, 8
  %94 = load i32, i32* %ESI.i
  %95 = zext i32 %94 to i64
  %96 = load i64, i64* %PC.i57
  %97 = add i64 %96, 3
  store i64 %97, i64* %PC.i57
  %98 = inttoptr i64 %93 to i32*
  store i32 %94, i32* %98
  store %struct.Memory* %loadMem_4c1d9b, %struct.Memory** %MEMORY
  %loadMem_4c1d9e = load %struct.Memory*, %struct.Memory** %MEMORY
  %99 = getelementptr inbounds %struct.State, %struct.State* %0, i32 0, i32 6
  %100 = getelementptr inbounds %struct.GPR, %struct.GPR* %99, i32 0, i32 33
  %101 = getelementptr inbounds %struct.Reg, %struct.Reg* %100, i32 0, i32 0
  %PC.i55 = bitcast %union.anon* %101 to i64*
  %102 = getelementptr inbounds %struct.State, %struct.State* %0, i32 0, i32 6
  %103 = getelementptr inbounds %struct.GPR, %struct.GPR* %102, i32 0, i32 7
  %104 = getelementptr inbounds %struct.Reg, %struct.Reg* %103, i32 0, i32 0
  %EDX.i = bitcast %union.anon* %104 to i32*
  %105 = getelementptr inbounds %struct.State, %struct.State* %0, i32 0, i32 6
  %106 = getelementptr inbounds %struct.GPR, %struct.GPR* %105, i32 0, i32 15
  %107 = getelementptr inbounds %struct.Reg, %struct.Reg* %106, i32 0, i32 0
  %RBP.i56 = bitcast %union.anon* %107 to i64*
  %108 = load i64, i64* %RBP.i56
  %109 = sub i64 %108, 12
  %110 = load i32, i32* %EDX.i
  %111 = zext i32 %110 to i64
  %112 = load i64, i64* %PC.i55
  %113 = add i64 %112, 3
  store i64 %113, i64* %PC.i55
  %114 = inttoptr i64 %109 to i32*
  store i32 %110, i32* %114
  store %struct.Memory* %loadMem_4c1d9e, %struct.Memory** %MEMORY
  %loadMem_4c1da1 = load %struct.Memory*, %struct.Memory** %MEMORY
  %115 = getelementptr inbounds %struct.State, %struct.State* %0, i32 0, i32 6
  %116 = getelementptr inbounds %struct.GPR, %struct.GPR* %115, i32 0, i32 33
  %117 = getelementptr inbounds %struct.Reg, %struct.Reg* %116, i32 0, i32 0
  %PC.i52 = bitcast %union.anon* %117 to i64*
  %118 = getelementptr inbounds %struct.State, %struct.State* %0, i32 0, i32 6
  %119 = getelementptr inbounds %struct.GPR, %struct.GPR* %118, i32 0, i32 5
  %120 = getelementptr inbounds %struct.Reg, %struct.Reg* %119, i32 0, i32 0
  %ECX.i53 = bitcast %union.anon* %120 to i32*
  %121 = getelementptr inbounds %struct.State, %struct.State* %0, i32 0, i32 6
  %122 = getelementptr inbounds %struct.GPR, %struct.GPR* %121, i32 0, i32 15
  %123 = getelementptr inbounds %struct.Reg, %struct.Reg* %122, i32 0, i32 0
  %RBP.i54 = bitcast %union.anon* %123 to i64*
  %124 = load i64, i64* %RBP.i54
  %125 = sub i64 %124, 16
  %126 = load i32, i32* %ECX.i53
  %127 = zext i32 %126 to i64
  %128 = load i64, i64* %PC.i52
  %129 = add i64 %128, 3
  store i64 %129, i64* %PC.i52
  %130 = inttoptr i64 %125 to i32*
  store i32 %126, i32* %130
  store %struct.Memory* %loadMem_4c1da1, %struct.Memory** %MEMORY
  %loadMem_4c1da4 = load %struct.Memory*, %struct.Memory** %MEMORY
  %131 = getelementptr inbounds %struct.State, %struct.State* %0, i32 0, i32 6
  %132 = getelementptr inbounds %struct.GPR, %struct.GPR* %131, i32 0, i32 33
  %133 = getelementptr inbounds %struct.Reg, %struct.Reg* %132, i32 0, i32 0
  %PC.i49 = bitcast %union.anon* %133 to i64*
  %134 = getelementptr inbounds %struct.State, %struct.State* %0, i32 0, i32 6
  %135 = getelementptr inbounds %struct.GPR, %struct.GPR* %134, i32 0, i32 1
  %136 = getelementptr inbounds %struct.Reg, %struct.Reg* %135, i32 0, i32 0
  %RAX.i50 = bitcast %union.anon* %136 to i64*
  %137 = getelementptr inbounds %struct.State, %struct.State* %0, i32 0, i32 6
  %138 = getelementptr inbounds %struct.GPR, %struct.GPR* %137, i32 0, i32 15
  %139 = getelementptr inbounds %struct.Reg, %struct.Reg* %138, i32 0, i32 0
  %RBP.i51 = bitcast %union.anon* %139 to i64*
  %140 = load i64, i64* %RBP.i51
  %141 = sub i64 %140, 4
  %142 = load i64, i64* %PC.i49
  %143 = add i64 %142, 4
  store i64 %143, i64* %PC.i49
  %144 = inttoptr i64 %141 to i32*
  %145 = load i32, i32* %144
  %146 = sext i32 %145 to i64
  store i64 %146, i64* %RAX.i50, align 8
  store %struct.Memory* %loadMem_4c1da4, %struct.Memory** %MEMORY
  %loadMem_4c1da8 = load %struct.Memory*, %struct.Memory** %MEMORY
  %147 = getelementptr inbounds %struct.State, %struct.State* %0, i32 0, i32 6
  %148 = getelementptr inbounds %struct.GPR, %struct.GPR* %147, i32 0, i32 33
  %149 = getelementptr inbounds %struct.Reg, %struct.Reg* %148, i32 0, i32 0
  %PC.i46 = bitcast %union.anon* %149 to i64*
  %150 = getelementptr inbounds %struct.State, %struct.State* %0, i32 0, i32 6
  %151 = getelementptr inbounds %struct.GPR, %struct.GPR* %150, i32 0, i32 1
  %152 = getelementptr inbounds %struct.Reg, %struct.Reg* %151, i32 0, i32 0
  %RAX.i47 = bitcast %union.anon* %152 to i64*
  %153 = getelementptr inbounds %struct.State, %struct.State* %0, i32 0, i32 6
  %154 = getelementptr inbounds %struct.GPR, %struct.GPR* %153, i32 0, i32 5
  %155 = getelementptr inbounds %struct.Reg, %struct.Reg* %154, i32 0, i32 0
  %RCX.i48 = bitcast %union.anon* %155 to i64*
  %156 = load i64, i64* %RAX.i47
  %157 = mul i64 %156, 4
  %158 = add i64 %157, 11903632
  %159 = load i64, i64* %PC.i46
  %160 = add i64 %159, 7
  store i64 %160, i64* %PC.i46
  %161 = inttoptr i64 %158 to i32*
  %162 = load i32, i32* %161
  %163 = zext i32 %162 to i64
  store i64 %163, i64* %RCX.i48, align 8
  store %struct.Memory* %loadMem_4c1da8, %struct.Memory** %MEMORY
  %loadMem_4c1daf = load %struct.Memory*, %struct.Memory** %MEMORY
  %164 = getelementptr inbounds %struct.State, %struct.State* %0, i32 0, i32 6
  %165 = getelementptr inbounds %struct.GPR, %struct.GPR* %164, i32 0, i32 33
  %166 = getelementptr inbounds %struct.Reg, %struct.Reg* %165, i32 0, i32 0
  %PC.i43 = bitcast %union.anon* %166 to i64*
  %167 = getelementptr inbounds %struct.State, %struct.State* %0, i32 0, i32 6
  %168 = getelementptr inbounds %struct.GPR, %struct.GPR* %167, i32 0, i32 5
  %169 = getelementptr inbounds %struct.Reg, %struct.Reg* %168, i32 0, i32 0
  %RCX.i44 = bitcast %union.anon* %169 to i64*
  %170 = getelementptr inbounds %struct.State, %struct.State* %0, i32 0, i32 6
  %171 = getelementptr inbounds %struct.GPR, %struct.GPR* %170, i32 0, i32 15
  %172 = getelementptr inbounds %struct.Reg, %struct.Reg* %171, i32 0, i32 0
  %RBP.i45 = bitcast %union.anon* %172 to i64*
  %173 = load i64, i64* %RCX.i44
  %174 = load i64, i64* %RBP.i45
  %175 = sub i64 %174, 8
  %176 = load i64, i64* %PC.i43
  %177 = add i64 %176, 3
  store i64 %177, i64* %PC.i43
  %178 = trunc i64 %173 to i32
  %179 = inttoptr i64 %175 to i32*
  %180 = load i32, i32* %179
  %181 = add i32 %180, %178
  %182 = zext i32 %181 to i64
  store i64 %182, i64* %RCX.i44, align 8
  %183 = icmp ult i32 %181, %178
  %184 = icmp ult i32 %181, %180
  %185 = or i1 %183, %184
  %186 = zext i1 %185 to i8
  %187 = getelementptr inbounds %struct.State, %struct.State* %0, i64 0, i32 2, i32 1
  store i8 %186, i8* %187, align 1
  %188 = and i32 %181, 255
  %189 = call i32 @llvm.ctpop.i32(i32 %188)
  %190 = trunc i32 %189 to i8
  %191 = and i8 %190, 1
  %192 = xor i8 %191, 1
  %193 = getelementptr inbounds %struct.State, %struct.State* %0, i64 0, i32 2, i32 3
  store i8 %192, i8* %193, align 1
  %194 = xor i32 %180, %178
  %195 = xor i32 %194, %181
  %196 = lshr i32 %195, 4
  %197 = trunc i32 %196 to i8
  %198 = and i8 %197, 1
  %199 = getelementptr inbounds %struct.State, %struct.State* %0, i64 0, i32 2, i32 5
  store i8 %198, i8* %199, align 1
  %200 = icmp eq i32 %181, 0
  %201 = zext i1 %200 to i8
  %202 = getelementptr inbounds %struct.State, %struct.State* %0, i64 0, i32 2, i32 7
  store i8 %201, i8* %202, align 1
  %203 = lshr i32 %181, 31
  %204 = trunc i32 %203 to i8
  %205 = getelementptr inbounds %struct.State, %struct.State* %0, i64 0, i32 2, i32 9
  store i8 %204, i8* %205, align 1
  %206 = lshr i32 %178, 31
  %207 = lshr i32 %180, 31
  %208 = xor i32 %203, %206
  %209 = xor i32 %203, %207
  %210 = add i32 %208, %209
  %211 = icmp eq i32 %210, 2
  %212 = zext i1 %211 to i8
  %213 = getelementptr inbounds %struct.State, %struct.State* %0, i64 0, i32 2, i32 13
  store i8 %212, i8* %213, align 1
  store %struct.Memory* %loadMem_4c1daf, %struct.Memory** %MEMORY
  %loadMem_4c1db2 = load %struct.Memory*, %struct.Memory** %MEMORY
  %214 = getelementptr inbounds %struct.State, %struct.State* %0, i32 0, i32 6
  %215 = getelementptr inbounds %struct.GPR, %struct.GPR* %214, i32 0, i32 33
  %216 = getelementptr inbounds %struct.Reg, %struct.Reg* %215, i32 0, i32 0
  %PC.i40 = bitcast %union.anon* %216 to i64*
  %217 = getelementptr inbounds %struct.State, %struct.State* %0, i32 0, i32 6
  %218 = getelementptr inbounds %struct.GPR, %struct.GPR* %217, i32 0, i32 5
  %219 = getelementptr inbounds %struct.Reg, %struct.Reg* %218, i32 0, i32 0
  %ECX.i41 = bitcast %union.anon* %219 to i32*
  %220 = getelementptr inbounds %struct.State, %struct.State* %0, i32 0, i32 6
  %221 = getelementptr inbounds %struct.GPR, %struct.GPR* %220, i32 0, i32 15
  %222 = getelementptr inbounds %struct.Reg, %struct.Reg* %221, i32 0, i32 0
  %RBP.i42 = bitcast %union.anon* %222 to i64*
  %223 = load i64, i64* %RBP.i42
  %224 = sub i64 %223, 20
  %225 = load i32, i32* %ECX.i41
  %226 = zext i32 %225 to i64
  %227 = load i64, i64* %PC.i40
  %228 = add i64 %227, 3
  store i64 %228, i64* %PC.i40
  %229 = inttoptr i64 %224 to i32*
  store i32 %225, i32* %229
  store %struct.Memory* %loadMem_4c1db2, %struct.Memory** %MEMORY
  %loadMem_4c1db5 = load %struct.Memory*, %struct.Memory** %MEMORY
  %230 = getelementptr inbounds %struct.State, %struct.State* %0, i32 0, i32 6
  %231 = getelementptr inbounds %struct.GPR, %struct.GPR* %230, i32 0, i32 33
  %232 = getelementptr inbounds %struct.Reg, %struct.Reg* %231, i32 0, i32 0
  %PC.i37 = bitcast %union.anon* %232 to i64*
  %233 = getelementptr inbounds %struct.State, %struct.State* %0, i32 0, i32 6
  %234 = getelementptr inbounds %struct.GPR, %struct.GPR* %233, i32 0, i32 1
  %235 = getelementptr inbounds %struct.Reg, %struct.Reg* %234, i32 0, i32 0
  %RAX.i38 = bitcast %union.anon* %235 to i64*
  %236 = getelementptr inbounds %struct.State, %struct.State* %0, i32 0, i32 6
  %237 = getelementptr inbounds %struct.GPR, %struct.GPR* %236, i32 0, i32 15
  %238 = getelementptr inbounds %struct.Reg, %struct.Reg* %237, i32 0, i32 0
  %RBP.i39 = bitcast %union.anon* %238 to i64*
  %239 = load i64, i64* %RBP.i39
  %240 = sub i64 %239, 4
  %241 = load i64, i64* %PC.i37
  %242 = add i64 %241, 4
  store i64 %242, i64* %PC.i37
  %243 = inttoptr i64 %240 to i32*
  %244 = load i32, i32* %243
  %245 = sext i32 %244 to i64
  store i64 %245, i64* %RAX.i38, align 8
  store %struct.Memory* %loadMem_4c1db5, %struct.Memory** %MEMORY
  %loadMem_4c1db9 = load %struct.Memory*, %struct.Memory** %MEMORY
  %246 = getelementptr inbounds %struct.State, %struct.State* %0, i32 0, i32 6
  %247 = getelementptr inbounds %struct.GPR, %struct.GPR* %246, i32 0, i32 33
  %248 = getelementptr inbounds %struct.Reg, %struct.Reg* %247, i32 0, i32 0
  %PC.i34 = bitcast %union.anon* %248 to i64*
  %249 = getelementptr inbounds %struct.State, %struct.State* %0, i32 0, i32 6
  %250 = getelementptr inbounds %struct.GPR, %struct.GPR* %249, i32 0, i32 1
  %251 = getelementptr inbounds %struct.Reg, %struct.Reg* %250, i32 0, i32 0
  %RAX.i35 = bitcast %union.anon* %251 to i64*
  %252 = getelementptr inbounds %struct.State, %struct.State* %0, i32 0, i32 6
  %253 = getelementptr inbounds %struct.GPR, %struct.GPR* %252, i32 0, i32 5
  %254 = getelementptr inbounds %struct.Reg, %struct.Reg* %253, i32 0, i32 0
  %RCX.i36 = bitcast %union.anon* %254 to i64*
  %255 = load i64, i64* %RAX.i35
  %256 = mul i64 %255, 4
  %257 = add i64 %256, 11904816
  %258 = load i64, i64* %PC.i34
  %259 = add i64 %258, 7
  store i64 %259, i64* %PC.i34
  %260 = inttoptr i64 %257 to i32*
  %261 = load i32, i32* %260
  %262 = zext i32 %261 to i64
  store i64 %262, i64* %RCX.i36, align 8
  store %struct.Memory* %loadMem_4c1db9, %struct.Memory** %MEMORY
  %loadMem_4c1dc0 = load %struct.Memory*, %struct.Memory** %MEMORY
  %263 = getelementptr inbounds %struct.State, %struct.State* %0, i32 0, i32 6
  %264 = getelementptr inbounds %struct.GPR, %struct.GPR* %263, i32 0, i32 33
  %265 = getelementptr inbounds %struct.Reg, %struct.Reg* %264, i32 0, i32 0
  %PC.i32 = bitcast %union.anon* %265 to i64*
  %266 = getelementptr inbounds %struct.State, %struct.State* %0, i32 0, i32 6
  %267 = getelementptr inbounds %struct.GPR, %struct.GPR* %266, i32 0, i32 5
  %268 = getelementptr inbounds %struct.Reg, %struct.Reg* %267, i32 0, i32 0
  %RCX.i = bitcast %union.anon* %268 to i64*
  %269 = getelementptr inbounds %struct.State, %struct.State* %0, i32 0, i32 6
  %270 = getelementptr inbounds %struct.GPR, %struct.GPR* %269, i32 0, i32 15
  %271 = getelementptr inbounds %struct.Reg, %struct.Reg* %270, i32 0, i32 0
  %RBP.i33 = bitcast %union.anon* %271 to i64*
  %272 = load i64, i64* %RCX.i
  %273 = load i64, i64* %RBP.i33
  %274 = sub i64 %273, 8
  %275 = load i64, i64* %PC.i32
  %276 = add i64 %275, 3
  store i64 %276, i64* %PC.i32
  %277 = trunc i64 %272 to i32
  %278 = inttoptr i64 %274 to i32*
  %279 = load i32, i32* %278
  %280 = add i32 %279, %277
  %281 = zext i32 %280 to i64
  store i64 %281, i64* %RCX.i, align 8
  %282 = icmp ult i32 %280, %277
  %283 = icmp ult i32 %280, %279
  %284 = or i1 %282, %283
  %285 = zext i1 %284 to i8
  %286 = getelementptr inbounds %struct.State, %struct.State* %0, i64 0, i32 2, i32 1
  store i8 %285, i8* %286, align 1
  %287 = and i32 %280, 255
  %288 = call i32 @llvm.ctpop.i32(i32 %287)
  %289 = trunc i32 %288 to i8
  %290 = and i8 %289, 1
  %291 = xor i8 %290, 1
  %292 = getelementptr inbounds %struct.State, %struct.State* %0, i64 0, i32 2, i32 3
  store i8 %291, i8* %292, align 1
  %293 = xor i32 %279, %277
  %294 = xor i32 %293, %280
  %295 = lshr i32 %294, 4
  %296 = trunc i32 %295 to i8
  %297 = and i8 %296, 1
  %298 = getelementptr inbounds %struct.State, %struct.State* %0, i64 0, i32 2, i32 5
  store i8 %297, i8* %298, align 1
  %299 = icmp eq i32 %280, 0
  %300 = zext i1 %299 to i8
  %301 = getelementptr inbounds %struct.State, %struct.State* %0, i64 0, i32 2, i32 7
  store i8 %300, i8* %301, align 1
  %302 = lshr i32 %280, 31
  %303 = trunc i32 %302 to i8
  %304 = getelementptr inbounds %struct.State, %struct.State* %0, i64 0, i32 2, i32 9
  store i8 %303, i8* %304, align 1
  %305 = lshr i32 %277, 31
  %306 = lshr i32 %279, 31
  %307 = xor i32 %302, %305
  %308 = xor i32 %302, %306
  %309 = add i32 %307, %308
  %310 = icmp eq i32 %309, 2
  %311 = zext i1 %310 to i8
  %312 = getelementptr inbounds %struct.State, %struct.State* %0, i64 0, i32 2, i32 13
  store i8 %311, i8* %312, align 1
  store %struct.Memory* %loadMem_4c1dc0, %struct.Memory** %MEMORY
  %loadMem_4c1dc3 = load %struct.Memory*, %struct.Memory** %MEMORY
  %313 = getelementptr inbounds %struct.State, %struct.State* %0, i32 0, i32 6
  %314 = getelementptr inbounds %struct.GPR, %struct.GPR* %313, i32 0, i32 33
  %315 = getelementptr inbounds %struct.Reg, %struct.Reg* %314, i32 0, i32 0
  %PC.i30 = bitcast %union.anon* %315 to i64*
  %316 = getelementptr inbounds %struct.State, %struct.State* %0, i32 0, i32 6
  %317 = getelementptr inbounds %struct.GPR, %struct.GPR* %316, i32 0, i32 5
  %318 = getelementptr inbounds %struct.Reg, %struct.Reg* %317, i32 0, i32 0
  %ECX.i = bitcast %union.anon* %318 to i32*
  %319 = getelementptr inbounds %struct.State, %struct.State* %0, i32 0, i32 6
  %320 = getelementptr inbounds %struct.GPR, %struct.GPR* %319, i32 0, i32 15
  %321 = getelementptr inbounds %struct.Reg, %struct.Reg* %320, i32 0, i32 0
  %RBP.i31 = bitcast %union.anon* %321 to i64*
  %322 = load i64, i64* %RBP.i31
  %323 = sub i64 %322, 24
  %324 = load i32, i32* %ECX.i
  %325 = zext i32 %324 to i64
  %326 = load i64, i64* %PC.i30
  %327 = add i64 %326, 3
  store i64 %327, i64* %PC.i30
  %328 = inttoptr i64 %323 to i32*
  store i32 %324, i32* %328
  store %struct.Memory* %loadMem_4c1dc3, %struct.Memory** %MEMORY
  %loadMem_4c1dc6 = load %struct.Memory*, %struct.Memory** %MEMORY
  %329 = getelementptr inbounds %struct.State, %struct.State* %0, i32 0, i32 6
  %330 = getelementptr inbounds %struct.GPR, %struct.GPR* %329, i32 0, i32 33
  %331 = getelementptr inbounds %struct.Reg, %struct.Reg* %330, i32 0, i32 0
  %PC.i27 = bitcast %union.anon* %331 to i64*
  %332 = getelementptr inbounds %struct.State, %struct.State* %0, i32 0, i32 6
  %333 = getelementptr inbounds %struct.GPR, %struct.GPR* %332, i32 0, i32 11
  %334 = getelementptr inbounds %struct.Reg, %struct.Reg* %333, i32 0, i32 0
  %RDI.i28 = bitcast %union.anon* %334 to i64*
  %335 = getelementptr inbounds %struct.State, %struct.State* %0, i32 0, i32 6
  %336 = getelementptr inbounds %struct.GPR, %struct.GPR* %335, i32 0, i32 15
  %337 = getelementptr inbounds %struct.Reg, %struct.Reg* %336, i32 0, i32 0
  %RBP.i29 = bitcast %union.anon* %337 to i64*
  %338 = load i64, i64* %RBP.i29
  %339 = sub i64 %338, 20
  %340 = load i64, i64* %PC.i27
  %341 = add i64 %340, 3
  store i64 %341, i64* %PC.i27
  %342 = inttoptr i64 %339 to i32*
  %343 = load i32, i32* %342
  %344 = zext i32 %343 to i64
  store i64 %344, i64* %RDI.i28, align 8
  store %struct.Memory* %loadMem_4c1dc6, %struct.Memory** %MEMORY
  %loadMem1_4c1dc9 = load %struct.Memory*, %struct.Memory** %MEMORY
  %345 = getelementptr inbounds %struct.State, %struct.State* %0, i32 0, i32 6
  %346 = getelementptr inbounds %struct.GPR, %struct.GPR* %345, i32 0, i32 33
  %347 = getelementptr inbounds %struct.Reg, %struct.Reg* %346, i32 0, i32 0
  %PC.i26 = bitcast %union.anon* %347 to i64*
  %348 = load i64, i64* %PC.i26
  %349 = add i64 %348, -476073
  %350 = load i64, i64* %PC.i26
  %351 = add i64 %350, 5
  %352 = load i64, i64* %PC.i26
  %353 = add i64 %352, 5
  store i64 %353, i64* %PC.i26
  %354 = getelementptr inbounds %struct.State, %struct.State* %0, i64 0, i32 6, i32 13, i32 0, i32 0
  %355 = load i64, i64* %354, align 8
  %356 = add i64 %355, -8
  %357 = inttoptr i64 %356 to i64*
  store i64 %351, i64* %357
  store i64 %356, i64* %354, align 8
  %358 = getelementptr inbounds %struct.State, %struct.State* %0, i64 0, i32 6, i32 33, i32 0, i32 0
  store i64 %349, i64* %358, align 8
  store %struct.Memory* %loadMem1_4c1dc9, %struct.Memory** %MEMORY
  %loadMem2_4c1dc9 = load %struct.Memory*, %struct.Memory** %MEMORY
  %loadPC_4c1dc9 = load i64, i64* %3
  %call2_4c1dc9 = call %struct.Memory* @sub_44da20.owl_escape_value(%struct.State* %0, i64 %loadPC_4c1dc9, %struct.Memory* %loadMem2_4c1dc9)
  store %struct.Memory* %call2_4c1dc9, %struct.Memory** %MEMORY
  %loadMem_4c1dce = load %struct.Memory*, %struct.Memory** %MEMORY
  %359 = getelementptr inbounds %struct.State, %struct.State* %0, i32 0, i32 6
  %360 = getelementptr inbounds %struct.GPR, %struct.GPR* %359, i32 0, i32 33
  %361 = getelementptr inbounds %struct.Reg, %struct.Reg* %360, i32 0, i32 0
  %PC.i24 = bitcast %union.anon* %361 to i64*
  %362 = getelementptr inbounds %struct.State, %struct.State* %0, i32 0, i32 6
  %363 = getelementptr inbounds %struct.GPR, %struct.GPR* %362, i32 0, i32 17
  %364 = getelementptr inbounds %struct.Reg, %struct.Reg* %363, i32 0, i32 0
  %365 = bitcast %union.anon* %364 to %struct.anon.2*
  %R8B.i25 = getelementptr inbounds %struct.anon.2, %struct.anon.2* %365, i32 0, i32 0
  %366 = load i64, i64* %PC.i24
  %367 = add i64 %366, 3
  store i64 %367, i64* %PC.i24
  store i8 1, i8* %R8B.i25, align 1
  store %struct.Memory* %loadMem_4c1dce, %struct.Memory** %MEMORY
  %loadMem_4c1dd1 = load %struct.Memory*, %struct.Memory** %MEMORY
  %368 = getelementptr inbounds %struct.State, %struct.State* %0, i32 0, i32 6
  %369 = getelementptr inbounds %struct.GPR, %struct.GPR* %368, i32 0, i32 33
  %370 = getelementptr inbounds %struct.Reg, %struct.Reg* %369, i32 0, i32 0
  %PC.i22 = bitcast %union.anon* %370 to i64*
  %371 = getelementptr inbounds %struct.State, %struct.State* %0, i32 0, i32 6
  %372 = getelementptr inbounds %struct.GPR, %struct.GPR* %371, i32 0, i32 1
  %373 = getelementptr inbounds %struct.Reg, %struct.Reg* %372, i32 0, i32 0
  %EAX.i23 = bitcast %union.anon* %373 to i32*
  %374 = load i32, i32* %EAX.i23
  %375 = zext i32 %374 to i64
  %376 = load i64, i64* %PC.i22
  %377 = add i64 %376, 3
  store i64 %377, i64* %PC.i22
  %378 = getelementptr inbounds %struct.State, %struct.State* %0, i64 0, i32 2, i32 1
  store i8 0, i8* %378, align 1
  %379 = and i32 %374, 255
  %380 = call i32 @llvm.ctpop.i32(i32 %379)
  %381 = trunc i32 %380 to i8
  %382 = and i8 %381, 1
  %383 = xor i8 %382, 1
  %384 = getelementptr inbounds %struct.State, %struct.State* %0, i64 0, i32 2, i32 3
  store i8 %383, i8* %384, align 1
  %385 = getelementptr inbounds %struct.State, %struct.State* %0, i64 0, i32 2, i32 5
  store i8 0, i8* %385, align 1
  %386 = icmp eq i32 %374, 0
  %387 = zext i1 %386 to i8
  %388 = getelementptr inbounds %struct.State, %struct.State* %0, i64 0, i32 2, i32 7
  store i8 %387, i8* %388, align 1
  %389 = lshr i32 %374, 31
  %390 = trunc i32 %389 to i8
  %391 = getelementptr inbounds %struct.State, %struct.State* %0, i64 0, i32 2, i32 9
  store i8 %390, i8* %391, align 1
  %392 = lshr i32 %374, 31
  %393 = xor i32 %389, %392
  %394 = add i32 %393, %392
  %395 = icmp eq i32 %394, 2
  %396 = zext i1 %395 to i8
  %397 = getelementptr inbounds %struct.State, %struct.State* %0, i64 0, i32 2, i32 13
  store i8 %396, i8* %397, align 1
  store %struct.Memory* %loadMem_4c1dd1, %struct.Memory** %MEMORY
  %loadMem_4c1dd4 = load %struct.Memory*, %struct.Memory** %MEMORY
  %398 = getelementptr inbounds %struct.State, %struct.State* %0, i32 0, i32 6
  %399 = getelementptr inbounds %struct.GPR, %struct.GPR* %398, i32 0, i32 33
  %400 = getelementptr inbounds %struct.Reg, %struct.Reg* %399, i32 0, i32 0
  %PC.i20 = bitcast %union.anon* %400 to i64*
  %401 = getelementptr inbounds %struct.State, %struct.State* %0, i32 0, i32 6
  %402 = getelementptr inbounds %struct.GPR, %struct.GPR* %401, i32 0, i32 17
  %403 = getelementptr inbounds %struct.Reg, %struct.Reg* %402, i32 0, i32 0
  %404 = bitcast %union.anon* %403 to %struct.anon.2*
  %R8B.i = getelementptr inbounds %struct.anon.2, %struct.anon.2* %404, i32 0, i32 0
  %405 = getelementptr inbounds %struct.State, %struct.State* %0, i32 0, i32 6
  %406 = getelementptr inbounds %struct.GPR, %struct.GPR* %405, i32 0, i32 15
  %407 = getelementptr inbounds %struct.Reg, %struct.Reg* %406, i32 0, i32 0
  %RBP.i21 = bitcast %union.anon* %407 to i64*
  %408 = load i64, i64* %RBP.i21
  %409 = sub i64 %408, 25
  %410 = load i8, i8* %R8B.i
  %411 = zext i8 %410 to i64
  %412 = load i64, i64* %PC.i20
  %413 = add i64 %412, 4
  store i64 %413, i64* %PC.i20
  %414 = inttoptr i64 %409 to i8*
  store i8 %410, i8* %414
  store %struct.Memory* %loadMem_4c1dd4, %struct.Memory** %MEMORY
  %loadMem_4c1dd8 = load %struct.Memory*, %struct.Memory** %MEMORY
  %415 = getelementptr inbounds %struct.State, %struct.State* %0, i32 0, i32 6
  %416 = getelementptr inbounds %struct.GPR, %struct.GPR* %415, i32 0, i32 33
  %417 = getelementptr inbounds %struct.Reg, %struct.Reg* %416, i32 0, i32 0
  %PC.i19 = bitcast %union.anon* %417 to i64*
  %418 = load i64, i64* %PC.i19
  %419 = add i64 %418, 23
  %420 = load i64, i64* %PC.i19
  %421 = add i64 %420, 6
  %422 = load i64, i64* %PC.i19
  %423 = add i64 %422, 6
  store i64 %423, i64* %PC.i19
  %424 = getelementptr inbounds %struct.State, %struct.State* %0, i64 0, i32 2, i32 7
  %425 = load i8, i8* %424, align 1
  %426 = icmp eq i8 %425, 0
  %427 = getelementptr inbounds %struct.State, %struct.State* %0, i64 0, i32 2, i32 9
  %428 = load i8, i8* %427, align 1
  %429 = icmp ne i8 %428, 0
  %430 = getelementptr inbounds %struct.State, %struct.State* %0, i64 0, i32 2, i32 13
  %431 = load i8, i8* %430, align 1
  %432 = icmp ne i8 %431, 0
  %433 = xor i1 %429, %432
  %434 = xor i1 %433, true
  %435 = and i1 %426, %434
  %436 = zext i1 %435 to i8
  store i8 %436, i8* %BRANCH_TAKEN, align 1
  %437 = getelementptr inbounds %struct.State, %struct.State* %0, i64 0, i32 6, i32 33, i32 0, i32 0
  %438 = select i1 %435, i64 %419, i64 %421
  store i64 %438, i64* %437, align 8
  store %struct.Memory* %loadMem_4c1dd8, %struct.Memory** %MEMORY
  %loadBr_4c1dd8 = load i8, i8* %BRANCH_TAKEN
  %cmpBr_4c1dd8 = icmp eq i8 %loadBr_4c1dd8, 1
  br i1 %cmpBr_4c1dd8, label %block_.L_4c1def, label %block_4c1dde

block_4c1dde:                                     ; preds = %entry
  %loadMem_4c1dde = load %struct.Memory*, %struct.Memory** %MEMORY
  %439 = getelementptr inbounds %struct.State, %struct.State* %0, i32 0, i32 6
  %440 = getelementptr inbounds %struct.GPR, %struct.GPR* %439, i32 0, i32 33
  %441 = getelementptr inbounds %struct.Reg, %struct.Reg* %440, i32 0, i32 0
  %PC.i17 = bitcast %union.anon* %441 to i64*
  %442 = getelementptr inbounds %struct.State, %struct.State* %0, i32 0, i32 6
  %443 = getelementptr inbounds %struct.GPR, %struct.GPR* %442, i32 0, i32 11
  %444 = getelementptr inbounds %struct.Reg, %struct.Reg* %443, i32 0, i32 0
  %RDI.i = bitcast %union.anon* %444 to i64*
  %445 = getelementptr inbounds %struct.State, %struct.State* %0, i32 0, i32 6
  %446 = getelementptr inbounds %struct.GPR, %struct.GPR* %445, i32 0, i32 15
  %447 = getelementptr inbounds %struct.Reg, %struct.Reg* %446, i32 0, i32 0
  %RBP.i18 = bitcast %union.anon* %447 to i64*
  %448 = load i64, i64* %RBP.i18
  %449 = sub i64 %448, 24
  %450 = load i64, i64* %PC.i17
  %451 = add i64 %450, 3
  store i64 %451, i64* %PC.i17
  %452 = inttoptr i64 %449 to i32*
  %453 = load i32, i32* %452
  %454 = zext i32 %453 to i64
  store i64 %454, i64* %RDI.i, align 8
  store %struct.Memory* %loadMem_4c1dde, %struct.Memory** %MEMORY
  %loadMem1_4c1de1 = load %struct.Memory*, %struct.Memory** %MEMORY
  %455 = getelementptr inbounds %struct.State, %struct.State* %0, i32 0, i32 6
  %456 = getelementptr inbounds %struct.GPR, %struct.GPR* %455, i32 0, i32 33
  %457 = getelementptr inbounds %struct.Reg, %struct.Reg* %456, i32 0, i32 0
  %PC.i16 = bitcast %union.anon* %457 to i64*
  %458 = load i64, i64* %PC.i16
  %459 = add i64 %458, -476097
  %460 = load i64, i64* %PC.i16
  %461 = add i64 %460, 5
  %462 = load i64, i64* %PC.i16
  %463 = add i64 %462, 5
  store i64 %463, i64* %PC.i16
  %464 = getelementptr inbounds %struct.State, %struct.State* %0, i64 0, i32 6, i32 13, i32 0, i32 0
  %465 = load i64, i64* %464, align 8
  %466 = add i64 %465, -8
  %467 = inttoptr i64 %466 to i64*
  store i64 %461, i64* %467
  store i64 %466, i64* %464, align 8
  %468 = getelementptr inbounds %struct.State, %struct.State* %0, i64 0, i32 6, i32 33, i32 0, i32 0
  store i64 %459, i64* %468, align 8
  store %struct.Memory* %loadMem1_4c1de1, %struct.Memory** %MEMORY
  %loadMem2_4c1de1 = load %struct.Memory*, %struct.Memory** %MEMORY
  %loadPC_4c1de1 = load i64, i64* %3
  %call2_4c1de1 = call %struct.Memory* @sub_44da20.owl_escape_value(%struct.State* %0, i64 %loadPC_4c1de1, %struct.Memory* %loadMem2_4c1de1)
  store %struct.Memory* %call2_4c1de1, %struct.Memory** %MEMORY
  %loadMem_4c1de6 = load %struct.Memory*, %struct.Memory** %MEMORY
  %469 = getelementptr inbounds %struct.State, %struct.State* %0, i32 0, i32 6
  %470 = getelementptr inbounds %struct.GPR, %struct.GPR* %469, i32 0, i32 33
  %471 = getelementptr inbounds %struct.Reg, %struct.Reg* %470, i32 0, i32 0
  %PC.i15 = bitcast %union.anon* %471 to i64*
  %472 = getelementptr inbounds %struct.State, %struct.State* %0, i32 0, i32 6
  %473 = getelementptr inbounds %struct.GPR, %struct.GPR* %472, i32 0, i32 1
  %474 = getelementptr inbounds %struct.Reg, %struct.Reg* %473, i32 0, i32 0
  %EAX.i = bitcast %union.anon* %474 to i32*
  %475 = load i32, i32* %EAX.i
  %476 = zext i32 %475 to i64
  %477 = load i64, i64* %PC.i15
  %478 = add i64 %477, 3
  store i64 %478, i64* %PC.i15
  %479 = getelementptr inbounds %struct.State, %struct.State* %0, i64 0, i32 2, i32 1
  store i8 0, i8* %479, align 1
  %480 = and i32 %475, 255
  %481 = call i32 @llvm.ctpop.i32(i32 %480)
  %482 = trunc i32 %481 to i8
  %483 = and i8 %482, 1
  %484 = xor i8 %483, 1
  %485 = getelementptr inbounds %struct.State, %struct.State* %0, i64 0, i32 2, i32 3
  store i8 %484, i8* %485, align 1
  %486 = getelementptr inbounds %struct.State, %struct.State* %0, i64 0, i32 2, i32 5
  store i8 0, i8* %486, align 1
  %487 = icmp eq i32 %475, 0
  %488 = zext i1 %487 to i8
  %489 = getelementptr inbounds %struct.State, %struct.State* %0, i64 0, i32 2, i32 7
  store i8 %488, i8* %489, align 1
  %490 = lshr i32 %475, 31
  %491 = trunc i32 %490 to i8
  %492 = getelementptr inbounds %struct.State, %struct.State* %0, i64 0, i32 2, i32 9
  store i8 %491, i8* %492, align 1
  %493 = lshr i32 %475, 31
  %494 = xor i32 %490, %493
  %495 = add i32 %494, %493
  %496 = icmp eq i32 %495, 2
  %497 = zext i1 %496 to i8
  %498 = getelementptr inbounds %struct.State, %struct.State* %0, i64 0, i32 2, i32 13
  store i8 %497, i8* %498, align 1
  store %struct.Memory* %loadMem_4c1de6, %struct.Memory** %MEMORY
  %loadMem_4c1de9 = load %struct.Memory*, %struct.Memory** %MEMORY
  %499 = getelementptr inbounds %struct.State, %struct.State* %0, i32 0, i32 6
  %500 = getelementptr inbounds %struct.GPR, %struct.GPR* %499, i32 0, i32 33
  %501 = getelementptr inbounds %struct.Reg, %struct.Reg* %500, i32 0, i32 0
  %PC.i13 = bitcast %union.anon* %501 to i64*
  %502 = getelementptr inbounds %struct.State, %struct.State* %0, i32 0, i32 6
  %503 = getelementptr inbounds %struct.GPR, %struct.GPR* %502, i32 0, i32 5
  %504 = getelementptr inbounds %struct.Reg, %struct.Reg* %503, i32 0, i32 0
  %505 = bitcast %union.anon* %504 to %struct.anon.2*
  %CL.i14 = getelementptr inbounds %struct.anon.2, %struct.anon.2* %505, i32 0, i32 0
  %506 = load i64, i64* %PC.i13
  %507 = add i64 %506, 3
  store i64 %507, i64* %PC.i13
  %508 = getelementptr inbounds %struct.State, %struct.State* %0, i64 0, i32 2, i32 7
  %509 = load i8, i8* %508, align 1
  %510 = icmp eq i8 %509, 0
  %511 = getelementptr inbounds %struct.State, %struct.State* %0, i64 0, i32 2, i32 9
  %512 = load i8, i8* %511, align 1
  %513 = icmp ne i8 %512, 0
  %514 = getelementptr inbounds %struct.State, %struct.State* %0, i64 0, i32 2, i32 13
  %515 = load i8, i8* %514, align 1
  %516 = icmp ne i8 %515, 0
  %517 = xor i1 %513, %516
  %518 = xor i1 %517, true
  %519 = and i1 %510, %518
  %520 = zext i1 %519 to i8
  store i8 %520, i8* %CL.i14, align 1
  store %struct.Memory* %loadMem_4c1de9, %struct.Memory** %MEMORY
  %loadMem_4c1dec = load %struct.Memory*, %struct.Memory** %MEMORY
  %521 = getelementptr inbounds %struct.State, %struct.State* %0, i32 0, i32 6
  %522 = getelementptr inbounds %struct.GPR, %struct.GPR* %521, i32 0, i32 33
  %523 = getelementptr inbounds %struct.Reg, %struct.Reg* %522, i32 0, i32 0
  %PC.i11 = bitcast %union.anon* %523 to i64*
  %524 = getelementptr inbounds %struct.State, %struct.State* %0, i32 0, i32 6
  %525 = getelementptr inbounds %struct.GPR, %struct.GPR* %524, i32 0, i32 5
  %526 = getelementptr inbounds %struct.Reg, %struct.Reg* %525, i32 0, i32 0
  %527 = bitcast %union.anon* %526 to %struct.anon.2*
  %CL.i = getelementptr inbounds %struct.anon.2, %struct.anon.2* %527, i32 0, i32 0
  %528 = getelementptr inbounds %struct.State, %struct.State* %0, i32 0, i32 6
  %529 = getelementptr inbounds %struct.GPR, %struct.GPR* %528, i32 0, i32 15
  %530 = getelementptr inbounds %struct.Reg, %struct.Reg* %529, i32 0, i32 0
  %RBP.i12 = bitcast %union.anon* %530 to i64*
  %531 = load i64, i64* %RBP.i12
  %532 = sub i64 %531, 25
  %533 = load i8, i8* %CL.i
  %534 = zext i8 %533 to i64
  %535 = load i64, i64* %PC.i11
  %536 = add i64 %535, 3
  store i64 %536, i64* %PC.i11
  %537 = inttoptr i64 %532 to i8*
  store i8 %533, i8* %537
  store %struct.Memory* %loadMem_4c1dec, %struct.Memory** %MEMORY
  br label %block_.L_4c1def

block_.L_4c1def:                                  ; preds = %block_4c1dde, %entry
  %loadMem_4c1def = load %struct.Memory*, %struct.Memory** %MEMORY
  %538 = getelementptr inbounds %struct.State, %struct.State* %0, i32 0, i32 6
  %539 = getelementptr inbounds %struct.GPR, %struct.GPR* %538, i32 0, i32 33
  %540 = getelementptr inbounds %struct.Reg, %struct.Reg* %539, i32 0, i32 0
  %PC.i8 = bitcast %union.anon* %540 to i64*
  %541 = getelementptr inbounds %struct.State, %struct.State* %0, i32 0, i32 6
  %542 = getelementptr inbounds %struct.GPR, %struct.GPR* %541, i32 0, i32 1
  %543 = getelementptr inbounds %struct.Reg, %struct.Reg* %542, i32 0, i32 0
  %544 = bitcast %union.anon* %543 to %struct.anon.2*
  %AL.i9 = getelementptr inbounds %struct.anon.2, %struct.anon.2* %544, i32 0, i32 0
  %545 = getelementptr inbounds %struct.State, %struct.State* %0, i32 0, i32 6
  %546 = getelementptr inbounds %struct.GPR, %struct.GPR* %545, i32 0, i32 15
  %547 = getelementptr inbounds %struct.Reg, %struct.Reg* %546, i32 0, i32 0
  %RBP.i10 = bitcast %union.anon* %547 to i64*
  %548 = load i64, i64* %RBP.i10
  %549 = sub i64 %548, 25
  %550 = load i64, i64* %PC.i8
  %551 = add i64 %550, 3
  store i64 %551, i64* %PC.i8
  %552 = inttoptr i64 %549 to i8*
  %553 = load i8, i8* %552
  store i8 %553, i8* %AL.i9, align 1
  store %struct.Memory* %loadMem_4c1def, %struct.Memory** %MEMORY
  %loadMem_4c1df2 = load %struct.Memory*, %struct.Memory** %MEMORY
  %554 = getelementptr inbounds %struct.State, %struct.State* %0, i32 0, i32 6
  %555 = getelementptr inbounds %struct.GPR, %struct.GPR* %554, i32 0, i32 33
  %556 = getelementptr inbounds %struct.Reg, %struct.Reg* %555, i32 0, i32 0
  %PC.i6 = bitcast %union.anon* %556 to i64*
  %557 = getelementptr inbounds %struct.State, %struct.State* %0, i32 0, i32 6
  %558 = getelementptr inbounds %struct.GPR, %struct.GPR* %557, i32 0, i32 1
  %559 = getelementptr inbounds %struct.Reg, %struct.Reg* %558, i32 0, i32 0
  %560 = bitcast %union.anon* %559 to %struct.anon.2*
  %AL.i7 = getelementptr inbounds %struct.anon.2, %struct.anon.2* %560, i32 0, i32 0
  %561 = load i8, i8* %AL.i7
  %562 = zext i8 %561 to i64
  %563 = load i64, i64* %PC.i6
  %564 = add i64 %563, 2
  store i64 %564, i64* %PC.i6
  %565 = and i64 1, %562
  %566 = trunc i64 %565 to i8
  store i8 %566, i8* %AL.i7, align 1
  %567 = getelementptr inbounds %struct.State, %struct.State* %0, i64 0, i32 2, i32 1
  store i8 0, i8* %567, align 1
  %568 = trunc i64 %565 to i32
  %569 = and i32 %568, 255
  %570 = call i32 @llvm.ctpop.i32(i32 %569)
  %571 = trunc i32 %570 to i8
  %572 = and i8 %571, 1
  %573 = xor i8 %572, 1
  %574 = getelementptr inbounds %struct.State, %struct.State* %0, i64 0, i32 2, i32 3
  store i8 %573, i8* %574, align 1
  %575 = icmp eq i8 %566, 0
  %576 = zext i1 %575 to i8
  %577 = getelementptr inbounds %struct.State, %struct.State* %0, i64 0, i32 2, i32 7
  store i8 %576, i8* %577, align 1
  %578 = getelementptr inbounds %struct.State, %struct.State* %0, i64 0, i32 2, i32 9
  store i8 0, i8* %578, align 1
  %579 = getelementptr inbounds %struct.State, %struct.State* %0, i64 0, i32 2, i32 13
  store i8 0, i8* %579, align 1
  %580 = getelementptr inbounds %struct.State, %struct.State* %0, i64 0, i32 2, i32 5
  store i8 0, i8* %580, align 1
  store %struct.Memory* %loadMem_4c1df2, %struct.Memory** %MEMORY
  %loadMem_4c1df4 = load %struct.Memory*, %struct.Memory** %MEMORY
  %581 = getelementptr inbounds %struct.State, %struct.State* %0, i32 0, i32 6
  %582 = getelementptr inbounds %struct.GPR, %struct.GPR* %581, i32 0, i32 33
  %583 = getelementptr inbounds %struct.Reg, %struct.Reg* %582, i32 0, i32 0
  %PC.i5 = bitcast %union.anon* %583 to i64*
  %584 = getelementptr inbounds %struct.State, %struct.State* %0, i32 0, i32 6
  %585 = getelementptr inbounds %struct.GPR, %struct.GPR* %584, i32 0, i32 1
  %586 = getelementptr inbounds %struct.Reg, %struct.Reg* %585, i32 0, i32 0
  %587 = bitcast %union.anon* %586 to %struct.anon.2*
  %AL.i = getelementptr inbounds %struct.anon.2, %struct.anon.2* %587, i32 0, i32 0
  %588 = getelementptr inbounds %struct.State, %struct.State* %0, i32 0, i32 6
  %589 = getelementptr inbounds %struct.GPR, %struct.GPR* %588, i32 0, i32 1
  %590 = getelementptr inbounds %struct.Reg, %struct.Reg* %589, i32 0, i32 0
  %RAX.i = bitcast %union.anon* %590 to i64*
  %591 = load i8, i8* %AL.i
  %592 = zext i8 %591 to i64
  %593 = load i64, i64* %PC.i5
  %594 = add i64 %593, 3
  store i64 %594, i64* %PC.i5
  %595 = and i64 %592, 255
  store i64 %595, i64* %RAX.i, align 8
  store %struct.Memory* %loadMem_4c1df4, %struct.Memory** %MEMORY
  %loadMem_4c1df7 = load %struct.Memory*, %struct.Memory** %MEMORY
  %596 = getelementptr inbounds %struct.State, %struct.State* %0, i32 0, i32 6
  %597 = getelementptr inbounds %struct.GPR, %struct.GPR* %596, i32 0, i32 33
  %598 = getelementptr inbounds %struct.Reg, %struct.Reg* %597, i32 0, i32 0
  %PC.i4 = bitcast %union.anon* %598 to i64*
  %599 = getelementptr inbounds %struct.State, %struct.State* %0, i32 0, i32 6
  %600 = getelementptr inbounds %struct.GPR, %struct.GPR* %599, i32 0, i32 13
  %601 = getelementptr inbounds %struct.Reg, %struct.Reg* %600, i32 0, i32 0
  %RSP.i = bitcast %union.anon* %601 to i64*
  %602 = load i64, i64* %RSP.i
  %603 = load i64, i64* %PC.i4
  %604 = add i64 %603, 4
  store i64 %604, i64* %PC.i4
  %605 = add i64 32, %602
  store i64 %605, i64* %RSP.i, align 8
  %606 = icmp ult i64 %605, %602
  %607 = icmp ult i64 %605, 32
  %608 = or i1 %606, %607
  %609 = zext i1 %608 to i8
  %610 = getelementptr inbounds %struct.State, %struct.State* %0, i64 0, i32 2, i32 1
  store i8 %609, i8* %610, align 1
  %611 = trunc i64 %605 to i32
  %612 = and i32 %611, 255
  %613 = call i32 @llvm.ctpop.i32(i32 %612)
  %614 = trunc i32 %613 to i8
  %615 = and i8 %614, 1
  %616 = xor i8 %615, 1
  %617 = getelementptr inbounds %struct.State, %struct.State* %0, i64 0, i32 2, i32 3
  store i8 %616, i8* %617, align 1
  %618 = xor i64 32, %602
  %619 = xor i64 %618, %605
  %620 = lshr i64 %619, 4
  %621 = trunc i64 %620 to i8
  %622 = and i8 %621, 1
  %623 = getelementptr inbounds %struct.State, %struct.State* %0, i64 0, i32 2, i32 5
  store i8 %622, i8* %623, align 1
  %624 = icmp eq i64 %605, 0
  %625 = zext i1 %624 to i8
  %626 = getelementptr inbounds %struct.State, %struct.State* %0, i64 0, i32 2, i32 7
  store i8 %625, i8* %626, align 1
  %627 = lshr i64 %605, 63
  %628 = trunc i64 %627 to i8
  %629 = getelementptr inbounds %struct.State, %struct.State* %0, i64 0, i32 2, i32 9
  store i8 %628, i8* %629, align 1
  %630 = lshr i64 %602, 63
  %631 = xor i64 %627, %630
  %632 = add i64 %631, %627
  %633 = icmp eq i64 %632, 2
  %634 = zext i1 %633 to i8
  %635 = getelementptr inbounds %struct.State, %struct.State* %0, i64 0, i32 2, i32 13
  store i8 %634, i8* %635, align 1
  store %struct.Memory* %loadMem_4c1df7, %struct.Memory** %MEMORY
  %loadMem_4c1dfb = load %struct.Memory*, %struct.Memory** %MEMORY
  %636 = getelementptr inbounds %struct.State, %struct.State* %0, i32 0, i32 6
  %637 = getelementptr inbounds %struct.GPR, %struct.GPR* %636, i32 0, i32 33
  %638 = getelementptr inbounds %struct.Reg, %struct.Reg* %637, i32 0, i32 0
  %PC.i2 = bitcast %union.anon* %638 to i64*
  %639 = getelementptr inbounds %struct.State, %struct.State* %0, i32 0, i32 6
  %640 = getelementptr inbounds %struct.GPR, %struct.GPR* %639, i32 0, i32 15
  %641 = getelementptr inbounds %struct.Reg, %struct.Reg* %640, i32 0, i32 0
  %RBP.i3 = bitcast %union.anon* %641 to i64*
  %642 = load i64, i64* %PC.i2
  %643 = add i64 %642, 1
  store i64 %643, i64* %PC.i2
  %644 = getelementptr inbounds %struct.State, %struct.State* %0, i64 0, i32 6, i32 13, i32 0, i32 0
  %645 = load i64, i64* %644, align 8
  %646 = add i64 %645, 8
  %647 = inttoptr i64 %645 to i64*
  %648 = load i64, i64* %647
  store i64 %648, i64* %RBP.i3, align 8
  store i64 %646, i64* %644, align 8
  store %struct.Memory* %loadMem_4c1dfb, %struct.Memory** %MEMORY
  %loadMem_4c1dfc = load %struct.Memory*, %struct.Memory** %MEMORY
  %649 = getelementptr inbounds %struct.State, %struct.State* %0, i32 0, i32 6
  %650 = getelementptr inbounds %struct.GPR, %struct.GPR* %649, i32 0, i32 33
  %651 = getelementptr inbounds %struct.Reg, %struct.Reg* %650, i32 0, i32 0
  %PC.i1 = bitcast %union.anon* %651 to i64*
  %652 = load i64, i64* %PC.i1
  %653 = add i64 %652, 1
  store i64 %653, i64* %PC.i1
  %654 = getelementptr inbounds %struct.State, %struct.State* %0, i64 0, i32 6, i32 33, i32 0, i32 0
  %655 = getelementptr inbounds %struct.State, %struct.State* %0, i64 0, i32 6, i32 13, i32 0, i32 0
  %656 = load i64, i64* %655, align 8
  %657 = inttoptr i64 %656 to i64*
  %658 = load i64, i64* %657
  store i64 %658, i64* %654, align 8
  %659 = add i64 %656, 8
  store i64 %659, i64* %655, align 8
  store %struct.Memory* %loadMem_4c1dfc, %struct.Memory** %MEMORY
  ret %struct.Memory* %loadMem_4c1dfc
}

define %struct.Memory* @routine_pushq__rbp(%struct.State* dereferenceable(3376), i64, %struct.Memory*) {
block_400488:
  %3 = getelementptr inbounds %struct.State, %struct.State* %0, i32 0, i32 6
  %4 = getelementptr inbounds %struct.GPR, %struct.GPR* %3, i32 0, i32 33
  %5 = getelementptr inbounds %struct.Reg, %struct.Reg* %4, i32 0, i32 0
  %PC = bitcast %union.anon* %5 to i64*
  %6 = getelementptr inbounds %struct.State, %struct.State* %0, i32 0, i32 6
  %7 = getelementptr inbounds %struct.GPR, %struct.GPR* %6, i32 0, i32 15
  %8 = getelementptr inbounds %struct.Reg, %struct.Reg* %7, i32 0, i32 0
  %RBP = bitcast %union.anon* %8 to i64*
  %9 = load i64, i64* %RBP
  %10 = load i64, i64* %PC
  %11 = add i64 %10, 1
  store i64 %11, i64* %PC
  %12 = getelementptr inbounds %struct.State, %struct.State* %0, i64 0, i32 6, i32 13, i32 0, i32 0
  %13 = load i64, i64* %12, align 8
  %14 = add i64 %13, -8
  %15 = inttoptr i64 %14 to i64*
  store i64 %9, i64* %15
  store i64 %14, i64* %12, align 8
  ret %struct.Memory* %2
}

define %struct.Memory* @routine_movq__rsp___rbp(%struct.State* dereferenceable(3376), i64, %struct.Memory*) {
block_400488:
  %3 = getelementptr inbounds %struct.State, %struct.State* %0, i32 0, i32 6
  %4 = getelementptr inbounds %struct.GPR, %struct.GPR* %3, i32 0, i32 33
  %5 = getelementptr inbounds %struct.Reg, %struct.Reg* %4, i32 0, i32 0
  %PC = bitcast %union.anon* %5 to i64*
  %6 = getelementptr inbounds %struct.State, %struct.State* %0, i32 0, i32 6
  %7 = getelementptr inbounds %struct.GPR, %struct.GPR* %6, i32 0, i32 13
  %8 = getelementptr inbounds %struct.Reg, %struct.Reg* %7, i32 0, i32 0
  %RSP = bitcast %union.anon* %8 to i64*
  %9 = getelementptr inbounds %struct.State, %struct.State* %0, i32 0, i32 6
  %10 = getelementptr inbounds %struct.GPR, %struct.GPR* %9, i32 0, i32 15
  %11 = getelementptr inbounds %struct.Reg, %struct.Reg* %10, i32 0, i32 0
  %RBP = bitcast %union.anon* %11 to i64*
  %12 = load i64, i64* %RSP
  %13 = load i64, i64* %PC
  %14 = add i64 %13, 3
  store i64 %14, i64* %PC
  store i64 %12, i64* %RBP, align 8
  ret %struct.Memory* %2
}

define %struct.Memory* @routine_subq__0x20___rsp(%struct.State* dereferenceable(3376), i64, %struct.Memory*) {
block_400488:
  %3 = getelementptr inbounds %struct.State, %struct.State* %0, i32 0, i32 6
  %4 = getelementptr inbounds %struct.GPR, %struct.GPR* %3, i32 0, i32 33
  %5 = getelementptr inbounds %struct.Reg, %struct.Reg* %4, i32 0, i32 0
  %PC = bitcast %union.anon* %5 to i64*
  %6 = getelementptr inbounds %struct.State, %struct.State* %0, i32 0, i32 6
  %7 = getelementptr inbounds %struct.GPR, %struct.GPR* %6, i32 0, i32 13
  %8 = getelementptr inbounds %struct.Reg, %struct.Reg* %7, i32 0, i32 0
  %RSP = bitcast %union.anon* %8 to i64*
  %9 = load i64, i64* %RSP
  %10 = load i64, i64* %PC
  %11 = add i64 %10, 4
  store i64 %11, i64* %PC
  %12 = sub i64 %9, 32
  store i64 %12, i64* %RSP, align 8
  %13 = icmp ult i64 %9, 32
  %14 = zext i1 %13 to i8
  %15 = getelementptr inbounds %struct.State, %struct.State* %0, i64 0, i32 2, i32 1
  store i8 %14, i8* %15, align 1
  %16 = trunc i64 %12 to i32
  %17 = and i32 %16, 255
  %18 = call i32 @llvm.ctpop.i32(i32 %17)
  %19 = trunc i32 %18 to i8
  %20 = and i8 %19, 1
  %21 = xor i8 %20, 1
  %22 = getelementptr inbounds %struct.State, %struct.State* %0, i64 0, i32 2, i32 3
  store i8 %21, i8* %22, align 1
  %23 = xor i64 32, %9
  %24 = xor i64 %23, %12
  %25 = lshr i64 %24, 4
  %26 = trunc i64 %25 to i8
  %27 = and i8 %26, 1
  %28 = getelementptr inbounds %struct.State, %struct.State* %0, i64 0, i32 2, i32 5
  store i8 %27, i8* %28, align 1
  %29 = icmp eq i64 %12, 0
  %30 = zext i1 %29 to i8
  %31 = getelementptr inbounds %struct.State, %struct.State* %0, i64 0, i32 2, i32 7
  store i8 %30, i8* %31, align 1
  %32 = lshr i64 %12, 63
  %33 = trunc i64 %32 to i8
  %34 = getelementptr inbounds %struct.State, %struct.State* %0, i64 0, i32 2, i32 9
  store i8 %33, i8* %34, align 1
  %35 = lshr i64 %9, 63
  %36 = xor i64 %32, %35
  %37 = add i64 %36, %35
  %38 = icmp eq i64 %37, 2
  %39 = zext i1 %38 to i8
  %40 = getelementptr inbounds %struct.State, %struct.State* %0, i64 0, i32 2, i32 13
  store i8 %39, i8* %40, align 1
  ret %struct.Memory* %2
}

define %struct.Memory* @routine_movl__edi__MINUS0x4__rbp_(%struct.State* dereferenceable(3376), i64, %struct.Memory*) {
block_400488:
  %3 = getelementptr inbounds %struct.State, %struct.State* %0, i32 0, i32 6
  %4 = getelementptr inbounds %struct.GPR, %struct.GPR* %3, i32 0, i32 33
  %5 = getelementptr inbounds %struct.Reg, %struct.Reg* %4, i32 0, i32 0
  %PC = bitcast %union.anon* %5 to i64*
  %6 = getelementptr inbounds %struct.State, %struct.State* %0, i32 0, i32 6
  %7 = getelementptr inbounds %struct.GPR, %struct.GPR* %6, i32 0, i32 11
  %8 = getelementptr inbounds %struct.Reg, %struct.Reg* %7, i32 0, i32 0
  %EDI = bitcast %union.anon* %8 to i32*
  %9 = getelementptr inbounds %struct.State, %struct.State* %0, i32 0, i32 6
  %10 = getelementptr inbounds %struct.GPR, %struct.GPR* %9, i32 0, i32 15
  %11 = getelementptr inbounds %struct.Reg, %struct.Reg* %10, i32 0, i32 0
  %RBP = bitcast %union.anon* %11 to i64*
  %12 = load i64, i64* %RBP
  %13 = sub i64 %12, 4
  %14 = load i32, i32* %EDI
  %15 = zext i32 %14 to i64
  %16 = load i64, i64* %PC
  %17 = add i64 %16, 3
  store i64 %17, i64* %PC
  %18 = inttoptr i64 %13 to i32*
  store i32 %14, i32* %18
  ret %struct.Memory* %2
}

define %struct.Memory* @routine_movl__esi__MINUS0x8__rbp_(%struct.State* dereferenceable(3376), i64, %struct.Memory*) {
block_400488:
  %3 = getelementptr inbounds %struct.State, %struct.State* %0, i32 0, i32 6
  %4 = getelementptr inbounds %struct.GPR, %struct.GPR* %3, i32 0, i32 33
  %5 = getelementptr inbounds %struct.Reg, %struct.Reg* %4, i32 0, i32 0
  %PC = bitcast %union.anon* %5 to i64*
  %6 = getelementptr inbounds %struct.State, %struct.State* %0, i32 0, i32 6
  %7 = getelementptr inbounds %struct.GPR, %struct.GPR* %6, i32 0, i32 9
  %8 = getelementptr inbounds %struct.Reg, %struct.Reg* %7, i32 0, i32 0
  %ESI = bitcast %union.anon* %8 to i32*
  %9 = getelementptr inbounds %struct.State, %struct.State* %0, i32 0, i32 6
  %10 = getelementptr inbounds %struct.GPR, %struct.GPR* %9, i32 0, i32 15
  %11 = getelementptr inbounds %struct.Reg, %struct.Reg* %10, i32 0, i32 0
  %RBP = bitcast %union.anon* %11 to i64*
  %12 = load i64, i64* %RBP
  %13 = sub i64 %12, 8
  %14 = load i32, i32* %ESI
  %15 = zext i32 %14 to i64
  %16 = load i64, i64* %PC
  %17 = add i64 %16, 3
  store i64 %17, i64* %PC
  %18 = inttoptr i64 %13 to i32*
  store i32 %14, i32* %18
  ret %struct.Memory* %2
}

define %struct.Memory* @routine_movl__edx__MINUS0xc__rbp_(%struct.State* dereferenceable(3376), i64, %struct.Memory*) {
block_400488:
  %3 = getelementptr inbounds %struct.State, %struct.State* %0, i32 0, i32 6
  %4 = getelementptr inbounds %struct.GPR, %struct.GPR* %3, i32 0, i32 33
  %5 = getelementptr inbounds %struct.Reg, %struct.Reg* %4, i32 0, i32 0
  %PC = bitcast %union.anon* %5 to i64*
  %6 = getelementptr inbounds %struct.State, %struct.State* %0, i32 0, i32 6
  %7 = getelementptr inbounds %struct.GPR, %struct.GPR* %6, i32 0, i32 7
  %8 = getelementptr inbounds %struct.Reg, %struct.Reg* %7, i32 0, i32 0
  %EDX = bitcast %union.anon* %8 to i32*
  %9 = getelementptr inbounds %struct.State, %struct.State* %0, i32 0, i32 6
  %10 = getelementptr inbounds %struct.GPR, %struct.GPR* %9, i32 0, i32 15
  %11 = getelementptr inbounds %struct.Reg, %struct.Reg* %10, i32 0, i32 0
  %RBP = bitcast %union.anon* %11 to i64*
  %12 = load i64, i64* %RBP
  %13 = sub i64 %12, 12
  %14 = load i32, i32* %EDX
  %15 = zext i32 %14 to i64
  %16 = load i64, i64* %PC
  %17 = add i64 %16, 3
  store i64 %17, i64* %PC
  %18 = inttoptr i64 %13 to i32*
  store i32 %14, i32* %18
  ret %struct.Memory* %2
}

define %struct.Memory* @routine_movl__ecx__MINUS0x10__rbp_(%struct.State* dereferenceable(3376), i64, %struct.Memory*) {
block_400488:
  %3 = getelementptr inbounds %struct.State, %struct.State* %0, i32 0, i32 6
  %4 = getelementptr inbounds %struct.GPR, %struct.GPR* %3, i32 0, i32 33
  %5 = getelementptr inbounds %struct.Reg, %struct.Reg* %4, i32 0, i32 0
  %PC = bitcast %union.anon* %5 to i64*
  %6 = getelementptr inbounds %struct.State, %struct.State* %0, i32 0, i32 6
  %7 = getelementptr inbounds %struct.GPR, %struct.GPR* %6, i32 0, i32 5
  %8 = getelementptr inbounds %struct.Reg, %struct.Reg* %7, i32 0, i32 0
  %ECX = bitcast %union.anon* %8 to i32*
  %9 = getelementptr inbounds %struct.State, %struct.State* %0, i32 0, i32 6
  %10 = getelementptr inbounds %struct.GPR, %struct.GPR* %9, i32 0, i32 15
  %11 = getelementptr inbounds %struct.Reg, %struct.Reg* %10, i32 0, i32 0
  %RBP = bitcast %union.anon* %11 to i64*
  %12 = load i64, i64* %RBP
  %13 = sub i64 %12, 16
  %14 = load i32, i32* %ECX
  %15 = zext i32 %14 to i64
  %16 = load i64, i64* %PC
  %17 = add i64 %16, 3
  store i64 %17, i64* %PC
  %18 = inttoptr i64 %13 to i32*
  store i32 %14, i32* %18
  ret %struct.Memory* %2
}

define %struct.Memory* @routine_movslq_MINUS0x4__rbp____rax(%struct.State* dereferenceable(3376), i64, %struct.Memory*) {
block_400488:
  %3 = getelementptr inbounds %struct.State, %struct.State* %0, i32 0, i32 6
  %4 = getelementptr inbounds %struct.GPR, %struct.GPR* %3, i32 0, i32 33
  %5 = getelementptr inbounds %struct.Reg, %struct.Reg* %4, i32 0, i32 0
  %PC = bitcast %union.anon* %5 to i64*
  %6 = getelementptr inbounds %struct.State, %struct.State* %0, i32 0, i32 6
  %7 = getelementptr inbounds %struct.GPR, %struct.GPR* %6, i32 0, i32 1
  %8 = getelementptr inbounds %struct.Reg, %struct.Reg* %7, i32 0, i32 0
  %RAX = bitcast %union.anon* %8 to i64*
  %9 = getelementptr inbounds %struct.State, %struct.State* %0, i32 0, i32 6
  %10 = getelementptr inbounds %struct.GPR, %struct.GPR* %9, i32 0, i32 15
  %11 = getelementptr inbounds %struct.Reg, %struct.Reg* %10, i32 0, i32 0
  %RBP = bitcast %union.anon* %11 to i64*
  %12 = load i64, i64* %RBP
  %13 = sub i64 %12, 4
  %14 = load i64, i64* %PC
  %15 = add i64 %14, 4
  store i64 %15, i64* %PC
  %16 = inttoptr i64 %13 to i32*
  %17 = load i32, i32* %16
  %18 = sext i32 %17 to i64
  store i64 %18, i64* %RAX, align 8
  ret %struct.Memory* %2
}

define %struct.Memory* @routine_movl_0xb5a290___rax_4____ecx(%struct.State* dereferenceable(3376), i64, %struct.Memory*) {
block_400488:
  %3 = getelementptr inbounds %struct.State, %struct.State* %0, i32 0, i32 6
  %4 = getelementptr inbounds %struct.GPR, %struct.GPR* %3, i32 0, i32 33
  %5 = getelementptr inbounds %struct.Reg, %struct.Reg* %4, i32 0, i32 0
  %PC = bitcast %union.anon* %5 to i64*
  %6 = getelementptr inbounds %struct.State, %struct.State* %0, i32 0, i32 6
  %7 = getelementptr inbounds %struct.GPR, %struct.GPR* %6, i32 0, i32 1
  %8 = getelementptr inbounds %struct.Reg, %struct.Reg* %7, i32 0, i32 0
  %RAX = bitcast %union.anon* %8 to i64*
  %9 = getelementptr inbounds %struct.State, %struct.State* %0, i32 0, i32 6
  %10 = getelementptr inbounds %struct.GPR, %struct.GPR* %9, i32 0, i32 5
  %11 = getelementptr inbounds %struct.Reg, %struct.Reg* %10, i32 0, i32 0
  %RCX = bitcast %union.anon* %11 to i64*
  %12 = load i64, i64* %RAX
  %13 = mul i64 %12, 4
  %14 = add i64 %13, 11903632
  %15 = load i64, i64* %PC
  %16 = add i64 %15, 7
  store i64 %16, i64* %PC
  %17 = inttoptr i64 %14 to i32*
  %18 = load i32, i32* %17
  %19 = zext i32 %18 to i64
  store i64 %19, i64* %RCX, align 8
  ret %struct.Memory* %2
}

define %struct.Memory* @routine_addl_MINUS0x8__rbp____ecx(%struct.State* dereferenceable(3376), i64, %struct.Memory*) {
block_400488:
  %3 = getelementptr inbounds %struct.State, %struct.State* %0, i32 0, i32 6
  %4 = getelementptr inbounds %struct.GPR, %struct.GPR* %3, i32 0, i32 33
  %5 = getelementptr inbounds %struct.Reg, %struct.Reg* %4, i32 0, i32 0
  %PC = bitcast %union.anon* %5 to i64*
  %6 = getelementptr inbounds %struct.State, %struct.State* %0, i32 0, i32 6
  %7 = getelementptr inbounds %struct.GPR, %struct.GPR* %6, i32 0, i32 5
  %8 = getelementptr inbounds %struct.Reg, %struct.Reg* %7, i32 0, i32 0
  %RCX = bitcast %union.anon* %8 to i64*
  %9 = getelementptr inbounds %struct.State, %struct.State* %0, i32 0, i32 6
  %10 = getelementptr inbounds %struct.GPR, %struct.GPR* %9, i32 0, i32 15
  %11 = getelementptr inbounds %struct.Reg, %struct.Reg* %10, i32 0, i32 0
  %RBP = bitcast %union.anon* %11 to i64*
  %12 = load i64, i64* %RCX
  %13 = load i64, i64* %RBP
  %14 = sub i64 %13, 8
  %15 = load i64, i64* %PC
  %16 = add i64 %15, 3
  store i64 %16, i64* %PC
  %17 = trunc i64 %12 to i32
  %18 = inttoptr i64 %14 to i32*
  %19 = load i32, i32* %18
  %20 = add i32 %19, %17
  %21 = zext i32 %20 to i64
  store i64 %21, i64* %RCX, align 8
  %22 = icmp ult i32 %20, %17
  %23 = icmp ult i32 %20, %19
  %24 = or i1 %22, %23
  %25 = zext i1 %24 to i8
  %26 = getelementptr inbounds %struct.State, %struct.State* %0, i64 0, i32 2, i32 1
  store i8 %25, i8* %26, align 1
  %27 = and i32 %20, 255
  %28 = call i32 @llvm.ctpop.i32(i32 %27)
  %29 = trunc i32 %28 to i8
  %30 = and i8 %29, 1
  %31 = xor i8 %30, 1
  %32 = getelementptr inbounds %struct.State, %struct.State* %0, i64 0, i32 2, i32 3
  store i8 %31, i8* %32, align 1
  %33 = xor i32 %19, %17
  %34 = xor i32 %33, %20
  %35 = lshr i32 %34, 4
  %36 = trunc i32 %35 to i8
  %37 = and i8 %36, 1
  %38 = getelementptr inbounds %struct.State, %struct.State* %0, i64 0, i32 2, i32 5
  store i8 %37, i8* %38, align 1
  %39 = icmp eq i32 %20, 0
  %40 = zext i1 %39 to i8
  %41 = getelementptr inbounds %struct.State, %struct.State* %0, i64 0, i32 2, i32 7
  store i8 %40, i8* %41, align 1
  %42 = lshr i32 %20, 31
  %43 = trunc i32 %42 to i8
  %44 = getelementptr inbounds %struct.State, %struct.State* %0, i64 0, i32 2, i32 9
  store i8 %43, i8* %44, align 1
  %45 = lshr i32 %17, 31
  %46 = lshr i32 %19, 31
  %47 = xor i32 %42, %45
  %48 = xor i32 %42, %46
  %49 = add i32 %47, %48
  %50 = icmp eq i32 %49, 2
  %51 = zext i1 %50 to i8
  %52 = getelementptr inbounds %struct.State, %struct.State* %0, i64 0, i32 2, i32 13
  store i8 %51, i8* %52, align 1
  ret %struct.Memory* %2
}

define %struct.Memory* @routine_movl__ecx__MINUS0x14__rbp_(%struct.State* dereferenceable(3376), i64, %struct.Memory*) {
block_400488:
  %3 = getelementptr inbounds %struct.State, %struct.State* %0, i32 0, i32 6
  %4 = getelementptr inbounds %struct.GPR, %struct.GPR* %3, i32 0, i32 33
  %5 = getelementptr inbounds %struct.Reg, %struct.Reg* %4, i32 0, i32 0
  %PC = bitcast %union.anon* %5 to i64*
  %6 = getelementptr inbounds %struct.State, %struct.State* %0, i32 0, i32 6
  %7 = getelementptr inbounds %struct.GPR, %struct.GPR* %6, i32 0, i32 5
  %8 = getelementptr inbounds %struct.Reg, %struct.Reg* %7, i32 0, i32 0
  %ECX = bitcast %union.anon* %8 to i32*
  %9 = getelementptr inbounds %struct.State, %struct.State* %0, i32 0, i32 6
  %10 = getelementptr inbounds %struct.GPR, %struct.GPR* %9, i32 0, i32 15
  %11 = getelementptr inbounds %struct.Reg, %struct.Reg* %10, i32 0, i32 0
  %RBP = bitcast %union.anon* %11 to i64*
  %12 = load i64, i64* %RBP
  %13 = sub i64 %12, 20
  %14 = load i32, i32* %ECX
  %15 = zext i32 %14 to i64
  %16 = load i64, i64* %PC
  %17 = add i64 %16, 3
  store i64 %17, i64* %PC
  %18 = inttoptr i64 %13 to i32*
  store i32 %14, i32* %18
  ret %struct.Memory* %2
}

define %struct.Memory* @routine_movl_0xb5a730___rax_4____ecx(%struct.State* dereferenceable(3376), i64, %struct.Memory*) {
block_400488:
  %3 = getelementptr inbounds %struct.State, %struct.State* %0, i32 0, i32 6
  %4 = getelementptr inbounds %struct.GPR, %struct.GPR* %3, i32 0, i32 33
  %5 = getelementptr inbounds %struct.Reg, %struct.Reg* %4, i32 0, i32 0
  %PC = bitcast %union.anon* %5 to i64*
  %6 = getelementptr inbounds %struct.State, %struct.State* %0, i32 0, i32 6
  %7 = getelementptr inbounds %struct.GPR, %struct.GPR* %6, i32 0, i32 1
  %8 = getelementptr inbounds %struct.Reg, %struct.Reg* %7, i32 0, i32 0
  %RAX = bitcast %union.anon* %8 to i64*
  %9 = getelementptr inbounds %struct.State, %struct.State* %0, i32 0, i32 6
  %10 = getelementptr inbounds %struct.GPR, %struct.GPR* %9, i32 0, i32 5
  %11 = getelementptr inbounds %struct.Reg, %struct.Reg* %10, i32 0, i32 0
  %RCX = bitcast %union.anon* %11 to i64*
  %12 = load i64, i64* %RAX
  %13 = mul i64 %12, 4
  %14 = add i64 %13, 11904816
  %15 = load i64, i64* %PC
  %16 = add i64 %15, 7
  store i64 %16, i64* %PC
  %17 = inttoptr i64 %14 to i32*
  %18 = load i32, i32* %17
  %19 = zext i32 %18 to i64
  store i64 %19, i64* %RCX, align 8
  ret %struct.Memory* %2
}

define %struct.Memory* @routine_movl__ecx__MINUS0x18__rbp_(%struct.State* dereferenceable(3376), i64, %struct.Memory*) {
block_400488:
  %3 = getelementptr inbounds %struct.State, %struct.State* %0, i32 0, i32 6
  %4 = getelementptr inbounds %struct.GPR, %struct.GPR* %3, i32 0, i32 33
  %5 = getelementptr inbounds %struct.Reg, %struct.Reg* %4, i32 0, i32 0
  %PC = bitcast %union.anon* %5 to i64*
  %6 = getelementptr inbounds %struct.State, %struct.State* %0, i32 0, i32 6
  %7 = getelementptr inbounds %struct.GPR, %struct.GPR* %6, i32 0, i32 5
  %8 = getelementptr inbounds %struct.Reg, %struct.Reg* %7, i32 0, i32 0
  %ECX = bitcast %union.anon* %8 to i32*
  %9 = getelementptr inbounds %struct.State, %struct.State* %0, i32 0, i32 6
  %10 = getelementptr inbounds %struct.GPR, %struct.GPR* %9, i32 0, i32 15
  %11 = getelementptr inbounds %struct.Reg, %struct.Reg* %10, i32 0, i32 0
  %RBP = bitcast %union.anon* %11 to i64*
  %12 = load i64, i64* %RBP
  %13 = sub i64 %12, 24
  %14 = load i32, i32* %ECX
  %15 = zext i32 %14 to i64
  %16 = load i64, i64* %PC
  %17 = add i64 %16, 3
  store i64 %17, i64* %PC
  %18 = inttoptr i64 %13 to i32*
  store i32 %14, i32* %18
  ret %struct.Memory* %2
}

define %struct.Memory* @routine_movl_MINUS0x14__rbp____edi(%struct.State* dereferenceable(3376), i64, %struct.Memory*) {
block_400488:
  %3 = getelementptr inbounds %struct.State, %struct.State* %0, i32 0, i32 6
  %4 = getelementptr inbounds %struct.GPR, %struct.GPR* %3, i32 0, i32 33
  %5 = getelementptr inbounds %struct.Reg, %struct.Reg* %4, i32 0, i32 0
  %PC = bitcast %union.anon* %5 to i64*
  %6 = getelementptr inbounds %struct.State, %struct.State* %0, i32 0, i32 6
  %7 = getelementptr inbounds %struct.GPR, %struct.GPR* %6, i32 0, i32 11
  %8 = getelementptr inbounds %struct.Reg, %struct.Reg* %7, i32 0, i32 0
  %RDI = bitcast %union.anon* %8 to i64*
  %9 = getelementptr inbounds %struct.State, %struct.State* %0, i32 0, i32 6
  %10 = getelementptr inbounds %struct.GPR, %struct.GPR* %9, i32 0, i32 15
  %11 = getelementptr inbounds %struct.Reg, %struct.Reg* %10, i32 0, i32 0
  %RBP = bitcast %union.anon* %11 to i64*
  %12 = load i64, i64* %RBP
  %13 = sub i64 %12, 20
  %14 = load i64, i64* %PC
  %15 = add i64 %14, 3
  store i64 %15, i64* %PC
  %16 = inttoptr i64 %13 to i32*
  %17 = load i32, i32* %16
  %18 = zext i32 %17 to i64
  store i64 %18, i64* %RDI, align 8
  ret %struct.Memory* %2
}

define %struct.Memory* @routine_callq_.owl_escape_value(%struct.State* dereferenceable(3376), i64, %struct.Memory*, i64 %rel_off1, i64 %rel_off2, i64 %rel_off3) {
block_400488:
  %3 = getelementptr inbounds %struct.State, %struct.State* %0, i32 0, i32 6
  %4 = getelementptr inbounds %struct.GPR, %struct.GPR* %3, i32 0, i32 33
  %5 = getelementptr inbounds %struct.Reg, %struct.Reg* %4, i32 0, i32 0
  %PC = bitcast %union.anon* %5 to i64*
  %6 = load i64, i64* %PC
  %7 = add i64 %6, %rel_off1
  %8 = load i64, i64* %PC
  %9 = add i64 %8, %rel_off2
  %10 = load i64, i64* %PC
  %11 = add i64 %10, %rel_off3
  store i64 %11, i64* %PC
  %12 = getelementptr inbounds %struct.State, %struct.State* %0, i64 0, i32 6, i32 13, i32 0, i32 0
  %13 = load i64, i64* %12, align 8
  %14 = add i64 %13, -8
  %15 = inttoptr i64 %14 to i64*
  store i64 %9, i64* %15
  store i64 %14, i64* %12, align 8
  %16 = getelementptr inbounds %struct.State, %struct.State* %0, i64 0, i32 6, i32 33, i32 0, i32 0
  store i64 %7, i64* %16, align 8
  ret %struct.Memory* %2
}

define %struct.Memory* @routine_movb__0x1___r8b(%struct.State* dereferenceable(3376), i64, %struct.Memory*) {
block_400488:
  %3 = getelementptr inbounds %struct.State, %struct.State* %0, i32 0, i32 6
  %4 = getelementptr inbounds %struct.GPR, %struct.GPR* %3, i32 0, i32 33
  %5 = getelementptr inbounds %struct.Reg, %struct.Reg* %4, i32 0, i32 0
  %PC = bitcast %union.anon* %5 to i64*
  %6 = getelementptr inbounds %struct.State, %struct.State* %0, i32 0, i32 6
  %7 = getelementptr inbounds %struct.GPR, %struct.GPR* %6, i32 0, i32 17
  %8 = getelementptr inbounds %struct.Reg, %struct.Reg* %7, i32 0, i32 0
  %9 = bitcast %union.anon* %8 to %struct.anon.2*
  %R8B = getelementptr inbounds %struct.anon.2, %struct.anon.2* %9, i32 0, i32 0
  %10 = load i64, i64* %PC
  %11 = add i64 %10, 3
  store i64 %11, i64* %PC
  store i8 1, i8* %R8B, align 1
  ret %struct.Memory* %2
}

define %struct.Memory* @routine_cmpl__0x0___eax(%struct.State* dereferenceable(3376), i64, %struct.Memory*) {
block_400488:
  %3 = getelementptr inbounds %struct.State, %struct.State* %0, i32 0, i32 6
  %4 = getelementptr inbounds %struct.GPR, %struct.GPR* %3, i32 0, i32 33
  %5 = getelementptr inbounds %struct.Reg, %struct.Reg* %4, i32 0, i32 0
  %PC = bitcast %union.anon* %5 to i64*
  %6 = getelementptr inbounds %struct.State, %struct.State* %0, i32 0, i32 6
  %7 = getelementptr inbounds %struct.GPR, %struct.GPR* %6, i32 0, i32 1
  %8 = getelementptr inbounds %struct.Reg, %struct.Reg* %7, i32 0, i32 0
  %EAX = bitcast %union.anon* %8 to i32*
  %9 = load i32, i32* %EAX
  %10 = zext i32 %9 to i64
  %11 = load i64, i64* %PC
  %12 = add i64 %11, 3
  store i64 %12, i64* %PC
  %13 = getelementptr inbounds %struct.State, %struct.State* %0, i64 0, i32 2, i32 1
  store i8 0, i8* %13, align 1
  %14 = and i32 %9, 255
  %15 = call i32 @llvm.ctpop.i32(i32 %14)
  %16 = trunc i32 %15 to i8
  %17 = and i8 %16, 1
  %18 = xor i8 %17, 1
  %19 = getelementptr inbounds %struct.State, %struct.State* %0, i64 0, i32 2, i32 3
  store i8 %18, i8* %19, align 1
  %20 = getelementptr inbounds %struct.State, %struct.State* %0, i64 0, i32 2, i32 5
  store i8 0, i8* %20, align 1
  %21 = icmp eq i32 %9, 0
  %22 = zext i1 %21 to i8
  %23 = getelementptr inbounds %struct.State, %struct.State* %0, i64 0, i32 2, i32 7
  store i8 %22, i8* %23, align 1
  %24 = lshr i32 %9, 31
  %25 = trunc i32 %24 to i8
  %26 = getelementptr inbounds %struct.State, %struct.State* %0, i64 0, i32 2, i32 9
  store i8 %25, i8* %26, align 1
  %27 = lshr i32 %9, 31
  %28 = xor i32 %24, %27
  %29 = add i32 %28, %27
  %30 = icmp eq i32 %29, 2
  %31 = zext i1 %30 to i8
  %32 = getelementptr inbounds %struct.State, %struct.State* %0, i64 0, i32 2, i32 13
  store i8 %31, i8* %32, align 1
  ret %struct.Memory* %2
}

define %struct.Memory* @routine_movb__r8b__MINUS0x19__rbp_(%struct.State* dereferenceable(3376), i64, %struct.Memory*) {
block_400488:
  %3 = getelementptr inbounds %struct.State, %struct.State* %0, i32 0, i32 6
  %4 = getelementptr inbounds %struct.GPR, %struct.GPR* %3, i32 0, i32 33
  %5 = getelementptr inbounds %struct.Reg, %struct.Reg* %4, i32 0, i32 0
  %PC = bitcast %union.anon* %5 to i64*
  %6 = getelementptr inbounds %struct.State, %struct.State* %0, i32 0, i32 6
  %7 = getelementptr inbounds %struct.GPR, %struct.GPR* %6, i32 0, i32 17
  %8 = getelementptr inbounds %struct.Reg, %struct.Reg* %7, i32 0, i32 0
  %9 = bitcast %union.anon* %8 to %struct.anon.2*
  %R8B = getelementptr inbounds %struct.anon.2, %struct.anon.2* %9, i32 0, i32 0
  %10 = getelementptr inbounds %struct.State, %struct.State* %0, i32 0, i32 6
  %11 = getelementptr inbounds %struct.GPR, %struct.GPR* %10, i32 0, i32 15
  %12 = getelementptr inbounds %struct.Reg, %struct.Reg* %11, i32 0, i32 0
  %RBP = bitcast %union.anon* %12 to i64*
  %13 = load i64, i64* %RBP
  %14 = sub i64 %13, 25
  %15 = load i8, i8* %R8B
  %16 = zext i8 %15 to i64
  %17 = load i64, i64* %PC
  %18 = add i64 %17, 4
  store i64 %18, i64* %PC
  %19 = inttoptr i64 %14 to i8*
  store i8 %15, i8* %19
  ret %struct.Memory* %2
}

define %struct.Memory* @routine_jg_.L_4c1def(%struct.State* dereferenceable(3376), i64, %struct.Memory*, i8* %BRANCH_TAKEN, i64 %rel_off1, i64 %rel_off2, i64 %rel_off3) {
block_400488:
  %3 = getelementptr inbounds %struct.State, %struct.State* %0, i32 0, i32 6
  %4 = getelementptr inbounds %struct.GPR, %struct.GPR* %3, i32 0, i32 33
  %5 = getelementptr inbounds %struct.Reg, %struct.Reg* %4, i32 0, i32 0
  %PC = bitcast %union.anon* %5 to i64*
  %6 = load i64, i64* %PC
  %7 = add i64 %6, %rel_off1
  %8 = load i64, i64* %PC
  %9 = add i64 %8, %rel_off2
  %10 = load i64, i64* %PC
  %11 = add i64 %10, %rel_off3
  store i64 %11, i64* %PC
  %12 = getelementptr inbounds %struct.State, %struct.State* %0, i64 0, i32 2, i32 7
  %13 = load i8, i8* %12, align 1
  %14 = icmp eq i8 %13, 0
  %15 = getelementptr inbounds %struct.State, %struct.State* %0, i64 0, i32 2, i32 9
  %16 = load i8, i8* %15, align 1
  %17 = icmp ne i8 %16, 0
  %18 = getelementptr inbounds %struct.State, %struct.State* %0, i64 0, i32 2, i32 13
  %19 = load i8, i8* %18, align 1
  %20 = icmp ne i8 %19, 0
  %21 = xor i1 %17, %20
  %22 = xor i1 %21, true
  %23 = and i1 %14, %22
  %24 = zext i1 %23 to i8
  store i8 %24, i8* %BRANCH_TAKEN, align 1
  %25 = getelementptr inbounds %struct.State, %struct.State* %0, i64 0, i32 6, i32 33, i32 0, i32 0
  %26 = select i1 %23, i64 %7, i64 %9
  store i64 %26, i64* %25, align 8
  ret %struct.Memory* %2
}

define %struct.Memory* @routine_movl_MINUS0x18__rbp____edi(%struct.State* dereferenceable(3376), i64, %struct.Memory*) {
block_400488:
  %3 = getelementptr inbounds %struct.State, %struct.State* %0, i32 0, i32 6
  %4 = getelementptr inbounds %struct.GPR, %struct.GPR* %3, i32 0, i32 33
  %5 = getelementptr inbounds %struct.Reg, %struct.Reg* %4, i32 0, i32 0
  %PC = bitcast %union.anon* %5 to i64*
  %6 = getelementptr inbounds %struct.State, %struct.State* %0, i32 0, i32 6
  %7 = getelementptr inbounds %struct.GPR, %struct.GPR* %6, i32 0, i32 11
  %8 = getelementptr inbounds %struct.Reg, %struct.Reg* %7, i32 0, i32 0
  %RDI = bitcast %union.anon* %8 to i64*
  %9 = getelementptr inbounds %struct.State, %struct.State* %0, i32 0, i32 6
  %10 = getelementptr inbounds %struct.GPR, %struct.GPR* %9, i32 0, i32 15
  %11 = getelementptr inbounds %struct.Reg, %struct.Reg* %10, i32 0, i32 0
  %RBP = bitcast %union.anon* %11 to i64*
  %12 = load i64, i64* %RBP
  %13 = sub i64 %12, 24
  %14 = load i64, i64* %PC
  %15 = add i64 %14, 3
  store i64 %15, i64* %PC
  %16 = inttoptr i64 %13 to i32*
  %17 = load i32, i32* %16
  %18 = zext i32 %17 to i64
  store i64 %18, i64* %RDI, align 8
  ret %struct.Memory* %2
}

define %struct.Memory* @routine_setg__cl(%struct.State* dereferenceable(3376), i64, %struct.Memory*) {
block_400488:
  %3 = getelementptr inbounds %struct.State, %struct.State* %0, i32 0, i32 6
  %4 = getelementptr inbounds %struct.GPR, %struct.GPR* %3, i32 0, i32 33
  %5 = getelementptr inbounds %struct.Reg, %struct.Reg* %4, i32 0, i32 0
  %PC = bitcast %union.anon* %5 to i64*
  %6 = getelementptr inbounds %struct.State, %struct.State* %0, i32 0, i32 6
  %7 = getelementptr inbounds %struct.GPR, %struct.GPR* %6, i32 0, i32 5
  %8 = getelementptr inbounds %struct.Reg, %struct.Reg* %7, i32 0, i32 0
  %9 = bitcast %union.anon* %8 to %struct.anon.2*
  %CL = getelementptr inbounds %struct.anon.2, %struct.anon.2* %9, i32 0, i32 0
  %10 = load i64, i64* %PC
  %11 = add i64 %10, 3
  store i64 %11, i64* %PC
  %12 = getelementptr inbounds %struct.State, %struct.State* %0, i64 0, i32 2, i32 7
  %13 = load i8, i8* %12, align 1
  %14 = icmp eq i8 %13, 0
  %15 = getelementptr inbounds %struct.State, %struct.State* %0, i64 0, i32 2, i32 9
  %16 = load i8, i8* %15, align 1
  %17 = icmp ne i8 %16, 0
  %18 = getelementptr inbounds %struct.State, %struct.State* %0, i64 0, i32 2, i32 13
  %19 = load i8, i8* %18, align 1
  %20 = icmp ne i8 %19, 0
  %21 = xor i1 %17, %20
  %22 = xor i1 %21, true
  %23 = and i1 %14, %22
  %24 = zext i1 %23 to i8
  store i8 %24, i8* %CL, align 1
  ret %struct.Memory* %2
}

define %struct.Memory* @routine_movb__cl__MINUS0x19__rbp_(%struct.State* dereferenceable(3376), i64, %struct.Memory*) {
block_400488:
  %3 = getelementptr inbounds %struct.State, %struct.State* %0, i32 0, i32 6
  %4 = getelementptr inbounds %struct.GPR, %struct.GPR* %3, i32 0, i32 33
  %5 = getelementptr inbounds %struct.Reg, %struct.Reg* %4, i32 0, i32 0
  %PC = bitcast %union.anon* %5 to i64*
  %6 = getelementptr inbounds %struct.State, %struct.State* %0, i32 0, i32 6
  %7 = getelementptr inbounds %struct.GPR, %struct.GPR* %6, i32 0, i32 5
  %8 = getelementptr inbounds %struct.Reg, %struct.Reg* %7, i32 0, i32 0
  %9 = bitcast %union.anon* %8 to %struct.anon.2*
  %CL = getelementptr inbounds %struct.anon.2, %struct.anon.2* %9, i32 0, i32 0
  %10 = getelementptr inbounds %struct.State, %struct.State* %0, i32 0, i32 6
  %11 = getelementptr inbounds %struct.GPR, %struct.GPR* %10, i32 0, i32 15
  %12 = getelementptr inbounds %struct.Reg, %struct.Reg* %11, i32 0, i32 0
  %RBP = bitcast %union.anon* %12 to i64*
  %13 = load i64, i64* %RBP
  %14 = sub i64 %13, 25
  %15 = load i8, i8* %CL
  %16 = zext i8 %15 to i64
  %17 = load i64, i64* %PC
  %18 = add i64 %17, 3
  store i64 %18, i64* %PC
  %19 = inttoptr i64 %14 to i8*
  store i8 %15, i8* %19
  ret %struct.Memory* %2
}

define %struct.Memory* @routine_movb_MINUS0x19__rbp____al(%struct.State* dereferenceable(3376), i64, %struct.Memory*) {
block_400488:
  %3 = getelementptr inbounds %struct.State, %struct.State* %0, i32 0, i32 6
  %4 = getelementptr inbounds %struct.GPR, %struct.GPR* %3, i32 0, i32 33
  %5 = getelementptr inbounds %struct.Reg, %struct.Reg* %4, i32 0, i32 0
  %PC = bitcast %union.anon* %5 to i64*
  %6 = getelementptr inbounds %struct.State, %struct.State* %0, i32 0, i32 6
  %7 = getelementptr inbounds %struct.GPR, %struct.GPR* %6, i32 0, i32 1
  %8 = getelementptr inbounds %struct.Reg, %struct.Reg* %7, i32 0, i32 0
  %9 = bitcast %union.anon* %8 to %struct.anon.2*
  %AL = getelementptr inbounds %struct.anon.2, %struct.anon.2* %9, i32 0, i32 0
  %10 = getelementptr inbounds %struct.State, %struct.State* %0, i32 0, i32 6
  %11 = getelementptr inbounds %struct.GPR, %struct.GPR* %10, i32 0, i32 15
  %12 = getelementptr inbounds %struct.Reg, %struct.Reg* %11, i32 0, i32 0
  %RBP = bitcast %union.anon* %12 to i64*
  %13 = load i64, i64* %RBP
  %14 = sub i64 %13, 25
  %15 = load i64, i64* %PC
  %16 = add i64 %15, 3
  store i64 %16, i64* %PC
  %17 = inttoptr i64 %14 to i8*
  %18 = load i8, i8* %17
  store i8 %18, i8* %AL, align 1
  ret %struct.Memory* %2
}

define %struct.Memory* @routine_andb__0x1___al(%struct.State* dereferenceable(3376), i64, %struct.Memory*) {
block_400488:
  %3 = getelementptr inbounds %struct.State, %struct.State* %0, i32 0, i32 6
  %4 = getelementptr inbounds %struct.GPR, %struct.GPR* %3, i32 0, i32 33
  %5 = getelementptr inbounds %struct.Reg, %struct.Reg* %4, i32 0, i32 0
  %PC = bitcast %union.anon* %5 to i64*
  %6 = getelementptr inbounds %struct.State, %struct.State* %0, i32 0, i32 6
  %7 = getelementptr inbounds %struct.GPR, %struct.GPR* %6, i32 0, i32 1
  %8 = getelementptr inbounds %struct.Reg, %struct.Reg* %7, i32 0, i32 0
  %9 = bitcast %union.anon* %8 to %struct.anon.2*
  %AL = getelementptr inbounds %struct.anon.2, %struct.anon.2* %9, i32 0, i32 0
  %10 = load i8, i8* %AL
  %11 = zext i8 %10 to i64
  %12 = load i64, i64* %PC
  %13 = add i64 %12, 2
  store i64 %13, i64* %PC
  %14 = and i64 1, %11
  %15 = trunc i64 %14 to i8
  store i8 %15, i8* %AL, align 1
  %16 = getelementptr inbounds %struct.State, %struct.State* %0, i64 0, i32 2, i32 1
  store i8 0, i8* %16, align 1
  %17 = trunc i64 %14 to i32
  %18 = and i32 %17, 255
  %19 = call i32 @llvm.ctpop.i32(i32 %18)
  %20 = trunc i32 %19 to i8
  %21 = and i8 %20, 1
  %22 = xor i8 %21, 1
  %23 = getelementptr inbounds %struct.State, %struct.State* %0, i64 0, i32 2, i32 3
  store i8 %22, i8* %23, align 1
  %24 = icmp eq i8 %15, 0
  %25 = zext i1 %24 to i8
  %26 = getelementptr inbounds %struct.State, %struct.State* %0, i64 0, i32 2, i32 7
  store i8 %25, i8* %26, align 1
  %27 = getelementptr inbounds %struct.State, %struct.State* %0, i64 0, i32 2, i32 9
  store i8 0, i8* %27, align 1
  %28 = getelementptr inbounds %struct.State, %struct.State* %0, i64 0, i32 2, i32 13
  store i8 0, i8* %28, align 1
  %29 = getelementptr inbounds %struct.State, %struct.State* %0, i64 0, i32 2, i32 5
  store i8 0, i8* %29, align 1
  ret %struct.Memory* %2
}

define %struct.Memory* @routine_movzbl__al___eax(%struct.State* dereferenceable(3376), i64, %struct.Memory*) {
block_400488:
  %3 = getelementptr inbounds %struct.State, %struct.State* %0, i32 0, i32 6
  %4 = getelementptr inbounds %struct.GPR, %struct.GPR* %3, i32 0, i32 33
  %5 = getelementptr inbounds %struct.Reg, %struct.Reg* %4, i32 0, i32 0
  %PC = bitcast %union.anon* %5 to i64*
  %6 = getelementptr inbounds %struct.State, %struct.State* %0, i32 0, i32 6
  %7 = getelementptr inbounds %struct.GPR, %struct.GPR* %6, i32 0, i32 1
  %8 = getelementptr inbounds %struct.Reg, %struct.Reg* %7, i32 0, i32 0
  %9 = bitcast %union.anon* %8 to %struct.anon.2*
  %AL = getelementptr inbounds %struct.anon.2, %struct.anon.2* %9, i32 0, i32 0
  %10 = getelementptr inbounds %struct.State, %struct.State* %0, i32 0, i32 6
  %11 = getelementptr inbounds %struct.GPR, %struct.GPR* %10, i32 0, i32 1
  %12 = getelementptr inbounds %struct.Reg, %struct.Reg* %11, i32 0, i32 0
  %RAX = bitcast %union.anon* %12 to i64*
  %13 = load i8, i8* %AL
  %14 = zext i8 %13 to i64
  %15 = load i64, i64* %PC
  %16 = add i64 %15, 3
  store i64 %16, i64* %PC
  %17 = and i64 %14, 255
  store i64 %17, i64* %RAX, align 8
  ret %struct.Memory* %2
}

define %struct.Memory* @routine_addq__0x20___rsp(%struct.State* dereferenceable(3376), i64, %struct.Memory*) {
block_400488:
  %3 = getelementptr inbounds %struct.State, %struct.State* %0, i32 0, i32 6
  %4 = getelementptr inbounds %struct.GPR, %struct.GPR* %3, i32 0, i32 33
  %5 = getelementptr inbounds %struct.Reg, %struct.Reg* %4, i32 0, i32 0
  %PC = bitcast %union.anon* %5 to i64*
  %6 = getelementptr inbounds %struct.State, %struct.State* %0, i32 0, i32 6
  %7 = getelementptr inbounds %struct.GPR, %struct.GPR* %6, i32 0, i32 13
  %8 = getelementptr inbounds %struct.Reg, %struct.Reg* %7, i32 0, i32 0
  %RSP = bitcast %union.anon* %8 to i64*
  %9 = load i64, i64* %RSP
  %10 = load i64, i64* %PC
  %11 = add i64 %10, 4
  store i64 %11, i64* %PC
  %12 = add i64 32, %9
  store i64 %12, i64* %RSP, align 8
  %13 = icmp ult i64 %12, %9
  %14 = icmp ult i64 %12, 32
  %15 = or i1 %13, %14
  %16 = zext i1 %15 to i8
  %17 = getelementptr inbounds %struct.State, %struct.State* %0, i64 0, i32 2, i32 1
  store i8 %16, i8* %17, align 1
  %18 = trunc i64 %12 to i32
  %19 = and i32 %18, 255
  %20 = call i32 @llvm.ctpop.i32(i32 %19)
  %21 = trunc i32 %20 to i8
  %22 = and i8 %21, 1
  %23 = xor i8 %22, 1
  %24 = getelementptr inbounds %struct.State, %struct.State* %0, i64 0, i32 2, i32 3
  store i8 %23, i8* %24, align 1
  %25 = xor i64 32, %9
  %26 = xor i64 %25, %12
  %27 = lshr i64 %26, 4
  %28 = trunc i64 %27 to i8
  %29 = and i8 %28, 1
  %30 = getelementptr inbounds %struct.State, %struct.State* %0, i64 0, i32 2, i32 5
  store i8 %29, i8* %30, align 1
  %31 = icmp eq i64 %12, 0
  %32 = zext i1 %31 to i8
  %33 = getelementptr inbounds %struct.State, %struct.State* %0, i64 0, i32 2, i32 7
  store i8 %32, i8* %33, align 1
  %34 = lshr i64 %12, 63
  %35 = trunc i64 %34 to i8
  %36 = getelementptr inbounds %struct.State, %struct.State* %0, i64 0, i32 2, i32 9
  store i8 %35, i8* %36, align 1
  %37 = lshr i64 %9, 63
  %38 = xor i64 %34, %37
  %39 = add i64 %38, %34
  %40 = icmp eq i64 %39, 2
  %41 = zext i1 %40 to i8
  %42 = getelementptr inbounds %struct.State, %struct.State* %0, i64 0, i32 2, i32 13
  store i8 %41, i8* %42, align 1
  ret %struct.Memory* %2
}

define %struct.Memory* @routine_popq__rbp(%struct.State* dereferenceable(3376), i64, %struct.Memory*) {
block_400488:
  %3 = getelementptr inbounds %struct.State, %struct.State* %0, i32 0, i32 6
  %4 = getelementptr inbounds %struct.GPR, %struct.GPR* %3, i32 0, i32 33
  %5 = getelementptr inbounds %struct.Reg, %struct.Reg* %4, i32 0, i32 0
  %PC = bitcast %union.anon* %5 to i64*
  %6 = getelementptr inbounds %struct.State, %struct.State* %0, i32 0, i32 6
  %7 = getelementptr inbounds %struct.GPR, %struct.GPR* %6, i32 0, i32 15
  %8 = getelementptr inbounds %struct.Reg, %struct.Reg* %7, i32 0, i32 0
  %RBP = bitcast %union.anon* %8 to i64*
  %9 = load i64, i64* %PC
  %10 = add i64 %9, 1
  store i64 %10, i64* %PC
  %11 = getelementptr inbounds %struct.State, %struct.State* %0, i64 0, i32 6, i32 13, i32 0, i32 0
  %12 = load i64, i64* %11, align 8
  %13 = add i64 %12, 8
  %14 = inttoptr i64 %12 to i64*
  %15 = load i64, i64* %14
  store i64 %15, i64* %RBP, align 8
  store i64 %13, i64* %11, align 8
  ret %struct.Memory* %2
}

define %struct.Memory* @routine_retq(%struct.State* dereferenceable(3376), i64, %struct.Memory*) {
block_400488:
  %3 = getelementptr inbounds %struct.State, %struct.State* %0, i32 0, i32 6
  %4 = getelementptr inbounds %struct.GPR, %struct.GPR* %3, i32 0, i32 33
  %5 = getelementptr inbounds %struct.Reg, %struct.Reg* %4, i32 0, i32 0
  %PC = bitcast %union.anon* %5 to i64*
  %6 = load i64, i64* %PC
  %7 = add i64 %6, 1
  store i64 %7, i64* %PC
  %8 = getelementptr inbounds %struct.State, %struct.State* %0, i64 0, i32 6, i32 33, i32 0, i32 0
  %9 = getelementptr inbounds %struct.State, %struct.State* %0, i64 0, i32 6, i32 13, i32 0, i32 0
  %10 = load i64, i64* %9, align 8
  %11 = inttoptr i64 %10 to i64*
  %12 = load i64, i64* %11
  store i64 %12, i64* %8, align 8
  %13 = add i64 %10, 8
  store i64 %13, i64* %9, align 8
  ret %struct.Memory* %2
}

attributes #0 = { argmemonly nounwind }
attributes #1 = { nounwind readnone }
attributes #2 = { alwaysinline }
