; ModuleID = 'mcsema/test.proposed.ll'
source_filename = "llvm-link"
target datalayout = "e-m:e-i64:64-f80:128-n8:16:32:64-S128"
target triple = "x86_64-pc-linux-gnu-elf"

%union.anon = type { i64 }
%seg_400370__init_type = type <{ [23 x i8] }>
%seg_400390__text_type = type <{ [354 x i8] }>
%seg_4004f4__fini_type = type <{ [9 x i8] }>
%seg_400500__rodata_type = type <{ [4 x i8] }>
%seg_400504__eh_frame_hdr_type = type <{ [52 x i8] }>
%seg_400538__eh_frame_type = type <{ [208 x i8] }>
%seg_601018__data_type = type <{ [16 x i8] }>
%__bss_start_type = type <{ [8 x i8] }>
%struct.State = type { %struct.ArchState, [32 x %union.VectorReg], %struct.ArithFlags, %union.anon, %struct.Segments, %struct.AddressSpace, %struct.GPR, %struct.X87Stack, %struct.MMX, %struct.FPUStatusFlags, %union.anon, %union.FPU, %struct.SegmentCaches }
%struct.ArchState = type { i32, i32, %union.anon }
%union.VectorReg = type { %union.vec512_t }
%union.vec512_t = type { %struct.uint64v8_t }
%struct.uint64v8_t = type { [8 x i64] }
%struct.ArithFlags = type { i8, i8, i8, i8, i8, i8, i8, i8, i8, i8, i8, i8, i8, i8, i8, i8 }
%struct.Segments = type { i16, %union.SegmentSelector, i16, %union.SegmentSelector, i16, %union.SegmentSelector, i16, %union.SegmentSelector, i16, %union.SegmentSelector, i16, %union.SegmentSelector }
%union.SegmentSelector = type { i16 }
%struct.AddressSpace = type { i64, %struct.Reg, i64, %struct.Reg, i64, %struct.Reg, i64, %struct.Reg, i64, %struct.Reg, i64, %struct.Reg }
%struct.Reg = type { %union.anon }
%struct.GPR = type { i64, %struct.Reg, i64, %struct.Reg, i64, %struct.Reg, i64, %struct.Reg, i64, %struct.Reg, i64, %struct.Reg, i64, %struct.Reg, i64, %struct.Reg, i64, %struct.Reg, i64, %struct.Reg, i64, %struct.Reg, i64, %struct.Reg, i64, %struct.Reg, i64, %struct.Reg, i64, %struct.Reg, i64, %struct.Reg, i64, %struct.Reg }
%struct.X87Stack = type { [8 x %struct.anon.3] }
%struct.anon.3 = type { i64, double }
%struct.MMX = type { [8 x %struct.anon.4] }
%struct.anon.4 = type { i64, %union.vec64_t }
%union.vec64_t = type { %struct.uint64v1_t }
%struct.uint64v1_t = type { [1 x i64] }
%struct.FPUStatusFlags = type { i8, i8, i8, i8, i8, i8, i8, i8, i8, i8, i8, i8, i8, i8, i8, i8, i8, i8, i8, i8, [4 x i8] }
%union.FPU = type { %struct.anon.13 }
%struct.anon.13 = type { %struct.FpuFXSAVE, [96 x i8] }
%struct.FpuFXSAVE = type { %union.SegmentSelector, %union.SegmentSelector, %union.FPUAbridgedTagWord, i8, i16, i32, %union.SegmentSelector, i16, i32, %union.SegmentSelector, i16, %union.FPUControlStatus, %union.FPUControlStatus, [8 x %struct.FPUStackElem], [16 x %union.vec128_t] }
%union.FPUAbridgedTagWord = type { i8 }
%union.FPUControlStatus = type { i32 }
%struct.FPUStackElem = type { %union.anon.11, [6 x i8] }
%union.anon.11 = type { %struct.float80_t }
%struct.float80_t = type { [10 x i8] }
%union.vec128_t = type { %struct.uint128v1_t }
%struct.uint128v1_t = type { [1 x i128] }
%struct.SegmentCaches = type { %struct.SegmentShadow, %struct.SegmentShadow, %struct.SegmentShadow, %struct.SegmentShadow, %struct.SegmentShadow, %struct.SegmentShadow }
%struct.SegmentShadow = type { %union.anon, i32, i32 }
%struct.Memory = type opaque

@switch.table = private unnamed_addr constant [4 x i32] [i32 2048, i32 3072, i32 0, i32 1024]
@DR0 = external global i64, align 8
@DR1 = external global i64, align 8
@DR2 = external global i64, align 8
@DR3 = external global i64, align 8
@DR4 = external global i64, align 8
@DR5 = external global i64, align 8
@DR6 = external global i64, align 8
@DR7 = external global i64, align 8
@gCR0 = external global %union.anon, align 1
@gCR1 = external global %union.anon, align 1
@gCR2 = external global %union.anon, align 1
@gCR3 = external global %union.anon, align 1
@gCR4 = external global %union.anon, align 1
@gCR8 = external global %union.anon, align 1
@seg_400370__init = internal constant %seg_400370__init_type <{ [23 x i8] c"H\83\EC\08H\8B\05}\0C \00H\85\C0t\02\FF\D0H\83\C4\08\C3" }>
@seg_400390__text = internal constant %seg_400390__text_type <{ [354 x i8] c"1\EDI\89\D1^H\89\E2H\83\E4\F0PTI\C7\C0\F0\04@\00H\C7\C1\80\04@\00H\C7\C7x\04@\00\FF\156\0C \00\F4\0F\1FD\00\00\F3\C3f.\0F\1F\84\00\00\00\00\00\0F\1F@\00U\B8(\10`\00H=(\10`\00H\89\E5t\17\B8\00\00\00\00H\85\C0t\0D]\BF(\10`\00\FF\E0\0F\1FD\00\00]\C3f\0F\1FD\00\00\BE(\10`\00UH\81\EE(\10`\00H\89\E5H\C1\FE\03H\89\F0H\C1\E8?H\01\C6H\D1\FEt\15\B8\00\00\00\00H\85\C0t\0B]\BF(\10`\00\FF\E0\0F\1F\00]\C3f\0F\1FD\00\00\80=\E1\0B \00\00u\17UH\89\E5\E8~\FF\FF\FF\C6\05\CF\0B \00\01]\C3\0F\1FD\00\00\F3\C3\0F\1F@\00f.\0F\1F\84\00\00\00\00\00UH\89\E5]\EB\89\90U\C3f\0F\1FD\00\00AWAVI\89\D7AUATL\8D%\BE\09 \00UH\8D-\BE\09 \00SA\89\FDI\89\F6L)\E5H\83\EC\08H\C1\FD\03\E8\BF\FE\FF\FFH\85\EDt 1\DB\0F\1F\84\00\00\00\00\00L\89\FAL\89\F6D\89\EFA\FF\14\DCH\83\C3\01H9\DDu\EAH\83\C4\08[]A\5CA]A^A_\C3\90f.\0F\1F\84\00\00\00\00\00\F3\C3" }>
@seg_4004f4__fini = internal constant %seg_4004f4__fini_type <{ [9 x i8] c"H\83\EC\08H\83\C4\08\C3" }>
@seg_400500__rodata = internal constant %seg_400500__rodata_type <{ [4 x i8] c"\01\00\02\00" }>
@seg_400504__eh_frame_hdr = internal constant %seg_400504__eh_frame_hdr_type <{ [52 x i8] c"\01\1B\03;0\00\00\00\05\00\00\00\8C\FE\FF\FFL\00\00\00\BC\FE\FF\FFx\00\00\00t\FF\FF\FF\8C\00\00\00|\FF\FF\FF\A4\00\00\00\EC\FF\FF\FF\EC\00\00\00" }>
@seg_400538__eh_frame = internal constant %seg_400538__eh_frame_type <{ [208 x i8] c"\14\00\00\00\00\00\00\00\01zR\00\01x\10\01\1B\0C\07\08\90\01\07\10\10\00\00\00\1C\00\00\008\FE\FF\FF+\00\00\00\00\00\00\00\14\00\00\00\00\00\00\00\01zR\00\01x\10\01\1B\0C\07\08\90\01\00\00\10\00\00\00\1C\00\00\00<\FE\FF\FF\02\00\00\00\00\00\00\00\14\00\00\000\00\00\00\E0\FE\FF\FF\02\00\00\00\00\00\00\00\00\00\00\00D\00\00\00H\00\00\00\D0\FE\FF\FFe\00\00\00\00B\0E\10\8F\02B\0E\18\8E\03E\0E \8D\04B\0E(\8C\05H\0E0\86\06H\0E8\83\07M\0E@r\0E8A\0E0A\0E(B\0E B\0E\18B\0E\10B\0E\08\00\10\00\00\00\90\00\00\00\F8\FE\FF\FF\02\00\00\00\00\00\00\00\00\00\00\00" }>
@seg_601018__data = internal global %seg_601018__data_type zeroinitializer
@__bss_start = global %__bss_start_type zeroinitializer
@0 = internal global i1 false

declare %struct.Memory* @__remill_error(%struct.State* dereferenceable(3376), i64, %struct.Memory*)

declare i32 @__remill_fpu_exception_test_and_clear(i32, i32)

; Function Attrs: argmemonly nounwind
declare void @llvm.lifetime.start(i64, i8* nocapture) #0

; Function Attrs: argmemonly nounwind
declare void @llvm.lifetime.end(i64, i8* nocapture) #0

; Function Attrs: nounwind readnone
declare i32 @llvm.ctpop.i32(i32) #1

; Function Attrs: nounwind readnone
declare i32 @llvm.bswap.i32(i32) #1

; Function Attrs: nounwind readnone
declare i64 @llvm.bswap.i64(i64) #1

; Function Attrs: nounwind readnone
declare i32 @llvm.cttz.i32(i32, i1) #1

; Function Attrs: nounwind readnone
declare i64 @llvm.cttz.i64(i64, i1) #1

; Function Attrs: nounwind readnone
declare i32 @llvm.ctlz.i32(i32, i1) #1

; Function Attrs: nounwind readnone
declare i64 @llvm.ctlz.i64(i64, i1) #1

; Function Attrs: argmemonly nounwind
declare void @llvm.memcpy.p0i8.p0i8.i64(i8* nocapture writeonly, i8* nocapture readonly, i64, i32, i1) #0

; Function Attrs: nounwind readnone
declare double @llvm.nearbyint.f64(double) #1

; Function Attrs: nounwind readnone
declare double @llvm.fabs.f64(double) #1

; Function Attrs: nounwind readnone
declare <4 x double> @llvm.nearbyint.v4f64(<4 x double>) #1

; Function Attrs: nounwind readnone
declare <4 x double> @llvm.fabs.v4f64(<4 x double>) #1

; Function Attrs: nounwind readnone
declare double @llvm.trunc.f64(double) #1

; Function Attrs: nounwind readnone
declare <4 x double> @llvm.trunc.v4f64(<4 x double>) #1

; Function Attrs: nounwind readnone
declare float @llvm.nearbyint.f32(float) #1

; Function Attrs: nounwind readnone
declare float @llvm.fabs.f32(float) #1

; Function Attrs: nounwind readnone
declare <4 x float> @llvm.nearbyint.v4f32(<4 x float>) #1

; Function Attrs: nounwind readnone
declare <4 x float> @llvm.fabs.v4f32(<4 x float>) #1

; Function Attrs: nounwind readnone
declare float @llvm.trunc.f32(float) #1

; Function Attrs: nounwind readnone
declare <4 x float> @llvm.trunc.v4f32(<4 x float>) #1

; Function Attrs: argmemonly nounwind
declare void @llvm.memset.p0i8.i64(i8* nocapture writeonly, i8, i64, i32, i1) #0

declare double @atan(double) local_unnamed_addr

declare double @cos(double) local_unnamed_addr

declare double @sin(double) local_unnamed_addr

declare double @sqrt(double) local_unnamed_addr

declare double @tan(double) local_unnamed_addr

declare extern_weak x86_64_sysvcc i64 @abort()

declare extern_weak x86_64_sysvcc i64 @abs(i64)

declare extern_weak x86_64_sysvcc i64 @asin(i64)

declare extern_weak x86_64_sysvcc i64 @atof(i64)

declare extern_weak x86_64_sysvcc i64 @atoi(i64)

declare extern_weak x86_64_sysvcc i64 @atol(i64)

declare extern_weak x86_64_sysvcc i64 @calloc(i64, i64)

declare extern_weak x86_64_sysvcc i64 @clock()

declare extern_weak x86_64_sysvcc i64 @cosf(i64)

declare extern_weak x86_64_sysvcc i64 @exit(i64)

declare extern_weak x86_64_sysvcc i64 @exp(i64)

declare extern_weak x86_64_sysvcc i64 @fflush(i64)

declare extern_weak x86_64_sysvcc i64 @floor(i64)

declare extern_weak x86_64_sysvcc i64 @fprintf(i64, i64, i64, i64, i64, i64, i64, i64, i64, i64, i64, i64, i64, i64, i64, i64)

declare extern_weak x86_64_sysvcc i64 @fputs(i64, i64)

declare extern_weak x86_64_sysvcc i64 @free(i64)

declare extern_weak x86_64_sysvcc i64 @fwrite(i64, i64, i64, i64)

declare extern_weak x86_64_sysvcc i64 @getchar()

declare extern_weak x86_64_sysvcc i64 @gettimeofday(i64, i64)

declare extern_weak x86_64_sysvcc i64 @__isoc99_fscanf(i64, i64, i64, i64, i64, i64, i64, i64, i64, i64, i64, i64, i64, i64, i64, i64)

declare extern_weak x86_64_sysvcc i64 @__isoc99_scanf(i64, i64, i64, i64, i64, i64, i64, i64, i64, i64, i64, i64, i64, i64, i64, i64)

declare extern_weak x86_64_sysvcc i64 @__isoc99_sscanf(i64, i64, i64, i64, i64, i64, i64, i64, i64, i64, i64, i64, i64, i64, i64, i64)

declare extern_weak x86_64_sysvcc i64 @log(i64)

declare extern_weak x86_64_sysvcc i64 @lrand48()

declare extern_weak x86_64_sysvcc i64 @malloc(i64)

declare extern_weak x86_64_sysvcc i64 @memalign(i64, i64)

declare extern_weak x86_64_sysvcc i64 @memcpy(i64, i64, i64)

declare extern_weak x86_64_sysvcc i64 @memset(i64, i64, i64)

declare extern_weak x86_64_sysvcc i64 @perror(i64)

declare extern_weak x86_64_sysvcc i64 @posix_memalign(i64, i64, i64)

declare extern_weak x86_64_sysvcc i64 @pow(i64, i64)

declare extern_weak x86_64_sysvcc i64 @printf(i64, i64, i64, i64, i64, i64, i64, i64, i64, i64, i64, i64, i64, i64, i64, i64)

declare extern_weak x86_64_sysvcc i64 @putchar(i64)

declare extern_weak x86_64_sysvcc i64 @puts(i64)

declare extern_weak x86_64_sysvcc i64 @rand()

declare extern_weak x86_64_sysvcc i64 @random()

declare extern_weak x86_64_sysvcc i64 @realloc(i64, i64)

declare extern_weak x86_64_sysvcc i64 @seed48(i64)

declare extern_weak x86_64_sysvcc i64 @sinf(i64)

declare extern_weak x86_64_sysvcc i64 @sprintf(i64, i64, i64, i64, i64, i64, i64, i64, i64, i64, i64, i64, i64, i64, i64, i64)

declare extern_weak x86_64_sysvcc i64 @srand(i64)

declare extern_weak x86_64_sysvcc i64 @strcat(i64, i64)

declare extern_weak x86_64_sysvcc i64 @strcmp(i64, i64)

declare extern_weak x86_64_sysvcc i64 @strcpy(i64, i64)

declare extern_weak x86_64_sysvcc i64 @strdup(i64)

declare extern_weak x86_64_sysvcc i64 @strlen(i64)

declare extern_weak x86_64_sysvcc i64 @strncmp(i64, i64, i64)

declare extern_weak x86_64_sysvcc i64 @strtoll(i64, i64, i64)

declare extern_weak x86_64_sysvcc i64 @time(i64)

declare extern_weak x86_64_sysvcc i64 @ungetc(i64, i64)

declare extern_weak x86_64_sysvcc i64 @pthread_join(i64, i64)

declare extern_weak x86_64_sysvcc i64 @pthread_create(i64, i64, i64, i64)

declare %struct.Memory* @__remill_function_call(%struct.State* dereferenceable(3376), i64, %struct.Memory*)

declare %struct.Memory* @ext_sqrt(%struct.State* noalias dereferenceable(3376), i64, %struct.Memory* noalias)

declare %struct.Memory* @ext_atan(%struct.State* noalias dereferenceable(3376), i64, %struct.Memory* noalias)

declare %struct.Memory* @ext_cos(%struct.State* noalias dereferenceable(3376), i64, %struct.Memory* noalias)

declare %struct.Memory* @ext_tan(%struct.State* noalias dereferenceable(3376), i64, %struct.Memory* noalias)

declare %struct.Memory* @ext_sin(%struct.State* noalias dereferenceable(3376), i64, %struct.Memory* noalias)

; Function Attrs: alwaysinline
define %struct.Memory* @_ZN30custom_mixed_multiple_variableItE8do_shiftEttttt(%struct.State* noalias, i64, %struct.Memory* noalias) #2 {
entry:
  %3 = getelementptr inbounds %struct.State, %struct.State* %0, i64 0, i32 6, i32 33, i32 0, i32 0
  store i64 %1, i64* %3, align 8
  %BRANCH_TAKEN = alloca i8, align 1
  store i8 0, i8* %BRANCH_TAKEN, align 1
  %MEMORY = alloca %struct.Memory*, align 8
  store %struct.Memory* %2, %struct.Memory** %MEMORY, align 8
  %loadMem_4106c0 = load %struct.Memory*, %struct.Memory** %MEMORY
  %4 = getelementptr inbounds %struct.State, %struct.State* %0, i32 0, i32 6
  %5 = getelementptr inbounds %struct.GPR, %struct.GPR* %4, i32 0, i32 33
  %6 = getelementptr inbounds %struct.Reg, %struct.Reg* %5, i32 0, i32 0
  %PC.i = bitcast %union.anon* %6 to i64*
  %7 = getelementptr inbounds %struct.State, %struct.State* %0, i32 0, i32 6
  %8 = getelementptr inbounds %struct.GPR, %struct.GPR* %7, i32 0, i32 15
  %9 = getelementptr inbounds %struct.Reg, %struct.Reg* %8, i32 0, i32 0
  %RBP.i = bitcast %union.anon* %9 to i64*
  %10 = load i64, i64* %RBP.i
  %11 = load i64, i64* %PC.i
  %12 = add i64 %11, 1
  store i64 %12, i64* %PC.i
  %13 = getelementptr inbounds %struct.State, %struct.State* %0, i64 0, i32 6, i32 13, i32 0, i32 0
  %14 = load i64, i64* %13, align 8
  %15 = add i64 %14, -8
  %16 = inttoptr i64 %15 to i64*
  store i64 %10, i64* %16
  store i64 %15, i64* %13, align 8
  store %struct.Memory* %loadMem_4106c0, %struct.Memory** %MEMORY
  %loadMem_4106c1 = load %struct.Memory*, %struct.Memory** %MEMORY
  %17 = getelementptr inbounds %struct.State, %struct.State* %0, i32 0, i32 6
  %18 = getelementptr inbounds %struct.GPR, %struct.GPR* %17, i32 0, i32 33
  %19 = getelementptr inbounds %struct.Reg, %struct.Reg* %18, i32 0, i32 0
  %PC.i10 = bitcast %union.anon* %19 to i64*
  %20 = getelementptr inbounds %struct.State, %struct.State* %0, i32 0, i32 6
  %21 = getelementptr inbounds %struct.GPR, %struct.GPR* %20, i32 0, i32 13
  %22 = getelementptr inbounds %struct.Reg, %struct.Reg* %21, i32 0, i32 0
  %RSP.i = bitcast %union.anon* %22 to i64*
  %23 = getelementptr inbounds %struct.State, %struct.State* %0, i32 0, i32 6
  %24 = getelementptr inbounds %struct.GPR, %struct.GPR* %23, i32 0, i32 15
  %25 = getelementptr inbounds %struct.Reg, %struct.Reg* %24, i32 0, i32 0
  %RBP.i11 = bitcast %union.anon* %25 to i64*
  %26 = load i64, i64* %RSP.i
  %27 = load i64, i64* %PC.i10
  %28 = add i64 %27, 3
  store i64 %28, i64* %PC.i10
  store i64 %26, i64* %RBP.i11, align 8
  store %struct.Memory* %loadMem_4106c1, %struct.Memory** %MEMORY
  %loadMem_4106c4 = load %struct.Memory*, %struct.Memory** %MEMORY
  %29 = getelementptr inbounds %struct.State, %struct.State* %0, i32 0, i32 6
  %30 = getelementptr inbounds %struct.GPR, %struct.GPR* %29, i32 0, i32 33
  %31 = getelementptr inbounds %struct.Reg, %struct.Reg* %30, i32 0, i32 0
  %PC.i56 = bitcast %union.anon* %31 to i64*
  %32 = getelementptr inbounds %struct.State, %struct.State* %0, i32 0, i32 6
  %33 = getelementptr inbounds %struct.GPR, %struct.GPR* %32, i32 0, i32 3
  %34 = getelementptr inbounds %struct.Reg, %struct.Reg* %33, i32 0, i32 0
  %RBX.i57 = bitcast %union.anon* %34 to i64*
  %35 = load i64, i64* %RBX.i57
  %36 = load i64, i64* %PC.i56
  %37 = add i64 %36, 1
  store i64 %37, i64* %PC.i56
  %38 = getelementptr inbounds %struct.State, %struct.State* %0, i64 0, i32 6, i32 13, i32 0, i32 0
  %39 = load i64, i64* %38, align 8
  %40 = add i64 %39, -8
  %41 = inttoptr i64 %40 to i64*
  store i64 %35, i64* %41
  store i64 %40, i64* %38, align 8
  store %struct.Memory* %loadMem_4106c4, %struct.Memory** %MEMORY
  %loadMem_4106c5 = load %struct.Memory*, %struct.Memory** %MEMORY
  %42 = getelementptr inbounds %struct.State, %struct.State* %0, i32 0, i32 6
  %43 = getelementptr inbounds %struct.GPR, %struct.GPR* %42, i32 0, i32 33
  %44 = getelementptr inbounds %struct.Reg, %struct.Reg* %43, i32 0, i32 0
  %PC.i54 = bitcast %union.anon* %44 to i64*
  %45 = getelementptr inbounds %struct.State, %struct.State* %0, i32 0, i32 6
  %46 = getelementptr inbounds %struct.GPR, %struct.GPR* %45, i32 0, i32 1
  %47 = getelementptr inbounds %struct.Reg, %struct.Reg* %46, i32 0, i32 0
  %AX.i55 = bitcast %union.anon* %47 to i16*
  %48 = getelementptr inbounds %struct.State, %struct.State* %0, i32 0, i32 6
  %49 = getelementptr inbounds %struct.GPR, %struct.GPR* %48, i32 0, i32 17
  %50 = getelementptr inbounds %struct.Reg, %struct.Reg* %49, i32 0, i32 0
  %R8W.i = bitcast %union.anon* %50 to i16*
  %51 = load i16, i16* %R8W.i
  %52 = zext i16 %51 to i64
  %53 = load i64, i64* %PC.i54
  %54 = add i64 %53, 4
  store i64 %54, i64* %PC.i54
  store i16 %51, i16* %AX.i55, align 2
  store %struct.Memory* %loadMem_4106c5, %struct.Memory** %MEMORY
  %loadMem_4106c9 = load %struct.Memory*, %struct.Memory** %MEMORY
  %55 = getelementptr inbounds %struct.State, %struct.State* %0, i32 0, i32 6
  %56 = getelementptr inbounds %struct.GPR, %struct.GPR* %55, i32 0, i32 33
  %57 = getelementptr inbounds %struct.Reg, %struct.Reg* %56, i32 0, i32 0
  %PC.i51 = bitcast %union.anon* %57 to i64*
  %58 = getelementptr inbounds %struct.State, %struct.State* %0, i32 0, i32 6
  %59 = getelementptr inbounds %struct.GPR, %struct.GPR* %58, i32 0, i32 5
  %60 = getelementptr inbounds %struct.Reg, %struct.Reg* %59, i32 0, i32 0
  %CX.i52 = bitcast %union.anon* %60 to i16*
  %61 = getelementptr inbounds %struct.State, %struct.State* %0, i32 0, i32 6
  %62 = getelementptr inbounds %struct.GPR, %struct.GPR* %61, i32 0, i32 19
  %63 = getelementptr inbounds %struct.Reg, %struct.Reg* %62, i32 0, i32 0
  %R9W.i53 = bitcast %union.anon* %63 to i16*
  %64 = load i16, i16* %CX.i52
  %65 = zext i16 %64 to i64
  %66 = load i64, i64* %PC.i51
  %67 = add i64 %66, 4
  store i64 %67, i64* %PC.i51
  store i16 %64, i16* %R9W.i53, align 2
  store %struct.Memory* %loadMem_4106c9, %struct.Memory** %MEMORY
  %loadMem_4106cd = load %struct.Memory*, %struct.Memory** %MEMORY
  %68 = getelementptr inbounds %struct.State, %struct.State* %0, i32 0, i32 6
  %69 = getelementptr inbounds %struct.GPR, %struct.GPR* %68, i32 0, i32 33
  %70 = getelementptr inbounds %struct.Reg, %struct.Reg* %69, i32 0, i32 0
  %PC.i49 = bitcast %union.anon* %70 to i64*
  %71 = getelementptr inbounds %struct.State, %struct.State* %0, i32 0, i32 6
  %72 = getelementptr inbounds %struct.GPR, %struct.GPR* %71, i32 0, i32 7
  %73 = getelementptr inbounds %struct.Reg, %struct.Reg* %72, i32 0, i32 0
  %DX.i = bitcast %union.anon* %73 to i16*
  %74 = getelementptr inbounds %struct.State, %struct.State* %0, i32 0, i32 6
  %75 = getelementptr inbounds %struct.GPR, %struct.GPR* %74, i32 0, i32 21
  %76 = getelementptr inbounds %struct.Reg, %struct.Reg* %75, i32 0, i32 0
  %R10W.i50 = bitcast %union.anon* %76 to i16*
  %77 = load i16, i16* %DX.i
  %78 = zext i16 %77 to i64
  %79 = load i64, i64* %PC.i49
  %80 = add i64 %79, 4
  store i64 %80, i64* %PC.i49
  store i16 %77, i16* %R10W.i50, align 2
  store %struct.Memory* %loadMem_4106cd, %struct.Memory** %MEMORY
  %loadMem_4106d1 = load %struct.Memory*, %struct.Memory** %MEMORY
  %81 = getelementptr inbounds %struct.State, %struct.State* %0, i32 0, i32 6
  %82 = getelementptr inbounds %struct.GPR, %struct.GPR* %81, i32 0, i32 33
  %83 = getelementptr inbounds %struct.Reg, %struct.Reg* %82, i32 0, i32 0
  %PC.i47 = bitcast %union.anon* %83 to i64*
  %84 = getelementptr inbounds %struct.State, %struct.State* %0, i32 0, i32 6
  %85 = getelementptr inbounds %struct.GPR, %struct.GPR* %84, i32 0, i32 9
  %86 = getelementptr inbounds %struct.Reg, %struct.Reg* %85, i32 0, i32 0
  %SI.i = bitcast %union.anon* %86 to i16*
  %87 = getelementptr inbounds %struct.State, %struct.State* %0, i32 0, i32 6
  %88 = getelementptr inbounds %struct.GPR, %struct.GPR* %87, i32 0, i32 23
  %89 = getelementptr inbounds %struct.Reg, %struct.Reg* %88, i32 0, i32 0
  %R11W.i48 = bitcast %union.anon* %89 to i16*
  %90 = load i16, i16* %SI.i
  %91 = zext i16 %90 to i64
  %92 = load i64, i64* %PC.i47
  %93 = add i64 %92, 4
  store i64 %93, i64* %PC.i47
  store i16 %90, i16* %R11W.i48, align 2
  store %struct.Memory* %loadMem_4106d1, %struct.Memory** %MEMORY
  %loadMem_4106d5 = load %struct.Memory*, %struct.Memory** %MEMORY
  %94 = getelementptr inbounds %struct.State, %struct.State* %0, i32 0, i32 6
  %95 = getelementptr inbounds %struct.GPR, %struct.GPR* %94, i32 0, i32 33
  %96 = getelementptr inbounds %struct.Reg, %struct.Reg* %95, i32 0, i32 0
  %PC.i45 = bitcast %union.anon* %96 to i64*
  %97 = getelementptr inbounds %struct.State, %struct.State* %0, i32 0, i32 6
  %98 = getelementptr inbounds %struct.GPR, %struct.GPR* %97, i32 0, i32 3
  %99 = getelementptr inbounds %struct.Reg, %struct.Reg* %98, i32 0, i32 0
  %BX.i46 = bitcast %union.anon* %99 to i16*
  %100 = getelementptr inbounds %struct.State, %struct.State* %0, i32 0, i32 6
  %101 = getelementptr inbounds %struct.GPR, %struct.GPR* %100, i32 0, i32 11
  %102 = getelementptr inbounds %struct.Reg, %struct.Reg* %101, i32 0, i32 0
  %DI.i = bitcast %union.anon* %102 to i16*
  %103 = load i16, i16* %DI.i
  %104 = zext i16 %103 to i64
  %105 = load i64, i64* %PC.i45
  %106 = add i64 %105, 3
  store i64 %106, i64* %PC.i45
  store i16 %103, i16* %BX.i46, align 2
  store %struct.Memory* %loadMem_4106d5, %struct.Memory** %MEMORY
  %loadMem_4106d8 = load %struct.Memory*, %struct.Memory** %MEMORY
  %107 = getelementptr inbounds %struct.State, %struct.State* %0, i32 0, i32 6
  %108 = getelementptr inbounds %struct.GPR, %struct.GPR* %107, i32 0, i32 33
  %109 = getelementptr inbounds %struct.Reg, %struct.Reg* %108, i32 0, i32 0
  %PC.i43 = bitcast %union.anon* %109 to i64*
  %110 = getelementptr inbounds %struct.State, %struct.State* %0, i32 0, i32 6
  %111 = getelementptr inbounds %struct.GPR, %struct.GPR* %110, i32 0, i32 3
  %112 = getelementptr inbounds %struct.Reg, %struct.Reg* %111, i32 0, i32 0
  %BX.i = bitcast %union.anon* %112 to i16*
  %113 = getelementptr inbounds %struct.State, %struct.State* %0, i32 0, i32 6
  %114 = getelementptr inbounds %struct.GPR, %struct.GPR* %113, i32 0, i32 15
  %115 = getelementptr inbounds %struct.Reg, %struct.Reg* %114, i32 0, i32 0
  %RBP.i44 = bitcast %union.anon* %115 to i64*
  %116 = load i64, i64* %RBP.i44
  %117 = sub i64 %116, 10
  %118 = load i16, i16* %BX.i
  %119 = zext i16 %118 to i64
  %120 = load i64, i64* %PC.i43
  %121 = add i64 %120, 4
  store i64 %121, i64* %PC.i43
  %122 = inttoptr i64 %117 to i16*
  store i16 %118, i16* %122
  store %struct.Memory* %loadMem_4106d8, %struct.Memory** %MEMORY
  %loadMem_4106dc = load %struct.Memory*, %struct.Memory** %MEMORY
  %123 = getelementptr inbounds %struct.State, %struct.State* %0, i32 0, i32 6
  %124 = getelementptr inbounds %struct.GPR, %struct.GPR* %123, i32 0, i32 33
  %125 = getelementptr inbounds %struct.Reg, %struct.Reg* %124, i32 0, i32 0
  %PC.i41 = bitcast %union.anon* %125 to i64*
  %126 = getelementptr inbounds %struct.State, %struct.State* %0, i32 0, i32 6
  %127 = getelementptr inbounds %struct.GPR, %struct.GPR* %126, i32 0, i32 23
  %128 = getelementptr inbounds %struct.Reg, %struct.Reg* %127, i32 0, i32 0
  %R11W.i = bitcast %union.anon* %128 to i16*
  %129 = getelementptr inbounds %struct.State, %struct.State* %0, i32 0, i32 6
  %130 = getelementptr inbounds %struct.GPR, %struct.GPR* %129, i32 0, i32 15
  %131 = getelementptr inbounds %struct.Reg, %struct.Reg* %130, i32 0, i32 0
  %RBP.i42 = bitcast %union.anon* %131 to i64*
  %132 = load i64, i64* %RBP.i42
  %133 = sub i64 %132, 12
  %134 = load i16, i16* %R11W.i
  %135 = zext i16 %134 to i64
  %136 = load i64, i64* %PC.i41
  %137 = add i64 %136, 5
  store i64 %137, i64* %PC.i41
  %138 = inttoptr i64 %133 to i16*
  store i16 %134, i16* %138
  store %struct.Memory* %loadMem_4106dc, %struct.Memory** %MEMORY
  %loadMem_4106e1 = load %struct.Memory*, %struct.Memory** %MEMORY
  %139 = getelementptr inbounds %struct.State, %struct.State* %0, i32 0, i32 6
  %140 = getelementptr inbounds %struct.GPR, %struct.GPR* %139, i32 0, i32 33
  %141 = getelementptr inbounds %struct.Reg, %struct.Reg* %140, i32 0, i32 0
  %PC.i39 = bitcast %union.anon* %141 to i64*
  %142 = getelementptr inbounds %struct.State, %struct.State* %0, i32 0, i32 6
  %143 = getelementptr inbounds %struct.GPR, %struct.GPR* %142, i32 0, i32 21
  %144 = getelementptr inbounds %struct.Reg, %struct.Reg* %143, i32 0, i32 0
  %R10W.i = bitcast %union.anon* %144 to i16*
  %145 = getelementptr inbounds %struct.State, %struct.State* %0, i32 0, i32 6
  %146 = getelementptr inbounds %struct.GPR, %struct.GPR* %145, i32 0, i32 15
  %147 = getelementptr inbounds %struct.Reg, %struct.Reg* %146, i32 0, i32 0
  %RBP.i40 = bitcast %union.anon* %147 to i64*
  %148 = load i64, i64* %RBP.i40
  %149 = sub i64 %148, 14
  %150 = load i16, i16* %R10W.i
  %151 = zext i16 %150 to i64
  %152 = load i64, i64* %PC.i39
  %153 = add i64 %152, 5
  store i64 %153, i64* %PC.i39
  %154 = inttoptr i64 %149 to i16*
  store i16 %150, i16* %154
  store %struct.Memory* %loadMem_4106e1, %struct.Memory** %MEMORY
  %loadMem_4106e6 = load %struct.Memory*, %struct.Memory** %MEMORY
  %155 = getelementptr inbounds %struct.State, %struct.State* %0, i32 0, i32 6
  %156 = getelementptr inbounds %struct.GPR, %struct.GPR* %155, i32 0, i32 33
  %157 = getelementptr inbounds %struct.Reg, %struct.Reg* %156, i32 0, i32 0
  %PC.i36 = bitcast %union.anon* %157 to i64*
  %158 = getelementptr inbounds %struct.State, %struct.State* %0, i32 0, i32 6
  %159 = getelementptr inbounds %struct.GPR, %struct.GPR* %158, i32 0, i32 19
  %160 = getelementptr inbounds %struct.Reg, %struct.Reg* %159, i32 0, i32 0
  %R9W.i37 = bitcast %union.anon* %160 to i16*
  %161 = getelementptr inbounds %struct.State, %struct.State* %0, i32 0, i32 6
  %162 = getelementptr inbounds %struct.GPR, %struct.GPR* %161, i32 0, i32 15
  %163 = getelementptr inbounds %struct.Reg, %struct.Reg* %162, i32 0, i32 0
  %RBP.i38 = bitcast %union.anon* %163 to i64*
  %164 = load i64, i64* %RBP.i38
  %165 = sub i64 %164, 16
  %166 = load i16, i16* %R9W.i37
  %167 = zext i16 %166 to i64
  %168 = load i64, i64* %PC.i36
  %169 = add i64 %168, 5
  store i64 %169, i64* %PC.i36
  %170 = inttoptr i64 %165 to i16*
  store i16 %166, i16* %170
  store %struct.Memory* %loadMem_4106e6, %struct.Memory** %MEMORY
  %loadMem_4106eb = load %struct.Memory*, %struct.Memory** %MEMORY
  %171 = getelementptr inbounds %struct.State, %struct.State* %0, i32 0, i32 6
  %172 = getelementptr inbounds %struct.GPR, %struct.GPR* %171, i32 0, i32 33
  %173 = getelementptr inbounds %struct.Reg, %struct.Reg* %172, i32 0, i32 0
  %PC.i34 = bitcast %union.anon* %173 to i64*
  %174 = getelementptr inbounds %struct.State, %struct.State* %0, i32 0, i32 6
  %175 = getelementptr inbounds %struct.GPR, %struct.GPR* %174, i32 0, i32 1
  %176 = getelementptr inbounds %struct.Reg, %struct.Reg* %175, i32 0, i32 0
  %AX.i = bitcast %union.anon* %176 to i16*
  %177 = getelementptr inbounds %struct.State, %struct.State* %0, i32 0, i32 6
  %178 = getelementptr inbounds %struct.GPR, %struct.GPR* %177, i32 0, i32 15
  %179 = getelementptr inbounds %struct.Reg, %struct.Reg* %178, i32 0, i32 0
  %RBP.i35 = bitcast %union.anon* %179 to i64*
  %180 = load i64, i64* %RBP.i35
  %181 = sub i64 %180, 18
  %182 = load i16, i16* %AX.i
  %183 = zext i16 %182 to i64
  %184 = load i64, i64* %PC.i34
  %185 = add i64 %184, 4
  store i64 %185, i64* %PC.i34
  %186 = inttoptr i64 %181 to i16*
  store i16 %182, i16* %186
  store %struct.Memory* %loadMem_4106eb, %struct.Memory** %MEMORY
  %loadMem_4106ef = load %struct.Memory*, %struct.Memory** %MEMORY
  %187 = getelementptr inbounds %struct.State, %struct.State* %0, i32 0, i32 6
  %188 = getelementptr inbounds %struct.GPR, %struct.GPR* %187, i32 0, i32 33
  %189 = getelementptr inbounds %struct.Reg, %struct.Reg* %188, i32 0, i32 0
  %PC.i31 = bitcast %union.anon* %189 to i64*
  %190 = getelementptr inbounds %struct.State, %struct.State* %0, i32 0, i32 6
  %191 = getelementptr inbounds %struct.GPR, %struct.GPR* %190, i32 0, i32 5
  %192 = getelementptr inbounds %struct.Reg, %struct.Reg* %191, i32 0, i32 0
  %RCX.i32 = bitcast %union.anon* %192 to i64*
  %193 = getelementptr inbounds %struct.State, %struct.State* %0, i32 0, i32 6
  %194 = getelementptr inbounds %struct.GPR, %struct.GPR* %193, i32 0, i32 15
  %195 = getelementptr inbounds %struct.Reg, %struct.Reg* %194, i32 0, i32 0
  %RBP.i33 = bitcast %union.anon* %195 to i64*
  %196 = load i64, i64* %RBP.i33
  %197 = sub i64 %196, 10
  %198 = load i64, i64* %PC.i31
  %199 = add i64 %198, 4
  store i64 %199, i64* %PC.i31
  %200 = inttoptr i64 %197 to i16*
  %201 = load i16, i16* %200
  %202 = zext i16 %201 to i64
  store i64 %202, i64* %RCX.i32, align 8
  store %struct.Memory* %loadMem_4106ef, %struct.Memory** %MEMORY
  %loadMem_4106f3 = load %struct.Memory*, %struct.Memory** %MEMORY
  %203 = getelementptr inbounds %struct.State, %struct.State* %0, i32 0, i32 6
  %204 = getelementptr inbounds %struct.GPR, %struct.GPR* %203, i32 0, i32 33
  %205 = getelementptr inbounds %struct.Reg, %struct.Reg* %204, i32 0, i32 0
  %PC.i28 = bitcast %union.anon* %205 to i64*
  %206 = getelementptr inbounds %struct.State, %struct.State* %0, i32 0, i32 6
  %207 = getelementptr inbounds %struct.GPR, %struct.GPR* %206, i32 0, i32 7
  %208 = getelementptr inbounds %struct.Reg, %struct.Reg* %207, i32 0, i32 0
  %RDX.i29 = bitcast %union.anon* %208 to i64*
  %209 = getelementptr inbounds %struct.State, %struct.State* %0, i32 0, i32 6
  %210 = getelementptr inbounds %struct.GPR, %struct.GPR* %209, i32 0, i32 15
  %211 = getelementptr inbounds %struct.Reg, %struct.Reg* %210, i32 0, i32 0
  %RBP.i30 = bitcast %union.anon* %211 to i64*
  %212 = load i64, i64* %RBP.i30
  %213 = sub i64 %212, 12
  %214 = load i64, i64* %PC.i28
  %215 = add i64 %214, 4
  store i64 %215, i64* %PC.i28
  %216 = inttoptr i64 %213 to i16*
  %217 = load i16, i16* %216
  %218 = zext i16 %217 to i64
  store i64 %218, i64* %RDX.i29, align 8
  store %struct.Memory* %loadMem_4106f3, %struct.Memory** %MEMORY
  %loadMem_4106f7 = load %struct.Memory*, %struct.Memory** %MEMORY
  %219 = getelementptr inbounds %struct.State, %struct.State* %0, i32 0, i32 6
  %220 = getelementptr inbounds %struct.GPR, %struct.GPR* %219, i32 0, i32 33
  %221 = getelementptr inbounds %struct.Reg, %struct.Reg* %220, i32 0, i32 0
  %PC.i25 = bitcast %union.anon* %221 to i64*
  %222 = getelementptr inbounds %struct.State, %struct.State* %0, i32 0, i32 6
  %223 = getelementptr inbounds %struct.GPR, %struct.GPR* %222, i32 0, i32 7
  %224 = getelementptr inbounds %struct.Reg, %struct.Reg* %223, i32 0, i32 0
  %EDX.i26 = bitcast %union.anon* %224 to i32*
  %225 = getelementptr inbounds %struct.State, %struct.State* %0, i32 0, i32 6
  %226 = getelementptr inbounds %struct.GPR, %struct.GPR* %225, i32 0, i32 5
  %227 = getelementptr inbounds %struct.Reg, %struct.Reg* %226, i32 0, i32 0
  %RCX.i27 = bitcast %union.anon* %227 to i64*
  %228 = load i64, i64* %RCX.i27
  %229 = load i32, i32* %EDX.i26
  %230 = zext i32 %229 to i64
  %231 = load i64, i64* %PC.i25
  %232 = add i64 %231, 2
  store i64 %232, i64* %PC.i25
  %233 = trunc i64 %228 to i32
  %234 = add i32 %229, %233
  %235 = zext i32 %234 to i64
  store i64 %235, i64* %RCX.i27, align 8
  %236 = icmp ult i32 %234, %233
  %237 = icmp ult i32 %234, %229
  %238 = or i1 %236, %237
  %239 = zext i1 %238 to i8
  %240 = getelementptr inbounds %struct.State, %struct.State* %0, i64 0, i32 2, i32 1
  store i8 %239, i8* %240, align 1
  %241 = and i32 %234, 255
  %242 = call i32 @llvm.ctpop.i32(i32 %241)
  %243 = trunc i32 %242 to i8
  %244 = and i8 %243, 1
  %245 = xor i8 %244, 1
  %246 = getelementptr inbounds %struct.State, %struct.State* %0, i64 0, i32 2, i32 3
  store i8 %245, i8* %246, align 1
  %247 = xor i64 %230, %228
  %248 = trunc i64 %247 to i32
  %249 = xor i32 %248, %234
  %250 = lshr i32 %249, 4
  %251 = trunc i32 %250 to i8
  %252 = and i8 %251, 1
  %253 = getelementptr inbounds %struct.State, %struct.State* %0, i64 0, i32 2, i32 5
  store i8 %252, i8* %253, align 1
  %254 = icmp eq i32 %234, 0
  %255 = zext i1 %254 to i8
  %256 = getelementptr inbounds %struct.State, %struct.State* %0, i64 0, i32 2, i32 7
  store i8 %255, i8* %256, align 1
  %257 = lshr i32 %234, 31
  %258 = trunc i32 %257 to i8
  %259 = getelementptr inbounds %struct.State, %struct.State* %0, i64 0, i32 2, i32 9
  store i8 %258, i8* %259, align 1
  %260 = lshr i32 %233, 31
  %261 = lshr i32 %229, 31
  %262 = xor i32 %257, %260
  %263 = xor i32 %257, %261
  %264 = add i32 %262, %263
  %265 = icmp eq i32 %264, 2
  %266 = zext i1 %265 to i8
  %267 = getelementptr inbounds %struct.State, %struct.State* %0, i64 0, i32 2, i32 13
  store i8 %266, i8* %267, align 1
  store %struct.Memory* %loadMem_4106f7, %struct.Memory** %MEMORY
  %loadMem_4106f9 = load %struct.Memory*, %struct.Memory** %MEMORY
  %268 = getelementptr inbounds %struct.State, %struct.State* %0, i32 0, i32 6
  %269 = getelementptr inbounds %struct.GPR, %struct.GPR* %268, i32 0, i32 33
  %270 = getelementptr inbounds %struct.Reg, %struct.Reg* %269, i32 0, i32 0
  %PC.i22 = bitcast %union.anon* %270 to i64*
  %271 = getelementptr inbounds %struct.State, %struct.State* %0, i32 0, i32 6
  %272 = getelementptr inbounds %struct.GPR, %struct.GPR* %271, i32 0, i32 7
  %273 = getelementptr inbounds %struct.Reg, %struct.Reg* %272, i32 0, i32 0
  %RDX.i23 = bitcast %union.anon* %273 to i64*
  %274 = getelementptr inbounds %struct.State, %struct.State* %0, i32 0, i32 6
  %275 = getelementptr inbounds %struct.GPR, %struct.GPR* %274, i32 0, i32 15
  %276 = getelementptr inbounds %struct.Reg, %struct.Reg* %275, i32 0, i32 0
  %RBP.i24 = bitcast %union.anon* %276 to i64*
  %277 = load i64, i64* %RBP.i24
  %278 = sub i64 %277, 14
  %279 = load i64, i64* %PC.i22
  %280 = add i64 %279, 4
  store i64 %280, i64* %PC.i22
  %281 = inttoptr i64 %278 to i16*
  %282 = load i16, i16* %281
  %283 = zext i16 %282 to i64
  store i64 %283, i64* %RDX.i23, align 8
  store %struct.Memory* %loadMem_4106f9, %struct.Memory** %MEMORY
  %loadMem_4106fd = load %struct.Memory*, %struct.Memory** %MEMORY
  %284 = getelementptr inbounds %struct.State, %struct.State* %0, i32 0, i32 6
  %285 = getelementptr inbounds %struct.GPR, %struct.GPR* %284, i32 0, i32 33
  %286 = getelementptr inbounds %struct.Reg, %struct.Reg* %285, i32 0, i32 0
  %PC.i19 = bitcast %union.anon* %286 to i64*
  %287 = getelementptr inbounds %struct.State, %struct.State* %0, i32 0, i32 6
  %288 = getelementptr inbounds %struct.GPR, %struct.GPR* %287, i32 0, i32 9
  %289 = getelementptr inbounds %struct.Reg, %struct.Reg* %288, i32 0, i32 0
  %RSI.i20 = bitcast %union.anon* %289 to i64*
  %290 = getelementptr inbounds %struct.State, %struct.State* %0, i32 0, i32 6
  %291 = getelementptr inbounds %struct.GPR, %struct.GPR* %290, i32 0, i32 15
  %292 = getelementptr inbounds %struct.Reg, %struct.Reg* %291, i32 0, i32 0
  %RBP.i21 = bitcast %union.anon* %292 to i64*
  %293 = load i64, i64* %RBP.i21
  %294 = sub i64 %293, 16
  %295 = load i64, i64* %PC.i19
  %296 = add i64 %295, 4
  store i64 %296, i64* %PC.i19
  %297 = inttoptr i64 %294 to i16*
  %298 = load i16, i16* %297
  %299 = zext i16 %298 to i64
  store i64 %299, i64* %RSI.i20, align 8
  store %struct.Memory* %loadMem_4106fd, %struct.Memory** %MEMORY
  %loadMem_410701 = load %struct.Memory*, %struct.Memory** %MEMORY
  %300 = getelementptr inbounds %struct.State, %struct.State* %0, i32 0, i32 6
  %301 = getelementptr inbounds %struct.GPR, %struct.GPR* %300, i32 0, i32 33
  %302 = getelementptr inbounds %struct.Reg, %struct.Reg* %301, i32 0, i32 0
  %PC.i17 = bitcast %union.anon* %302 to i64*
  %303 = getelementptr inbounds %struct.State, %struct.State* %0, i32 0, i32 6
  %304 = getelementptr inbounds %struct.GPR, %struct.GPR* %303, i32 0, i32 9
  %305 = getelementptr inbounds %struct.Reg, %struct.Reg* %304, i32 0, i32 0
  %ESI.i18 = bitcast %union.anon* %305 to i32*
  %306 = getelementptr inbounds %struct.State, %struct.State* %0, i32 0, i32 6
  %307 = getelementptr inbounds %struct.GPR, %struct.GPR* %306, i32 0, i32 7
  %308 = getelementptr inbounds %struct.Reg, %struct.Reg* %307, i32 0, i32 0
  %RDX.i = bitcast %union.anon* %308 to i64*
  %309 = load i64, i64* %RDX.i
  %310 = load i32, i32* %ESI.i18
  %311 = zext i32 %310 to i64
  %312 = load i64, i64* %PC.i17
  %313 = add i64 %312, 3
  store i64 %313, i64* %PC.i17
  %314 = shl i64 %309, 32
  %315 = ashr exact i64 %314, 32
  %316 = shl i64 %311, 32
  %317 = ashr exact i64 %316, 32
  %318 = mul i64 %317, %315
  %319 = trunc i64 %318 to i32
  %320 = and i64 %318, 4294967295
  store i64 %320, i64* %RDX.i, align 8
  %321 = shl i64 %318, 32
  %322 = ashr exact i64 %321, 32
  %323 = icmp ne i64 %322, %318
  %324 = zext i1 %323 to i8
  %325 = getelementptr inbounds %struct.State, %struct.State* %0, i64 0, i32 2, i32 1
  store i8 %324, i8* %325, align 1
  %326 = and i32 %319, 255
  %327 = call i32 @llvm.ctpop.i32(i32 %326)
  %328 = trunc i32 %327 to i8
  %329 = and i8 %328, 1
  %330 = xor i8 %329, 1
  %331 = getelementptr inbounds %struct.State, %struct.State* %0, i64 0, i32 2, i32 3
  store i8 %330, i8* %331, align 1
  %332 = getelementptr inbounds %struct.State, %struct.State* %0, i64 0, i32 2, i32 5
  store i8 0, i8* %332, align 1
  %333 = getelementptr inbounds %struct.State, %struct.State* %0, i64 0, i32 2, i32 7
  store i8 0, i8* %333, align 1
  %334 = lshr i32 %319, 31
  %335 = trunc i32 %334 to i8
  %336 = getelementptr inbounds %struct.State, %struct.State* %0, i64 0, i32 2, i32 9
  store i8 %335, i8* %336, align 1
  %337 = getelementptr inbounds %struct.State, %struct.State* %0, i64 0, i32 2, i32 13
  store i8 %324, i8* %337, align 1
  store %struct.Memory* %loadMem_410701, %struct.Memory** %MEMORY
  %loadMem_410704 = load %struct.Memory*, %struct.Memory** %MEMORY
  %338 = getelementptr inbounds %struct.State, %struct.State* %0, i32 0, i32 6
  %339 = getelementptr inbounds %struct.GPR, %struct.GPR* %338, i32 0, i32 33
  %340 = getelementptr inbounds %struct.Reg, %struct.Reg* %339, i32 0, i32 0
  %PC.i15 = bitcast %union.anon* %340 to i64*
  %341 = getelementptr inbounds %struct.State, %struct.State* %0, i32 0, i32 6
  %342 = getelementptr inbounds %struct.GPR, %struct.GPR* %341, i32 0, i32 9
  %343 = getelementptr inbounds %struct.Reg, %struct.Reg* %342, i32 0, i32 0
  %RSI.i = bitcast %union.anon* %343 to i64*
  %344 = getelementptr inbounds %struct.State, %struct.State* %0, i32 0, i32 6
  %345 = getelementptr inbounds %struct.GPR, %struct.GPR* %344, i32 0, i32 15
  %346 = getelementptr inbounds %struct.Reg, %struct.Reg* %345, i32 0, i32 0
  %RBP.i16 = bitcast %union.anon* %346 to i64*
  %347 = load i64, i64* %RBP.i16
  %348 = sub i64 %347, 18
  %349 = load i64, i64* %PC.i15
  %350 = add i64 %349, 4
  store i64 %350, i64* %PC.i15
  %351 = inttoptr i64 %348 to i16*
  %352 = load i16, i16* %351
  %353 = zext i16 %352 to i64
  store i64 %353, i64* %RSI.i, align 8
  store %struct.Memory* %loadMem_410704, %struct.Memory** %MEMORY
  %loadMem_410708 = load %struct.Memory*, %struct.Memory** %MEMORY
  %354 = getelementptr inbounds %struct.State, %struct.State* %0, i32 0, i32 6
  %355 = getelementptr inbounds %struct.GPR, %struct.GPR* %354, i32 0, i32 33
  %356 = getelementptr inbounds %struct.Reg, %struct.Reg* %355, i32 0, i32 0
  %PC.i13 = bitcast %union.anon* %356 to i64*
  %357 = getelementptr inbounds %struct.State, %struct.State* %0, i32 0, i32 6
  %358 = getelementptr inbounds %struct.GPR, %struct.GPR* %357, i32 0, i32 7
  %359 = getelementptr inbounds %struct.Reg, %struct.Reg* %358, i32 0, i32 0
  %EDX.i = bitcast %union.anon* %359 to i32*
  %360 = getelementptr inbounds %struct.State, %struct.State* %0, i32 0, i32 6
  %361 = getelementptr inbounds %struct.GPR, %struct.GPR* %360, i32 0, i32 1
  %362 = getelementptr inbounds %struct.Reg, %struct.Reg* %361, i32 0, i32 0
  %RAX.i14 = bitcast %union.anon* %362 to i64*
  %363 = load i32, i32* %EDX.i
  %364 = zext i32 %363 to i64
  %365 = load i64, i64* %PC.i13
  %366 = add i64 %365, 2
  store i64 %366, i64* %PC.i13
  %367 = and i64 %364, 4294967295
  store i64 %367, i64* %RAX.i14, align 8
  store %struct.Memory* %loadMem_410708, %struct.Memory** %MEMORY
  %loadMem_41070a = load %struct.Memory*, %struct.Memory** %MEMORY
  %368 = getelementptr inbounds %struct.State, %struct.State* %0, i32 0, i32 6
  %369 = getelementptr inbounds %struct.GPR, %struct.GPR* %368, i32 0, i32 33
  %370 = getelementptr inbounds %struct.Reg, %struct.Reg* %369, i32 0, i32 0
  %PC.i12 = bitcast %union.anon* %370 to i64*
  %371 = load i64, i64* %PC.i12
  %372 = add i64 %371, 1
  store i64 %372, i64* %PC.i12
  %373 = getelementptr inbounds %struct.State, %struct.State* %0, i64 0, i32 6, i32 7, i32 0, i32 0
  %374 = getelementptr inbounds %struct.State, %struct.State* %0, i64 0, i32 6, i32 1, i32 0
  %375 = bitcast %union.anon* %374 to i32*
  %376 = load i32, i32* %375, align 8
  %377 = sext i32 %376 to i64
  %378 = lshr i64 %377, 32
  store i64 %378, i64* %373, align 8
  store %struct.Memory* %loadMem_41070a, %struct.Memory** %MEMORY
  %loadMem_41070b = load %struct.Memory*, %struct.Memory** %MEMORY
  %379 = getelementptr inbounds %struct.State, %struct.State* %0, i32 0, i32 6
  %380 = getelementptr inbounds %struct.GPR, %struct.GPR* %379, i32 0, i32 33
  %381 = getelementptr inbounds %struct.Reg, %struct.Reg* %380, i32 0, i32 0
  %PC.i9 = bitcast %union.anon* %381 to i64*
  %382 = getelementptr inbounds %struct.State, %struct.State* %0, i32 0, i32 6
  %383 = getelementptr inbounds %struct.GPR, %struct.GPR* %382, i32 0, i32 9
  %384 = getelementptr inbounds %struct.Reg, %struct.Reg* %383, i32 0, i32 0
  %ESI.i = bitcast %union.anon* %384 to i32*
  %385 = load i32, i32* %ESI.i
  %386 = zext i32 %385 to i64
  %387 = load i64, i64* %PC.i9
  %388 = add i64 %387, 2
  store i64 %388, i64* %PC.i9
  %389 = getelementptr inbounds %struct.State, %struct.State* %0, i64 0, i32 6, i32 1, i32 0
  %390 = bitcast %union.anon* %389 to i32*
  %391 = load i32, i32* %390, align 8
  %392 = zext i32 %391 to i64
  %393 = getelementptr inbounds %struct.State, %struct.State* %0, i64 0, i32 6, i32 7, i32 0
  %394 = bitcast %union.anon* %393 to i32*
  %395 = load i32, i32* %394, align 8
  %396 = zext i32 %395 to i64
  %397 = shl i64 %386, 32
  %398 = ashr exact i64 %397, 32
  %399 = shl i64 %396, 32
  %400 = or i64 %399, %392
  %401 = sdiv i64 %400, %398
  %402 = shl i64 %401, 32
  %403 = ashr exact i64 %402, 32
  %404 = icmp eq i64 %401, %403
  br i1 %404, label %409, label %405

; <label>:405:                                    ; preds = %entry
  %406 = getelementptr inbounds %struct.State, %struct.State* %0, i64 0, i32 6, i32 33, i32 0, i32 0
  %407 = load i64, i64* %406, align 8
  %408 = call %struct.Memory* @__remill_error(%struct.State* nonnull dereferenceable(3376) %0, i64 %407, %struct.Memory* %loadMem_41070b)
  br label %routine_idivl__esi.exit

; <label>:409:                                    ; preds = %entry
  %410 = srem i64 %400, %398
  %411 = getelementptr inbounds %union.anon, %union.anon* %389, i64 0, i32 0
  %412 = and i64 %401, 4294967295
  store i64 %412, i64* %411, align 8
  %413 = getelementptr inbounds %union.anon, %union.anon* %393, i64 0, i32 0
  %414 = and i64 %410, 4294967295
  store i64 %414, i64* %413, align 8
  %415 = getelementptr inbounds %struct.State, %struct.State* %0, i64 0, i32 2, i32 1
  store i8 0, i8* %415, align 1
  %416 = getelementptr inbounds %struct.State, %struct.State* %0, i64 0, i32 2, i32 3
  store i8 0, i8* %416, align 1
  %417 = getelementptr inbounds %struct.State, %struct.State* %0, i64 0, i32 2, i32 5
  store i8 0, i8* %417, align 1
  %418 = getelementptr inbounds %struct.State, %struct.State* %0, i64 0, i32 2, i32 7
  store i8 0, i8* %418, align 1
  %419 = getelementptr inbounds %struct.State, %struct.State* %0, i64 0, i32 2, i32 9
  store i8 0, i8* %419, align 1
  %420 = getelementptr inbounds %struct.State, %struct.State* %0, i64 0, i32 2, i32 13
  store i8 0, i8* %420, align 1
  br label %routine_idivl__esi.exit

routine_idivl__esi.exit:                          ; preds = %405, %409
  %421 = phi %struct.Memory* [ %408, %405 ], [ %loadMem_41070b, %409 ]
  store %struct.Memory* %421, %struct.Memory** %MEMORY
  %loadMem_41070d = load %struct.Memory*, %struct.Memory** %MEMORY
  %422 = getelementptr inbounds %struct.State, %struct.State* %0, i32 0, i32 6
  %423 = getelementptr inbounds %struct.GPR, %struct.GPR* %422, i32 0, i32 33
  %424 = getelementptr inbounds %struct.Reg, %struct.Reg* %423, i32 0, i32 0
  %PC.i8 = bitcast %union.anon* %424 to i64*
  %425 = getelementptr inbounds %struct.State, %struct.State* %0, i32 0, i32 6
  %426 = getelementptr inbounds %struct.GPR, %struct.GPR* %425, i32 0, i32 1
  %427 = getelementptr inbounds %struct.Reg, %struct.Reg* %426, i32 0, i32 0
  %EAX.i = bitcast %union.anon* %427 to i32*
  %428 = getelementptr inbounds %struct.State, %struct.State* %0, i32 0, i32 6
  %429 = getelementptr inbounds %struct.GPR, %struct.GPR* %428, i32 0, i32 5
  %430 = getelementptr inbounds %struct.Reg, %struct.Reg* %429, i32 0, i32 0
  %RCX.i = bitcast %union.anon* %430 to i64*
  %431 = load i64, i64* %RCX.i
  %432 = load i32, i32* %EAX.i
  %433 = zext i32 %432 to i64
  %434 = load i64, i64* %PC.i8
  %435 = add i64 %434, 2
  store i64 %435, i64* %PC.i8
  %436 = trunc i64 %431 to i32
  %437 = sub i32 %436, %432
  %438 = zext i32 %437 to i64
  store i64 %438, i64* %RCX.i, align 8
  %439 = icmp ult i32 %436, %432
  %440 = zext i1 %439 to i8
  %441 = getelementptr inbounds %struct.State, %struct.State* %0, i64 0, i32 2, i32 1
  store i8 %440, i8* %441, align 1
  %442 = and i32 %437, 255
  %443 = call i32 @llvm.ctpop.i32(i32 %442)
  %444 = trunc i32 %443 to i8
  %445 = and i8 %444, 1
  %446 = xor i8 %445, 1
  %447 = getelementptr inbounds %struct.State, %struct.State* %0, i64 0, i32 2, i32 3
  store i8 %446, i8* %447, align 1
  %448 = xor i64 %433, %431
  %449 = trunc i64 %448 to i32
  %450 = xor i32 %449, %437
  %451 = lshr i32 %450, 4
  %452 = trunc i32 %451 to i8
  %453 = and i8 %452, 1
  %454 = getelementptr inbounds %struct.State, %struct.State* %0, i64 0, i32 2, i32 5
  store i8 %453, i8* %454, align 1
  %455 = icmp eq i32 %437, 0
  %456 = zext i1 %455 to i8
  %457 = getelementptr inbounds %struct.State, %struct.State* %0, i64 0, i32 2, i32 7
  store i8 %456, i8* %457, align 1
  %458 = lshr i32 %437, 31
  %459 = trunc i32 %458 to i8
  %460 = getelementptr inbounds %struct.State, %struct.State* %0, i64 0, i32 2, i32 9
  store i8 %459, i8* %460, align 1
  %461 = lshr i32 %436, 31
  %462 = lshr i32 %432, 31
  %463 = xor i32 %462, %461
  %464 = xor i32 %458, %461
  %465 = add i32 %464, %463
  %466 = icmp eq i32 %465, 2
  %467 = zext i1 %466 to i8
  %468 = getelementptr inbounds %struct.State, %struct.State* %0, i64 0, i32 2, i32 13
  store i8 %467, i8* %468, align 1
  store %struct.Memory* %loadMem_41070d, %struct.Memory** %MEMORY
  %loadMem_41070f = load %struct.Memory*, %struct.Memory** %MEMORY
  %469 = getelementptr inbounds %struct.State, %struct.State* %0, i32 0, i32 6
  %470 = getelementptr inbounds %struct.GPR, %struct.GPR* %469, i32 0, i32 33
  %471 = getelementptr inbounds %struct.Reg, %struct.Reg* %470, i32 0, i32 0
  %PC.i6 = bitcast %union.anon* %471 to i64*
  %472 = getelementptr inbounds %struct.State, %struct.State* %0, i32 0, i32 6
  %473 = getelementptr inbounds %struct.GPR, %struct.GPR* %472, i32 0, i32 5
  %474 = getelementptr inbounds %struct.Reg, %struct.Reg* %473, i32 0, i32 0
  %CX.i = bitcast %union.anon* %474 to i16*
  %475 = getelementptr inbounds %struct.State, %struct.State* %0, i32 0, i32 6
  %476 = getelementptr inbounds %struct.GPR, %struct.GPR* %475, i32 0, i32 19
  %477 = getelementptr inbounds %struct.Reg, %struct.Reg* %476, i32 0, i32 0
  %R9W.i7 = bitcast %union.anon* %477 to i16*
  %478 = load i16, i16* %CX.i
  %479 = zext i16 %478 to i64
  %480 = load i64, i64* %PC.i6
  %481 = add i64 %480, 4
  store i64 %481, i64* %PC.i6
  store i16 %478, i16* %R9W.i7, align 2
  store %struct.Memory* %loadMem_41070f, %struct.Memory** %MEMORY
  %loadMem_410713 = load %struct.Memory*, %struct.Memory** %MEMORY
  %482 = getelementptr inbounds %struct.State, %struct.State* %0, i32 0, i32 6
  %483 = getelementptr inbounds %struct.GPR, %struct.GPR* %482, i32 0, i32 33
  %484 = getelementptr inbounds %struct.Reg, %struct.Reg* %483, i32 0, i32 0
  %PC.i5 = bitcast %union.anon* %484 to i64*
  %485 = getelementptr inbounds %struct.State, %struct.State* %0, i32 0, i32 6
  %486 = getelementptr inbounds %struct.GPR, %struct.GPR* %485, i32 0, i32 19
  %487 = getelementptr inbounds %struct.Reg, %struct.Reg* %486, i32 0, i32 0
  %R9W.i = bitcast %union.anon* %487 to i16*
  %488 = getelementptr inbounds %struct.State, %struct.State* %0, i32 0, i32 6
  %489 = getelementptr inbounds %struct.GPR, %struct.GPR* %488, i32 0, i32 1
  %490 = getelementptr inbounds %struct.Reg, %struct.Reg* %489, i32 0, i32 0
  %RAX.i = bitcast %union.anon* %490 to i64*
  %491 = load i16, i16* %R9W.i
  %492 = zext i16 %491 to i64
  %493 = load i64, i64* %PC.i5
  %494 = add i64 %493, 4
  store i64 %494, i64* %PC.i5
  %495 = and i64 %492, 65535
  store i64 %495, i64* %RAX.i, align 8
  store %struct.Memory* %loadMem_410713, %struct.Memory** %MEMORY
  %loadMem_410717 = load %struct.Memory*, %struct.Memory** %MEMORY
  %496 = getelementptr inbounds %struct.State, %struct.State* %0, i32 0, i32 6
  %497 = getelementptr inbounds %struct.GPR, %struct.GPR* %496, i32 0, i32 33
  %498 = getelementptr inbounds %struct.Reg, %struct.Reg* %497, i32 0, i32 0
  %PC.i4 = bitcast %union.anon* %498 to i64*
  %499 = getelementptr inbounds %struct.State, %struct.State* %0, i32 0, i32 6
  %500 = getelementptr inbounds %struct.GPR, %struct.GPR* %499, i32 0, i32 3
  %501 = getelementptr inbounds %struct.Reg, %struct.Reg* %500, i32 0, i32 0
  %RBX.i = bitcast %union.anon* %501 to i64*
  %502 = load i64, i64* %PC.i4
  %503 = add i64 %502, 1
  store i64 %503, i64* %PC.i4
  %504 = getelementptr inbounds %struct.State, %struct.State* %0, i64 0, i32 6, i32 13, i32 0, i32 0
  %505 = load i64, i64* %504, align 8
  %506 = add i64 %505, 8
  %507 = inttoptr i64 %505 to i64*
  %508 = load i64, i64* %507
  store i64 %508, i64* %RBX.i, align 8
  store i64 %506, i64* %504, align 8
  store %struct.Memory* %loadMem_410717, %struct.Memory** %MEMORY
  %loadMem_410718 = load %struct.Memory*, %struct.Memory** %MEMORY
  %509 = getelementptr inbounds %struct.State, %struct.State* %0, i32 0, i32 6
  %510 = getelementptr inbounds %struct.GPR, %struct.GPR* %509, i32 0, i32 33
  %511 = getelementptr inbounds %struct.Reg, %struct.Reg* %510, i32 0, i32 0
  %PC.i2 = bitcast %union.anon* %511 to i64*
  %512 = getelementptr inbounds %struct.State, %struct.State* %0, i32 0, i32 6
  %513 = getelementptr inbounds %struct.GPR, %struct.GPR* %512, i32 0, i32 15
  %514 = getelementptr inbounds %struct.Reg, %struct.Reg* %513, i32 0, i32 0
  %RBP.i3 = bitcast %union.anon* %514 to i64*
  %515 = load i64, i64* %PC.i2
  %516 = add i64 %515, 1
  store i64 %516, i64* %PC.i2
  %517 = getelementptr inbounds %struct.State, %struct.State* %0, i64 0, i32 6, i32 13, i32 0, i32 0
  %518 = load i64, i64* %517, align 8
  %519 = add i64 %518, 8
  %520 = inttoptr i64 %518 to i64*
  %521 = load i64, i64* %520
  store i64 %521, i64* %RBP.i3, align 8
  store i64 %519, i64* %517, align 8
  store %struct.Memory* %loadMem_410718, %struct.Memory** %MEMORY
  %loadMem_410719 = load %struct.Memory*, %struct.Memory** %MEMORY
  %522 = getelementptr inbounds %struct.State, %struct.State* %0, i32 0, i32 6
  %523 = getelementptr inbounds %struct.GPR, %struct.GPR* %522, i32 0, i32 33
  %524 = getelementptr inbounds %struct.Reg, %struct.Reg* %523, i32 0, i32 0
  %PC.i1 = bitcast %union.anon* %524 to i64*
  %525 = load i64, i64* %PC.i1
  %526 = add i64 %525, 1
  store i64 %526, i64* %PC.i1
  %527 = getelementptr inbounds %struct.State, %struct.State* %0, i64 0, i32 6, i32 33, i32 0, i32 0
  %528 = getelementptr inbounds %struct.State, %struct.State* %0, i64 0, i32 6, i32 13, i32 0, i32 0
  %529 = load i64, i64* %528, align 8
  %530 = inttoptr i64 %529 to i64*
  %531 = load i64, i64* %530
  store i64 %531, i64* %527, align 8
  %532 = add i64 %529, 8
  store i64 %532, i64* %528, align 8
  store %struct.Memory* %loadMem_410719, %struct.Memory** %MEMORY
  ret %struct.Memory* %loadMem_410719
}

define %struct.Memory* @routine_pushq__rbp(%struct.State* dereferenceable(3376), i64, %struct.Memory*) {
block_400478:
  %3 = getelementptr inbounds %struct.State, %struct.State* %0, i32 0, i32 6
  %4 = getelementptr inbounds %struct.GPR, %struct.GPR* %3, i32 0, i32 33
  %5 = getelementptr inbounds %struct.Reg, %struct.Reg* %4, i32 0, i32 0
  %PC = bitcast %union.anon* %5 to i64*
  %6 = getelementptr inbounds %struct.State, %struct.State* %0, i32 0, i32 6
  %7 = getelementptr inbounds %struct.GPR, %struct.GPR* %6, i32 0, i32 15
  %8 = getelementptr inbounds %struct.Reg, %struct.Reg* %7, i32 0, i32 0
  %RBP = bitcast %union.anon* %8 to i64*
  %9 = load i64, i64* %RBP
  %10 = load i64, i64* %PC
  %11 = add i64 %10, 1
  store i64 %11, i64* %PC
  %12 = getelementptr inbounds %struct.State, %struct.State* %0, i64 0, i32 6, i32 13, i32 0, i32 0
  %13 = load i64, i64* %12, align 8
  %14 = add i64 %13, -8
  %15 = inttoptr i64 %14 to i64*
  store i64 %9, i64* %15
  store i64 %14, i64* %12, align 8
  ret %struct.Memory* %2
}

define %struct.Memory* @routine_movq__rsp___rbp(%struct.State* dereferenceable(3376), i64, %struct.Memory*) {
block_400478:
  %3 = getelementptr inbounds %struct.State, %struct.State* %0, i32 0, i32 6
  %4 = getelementptr inbounds %struct.GPR, %struct.GPR* %3, i32 0, i32 33
  %5 = getelementptr inbounds %struct.Reg, %struct.Reg* %4, i32 0, i32 0
  %PC = bitcast %union.anon* %5 to i64*
  %6 = getelementptr inbounds %struct.State, %struct.State* %0, i32 0, i32 6
  %7 = getelementptr inbounds %struct.GPR, %struct.GPR* %6, i32 0, i32 13
  %8 = getelementptr inbounds %struct.Reg, %struct.Reg* %7, i32 0, i32 0
  %RSP = bitcast %union.anon* %8 to i64*
  %9 = getelementptr inbounds %struct.State, %struct.State* %0, i32 0, i32 6
  %10 = getelementptr inbounds %struct.GPR, %struct.GPR* %9, i32 0, i32 15
  %11 = getelementptr inbounds %struct.Reg, %struct.Reg* %10, i32 0, i32 0
  %RBP = bitcast %union.anon* %11 to i64*
  %12 = load i64, i64* %RSP
  %13 = load i64, i64* %PC
  %14 = add i64 %13, 3
  store i64 %14, i64* %PC
  store i64 %12, i64* %RBP, align 8
  ret %struct.Memory* %2
}

define %struct.Memory* @routine_pushq__rbx(%struct.State* dereferenceable(3376), i64, %struct.Memory*) {
block_400478:
  %3 = getelementptr inbounds %struct.State, %struct.State* %0, i32 0, i32 6
  %4 = getelementptr inbounds %struct.GPR, %struct.GPR* %3, i32 0, i32 33
  %5 = getelementptr inbounds %struct.Reg, %struct.Reg* %4, i32 0, i32 0
  %PC = bitcast %union.anon* %5 to i64*
  %6 = getelementptr inbounds %struct.State, %struct.State* %0, i32 0, i32 6
  %7 = getelementptr inbounds %struct.GPR, %struct.GPR* %6, i32 0, i32 3
  %8 = getelementptr inbounds %struct.Reg, %struct.Reg* %7, i32 0, i32 0
  %RBX = bitcast %union.anon* %8 to i64*
  %9 = load i64, i64* %RBX
  %10 = load i64, i64* %PC
  %11 = add i64 %10, 1
  store i64 %11, i64* %PC
  %12 = getelementptr inbounds %struct.State, %struct.State* %0, i64 0, i32 6, i32 13, i32 0, i32 0
  %13 = load i64, i64* %12, align 8
  %14 = add i64 %13, -8
  %15 = inttoptr i64 %14 to i64*
  store i64 %9, i64* %15
  store i64 %14, i64* %12, align 8
  ret %struct.Memory* %2
}

define %struct.Memory* @routine_movw__r8w___ax(%struct.State* dereferenceable(3376), i64, %struct.Memory*) {
block_400478:
  %3 = getelementptr inbounds %struct.State, %struct.State* %0, i32 0, i32 6
  %4 = getelementptr inbounds %struct.GPR, %struct.GPR* %3, i32 0, i32 33
  %5 = getelementptr inbounds %struct.Reg, %struct.Reg* %4, i32 0, i32 0
  %PC = bitcast %union.anon* %5 to i64*
  %6 = getelementptr inbounds %struct.State, %struct.State* %0, i32 0, i32 6
  %7 = getelementptr inbounds %struct.GPR, %struct.GPR* %6, i32 0, i32 1
  %8 = getelementptr inbounds %struct.Reg, %struct.Reg* %7, i32 0, i32 0
  %AX = bitcast %union.anon* %8 to i16*
  %9 = getelementptr inbounds %struct.State, %struct.State* %0, i32 0, i32 6
  %10 = getelementptr inbounds %struct.GPR, %struct.GPR* %9, i32 0, i32 17
  %11 = getelementptr inbounds %struct.Reg, %struct.Reg* %10, i32 0, i32 0
  %R8W = bitcast %union.anon* %11 to i16*
  %12 = load i16, i16* %R8W
  %13 = zext i16 %12 to i64
  %14 = load i64, i64* %PC
  %15 = add i64 %14, 4
  store i64 %15, i64* %PC
  store i16 %12, i16* %AX, align 2
  ret %struct.Memory* %2
}

define %struct.Memory* @routine_movw__cx___r9w(%struct.State* dereferenceable(3376), i64, %struct.Memory*) {
block_400478:
  %3 = getelementptr inbounds %struct.State, %struct.State* %0, i32 0, i32 6
  %4 = getelementptr inbounds %struct.GPR, %struct.GPR* %3, i32 0, i32 33
  %5 = getelementptr inbounds %struct.Reg, %struct.Reg* %4, i32 0, i32 0
  %PC = bitcast %union.anon* %5 to i64*
  %6 = getelementptr inbounds %struct.State, %struct.State* %0, i32 0, i32 6
  %7 = getelementptr inbounds %struct.GPR, %struct.GPR* %6, i32 0, i32 5
  %8 = getelementptr inbounds %struct.Reg, %struct.Reg* %7, i32 0, i32 0
  %CX = bitcast %union.anon* %8 to i16*
  %9 = getelementptr inbounds %struct.State, %struct.State* %0, i32 0, i32 6
  %10 = getelementptr inbounds %struct.GPR, %struct.GPR* %9, i32 0, i32 19
  %11 = getelementptr inbounds %struct.Reg, %struct.Reg* %10, i32 0, i32 0
  %R9W = bitcast %union.anon* %11 to i16*
  %12 = load i16, i16* %CX
  %13 = zext i16 %12 to i64
  %14 = load i64, i64* %PC
  %15 = add i64 %14, 4
  store i64 %15, i64* %PC
  store i16 %12, i16* %R9W, align 2
  ret %struct.Memory* %2
}

define %struct.Memory* @routine_movw__dx___r10w(%struct.State* dereferenceable(3376), i64, %struct.Memory*) {
block_400478:
  %3 = getelementptr inbounds %struct.State, %struct.State* %0, i32 0, i32 6
  %4 = getelementptr inbounds %struct.GPR, %struct.GPR* %3, i32 0, i32 33
  %5 = getelementptr inbounds %struct.Reg, %struct.Reg* %4, i32 0, i32 0
  %PC = bitcast %union.anon* %5 to i64*
  %6 = getelementptr inbounds %struct.State, %struct.State* %0, i32 0, i32 6
  %7 = getelementptr inbounds %struct.GPR, %struct.GPR* %6, i32 0, i32 7
  %8 = getelementptr inbounds %struct.Reg, %struct.Reg* %7, i32 0, i32 0
  %DX = bitcast %union.anon* %8 to i16*
  %9 = getelementptr inbounds %struct.State, %struct.State* %0, i32 0, i32 6
  %10 = getelementptr inbounds %struct.GPR, %struct.GPR* %9, i32 0, i32 21
  %11 = getelementptr inbounds %struct.Reg, %struct.Reg* %10, i32 0, i32 0
  %R10W = bitcast %union.anon* %11 to i16*
  %12 = load i16, i16* %DX
  %13 = zext i16 %12 to i64
  %14 = load i64, i64* %PC
  %15 = add i64 %14, 4
  store i64 %15, i64* %PC
  store i16 %12, i16* %R10W, align 2
  ret %struct.Memory* %2
}

define %struct.Memory* @routine_movw__si___r11w(%struct.State* dereferenceable(3376), i64, %struct.Memory*) {
block_400478:
  %3 = getelementptr inbounds %struct.State, %struct.State* %0, i32 0, i32 6
  %4 = getelementptr inbounds %struct.GPR, %struct.GPR* %3, i32 0, i32 33
  %5 = getelementptr inbounds %struct.Reg, %struct.Reg* %4, i32 0, i32 0
  %PC = bitcast %union.anon* %5 to i64*
  %6 = getelementptr inbounds %struct.State, %struct.State* %0, i32 0, i32 6
  %7 = getelementptr inbounds %struct.GPR, %struct.GPR* %6, i32 0, i32 9
  %8 = getelementptr inbounds %struct.Reg, %struct.Reg* %7, i32 0, i32 0
  %SI = bitcast %union.anon* %8 to i16*
  %9 = getelementptr inbounds %struct.State, %struct.State* %0, i32 0, i32 6
  %10 = getelementptr inbounds %struct.GPR, %struct.GPR* %9, i32 0, i32 23
  %11 = getelementptr inbounds %struct.Reg, %struct.Reg* %10, i32 0, i32 0
  %R11W = bitcast %union.anon* %11 to i16*
  %12 = load i16, i16* %SI
  %13 = zext i16 %12 to i64
  %14 = load i64, i64* %PC
  %15 = add i64 %14, 4
  store i64 %15, i64* %PC
  store i16 %12, i16* %R11W, align 2
  ret %struct.Memory* %2
}

define %struct.Memory* @routine_movw__di___bx(%struct.State* dereferenceable(3376), i64, %struct.Memory*) {
block_400478:
  %3 = getelementptr inbounds %struct.State, %struct.State* %0, i32 0, i32 6
  %4 = getelementptr inbounds %struct.GPR, %struct.GPR* %3, i32 0, i32 33
  %5 = getelementptr inbounds %struct.Reg, %struct.Reg* %4, i32 0, i32 0
  %PC = bitcast %union.anon* %5 to i64*
  %6 = getelementptr inbounds %struct.State, %struct.State* %0, i32 0, i32 6
  %7 = getelementptr inbounds %struct.GPR, %struct.GPR* %6, i32 0, i32 3
  %8 = getelementptr inbounds %struct.Reg, %struct.Reg* %7, i32 0, i32 0
  %BX = bitcast %union.anon* %8 to i16*
  %9 = getelementptr inbounds %struct.State, %struct.State* %0, i32 0, i32 6
  %10 = getelementptr inbounds %struct.GPR, %struct.GPR* %9, i32 0, i32 11
  %11 = getelementptr inbounds %struct.Reg, %struct.Reg* %10, i32 0, i32 0
  %DI = bitcast %union.anon* %11 to i16*
  %12 = load i16, i16* %DI
  %13 = zext i16 %12 to i64
  %14 = load i64, i64* %PC
  %15 = add i64 %14, 3
  store i64 %15, i64* %PC
  store i16 %12, i16* %BX, align 2
  ret %struct.Memory* %2
}

define %struct.Memory* @routine_movw__bx__MINUS0xa__rbp_(%struct.State* dereferenceable(3376), i64, %struct.Memory*) {
block_400478:
  %3 = getelementptr inbounds %struct.State, %struct.State* %0, i32 0, i32 6
  %4 = getelementptr inbounds %struct.GPR, %struct.GPR* %3, i32 0, i32 33
  %5 = getelementptr inbounds %struct.Reg, %struct.Reg* %4, i32 0, i32 0
  %PC = bitcast %union.anon* %5 to i64*
  %6 = getelementptr inbounds %struct.State, %struct.State* %0, i32 0, i32 6
  %7 = getelementptr inbounds %struct.GPR, %struct.GPR* %6, i32 0, i32 3
  %8 = getelementptr inbounds %struct.Reg, %struct.Reg* %7, i32 0, i32 0
  %BX = bitcast %union.anon* %8 to i16*
  %9 = getelementptr inbounds %struct.State, %struct.State* %0, i32 0, i32 6
  %10 = getelementptr inbounds %struct.GPR, %struct.GPR* %9, i32 0, i32 15
  %11 = getelementptr inbounds %struct.Reg, %struct.Reg* %10, i32 0, i32 0
  %RBP = bitcast %union.anon* %11 to i64*
  %12 = load i64, i64* %RBP
  %13 = sub i64 %12, 10
  %14 = load i16, i16* %BX
  %15 = zext i16 %14 to i64
  %16 = load i64, i64* %PC
  %17 = add i64 %16, 4
  store i64 %17, i64* %PC
  %18 = inttoptr i64 %13 to i16*
  store i16 %14, i16* %18
  ret %struct.Memory* %2
}

define %struct.Memory* @routine_movw__r11w__MINUS0xc__rbp_(%struct.State* dereferenceable(3376), i64, %struct.Memory*) {
block_400478:
  %3 = getelementptr inbounds %struct.State, %struct.State* %0, i32 0, i32 6
  %4 = getelementptr inbounds %struct.GPR, %struct.GPR* %3, i32 0, i32 33
  %5 = getelementptr inbounds %struct.Reg, %struct.Reg* %4, i32 0, i32 0
  %PC = bitcast %union.anon* %5 to i64*
  %6 = getelementptr inbounds %struct.State, %struct.State* %0, i32 0, i32 6
  %7 = getelementptr inbounds %struct.GPR, %struct.GPR* %6, i32 0, i32 23
  %8 = getelementptr inbounds %struct.Reg, %struct.Reg* %7, i32 0, i32 0
  %R11W = bitcast %union.anon* %8 to i16*
  %9 = getelementptr inbounds %struct.State, %struct.State* %0, i32 0, i32 6
  %10 = getelementptr inbounds %struct.GPR, %struct.GPR* %9, i32 0, i32 15
  %11 = getelementptr inbounds %struct.Reg, %struct.Reg* %10, i32 0, i32 0
  %RBP = bitcast %union.anon* %11 to i64*
  %12 = load i64, i64* %RBP
  %13 = sub i64 %12, 12
  %14 = load i16, i16* %R11W
  %15 = zext i16 %14 to i64
  %16 = load i64, i64* %PC
  %17 = add i64 %16, 5
  store i64 %17, i64* %PC
  %18 = inttoptr i64 %13 to i16*
  store i16 %14, i16* %18
  ret %struct.Memory* %2
}

define %struct.Memory* @routine_movw__r10w__MINUS0xe__rbp_(%struct.State* dereferenceable(3376), i64, %struct.Memory*) {
block_400478:
  %3 = getelementptr inbounds %struct.State, %struct.State* %0, i32 0, i32 6
  %4 = getelementptr inbounds %struct.GPR, %struct.GPR* %3, i32 0, i32 33
  %5 = getelementptr inbounds %struct.Reg, %struct.Reg* %4, i32 0, i32 0
  %PC = bitcast %union.anon* %5 to i64*
  %6 = getelementptr inbounds %struct.State, %struct.State* %0, i32 0, i32 6
  %7 = getelementptr inbounds %struct.GPR, %struct.GPR* %6, i32 0, i32 21
  %8 = getelementptr inbounds %struct.Reg, %struct.Reg* %7, i32 0, i32 0
  %R10W = bitcast %union.anon* %8 to i16*
  %9 = getelementptr inbounds %struct.State, %struct.State* %0, i32 0, i32 6
  %10 = getelementptr inbounds %struct.GPR, %struct.GPR* %9, i32 0, i32 15
  %11 = getelementptr inbounds %struct.Reg, %struct.Reg* %10, i32 0, i32 0
  %RBP = bitcast %union.anon* %11 to i64*
  %12 = load i64, i64* %RBP
  %13 = sub i64 %12, 14
  %14 = load i16, i16* %R10W
  %15 = zext i16 %14 to i64
  %16 = load i64, i64* %PC
  %17 = add i64 %16, 5
  store i64 %17, i64* %PC
  %18 = inttoptr i64 %13 to i16*
  store i16 %14, i16* %18
  ret %struct.Memory* %2
}

define %struct.Memory* @routine_movw__r9w__MINUS0x10__rbp_(%struct.State* dereferenceable(3376), i64, %struct.Memory*) {
block_400478:
  %3 = getelementptr inbounds %struct.State, %struct.State* %0, i32 0, i32 6
  %4 = getelementptr inbounds %struct.GPR, %struct.GPR* %3, i32 0, i32 33
  %5 = getelementptr inbounds %struct.Reg, %struct.Reg* %4, i32 0, i32 0
  %PC = bitcast %union.anon* %5 to i64*
  %6 = getelementptr inbounds %struct.State, %struct.State* %0, i32 0, i32 6
  %7 = getelementptr inbounds %struct.GPR, %struct.GPR* %6, i32 0, i32 19
  %8 = getelementptr inbounds %struct.Reg, %struct.Reg* %7, i32 0, i32 0
  %R9W = bitcast %union.anon* %8 to i16*
  %9 = getelementptr inbounds %struct.State, %struct.State* %0, i32 0, i32 6
  %10 = getelementptr inbounds %struct.GPR, %struct.GPR* %9, i32 0, i32 15
  %11 = getelementptr inbounds %struct.Reg, %struct.Reg* %10, i32 0, i32 0
  %RBP = bitcast %union.anon* %11 to i64*
  %12 = load i64, i64* %RBP
  %13 = sub i64 %12, 16
  %14 = load i16, i16* %R9W
  %15 = zext i16 %14 to i64
  %16 = load i64, i64* %PC
  %17 = add i64 %16, 5
  store i64 %17, i64* %PC
  %18 = inttoptr i64 %13 to i16*
  store i16 %14, i16* %18
  ret %struct.Memory* %2
}

define %struct.Memory* @routine_movw__ax__MINUS0x12__rbp_(%struct.State* dereferenceable(3376), i64, %struct.Memory*) {
block_400478:
  %3 = getelementptr inbounds %struct.State, %struct.State* %0, i32 0, i32 6
  %4 = getelementptr inbounds %struct.GPR, %struct.GPR* %3, i32 0, i32 33
  %5 = getelementptr inbounds %struct.Reg, %struct.Reg* %4, i32 0, i32 0
  %PC = bitcast %union.anon* %5 to i64*
  %6 = getelementptr inbounds %struct.State, %struct.State* %0, i32 0, i32 6
  %7 = getelementptr inbounds %struct.GPR, %struct.GPR* %6, i32 0, i32 1
  %8 = getelementptr inbounds %struct.Reg, %struct.Reg* %7, i32 0, i32 0
  %AX = bitcast %union.anon* %8 to i16*
  %9 = getelementptr inbounds %struct.State, %struct.State* %0, i32 0, i32 6
  %10 = getelementptr inbounds %struct.GPR, %struct.GPR* %9, i32 0, i32 15
  %11 = getelementptr inbounds %struct.Reg, %struct.Reg* %10, i32 0, i32 0
  %RBP = bitcast %union.anon* %11 to i64*
  %12 = load i64, i64* %RBP
  %13 = sub i64 %12, 18
  %14 = load i16, i16* %AX
  %15 = zext i16 %14 to i64
  %16 = load i64, i64* %PC
  %17 = add i64 %16, 4
  store i64 %17, i64* %PC
  %18 = inttoptr i64 %13 to i16*
  store i16 %14, i16* %18
  ret %struct.Memory* %2
}

define %struct.Memory* @routine_movzwl_MINUS0xa__rbp____ecx(%struct.State* dereferenceable(3376), i64, %struct.Memory*) {
block_400478:
  %3 = getelementptr inbounds %struct.State, %struct.State* %0, i32 0, i32 6
  %4 = getelementptr inbounds %struct.GPR, %struct.GPR* %3, i32 0, i32 33
  %5 = getelementptr inbounds %struct.Reg, %struct.Reg* %4, i32 0, i32 0
  %PC = bitcast %union.anon* %5 to i64*
  %6 = getelementptr inbounds %struct.State, %struct.State* %0, i32 0, i32 6
  %7 = getelementptr inbounds %struct.GPR, %struct.GPR* %6, i32 0, i32 5
  %8 = getelementptr inbounds %struct.Reg, %struct.Reg* %7, i32 0, i32 0
  %RCX = bitcast %union.anon* %8 to i64*
  %9 = getelementptr inbounds %struct.State, %struct.State* %0, i32 0, i32 6
  %10 = getelementptr inbounds %struct.GPR, %struct.GPR* %9, i32 0, i32 15
  %11 = getelementptr inbounds %struct.Reg, %struct.Reg* %10, i32 0, i32 0
  %RBP = bitcast %union.anon* %11 to i64*
  %12 = load i64, i64* %RBP
  %13 = sub i64 %12, 10
  %14 = load i64, i64* %PC
  %15 = add i64 %14, 4
  store i64 %15, i64* %PC
  %16 = inttoptr i64 %13 to i16*
  %17 = load i16, i16* %16
  %18 = zext i16 %17 to i64
  store i64 %18, i64* %RCX, align 8
  ret %struct.Memory* %2
}

define %struct.Memory* @routine_movzwl_MINUS0xc__rbp____edx(%struct.State* dereferenceable(3376), i64, %struct.Memory*) {
block_400478:
  %3 = getelementptr inbounds %struct.State, %struct.State* %0, i32 0, i32 6
  %4 = getelementptr inbounds %struct.GPR, %struct.GPR* %3, i32 0, i32 33
  %5 = getelementptr inbounds %struct.Reg, %struct.Reg* %4, i32 0, i32 0
  %PC = bitcast %union.anon* %5 to i64*
  %6 = getelementptr inbounds %struct.State, %struct.State* %0, i32 0, i32 6
  %7 = getelementptr inbounds %struct.GPR, %struct.GPR* %6, i32 0, i32 7
  %8 = getelementptr inbounds %struct.Reg, %struct.Reg* %7, i32 0, i32 0
  %RDX = bitcast %union.anon* %8 to i64*
  %9 = getelementptr inbounds %struct.State, %struct.State* %0, i32 0, i32 6
  %10 = getelementptr inbounds %struct.GPR, %struct.GPR* %9, i32 0, i32 15
  %11 = getelementptr inbounds %struct.Reg, %struct.Reg* %10, i32 0, i32 0
  %RBP = bitcast %union.anon* %11 to i64*
  %12 = load i64, i64* %RBP
  %13 = sub i64 %12, 12
  %14 = load i64, i64* %PC
  %15 = add i64 %14, 4
  store i64 %15, i64* %PC
  %16 = inttoptr i64 %13 to i16*
  %17 = load i16, i16* %16
  %18 = zext i16 %17 to i64
  store i64 %18, i64* %RDX, align 8
  ret %struct.Memory* %2
}

define %struct.Memory* @routine_addl__edx___ecx(%struct.State* dereferenceable(3376), i64, %struct.Memory*) {
block_400478:
  %3 = getelementptr inbounds %struct.State, %struct.State* %0, i32 0, i32 6
  %4 = getelementptr inbounds %struct.GPR, %struct.GPR* %3, i32 0, i32 33
  %5 = getelementptr inbounds %struct.Reg, %struct.Reg* %4, i32 0, i32 0
  %PC = bitcast %union.anon* %5 to i64*
  %6 = getelementptr inbounds %struct.State, %struct.State* %0, i32 0, i32 6
  %7 = getelementptr inbounds %struct.GPR, %struct.GPR* %6, i32 0, i32 7
  %8 = getelementptr inbounds %struct.Reg, %struct.Reg* %7, i32 0, i32 0
  %EDX = bitcast %union.anon* %8 to i32*
  %9 = getelementptr inbounds %struct.State, %struct.State* %0, i32 0, i32 6
  %10 = getelementptr inbounds %struct.GPR, %struct.GPR* %9, i32 0, i32 5
  %11 = getelementptr inbounds %struct.Reg, %struct.Reg* %10, i32 0, i32 0
  %RCX = bitcast %union.anon* %11 to i64*
  %12 = load i64, i64* %RCX
  %13 = load i32, i32* %EDX
  %14 = zext i32 %13 to i64
  %15 = load i64, i64* %PC
  %16 = add i64 %15, 2
  store i64 %16, i64* %PC
  %17 = trunc i64 %12 to i32
  %18 = add i32 %13, %17
  %19 = zext i32 %18 to i64
  store i64 %19, i64* %RCX, align 8
  %20 = icmp ult i32 %18, %17
  %21 = icmp ult i32 %18, %13
  %22 = or i1 %20, %21
  %23 = zext i1 %22 to i8
  %24 = getelementptr inbounds %struct.State, %struct.State* %0, i64 0, i32 2, i32 1
  store i8 %23, i8* %24, align 1
  %25 = and i32 %18, 255
  %26 = call i32 @llvm.ctpop.i32(i32 %25)
  %27 = trunc i32 %26 to i8
  %28 = and i8 %27, 1
  %29 = xor i8 %28, 1
  %30 = getelementptr inbounds %struct.State, %struct.State* %0, i64 0, i32 2, i32 3
  store i8 %29, i8* %30, align 1
  %31 = xor i64 %14, %12
  %32 = trunc i64 %31 to i32
  %33 = xor i32 %32, %18
  %34 = lshr i32 %33, 4
  %35 = trunc i32 %34 to i8
  %36 = and i8 %35, 1
  %37 = getelementptr inbounds %struct.State, %struct.State* %0, i64 0, i32 2, i32 5
  store i8 %36, i8* %37, align 1
  %38 = icmp eq i32 %18, 0
  %39 = zext i1 %38 to i8
  %40 = getelementptr inbounds %struct.State, %struct.State* %0, i64 0, i32 2, i32 7
  store i8 %39, i8* %40, align 1
  %41 = lshr i32 %18, 31
  %42 = trunc i32 %41 to i8
  %43 = getelementptr inbounds %struct.State, %struct.State* %0, i64 0, i32 2, i32 9
  store i8 %42, i8* %43, align 1
  %44 = lshr i32 %17, 31
  %45 = lshr i32 %13, 31
  %46 = xor i32 %41, %44
  %47 = xor i32 %41, %45
  %48 = add i32 %46, %47
  %49 = icmp eq i32 %48, 2
  %50 = zext i1 %49 to i8
  %51 = getelementptr inbounds %struct.State, %struct.State* %0, i64 0, i32 2, i32 13
  store i8 %50, i8* %51, align 1
  ret %struct.Memory* %2
}

define %struct.Memory* @routine_movzwl_MINUS0xe__rbp____edx(%struct.State* dereferenceable(3376), i64, %struct.Memory*) {
block_400478:
  %3 = getelementptr inbounds %struct.State, %struct.State* %0, i32 0, i32 6
  %4 = getelementptr inbounds %struct.GPR, %struct.GPR* %3, i32 0, i32 33
  %5 = getelementptr inbounds %struct.Reg, %struct.Reg* %4, i32 0, i32 0
  %PC = bitcast %union.anon* %5 to i64*
  %6 = getelementptr inbounds %struct.State, %struct.State* %0, i32 0, i32 6
  %7 = getelementptr inbounds %struct.GPR, %struct.GPR* %6, i32 0, i32 7
  %8 = getelementptr inbounds %struct.Reg, %struct.Reg* %7, i32 0, i32 0
  %RDX = bitcast %union.anon* %8 to i64*
  %9 = getelementptr inbounds %struct.State, %struct.State* %0, i32 0, i32 6
  %10 = getelementptr inbounds %struct.GPR, %struct.GPR* %9, i32 0, i32 15
  %11 = getelementptr inbounds %struct.Reg, %struct.Reg* %10, i32 0, i32 0
  %RBP = bitcast %union.anon* %11 to i64*
  %12 = load i64, i64* %RBP
  %13 = sub i64 %12, 14
  %14 = load i64, i64* %PC
  %15 = add i64 %14, 4
  store i64 %15, i64* %PC
  %16 = inttoptr i64 %13 to i16*
  %17 = load i16, i16* %16
  %18 = zext i16 %17 to i64
  store i64 %18, i64* %RDX, align 8
  ret %struct.Memory* %2
}

define %struct.Memory* @routine_movzwl_MINUS0x10__rbp____esi(%struct.State* dereferenceable(3376), i64, %struct.Memory*) {
block_400478:
  %3 = getelementptr inbounds %struct.State, %struct.State* %0, i32 0, i32 6
  %4 = getelementptr inbounds %struct.GPR, %struct.GPR* %3, i32 0, i32 33
  %5 = getelementptr inbounds %struct.Reg, %struct.Reg* %4, i32 0, i32 0
  %PC = bitcast %union.anon* %5 to i64*
  %6 = getelementptr inbounds %struct.State, %struct.State* %0, i32 0, i32 6
  %7 = getelementptr inbounds %struct.GPR, %struct.GPR* %6, i32 0, i32 9
  %8 = getelementptr inbounds %struct.Reg, %struct.Reg* %7, i32 0, i32 0
  %RSI = bitcast %union.anon* %8 to i64*
  %9 = getelementptr inbounds %struct.State, %struct.State* %0, i32 0, i32 6
  %10 = getelementptr inbounds %struct.GPR, %struct.GPR* %9, i32 0, i32 15
  %11 = getelementptr inbounds %struct.Reg, %struct.Reg* %10, i32 0, i32 0
  %RBP = bitcast %union.anon* %11 to i64*
  %12 = load i64, i64* %RBP
  %13 = sub i64 %12, 16
  %14 = load i64, i64* %PC
  %15 = add i64 %14, 4
  store i64 %15, i64* %PC
  %16 = inttoptr i64 %13 to i16*
  %17 = load i16, i16* %16
  %18 = zext i16 %17 to i64
  store i64 %18, i64* %RSI, align 8
  ret %struct.Memory* %2
}

define %struct.Memory* @routine_imull__esi___edx(%struct.State* dereferenceable(3376), i64, %struct.Memory*) {
block_400478:
  %3 = getelementptr inbounds %struct.State, %struct.State* %0, i32 0, i32 6
  %4 = getelementptr inbounds %struct.GPR, %struct.GPR* %3, i32 0, i32 33
  %5 = getelementptr inbounds %struct.Reg, %struct.Reg* %4, i32 0, i32 0
  %PC = bitcast %union.anon* %5 to i64*
  %6 = getelementptr inbounds %struct.State, %struct.State* %0, i32 0, i32 6
  %7 = getelementptr inbounds %struct.GPR, %struct.GPR* %6, i32 0, i32 9
  %8 = getelementptr inbounds %struct.Reg, %struct.Reg* %7, i32 0, i32 0
  %ESI = bitcast %union.anon* %8 to i32*
  %9 = getelementptr inbounds %struct.State, %struct.State* %0, i32 0, i32 6
  %10 = getelementptr inbounds %struct.GPR, %struct.GPR* %9, i32 0, i32 7
  %11 = getelementptr inbounds %struct.Reg, %struct.Reg* %10, i32 0, i32 0
  %RDX = bitcast %union.anon* %11 to i64*
  %12 = load i64, i64* %RDX
  %13 = load i32, i32* %ESI
  %14 = zext i32 %13 to i64
  %15 = load i64, i64* %PC
  %16 = add i64 %15, 3
  store i64 %16, i64* %PC
  %17 = shl i64 %12, 32
  %18 = ashr exact i64 %17, 32
  %19 = shl i64 %14, 32
  %20 = ashr exact i64 %19, 32
  %21 = mul i64 %20, %18
  %22 = trunc i64 %21 to i32
  %23 = and i64 %21, 4294967295
  store i64 %23, i64* %RDX, align 8
  %24 = shl i64 %21, 32
  %25 = ashr exact i64 %24, 32
  %26 = icmp ne i64 %25, %21
  %27 = zext i1 %26 to i8
  %28 = getelementptr inbounds %struct.State, %struct.State* %0, i64 0, i32 2, i32 1
  store i8 %27, i8* %28, align 1
  %29 = and i32 %22, 255
  %30 = call i32 @llvm.ctpop.i32(i32 %29)
  %31 = trunc i32 %30 to i8
  %32 = and i8 %31, 1
  %33 = xor i8 %32, 1
  %34 = getelementptr inbounds %struct.State, %struct.State* %0, i64 0, i32 2, i32 3
  store i8 %33, i8* %34, align 1
  %35 = getelementptr inbounds %struct.State, %struct.State* %0, i64 0, i32 2, i32 5
  store i8 0, i8* %35, align 1
  %36 = getelementptr inbounds %struct.State, %struct.State* %0, i64 0, i32 2, i32 7
  store i8 0, i8* %36, align 1
  %37 = lshr i32 %22, 31
  %38 = trunc i32 %37 to i8
  %39 = getelementptr inbounds %struct.State, %struct.State* %0, i64 0, i32 2, i32 9
  store i8 %38, i8* %39, align 1
  %40 = getelementptr inbounds %struct.State, %struct.State* %0, i64 0, i32 2, i32 13
  store i8 %27, i8* %40, align 1
  ret %struct.Memory* %2
}

define %struct.Memory* @routine_movzwl_MINUS0x12__rbp____esi(%struct.State* dereferenceable(3376), i64, %struct.Memory*) {
block_400478:
  %3 = getelementptr inbounds %struct.State, %struct.State* %0, i32 0, i32 6
  %4 = getelementptr inbounds %struct.GPR, %struct.GPR* %3, i32 0, i32 33
  %5 = getelementptr inbounds %struct.Reg, %struct.Reg* %4, i32 0, i32 0
  %PC = bitcast %union.anon* %5 to i64*
  %6 = getelementptr inbounds %struct.State, %struct.State* %0, i32 0, i32 6
  %7 = getelementptr inbounds %struct.GPR, %struct.GPR* %6, i32 0, i32 9
  %8 = getelementptr inbounds %struct.Reg, %struct.Reg* %7, i32 0, i32 0
  %RSI = bitcast %union.anon* %8 to i64*
  %9 = getelementptr inbounds %struct.State, %struct.State* %0, i32 0, i32 6
  %10 = getelementptr inbounds %struct.GPR, %struct.GPR* %9, i32 0, i32 15
  %11 = getelementptr inbounds %struct.Reg, %struct.Reg* %10, i32 0, i32 0
  %RBP = bitcast %union.anon* %11 to i64*
  %12 = load i64, i64* %RBP
  %13 = sub i64 %12, 18
  %14 = load i64, i64* %PC
  %15 = add i64 %14, 4
  store i64 %15, i64* %PC
  %16 = inttoptr i64 %13 to i16*
  %17 = load i16, i16* %16
  %18 = zext i16 %17 to i64
  store i64 %18, i64* %RSI, align 8
  ret %struct.Memory* %2
}

define %struct.Memory* @routine_movl__edx___eax(%struct.State* dereferenceable(3376), i64, %struct.Memory*) {
block_400478:
  %3 = getelementptr inbounds %struct.State, %struct.State* %0, i32 0, i32 6
  %4 = getelementptr inbounds %struct.GPR, %struct.GPR* %3, i32 0, i32 33
  %5 = getelementptr inbounds %struct.Reg, %struct.Reg* %4, i32 0, i32 0
  %PC = bitcast %union.anon* %5 to i64*
  %6 = getelementptr inbounds %struct.State, %struct.State* %0, i32 0, i32 6
  %7 = getelementptr inbounds %struct.GPR, %struct.GPR* %6, i32 0, i32 7
  %8 = getelementptr inbounds %struct.Reg, %struct.Reg* %7, i32 0, i32 0
  %EDX = bitcast %union.anon* %8 to i32*
  %9 = getelementptr inbounds %struct.State, %struct.State* %0, i32 0, i32 6
  %10 = getelementptr inbounds %struct.GPR, %struct.GPR* %9, i32 0, i32 1
  %11 = getelementptr inbounds %struct.Reg, %struct.Reg* %10, i32 0, i32 0
  %RAX = bitcast %union.anon* %11 to i64*
  %12 = load i32, i32* %EDX
  %13 = zext i32 %12 to i64
  %14 = load i64, i64* %PC
  %15 = add i64 %14, 2
  store i64 %15, i64* %PC
  %16 = and i64 %13, 4294967295
  store i64 %16, i64* %RAX, align 8
  ret %struct.Memory* %2
}

define %struct.Memory* @routine_cltd(%struct.State* dereferenceable(3376), i64, %struct.Memory*) {
block_400478:
  %3 = getelementptr inbounds %struct.State, %struct.State* %0, i32 0, i32 6
  %4 = getelementptr inbounds %struct.GPR, %struct.GPR* %3, i32 0, i32 33
  %5 = getelementptr inbounds %struct.Reg, %struct.Reg* %4, i32 0, i32 0
  %PC = bitcast %union.anon* %5 to i64*
  %6 = load i64, i64* %PC
  %7 = add i64 %6, 1
  store i64 %7, i64* %PC
  %8 = getelementptr inbounds %struct.State, %struct.State* %0, i64 0, i32 6, i32 7, i32 0, i32 0
  %9 = getelementptr inbounds %struct.State, %struct.State* %0, i64 0, i32 6, i32 1, i32 0
  %10 = bitcast %union.anon* %9 to i32*
  %11 = load i32, i32* %10, align 8
  %12 = sext i32 %11 to i64
  %13 = lshr i64 %12, 32
  store i64 %13, i64* %8, align 8
  ret %struct.Memory* %2
}

define %struct.Memory* @routine_idivl__esi(%struct.State* dereferenceable(3376), i64, %struct.Memory*) {
block_400478:
  %3 = getelementptr inbounds %struct.State, %struct.State* %0, i32 0, i32 6
  %4 = getelementptr inbounds %struct.GPR, %struct.GPR* %3, i32 0, i32 33
  %5 = getelementptr inbounds %struct.Reg, %struct.Reg* %4, i32 0, i32 0
  %PC = bitcast %union.anon* %5 to i64*
  %6 = getelementptr inbounds %struct.State, %struct.State* %0, i32 0, i32 6
  %7 = getelementptr inbounds %struct.GPR, %struct.GPR* %6, i32 0, i32 9
  %8 = getelementptr inbounds %struct.Reg, %struct.Reg* %7, i32 0, i32 0
  %ESI = bitcast %union.anon* %8 to i32*
  %9 = load i32, i32* %ESI
  %10 = zext i32 %9 to i64
  %11 = load i64, i64* %PC
  %12 = add i64 %11, 2
  store i64 %12, i64* %PC
  %13 = getelementptr inbounds %struct.State, %struct.State* %0, i64 0, i32 6, i32 1, i32 0
  %14 = bitcast %union.anon* %13 to i32*
  %15 = load i32, i32* %14, align 8
  %16 = zext i32 %15 to i64
  %17 = getelementptr inbounds %struct.State, %struct.State* %0, i64 0, i32 6, i32 7, i32 0
  %18 = bitcast %union.anon* %17 to i32*
  %19 = load i32, i32* %18, align 8
  %20 = zext i32 %19 to i64
  %21 = shl i64 %10, 32
  %22 = ashr exact i64 %21, 32
  %23 = shl i64 %20, 32
  %24 = or i64 %23, %16
  %25 = sdiv i64 %24, %22
  %26 = shl i64 %25, 32
  %27 = ashr exact i64 %26, 32
  %28 = icmp eq i64 %25, %27
  br i1 %28, label %33, label %29

; <label>:29:                                     ; preds = %block_400478
  %30 = getelementptr inbounds %struct.State, %struct.State* %0, i64 0, i32 6, i32 33, i32 0, i32 0
  %31 = load i64, i64* %30, align 8
  %32 = call %struct.Memory* @__remill_error(%struct.State* nonnull dereferenceable(3376) %0, i64 %31, %struct.Memory* %2)
  br label %_ZN12_GLOBAL__N_1L10IDIVedxeaxI2RnIjEEEP6MemoryS4_R5StateT_.exit

; <label>:33:                                     ; preds = %block_400478
  %34 = srem i64 %24, %22
  %35 = getelementptr inbounds %union.anon, %union.anon* %13, i64 0, i32 0
  %36 = and i64 %25, 4294967295
  store i64 %36, i64* %35, align 8
  %37 = getelementptr inbounds %union.anon, %union.anon* %17, i64 0, i32 0
  %38 = and i64 %34, 4294967295
  store i64 %38, i64* %37, align 8
  %39 = getelementptr inbounds %struct.State, %struct.State* %0, i64 0, i32 2, i32 1
  store i8 0, i8* %39, align 1
  %40 = getelementptr inbounds %struct.State, %struct.State* %0, i64 0, i32 2, i32 3
  store i8 0, i8* %40, align 1
  %41 = getelementptr inbounds %struct.State, %struct.State* %0, i64 0, i32 2, i32 5
  store i8 0, i8* %41, align 1
  %42 = getelementptr inbounds %struct.State, %struct.State* %0, i64 0, i32 2, i32 7
  store i8 0, i8* %42, align 1
  %43 = getelementptr inbounds %struct.State, %struct.State* %0, i64 0, i32 2, i32 9
  store i8 0, i8* %43, align 1
  %44 = getelementptr inbounds %struct.State, %struct.State* %0, i64 0, i32 2, i32 13
  store i8 0, i8* %44, align 1
  br label %_ZN12_GLOBAL__N_1L10IDIVedxeaxI2RnIjEEEP6MemoryS4_R5StateT_.exit

_ZN12_GLOBAL__N_1L10IDIVedxeaxI2RnIjEEEP6MemoryS4_R5StateT_.exit: ; preds = %29, %33
  %45 = phi %struct.Memory* [ %32, %29 ], [ %2, %33 ]
  ret %struct.Memory* %45
}

define %struct.Memory* @routine_subl__eax___ecx(%struct.State* dereferenceable(3376), i64, %struct.Memory*) {
block_400478:
  %3 = getelementptr inbounds %struct.State, %struct.State* %0, i32 0, i32 6
  %4 = getelementptr inbounds %struct.GPR, %struct.GPR* %3, i32 0, i32 33
  %5 = getelementptr inbounds %struct.Reg, %struct.Reg* %4, i32 0, i32 0
  %PC = bitcast %union.anon* %5 to i64*
  %6 = getelementptr inbounds %struct.State, %struct.State* %0, i32 0, i32 6
  %7 = getelementptr inbounds %struct.GPR, %struct.GPR* %6, i32 0, i32 1
  %8 = getelementptr inbounds %struct.Reg, %struct.Reg* %7, i32 0, i32 0
  %EAX = bitcast %union.anon* %8 to i32*
  %9 = getelementptr inbounds %struct.State, %struct.State* %0, i32 0, i32 6
  %10 = getelementptr inbounds %struct.GPR, %struct.GPR* %9, i32 0, i32 5
  %11 = getelementptr inbounds %struct.Reg, %struct.Reg* %10, i32 0, i32 0
  %RCX = bitcast %union.anon* %11 to i64*
  %12 = load i64, i64* %RCX
  %13 = load i32, i32* %EAX
  %14 = zext i32 %13 to i64
  %15 = load i64, i64* %PC
  %16 = add i64 %15, 2
  store i64 %16, i64* %PC
  %17 = trunc i64 %12 to i32
  %18 = sub i32 %17, %13
  %19 = zext i32 %18 to i64
  store i64 %19, i64* %RCX, align 8
  %20 = icmp ult i32 %17, %13
  %21 = zext i1 %20 to i8
  %22 = getelementptr inbounds %struct.State, %struct.State* %0, i64 0, i32 2, i32 1
  store i8 %21, i8* %22, align 1
  %23 = and i32 %18, 255
  %24 = call i32 @llvm.ctpop.i32(i32 %23)
  %25 = trunc i32 %24 to i8
  %26 = and i8 %25, 1
  %27 = xor i8 %26, 1
  %28 = getelementptr inbounds %struct.State, %struct.State* %0, i64 0, i32 2, i32 3
  store i8 %27, i8* %28, align 1
  %29 = xor i64 %14, %12
  %30 = trunc i64 %29 to i32
  %31 = xor i32 %30, %18
  %32 = lshr i32 %31, 4
  %33 = trunc i32 %32 to i8
  %34 = and i8 %33, 1
  %35 = getelementptr inbounds %struct.State, %struct.State* %0, i64 0, i32 2, i32 5
  store i8 %34, i8* %35, align 1
  %36 = icmp eq i32 %18, 0
  %37 = zext i1 %36 to i8
  %38 = getelementptr inbounds %struct.State, %struct.State* %0, i64 0, i32 2, i32 7
  store i8 %37, i8* %38, align 1
  %39 = lshr i32 %18, 31
  %40 = trunc i32 %39 to i8
  %41 = getelementptr inbounds %struct.State, %struct.State* %0, i64 0, i32 2, i32 9
  store i8 %40, i8* %41, align 1
  %42 = lshr i32 %17, 31
  %43 = lshr i32 %13, 31
  %44 = xor i32 %43, %42
  %45 = xor i32 %39, %42
  %46 = add i32 %45, %44
  %47 = icmp eq i32 %46, 2
  %48 = zext i1 %47 to i8
  %49 = getelementptr inbounds %struct.State, %struct.State* %0, i64 0, i32 2, i32 13
  store i8 %48, i8* %49, align 1
  ret %struct.Memory* %2
}

define %struct.Memory* @routine_movzwl__r9w___eax(%struct.State* dereferenceable(3376), i64, %struct.Memory*) {
block_400478:
  %3 = getelementptr inbounds %struct.State, %struct.State* %0, i32 0, i32 6
  %4 = getelementptr inbounds %struct.GPR, %struct.GPR* %3, i32 0, i32 33
  %5 = getelementptr inbounds %struct.Reg, %struct.Reg* %4, i32 0, i32 0
  %PC = bitcast %union.anon* %5 to i64*
  %6 = getelementptr inbounds %struct.State, %struct.State* %0, i32 0, i32 6
  %7 = getelementptr inbounds %struct.GPR, %struct.GPR* %6, i32 0, i32 19
  %8 = getelementptr inbounds %struct.Reg, %struct.Reg* %7, i32 0, i32 0
  %R9W = bitcast %union.anon* %8 to i16*
  %9 = getelementptr inbounds %struct.State, %struct.State* %0, i32 0, i32 6
  %10 = getelementptr inbounds %struct.GPR, %struct.GPR* %9, i32 0, i32 1
  %11 = getelementptr inbounds %struct.Reg, %struct.Reg* %10, i32 0, i32 0
  %RAX = bitcast %union.anon* %11 to i64*
  %12 = load i16, i16* %R9W
  %13 = zext i16 %12 to i64
  %14 = load i64, i64* %PC
  %15 = add i64 %14, 4
  store i64 %15, i64* %PC
  %16 = and i64 %13, 65535
  store i64 %16, i64* %RAX, align 8
  ret %struct.Memory* %2
}

define %struct.Memory* @routine_popq__rbx(%struct.State* dereferenceable(3376), i64, %struct.Memory*) {
block_400478:
  %3 = getelementptr inbounds %struct.State, %struct.State* %0, i32 0, i32 6
  %4 = getelementptr inbounds %struct.GPR, %struct.GPR* %3, i32 0, i32 33
  %5 = getelementptr inbounds %struct.Reg, %struct.Reg* %4, i32 0, i32 0
  %PC = bitcast %union.anon* %5 to i64*
  %6 = getelementptr inbounds %struct.State, %struct.State* %0, i32 0, i32 6
  %7 = getelementptr inbounds %struct.GPR, %struct.GPR* %6, i32 0, i32 3
  %8 = getelementptr inbounds %struct.Reg, %struct.Reg* %7, i32 0, i32 0
  %RBX = bitcast %union.anon* %8 to i64*
  %9 = load i64, i64* %PC
  %10 = add i64 %9, 1
  store i64 %10, i64* %PC
  %11 = getelementptr inbounds %struct.State, %struct.State* %0, i64 0, i32 6, i32 13, i32 0, i32 0
  %12 = load i64, i64* %11, align 8
  %13 = add i64 %12, 8
  %14 = inttoptr i64 %12 to i64*
  %15 = load i64, i64* %14
  store i64 %15, i64* %RBX, align 8
  store i64 %13, i64* %11, align 8
  ret %struct.Memory* %2
}

define %struct.Memory* @routine_popq__rbp(%struct.State* dereferenceable(3376), i64, %struct.Memory*) {
block_400478:
  %3 = getelementptr inbounds %struct.State, %struct.State* %0, i32 0, i32 6
  %4 = getelementptr inbounds %struct.GPR, %struct.GPR* %3, i32 0, i32 33
  %5 = getelementptr inbounds %struct.Reg, %struct.Reg* %4, i32 0, i32 0
  %PC = bitcast %union.anon* %5 to i64*
  %6 = getelementptr inbounds %struct.State, %struct.State* %0, i32 0, i32 6
  %7 = getelementptr inbounds %struct.GPR, %struct.GPR* %6, i32 0, i32 15
  %8 = getelementptr inbounds %struct.Reg, %struct.Reg* %7, i32 0, i32 0
  %RBP = bitcast %union.anon* %8 to i64*
  %9 = load i64, i64* %PC
  %10 = add i64 %9, 1
  store i64 %10, i64* %PC
  %11 = getelementptr inbounds %struct.State, %struct.State* %0, i64 0, i32 6, i32 13, i32 0, i32 0
  %12 = load i64, i64* %11, align 8
  %13 = add i64 %12, 8
  %14 = inttoptr i64 %12 to i64*
  %15 = load i64, i64* %14
  store i64 %15, i64* %RBP, align 8
  store i64 %13, i64* %11, align 8
  ret %struct.Memory* %2
}

define %struct.Memory* @routine_retq(%struct.State* dereferenceable(3376), i64, %struct.Memory*) {
block_400478:
  %3 = getelementptr inbounds %struct.State, %struct.State* %0, i32 0, i32 6
  %4 = getelementptr inbounds %struct.GPR, %struct.GPR* %3, i32 0, i32 33
  %5 = getelementptr inbounds %struct.Reg, %struct.Reg* %4, i32 0, i32 0
  %PC = bitcast %union.anon* %5 to i64*
  %6 = load i64, i64* %PC
  %7 = add i64 %6, 1
  store i64 %7, i64* %PC
  %8 = getelementptr inbounds %struct.State, %struct.State* %0, i64 0, i32 6, i32 33, i32 0, i32 0
  %9 = getelementptr inbounds %struct.State, %struct.State* %0, i64 0, i32 6, i32 13, i32 0, i32 0
  %10 = load i64, i64* %9, align 8
  %11 = inttoptr i64 %10 to i64*
  %12 = load i64, i64* %11
  store i64 %12, i64* %8, align 8
  %13 = add i64 %10, 8
  store i64 %13, i64* %9, align 8
  ret %struct.Memory* %2
}

attributes #0 = { argmemonly nounwind }
attributes #1 = { nounwind readnone }
attributes #2 = { alwaysinline }
