[     1s]    INFO tuneNormalizer:  Search Space: ['-mem2reg', '-licm', '-gvn', '-early-cse', '-globalopt', '-simplifycfg', '-basicaa', '-aa', '-memdep', '-dse', '-deadargelim', '-libcalls-shrinkwrap', '-tailcallelim', '-instcombine', '-memcpyopt', '-early-cse-memssa']


[    59s]    INFO opentuner.search.plugin.DisplayPlugin: tests=4, best #188, cost time=0.0171, found by NormalGreedyMutation
[    59s] WARNING opentuner.search.simplextechniques: only 1 point in simplex, will not use RandomNelderMead
[   101s]    INFO opentuner.search.plugin.DisplayPlugin: tests=8, best #188, cost time=0.0171, found by NormalGreedyMutation
[   144s]    INFO opentuner.search.plugin.DisplayPlugin: tests=12, best #188, cost time=0.0171, found by NormalGreedyMutation
[   180s]    INFO opentuner.search.plugin.DisplayPlugin: tests=16, best #190, cost time=0.0101, found by DifferentialEvolutionAlt
[   205s]    INFO tuneNormalizer: run_precompiled: Early Exit: Optimal pass sequence written to mcsema//normalizer_final_config.json: [ -gvn -early-cse -globalopt -dse -libcalls-shrinkwrap -tailcallelim -instcombine -early-cse-memssa]
[   232s]    INFO opentuner.search.plugin.DisplayPlugin: tests=20, best #195, cost time=0.0000, found by DifferentialEvolutionAlt
[   250s]    INFO tuneNormalizer: run_precompiled: Early Exit: Optimal pass sequence written to mcsema//normalizer_final_config.json: [ -mem2reg -licm -gvn -basicaa -deadargelim -libcalls-shrinkwrap -instcombine -early-cse-memssa]
[   262s]    INFO tuneNormalizer: run_precompiled: Early Exit: Optimal pass sequence written to mcsema//normalizer_final_config.json: [ -mem2reg -gvn -aa -dse -tailcallelim -instcombine]
[   271s]    INFO opentuner.search.plugin.DisplayPlugin: tests=24, best #195, cost time=0.0000, found by DifferentialEvolutionAlt
[   292s]    INFO tuneNormalizer: run_precompiled: Early Exit: Optimal pass sequence written to mcsema//normalizer_final_config.json: [ -mem2reg -licm -gvn -globalopt -aa -dse -deadargelim -libcalls-shrinkwrap -memcpyopt -early-cse-memssa]
[   308s]    INFO opentuner.search.plugin.DisplayPlugin: tests=28, best #195, cost time=0.0000, found by DifferentialEvolutionAlt
[   325s]    INFO tuneNormalizer: run_precompiled: Early Exit: Optimal pass sequence written to mcsema//normalizer_final_config.json: [ -gvn -early-cse -globalopt -simplifycfg -basicaa -dse -libcalls-shrinkwrap -instcombine -early-cse-memssa]
[   330s]    INFO tuneNormalizer: run_precompiled: Early Exit: Optimal pass sequence written to mcsema//normalizer_final_config.json: [ -gvn -early-cse -globalopt -dse -libcalls-shrinkwrap -tailcallelim -instcombine]
[   335s]    INFO tuneNormalizer: run_precompiled: Early Exit: Optimal pass sequence written to mcsema//normalizer_final_config.json: [ -gvn -early-cse -globalopt -aa -dse -libcalls-shrinkwrap -tailcallelim -instcombine -early-cse-memssa]
[   341s]    INFO tuneNormalizer: run_precompiled: Early Exit: Optimal pass sequence written to mcsema//normalizer_final_config.json: [ -gvn -globalopt -aa -memdep -dse -libcalls-shrinkwrap -tailcallelim -instcombine -early-cse-memssa]
[   341s]    INFO opentuner.search.plugin.DisplayPlugin: tests=32, best #195, cost time=0.0000, found by DifferentialEvolutionAlt
[   370s]    INFO tuneNormalizer: run_precompiled: Early Exit: Optimal pass sequence written to mcsema//normalizer_final_config.json: [ -mem2reg -gvn -early-cse -globalopt -libcalls-shrinkwrap -tailcallelim -instcombine -early-cse-memssa]
[   375s]    INFO tuneNormalizer: run_precompiled: Early Exit: Optimal pass sequence written to mcsema//normalizer_final_config.json: [ -gvn -early-cse -globalopt -dse -tailcallelim -instcombine -early-cse-memssa]
[   375s]    INFO opentuner.search.plugin.DisplayPlugin: tests=36, best #195, cost time=0.0000, found by DifferentialEvolutionAlt
[   412s]    INFO opentuner.search.plugin.DisplayPlugin: tests=40, best #195, cost time=0.0000, found by DifferentialEvolutionAlt
[   441s]    INFO tuneNormalizer: run_precompiled: Early Exit: Optimal pass sequence written to mcsema//normalizer_final_config.json: [ -gvn -early-cse -globalopt -libcalls-shrinkwrap -tailcallelim -instcombine -early-cse-memssa]
[   449s]    INFO tuneNormalizer: run_precompiled: Early Exit: Optimal pass sequence written to mcsema//normalizer_final_config.json: [ -gvn -globalopt -dse -deadargelim -libcalls-shrinkwrap -tailcallelim -instcombine -early-cse-memssa]
[   460s]    INFO tuneNormalizer: run_precompiled: Early Exit: Optimal pass sequence written to mcsema//normalizer_final_config.json: [ -gvn -early-cse -libcalls-shrinkwrap -instcombine -memcpyopt -early-cse-memssa]
[   460s]    INFO opentuner.search.plugin.DisplayPlugin: tests=44, best #195, cost time=0.0000, found by DifferentialEvolutionAlt
[   484s]    INFO tuneNormalizer: run_precompiled: Early Exit: Optimal pass sequence written to mcsema//normalizer_final_config.json: [ -licm -early-cse -basicaa -aa -memdep -libcalls-shrinkwrap -tailcallelim -instcombine -early-cse-memssa]
[   517s]    INFO opentuner.search.plugin.DisplayPlugin: tests=48, best #195, cost time=0.0000, found by DifferentialEvolutionAlt
[   535s]    INFO tuneNormalizer: run_precompiled: Early Exit: Optimal pass sequence written to mcsema//normalizer_final_config.json: [ -mem2reg -gvn -early-cse -globalopt -dse -tailcallelim -early-cse-memssa]
[   541s]    INFO tuneNormalizer: run_precompiled: Early Exit: Optimal pass sequence written to mcsema//normalizer_final_config.json: [ -gvn -early-cse -basicaa -dse -deadargelim -libcalls-shrinkwrap -tailcallelim -instcombine -early-cse-memssa]
[   551s]    INFO tuneNormalizer: run_precompiled: Early Exit: Optimal pass sequence written to mcsema//normalizer_final_config.json: [ -gvn -early-cse -dse -libcalls-shrinkwrap -instcombine -early-cse-memssa]
[   551s]    INFO opentuner.search.plugin.DisplayPlugin: tests=52, best #195, cost time=0.0000, found by DifferentialEvolutionAlt
[   589s]    INFO opentuner.search.plugin.DisplayPlugin: tests=56, best #195, cost time=0.0000, found by DifferentialEvolutionAlt
[   615s]    INFO tuneNormalizer: run_precompiled: Early Exit: Optimal pass sequence written to mcsema//normalizer_final_config.json: [ -licm -gvn -early-cse -globalopt -dse -libcalls-shrinkwrap -tailcallelim -instcombine -memcpyopt -early-cse-memssa]
[   620s]    INFO tuneNormalizer: run_precompiled: Early Exit: Optimal pass sequence written to mcsema//normalizer_final_config.json: [ -licm -gvn -early-cse -dse -libcalls-shrinkwrap -tailcallelim -instcombine]
[   626s]    INFO opentuner.search.plugin.DisplayPlugin: tests=60, best #195, cost time=0.0000, found by DifferentialEvolutionAlt
[   645s]    INFO tuneNormalizer: run_precompiled: Early Exit: Optimal pass sequence written to mcsema//normalizer_final_config.json: [ -gvn -early-cse -dse -tailcallelim -instcombine -early-cse-memssa]
[   655s]    INFO tuneNormalizer: run_precompiled: Early Exit: Optimal pass sequence written to mcsema//normalizer_final_config.json: [ -gvn -early-cse -globalopt -dse -deadargelim -libcalls-shrinkwrap -tailcallelim -instcombine -early-cse-memssa]
[   655s]    INFO opentuner.search.plugin.DisplayPlugin: tests=63, best #195, cost time=0.0000, found by DifferentialEvolutionAlt
[   695s]    INFO opentuner.search.plugin.DisplayPlugin: tests=67, best #195, cost time=0.0000, found by DifferentialEvolutionAlt
[   718s]    INFO tuneNormalizer: run_precompiled: Early Exit: Optimal pass sequence written to mcsema//normalizer_final_config.json: [ -early-cse -globalopt -libcalls-shrinkwrap -instcombine -early-cse-memssa]
[   723s]    INFO tuneNormalizer: run_precompiled: Early Exit: Optimal pass sequence written to mcsema//normalizer_final_config.json: [ -gvn -early-cse -globalopt -dse -libcalls-shrinkwrap -instcombine -early-cse-memssa]
[   731s]    INFO opentuner.search.plugin.DisplayPlugin: tests=71, best #195, cost time=0.0000, found by DifferentialEvolutionAlt
[   749s]    INFO tuneNormalizer: run_precompiled: Early Exit: Optimal pass sequence written to mcsema//normalizer_final_config.json: [ -gvn -early-cse -globalopt -dse -libcalls-shrinkwrap -tailcallelim -instcombine -early-cse-memssa]
[   754s]    INFO tuneNormalizer: run_precompiled: Early Exit: Optimal pass sequence written to mcsema//normalizer_final_config.json: [ -gvn -early-cse -globalopt -simplifycfg -basicaa -dse -libcalls-shrinkwrap -tailcallelim -instcombine -early-cse-memssa]
[   759s]    INFO tuneNormalizer: run_precompiled: Early Exit: Optimal pass sequence written to mcsema//normalizer_final_config.json: [ -gvn -globalopt -dse -tailcallelim -instcombine -early-cse-memssa]
[   764s]    INFO tuneNormalizer: run_precompiled: Early Exit: Optimal pass sequence written to mcsema//normalizer_final_config.json: [ -gvn -early-cse -globalopt -basicaa -dse -deadargelim -libcalls-shrinkwrap -tailcallelim -instcombine -early-cse-memssa]
[   764s]    INFO opentuner.search.plugin.DisplayPlugin: tests=75, best #195, cost time=0.0000, found by DifferentialEvolutionAlt
[   798s]    INFO opentuner.search.plugin.DisplayPlugin: tests=79, best #195, cost time=0.0000, found by DifferentialEvolutionAlt
[   820s]    INFO tuneNormalizer: run_precompiled: Early Exit: Optimal pass sequence written to mcsema//normalizer_final_config.json: [ -gvn -globalopt -basicaa -aa -dse -deadargelim -libcalls-shrinkwrap -tailcallelim -instcombine -early-cse-memssa]
[   831s]    INFO opentuner.search.plugin.DisplayPlugin: tests=83, best #195, cost time=0.0000, found by DifferentialEvolutionAlt
[   849s]    INFO tuneNormalizer: run_precompiled: Early Exit: Optimal pass sequence written to mcsema//normalizer_final_config.json: [ -gvn -early-cse -globalopt -dse -tailcallelim -instcombine -early-cse-memssa]
[   865s]    INFO tuneNormalizer: run_precompiled: Early Exit: Optimal pass sequence written to mcsema//normalizer_final_config.json: [ -gvn -early-cse -globalopt -dse -tailcallelim -instcombine -early-cse-memssa]
[   865s]    INFO opentuner.search.plugin.DisplayPlugin: tests=87, best #195, cost time=0.0000, found by DifferentialEvolutionAlt
[   896s]    INFO tuneNormalizer: run_precompiled: Early Exit: Optimal pass sequence written to mcsema//normalizer_final_config.json: [ -mem2reg -licm -gvn -basicaa -aa -deadargelim -libcalls-shrinkwrap -tailcallelim -instcombine -early-cse-memssa]
[   905s]    INFO opentuner.search.plugin.DisplayPlugin: tests=91, best #195, cost time=0.0000, found by DifferentialEvolutionAlt
[   937s]    INFO tuneNormalizer: run_precompiled: Early Exit: Optimal pass sequence written to mcsema//normalizer_final_config.json: [ -mem2reg -early-cse -globalopt -simplifycfg -libcalls-shrinkwrap -instcombine -early-cse-memssa]
[   942s]    INFO tuneNormalizer: run_precompiled: Early Exit: Optimal pass sequence written to mcsema//normalizer_final_config.json: [ -gvn -early-cse -globalopt -aa -dse -libcalls-shrinkwrap -instcombine -early-cse-memssa]
[   942s]    INFO opentuner.search.plugin.DisplayPlugin: tests=95, best #195, cost time=0.0000, found by DifferentialEvolutionAlt
[   979s]    INFO opentuner.search.plugin.DisplayPlugin: tests=99, best #195, cost time=0.0000, found by DifferentialEvolutionAlt
[   997s]    INFO tuneNormalizer: run_precompiled: Early Exit: Optimal pass sequence written to mcsema//normalizer_final_config.json: [ -gvn -globalopt -dse -libcalls-shrinkwrap -tailcallelim -instcombine -early-cse-memssa]
[  1002s]    INFO tuneNormalizer: run_precompiled: Early Exit: Optimal pass sequence written to mcsema//normalizer_final_config.json: [ -gvn -early-cse -dse -libcalls-shrinkwrap -tailcallelim -instcombine -early-cse-memssa]
[  1007s]    INFO tuneNormalizer: run_precompiled: Early Exit: Optimal pass sequence written to mcsema//normalizer_final_config.json: [ -gvn -globalopt -dse -libcalls-shrinkwrap -tailcallelim -instcombine -early-cse-memssa]
[  1007s]    INFO opentuner.search.plugin.DisplayPlugin: tests=102, best #195, cost time=0.0000, found by DifferentialEvolutionAlt
[  1007s]    INFO opentuner.search.plugin.DisplayPlugin: tests=102, best #195, cost time=0.0000, found by DifferentialEvolutionAlt
[  1007s]    INFO tuneNormalizer: Optimal pass sequence seen so far: [-early-cse-memssa -globalopt -instcombine -libcalls-shrinkwrap -dse -early-cse -tailcallelim -gvn ]
1329.50user 34.15system 16:47.36elapsed 135%CPU (0avgtext+0avgdata 109676maxresident)k
0inputs+2511976outputs (0major+4833041minor)pagefaults 0swaps
