; ModuleID = 'mcsema/test.proposed.ll'
source_filename = "llvm-link"
target datalayout = "e-m:e-i64:64-f80:128-n8:16:32:64-S128"
target triple = "x86_64-pc-linux-gnu-elf"

%union.anon = type { i64 }
%seg_400388__init_type = type <{ [23 x i8] }>
%seg_4003a0__text_type = type <{ [354 x i8] }>
%seg_400504__fini_type = type <{ [9 x i8] }>
%seg_400510__rodata_type = type <{ [4 x i8] }>
%seg_400514__eh_frame_hdr_type = type <{ [52 x i8] }>
%seg_400548__eh_frame_type = type <{ [208 x i8] }>
%seg_601018__data_type = type <{ [16 x i8] }>
%__bss_start_type = type <{ [8 x i8] }>
%struct.State = type { %struct.ArchState, [32 x %union.VectorReg], %struct.ArithFlags, %union.anon, %struct.Segments, %struct.AddressSpace, %struct.GPR, %struct.X87Stack, %struct.MMX, %struct.FPUStatusFlags, %union.anon, %union.FPU, %struct.SegmentCaches }
%struct.ArchState = type { i32, i32, %union.anon }
%union.VectorReg = type { %union.vec512_t }
%union.vec512_t = type { %struct.uint64v8_t }
%struct.uint64v8_t = type { [8 x i64] }
%struct.ArithFlags = type { i8, i8, i8, i8, i8, i8, i8, i8, i8, i8, i8, i8, i8, i8, i8, i8 }
%struct.Segments = type { i16, %union.SegmentSelector, i16, %union.SegmentSelector, i16, %union.SegmentSelector, i16, %union.SegmentSelector, i16, %union.SegmentSelector, i16, %union.SegmentSelector }
%union.SegmentSelector = type { i16 }
%struct.AddressSpace = type { i64, %struct.Reg, i64, %struct.Reg, i64, %struct.Reg, i64, %struct.Reg, i64, %struct.Reg, i64, %struct.Reg }
%struct.Reg = type { %union.anon }
%struct.GPR = type { i64, %struct.Reg, i64, %struct.Reg, i64, %struct.Reg, i64, %struct.Reg, i64, %struct.Reg, i64, %struct.Reg, i64, %struct.Reg, i64, %struct.Reg, i64, %struct.Reg, i64, %struct.Reg, i64, %struct.Reg, i64, %struct.Reg, i64, %struct.Reg, i64, %struct.Reg, i64, %struct.Reg, i64, %struct.Reg, i64, %struct.Reg }
%struct.X87Stack = type { [8 x %struct.anon.3] }
%struct.anon.3 = type { i64, double }
%struct.MMX = type { [8 x %struct.anon.4] }
%struct.anon.4 = type { i64, %union.vec64_t }
%union.vec64_t = type { %struct.uint64v1_t }
%struct.uint64v1_t = type { [1 x i64] }
%struct.FPUStatusFlags = type { i8, i8, i8, i8, i8, i8, i8, i8, i8, i8, i8, i8, i8, i8, i8, i8, i8, i8, i8, i8, [4 x i8] }
%union.FPU = type { %struct.anon.13 }
%struct.anon.13 = type { %struct.FpuFXSAVE, [96 x i8] }
%struct.FpuFXSAVE = type { %union.SegmentSelector, %union.SegmentSelector, %union.FPUAbridgedTagWord, i8, i16, i32, %union.SegmentSelector, i16, i32, %union.SegmentSelector, i16, %union.FPUControlStatus, %union.FPUControlStatus, [8 x %struct.FPUStackElem], [16 x %union.vec128_t] }
%union.FPUAbridgedTagWord = type { i8 }
%union.FPUControlStatus = type { i32 }
%struct.FPUStackElem = type { %union.anon.11, [6 x i8] }
%union.anon.11 = type { %struct.float80_t }
%struct.float80_t = type { [10 x i8] }
%union.vec128_t = type { %struct.uint128v1_t }
%struct.uint128v1_t = type { [1 x i128] }
%struct.SegmentCaches = type { %struct.SegmentShadow, %struct.SegmentShadow, %struct.SegmentShadow, %struct.SegmentShadow, %struct.SegmentShadow, %struct.SegmentShadow }
%struct.SegmentShadow = type { %union.anon, i32, i32 }
%struct.Memory = type opaque

@switch.table = private unnamed_addr constant [4 x i32] [i32 2048, i32 3072, i32 0, i32 1024]
@DR0 = external global i64, align 8
@DR1 = external global i64, align 8
@DR2 = external global i64, align 8
@DR3 = external global i64, align 8
@DR4 = external global i64, align 8
@DR5 = external global i64, align 8
@DR6 = external global i64, align 8
@DR7 = external global i64, align 8
@gCR0 = external global %union.anon, align 1
@gCR1 = external global %union.anon, align 1
@gCR2 = external global %union.anon, align 1
@gCR3 = external global %union.anon, align 1
@gCR4 = external global %union.anon, align 1
@gCR8 = external global %union.anon, align 1
@seg_400388__init = internal constant %seg_400388__init_type <{ [23 x i8] c"H\83\EC\08H\8B\05e\0C \00H\85\C0t\02\FF\D0H\83\C4\08\C3" }>
@seg_4003a0__text = internal constant %seg_4003a0__text_type <{ [354 x i8] c"1\EDI\89\D1^H\89\E2H\83\E4\F0PTI\C7\C0\00\05@\00H\C7\C1\90\04@\00H\C7\C7\88\04@\00\FF\15&\0C \00\F4\0F\1FD\00\00\F3\C3f.\0F\1F\84\00\00\00\00\00\0F\1F@\00U\B8(\10`\00H=(\10`\00H\89\E5t\17\B8\00\00\00\00H\85\C0t\0D]\BF(\10`\00\FF\E0\0F\1FD\00\00]\C3f\0F\1FD\00\00\BE(\10`\00UH\81\EE(\10`\00H\89\E5H\C1\FE\03H\89\F0H\C1\E8?H\01\C6H\D1\FEt\15\B8\00\00\00\00H\85\C0t\0B]\BF(\10`\00\FF\E0\0F\1F\00]\C3f\0F\1FD\00\00\80=\D1\0B \00\00u\17UH\89\E5\E8~\FF\FF\FF\C6\05\BF\0B \00\01]\C3\0F\1FD\00\00\F3\C3\0F\1F@\00f.\0F\1F\84\00\00\00\00\00UH\89\E5]\EB\89\90U\C3f\0F\1FD\00\00AWAVI\89\D7AUATL\8D%\9E\09 \00UH\8D-\9E\09 \00SA\89\FDI\89\F6L)\E5H\83\EC\08H\C1\FD\03\E8\C7\FE\FF\FFH\85\EDt 1\DB\0F\1F\84\00\00\00\00\00L\89\FAL\89\F6D\89\EFA\FF\14\DCH\83\C3\01H9\DDu\EAH\83\C4\08[]A\5CA]A^A_\C3\90f.\0F\1F\84\00\00\00\00\00\F3\C3" }>
@seg_400504__fini = internal constant %seg_400504__fini_type <{ [9 x i8] c"H\83\EC\08H\83\C4\08\C3" }>
@seg_400510__rodata = internal constant %seg_400510__rodata_type <{ [4 x i8] c"\01\00\02\00" }>
@seg_400514__eh_frame_hdr = internal constant %seg_400514__eh_frame_hdr_type <{ [52 x i8] c"\01\1B\03;0\00\00\00\05\00\00\00\8C\FE\FF\FFL\00\00\00\BC\FE\FF\FFx\00\00\00t\FF\FF\FF\8C\00\00\00|\FF\FF\FF\A4\00\00\00\EC\FF\FF\FF\EC\00\00\00" }>
@seg_400548__eh_frame = internal constant %seg_400548__eh_frame_type <{ [208 x i8] c"\14\00\00\00\00\00\00\00\01zR\00\01x\10\01\1B\0C\07\08\90\01\07\10\10\00\00\00\1C\00\00\008\FE\FF\FF+\00\00\00\00\00\00\00\14\00\00\00\00\00\00\00\01zR\00\01x\10\01\1B\0C\07\08\90\01\00\00\10\00\00\00\1C\00\00\00<\FE\FF\FF\02\00\00\00\00\00\00\00\14\00\00\000\00\00\00\E0\FE\FF\FF\02\00\00\00\00\00\00\00\00\00\00\00D\00\00\00H\00\00\00\D0\FE\FF\FFe\00\00\00\00B\0E\10\8F\02B\0E\18\8E\03E\0E \8D\04B\0E(\8C\05H\0E0\86\06H\0E8\83\07M\0E@r\0E8A\0E0A\0E(B\0E B\0E\18B\0E\10B\0E\08\00\10\00\00\00\90\00\00\00\F8\FE\FF\FF\02\00\00\00\00\00\00\00\00\00\00\00" }>
@seg_601018__data = internal global %seg_601018__data_type zeroinitializer
@__bss_start = global %__bss_start_type zeroinitializer
@0 = internal global i1 false

declare %struct.Memory* @__remill_error(%struct.State* dereferenceable(3376), i64, %struct.Memory*)

declare i32 @__remill_fpu_exception_test_and_clear(i32, i32)

; Function Attrs: argmemonly nounwind
declare void @llvm.lifetime.start(i64, i8* nocapture) #0

; Function Attrs: argmemonly nounwind
declare void @llvm.lifetime.end(i64, i8* nocapture) #0

; Function Attrs: nounwind readnone
declare i32 @llvm.ctpop.i32(i32) #1

; Function Attrs: nounwind readnone
declare i32 @llvm.bswap.i32(i32) #1

; Function Attrs: nounwind readnone
declare i64 @llvm.bswap.i64(i64) #1

; Function Attrs: nounwind readnone
declare i32 @llvm.cttz.i32(i32, i1) #1

; Function Attrs: nounwind readnone
declare i64 @llvm.cttz.i64(i64, i1) #1

; Function Attrs: nounwind readnone
declare i32 @llvm.ctlz.i32(i32, i1) #1

; Function Attrs: nounwind readnone
declare i64 @llvm.ctlz.i64(i64, i1) #1

; Function Attrs: argmemonly nounwind
declare void @llvm.memcpy.p0i8.p0i8.i64(i8* nocapture writeonly, i8* nocapture readonly, i64, i32, i1) #0

; Function Attrs: nounwind readnone
declare double @llvm.nearbyint.f64(double) #1

; Function Attrs: nounwind readnone
declare double @llvm.fabs.f64(double) #1

; Function Attrs: nounwind readnone
declare <4 x double> @llvm.nearbyint.v4f64(<4 x double>) #1

; Function Attrs: nounwind readnone
declare <4 x double> @llvm.fabs.v4f64(<4 x double>) #1

; Function Attrs: nounwind readnone
declare double @llvm.trunc.f64(double) #1

; Function Attrs: nounwind readnone
declare <4 x double> @llvm.trunc.v4f64(<4 x double>) #1

; Function Attrs: nounwind readnone
declare float @llvm.nearbyint.f32(float) #1

; Function Attrs: nounwind readnone
declare float @llvm.fabs.f32(float) #1

; Function Attrs: nounwind readnone
declare <4 x float> @llvm.nearbyint.v4f32(<4 x float>) #1

; Function Attrs: nounwind readnone
declare <4 x float> @llvm.fabs.v4f32(<4 x float>) #1

; Function Attrs: nounwind readnone
declare float @llvm.trunc.f32(float) #1

; Function Attrs: nounwind readnone
declare <4 x float> @llvm.trunc.v4f32(<4 x float>) #1

; Function Attrs: argmemonly nounwind
declare void @llvm.memset.p0i8.i64(i8* nocapture writeonly, i8, i64, i32, i1) #0

declare double @atan(double) local_unnamed_addr

declare double @cos(double) local_unnamed_addr

declare double @sin(double) local_unnamed_addr

declare double @sqrt(double) local_unnamed_addr

declare double @tan(double) local_unnamed_addr

declare extern_weak x86_64_sysvcc i64 @abort()

declare extern_weak x86_64_sysvcc i64 @abs(i64)

declare extern_weak x86_64_sysvcc i64 @asin(i64)

declare extern_weak x86_64_sysvcc i64 @atof(i64)

declare extern_weak x86_64_sysvcc i64 @atoi(i64)

declare extern_weak x86_64_sysvcc i64 @atol(i64)

declare extern_weak x86_64_sysvcc i64 @calloc(i64, i64)

declare extern_weak x86_64_sysvcc i64 @clock()

declare extern_weak x86_64_sysvcc i64 @cosf(i64)

declare extern_weak x86_64_sysvcc i64 @exit(i64)

declare extern_weak x86_64_sysvcc i64 @exp(i64)

declare extern_weak x86_64_sysvcc i64 @fflush(i64)

declare extern_weak x86_64_sysvcc i64 @floor(i64)

declare extern_weak x86_64_sysvcc i64 @fprintf(i64, i64, i64, i64, i64, i64, i64, i64, i64, i64, i64, i64, i64, i64, i64, i64)

declare extern_weak x86_64_sysvcc i64 @fputs(i64, i64)

declare extern_weak x86_64_sysvcc i64 @free(i64)

declare extern_weak x86_64_sysvcc i64 @fwrite(i64, i64, i64, i64)

declare extern_weak x86_64_sysvcc i64 @getchar()

declare extern_weak x86_64_sysvcc i64 @gettimeofday(i64, i64)

declare extern_weak x86_64_sysvcc i64 @__isoc99_fscanf(i64, i64, i64, i64, i64, i64, i64, i64, i64, i64, i64, i64, i64, i64, i64, i64)

declare extern_weak x86_64_sysvcc i64 @__isoc99_scanf(i64, i64, i64, i64, i64, i64, i64, i64, i64, i64, i64, i64, i64, i64, i64, i64)

declare extern_weak x86_64_sysvcc i64 @__isoc99_sscanf(i64, i64, i64, i64, i64, i64, i64, i64, i64, i64, i64, i64, i64, i64, i64, i64)

declare extern_weak x86_64_sysvcc i64 @log(i64)

declare extern_weak x86_64_sysvcc i64 @lrand48()

declare extern_weak x86_64_sysvcc i64 @malloc(i64)

declare extern_weak x86_64_sysvcc i64 @memalign(i64, i64)

declare extern_weak x86_64_sysvcc i64 @memcpy(i64, i64, i64)

declare extern_weak x86_64_sysvcc i64 @memset(i64, i64, i64)

declare extern_weak x86_64_sysvcc i64 @perror(i64)

declare extern_weak x86_64_sysvcc i64 @posix_memalign(i64, i64, i64)

declare extern_weak x86_64_sysvcc i64 @pow(i64, i64)

declare extern_weak x86_64_sysvcc i64 @printf(i64, i64, i64, i64, i64, i64, i64, i64, i64, i64, i64, i64, i64, i64, i64, i64)

declare extern_weak x86_64_sysvcc i64 @putchar(i64)

declare extern_weak x86_64_sysvcc i64 @puts(i64)

declare extern_weak x86_64_sysvcc i64 @rand()

declare extern_weak x86_64_sysvcc i64 @random()

declare extern_weak x86_64_sysvcc i64 @realloc(i64, i64)

declare extern_weak x86_64_sysvcc i64 @seed48(i64)

declare extern_weak x86_64_sysvcc i64 @sinf(i64)

declare extern_weak x86_64_sysvcc i64 @sprintf(i64, i64, i64, i64, i64, i64, i64, i64, i64, i64, i64, i64, i64, i64, i64, i64)

declare extern_weak x86_64_sysvcc i64 @srand(i64)

declare extern_weak x86_64_sysvcc i64 @strcat(i64, i64)

declare extern_weak x86_64_sysvcc i64 @strcmp(i64, i64)

declare extern_weak x86_64_sysvcc i64 @strcpy(i64, i64)

declare extern_weak x86_64_sysvcc i64 @strdup(i64)

declare extern_weak x86_64_sysvcc i64 @strlen(i64)

declare extern_weak x86_64_sysvcc i64 @strncmp(i64, i64, i64)

declare extern_weak x86_64_sysvcc i64 @strtoll(i64, i64, i64)

declare extern_weak x86_64_sysvcc i64 @time(i64)

declare extern_weak x86_64_sysvcc i64 @ungetc(i64, i64)

declare extern_weak x86_64_sysvcc i64 @pthread_join(i64, i64)

declare extern_weak x86_64_sysvcc i64 @pthread_create(i64, i64, i64, i64)

declare %struct.Memory* @__remill_function_call(%struct.State* dereferenceable(3376), i64, %struct.Memory*)

declare %struct.Memory* @ext_sqrt(%struct.State* noalias dereferenceable(3376), i64, %struct.Memory* noalias)

declare %struct.Memory* @ext_atan(%struct.State* noalias dereferenceable(3376), i64, %struct.Memory* noalias)

declare %struct.Memory* @ext_cos(%struct.State* noalias dereferenceable(3376), i64, %struct.Memory* noalias)

declare %struct.Memory* @ext_tan(%struct.State* noalias dereferenceable(3376), i64, %struct.Memory* noalias)

declare %struct.Memory* @ext_sin(%struct.State* noalias dereferenceable(3376), i64, %struct.Memory* noalias)

; Function Attrs: alwaysinline
define %struct.Memory* @get_pic_num_x(%struct.State* noalias, i64, %struct.Memory* noalias) #2 {
entry:
  %3 = getelementptr inbounds %struct.State, %struct.State* %0, i64 0, i32 6, i32 33, i32 0, i32 0
  store i64 %1, i64* %3, align 8
  %BRANCH_TAKEN = alloca i8, align 1
  store i8 0, i8* %BRANCH_TAKEN, align 1
  %MEMORY = alloca %struct.Memory*, align 8
  store %struct.Memory* %2, %struct.Memory** %MEMORY, align 8
  %loadMem_4543b0 = load %struct.Memory*, %struct.Memory** %MEMORY
  %4 = getelementptr inbounds %struct.State, %struct.State* %0, i32 0, i32 6
  %5 = getelementptr inbounds %struct.GPR, %struct.GPR* %4, i32 0, i32 33
  %6 = getelementptr inbounds %struct.Reg, %struct.Reg* %5, i32 0, i32 0
  %PC.i = bitcast %union.anon* %6 to i64*
  %7 = getelementptr inbounds %struct.State, %struct.State* %0, i32 0, i32 6
  %8 = getelementptr inbounds %struct.GPR, %struct.GPR* %7, i32 0, i32 15
  %9 = getelementptr inbounds %struct.Reg, %struct.Reg* %8, i32 0, i32 0
  %RBP.i = bitcast %union.anon* %9 to i64*
  %10 = load i64, i64* %RBP.i
  %11 = load i64, i64* %PC.i
  %12 = add i64 %11, 1
  store i64 %12, i64* %PC.i
  %13 = getelementptr inbounds %struct.State, %struct.State* %0, i64 0, i32 6, i32 13, i32 0, i32 0
  %14 = load i64, i64* %13, align 8
  %15 = add i64 %14, -8
  %16 = inttoptr i64 %15 to i64*
  store i64 %10, i64* %16
  store i64 %15, i64* %13, align 8
  store %struct.Memory* %loadMem_4543b0, %struct.Memory** %MEMORY
  %loadMem_4543b1 = load %struct.Memory*, %struct.Memory** %MEMORY
  %17 = getelementptr inbounds %struct.State, %struct.State* %0, i32 0, i32 6
  %18 = getelementptr inbounds %struct.GPR, %struct.GPR* %17, i32 0, i32 33
  %19 = getelementptr inbounds %struct.Reg, %struct.Reg* %18, i32 0, i32 0
  %PC.i45 = bitcast %union.anon* %19 to i64*
  %20 = getelementptr inbounds %struct.State, %struct.State* %0, i32 0, i32 6
  %21 = getelementptr inbounds %struct.GPR, %struct.GPR* %20, i32 0, i32 13
  %22 = getelementptr inbounds %struct.Reg, %struct.Reg* %21, i32 0, i32 0
  %RSP.i = bitcast %union.anon* %22 to i64*
  %23 = getelementptr inbounds %struct.State, %struct.State* %0, i32 0, i32 6
  %24 = getelementptr inbounds %struct.GPR, %struct.GPR* %23, i32 0, i32 15
  %25 = getelementptr inbounds %struct.Reg, %struct.Reg* %24, i32 0, i32 0
  %RBP.i46 = bitcast %union.anon* %25 to i64*
  %26 = load i64, i64* %RSP.i
  %27 = load i64, i64* %PC.i45
  %28 = add i64 %27, 3
  store i64 %28, i64* %PC.i45
  store i64 %26, i64* %RBP.i46, align 8
  store %struct.Memory* %loadMem_4543b1, %struct.Memory** %MEMORY
  %loadMem_4543b4 = load %struct.Memory*, %struct.Memory** %MEMORY
  %29 = getelementptr inbounds %struct.State, %struct.State* %0, i32 0, i32 6
  %30 = getelementptr inbounds %struct.GPR, %struct.GPR* %29, i32 0, i32 33
  %31 = getelementptr inbounds %struct.Reg, %struct.Reg* %30, i32 0, i32 0
  %PC.i42 = bitcast %union.anon* %31 to i64*
  %32 = getelementptr inbounds %struct.State, %struct.State* %0, i32 0, i32 6
  %33 = getelementptr inbounds %struct.GPR, %struct.GPR* %32, i32 0, i32 11
  %34 = getelementptr inbounds %struct.Reg, %struct.Reg* %33, i32 0, i32 0
  %RDI.i43 = bitcast %union.anon* %34 to i64*
  %35 = getelementptr inbounds %struct.State, %struct.State* %0, i32 0, i32 6
  %36 = getelementptr inbounds %struct.GPR, %struct.GPR* %35, i32 0, i32 15
  %37 = getelementptr inbounds %struct.Reg, %struct.Reg* %36, i32 0, i32 0
  %RBP.i44 = bitcast %union.anon* %37 to i64*
  %38 = load i64, i64* %RBP.i44
  %39 = sub i64 %38, 8
  %40 = load i64, i64* %RDI.i43
  %41 = load i64, i64* %PC.i42
  %42 = add i64 %41, 4
  store i64 %42, i64* %PC.i42
  %43 = inttoptr i64 %39 to i64*
  store i64 %40, i64* %43
  store %struct.Memory* %loadMem_4543b4, %struct.Memory** %MEMORY
  %loadMem_4543b8 = load %struct.Memory*, %struct.Memory** %MEMORY
  %44 = getelementptr inbounds %struct.State, %struct.State* %0, i32 0, i32 6
  %45 = getelementptr inbounds %struct.GPR, %struct.GPR* %44, i32 0, i32 33
  %46 = getelementptr inbounds %struct.Reg, %struct.Reg* %45, i32 0, i32 0
  %PC.i40 = bitcast %union.anon* %46 to i64*
  %47 = getelementptr inbounds %struct.State, %struct.State* %0, i32 0, i32 6
  %48 = getelementptr inbounds %struct.GPR, %struct.GPR* %47, i32 0, i32 9
  %49 = getelementptr inbounds %struct.Reg, %struct.Reg* %48, i32 0, i32 0
  %ESI.i = bitcast %union.anon* %49 to i32*
  %50 = getelementptr inbounds %struct.State, %struct.State* %0, i32 0, i32 6
  %51 = getelementptr inbounds %struct.GPR, %struct.GPR* %50, i32 0, i32 15
  %52 = getelementptr inbounds %struct.Reg, %struct.Reg* %51, i32 0, i32 0
  %RBP.i41 = bitcast %union.anon* %52 to i64*
  %53 = load i64, i64* %RBP.i41
  %54 = sub i64 %53, 12
  %55 = load i32, i32* %ESI.i
  %56 = zext i32 %55 to i64
  %57 = load i64, i64* %PC.i40
  %58 = add i64 %57, 3
  store i64 %58, i64* %PC.i40
  %59 = inttoptr i64 %54 to i32*
  store i32 %55, i32* %59
  store %struct.Memory* %loadMem_4543b8, %struct.Memory** %MEMORY
  %loadMem_4543bb = load %struct.Memory*, %struct.Memory** %MEMORY
  %60 = getelementptr inbounds %struct.State, %struct.State* %0, i32 0, i32 6
  %61 = getelementptr inbounds %struct.GPR, %struct.GPR* %60, i32 0, i32 33
  %62 = getelementptr inbounds %struct.Reg, %struct.Reg* %61, i32 0, i32 0
  %PC.i37 = bitcast %union.anon* %62 to i64*
  %63 = getelementptr inbounds %struct.State, %struct.State* %0, i32 0, i32 6
  %64 = getelementptr inbounds %struct.GPR, %struct.GPR* %63, i32 0, i32 11
  %65 = getelementptr inbounds %struct.Reg, %struct.Reg* %64, i32 0, i32 0
  %RDI.i38 = bitcast %union.anon* %65 to i64*
  %66 = getelementptr inbounds %struct.State, %struct.State* %0, i32 0, i32 6
  %67 = getelementptr inbounds %struct.GPR, %struct.GPR* %66, i32 0, i32 15
  %68 = getelementptr inbounds %struct.Reg, %struct.Reg* %67, i32 0, i32 0
  %RBP.i39 = bitcast %union.anon* %68 to i64*
  %69 = load i64, i64* %RBP.i39
  %70 = sub i64 %69, 8
  %71 = load i64, i64* %PC.i37
  %72 = add i64 %71, 4
  store i64 %72, i64* %PC.i37
  %73 = inttoptr i64 %70 to i64*
  %74 = load i64, i64* %73
  store i64 %74, i64* %RDI.i38, align 8
  store %struct.Memory* %loadMem_4543bb, %struct.Memory** %MEMORY
  %loadMem_4543bf = load %struct.Memory*, %struct.Memory** %MEMORY
  %75 = getelementptr inbounds %struct.State, %struct.State* %0, i32 0, i32 6
  %76 = getelementptr inbounds %struct.GPR, %struct.GPR* %75, i32 0, i32 33
  %77 = getelementptr inbounds %struct.Reg, %struct.Reg* %76, i32 0, i32 0
  %PC.i36 = bitcast %union.anon* %77 to i64*
  %78 = getelementptr inbounds %struct.State, %struct.State* %0, i32 0, i32 6
  %79 = getelementptr inbounds %struct.GPR, %struct.GPR* %78, i32 0, i32 11
  %80 = getelementptr inbounds %struct.Reg, %struct.Reg* %79, i32 0, i32 0
  %RDI.i = bitcast %union.anon* %80 to i64*
  %81 = load i64, i64* %RDI.i
  %82 = load i64, i64* %PC.i36
  %83 = add i64 %82, 3
  store i64 %83, i64* %PC.i36
  %84 = inttoptr i64 %81 to i32*
  %85 = load i32, i32* %84
  %86 = getelementptr inbounds %struct.State, %struct.State* %0, i64 0, i32 2, i32 1
  store i8 0, i8* %86, align 1
  %87 = and i32 %85, 255
  %88 = call i32 @llvm.ctpop.i32(i32 %87)
  %89 = trunc i32 %88 to i8
  %90 = and i8 %89, 1
  %91 = xor i8 %90, 1
  %92 = getelementptr inbounds %struct.State, %struct.State* %0, i64 0, i32 2, i32 3
  store i8 %91, i8* %92, align 1
  %93 = getelementptr inbounds %struct.State, %struct.State* %0, i64 0, i32 2, i32 5
  store i8 0, i8* %93, align 1
  %94 = icmp eq i32 %85, 0
  %95 = zext i1 %94 to i8
  %96 = getelementptr inbounds %struct.State, %struct.State* %0, i64 0, i32 2, i32 7
  store i8 %95, i8* %96, align 1
  %97 = lshr i32 %85, 31
  %98 = trunc i32 %97 to i8
  %99 = getelementptr inbounds %struct.State, %struct.State* %0, i64 0, i32 2, i32 9
  store i8 %98, i8* %99, align 1
  %100 = lshr i32 %85, 31
  %101 = xor i32 %97, %100
  %102 = add i32 %101, %100
  %103 = icmp eq i32 %102, 2
  %104 = zext i1 %103 to i8
  %105 = getelementptr inbounds %struct.State, %struct.State* %0, i64 0, i32 2, i32 13
  store i8 %104, i8* %105, align 1
  store %struct.Memory* %loadMem_4543bf, %struct.Memory** %MEMORY
  %loadMem_4543c2 = load %struct.Memory*, %struct.Memory** %MEMORY
  %106 = getelementptr inbounds %struct.State, %struct.State* %0, i32 0, i32 6
  %107 = getelementptr inbounds %struct.GPR, %struct.GPR* %106, i32 0, i32 33
  %108 = getelementptr inbounds %struct.Reg, %struct.Reg* %107, i32 0, i32 0
  %PC.i35 = bitcast %union.anon* %108 to i64*
  %109 = load i64, i64* %PC.i35
  %110 = add i64 %109, 24
  %111 = load i64, i64* %PC.i35
  %112 = add i64 %111, 6
  %113 = load i64, i64* %PC.i35
  %114 = add i64 %113, 6
  store i64 %114, i64* %PC.i35
  %115 = getelementptr inbounds %struct.State, %struct.State* %0, i64 0, i32 2, i32 7
  %116 = load i8, i8* %115, align 1
  %117 = icmp eq i8 %116, 0
  %118 = zext i1 %117 to i8
  store i8 %118, i8* %BRANCH_TAKEN, align 1
  %119 = getelementptr inbounds %struct.State, %struct.State* %0, i64 0, i32 6, i32 33, i32 0, i32 0
  %120 = select i1 %117, i64 %110, i64 %112
  store i64 %120, i64* %119, align 8
  store %struct.Memory* %loadMem_4543c2, %struct.Memory** %MEMORY
  %loadBr_4543c2 = load i8, i8* %BRANCH_TAKEN
  %cmpBr_4543c2 = icmp eq i8 %loadBr_4543c2, 1
  br i1 %cmpBr_4543c2, label %block_.L_4543da, label %block_4543c8

block_4543c8:                                     ; preds = %entry
  %loadMem_4543c8 = load %struct.Memory*, %struct.Memory** %MEMORY
  %121 = getelementptr inbounds %struct.State, %struct.State* %0, i32 0, i32 6
  %122 = getelementptr inbounds %struct.GPR, %struct.GPR* %121, i32 0, i32 33
  %123 = getelementptr inbounds %struct.Reg, %struct.Reg* %122, i32 0, i32 0
  %PC.i32 = bitcast %union.anon* %123 to i64*
  %124 = getelementptr inbounds %struct.State, %struct.State* %0, i32 0, i32 6
  %125 = getelementptr inbounds %struct.GPR, %struct.GPR* %124, i32 0, i32 1
  %126 = getelementptr inbounds %struct.Reg, %struct.Reg* %125, i32 0, i32 0
  %RAX.i33 = bitcast %union.anon* %126 to i64*
  %127 = getelementptr inbounds %struct.State, %struct.State* %0, i32 0, i32 6
  %128 = getelementptr inbounds %struct.GPR, %struct.GPR* %127, i32 0, i32 15
  %129 = getelementptr inbounds %struct.Reg, %struct.Reg* %128, i32 0, i32 0
  %RBP.i34 = bitcast %union.anon* %129 to i64*
  %130 = load i64, i64* %RBP.i34
  %131 = sub i64 %130, 8
  %132 = load i64, i64* %PC.i32
  %133 = add i64 %132, 4
  store i64 %133, i64* %PC.i32
  %134 = inttoptr i64 %131 to i64*
  %135 = load i64, i64* %134
  store i64 %135, i64* %RAX.i33, align 8
  store %struct.Memory* %loadMem_4543c8, %struct.Memory** %MEMORY
  %loadMem_4543cc = load %struct.Memory*, %struct.Memory** %MEMORY
  %136 = getelementptr inbounds %struct.State, %struct.State* %0, i32 0, i32 6
  %137 = getelementptr inbounds %struct.GPR, %struct.GPR* %136, i32 0, i32 33
  %138 = getelementptr inbounds %struct.Reg, %struct.Reg* %137, i32 0, i32 0
  %PC.i29 = bitcast %union.anon* %138 to i64*
  %139 = getelementptr inbounds %struct.State, %struct.State* %0, i32 0, i32 6
  %140 = getelementptr inbounds %struct.GPR, %struct.GPR* %139, i32 0, i32 1
  %141 = getelementptr inbounds %struct.Reg, %struct.Reg* %140, i32 0, i32 0
  %RAX.i30 = bitcast %union.anon* %141 to i64*
  %142 = getelementptr inbounds %struct.State, %struct.State* %0, i32 0, i32 6
  %143 = getelementptr inbounds %struct.GPR, %struct.GPR* %142, i32 0, i32 5
  %144 = getelementptr inbounds %struct.Reg, %struct.Reg* %143, i32 0, i32 0
  %RCX.i31 = bitcast %union.anon* %144 to i64*
  %145 = load i64, i64* %RAX.i30
  %146 = add i64 %145, 6360
  %147 = load i64, i64* %PC.i29
  %148 = add i64 %147, 6
  store i64 %148, i64* %PC.i29
  %149 = inttoptr i64 %146 to i32*
  %150 = load i32, i32* %149
  %151 = zext i32 %150 to i64
  store i64 %151, i64* %RCX.i31, align 8
  store %struct.Memory* %loadMem_4543cc, %struct.Memory** %MEMORY
  %loadMem_4543d2 = load %struct.Memory*, %struct.Memory** %MEMORY
  %152 = getelementptr inbounds %struct.State, %struct.State* %0, i32 0, i32 6
  %153 = getelementptr inbounds %struct.GPR, %struct.GPR* %152, i32 0, i32 33
  %154 = getelementptr inbounds %struct.Reg, %struct.Reg* %153, i32 0, i32 0
  %PC.i26 = bitcast %union.anon* %154 to i64*
  %155 = getelementptr inbounds %struct.State, %struct.State* %0, i32 0, i32 6
  %156 = getelementptr inbounds %struct.GPR, %struct.GPR* %155, i32 0, i32 5
  %157 = getelementptr inbounds %struct.Reg, %struct.Reg* %156, i32 0, i32 0
  %ECX.i27 = bitcast %union.anon* %157 to i32*
  %158 = getelementptr inbounds %struct.State, %struct.State* %0, i32 0, i32 6
  %159 = getelementptr inbounds %struct.GPR, %struct.GPR* %158, i32 0, i32 15
  %160 = getelementptr inbounds %struct.Reg, %struct.Reg* %159, i32 0, i32 0
  %RBP.i28 = bitcast %union.anon* %160 to i64*
  %161 = load i64, i64* %RBP.i28
  %162 = sub i64 %161, 16
  %163 = load i32, i32* %ECX.i27
  %164 = zext i32 %163 to i64
  %165 = load i64, i64* %PC.i26
  %166 = add i64 %165, 3
  store i64 %166, i64* %PC.i26
  %167 = inttoptr i64 %162 to i32*
  store i32 %163, i32* %167
  store %struct.Memory* %loadMem_4543d2, %struct.Memory** %MEMORY
  %loadMem_4543d5 = load %struct.Memory*, %struct.Memory** %MEMORY
  %168 = getelementptr inbounds %struct.State, %struct.State* %0, i32 0, i32 6
  %169 = getelementptr inbounds %struct.GPR, %struct.GPR* %168, i32 0, i32 33
  %170 = getelementptr inbounds %struct.Reg, %struct.Reg* %169, i32 0, i32 0
  %PC.i25 = bitcast %union.anon* %170 to i64*
  %171 = load i64, i64* %PC.i25
  %172 = add i64 %171, 24
  %173 = load i64, i64* %PC.i25
  %174 = add i64 %173, 5
  store i64 %174, i64* %PC.i25
  %175 = getelementptr inbounds %struct.State, %struct.State* %0, i64 0, i32 6, i32 33, i32 0, i32 0
  store i64 %172, i64* %175, align 8
  store %struct.Memory* %loadMem_4543d5, %struct.Memory** %MEMORY
  br label %block_.L_4543ed

block_.L_4543da:                                  ; preds = %entry
  %loadMem_4543da = load %struct.Memory*, %struct.Memory** %MEMORY
  %176 = getelementptr inbounds %struct.State, %struct.State* %0, i32 0, i32 6
  %177 = getelementptr inbounds %struct.GPR, %struct.GPR* %176, i32 0, i32 33
  %178 = getelementptr inbounds %struct.Reg, %struct.Reg* %177, i32 0, i32 0
  %PC.i22 = bitcast %union.anon* %178 to i64*
  %179 = getelementptr inbounds %struct.State, %struct.State* %0, i32 0, i32 6
  %180 = getelementptr inbounds %struct.GPR, %struct.GPR* %179, i32 0, i32 1
  %181 = getelementptr inbounds %struct.Reg, %struct.Reg* %180, i32 0, i32 0
  %RAX.i23 = bitcast %union.anon* %181 to i64*
  %182 = getelementptr inbounds %struct.State, %struct.State* %0, i32 0, i32 6
  %183 = getelementptr inbounds %struct.GPR, %struct.GPR* %182, i32 0, i32 15
  %184 = getelementptr inbounds %struct.Reg, %struct.Reg* %183, i32 0, i32 0
  %RBP.i24 = bitcast %union.anon* %184 to i64*
  %185 = load i64, i64* %RBP.i24
  %186 = sub i64 %185, 8
  %187 = load i64, i64* %PC.i22
  %188 = add i64 %187, 4
  store i64 %188, i64* %PC.i22
  %189 = inttoptr i64 %186 to i64*
  %190 = load i64, i64* %189
  store i64 %190, i64* %RAX.i23, align 8
  store %struct.Memory* %loadMem_4543da, %struct.Memory** %MEMORY
  %loadMem_4543de = load %struct.Memory*, %struct.Memory** %MEMORY
  %191 = getelementptr inbounds %struct.State, %struct.State* %0, i32 0, i32 6
  %192 = getelementptr inbounds %struct.GPR, %struct.GPR* %191, i32 0, i32 33
  %193 = getelementptr inbounds %struct.Reg, %struct.Reg* %192, i32 0, i32 0
  %PC.i19 = bitcast %union.anon* %193 to i64*
  %194 = getelementptr inbounds %struct.State, %struct.State* %0, i32 0, i32 6
  %195 = getelementptr inbounds %struct.GPR, %struct.GPR* %194, i32 0, i32 1
  %196 = getelementptr inbounds %struct.Reg, %struct.Reg* %195, i32 0, i32 0
  %RAX.i20 = bitcast %union.anon* %196 to i64*
  %197 = getelementptr inbounds %struct.State, %struct.State* %0, i32 0, i32 6
  %198 = getelementptr inbounds %struct.GPR, %struct.GPR* %197, i32 0, i32 5
  %199 = getelementptr inbounds %struct.Reg, %struct.Reg* %198, i32 0, i32 0
  %RCX.i21 = bitcast %union.anon* %199 to i64*
  %200 = load i64, i64* %RAX.i20
  %201 = add i64 %200, 6360
  %202 = load i64, i64* %PC.i19
  %203 = add i64 %202, 6
  store i64 %203, i64* %PC.i19
  %204 = inttoptr i64 %201 to i32*
  %205 = load i32, i32* %204
  %206 = zext i32 %205 to i64
  store i64 %206, i64* %RCX.i21, align 8
  store %struct.Memory* %loadMem_4543de, %struct.Memory** %MEMORY
  %loadMem_4543e4 = load %struct.Memory*, %struct.Memory** %MEMORY
  %207 = getelementptr inbounds %struct.State, %struct.State* %0, i32 0, i32 6
  %208 = getelementptr inbounds %struct.GPR, %struct.GPR* %207, i32 0, i32 33
  %209 = getelementptr inbounds %struct.Reg, %struct.Reg* %208, i32 0, i32 0
  %PC.i17 = bitcast %union.anon* %209 to i64*
  %210 = getelementptr inbounds %struct.State, %struct.State* %0, i32 0, i32 6
  %211 = getelementptr inbounds %struct.GPR, %struct.GPR* %210, i32 0, i32 5
  %212 = getelementptr inbounds %struct.Reg, %struct.Reg* %211, i32 0, i32 0
  %RCX.i18 = bitcast %union.anon* %212 to i64*
  %213 = load i64, i64* %RCX.i18
  %214 = load i64, i64* %PC.i17
  %215 = add i64 %214, 2
  store i64 %215, i64* %PC.i17
  %216 = trunc i64 %213 to i32
  %217 = shl i32 %216, 1
  %218 = icmp slt i32 %216, 0
  %219 = icmp slt i32 %217, 0
  %220 = xor i1 %218, %219
  %221 = zext i32 %217 to i64
  store i64 %221, i64* %RCX.i18, align 8
  %222 = getelementptr inbounds %struct.State, %struct.State* %0, i64 0, i32 2, i32 1
  %223 = zext i1 %218 to i8
  store i8 %223, i8* %222, align 1
  %224 = getelementptr inbounds %struct.State, %struct.State* %0, i64 0, i32 2, i32 3
  %225 = and i32 %217, 254
  %226 = call i32 @llvm.ctpop.i32(i32 %225)
  %227 = trunc i32 %226 to i8
  %228 = and i8 %227, 1
  %229 = xor i8 %228, 1
  store i8 %229, i8* %224, align 1
  %230 = getelementptr inbounds %struct.State, %struct.State* %0, i64 0, i32 2, i32 5
  store i8 0, i8* %230, align 1
  %231 = getelementptr inbounds %struct.State, %struct.State* %0, i64 0, i32 2, i32 7
  %232 = icmp eq i32 %217, 0
  %233 = zext i1 %232 to i8
  store i8 %233, i8* %231, align 1
  %234 = getelementptr inbounds %struct.State, %struct.State* %0, i64 0, i32 2, i32 9
  %235 = lshr i32 %217, 31
  %236 = trunc i32 %235 to i8
  store i8 %236, i8* %234, align 1
  %237 = getelementptr inbounds %struct.State, %struct.State* %0, i64 0, i32 2, i32 13
  %238 = zext i1 %220 to i8
  store i8 %238, i8* %237, align 1
  store %struct.Memory* %loadMem_4543e4, %struct.Memory** %MEMORY
  %loadMem_4543e7 = load %struct.Memory*, %struct.Memory** %MEMORY
  %239 = getelementptr inbounds %struct.State, %struct.State* %0, i32 0, i32 6
  %240 = getelementptr inbounds %struct.GPR, %struct.GPR* %239, i32 0, i32 33
  %241 = getelementptr inbounds %struct.Reg, %struct.Reg* %240, i32 0, i32 0
  %PC.i15 = bitcast %union.anon* %241 to i64*
  %242 = getelementptr inbounds %struct.State, %struct.State* %0, i32 0, i32 6
  %243 = getelementptr inbounds %struct.GPR, %struct.GPR* %242, i32 0, i32 5
  %244 = getelementptr inbounds %struct.Reg, %struct.Reg* %243, i32 0, i32 0
  %RCX.i16 = bitcast %union.anon* %244 to i64*
  %245 = load i64, i64* %RCX.i16
  %246 = load i64, i64* %PC.i15
  %247 = add i64 %246, 3
  store i64 %247, i64* %PC.i15
  %248 = trunc i64 %245 to i32
  %249 = add i32 1, %248
  %250 = zext i32 %249 to i64
  store i64 %250, i64* %RCX.i16, align 8
  %251 = icmp ult i32 %249, %248
  %252 = icmp ult i32 %249, 1
  %253 = or i1 %251, %252
  %254 = zext i1 %253 to i8
  %255 = getelementptr inbounds %struct.State, %struct.State* %0, i64 0, i32 2, i32 1
  store i8 %254, i8* %255, align 1
  %256 = and i32 %249, 255
  %257 = call i32 @llvm.ctpop.i32(i32 %256)
  %258 = trunc i32 %257 to i8
  %259 = and i8 %258, 1
  %260 = xor i8 %259, 1
  %261 = getelementptr inbounds %struct.State, %struct.State* %0, i64 0, i32 2, i32 3
  store i8 %260, i8* %261, align 1
  %262 = xor i64 1, %245
  %263 = trunc i64 %262 to i32
  %264 = xor i32 %263, %249
  %265 = lshr i32 %264, 4
  %266 = trunc i32 %265 to i8
  %267 = and i8 %266, 1
  %268 = getelementptr inbounds %struct.State, %struct.State* %0, i64 0, i32 2, i32 5
  store i8 %267, i8* %268, align 1
  %269 = icmp eq i32 %249, 0
  %270 = zext i1 %269 to i8
  %271 = getelementptr inbounds %struct.State, %struct.State* %0, i64 0, i32 2, i32 7
  store i8 %270, i8* %271, align 1
  %272 = lshr i32 %249, 31
  %273 = trunc i32 %272 to i8
  %274 = getelementptr inbounds %struct.State, %struct.State* %0, i64 0, i32 2, i32 9
  store i8 %273, i8* %274, align 1
  %275 = lshr i32 %248, 31
  %276 = xor i32 %272, %275
  %277 = add i32 %276, %272
  %278 = icmp eq i32 %277, 2
  %279 = zext i1 %278 to i8
  %280 = getelementptr inbounds %struct.State, %struct.State* %0, i64 0, i32 2, i32 13
  store i8 %279, i8* %280, align 1
  store %struct.Memory* %loadMem_4543e7, %struct.Memory** %MEMORY
  %loadMem_4543ea = load %struct.Memory*, %struct.Memory** %MEMORY
  %281 = getelementptr inbounds %struct.State, %struct.State* %0, i32 0, i32 6
  %282 = getelementptr inbounds %struct.GPR, %struct.GPR* %281, i32 0, i32 33
  %283 = getelementptr inbounds %struct.Reg, %struct.Reg* %282, i32 0, i32 0
  %PC.i12 = bitcast %union.anon* %283 to i64*
  %284 = getelementptr inbounds %struct.State, %struct.State* %0, i32 0, i32 6
  %285 = getelementptr inbounds %struct.GPR, %struct.GPR* %284, i32 0, i32 5
  %286 = getelementptr inbounds %struct.Reg, %struct.Reg* %285, i32 0, i32 0
  %ECX.i13 = bitcast %union.anon* %286 to i32*
  %287 = getelementptr inbounds %struct.State, %struct.State* %0, i32 0, i32 6
  %288 = getelementptr inbounds %struct.GPR, %struct.GPR* %287, i32 0, i32 15
  %289 = getelementptr inbounds %struct.Reg, %struct.Reg* %288, i32 0, i32 0
  %RBP.i14 = bitcast %union.anon* %289 to i64*
  %290 = load i64, i64* %RBP.i14
  %291 = sub i64 %290, 16
  %292 = load i32, i32* %ECX.i13
  %293 = zext i32 %292 to i64
  %294 = load i64, i64* %PC.i12
  %295 = add i64 %294, 3
  store i64 %295, i64* %PC.i12
  %296 = inttoptr i64 %291 to i32*
  store i32 %292, i32* %296
  store %struct.Memory* %loadMem_4543ea, %struct.Memory** %MEMORY
  br label %block_.L_4543ed

block_.L_4543ed:                                  ; preds = %block_.L_4543da, %block_4543c8
  %loadMem_4543ed = load %struct.Memory*, %struct.Memory** %MEMORY
  %297 = getelementptr inbounds %struct.State, %struct.State* %0, i32 0, i32 6
  %298 = getelementptr inbounds %struct.GPR, %struct.GPR* %297, i32 0, i32 33
  %299 = getelementptr inbounds %struct.Reg, %struct.Reg* %298, i32 0, i32 0
  %PC.i9 = bitcast %union.anon* %299 to i64*
  %300 = getelementptr inbounds %struct.State, %struct.State* %0, i32 0, i32 6
  %301 = getelementptr inbounds %struct.GPR, %struct.GPR* %300, i32 0, i32 1
  %302 = getelementptr inbounds %struct.Reg, %struct.Reg* %301, i32 0, i32 0
  %RAX.i10 = bitcast %union.anon* %302 to i64*
  %303 = getelementptr inbounds %struct.State, %struct.State* %0, i32 0, i32 6
  %304 = getelementptr inbounds %struct.GPR, %struct.GPR* %303, i32 0, i32 15
  %305 = getelementptr inbounds %struct.Reg, %struct.Reg* %304, i32 0, i32 0
  %RBP.i11 = bitcast %union.anon* %305 to i64*
  %306 = load i64, i64* %RBP.i11
  %307 = sub i64 %306, 16
  %308 = load i64, i64* %PC.i9
  %309 = add i64 %308, 3
  store i64 %309, i64* %PC.i9
  %310 = inttoptr i64 %307 to i32*
  %311 = load i32, i32* %310
  %312 = zext i32 %311 to i64
  store i64 %312, i64* %RAX.i10, align 8
  store %struct.Memory* %loadMem_4543ed, %struct.Memory** %MEMORY
  %loadMem_4543f0 = load %struct.Memory*, %struct.Memory** %MEMORY
  %313 = getelementptr inbounds %struct.State, %struct.State* %0, i32 0, i32 6
  %314 = getelementptr inbounds %struct.GPR, %struct.GPR* %313, i32 0, i32 33
  %315 = getelementptr inbounds %struct.Reg, %struct.Reg* %314, i32 0, i32 0
  %PC.i6 = bitcast %union.anon* %315 to i64*
  %316 = getelementptr inbounds %struct.State, %struct.State* %0, i32 0, i32 6
  %317 = getelementptr inbounds %struct.GPR, %struct.GPR* %316, i32 0, i32 5
  %318 = getelementptr inbounds %struct.Reg, %struct.Reg* %317, i32 0, i32 0
  %RCX.i7 = bitcast %union.anon* %318 to i64*
  %319 = getelementptr inbounds %struct.State, %struct.State* %0, i32 0, i32 6
  %320 = getelementptr inbounds %struct.GPR, %struct.GPR* %319, i32 0, i32 15
  %321 = getelementptr inbounds %struct.Reg, %struct.Reg* %320, i32 0, i32 0
  %RBP.i8 = bitcast %union.anon* %321 to i64*
  %322 = load i64, i64* %RBP.i8
  %323 = sub i64 %322, 12
  %324 = load i64, i64* %PC.i6
  %325 = add i64 %324, 3
  store i64 %325, i64* %PC.i6
  %326 = inttoptr i64 %323 to i32*
  %327 = load i32, i32* %326
  %328 = zext i32 %327 to i64
  store i64 %328, i64* %RCX.i7, align 8
  store %struct.Memory* %loadMem_4543f0, %struct.Memory** %MEMORY
  %loadMem_4543f3 = load %struct.Memory*, %struct.Memory** %MEMORY
  %329 = getelementptr inbounds %struct.State, %struct.State* %0, i32 0, i32 6
  %330 = getelementptr inbounds %struct.GPR, %struct.GPR* %329, i32 0, i32 33
  %331 = getelementptr inbounds %struct.Reg, %struct.Reg* %330, i32 0, i32 0
  %PC.i5 = bitcast %union.anon* %331 to i64*
  %332 = getelementptr inbounds %struct.State, %struct.State* %0, i32 0, i32 6
  %333 = getelementptr inbounds %struct.GPR, %struct.GPR* %332, i32 0, i32 5
  %334 = getelementptr inbounds %struct.Reg, %struct.Reg* %333, i32 0, i32 0
  %RCX.i = bitcast %union.anon* %334 to i64*
  %335 = load i64, i64* %RCX.i
  %336 = load i64, i64* %PC.i5
  %337 = add i64 %336, 3
  store i64 %337, i64* %PC.i5
  %338 = trunc i64 %335 to i32
  %339 = add i32 1, %338
  %340 = zext i32 %339 to i64
  store i64 %340, i64* %RCX.i, align 8
  %341 = icmp ult i32 %339, %338
  %342 = icmp ult i32 %339, 1
  %343 = or i1 %341, %342
  %344 = zext i1 %343 to i8
  %345 = getelementptr inbounds %struct.State, %struct.State* %0, i64 0, i32 2, i32 1
  store i8 %344, i8* %345, align 1
  %346 = and i32 %339, 255
  %347 = call i32 @llvm.ctpop.i32(i32 %346)
  %348 = trunc i32 %347 to i8
  %349 = and i8 %348, 1
  %350 = xor i8 %349, 1
  %351 = getelementptr inbounds %struct.State, %struct.State* %0, i64 0, i32 2, i32 3
  store i8 %350, i8* %351, align 1
  %352 = xor i64 1, %335
  %353 = trunc i64 %352 to i32
  %354 = xor i32 %353, %339
  %355 = lshr i32 %354, 4
  %356 = trunc i32 %355 to i8
  %357 = and i8 %356, 1
  %358 = getelementptr inbounds %struct.State, %struct.State* %0, i64 0, i32 2, i32 5
  store i8 %357, i8* %358, align 1
  %359 = icmp eq i32 %339, 0
  %360 = zext i1 %359 to i8
  %361 = getelementptr inbounds %struct.State, %struct.State* %0, i64 0, i32 2, i32 7
  store i8 %360, i8* %361, align 1
  %362 = lshr i32 %339, 31
  %363 = trunc i32 %362 to i8
  %364 = getelementptr inbounds %struct.State, %struct.State* %0, i64 0, i32 2, i32 9
  store i8 %363, i8* %364, align 1
  %365 = lshr i32 %338, 31
  %366 = xor i32 %362, %365
  %367 = add i32 %366, %362
  %368 = icmp eq i32 %367, 2
  %369 = zext i1 %368 to i8
  %370 = getelementptr inbounds %struct.State, %struct.State* %0, i64 0, i32 2, i32 13
  store i8 %369, i8* %370, align 1
  store %struct.Memory* %loadMem_4543f3, %struct.Memory** %MEMORY
  %loadMem_4543f6 = load %struct.Memory*, %struct.Memory** %MEMORY
  %371 = getelementptr inbounds %struct.State, %struct.State* %0, i32 0, i32 6
  %372 = getelementptr inbounds %struct.GPR, %struct.GPR* %371, i32 0, i32 33
  %373 = getelementptr inbounds %struct.Reg, %struct.Reg* %372, i32 0, i32 0
  %PC.i4 = bitcast %union.anon* %373 to i64*
  %374 = getelementptr inbounds %struct.State, %struct.State* %0, i32 0, i32 6
  %375 = getelementptr inbounds %struct.GPR, %struct.GPR* %374, i32 0, i32 5
  %376 = getelementptr inbounds %struct.Reg, %struct.Reg* %375, i32 0, i32 0
  %ECX.i = bitcast %union.anon* %376 to i32*
  %377 = getelementptr inbounds %struct.State, %struct.State* %0, i32 0, i32 6
  %378 = getelementptr inbounds %struct.GPR, %struct.GPR* %377, i32 0, i32 1
  %379 = getelementptr inbounds %struct.Reg, %struct.Reg* %378, i32 0, i32 0
  %RAX.i = bitcast %union.anon* %379 to i64*
  %380 = load i64, i64* %RAX.i
  %381 = load i32, i32* %ECX.i
  %382 = zext i32 %381 to i64
  %383 = load i64, i64* %PC.i4
  %384 = add i64 %383, 2
  store i64 %384, i64* %PC.i4
  %385 = trunc i64 %380 to i32
  %386 = sub i32 %385, %381
  %387 = zext i32 %386 to i64
  store i64 %387, i64* %RAX.i, align 8
  %388 = icmp ult i32 %385, %381
  %389 = zext i1 %388 to i8
  %390 = getelementptr inbounds %struct.State, %struct.State* %0, i64 0, i32 2, i32 1
  store i8 %389, i8* %390, align 1
  %391 = and i32 %386, 255
  %392 = call i32 @llvm.ctpop.i32(i32 %391)
  %393 = trunc i32 %392 to i8
  %394 = and i8 %393, 1
  %395 = xor i8 %394, 1
  %396 = getelementptr inbounds %struct.State, %struct.State* %0, i64 0, i32 2, i32 3
  store i8 %395, i8* %396, align 1
  %397 = xor i64 %382, %380
  %398 = trunc i64 %397 to i32
  %399 = xor i32 %398, %386
  %400 = lshr i32 %399, 4
  %401 = trunc i32 %400 to i8
  %402 = and i8 %401, 1
  %403 = getelementptr inbounds %struct.State, %struct.State* %0, i64 0, i32 2, i32 5
  store i8 %402, i8* %403, align 1
  %404 = icmp eq i32 %386, 0
  %405 = zext i1 %404 to i8
  %406 = getelementptr inbounds %struct.State, %struct.State* %0, i64 0, i32 2, i32 7
  store i8 %405, i8* %406, align 1
  %407 = lshr i32 %386, 31
  %408 = trunc i32 %407 to i8
  %409 = getelementptr inbounds %struct.State, %struct.State* %0, i64 0, i32 2, i32 9
  store i8 %408, i8* %409, align 1
  %410 = lshr i32 %385, 31
  %411 = lshr i32 %381, 31
  %412 = xor i32 %411, %410
  %413 = xor i32 %407, %410
  %414 = add i32 %413, %412
  %415 = icmp eq i32 %414, 2
  %416 = zext i1 %415 to i8
  %417 = getelementptr inbounds %struct.State, %struct.State* %0, i64 0, i32 2, i32 13
  store i8 %416, i8* %417, align 1
  store %struct.Memory* %loadMem_4543f6, %struct.Memory** %MEMORY
  %loadMem_4543f8 = load %struct.Memory*, %struct.Memory** %MEMORY
  %418 = getelementptr inbounds %struct.State, %struct.State* %0, i32 0, i32 6
  %419 = getelementptr inbounds %struct.GPR, %struct.GPR* %418, i32 0, i32 33
  %420 = getelementptr inbounds %struct.Reg, %struct.Reg* %419, i32 0, i32 0
  %PC.i2 = bitcast %union.anon* %420 to i64*
  %421 = getelementptr inbounds %struct.State, %struct.State* %0, i32 0, i32 6
  %422 = getelementptr inbounds %struct.GPR, %struct.GPR* %421, i32 0, i32 15
  %423 = getelementptr inbounds %struct.Reg, %struct.Reg* %422, i32 0, i32 0
  %RBP.i3 = bitcast %union.anon* %423 to i64*
  %424 = load i64, i64* %PC.i2
  %425 = add i64 %424, 1
  store i64 %425, i64* %PC.i2
  %426 = getelementptr inbounds %struct.State, %struct.State* %0, i64 0, i32 6, i32 13, i32 0, i32 0
  %427 = load i64, i64* %426, align 8
  %428 = add i64 %427, 8
  %429 = inttoptr i64 %427 to i64*
  %430 = load i64, i64* %429
  store i64 %430, i64* %RBP.i3, align 8
  store i64 %428, i64* %426, align 8
  store %struct.Memory* %loadMem_4543f8, %struct.Memory** %MEMORY
  %loadMem_4543f9 = load %struct.Memory*, %struct.Memory** %MEMORY
  %431 = getelementptr inbounds %struct.State, %struct.State* %0, i32 0, i32 6
  %432 = getelementptr inbounds %struct.GPR, %struct.GPR* %431, i32 0, i32 33
  %433 = getelementptr inbounds %struct.Reg, %struct.Reg* %432, i32 0, i32 0
  %PC.i1 = bitcast %union.anon* %433 to i64*
  %434 = load i64, i64* %PC.i1
  %435 = add i64 %434, 1
  store i64 %435, i64* %PC.i1
  %436 = getelementptr inbounds %struct.State, %struct.State* %0, i64 0, i32 6, i32 33, i32 0, i32 0
  %437 = getelementptr inbounds %struct.State, %struct.State* %0, i64 0, i32 6, i32 13, i32 0, i32 0
  %438 = load i64, i64* %437, align 8
  %439 = inttoptr i64 %438 to i64*
  %440 = load i64, i64* %439
  store i64 %440, i64* %436, align 8
  %441 = add i64 %438, 8
  store i64 %441, i64* %437, align 8
  store %struct.Memory* %loadMem_4543f9, %struct.Memory** %MEMORY
  ret %struct.Memory* %loadMem_4543f9
}

define %struct.Memory* @routine_pushq__rbp(%struct.State* dereferenceable(3376), i64, %struct.Memory*) {
block_400488:
  %3 = getelementptr inbounds %struct.State, %struct.State* %0, i32 0, i32 6
  %4 = getelementptr inbounds %struct.GPR, %struct.GPR* %3, i32 0, i32 33
  %5 = getelementptr inbounds %struct.Reg, %struct.Reg* %4, i32 0, i32 0
  %PC = bitcast %union.anon* %5 to i64*
  %6 = getelementptr inbounds %struct.State, %struct.State* %0, i32 0, i32 6
  %7 = getelementptr inbounds %struct.GPR, %struct.GPR* %6, i32 0, i32 15
  %8 = getelementptr inbounds %struct.Reg, %struct.Reg* %7, i32 0, i32 0
  %RBP = bitcast %union.anon* %8 to i64*
  %9 = load i64, i64* %RBP
  %10 = load i64, i64* %PC
  %11 = add i64 %10, 1
  store i64 %11, i64* %PC
  %12 = getelementptr inbounds %struct.State, %struct.State* %0, i64 0, i32 6, i32 13, i32 0, i32 0
  %13 = load i64, i64* %12, align 8
  %14 = add i64 %13, -8
  %15 = inttoptr i64 %14 to i64*
  store i64 %9, i64* %15
  store i64 %14, i64* %12, align 8
  ret %struct.Memory* %2
}

define %struct.Memory* @routine_movq__rsp___rbp(%struct.State* dereferenceable(3376), i64, %struct.Memory*) {
block_400488:
  %3 = getelementptr inbounds %struct.State, %struct.State* %0, i32 0, i32 6
  %4 = getelementptr inbounds %struct.GPR, %struct.GPR* %3, i32 0, i32 33
  %5 = getelementptr inbounds %struct.Reg, %struct.Reg* %4, i32 0, i32 0
  %PC = bitcast %union.anon* %5 to i64*
  %6 = getelementptr inbounds %struct.State, %struct.State* %0, i32 0, i32 6
  %7 = getelementptr inbounds %struct.GPR, %struct.GPR* %6, i32 0, i32 13
  %8 = getelementptr inbounds %struct.Reg, %struct.Reg* %7, i32 0, i32 0
  %RSP = bitcast %union.anon* %8 to i64*
  %9 = getelementptr inbounds %struct.State, %struct.State* %0, i32 0, i32 6
  %10 = getelementptr inbounds %struct.GPR, %struct.GPR* %9, i32 0, i32 15
  %11 = getelementptr inbounds %struct.Reg, %struct.Reg* %10, i32 0, i32 0
  %RBP = bitcast %union.anon* %11 to i64*
  %12 = load i64, i64* %RSP
  %13 = load i64, i64* %PC
  %14 = add i64 %13, 3
  store i64 %14, i64* %PC
  store i64 %12, i64* %RBP, align 8
  ret %struct.Memory* %2
}

define %struct.Memory* @routine_movq__rdi__MINUS0x8__rbp_(%struct.State* dereferenceable(3376), i64, %struct.Memory*) {
block_400488:
  %3 = getelementptr inbounds %struct.State, %struct.State* %0, i32 0, i32 6
  %4 = getelementptr inbounds %struct.GPR, %struct.GPR* %3, i32 0, i32 33
  %5 = getelementptr inbounds %struct.Reg, %struct.Reg* %4, i32 0, i32 0
  %PC = bitcast %union.anon* %5 to i64*
  %6 = getelementptr inbounds %struct.State, %struct.State* %0, i32 0, i32 6
  %7 = getelementptr inbounds %struct.GPR, %struct.GPR* %6, i32 0, i32 11
  %8 = getelementptr inbounds %struct.Reg, %struct.Reg* %7, i32 0, i32 0
  %RDI = bitcast %union.anon* %8 to i64*
  %9 = getelementptr inbounds %struct.State, %struct.State* %0, i32 0, i32 6
  %10 = getelementptr inbounds %struct.GPR, %struct.GPR* %9, i32 0, i32 15
  %11 = getelementptr inbounds %struct.Reg, %struct.Reg* %10, i32 0, i32 0
  %RBP = bitcast %union.anon* %11 to i64*
  %12 = load i64, i64* %RBP
  %13 = sub i64 %12, 8
  %14 = load i64, i64* %RDI
  %15 = load i64, i64* %PC
  %16 = add i64 %15, 4
  store i64 %16, i64* %PC
  %17 = inttoptr i64 %13 to i64*
  store i64 %14, i64* %17
  ret %struct.Memory* %2
}

define %struct.Memory* @routine_movl__esi__MINUS0xc__rbp_(%struct.State* dereferenceable(3376), i64, %struct.Memory*) {
block_400488:
  %3 = getelementptr inbounds %struct.State, %struct.State* %0, i32 0, i32 6
  %4 = getelementptr inbounds %struct.GPR, %struct.GPR* %3, i32 0, i32 33
  %5 = getelementptr inbounds %struct.Reg, %struct.Reg* %4, i32 0, i32 0
  %PC = bitcast %union.anon* %5 to i64*
  %6 = getelementptr inbounds %struct.State, %struct.State* %0, i32 0, i32 6
  %7 = getelementptr inbounds %struct.GPR, %struct.GPR* %6, i32 0, i32 9
  %8 = getelementptr inbounds %struct.Reg, %struct.Reg* %7, i32 0, i32 0
  %ESI = bitcast %union.anon* %8 to i32*
  %9 = getelementptr inbounds %struct.State, %struct.State* %0, i32 0, i32 6
  %10 = getelementptr inbounds %struct.GPR, %struct.GPR* %9, i32 0, i32 15
  %11 = getelementptr inbounds %struct.Reg, %struct.Reg* %10, i32 0, i32 0
  %RBP = bitcast %union.anon* %11 to i64*
  %12 = load i64, i64* %RBP
  %13 = sub i64 %12, 12
  %14 = load i32, i32* %ESI
  %15 = zext i32 %14 to i64
  %16 = load i64, i64* %PC
  %17 = add i64 %16, 3
  store i64 %17, i64* %PC
  %18 = inttoptr i64 %13 to i32*
  store i32 %14, i32* %18
  ret %struct.Memory* %2
}

define %struct.Memory* @routine_movq_MINUS0x8__rbp____rdi(%struct.State* dereferenceable(3376), i64, %struct.Memory*) {
block_400488:
  %3 = getelementptr inbounds %struct.State, %struct.State* %0, i32 0, i32 6
  %4 = getelementptr inbounds %struct.GPR, %struct.GPR* %3, i32 0, i32 33
  %5 = getelementptr inbounds %struct.Reg, %struct.Reg* %4, i32 0, i32 0
  %PC = bitcast %union.anon* %5 to i64*
  %6 = getelementptr inbounds %struct.State, %struct.State* %0, i32 0, i32 6
  %7 = getelementptr inbounds %struct.GPR, %struct.GPR* %6, i32 0, i32 11
  %8 = getelementptr inbounds %struct.Reg, %struct.Reg* %7, i32 0, i32 0
  %RDI = bitcast %union.anon* %8 to i64*
  %9 = getelementptr inbounds %struct.State, %struct.State* %0, i32 0, i32 6
  %10 = getelementptr inbounds %struct.GPR, %struct.GPR* %9, i32 0, i32 15
  %11 = getelementptr inbounds %struct.Reg, %struct.Reg* %10, i32 0, i32 0
  %RBP = bitcast %union.anon* %11 to i64*
  %12 = load i64, i64* %RBP
  %13 = sub i64 %12, 8
  %14 = load i64, i64* %PC
  %15 = add i64 %14, 4
  store i64 %15, i64* %PC
  %16 = inttoptr i64 %13 to i64*
  %17 = load i64, i64* %16
  store i64 %17, i64* %RDI, align 8
  ret %struct.Memory* %2
}

define %struct.Memory* @routine_cmpl__0x0____rdi_(%struct.State* dereferenceable(3376), i64, %struct.Memory*) {
block_400488:
  %3 = getelementptr inbounds %struct.State, %struct.State* %0, i32 0, i32 6
  %4 = getelementptr inbounds %struct.GPR, %struct.GPR* %3, i32 0, i32 33
  %5 = getelementptr inbounds %struct.Reg, %struct.Reg* %4, i32 0, i32 0
  %PC = bitcast %union.anon* %5 to i64*
  %6 = getelementptr inbounds %struct.State, %struct.State* %0, i32 0, i32 6
  %7 = getelementptr inbounds %struct.GPR, %struct.GPR* %6, i32 0, i32 11
  %8 = getelementptr inbounds %struct.Reg, %struct.Reg* %7, i32 0, i32 0
  %RDI = bitcast %union.anon* %8 to i64*
  %9 = load i64, i64* %RDI
  %10 = load i64, i64* %PC
  %11 = add i64 %10, 3
  store i64 %11, i64* %PC
  %12 = inttoptr i64 %9 to i32*
  %13 = load i32, i32* %12
  %14 = getelementptr inbounds %struct.State, %struct.State* %0, i64 0, i32 2, i32 1
  store i8 0, i8* %14, align 1
  %15 = and i32 %13, 255
  %16 = call i32 @llvm.ctpop.i32(i32 %15)
  %17 = trunc i32 %16 to i8
  %18 = and i8 %17, 1
  %19 = xor i8 %18, 1
  %20 = getelementptr inbounds %struct.State, %struct.State* %0, i64 0, i32 2, i32 3
  store i8 %19, i8* %20, align 1
  %21 = getelementptr inbounds %struct.State, %struct.State* %0, i64 0, i32 2, i32 5
  store i8 0, i8* %21, align 1
  %22 = icmp eq i32 %13, 0
  %23 = zext i1 %22 to i8
  %24 = getelementptr inbounds %struct.State, %struct.State* %0, i64 0, i32 2, i32 7
  store i8 %23, i8* %24, align 1
  %25 = lshr i32 %13, 31
  %26 = trunc i32 %25 to i8
  %27 = getelementptr inbounds %struct.State, %struct.State* %0, i64 0, i32 2, i32 9
  store i8 %26, i8* %27, align 1
  %28 = lshr i32 %13, 31
  %29 = xor i32 %25, %28
  %30 = add i32 %29, %28
  %31 = icmp eq i32 %30, 2
  %32 = zext i1 %31 to i8
  %33 = getelementptr inbounds %struct.State, %struct.State* %0, i64 0, i32 2, i32 13
  store i8 %32, i8* %33, align 1
  ret %struct.Memory* %2
}

define %struct.Memory* @routine_jne_.L_4543da(%struct.State* dereferenceable(3376), i64, %struct.Memory*, i8* %BRANCH_TAKEN, i64 %rel_off1, i64 %rel_off2, i64 %rel_off3) {
block_400488:
  %3 = getelementptr inbounds %struct.State, %struct.State* %0, i32 0, i32 6
  %4 = getelementptr inbounds %struct.GPR, %struct.GPR* %3, i32 0, i32 33
  %5 = getelementptr inbounds %struct.Reg, %struct.Reg* %4, i32 0, i32 0
  %PC = bitcast %union.anon* %5 to i64*
  %6 = load i64, i64* %PC
  %7 = add i64 %6, %rel_off1
  %8 = load i64, i64* %PC
  %9 = add i64 %8, %rel_off2
  %10 = load i64, i64* %PC
  %11 = add i64 %10, %rel_off3
  store i64 %11, i64* %PC
  %12 = getelementptr inbounds %struct.State, %struct.State* %0, i64 0, i32 2, i32 7
  %13 = load i8, i8* %12, align 1
  %14 = icmp eq i8 %13, 0
  %15 = zext i1 %14 to i8
  store i8 %15, i8* %BRANCH_TAKEN, align 1
  %16 = getelementptr inbounds %struct.State, %struct.State* %0, i64 0, i32 6, i32 33, i32 0, i32 0
  %17 = select i1 %14, i64 %7, i64 %9
  store i64 %17, i64* %16, align 8
  ret %struct.Memory* %2
}

define %struct.Memory* @routine_movq_MINUS0x8__rbp____rax(%struct.State* dereferenceable(3376), i64, %struct.Memory*) {
block_400488:
  %3 = getelementptr inbounds %struct.State, %struct.State* %0, i32 0, i32 6
  %4 = getelementptr inbounds %struct.GPR, %struct.GPR* %3, i32 0, i32 33
  %5 = getelementptr inbounds %struct.Reg, %struct.Reg* %4, i32 0, i32 0
  %PC = bitcast %union.anon* %5 to i64*
  %6 = getelementptr inbounds %struct.State, %struct.State* %0, i32 0, i32 6
  %7 = getelementptr inbounds %struct.GPR, %struct.GPR* %6, i32 0, i32 1
  %8 = getelementptr inbounds %struct.Reg, %struct.Reg* %7, i32 0, i32 0
  %RAX = bitcast %union.anon* %8 to i64*
  %9 = getelementptr inbounds %struct.State, %struct.State* %0, i32 0, i32 6
  %10 = getelementptr inbounds %struct.GPR, %struct.GPR* %9, i32 0, i32 15
  %11 = getelementptr inbounds %struct.Reg, %struct.Reg* %10, i32 0, i32 0
  %RBP = bitcast %union.anon* %11 to i64*
  %12 = load i64, i64* %RBP
  %13 = sub i64 %12, 8
  %14 = load i64, i64* %PC
  %15 = add i64 %14, 4
  store i64 %15, i64* %PC
  %16 = inttoptr i64 %13 to i64*
  %17 = load i64, i64* %16
  store i64 %17, i64* %RAX, align 8
  ret %struct.Memory* %2
}

define %struct.Memory* @routine_movl_0x18d8__rax____ecx(%struct.State* dereferenceable(3376), i64, %struct.Memory*) {
block_400488:
  %3 = getelementptr inbounds %struct.State, %struct.State* %0, i32 0, i32 6
  %4 = getelementptr inbounds %struct.GPR, %struct.GPR* %3, i32 0, i32 33
  %5 = getelementptr inbounds %struct.Reg, %struct.Reg* %4, i32 0, i32 0
  %PC = bitcast %union.anon* %5 to i64*
  %6 = getelementptr inbounds %struct.State, %struct.State* %0, i32 0, i32 6
  %7 = getelementptr inbounds %struct.GPR, %struct.GPR* %6, i32 0, i32 1
  %8 = getelementptr inbounds %struct.Reg, %struct.Reg* %7, i32 0, i32 0
  %RAX = bitcast %union.anon* %8 to i64*
  %9 = getelementptr inbounds %struct.State, %struct.State* %0, i32 0, i32 6
  %10 = getelementptr inbounds %struct.GPR, %struct.GPR* %9, i32 0, i32 5
  %11 = getelementptr inbounds %struct.Reg, %struct.Reg* %10, i32 0, i32 0
  %RCX = bitcast %union.anon* %11 to i64*
  %12 = load i64, i64* %RAX
  %13 = add i64 %12, 6360
  %14 = load i64, i64* %PC
  %15 = add i64 %14, 6
  store i64 %15, i64* %PC
  %16 = inttoptr i64 %13 to i32*
  %17 = load i32, i32* %16
  %18 = zext i32 %17 to i64
  store i64 %18, i64* %RCX, align 8
  ret %struct.Memory* %2
}

define %struct.Memory* @routine_movl__ecx__MINUS0x10__rbp_(%struct.State* dereferenceable(3376), i64, %struct.Memory*) {
block_400488:
  %3 = getelementptr inbounds %struct.State, %struct.State* %0, i32 0, i32 6
  %4 = getelementptr inbounds %struct.GPR, %struct.GPR* %3, i32 0, i32 33
  %5 = getelementptr inbounds %struct.Reg, %struct.Reg* %4, i32 0, i32 0
  %PC = bitcast %union.anon* %5 to i64*
  %6 = getelementptr inbounds %struct.State, %struct.State* %0, i32 0, i32 6
  %7 = getelementptr inbounds %struct.GPR, %struct.GPR* %6, i32 0, i32 5
  %8 = getelementptr inbounds %struct.Reg, %struct.Reg* %7, i32 0, i32 0
  %ECX = bitcast %union.anon* %8 to i32*
  %9 = getelementptr inbounds %struct.State, %struct.State* %0, i32 0, i32 6
  %10 = getelementptr inbounds %struct.GPR, %struct.GPR* %9, i32 0, i32 15
  %11 = getelementptr inbounds %struct.Reg, %struct.Reg* %10, i32 0, i32 0
  %RBP = bitcast %union.anon* %11 to i64*
  %12 = load i64, i64* %RBP
  %13 = sub i64 %12, 16
  %14 = load i32, i32* %ECX
  %15 = zext i32 %14 to i64
  %16 = load i64, i64* %PC
  %17 = add i64 %16, 3
  store i64 %17, i64* %PC
  %18 = inttoptr i64 %13 to i32*
  store i32 %14, i32* %18
  ret %struct.Memory* %2
}

define %struct.Memory* @routine_jmpq_.L_4543ed(%struct.State* dereferenceable(3376), i64, %struct.Memory*, i64 %rel_off1, i64 %rel_off2) {
block_400488:
  %3 = getelementptr inbounds %struct.State, %struct.State* %0, i32 0, i32 6
  %4 = getelementptr inbounds %struct.GPR, %struct.GPR* %3, i32 0, i32 33
  %5 = getelementptr inbounds %struct.Reg, %struct.Reg* %4, i32 0, i32 0
  %PC = bitcast %union.anon* %5 to i64*
  %6 = load i64, i64* %PC
  %7 = add i64 %6, %rel_off1
  %8 = load i64, i64* %PC
  %9 = add i64 %8, %rel_off2
  store i64 %9, i64* %PC
  %10 = getelementptr inbounds %struct.State, %struct.State* %0, i64 0, i32 6, i32 33, i32 0, i32 0
  store i64 %7, i64* %10, align 8
  ret %struct.Memory* %2
}

define %struct.Memory* @routine_shll__0x1___ecx(%struct.State* dereferenceable(3376), i64, %struct.Memory*) {
block_400488:
  %3 = getelementptr inbounds %struct.State, %struct.State* %0, i32 0, i32 6
  %4 = getelementptr inbounds %struct.GPR, %struct.GPR* %3, i32 0, i32 33
  %5 = getelementptr inbounds %struct.Reg, %struct.Reg* %4, i32 0, i32 0
  %PC = bitcast %union.anon* %5 to i64*
  %6 = getelementptr inbounds %struct.State, %struct.State* %0, i32 0, i32 6
  %7 = getelementptr inbounds %struct.GPR, %struct.GPR* %6, i32 0, i32 5
  %8 = getelementptr inbounds %struct.Reg, %struct.Reg* %7, i32 0, i32 0
  %RCX = bitcast %union.anon* %8 to i64*
  %9 = load i64, i64* %RCX
  %10 = load i64, i64* %PC
  %11 = add i64 %10, 2
  store i64 %11, i64* %PC
  %12 = trunc i64 %9 to i32
  %13 = shl i32 %12, 1
  %14 = icmp slt i32 %12, 0
  %15 = icmp slt i32 %13, 0
  %16 = xor i1 %14, %15
  %17 = zext i32 %13 to i64
  store i64 %17, i64* %RCX, align 8
  %18 = getelementptr inbounds %struct.State, %struct.State* %0, i64 0, i32 2, i32 1
  %19 = zext i1 %14 to i8
  store i8 %19, i8* %18, align 1
  %20 = getelementptr inbounds %struct.State, %struct.State* %0, i64 0, i32 2, i32 3
  %21 = and i32 %13, 254
  %22 = call i32 @llvm.ctpop.i32(i32 %21)
  %23 = trunc i32 %22 to i8
  %24 = and i8 %23, 1
  %25 = xor i8 %24, 1
  store i8 %25, i8* %20, align 1
  %26 = getelementptr inbounds %struct.State, %struct.State* %0, i64 0, i32 2, i32 5
  store i8 0, i8* %26, align 1
  %27 = getelementptr inbounds %struct.State, %struct.State* %0, i64 0, i32 2, i32 7
  %28 = icmp eq i32 %13, 0
  %29 = zext i1 %28 to i8
  store i8 %29, i8* %27, align 1
  %30 = getelementptr inbounds %struct.State, %struct.State* %0, i64 0, i32 2, i32 9
  %31 = lshr i32 %13, 31
  %32 = trunc i32 %31 to i8
  store i8 %32, i8* %30, align 1
  %33 = getelementptr inbounds %struct.State, %struct.State* %0, i64 0, i32 2, i32 13
  %34 = zext i1 %16 to i8
  store i8 %34, i8* %33, align 1
  ret %struct.Memory* %2
}

define %struct.Memory* @routine_addl__0x1___ecx(%struct.State* dereferenceable(3376), i64, %struct.Memory*) {
block_400488:
  %3 = getelementptr inbounds %struct.State, %struct.State* %0, i32 0, i32 6
  %4 = getelementptr inbounds %struct.GPR, %struct.GPR* %3, i32 0, i32 33
  %5 = getelementptr inbounds %struct.Reg, %struct.Reg* %4, i32 0, i32 0
  %PC = bitcast %union.anon* %5 to i64*
  %6 = getelementptr inbounds %struct.State, %struct.State* %0, i32 0, i32 6
  %7 = getelementptr inbounds %struct.GPR, %struct.GPR* %6, i32 0, i32 5
  %8 = getelementptr inbounds %struct.Reg, %struct.Reg* %7, i32 0, i32 0
  %RCX = bitcast %union.anon* %8 to i64*
  %9 = load i64, i64* %RCX
  %10 = load i64, i64* %PC
  %11 = add i64 %10, 3
  store i64 %11, i64* %PC
  %12 = trunc i64 %9 to i32
  %13 = add i32 1, %12
  %14 = zext i32 %13 to i64
  store i64 %14, i64* %RCX, align 8
  %15 = icmp ult i32 %13, %12
  %16 = icmp ult i32 %13, 1
  %17 = or i1 %15, %16
  %18 = zext i1 %17 to i8
  %19 = getelementptr inbounds %struct.State, %struct.State* %0, i64 0, i32 2, i32 1
  store i8 %18, i8* %19, align 1
  %20 = and i32 %13, 255
  %21 = call i32 @llvm.ctpop.i32(i32 %20)
  %22 = trunc i32 %21 to i8
  %23 = and i8 %22, 1
  %24 = xor i8 %23, 1
  %25 = getelementptr inbounds %struct.State, %struct.State* %0, i64 0, i32 2, i32 3
  store i8 %24, i8* %25, align 1
  %26 = xor i64 1, %9
  %27 = trunc i64 %26 to i32
  %28 = xor i32 %27, %13
  %29 = lshr i32 %28, 4
  %30 = trunc i32 %29 to i8
  %31 = and i8 %30, 1
  %32 = getelementptr inbounds %struct.State, %struct.State* %0, i64 0, i32 2, i32 5
  store i8 %31, i8* %32, align 1
  %33 = icmp eq i32 %13, 0
  %34 = zext i1 %33 to i8
  %35 = getelementptr inbounds %struct.State, %struct.State* %0, i64 0, i32 2, i32 7
  store i8 %34, i8* %35, align 1
  %36 = lshr i32 %13, 31
  %37 = trunc i32 %36 to i8
  %38 = getelementptr inbounds %struct.State, %struct.State* %0, i64 0, i32 2, i32 9
  store i8 %37, i8* %38, align 1
  %39 = lshr i32 %12, 31
  %40 = xor i32 %36, %39
  %41 = add i32 %40, %36
  %42 = icmp eq i32 %41, 2
  %43 = zext i1 %42 to i8
  %44 = getelementptr inbounds %struct.State, %struct.State* %0, i64 0, i32 2, i32 13
  store i8 %43, i8* %44, align 1
  ret %struct.Memory* %2
}

define %struct.Memory* @routine_movl_MINUS0x10__rbp____eax(%struct.State* dereferenceable(3376), i64, %struct.Memory*) {
block_400488:
  %3 = getelementptr inbounds %struct.State, %struct.State* %0, i32 0, i32 6
  %4 = getelementptr inbounds %struct.GPR, %struct.GPR* %3, i32 0, i32 33
  %5 = getelementptr inbounds %struct.Reg, %struct.Reg* %4, i32 0, i32 0
  %PC = bitcast %union.anon* %5 to i64*
  %6 = getelementptr inbounds %struct.State, %struct.State* %0, i32 0, i32 6
  %7 = getelementptr inbounds %struct.GPR, %struct.GPR* %6, i32 0, i32 1
  %8 = getelementptr inbounds %struct.Reg, %struct.Reg* %7, i32 0, i32 0
  %RAX = bitcast %union.anon* %8 to i64*
  %9 = getelementptr inbounds %struct.State, %struct.State* %0, i32 0, i32 6
  %10 = getelementptr inbounds %struct.GPR, %struct.GPR* %9, i32 0, i32 15
  %11 = getelementptr inbounds %struct.Reg, %struct.Reg* %10, i32 0, i32 0
  %RBP = bitcast %union.anon* %11 to i64*
  %12 = load i64, i64* %RBP
  %13 = sub i64 %12, 16
  %14 = load i64, i64* %PC
  %15 = add i64 %14, 3
  store i64 %15, i64* %PC
  %16 = inttoptr i64 %13 to i32*
  %17 = load i32, i32* %16
  %18 = zext i32 %17 to i64
  store i64 %18, i64* %RAX, align 8
  ret %struct.Memory* %2
}

define %struct.Memory* @routine_movl_MINUS0xc__rbp____ecx(%struct.State* dereferenceable(3376), i64, %struct.Memory*) {
block_400488:
  %3 = getelementptr inbounds %struct.State, %struct.State* %0, i32 0, i32 6
  %4 = getelementptr inbounds %struct.GPR, %struct.GPR* %3, i32 0, i32 33
  %5 = getelementptr inbounds %struct.Reg, %struct.Reg* %4, i32 0, i32 0
  %PC = bitcast %union.anon* %5 to i64*
  %6 = getelementptr inbounds %struct.State, %struct.State* %0, i32 0, i32 6
  %7 = getelementptr inbounds %struct.GPR, %struct.GPR* %6, i32 0, i32 5
  %8 = getelementptr inbounds %struct.Reg, %struct.Reg* %7, i32 0, i32 0
  %RCX = bitcast %union.anon* %8 to i64*
  %9 = getelementptr inbounds %struct.State, %struct.State* %0, i32 0, i32 6
  %10 = getelementptr inbounds %struct.GPR, %struct.GPR* %9, i32 0, i32 15
  %11 = getelementptr inbounds %struct.Reg, %struct.Reg* %10, i32 0, i32 0
  %RBP = bitcast %union.anon* %11 to i64*
  %12 = load i64, i64* %RBP
  %13 = sub i64 %12, 12
  %14 = load i64, i64* %PC
  %15 = add i64 %14, 3
  store i64 %15, i64* %PC
  %16 = inttoptr i64 %13 to i32*
  %17 = load i32, i32* %16
  %18 = zext i32 %17 to i64
  store i64 %18, i64* %RCX, align 8
  ret %struct.Memory* %2
}

define %struct.Memory* @routine_subl__ecx___eax(%struct.State* dereferenceable(3376), i64, %struct.Memory*) {
block_400488:
  %3 = getelementptr inbounds %struct.State, %struct.State* %0, i32 0, i32 6
  %4 = getelementptr inbounds %struct.GPR, %struct.GPR* %3, i32 0, i32 33
  %5 = getelementptr inbounds %struct.Reg, %struct.Reg* %4, i32 0, i32 0
  %PC = bitcast %union.anon* %5 to i64*
  %6 = getelementptr inbounds %struct.State, %struct.State* %0, i32 0, i32 6
  %7 = getelementptr inbounds %struct.GPR, %struct.GPR* %6, i32 0, i32 5
  %8 = getelementptr inbounds %struct.Reg, %struct.Reg* %7, i32 0, i32 0
  %ECX = bitcast %union.anon* %8 to i32*
  %9 = getelementptr inbounds %struct.State, %struct.State* %0, i32 0, i32 6
  %10 = getelementptr inbounds %struct.GPR, %struct.GPR* %9, i32 0, i32 1
  %11 = getelementptr inbounds %struct.Reg, %struct.Reg* %10, i32 0, i32 0
  %RAX = bitcast %union.anon* %11 to i64*
  %12 = load i64, i64* %RAX
  %13 = load i32, i32* %ECX
  %14 = zext i32 %13 to i64
  %15 = load i64, i64* %PC
  %16 = add i64 %15, 2
  store i64 %16, i64* %PC
  %17 = trunc i64 %12 to i32
  %18 = sub i32 %17, %13
  %19 = zext i32 %18 to i64
  store i64 %19, i64* %RAX, align 8
  %20 = icmp ult i32 %17, %13
  %21 = zext i1 %20 to i8
  %22 = getelementptr inbounds %struct.State, %struct.State* %0, i64 0, i32 2, i32 1
  store i8 %21, i8* %22, align 1
  %23 = and i32 %18, 255
  %24 = call i32 @llvm.ctpop.i32(i32 %23)
  %25 = trunc i32 %24 to i8
  %26 = and i8 %25, 1
  %27 = xor i8 %26, 1
  %28 = getelementptr inbounds %struct.State, %struct.State* %0, i64 0, i32 2, i32 3
  store i8 %27, i8* %28, align 1
  %29 = xor i64 %14, %12
  %30 = trunc i64 %29 to i32
  %31 = xor i32 %30, %18
  %32 = lshr i32 %31, 4
  %33 = trunc i32 %32 to i8
  %34 = and i8 %33, 1
  %35 = getelementptr inbounds %struct.State, %struct.State* %0, i64 0, i32 2, i32 5
  store i8 %34, i8* %35, align 1
  %36 = icmp eq i32 %18, 0
  %37 = zext i1 %36 to i8
  %38 = getelementptr inbounds %struct.State, %struct.State* %0, i64 0, i32 2, i32 7
  store i8 %37, i8* %38, align 1
  %39 = lshr i32 %18, 31
  %40 = trunc i32 %39 to i8
  %41 = getelementptr inbounds %struct.State, %struct.State* %0, i64 0, i32 2, i32 9
  store i8 %40, i8* %41, align 1
  %42 = lshr i32 %17, 31
  %43 = lshr i32 %13, 31
  %44 = xor i32 %43, %42
  %45 = xor i32 %39, %42
  %46 = add i32 %45, %44
  %47 = icmp eq i32 %46, 2
  %48 = zext i1 %47 to i8
  %49 = getelementptr inbounds %struct.State, %struct.State* %0, i64 0, i32 2, i32 13
  store i8 %48, i8* %49, align 1
  ret %struct.Memory* %2
}

define %struct.Memory* @routine_popq__rbp(%struct.State* dereferenceable(3376), i64, %struct.Memory*) {
block_400488:
  %3 = getelementptr inbounds %struct.State, %struct.State* %0, i32 0, i32 6
  %4 = getelementptr inbounds %struct.GPR, %struct.GPR* %3, i32 0, i32 33
  %5 = getelementptr inbounds %struct.Reg, %struct.Reg* %4, i32 0, i32 0
  %PC = bitcast %union.anon* %5 to i64*
  %6 = getelementptr inbounds %struct.State, %struct.State* %0, i32 0, i32 6
  %7 = getelementptr inbounds %struct.GPR, %struct.GPR* %6, i32 0, i32 15
  %8 = getelementptr inbounds %struct.Reg, %struct.Reg* %7, i32 0, i32 0
  %RBP = bitcast %union.anon* %8 to i64*
  %9 = load i64, i64* %PC
  %10 = add i64 %9, 1
  store i64 %10, i64* %PC
  %11 = getelementptr inbounds %struct.State, %struct.State* %0, i64 0, i32 6, i32 13, i32 0, i32 0
  %12 = load i64, i64* %11, align 8
  %13 = add i64 %12, 8
  %14 = inttoptr i64 %12 to i64*
  %15 = load i64, i64* %14
  store i64 %15, i64* %RBP, align 8
  store i64 %13, i64* %11, align 8
  ret %struct.Memory* %2
}

define %struct.Memory* @routine_retq(%struct.State* dereferenceable(3376), i64, %struct.Memory*) {
block_400488:
  %3 = getelementptr inbounds %struct.State, %struct.State* %0, i32 0, i32 6
  %4 = getelementptr inbounds %struct.GPR, %struct.GPR* %3, i32 0, i32 33
  %5 = getelementptr inbounds %struct.Reg, %struct.Reg* %4, i32 0, i32 0
  %PC = bitcast %union.anon* %5 to i64*
  %6 = load i64, i64* %PC
  %7 = add i64 %6, 1
  store i64 %7, i64* %PC
  %8 = getelementptr inbounds %struct.State, %struct.State* %0, i64 0, i32 6, i32 33, i32 0, i32 0
  %9 = getelementptr inbounds %struct.State, %struct.State* %0, i64 0, i32 6, i32 13, i32 0, i32 0
  %10 = load i64, i64* %9, align 8
  %11 = inttoptr i64 %10 to i64*
  %12 = load i64, i64* %11
  store i64 %12, i64* %8, align 8
  %13 = add i64 %10, 8
  store i64 %13, i64* %9, align 8
  ret %struct.Memory* %2
}

attributes #0 = { argmemonly nounwind }
attributes #1 = { nounwind readnone }
attributes #2 = { alwaysinline }
