; ModuleID = 'mcsema/test.proposed.ll'
source_filename = "llvm-link"
target datalayout = "e-m:e-i64:64-f80:128-n8:16:32:64-S128"
target triple = "x86_64-pc-linux-gnu-elf"

%union.anon = type { i64 }
%seg_400388__init_type = type <{ [23 x i8] }>
%seg_4003a0__text_type = type <{ [354 x i8] }>
%seg_400504__fini_type = type <{ [9 x i8] }>
%seg_400510__rodata_type = type <{ [4 x i8] }>
%seg_400514__eh_frame_hdr_type = type <{ [52 x i8] }>
%seg_400548__eh_frame_type = type <{ [208 x i8] }>
%seg_601018__data_type = type <{ [16 x i8] }>
%__bss_start_type = type <{ [8 x i8] }>
%seg_400514__fini_type = type <{ [9 x i8] }>
%seg_400520__rodata_type = type <{ [4 x i8] }>
%seg_400524__eh_frame_hdr_type = type <{ [52 x i8] }>
%seg_400558__eh_frame_type = type <{ [208 x i8] }>
%struct.State = type { %struct.ArchState, [32 x %union.VectorReg], %struct.ArithFlags, %union.anon, %struct.Segments, %struct.AddressSpace, %struct.GPR, %struct.X87Stack, %struct.MMX, %struct.FPUStatusFlags, %union.anon, %union.FPU, %struct.SegmentCaches }
%struct.ArchState = type { i32, i32, %union.anon }
%union.VectorReg = type { %union.vec512_t }
%union.vec512_t = type { %struct.uint64v8_t }
%struct.uint64v8_t = type { [8 x i64] }
%struct.ArithFlags = type { i8, i8, i8, i8, i8, i8, i8, i8, i8, i8, i8, i8, i8, i8, i8, i8 }
%struct.Segments = type { i16, %union.SegmentSelector, i16, %union.SegmentSelector, i16, %union.SegmentSelector, i16, %union.SegmentSelector, i16, %union.SegmentSelector, i16, %union.SegmentSelector }
%union.SegmentSelector = type { i16 }
%struct.AddressSpace = type { i64, %struct.Reg, i64, %struct.Reg, i64, %struct.Reg, i64, %struct.Reg, i64, %struct.Reg, i64, %struct.Reg }
%struct.Reg = type { %union.anon }
%struct.GPR = type { i64, %struct.Reg, i64, %struct.Reg, i64, %struct.Reg, i64, %struct.Reg, i64, %struct.Reg, i64, %struct.Reg, i64, %struct.Reg, i64, %struct.Reg, i64, %struct.Reg, i64, %struct.Reg, i64, %struct.Reg, i64, %struct.Reg, i64, %struct.Reg, i64, %struct.Reg, i64, %struct.Reg, i64, %struct.Reg, i64, %struct.Reg }
%struct.X87Stack = type { [8 x %struct.anon.3] }
%struct.anon.3 = type { i64, double }
%struct.MMX = type { [8 x %struct.anon.4] }
%struct.anon.4 = type { i64, %union.vec64_t }
%union.vec64_t = type { %struct.uint64v1_t }
%struct.uint64v1_t = type { [1 x i64] }
%struct.FPUStatusFlags = type { i8, i8, i8, i8, i8, i8, i8, i8, i8, i8, i8, i8, i8, i8, i8, i8, i8, i8, i8, i8, [4 x i8] }
%union.FPU = type { %struct.anon.13 }
%struct.anon.13 = type { %struct.FpuFXSAVE, [96 x i8] }
%struct.FpuFXSAVE = type { %union.SegmentSelector, %union.SegmentSelector, %union.FPUAbridgedTagWord, i8, i16, i32, %union.SegmentSelector, i16, i32, %union.SegmentSelector, i16, %union.FPUControlStatus, %union.FPUControlStatus, [8 x %struct.FPUStackElem], [16 x %union.vec128_t] }
%union.FPUAbridgedTagWord = type { i8 }
%union.FPUControlStatus = type { i32 }
%struct.FPUStackElem = type { %union.anon.11, [6 x i8] }
%union.anon.11 = type { %struct.float80_t }
%struct.float80_t = type { [10 x i8] }
%union.vec128_t = type { %struct.uint128v1_t }
%struct.uint128v1_t = type { [1 x i128] }
%struct.SegmentCaches = type { %struct.SegmentShadow, %struct.SegmentShadow, %struct.SegmentShadow, %struct.SegmentShadow, %struct.SegmentShadow, %struct.SegmentShadow }
%struct.SegmentShadow = type { %union.anon, i32, i32 }
%struct.Memory = type opaque
%struct.anon.2 = type { i8, i8 }

@switch.table = private unnamed_addr constant [4 x i32] [i32 2048, i32 3072, i32 0, i32 1024]
@DR0 = external global i64, align 8
@DR1 = external global i64, align 8
@DR2 = external global i64, align 8
@DR3 = external global i64, align 8
@DR4 = external global i64, align 8
@DR5 = external global i64, align 8
@DR6 = external global i64, align 8
@DR7 = external global i64, align 8
@gCR0 = external global %union.anon, align 1
@gCR1 = external global %union.anon, align 1
@gCR2 = external global %union.anon, align 1
@gCR3 = external global %union.anon, align 1
@gCR4 = external global %union.anon, align 1
@gCR8 = external global %union.anon, align 1
@seg_400388__init = internal constant %seg_400388__init_type <{ [23 x i8] c"H\83\EC\08H\8B\05e\0C \00H\85\C0t\02\FF\D0H\83\C4\08\C3" }>
@seg_4003a0__text = internal constant %seg_4003a0__text_type <{ [354 x i8] c"1\EDI\89\D1^H\89\E2H\83\E4\F0PTI\C7\C0\00\05@\00H\C7\C1\90\04@\00H\C7\C7\88\04@\00\FF\15&\0C \00\F4\0F\1FD\00\00\F3\C3f.\0F\1F\84\00\00\00\00\00\0F\1F@\00U\B8(\10`\00H=(\10`\00H\89\E5t\17\B8\00\00\00\00H\85\C0t\0D]\BF(\10`\00\FF\E0\0F\1FD\00\00]\C3f\0F\1FD\00\00\BE(\10`\00UH\81\EE(\10`\00H\89\E5H\C1\FE\03H\89\F0H\C1\E8?H\01\C6H\D1\FEt\15\B8\00\00\00\00H\85\C0t\0B]\BF(\10`\00\FF\E0\0F\1F\00]\C3f\0F\1FD\00\00\80=\D1\0B \00\00u\17UH\89\E5\E8~\FF\FF\FF\C6\05\BF\0B \00\01]\C3\0F\1FD\00\00\F3\C3\0F\1F@\00f.\0F\1F\84\00\00\00\00\00UH\89\E5]\EB\89\90U\C3f\0F\1FD\00\00AWAVI\89\D7AUATL\8D%\9E\09 \00UH\8D-\9E\09 \00SA\89\FDI\89\F6L)\E5H\83\EC\08H\C1\FD\03\E8\C7\FE\FF\FFH\85\EDt 1\DB\0F\1F\84\00\00\00\00\00L\89\FAL\89\F6D\89\EFA\FF\14\DCH\83\C3\01H9\DDu\EAH\83\C4\08[]A\5CA]A^A_\C3\90f.\0F\1F\84\00\00\00\00\00\F3\C3" }>
@seg_400504__fini = internal constant %seg_400504__fini_type <{ [9 x i8] c"H\83\EC\08H\83\C4\08\C3" }>
@seg_400510__rodata = internal constant %seg_400510__rodata_type <{ [4 x i8] c"\01\00\02\00" }>
@seg_400514__eh_frame_hdr = internal constant %seg_400514__eh_frame_hdr_type <{ [52 x i8] c"\01\1B\03;0\00\00\00\05\00\00\00\8C\FE\FF\FFL\00\00\00\BC\FE\FF\FFx\00\00\00t\FF\FF\FF\8C\00\00\00|\FF\FF\FF\A4\00\00\00\EC\FF\FF\FF\EC\00\00\00" }>
@seg_400548__eh_frame = internal constant %seg_400548__eh_frame_type <{ [208 x i8] c"\14\00\00\00\00\00\00\00\01zR\00\01x\10\01\1B\0C\07\08\90\01\07\10\10\00\00\00\1C\00\00\008\FE\FF\FF+\00\00\00\00\00\00\00\14\00\00\00\00\00\00\00\01zR\00\01x\10\01\1B\0C\07\08\90\01\00\00\10\00\00\00\1C\00\00\00<\FE\FF\FF\02\00\00\00\00\00\00\00\14\00\00\000\00\00\00\E0\FE\FF\FF\02\00\00\00\00\00\00\00\00\00\00\00D\00\00\00H\00\00\00\D0\FE\FF\FFe\00\00\00\00B\0E\10\8F\02B\0E\18\8E\03E\0E \8D\04B\0E(\8C\05H\0E0\86\06H\0E8\83\07M\0E@r\0E8A\0E0A\0E(B\0E B\0E\18B\0E\10B\0E\08\00\10\00\00\00\90\00\00\00\F8\FE\FF\FF\02\00\00\00\00\00\00\00\00\00\00\00" }>
@seg_601018__data = internal global %seg_601018__data_type zeroinitializer
@__bss_start = global %__bss_start_type zeroinitializer
@0 = internal global i1 false
@seg_400514__fini = internal constant %seg_400514__fini_type <{ [9 x i8] c"H\83\EC\08H\83\C4\08\C3" }>
@seg_400520__rodata = internal constant %seg_400520__rodata_type <{ [4 x i8] c"\01\00\02\00" }>
@seg_400524__eh_frame_hdr = internal constant %seg_400524__eh_frame_hdr_type <{ [52 x i8] c"\01\1B\03;0\00\00\00\05\00\00\00|\FE\FF\FFL\00\00\00\AC\FE\FF\FFx\00\00\00d\FF\FF\FF\8C\00\00\00|\FF\FF\FF\A4\00\00\00\EC\FF\FF\FF\EC\00\00\00" }>
@seg_400558__eh_frame = internal constant %seg_400558__eh_frame_type <{ [208 x i8] c"\14\00\00\00\00\00\00\00\01zR\00\01x\10\01\1B\0C\07\08\90\01\07\10\10\00\00\00\1C\00\00\00(\FE\FF\FF+\00\00\00\00\00\00\00\14\00\00\00\00\00\00\00\01zR\00\01x\10\01\1B\0C\07\08\90\01\00\00\10\00\00\00\1C\00\00\00,\FE\FF\FF\02\00\00\00\00\00\00\00\14\00\00\000\00\00\00\D0\FE\FF\FF\09\00\00\00\00\00\00\00\00\00\00\00D\00\00\00H\00\00\00\D0\FE\FF\FFe\00\00\00\00B\0E\10\8F\02B\0E\18\8E\03E\0E \8D\04B\0E(\8C\05H\0E0\86\06H\0E8\83\07M\0E@r\0E8A\0E0A\0E(B\0E B\0E\18B\0E\10B\0E\08\00\10\00\00\00\90\00\00\00\F8\FE\FF\FF\02\00\00\00\00\00\00\00\00\00\00\00" }>

declare %struct.Memory* @__remill_error(%struct.State* dereferenceable(3376), i64, %struct.Memory*)

declare i32 @__remill_fpu_exception_test_and_clear(i32, i32)

; Function Attrs: argmemonly nounwind
declare void @llvm.lifetime.start(i64, i8* nocapture) #0

; Function Attrs: argmemonly nounwind
declare void @llvm.lifetime.end(i64, i8* nocapture) #0

; Function Attrs: nounwind readnone
declare i32 @llvm.ctpop.i32(i32) #1

; Function Attrs: nounwind readnone
declare i32 @llvm.bswap.i32(i32) #1

; Function Attrs: nounwind readnone
declare i64 @llvm.bswap.i64(i64) #1

; Function Attrs: nounwind readnone
declare i32 @llvm.cttz.i32(i32, i1) #1

; Function Attrs: nounwind readnone
declare i64 @llvm.cttz.i64(i64, i1) #1

; Function Attrs: nounwind readnone
declare i32 @llvm.ctlz.i32(i32, i1) #1

; Function Attrs: nounwind readnone
declare i64 @llvm.ctlz.i64(i64, i1) #1

; Function Attrs: argmemonly nounwind
declare void @llvm.memcpy.p0i8.p0i8.i64(i8* nocapture writeonly, i8* nocapture readonly, i64, i32, i1) #0

; Function Attrs: nounwind readnone
declare double @llvm.nearbyint.f64(double) #1

; Function Attrs: nounwind readnone
declare double @llvm.fabs.f64(double) #1

; Function Attrs: nounwind readnone
declare <4 x double> @llvm.nearbyint.v4f64(<4 x double>) #1

; Function Attrs: nounwind readnone
declare <4 x double> @llvm.fabs.v4f64(<4 x double>) #1

; Function Attrs: nounwind readnone
declare double @llvm.trunc.f64(double) #1

; Function Attrs: nounwind readnone
declare <4 x double> @llvm.trunc.v4f64(<4 x double>) #1

; Function Attrs: nounwind readnone
declare float @llvm.nearbyint.f32(float) #1

; Function Attrs: nounwind readnone
declare float @llvm.fabs.f32(float) #1

; Function Attrs: nounwind readnone
declare <4 x float> @llvm.nearbyint.v4f32(<4 x float>) #1

; Function Attrs: nounwind readnone
declare <4 x float> @llvm.fabs.v4f32(<4 x float>) #1

; Function Attrs: nounwind readnone
declare float @llvm.trunc.f32(float) #1

; Function Attrs: nounwind readnone
declare <4 x float> @llvm.trunc.v4f32(<4 x float>) #1

; Function Attrs: argmemonly nounwind
declare void @llvm.memset.p0i8.i64(i8* nocapture writeonly, i8, i64, i32, i1) #0

declare double @atan(double) local_unnamed_addr

declare double @cos(double) local_unnamed_addr

declare double @sin(double) local_unnamed_addr

declare double @sqrt(double) local_unnamed_addr

declare double @tan(double) local_unnamed_addr

declare extern_weak x86_64_sysvcc i64 @abort()

declare extern_weak x86_64_sysvcc i64 @abs(i64)

declare extern_weak x86_64_sysvcc i64 @asin(i64)

declare extern_weak x86_64_sysvcc i64 @atof(i64)

declare extern_weak x86_64_sysvcc i64 @atoi(i64)

declare extern_weak x86_64_sysvcc i64 @atol(i64)

declare extern_weak x86_64_sysvcc i64 @calloc(i64, i64)

declare extern_weak x86_64_sysvcc i64 @clock()

declare extern_weak x86_64_sysvcc i64 @cosf(i64)

declare extern_weak x86_64_sysvcc i64 @exit(i64)

declare extern_weak x86_64_sysvcc i64 @exp(i64)

declare extern_weak x86_64_sysvcc i64 @fflush(i64)

declare extern_weak x86_64_sysvcc i64 @floor(i64)

declare extern_weak x86_64_sysvcc i64 @fprintf(i64, i64, i64, i64, i64, i64, i64, i64, i64, i64, i64, i64, i64, i64, i64, i64)

declare extern_weak x86_64_sysvcc i64 @fputs(i64, i64)

declare extern_weak x86_64_sysvcc i64 @free(i64)

declare extern_weak x86_64_sysvcc i64 @fwrite(i64, i64, i64, i64)

declare extern_weak x86_64_sysvcc i64 @getchar()

declare extern_weak x86_64_sysvcc i64 @gettimeofday(i64, i64)

declare extern_weak x86_64_sysvcc i64 @__isoc99_fscanf(i64, i64, i64, i64, i64, i64, i64, i64, i64, i64, i64, i64, i64, i64, i64, i64)

declare extern_weak x86_64_sysvcc i64 @__isoc99_scanf(i64, i64, i64, i64, i64, i64, i64, i64, i64, i64, i64, i64, i64, i64, i64, i64)

declare extern_weak x86_64_sysvcc i64 @__isoc99_sscanf(i64, i64, i64, i64, i64, i64, i64, i64, i64, i64, i64, i64, i64, i64, i64, i64)

declare extern_weak x86_64_sysvcc i64 @log(i64)

declare extern_weak x86_64_sysvcc i64 @lrand48()

declare extern_weak x86_64_sysvcc i64 @malloc(i64)

declare extern_weak x86_64_sysvcc i64 @memalign(i64, i64)

declare extern_weak x86_64_sysvcc i64 @memcpy(i64, i64, i64)

declare extern_weak x86_64_sysvcc i64 @memset(i64, i64, i64)

declare extern_weak x86_64_sysvcc i64 @perror(i64)

declare extern_weak x86_64_sysvcc i64 @posix_memalign(i64, i64, i64)

declare extern_weak x86_64_sysvcc i64 @pow(i64, i64)

declare extern_weak x86_64_sysvcc i64 @printf(i64, i64, i64, i64, i64, i64, i64, i64, i64, i64, i64, i64, i64, i64, i64, i64)

declare extern_weak x86_64_sysvcc i64 @putchar(i64)

declare extern_weak x86_64_sysvcc i64 @puts(i64)

declare extern_weak x86_64_sysvcc i64 @rand()

declare extern_weak x86_64_sysvcc i64 @random()

declare extern_weak x86_64_sysvcc i64 @realloc(i64, i64)

declare extern_weak x86_64_sysvcc i64 @seed48(i64)

declare extern_weak x86_64_sysvcc i64 @sinf(i64)

declare extern_weak x86_64_sysvcc i64 @sprintf(i64, i64, i64, i64, i64, i64, i64, i64, i64, i64, i64, i64, i64, i64, i64, i64)

declare extern_weak x86_64_sysvcc i64 @srand(i64)

declare extern_weak x86_64_sysvcc i64 @strcat(i64, i64)

declare extern_weak x86_64_sysvcc i64 @strcmp(i64, i64)

declare extern_weak x86_64_sysvcc i64 @strcpy(i64, i64)

declare extern_weak x86_64_sysvcc i64 @strdup(i64)

declare extern_weak x86_64_sysvcc i64 @strlen(i64)

declare extern_weak x86_64_sysvcc i64 @strncmp(i64, i64, i64)

declare extern_weak x86_64_sysvcc i64 @strtoll(i64, i64, i64)

declare extern_weak x86_64_sysvcc i64 @time(i64)

declare extern_weak x86_64_sysvcc i64 @ungetc(i64, i64)

declare extern_weak x86_64_sysvcc i64 @pthread_join(i64, i64)

declare extern_weak x86_64_sysvcc i64 @pthread_create(i64, i64, i64, i64)

declare %struct.Memory* @__remill_function_call(%struct.State* dereferenceable(3376), i64, %struct.Memory*)

declare %struct.Memory* @ext_sqrt(%struct.State* noalias dereferenceable(3376), i64, %struct.Memory* noalias)

declare %struct.Memory* @ext_atan(%struct.State* noalias dereferenceable(3376), i64, %struct.Memory* noalias)

declare %struct.Memory* @ext_cos(%struct.State* noalias dereferenceable(3376), i64, %struct.Memory* noalias)

declare %struct.Memory* @ext_tan(%struct.State* noalias dereferenceable(3376), i64, %struct.Memory* noalias)

declare %struct.Memory* @ext_sin(%struct.State* noalias dereferenceable(3376), i64, %struct.Memory* noalias)

declare %struct.Memory* @sub_478110.play_attack_defend_n(%struct.State* noalias dereferenceable(3376), i64, %struct.Memory* noalias readnone returned)

; Function Attrs: alwaysinline
define %struct.Memory* @autohelperpat32(%struct.State* noalias, i64, %struct.Memory* noalias) #2 {
entry:
  %3 = getelementptr inbounds %struct.State, %struct.State* %0, i64 0, i32 6, i32 33, i32 0, i32 0
  store i64 %1, i64* %3, align 8
  %BRANCH_TAKEN = alloca i8, align 1
  store i8 0, i8* %BRANCH_TAKEN, align 1
  %MEMORY = alloca %struct.Memory*, align 8
  store %struct.Memory* %2, %struct.Memory** %MEMORY, align 8
  %loadMem_4c7320 = load %struct.Memory*, %struct.Memory** %MEMORY
  %4 = getelementptr inbounds %struct.State, %struct.State* %0, i32 0, i32 6
  %5 = getelementptr inbounds %struct.GPR, %struct.GPR* %4, i32 0, i32 33
  %6 = getelementptr inbounds %struct.Reg, %struct.Reg* %5, i32 0, i32 0
  %PC.i = bitcast %union.anon* %6 to i64*
  %7 = getelementptr inbounds %struct.State, %struct.State* %0, i32 0, i32 6
  %8 = getelementptr inbounds %struct.GPR, %struct.GPR* %7, i32 0, i32 15
  %9 = getelementptr inbounds %struct.Reg, %struct.Reg* %8, i32 0, i32 0
  %RBP.i = bitcast %union.anon* %9 to i64*
  %10 = load i64, i64* %RBP.i
  %11 = load i64, i64* %PC.i
  %12 = add i64 %11, 1
  store i64 %12, i64* %PC.i
  %13 = getelementptr inbounds %struct.State, %struct.State* %0, i64 0, i32 6, i32 13, i32 0, i32 0
  %14 = load i64, i64* %13, align 8
  %15 = add i64 %14, -8
  %16 = inttoptr i64 %15 to i64*
  store i64 %10, i64* %16
  store i64 %15, i64* %13, align 8
  store %struct.Memory* %loadMem_4c7320, %struct.Memory** %MEMORY
  %loadMem_4c7321 = load %struct.Memory*, %struct.Memory** %MEMORY
  %17 = getelementptr inbounds %struct.State, %struct.State* %0, i32 0, i32 6
  %18 = getelementptr inbounds %struct.GPR, %struct.GPR* %17, i32 0, i32 33
  %19 = getelementptr inbounds %struct.Reg, %struct.Reg* %18, i32 0, i32 0
  %PC.i60 = bitcast %union.anon* %19 to i64*
  %20 = getelementptr inbounds %struct.State, %struct.State* %0, i32 0, i32 6
  %21 = getelementptr inbounds %struct.GPR, %struct.GPR* %20, i32 0, i32 13
  %22 = getelementptr inbounds %struct.Reg, %struct.Reg* %21, i32 0, i32 0
  %RSP.i61 = bitcast %union.anon* %22 to i64*
  %23 = getelementptr inbounds %struct.State, %struct.State* %0, i32 0, i32 6
  %24 = getelementptr inbounds %struct.GPR, %struct.GPR* %23, i32 0, i32 15
  %25 = getelementptr inbounds %struct.Reg, %struct.Reg* %24, i32 0, i32 0
  %RBP.i62 = bitcast %union.anon* %25 to i64*
  %26 = load i64, i64* %RSP.i61
  %27 = load i64, i64* %PC.i60
  %28 = add i64 %27, 3
  store i64 %28, i64* %PC.i60
  store i64 %26, i64* %RBP.i62, align 8
  store %struct.Memory* %loadMem_4c7321, %struct.Memory** %MEMORY
  %loadMem_4c7324 = load %struct.Memory*, %struct.Memory** %MEMORY
  %29 = getelementptr inbounds %struct.State, %struct.State* %0, i32 0, i32 6
  %30 = getelementptr inbounds %struct.GPR, %struct.GPR* %29, i32 0, i32 33
  %31 = getelementptr inbounds %struct.Reg, %struct.Reg* %30, i32 0, i32 0
  %PC.i58 = bitcast %union.anon* %31 to i64*
  %32 = getelementptr inbounds %struct.State, %struct.State* %0, i32 0, i32 6
  %33 = getelementptr inbounds %struct.GPR, %struct.GPR* %32, i32 0, i32 13
  %34 = getelementptr inbounds %struct.Reg, %struct.Reg* %33, i32 0, i32 0
  %RSP.i59 = bitcast %union.anon* %34 to i64*
  %35 = load i64, i64* %RSP.i59
  %36 = load i64, i64* %PC.i58
  %37 = add i64 %36, 4
  store i64 %37, i64* %PC.i58
  %38 = sub i64 %35, 32
  store i64 %38, i64* %RSP.i59, align 8
  %39 = icmp ult i64 %35, 32
  %40 = zext i1 %39 to i8
  %41 = getelementptr inbounds %struct.State, %struct.State* %0, i64 0, i32 2, i32 1
  store i8 %40, i8* %41, align 1
  %42 = trunc i64 %38 to i32
  %43 = and i32 %42, 255
  %44 = call i32 @llvm.ctpop.i32(i32 %43)
  %45 = trunc i32 %44 to i8
  %46 = and i8 %45, 1
  %47 = xor i8 %46, 1
  %48 = getelementptr inbounds %struct.State, %struct.State* %0, i64 0, i32 2, i32 3
  store i8 %47, i8* %48, align 1
  %49 = xor i64 32, %35
  %50 = xor i64 %49, %38
  %51 = lshr i64 %50, 4
  %52 = trunc i64 %51 to i8
  %53 = and i8 %52, 1
  %54 = getelementptr inbounds %struct.State, %struct.State* %0, i64 0, i32 2, i32 5
  store i8 %53, i8* %54, align 1
  %55 = icmp eq i64 %38, 0
  %56 = zext i1 %55 to i8
  %57 = getelementptr inbounds %struct.State, %struct.State* %0, i64 0, i32 2, i32 7
  store i8 %56, i8* %57, align 1
  %58 = lshr i64 %38, 63
  %59 = trunc i64 %58 to i8
  %60 = getelementptr inbounds %struct.State, %struct.State* %0, i64 0, i32 2, i32 9
  store i8 %59, i8* %60, align 1
  %61 = lshr i64 %35, 63
  %62 = xor i64 %58, %61
  %63 = add i64 %62, %61
  %64 = icmp eq i64 %63, 2
  %65 = zext i1 %64 to i8
  %66 = getelementptr inbounds %struct.State, %struct.State* %0, i64 0, i32 2, i32 13
  store i8 %65, i8* %66, align 1
  store %struct.Memory* %loadMem_4c7324, %struct.Memory** %MEMORY
  %loadMem_4c7328 = load %struct.Memory*, %struct.Memory** %MEMORY
  %67 = getelementptr inbounds %struct.State, %struct.State* %0, i32 0, i32 6
  %68 = getelementptr inbounds %struct.GPR, %struct.GPR* %67, i32 0, i32 33
  %69 = getelementptr inbounds %struct.Reg, %struct.Reg* %68, i32 0, i32 0
  %PC.i57 = bitcast %union.anon* %69 to i64*
  %70 = getelementptr inbounds %struct.State, %struct.State* %0, i32 0, i32 6
  %71 = getelementptr inbounds %struct.GPR, %struct.GPR* %70, i32 0, i32 1
  %72 = getelementptr inbounds %struct.Reg, %struct.Reg* %71, i32 0, i32 0
  %RAX.i = bitcast %union.anon* %72 to i64*
  %73 = load i64, i64* %PC.i57
  %74 = add i64 %73, 5
  store i64 %74, i64* %PC.i57
  store i64 1, i64* %RAX.i, align 8
  store %struct.Memory* %loadMem_4c7328, %struct.Memory** %MEMORY
  %loadMem_4c732d = load %struct.Memory*, %struct.Memory** %MEMORY
  %75 = getelementptr inbounds %struct.State, %struct.State* %0, i32 0, i32 6
  %76 = getelementptr inbounds %struct.GPR, %struct.GPR* %75, i32 0, i32 33
  %77 = getelementptr inbounds %struct.Reg, %struct.Reg* %76, i32 0, i32 0
  %PC.i55 = bitcast %union.anon* %77 to i64*
  %78 = getelementptr inbounds %struct.State, %struct.State* %0, i32 0, i32 6
  %79 = getelementptr inbounds %struct.GPR, %struct.GPR* %78, i32 0, i32 17
  %80 = getelementptr inbounds %struct.Reg, %struct.Reg* %79, i32 0, i32 0
  %R8D.i56 = bitcast %union.anon* %80 to i32*
  %81 = bitcast i32* %R8D.i56 to i64*
  %82 = load i64, i64* %PC.i55
  %83 = add i64 %82, 6
  store i64 %83, i64* %PC.i55
  store i64 2, i64* %81, align 8
  store %struct.Memory* %loadMem_4c732d, %struct.Memory** %MEMORY
  %loadMem_4c7333 = load %struct.Memory*, %struct.Memory** %MEMORY
  %84 = getelementptr inbounds %struct.State, %struct.State* %0, i32 0, i32 6
  %85 = getelementptr inbounds %struct.GPR, %struct.GPR* %84, i32 0, i32 33
  %86 = getelementptr inbounds %struct.Reg, %struct.Reg* %85, i32 0, i32 0
  %PC.i53 = bitcast %union.anon* %86 to i64*
  %87 = getelementptr inbounds %struct.State, %struct.State* %0, i32 0, i32 6
  %88 = getelementptr inbounds %struct.GPR, %struct.GPR* %87, i32 0, i32 11
  %89 = getelementptr inbounds %struct.Reg, %struct.Reg* %88, i32 0, i32 0
  %EDI.i = bitcast %union.anon* %89 to i32*
  %90 = getelementptr inbounds %struct.State, %struct.State* %0, i32 0, i32 6
  %91 = getelementptr inbounds %struct.GPR, %struct.GPR* %90, i32 0, i32 15
  %92 = getelementptr inbounds %struct.Reg, %struct.Reg* %91, i32 0, i32 0
  %RBP.i54 = bitcast %union.anon* %92 to i64*
  %93 = load i64, i64* %RBP.i54
  %94 = sub i64 %93, 4
  %95 = load i32, i32* %EDI.i
  %96 = zext i32 %95 to i64
  %97 = load i64, i64* %PC.i53
  %98 = add i64 %97, 3
  store i64 %98, i64* %PC.i53
  %99 = inttoptr i64 %94 to i32*
  store i32 %95, i32* %99
  store %struct.Memory* %loadMem_4c7333, %struct.Memory** %MEMORY
  %loadMem_4c7336 = load %struct.Memory*, %struct.Memory** %MEMORY
  %100 = getelementptr inbounds %struct.State, %struct.State* %0, i32 0, i32 6
  %101 = getelementptr inbounds %struct.GPR, %struct.GPR* %100, i32 0, i32 33
  %102 = getelementptr inbounds %struct.Reg, %struct.Reg* %101, i32 0, i32 0
  %PC.i51 = bitcast %union.anon* %102 to i64*
  %103 = getelementptr inbounds %struct.State, %struct.State* %0, i32 0, i32 6
  %104 = getelementptr inbounds %struct.GPR, %struct.GPR* %103, i32 0, i32 9
  %105 = getelementptr inbounds %struct.Reg, %struct.Reg* %104, i32 0, i32 0
  %ESI.i = bitcast %union.anon* %105 to i32*
  %106 = getelementptr inbounds %struct.State, %struct.State* %0, i32 0, i32 6
  %107 = getelementptr inbounds %struct.GPR, %struct.GPR* %106, i32 0, i32 15
  %108 = getelementptr inbounds %struct.Reg, %struct.Reg* %107, i32 0, i32 0
  %RBP.i52 = bitcast %union.anon* %108 to i64*
  %109 = load i64, i64* %RBP.i52
  %110 = sub i64 %109, 8
  %111 = load i32, i32* %ESI.i
  %112 = zext i32 %111 to i64
  %113 = load i64, i64* %PC.i51
  %114 = add i64 %113, 3
  store i64 %114, i64* %PC.i51
  %115 = inttoptr i64 %110 to i32*
  store i32 %111, i32* %115
  store %struct.Memory* %loadMem_4c7336, %struct.Memory** %MEMORY
  %loadMem_4c7339 = load %struct.Memory*, %struct.Memory** %MEMORY
  %116 = getelementptr inbounds %struct.State, %struct.State* %0, i32 0, i32 6
  %117 = getelementptr inbounds %struct.GPR, %struct.GPR* %116, i32 0, i32 33
  %118 = getelementptr inbounds %struct.Reg, %struct.Reg* %117, i32 0, i32 0
  %PC.i48 = bitcast %union.anon* %118 to i64*
  %119 = getelementptr inbounds %struct.State, %struct.State* %0, i32 0, i32 6
  %120 = getelementptr inbounds %struct.GPR, %struct.GPR* %119, i32 0, i32 7
  %121 = getelementptr inbounds %struct.Reg, %struct.Reg* %120, i32 0, i32 0
  %EDX.i49 = bitcast %union.anon* %121 to i32*
  %122 = getelementptr inbounds %struct.State, %struct.State* %0, i32 0, i32 6
  %123 = getelementptr inbounds %struct.GPR, %struct.GPR* %122, i32 0, i32 15
  %124 = getelementptr inbounds %struct.Reg, %struct.Reg* %123, i32 0, i32 0
  %RBP.i50 = bitcast %union.anon* %124 to i64*
  %125 = load i64, i64* %RBP.i50
  %126 = sub i64 %125, 12
  %127 = load i32, i32* %EDX.i49
  %128 = zext i32 %127 to i64
  %129 = load i64, i64* %PC.i48
  %130 = add i64 %129, 3
  store i64 %130, i64* %PC.i48
  %131 = inttoptr i64 %126 to i32*
  store i32 %127, i32* %131
  store %struct.Memory* %loadMem_4c7339, %struct.Memory** %MEMORY
  %loadMem_4c733c = load %struct.Memory*, %struct.Memory** %MEMORY
  %132 = getelementptr inbounds %struct.State, %struct.State* %0, i32 0, i32 6
  %133 = getelementptr inbounds %struct.GPR, %struct.GPR* %132, i32 0, i32 33
  %134 = getelementptr inbounds %struct.Reg, %struct.Reg* %133, i32 0, i32 0
  %PC.i45 = bitcast %union.anon* %134 to i64*
  %135 = getelementptr inbounds %struct.State, %struct.State* %0, i32 0, i32 6
  %136 = getelementptr inbounds %struct.GPR, %struct.GPR* %135, i32 0, i32 5
  %137 = getelementptr inbounds %struct.Reg, %struct.Reg* %136, i32 0, i32 0
  %ECX.i46 = bitcast %union.anon* %137 to i32*
  %138 = getelementptr inbounds %struct.State, %struct.State* %0, i32 0, i32 6
  %139 = getelementptr inbounds %struct.GPR, %struct.GPR* %138, i32 0, i32 15
  %140 = getelementptr inbounds %struct.Reg, %struct.Reg* %139, i32 0, i32 0
  %RBP.i47 = bitcast %union.anon* %140 to i64*
  %141 = load i64, i64* %RBP.i47
  %142 = sub i64 %141, 16
  %143 = load i32, i32* %ECX.i46
  %144 = zext i32 %143 to i64
  %145 = load i64, i64* %PC.i45
  %146 = add i64 %145, 3
  store i64 %146, i64* %PC.i45
  %147 = inttoptr i64 %142 to i32*
  store i32 %143, i32* %147
  store %struct.Memory* %loadMem_4c733c, %struct.Memory** %MEMORY
  %loadMem_4c733f = load %struct.Memory*, %struct.Memory** %MEMORY
  %148 = getelementptr inbounds %struct.State, %struct.State* %0, i32 0, i32 6
  %149 = getelementptr inbounds %struct.GPR, %struct.GPR* %148, i32 0, i32 33
  %150 = getelementptr inbounds %struct.Reg, %struct.Reg* %149, i32 0, i32 0
  %PC.i42 = bitcast %union.anon* %150 to i64*
  %151 = getelementptr inbounds %struct.State, %struct.State* %0, i32 0, i32 6
  %152 = getelementptr inbounds %struct.GPR, %struct.GPR* %151, i32 0, i32 15
  %153 = getelementptr inbounds %struct.Reg, %struct.Reg* %152, i32 0, i32 0
  %RBP.i43 = bitcast %union.anon* %153 to i64*
  %154 = getelementptr inbounds %struct.State, %struct.State* %0, i32 0, i32 6
  %155 = getelementptr inbounds %struct.GPR, %struct.GPR* %154, i32 0, i32 19
  %156 = getelementptr inbounds %struct.Reg, %struct.Reg* %155, i32 0, i32 0
  %R9.i44 = bitcast %union.anon* %156 to i64*
  %157 = load i64, i64* %RBP.i43
  %158 = sub i64 %157, 4
  %159 = load i64, i64* %PC.i42
  %160 = add i64 %159, 4
  store i64 %160, i64* %PC.i42
  %161 = inttoptr i64 %158 to i32*
  %162 = load i32, i32* %161
  %163 = sext i32 %162 to i64
  store i64 %163, i64* %R9.i44, align 8
  store %struct.Memory* %loadMem_4c733f, %struct.Memory** %MEMORY
  %loadMem_4c7343 = load %struct.Memory*, %struct.Memory** %MEMORY
  %164 = getelementptr inbounds %struct.State, %struct.State* %0, i32 0, i32 6
  %165 = getelementptr inbounds %struct.GPR, %struct.GPR* %164, i32 0, i32 33
  %166 = getelementptr inbounds %struct.Reg, %struct.Reg* %165, i32 0, i32 0
  %PC.i39 = bitcast %union.anon* %166 to i64*
  %167 = getelementptr inbounds %struct.State, %struct.State* %0, i32 0, i32 6
  %168 = getelementptr inbounds %struct.GPR, %struct.GPR* %167, i32 0, i32 5
  %169 = getelementptr inbounds %struct.Reg, %struct.Reg* %168, i32 0, i32 0
  %RCX.i40 = bitcast %union.anon* %169 to i64*
  %170 = getelementptr inbounds %struct.State, %struct.State* %0, i32 0, i32 6
  %171 = getelementptr inbounds %struct.GPR, %struct.GPR* %170, i32 0, i32 19
  %172 = getelementptr inbounds %struct.Reg, %struct.Reg* %171, i32 0, i32 0
  %R9.i41 = bitcast %union.anon* %172 to i64*
  %173 = load i64, i64* %R9.i41
  %174 = mul i64 %173, 4
  %175 = add i64 %174, 11904784
  %176 = load i64, i64* %PC.i39
  %177 = add i64 %176, 8
  store i64 %177, i64* %PC.i39
  %178 = inttoptr i64 %175 to i32*
  %179 = load i32, i32* %178
  %180 = zext i32 %179 to i64
  store i64 %180, i64* %RCX.i40, align 8
  store %struct.Memory* %loadMem_4c7343, %struct.Memory** %MEMORY
  %loadMem_4c734b = load %struct.Memory*, %struct.Memory** %MEMORY
  %181 = getelementptr inbounds %struct.State, %struct.State* %0, i32 0, i32 6
  %182 = getelementptr inbounds %struct.GPR, %struct.GPR* %181, i32 0, i32 33
  %183 = getelementptr inbounds %struct.Reg, %struct.Reg* %182, i32 0, i32 0
  %PC.i36 = bitcast %union.anon* %183 to i64*
  %184 = getelementptr inbounds %struct.State, %struct.State* %0, i32 0, i32 6
  %185 = getelementptr inbounds %struct.GPR, %struct.GPR* %184, i32 0, i32 5
  %186 = getelementptr inbounds %struct.Reg, %struct.Reg* %185, i32 0, i32 0
  %RCX.i37 = bitcast %union.anon* %186 to i64*
  %187 = getelementptr inbounds %struct.State, %struct.State* %0, i32 0, i32 6
  %188 = getelementptr inbounds %struct.GPR, %struct.GPR* %187, i32 0, i32 15
  %189 = getelementptr inbounds %struct.Reg, %struct.Reg* %188, i32 0, i32 0
  %RBP.i38 = bitcast %union.anon* %189 to i64*
  %190 = load i64, i64* %RCX.i37
  %191 = load i64, i64* %RBP.i38
  %192 = sub i64 %191, 8
  %193 = load i64, i64* %PC.i36
  %194 = add i64 %193, 3
  store i64 %194, i64* %PC.i36
  %195 = trunc i64 %190 to i32
  %196 = inttoptr i64 %192 to i32*
  %197 = load i32, i32* %196
  %198 = add i32 %197, %195
  %199 = zext i32 %198 to i64
  store i64 %199, i64* %RCX.i37, align 8
  %200 = icmp ult i32 %198, %195
  %201 = icmp ult i32 %198, %197
  %202 = or i1 %200, %201
  %203 = zext i1 %202 to i8
  %204 = getelementptr inbounds %struct.State, %struct.State* %0, i64 0, i32 2, i32 1
  store i8 %203, i8* %204, align 1
  %205 = and i32 %198, 255
  %206 = call i32 @llvm.ctpop.i32(i32 %205)
  %207 = trunc i32 %206 to i8
  %208 = and i8 %207, 1
  %209 = xor i8 %208, 1
  %210 = getelementptr inbounds %struct.State, %struct.State* %0, i64 0, i32 2, i32 3
  store i8 %209, i8* %210, align 1
  %211 = xor i32 %197, %195
  %212 = xor i32 %211, %198
  %213 = lshr i32 %212, 4
  %214 = trunc i32 %213 to i8
  %215 = and i8 %214, 1
  %216 = getelementptr inbounds %struct.State, %struct.State* %0, i64 0, i32 2, i32 5
  store i8 %215, i8* %216, align 1
  %217 = icmp eq i32 %198, 0
  %218 = zext i1 %217 to i8
  %219 = getelementptr inbounds %struct.State, %struct.State* %0, i64 0, i32 2, i32 7
  store i8 %218, i8* %219, align 1
  %220 = lshr i32 %198, 31
  %221 = trunc i32 %220 to i8
  %222 = getelementptr inbounds %struct.State, %struct.State* %0, i64 0, i32 2, i32 9
  store i8 %221, i8* %222, align 1
  %223 = lshr i32 %195, 31
  %224 = lshr i32 %197, 31
  %225 = xor i32 %220, %223
  %226 = xor i32 %220, %224
  %227 = add i32 %225, %226
  %228 = icmp eq i32 %227, 2
  %229 = zext i1 %228 to i8
  %230 = getelementptr inbounds %struct.State, %struct.State* %0, i64 0, i32 2, i32 13
  store i8 %229, i8* %230, align 1
  store %struct.Memory* %loadMem_4c734b, %struct.Memory** %MEMORY
  %loadMem_4c734e = load %struct.Memory*, %struct.Memory** %MEMORY
  %231 = getelementptr inbounds %struct.State, %struct.State* %0, i32 0, i32 6
  %232 = getelementptr inbounds %struct.GPR, %struct.GPR* %231, i32 0, i32 33
  %233 = getelementptr inbounds %struct.Reg, %struct.Reg* %232, i32 0, i32 0
  %PC.i33 = bitcast %union.anon* %233 to i64*
  %234 = getelementptr inbounds %struct.State, %struct.State* %0, i32 0, i32 6
  %235 = getelementptr inbounds %struct.GPR, %struct.GPR* %234, i32 0, i32 5
  %236 = getelementptr inbounds %struct.Reg, %struct.Reg* %235, i32 0, i32 0
  %ECX.i34 = bitcast %union.anon* %236 to i32*
  %237 = getelementptr inbounds %struct.State, %struct.State* %0, i32 0, i32 6
  %238 = getelementptr inbounds %struct.GPR, %struct.GPR* %237, i32 0, i32 15
  %239 = getelementptr inbounds %struct.Reg, %struct.Reg* %238, i32 0, i32 0
  %RBP.i35 = bitcast %union.anon* %239 to i64*
  %240 = load i64, i64* %RBP.i35
  %241 = sub i64 %240, 20
  %242 = load i32, i32* %ECX.i34
  %243 = zext i32 %242 to i64
  %244 = load i64, i64* %PC.i33
  %245 = add i64 %244, 3
  store i64 %245, i64* %PC.i33
  %246 = inttoptr i64 %241 to i32*
  store i32 %242, i32* %246
  store %struct.Memory* %loadMem_4c734e, %struct.Memory** %MEMORY
  %loadMem_4c7351 = load %struct.Memory*, %struct.Memory** %MEMORY
  %247 = getelementptr inbounds %struct.State, %struct.State* %0, i32 0, i32 6
  %248 = getelementptr inbounds %struct.GPR, %struct.GPR* %247, i32 0, i32 33
  %249 = getelementptr inbounds %struct.Reg, %struct.Reg* %248, i32 0, i32 0
  %PC.i30 = bitcast %union.anon* %249 to i64*
  %250 = getelementptr inbounds %struct.State, %struct.State* %0, i32 0, i32 6
  %251 = getelementptr inbounds %struct.GPR, %struct.GPR* %250, i32 0, i32 15
  %252 = getelementptr inbounds %struct.Reg, %struct.Reg* %251, i32 0, i32 0
  %RBP.i31 = bitcast %union.anon* %252 to i64*
  %253 = getelementptr inbounds %struct.State, %struct.State* %0, i32 0, i32 6
  %254 = getelementptr inbounds %struct.GPR, %struct.GPR* %253, i32 0, i32 19
  %255 = getelementptr inbounds %struct.Reg, %struct.Reg* %254, i32 0, i32 0
  %R9.i32 = bitcast %union.anon* %255 to i64*
  %256 = load i64, i64* %RBP.i31
  %257 = sub i64 %256, 4
  %258 = load i64, i64* %PC.i30
  %259 = add i64 %258, 4
  store i64 %259, i64* %PC.i30
  %260 = inttoptr i64 %257 to i32*
  %261 = load i32, i32* %260
  %262 = sext i32 %261 to i64
  store i64 %262, i64* %R9.i32, align 8
  store %struct.Memory* %loadMem_4c7351, %struct.Memory** %MEMORY
  %loadMem_4c7355 = load %struct.Memory*, %struct.Memory** %MEMORY
  %263 = getelementptr inbounds %struct.State, %struct.State* %0, i32 0, i32 6
  %264 = getelementptr inbounds %struct.GPR, %struct.GPR* %263, i32 0, i32 33
  %265 = getelementptr inbounds %struct.Reg, %struct.Reg* %264, i32 0, i32 0
  %PC.i28 = bitcast %union.anon* %265 to i64*
  %266 = getelementptr inbounds %struct.State, %struct.State* %0, i32 0, i32 6
  %267 = getelementptr inbounds %struct.GPR, %struct.GPR* %266, i32 0, i32 5
  %268 = getelementptr inbounds %struct.Reg, %struct.Reg* %267, i32 0, i32 0
  %RCX.i29 = bitcast %union.anon* %268 to i64*
  %269 = getelementptr inbounds %struct.State, %struct.State* %0, i32 0, i32 6
  %270 = getelementptr inbounds %struct.GPR, %struct.GPR* %269, i32 0, i32 19
  %271 = getelementptr inbounds %struct.Reg, %struct.Reg* %270, i32 0, i32 0
  %R9.i = bitcast %union.anon* %271 to i64*
  %272 = load i64, i64* %R9.i
  %273 = mul i64 %272, 4
  %274 = add i64 %273, 11903568
  %275 = load i64, i64* %PC.i28
  %276 = add i64 %275, 8
  store i64 %276, i64* %PC.i28
  %277 = inttoptr i64 %274 to i32*
  %278 = load i32, i32* %277
  %279 = zext i32 %278 to i64
  store i64 %279, i64* %RCX.i29, align 8
  store %struct.Memory* %loadMem_4c7355, %struct.Memory** %MEMORY
  %loadMem_4c735d = load %struct.Memory*, %struct.Memory** %MEMORY
  %280 = getelementptr inbounds %struct.State, %struct.State* %0, i32 0, i32 6
  %281 = getelementptr inbounds %struct.GPR, %struct.GPR* %280, i32 0, i32 33
  %282 = getelementptr inbounds %struct.Reg, %struct.Reg* %281, i32 0, i32 0
  %PC.i25 = bitcast %union.anon* %282 to i64*
  %283 = getelementptr inbounds %struct.State, %struct.State* %0, i32 0, i32 6
  %284 = getelementptr inbounds %struct.GPR, %struct.GPR* %283, i32 0, i32 5
  %285 = getelementptr inbounds %struct.Reg, %struct.Reg* %284, i32 0, i32 0
  %RCX.i26 = bitcast %union.anon* %285 to i64*
  %286 = getelementptr inbounds %struct.State, %struct.State* %0, i32 0, i32 6
  %287 = getelementptr inbounds %struct.GPR, %struct.GPR* %286, i32 0, i32 15
  %288 = getelementptr inbounds %struct.Reg, %struct.Reg* %287, i32 0, i32 0
  %RBP.i27 = bitcast %union.anon* %288 to i64*
  %289 = load i64, i64* %RCX.i26
  %290 = load i64, i64* %RBP.i27
  %291 = sub i64 %290, 8
  %292 = load i64, i64* %PC.i25
  %293 = add i64 %292, 3
  store i64 %293, i64* %PC.i25
  %294 = trunc i64 %289 to i32
  %295 = inttoptr i64 %291 to i32*
  %296 = load i32, i32* %295
  %297 = add i32 %296, %294
  %298 = zext i32 %297 to i64
  store i64 %298, i64* %RCX.i26, align 8
  %299 = icmp ult i32 %297, %294
  %300 = icmp ult i32 %297, %296
  %301 = or i1 %299, %300
  %302 = zext i1 %301 to i8
  %303 = getelementptr inbounds %struct.State, %struct.State* %0, i64 0, i32 2, i32 1
  store i8 %302, i8* %303, align 1
  %304 = and i32 %297, 255
  %305 = call i32 @llvm.ctpop.i32(i32 %304)
  %306 = trunc i32 %305 to i8
  %307 = and i8 %306, 1
  %308 = xor i8 %307, 1
  %309 = getelementptr inbounds %struct.State, %struct.State* %0, i64 0, i32 2, i32 3
  store i8 %308, i8* %309, align 1
  %310 = xor i32 %296, %294
  %311 = xor i32 %310, %297
  %312 = lshr i32 %311, 4
  %313 = trunc i32 %312 to i8
  %314 = and i8 %313, 1
  %315 = getelementptr inbounds %struct.State, %struct.State* %0, i64 0, i32 2, i32 5
  store i8 %314, i8* %315, align 1
  %316 = icmp eq i32 %297, 0
  %317 = zext i1 %316 to i8
  %318 = getelementptr inbounds %struct.State, %struct.State* %0, i64 0, i32 2, i32 7
  store i8 %317, i8* %318, align 1
  %319 = lshr i32 %297, 31
  %320 = trunc i32 %319 to i8
  %321 = getelementptr inbounds %struct.State, %struct.State* %0, i64 0, i32 2, i32 9
  store i8 %320, i8* %321, align 1
  %322 = lshr i32 %294, 31
  %323 = lshr i32 %296, 31
  %324 = xor i32 %319, %322
  %325 = xor i32 %319, %323
  %326 = add i32 %324, %325
  %327 = icmp eq i32 %326, 2
  %328 = zext i1 %327 to i8
  %329 = getelementptr inbounds %struct.State, %struct.State* %0, i64 0, i32 2, i32 13
  store i8 %328, i8* %329, align 1
  store %struct.Memory* %loadMem_4c735d, %struct.Memory** %MEMORY
  %loadMem_4c7360 = load %struct.Memory*, %struct.Memory** %MEMORY
  %330 = getelementptr inbounds %struct.State, %struct.State* %0, i32 0, i32 6
  %331 = getelementptr inbounds %struct.GPR, %struct.GPR* %330, i32 0, i32 33
  %332 = getelementptr inbounds %struct.Reg, %struct.Reg* %331, i32 0, i32 0
  %PC.i23 = bitcast %union.anon* %332 to i64*
  %333 = getelementptr inbounds %struct.State, %struct.State* %0, i32 0, i32 6
  %334 = getelementptr inbounds %struct.GPR, %struct.GPR* %333, i32 0, i32 5
  %335 = getelementptr inbounds %struct.Reg, %struct.Reg* %334, i32 0, i32 0
  %ECX.i = bitcast %union.anon* %335 to i32*
  %336 = getelementptr inbounds %struct.State, %struct.State* %0, i32 0, i32 6
  %337 = getelementptr inbounds %struct.GPR, %struct.GPR* %336, i32 0, i32 15
  %338 = getelementptr inbounds %struct.Reg, %struct.Reg* %337, i32 0, i32 0
  %RBP.i24 = bitcast %union.anon* %338 to i64*
  %339 = load i64, i64* %RBP.i24
  %340 = sub i64 %339, 24
  %341 = load i32, i32* %ECX.i
  %342 = zext i32 %341 to i64
  %343 = load i64, i64* %PC.i23
  %344 = add i64 %343, 3
  store i64 %344, i64* %PC.i23
  %345 = inttoptr i64 %340 to i32*
  store i32 %341, i32* %345
  store %struct.Memory* %loadMem_4c7360, %struct.Memory** %MEMORY
  %loadMem_4c7363 = load %struct.Memory*, %struct.Memory** %MEMORY
  %346 = getelementptr inbounds %struct.State, %struct.State* %0, i32 0, i32 6
  %347 = getelementptr inbounds %struct.GPR, %struct.GPR* %346, i32 0, i32 33
  %348 = getelementptr inbounds %struct.Reg, %struct.Reg* %347, i32 0, i32 0
  %PC.i21 = bitcast %union.anon* %348 to i64*
  %349 = getelementptr inbounds %struct.State, %struct.State* %0, i32 0, i32 6
  %350 = getelementptr inbounds %struct.GPR, %struct.GPR* %349, i32 0, i32 11
  %351 = getelementptr inbounds %struct.Reg, %struct.Reg* %350, i32 0, i32 0
  %RDI.i = bitcast %union.anon* %351 to i64*
  %352 = getelementptr inbounds %struct.State, %struct.State* %0, i32 0, i32 6
  %353 = getelementptr inbounds %struct.GPR, %struct.GPR* %352, i32 0, i32 15
  %354 = getelementptr inbounds %struct.Reg, %struct.Reg* %353, i32 0, i32 0
  %RBP.i22 = bitcast %union.anon* %354 to i64*
  %355 = load i64, i64* %RBP.i22
  %356 = sub i64 %355, 12
  %357 = load i64, i64* %PC.i21
  %358 = add i64 %357, 3
  store i64 %358, i64* %PC.i21
  %359 = inttoptr i64 %356 to i32*
  %360 = load i32, i32* %359
  %361 = zext i32 %360 to i64
  store i64 %361, i64* %RDI.i, align 8
  store %struct.Memory* %loadMem_4c7363, %struct.Memory** %MEMORY
  %loadMem_4c7366 = load %struct.Memory*, %struct.Memory** %MEMORY
  %362 = getelementptr inbounds %struct.State, %struct.State* %0, i32 0, i32 6
  %363 = getelementptr inbounds %struct.GPR, %struct.GPR* %362, i32 0, i32 33
  %364 = getelementptr inbounds %struct.Reg, %struct.Reg* %363, i32 0, i32 0
  %PC.i19 = bitcast %union.anon* %364 to i64*
  %365 = getelementptr inbounds %struct.State, %struct.State* %0, i32 0, i32 6
  %366 = getelementptr inbounds %struct.GPR, %struct.GPR* %365, i32 0, i32 5
  %367 = getelementptr inbounds %struct.Reg, %struct.Reg* %366, i32 0, i32 0
  %RCX.i = bitcast %union.anon* %367 to i64*
  %368 = getelementptr inbounds %struct.State, %struct.State* %0, i32 0, i32 6
  %369 = getelementptr inbounds %struct.GPR, %struct.GPR* %368, i32 0, i32 15
  %370 = getelementptr inbounds %struct.Reg, %struct.Reg* %369, i32 0, i32 0
  %RBP.i20 = bitcast %union.anon* %370 to i64*
  %371 = load i64, i64* %RBP.i20
  %372 = sub i64 %371, 8
  %373 = load i64, i64* %PC.i19
  %374 = add i64 %373, 3
  store i64 %374, i64* %PC.i19
  %375 = inttoptr i64 %372 to i32*
  %376 = load i32, i32* %375
  %377 = zext i32 %376 to i64
  store i64 %377, i64* %RCX.i, align 8
  store %struct.Memory* %loadMem_4c7366, %struct.Memory** %MEMORY
  %loadMem_4c7369 = load %struct.Memory*, %struct.Memory** %MEMORY
  %378 = getelementptr inbounds %struct.State, %struct.State* %0, i32 0, i32 6
  %379 = getelementptr inbounds %struct.GPR, %struct.GPR* %378, i32 0, i32 33
  %380 = getelementptr inbounds %struct.Reg, %struct.Reg* %379, i32 0, i32 0
  %PC.i16 = bitcast %union.anon* %380 to i64*
  %381 = getelementptr inbounds %struct.State, %struct.State* %0, i32 0, i32 6
  %382 = getelementptr inbounds %struct.GPR, %struct.GPR* %381, i32 0, i32 7
  %383 = getelementptr inbounds %struct.Reg, %struct.Reg* %382, i32 0, i32 0
  %RDX.i17 = bitcast %union.anon* %383 to i64*
  %384 = getelementptr inbounds %struct.State, %struct.State* %0, i32 0, i32 6
  %385 = getelementptr inbounds %struct.GPR, %struct.GPR* %384, i32 0, i32 15
  %386 = getelementptr inbounds %struct.Reg, %struct.Reg* %385, i32 0, i32 0
  %RBP.i18 = bitcast %union.anon* %386 to i64*
  %387 = load i64, i64* %RBP.i18
  %388 = sub i64 %387, 20
  %389 = load i64, i64* %PC.i16
  %390 = add i64 %389, 3
  store i64 %390, i64* %PC.i16
  %391 = inttoptr i64 %388 to i32*
  %392 = load i32, i32* %391
  %393 = zext i32 %392 to i64
  store i64 %393, i64* %RDX.i17, align 8
  store %struct.Memory* %loadMem_4c7369, %struct.Memory** %MEMORY
  %loadMem_4c736c = load %struct.Memory*, %struct.Memory** %MEMORY
  %394 = getelementptr inbounds %struct.State, %struct.State* %0, i32 0, i32 6
  %395 = getelementptr inbounds %struct.GPR, %struct.GPR* %394, i32 0, i32 33
  %396 = getelementptr inbounds %struct.Reg, %struct.Reg* %395, i32 0, i32 0
  %PC.i14 = bitcast %union.anon* %396 to i64*
  %397 = getelementptr inbounds %struct.State, %struct.State* %0, i32 0, i32 6
  %398 = getelementptr inbounds %struct.GPR, %struct.GPR* %397, i32 0, i32 19
  %399 = getelementptr inbounds %struct.Reg, %struct.Reg* %398, i32 0, i32 0
  %R9D.i = bitcast %union.anon* %399 to i32*
  %400 = getelementptr inbounds %struct.State, %struct.State* %0, i32 0, i32 6
  %401 = getelementptr inbounds %struct.GPR, %struct.GPR* %400, i32 0, i32 15
  %402 = getelementptr inbounds %struct.Reg, %struct.Reg* %401, i32 0, i32 0
  %RBP.i15 = bitcast %union.anon* %402 to i64*
  %403 = bitcast i32* %R9D.i to i64*
  %404 = load i64, i64* %RBP.i15
  %405 = sub i64 %404, 24
  %406 = load i64, i64* %PC.i14
  %407 = add i64 %406, 4
  store i64 %407, i64* %PC.i14
  %408 = inttoptr i64 %405 to i32*
  %409 = load i32, i32* %408
  %410 = zext i32 %409 to i64
  store i64 %410, i64* %403, align 8
  store %struct.Memory* %loadMem_4c736c, %struct.Memory** %MEMORY
  %loadMem_4c7370 = load %struct.Memory*, %struct.Memory** %MEMORY
  %411 = getelementptr inbounds %struct.State, %struct.State* %0, i32 0, i32 6
  %412 = getelementptr inbounds %struct.GPR, %struct.GPR* %411, i32 0, i32 33
  %413 = getelementptr inbounds %struct.Reg, %struct.Reg* %412, i32 0, i32 0
  %PC.i13 = bitcast %union.anon* %413 to i64*
  %414 = getelementptr inbounds %struct.State, %struct.State* %0, i32 0, i32 6
  %415 = getelementptr inbounds %struct.GPR, %struct.GPR* %414, i32 0, i32 1
  %416 = getelementptr inbounds %struct.Reg, %struct.Reg* %415, i32 0, i32 0
  %EAX.i = bitcast %union.anon* %416 to i32*
  %417 = getelementptr inbounds %struct.State, %struct.State* %0, i32 0, i32 6
  %418 = getelementptr inbounds %struct.GPR, %struct.GPR* %417, i32 0, i32 9
  %419 = getelementptr inbounds %struct.Reg, %struct.Reg* %418, i32 0, i32 0
  %RSI.i = bitcast %union.anon* %419 to i64*
  %420 = load i32, i32* %EAX.i
  %421 = zext i32 %420 to i64
  %422 = load i64, i64* %PC.i13
  %423 = add i64 %422, 2
  store i64 %423, i64* %PC.i13
  %424 = and i64 %421, 4294967295
  store i64 %424, i64* %RSI.i, align 8
  store %struct.Memory* %loadMem_4c7370, %struct.Memory** %MEMORY
  %loadMem_4c7372 = load %struct.Memory*, %struct.Memory** %MEMORY
  %425 = getelementptr inbounds %struct.State, %struct.State* %0, i32 0, i32 6
  %426 = getelementptr inbounds %struct.GPR, %struct.GPR* %425, i32 0, i32 33
  %427 = getelementptr inbounds %struct.Reg, %struct.Reg* %426, i32 0, i32 0
  %PC.i11 = bitcast %union.anon* %427 to i64*
  %428 = getelementptr inbounds %struct.State, %struct.State* %0, i32 0, i32 6
  %429 = getelementptr inbounds %struct.GPR, %struct.GPR* %428, i32 0, i32 7
  %430 = getelementptr inbounds %struct.Reg, %struct.Reg* %429, i32 0, i32 0
  %EDX.i = bitcast %union.anon* %430 to i32*
  %431 = getelementptr inbounds %struct.State, %struct.State* %0, i32 0, i32 6
  %432 = getelementptr inbounds %struct.GPR, %struct.GPR* %431, i32 0, i32 15
  %433 = getelementptr inbounds %struct.Reg, %struct.Reg* %432, i32 0, i32 0
  %RBP.i12 = bitcast %union.anon* %433 to i64*
  %434 = load i64, i64* %RBP.i12
  %435 = sub i64 %434, 28
  %436 = load i32, i32* %EDX.i
  %437 = zext i32 %436 to i64
  %438 = load i64, i64* %PC.i11
  %439 = add i64 %438, 3
  store i64 %439, i64* %PC.i11
  %440 = inttoptr i64 %435 to i32*
  store i32 %436, i32* %440
  store %struct.Memory* %loadMem_4c7372, %struct.Memory** %MEMORY
  %loadMem_4c7375 = load %struct.Memory*, %struct.Memory** %MEMORY
  %441 = getelementptr inbounds %struct.State, %struct.State* %0, i32 0, i32 6
  %442 = getelementptr inbounds %struct.GPR, %struct.GPR* %441, i32 0, i32 33
  %443 = getelementptr inbounds %struct.Reg, %struct.Reg* %442, i32 0, i32 0
  %PC.i9 = bitcast %union.anon* %443 to i64*
  %444 = getelementptr inbounds %struct.State, %struct.State* %0, i32 0, i32 6
  %445 = getelementptr inbounds %struct.GPR, %struct.GPR* %444, i32 0, i32 17
  %446 = getelementptr inbounds %struct.Reg, %struct.Reg* %445, i32 0, i32 0
  %R8D.i10 = bitcast %union.anon* %446 to i32*
  %447 = getelementptr inbounds %struct.State, %struct.State* %0, i32 0, i32 6
  %448 = getelementptr inbounds %struct.GPR, %struct.GPR* %447, i32 0, i32 7
  %449 = getelementptr inbounds %struct.Reg, %struct.Reg* %448, i32 0, i32 0
  %RDX.i = bitcast %union.anon* %449 to i64*
  %450 = load i32, i32* %R8D.i10
  %451 = zext i32 %450 to i64
  %452 = load i64, i64* %PC.i9
  %453 = add i64 %452, 3
  store i64 %453, i64* %PC.i9
  %454 = and i64 %451, 4294967295
  store i64 %454, i64* %RDX.i, align 8
  store %struct.Memory* %loadMem_4c7375, %struct.Memory** %MEMORY
  %loadMem_4c7378 = load %struct.Memory*, %struct.Memory** %MEMORY
  %455 = getelementptr inbounds %struct.State, %struct.State* %0, i32 0, i32 6
  %456 = getelementptr inbounds %struct.GPR, %struct.GPR* %455, i32 0, i32 33
  %457 = getelementptr inbounds %struct.Reg, %struct.Reg* %456, i32 0, i32 0
  %PC.i7 = bitcast %union.anon* %457 to i64*
  %458 = getelementptr inbounds %struct.State, %struct.State* %0, i32 0, i32 6
  %459 = getelementptr inbounds %struct.GPR, %struct.GPR* %458, i32 0, i32 17
  %460 = getelementptr inbounds %struct.Reg, %struct.Reg* %459, i32 0, i32 0
  %R8D.i = bitcast %union.anon* %460 to i32*
  %461 = getelementptr inbounds %struct.State, %struct.State* %0, i32 0, i32 6
  %462 = getelementptr inbounds %struct.GPR, %struct.GPR* %461, i32 0, i32 15
  %463 = getelementptr inbounds %struct.Reg, %struct.Reg* %462, i32 0, i32 0
  %RBP.i8 = bitcast %union.anon* %463 to i64*
  %464 = bitcast i32* %R8D.i to i64*
  %465 = load i64, i64* %RBP.i8
  %466 = sub i64 %465, 28
  %467 = load i64, i64* %PC.i7
  %468 = add i64 %467, 4
  store i64 %468, i64* %PC.i7
  %469 = inttoptr i64 %466 to i32*
  %470 = load i32, i32* %469
  %471 = zext i32 %470 to i64
  store i64 %471, i64* %464, align 8
  store %struct.Memory* %loadMem_4c7378, %struct.Memory** %MEMORY
  %loadMem_4c737c = load %struct.Memory*, %struct.Memory** %MEMORY
  %472 = getelementptr inbounds %struct.State, %struct.State* %0, i32 0, i32 6
  %473 = getelementptr inbounds %struct.GPR, %struct.GPR* %472, i32 0, i32 33
  %474 = getelementptr inbounds %struct.Reg, %struct.Reg* %473, i32 0, i32 0
  %PC.i6 = bitcast %union.anon* %474 to i64*
  %475 = getelementptr inbounds %struct.State, %struct.State* %0, i32 0, i32 6
  %476 = getelementptr inbounds %struct.GPR, %struct.GPR* %475, i32 0, i32 1
  %477 = getelementptr inbounds %struct.Reg, %struct.Reg* %476, i32 0, i32 0
  %478 = bitcast %union.anon* %477 to %struct.anon.2*
  %AL.i = getelementptr inbounds %struct.anon.2, %struct.anon.2* %478, i32 0, i32 0
  %479 = load i64, i64* %PC.i6
  %480 = add i64 %479, 2
  store i64 %480, i64* %PC.i6
  store i8 0, i8* %AL.i, align 1
  store %struct.Memory* %loadMem_4c737c, %struct.Memory** %MEMORY
  %loadMem1_4c737e = load %struct.Memory*, %struct.Memory** %MEMORY
  %481 = getelementptr inbounds %struct.State, %struct.State* %0, i32 0, i32 6
  %482 = getelementptr inbounds %struct.GPR, %struct.GPR* %481, i32 0, i32 33
  %483 = getelementptr inbounds %struct.Reg, %struct.Reg* %482, i32 0, i32 0
  %PC.i5 = bitcast %union.anon* %483 to i64*
  %484 = load i64, i64* %PC.i5
  %485 = add i64 %484, -324206
  %486 = load i64, i64* %PC.i5
  %487 = add i64 %486, 5
  %488 = load i64, i64* %PC.i5
  %489 = add i64 %488, 5
  store i64 %489, i64* %PC.i5
  %490 = getelementptr inbounds %struct.State, %struct.State* %0, i64 0, i32 6, i32 13, i32 0, i32 0
  %491 = load i64, i64* %490, align 8
  %492 = add i64 %491, -8
  %493 = inttoptr i64 %492 to i64*
  store i64 %487, i64* %493
  store i64 %492, i64* %490, align 8
  %494 = getelementptr inbounds %struct.State, %struct.State* %0, i64 0, i32 6, i32 33, i32 0, i32 0
  store i64 %485, i64* %494, align 8
  store %struct.Memory* %loadMem1_4c737e, %struct.Memory** %MEMORY
  %loadMem2_4c737e = load %struct.Memory*, %struct.Memory** %MEMORY
  %loadPC_4c737e = load i64, i64* %3
  %call2_4c737e = call %struct.Memory* @sub_478110.play_attack_defend_n(%struct.State* %0, i64 %loadPC_4c737e, %struct.Memory* %loadMem2_4c737e)
  store %struct.Memory* %call2_4c737e, %struct.Memory** %MEMORY
  %loadMem_4c7383 = load %struct.Memory*, %struct.Memory** %MEMORY
  %495 = getelementptr inbounds %struct.State, %struct.State* %0, i32 0, i32 6
  %496 = getelementptr inbounds %struct.GPR, %struct.GPR* %495, i32 0, i32 33
  %497 = getelementptr inbounds %struct.Reg, %struct.Reg* %496, i32 0, i32 0
  %PC.i4 = bitcast %union.anon* %497 to i64*
  %498 = getelementptr inbounds %struct.State, %struct.State* %0, i32 0, i32 6
  %499 = getelementptr inbounds %struct.GPR, %struct.GPR* %498, i32 0, i32 13
  %500 = getelementptr inbounds %struct.Reg, %struct.Reg* %499, i32 0, i32 0
  %RSP.i = bitcast %union.anon* %500 to i64*
  %501 = load i64, i64* %RSP.i
  %502 = load i64, i64* %PC.i4
  %503 = add i64 %502, 4
  store i64 %503, i64* %PC.i4
  %504 = add i64 32, %501
  store i64 %504, i64* %RSP.i, align 8
  %505 = icmp ult i64 %504, %501
  %506 = icmp ult i64 %504, 32
  %507 = or i1 %505, %506
  %508 = zext i1 %507 to i8
  %509 = getelementptr inbounds %struct.State, %struct.State* %0, i64 0, i32 2, i32 1
  store i8 %508, i8* %509, align 1
  %510 = trunc i64 %504 to i32
  %511 = and i32 %510, 255
  %512 = call i32 @llvm.ctpop.i32(i32 %511)
  %513 = trunc i32 %512 to i8
  %514 = and i8 %513, 1
  %515 = xor i8 %514, 1
  %516 = getelementptr inbounds %struct.State, %struct.State* %0, i64 0, i32 2, i32 3
  store i8 %515, i8* %516, align 1
  %517 = xor i64 32, %501
  %518 = xor i64 %517, %504
  %519 = lshr i64 %518, 4
  %520 = trunc i64 %519 to i8
  %521 = and i8 %520, 1
  %522 = getelementptr inbounds %struct.State, %struct.State* %0, i64 0, i32 2, i32 5
  store i8 %521, i8* %522, align 1
  %523 = icmp eq i64 %504, 0
  %524 = zext i1 %523 to i8
  %525 = getelementptr inbounds %struct.State, %struct.State* %0, i64 0, i32 2, i32 7
  store i8 %524, i8* %525, align 1
  %526 = lshr i64 %504, 63
  %527 = trunc i64 %526 to i8
  %528 = getelementptr inbounds %struct.State, %struct.State* %0, i64 0, i32 2, i32 9
  store i8 %527, i8* %528, align 1
  %529 = lshr i64 %501, 63
  %530 = xor i64 %526, %529
  %531 = add i64 %530, %526
  %532 = icmp eq i64 %531, 2
  %533 = zext i1 %532 to i8
  %534 = getelementptr inbounds %struct.State, %struct.State* %0, i64 0, i32 2, i32 13
  store i8 %533, i8* %534, align 1
  store %struct.Memory* %loadMem_4c7383, %struct.Memory** %MEMORY
  %loadMem_4c7387 = load %struct.Memory*, %struct.Memory** %MEMORY
  %535 = getelementptr inbounds %struct.State, %struct.State* %0, i32 0, i32 6
  %536 = getelementptr inbounds %struct.GPR, %struct.GPR* %535, i32 0, i32 33
  %537 = getelementptr inbounds %struct.Reg, %struct.Reg* %536, i32 0, i32 0
  %PC.i2 = bitcast %union.anon* %537 to i64*
  %538 = getelementptr inbounds %struct.State, %struct.State* %0, i32 0, i32 6
  %539 = getelementptr inbounds %struct.GPR, %struct.GPR* %538, i32 0, i32 15
  %540 = getelementptr inbounds %struct.Reg, %struct.Reg* %539, i32 0, i32 0
  %RBP.i3 = bitcast %union.anon* %540 to i64*
  %541 = load i64, i64* %PC.i2
  %542 = add i64 %541, 1
  store i64 %542, i64* %PC.i2
  %543 = getelementptr inbounds %struct.State, %struct.State* %0, i64 0, i32 6, i32 13, i32 0, i32 0
  %544 = load i64, i64* %543, align 8
  %545 = add i64 %544, 8
  %546 = inttoptr i64 %544 to i64*
  %547 = load i64, i64* %546
  store i64 %547, i64* %RBP.i3, align 8
  store i64 %545, i64* %543, align 8
  store %struct.Memory* %loadMem_4c7387, %struct.Memory** %MEMORY
  %loadMem_4c7388 = load %struct.Memory*, %struct.Memory** %MEMORY
  %548 = getelementptr inbounds %struct.State, %struct.State* %0, i32 0, i32 6
  %549 = getelementptr inbounds %struct.GPR, %struct.GPR* %548, i32 0, i32 33
  %550 = getelementptr inbounds %struct.Reg, %struct.Reg* %549, i32 0, i32 0
  %PC.i1 = bitcast %union.anon* %550 to i64*
  %551 = load i64, i64* %PC.i1
  %552 = add i64 %551, 1
  store i64 %552, i64* %PC.i1
  %553 = getelementptr inbounds %struct.State, %struct.State* %0, i64 0, i32 6, i32 33, i32 0, i32 0
  %554 = getelementptr inbounds %struct.State, %struct.State* %0, i64 0, i32 6, i32 13, i32 0, i32 0
  %555 = load i64, i64* %554, align 8
  %556 = inttoptr i64 %555 to i64*
  %557 = load i64, i64* %556
  store i64 %557, i64* %553, align 8
  %558 = add i64 %555, 8
  store i64 %558, i64* %554, align 8
  store %struct.Memory* %loadMem_4c7388, %struct.Memory** %MEMORY
  ret %struct.Memory* %loadMem_4c7388
}

define %struct.Memory* @routine_pushq__rbp(%struct.State* dereferenceable(3376), i64, %struct.Memory*) {
block_400488:
  %3 = getelementptr inbounds %struct.State, %struct.State* %0, i32 0, i32 6
  %4 = getelementptr inbounds %struct.GPR, %struct.GPR* %3, i32 0, i32 33
  %5 = getelementptr inbounds %struct.Reg, %struct.Reg* %4, i32 0, i32 0
  %PC = bitcast %union.anon* %5 to i64*
  %6 = getelementptr inbounds %struct.State, %struct.State* %0, i32 0, i32 6
  %7 = getelementptr inbounds %struct.GPR, %struct.GPR* %6, i32 0, i32 15
  %8 = getelementptr inbounds %struct.Reg, %struct.Reg* %7, i32 0, i32 0
  %RBP = bitcast %union.anon* %8 to i64*
  %9 = load i64, i64* %RBP
  %10 = load i64, i64* %PC
  %11 = add i64 %10, 1
  store i64 %11, i64* %PC
  %12 = getelementptr inbounds %struct.State, %struct.State* %0, i64 0, i32 6, i32 13, i32 0, i32 0
  %13 = load i64, i64* %12, align 8
  %14 = add i64 %13, -8
  %15 = inttoptr i64 %14 to i64*
  store i64 %9, i64* %15
  store i64 %14, i64* %12, align 8
  ret %struct.Memory* %2
}

define %struct.Memory* @routine_movq__rsp___rbp(%struct.State* dereferenceable(3376), i64, %struct.Memory*) {
block_400488:
  %3 = getelementptr inbounds %struct.State, %struct.State* %0, i32 0, i32 6
  %4 = getelementptr inbounds %struct.GPR, %struct.GPR* %3, i32 0, i32 33
  %5 = getelementptr inbounds %struct.Reg, %struct.Reg* %4, i32 0, i32 0
  %PC = bitcast %union.anon* %5 to i64*
  %6 = getelementptr inbounds %struct.State, %struct.State* %0, i32 0, i32 6
  %7 = getelementptr inbounds %struct.GPR, %struct.GPR* %6, i32 0, i32 13
  %8 = getelementptr inbounds %struct.Reg, %struct.Reg* %7, i32 0, i32 0
  %RSP = bitcast %union.anon* %8 to i64*
  %9 = getelementptr inbounds %struct.State, %struct.State* %0, i32 0, i32 6
  %10 = getelementptr inbounds %struct.GPR, %struct.GPR* %9, i32 0, i32 15
  %11 = getelementptr inbounds %struct.Reg, %struct.Reg* %10, i32 0, i32 0
  %RBP = bitcast %union.anon* %11 to i64*
  %12 = load i64, i64* %RSP
  %13 = load i64, i64* %PC
  %14 = add i64 %13, 3
  store i64 %14, i64* %PC
  store i64 %12, i64* %RBP, align 8
  ret %struct.Memory* %2
}

define %struct.Memory* @routine_subq__0x20___rsp(%struct.State* dereferenceable(3376), i64, %struct.Memory*) {
block_400488:
  %3 = getelementptr inbounds %struct.State, %struct.State* %0, i32 0, i32 6
  %4 = getelementptr inbounds %struct.GPR, %struct.GPR* %3, i32 0, i32 33
  %5 = getelementptr inbounds %struct.Reg, %struct.Reg* %4, i32 0, i32 0
  %PC = bitcast %union.anon* %5 to i64*
  %6 = getelementptr inbounds %struct.State, %struct.State* %0, i32 0, i32 6
  %7 = getelementptr inbounds %struct.GPR, %struct.GPR* %6, i32 0, i32 13
  %8 = getelementptr inbounds %struct.Reg, %struct.Reg* %7, i32 0, i32 0
  %RSP = bitcast %union.anon* %8 to i64*
  %9 = load i64, i64* %RSP
  %10 = load i64, i64* %PC
  %11 = add i64 %10, 4
  store i64 %11, i64* %PC
  %12 = sub i64 %9, 32
  store i64 %12, i64* %RSP, align 8
  %13 = icmp ult i64 %9, 32
  %14 = zext i1 %13 to i8
  %15 = getelementptr inbounds %struct.State, %struct.State* %0, i64 0, i32 2, i32 1
  store i8 %14, i8* %15, align 1
  %16 = trunc i64 %12 to i32
  %17 = and i32 %16, 255
  %18 = call i32 @llvm.ctpop.i32(i32 %17)
  %19 = trunc i32 %18 to i8
  %20 = and i8 %19, 1
  %21 = xor i8 %20, 1
  %22 = getelementptr inbounds %struct.State, %struct.State* %0, i64 0, i32 2, i32 3
  store i8 %21, i8* %22, align 1
  %23 = xor i64 32, %9
  %24 = xor i64 %23, %12
  %25 = lshr i64 %24, 4
  %26 = trunc i64 %25 to i8
  %27 = and i8 %26, 1
  %28 = getelementptr inbounds %struct.State, %struct.State* %0, i64 0, i32 2, i32 5
  store i8 %27, i8* %28, align 1
  %29 = icmp eq i64 %12, 0
  %30 = zext i1 %29 to i8
  %31 = getelementptr inbounds %struct.State, %struct.State* %0, i64 0, i32 2, i32 7
  store i8 %30, i8* %31, align 1
  %32 = lshr i64 %12, 63
  %33 = trunc i64 %32 to i8
  %34 = getelementptr inbounds %struct.State, %struct.State* %0, i64 0, i32 2, i32 9
  store i8 %33, i8* %34, align 1
  %35 = lshr i64 %9, 63
  %36 = xor i64 %32, %35
  %37 = add i64 %36, %35
  %38 = icmp eq i64 %37, 2
  %39 = zext i1 %38 to i8
  %40 = getelementptr inbounds %struct.State, %struct.State* %0, i64 0, i32 2, i32 13
  store i8 %39, i8* %40, align 1
  ret %struct.Memory* %2
}

define %struct.Memory* @routine_movl__0x1___eax(%struct.State* dereferenceable(3376), i64, %struct.Memory*) {
block_400488:
  %3 = getelementptr inbounds %struct.State, %struct.State* %0, i32 0, i32 6
  %4 = getelementptr inbounds %struct.GPR, %struct.GPR* %3, i32 0, i32 33
  %5 = getelementptr inbounds %struct.Reg, %struct.Reg* %4, i32 0, i32 0
  %PC = bitcast %union.anon* %5 to i64*
  %6 = getelementptr inbounds %struct.State, %struct.State* %0, i32 0, i32 6
  %7 = getelementptr inbounds %struct.GPR, %struct.GPR* %6, i32 0, i32 1
  %8 = getelementptr inbounds %struct.Reg, %struct.Reg* %7, i32 0, i32 0
  %RAX = bitcast %union.anon* %8 to i64*
  %9 = load i64, i64* %PC
  %10 = add i64 %9, 5
  store i64 %10, i64* %PC
  store i64 1, i64* %RAX, align 8
  ret %struct.Memory* %2
}

define %struct.Memory* @routine_movl__0x2___r8d(%struct.State* dereferenceable(3376), i64, %struct.Memory*) {
block_400488:
  %3 = getelementptr inbounds %struct.State, %struct.State* %0, i32 0, i32 6
  %4 = getelementptr inbounds %struct.GPR, %struct.GPR* %3, i32 0, i32 33
  %5 = getelementptr inbounds %struct.Reg, %struct.Reg* %4, i32 0, i32 0
  %PC = bitcast %union.anon* %5 to i64*
  %6 = getelementptr inbounds %struct.State, %struct.State* %0, i32 0, i32 6
  %7 = getelementptr inbounds %struct.GPR, %struct.GPR* %6, i32 0, i32 17
  %8 = getelementptr inbounds %struct.Reg, %struct.Reg* %7, i32 0, i32 0
  %R8D = bitcast %union.anon* %8 to i32*
  %9 = bitcast i32* %R8D to i64*
  %10 = load i64, i64* %PC
  %11 = add i64 %10, 6
  store i64 %11, i64* %PC
  store i64 2, i64* %9, align 8
  ret %struct.Memory* %2
}

define %struct.Memory* @routine_movl__edi__MINUS0x4__rbp_(%struct.State* dereferenceable(3376), i64, %struct.Memory*) {
block_400488:
  %3 = getelementptr inbounds %struct.State, %struct.State* %0, i32 0, i32 6
  %4 = getelementptr inbounds %struct.GPR, %struct.GPR* %3, i32 0, i32 33
  %5 = getelementptr inbounds %struct.Reg, %struct.Reg* %4, i32 0, i32 0
  %PC = bitcast %union.anon* %5 to i64*
  %6 = getelementptr inbounds %struct.State, %struct.State* %0, i32 0, i32 6
  %7 = getelementptr inbounds %struct.GPR, %struct.GPR* %6, i32 0, i32 11
  %8 = getelementptr inbounds %struct.Reg, %struct.Reg* %7, i32 0, i32 0
  %EDI = bitcast %union.anon* %8 to i32*
  %9 = getelementptr inbounds %struct.State, %struct.State* %0, i32 0, i32 6
  %10 = getelementptr inbounds %struct.GPR, %struct.GPR* %9, i32 0, i32 15
  %11 = getelementptr inbounds %struct.Reg, %struct.Reg* %10, i32 0, i32 0
  %RBP = bitcast %union.anon* %11 to i64*
  %12 = load i64, i64* %RBP
  %13 = sub i64 %12, 4
  %14 = load i32, i32* %EDI
  %15 = zext i32 %14 to i64
  %16 = load i64, i64* %PC
  %17 = add i64 %16, 3
  store i64 %17, i64* %PC
  %18 = inttoptr i64 %13 to i32*
  store i32 %14, i32* %18
  ret %struct.Memory* %2
}

define %struct.Memory* @routine_movl__esi__MINUS0x8__rbp_(%struct.State* dereferenceable(3376), i64, %struct.Memory*) {
block_400488:
  %3 = getelementptr inbounds %struct.State, %struct.State* %0, i32 0, i32 6
  %4 = getelementptr inbounds %struct.GPR, %struct.GPR* %3, i32 0, i32 33
  %5 = getelementptr inbounds %struct.Reg, %struct.Reg* %4, i32 0, i32 0
  %PC = bitcast %union.anon* %5 to i64*
  %6 = getelementptr inbounds %struct.State, %struct.State* %0, i32 0, i32 6
  %7 = getelementptr inbounds %struct.GPR, %struct.GPR* %6, i32 0, i32 9
  %8 = getelementptr inbounds %struct.Reg, %struct.Reg* %7, i32 0, i32 0
  %ESI = bitcast %union.anon* %8 to i32*
  %9 = getelementptr inbounds %struct.State, %struct.State* %0, i32 0, i32 6
  %10 = getelementptr inbounds %struct.GPR, %struct.GPR* %9, i32 0, i32 15
  %11 = getelementptr inbounds %struct.Reg, %struct.Reg* %10, i32 0, i32 0
  %RBP = bitcast %union.anon* %11 to i64*
  %12 = load i64, i64* %RBP
  %13 = sub i64 %12, 8
  %14 = load i32, i32* %ESI
  %15 = zext i32 %14 to i64
  %16 = load i64, i64* %PC
  %17 = add i64 %16, 3
  store i64 %17, i64* %PC
  %18 = inttoptr i64 %13 to i32*
  store i32 %14, i32* %18
  ret %struct.Memory* %2
}

define %struct.Memory* @routine_movl__edx__MINUS0xc__rbp_(%struct.State* dereferenceable(3376), i64, %struct.Memory*) {
block_400488:
  %3 = getelementptr inbounds %struct.State, %struct.State* %0, i32 0, i32 6
  %4 = getelementptr inbounds %struct.GPR, %struct.GPR* %3, i32 0, i32 33
  %5 = getelementptr inbounds %struct.Reg, %struct.Reg* %4, i32 0, i32 0
  %PC = bitcast %union.anon* %5 to i64*
  %6 = getelementptr inbounds %struct.State, %struct.State* %0, i32 0, i32 6
  %7 = getelementptr inbounds %struct.GPR, %struct.GPR* %6, i32 0, i32 7
  %8 = getelementptr inbounds %struct.Reg, %struct.Reg* %7, i32 0, i32 0
  %EDX = bitcast %union.anon* %8 to i32*
  %9 = getelementptr inbounds %struct.State, %struct.State* %0, i32 0, i32 6
  %10 = getelementptr inbounds %struct.GPR, %struct.GPR* %9, i32 0, i32 15
  %11 = getelementptr inbounds %struct.Reg, %struct.Reg* %10, i32 0, i32 0
  %RBP = bitcast %union.anon* %11 to i64*
  %12 = load i64, i64* %RBP
  %13 = sub i64 %12, 12
  %14 = load i32, i32* %EDX
  %15 = zext i32 %14 to i64
  %16 = load i64, i64* %PC
  %17 = add i64 %16, 3
  store i64 %17, i64* %PC
  %18 = inttoptr i64 %13 to i32*
  store i32 %14, i32* %18
  ret %struct.Memory* %2
}

define %struct.Memory* @routine_movl__ecx__MINUS0x10__rbp_(%struct.State* dereferenceable(3376), i64, %struct.Memory*) {
block_400488:
  %3 = getelementptr inbounds %struct.State, %struct.State* %0, i32 0, i32 6
  %4 = getelementptr inbounds %struct.GPR, %struct.GPR* %3, i32 0, i32 33
  %5 = getelementptr inbounds %struct.Reg, %struct.Reg* %4, i32 0, i32 0
  %PC = bitcast %union.anon* %5 to i64*
  %6 = getelementptr inbounds %struct.State, %struct.State* %0, i32 0, i32 6
  %7 = getelementptr inbounds %struct.GPR, %struct.GPR* %6, i32 0, i32 5
  %8 = getelementptr inbounds %struct.Reg, %struct.Reg* %7, i32 0, i32 0
  %ECX = bitcast %union.anon* %8 to i32*
  %9 = getelementptr inbounds %struct.State, %struct.State* %0, i32 0, i32 6
  %10 = getelementptr inbounds %struct.GPR, %struct.GPR* %9, i32 0, i32 15
  %11 = getelementptr inbounds %struct.Reg, %struct.Reg* %10, i32 0, i32 0
  %RBP = bitcast %union.anon* %11 to i64*
  %12 = load i64, i64* %RBP
  %13 = sub i64 %12, 16
  %14 = load i32, i32* %ECX
  %15 = zext i32 %14 to i64
  %16 = load i64, i64* %PC
  %17 = add i64 %16, 3
  store i64 %17, i64* %PC
  %18 = inttoptr i64 %13 to i32*
  store i32 %14, i32* %18
  ret %struct.Memory* %2
}

define %struct.Memory* @routine_movslq_MINUS0x4__rbp____r9(%struct.State* dereferenceable(3376), i64, %struct.Memory*) {
block_400488:
  %3 = getelementptr inbounds %struct.State, %struct.State* %0, i32 0, i32 6
  %4 = getelementptr inbounds %struct.GPR, %struct.GPR* %3, i32 0, i32 33
  %5 = getelementptr inbounds %struct.Reg, %struct.Reg* %4, i32 0, i32 0
  %PC = bitcast %union.anon* %5 to i64*
  %6 = getelementptr inbounds %struct.State, %struct.State* %0, i32 0, i32 6
  %7 = getelementptr inbounds %struct.GPR, %struct.GPR* %6, i32 0, i32 15
  %8 = getelementptr inbounds %struct.Reg, %struct.Reg* %7, i32 0, i32 0
  %RBP = bitcast %union.anon* %8 to i64*
  %9 = getelementptr inbounds %struct.State, %struct.State* %0, i32 0, i32 6
  %10 = getelementptr inbounds %struct.GPR, %struct.GPR* %9, i32 0, i32 19
  %11 = getelementptr inbounds %struct.Reg, %struct.Reg* %10, i32 0, i32 0
  %R9 = bitcast %union.anon* %11 to i64*
  %12 = load i64, i64* %RBP
  %13 = sub i64 %12, 4
  %14 = load i64, i64* %PC
  %15 = add i64 %14, 4
  store i64 %15, i64* %PC
  %16 = inttoptr i64 %13 to i32*
  %17 = load i32, i32* %16
  %18 = sext i32 %17 to i64
  store i64 %18, i64* %R9, align 8
  ret %struct.Memory* %2
}

define %struct.Memory* @routine_movl_0xb5a710___r9_4____ecx(%struct.State* dereferenceable(3376), i64, %struct.Memory*) {
block_400488:
  %3 = getelementptr inbounds %struct.State, %struct.State* %0, i32 0, i32 6
  %4 = getelementptr inbounds %struct.GPR, %struct.GPR* %3, i32 0, i32 33
  %5 = getelementptr inbounds %struct.Reg, %struct.Reg* %4, i32 0, i32 0
  %PC = bitcast %union.anon* %5 to i64*
  %6 = getelementptr inbounds %struct.State, %struct.State* %0, i32 0, i32 6
  %7 = getelementptr inbounds %struct.GPR, %struct.GPR* %6, i32 0, i32 5
  %8 = getelementptr inbounds %struct.Reg, %struct.Reg* %7, i32 0, i32 0
  %RCX = bitcast %union.anon* %8 to i64*
  %9 = getelementptr inbounds %struct.State, %struct.State* %0, i32 0, i32 6
  %10 = getelementptr inbounds %struct.GPR, %struct.GPR* %9, i32 0, i32 19
  %11 = getelementptr inbounds %struct.Reg, %struct.Reg* %10, i32 0, i32 0
  %R9 = bitcast %union.anon* %11 to i64*
  %12 = load i64, i64* %R9
  %13 = mul i64 %12, 4
  %14 = add i64 %13, 11904784
  %15 = load i64, i64* %PC
  %16 = add i64 %15, 8
  store i64 %16, i64* %PC
  %17 = inttoptr i64 %14 to i32*
  %18 = load i32, i32* %17
  %19 = zext i32 %18 to i64
  store i64 %19, i64* %RCX, align 8
  ret %struct.Memory* %2
}

define %struct.Memory* @routine_addl_MINUS0x8__rbp____ecx(%struct.State* dereferenceable(3376), i64, %struct.Memory*) {
block_400488:
  %3 = getelementptr inbounds %struct.State, %struct.State* %0, i32 0, i32 6
  %4 = getelementptr inbounds %struct.GPR, %struct.GPR* %3, i32 0, i32 33
  %5 = getelementptr inbounds %struct.Reg, %struct.Reg* %4, i32 0, i32 0
  %PC = bitcast %union.anon* %5 to i64*
  %6 = getelementptr inbounds %struct.State, %struct.State* %0, i32 0, i32 6
  %7 = getelementptr inbounds %struct.GPR, %struct.GPR* %6, i32 0, i32 5
  %8 = getelementptr inbounds %struct.Reg, %struct.Reg* %7, i32 0, i32 0
  %RCX = bitcast %union.anon* %8 to i64*
  %9 = getelementptr inbounds %struct.State, %struct.State* %0, i32 0, i32 6
  %10 = getelementptr inbounds %struct.GPR, %struct.GPR* %9, i32 0, i32 15
  %11 = getelementptr inbounds %struct.Reg, %struct.Reg* %10, i32 0, i32 0
  %RBP = bitcast %union.anon* %11 to i64*
  %12 = load i64, i64* %RCX
  %13 = load i64, i64* %RBP
  %14 = sub i64 %13, 8
  %15 = load i64, i64* %PC
  %16 = add i64 %15, 3
  store i64 %16, i64* %PC
  %17 = trunc i64 %12 to i32
  %18 = inttoptr i64 %14 to i32*
  %19 = load i32, i32* %18
  %20 = add i32 %19, %17
  %21 = zext i32 %20 to i64
  store i64 %21, i64* %RCX, align 8
  %22 = icmp ult i32 %20, %17
  %23 = icmp ult i32 %20, %19
  %24 = or i1 %22, %23
  %25 = zext i1 %24 to i8
  %26 = getelementptr inbounds %struct.State, %struct.State* %0, i64 0, i32 2, i32 1
  store i8 %25, i8* %26, align 1
  %27 = and i32 %20, 255
  %28 = call i32 @llvm.ctpop.i32(i32 %27)
  %29 = trunc i32 %28 to i8
  %30 = and i8 %29, 1
  %31 = xor i8 %30, 1
  %32 = getelementptr inbounds %struct.State, %struct.State* %0, i64 0, i32 2, i32 3
  store i8 %31, i8* %32, align 1
  %33 = xor i32 %19, %17
  %34 = xor i32 %33, %20
  %35 = lshr i32 %34, 4
  %36 = trunc i32 %35 to i8
  %37 = and i8 %36, 1
  %38 = getelementptr inbounds %struct.State, %struct.State* %0, i64 0, i32 2, i32 5
  store i8 %37, i8* %38, align 1
  %39 = icmp eq i32 %20, 0
  %40 = zext i1 %39 to i8
  %41 = getelementptr inbounds %struct.State, %struct.State* %0, i64 0, i32 2, i32 7
  store i8 %40, i8* %41, align 1
  %42 = lshr i32 %20, 31
  %43 = trunc i32 %42 to i8
  %44 = getelementptr inbounds %struct.State, %struct.State* %0, i64 0, i32 2, i32 9
  store i8 %43, i8* %44, align 1
  %45 = lshr i32 %17, 31
  %46 = lshr i32 %19, 31
  %47 = xor i32 %42, %45
  %48 = xor i32 %42, %46
  %49 = add i32 %47, %48
  %50 = icmp eq i32 %49, 2
  %51 = zext i1 %50 to i8
  %52 = getelementptr inbounds %struct.State, %struct.State* %0, i64 0, i32 2, i32 13
  store i8 %51, i8* %52, align 1
  ret %struct.Memory* %2
}

define %struct.Memory* @routine_movl__ecx__MINUS0x14__rbp_(%struct.State* dereferenceable(3376), i64, %struct.Memory*) {
block_400488:
  %3 = getelementptr inbounds %struct.State, %struct.State* %0, i32 0, i32 6
  %4 = getelementptr inbounds %struct.GPR, %struct.GPR* %3, i32 0, i32 33
  %5 = getelementptr inbounds %struct.Reg, %struct.Reg* %4, i32 0, i32 0
  %PC = bitcast %union.anon* %5 to i64*
  %6 = getelementptr inbounds %struct.State, %struct.State* %0, i32 0, i32 6
  %7 = getelementptr inbounds %struct.GPR, %struct.GPR* %6, i32 0, i32 5
  %8 = getelementptr inbounds %struct.Reg, %struct.Reg* %7, i32 0, i32 0
  %ECX = bitcast %union.anon* %8 to i32*
  %9 = getelementptr inbounds %struct.State, %struct.State* %0, i32 0, i32 6
  %10 = getelementptr inbounds %struct.GPR, %struct.GPR* %9, i32 0, i32 15
  %11 = getelementptr inbounds %struct.Reg, %struct.Reg* %10, i32 0, i32 0
  %RBP = bitcast %union.anon* %11 to i64*
  %12 = load i64, i64* %RBP
  %13 = sub i64 %12, 20
  %14 = load i32, i32* %ECX
  %15 = zext i32 %14 to i64
  %16 = load i64, i64* %PC
  %17 = add i64 %16, 3
  store i64 %17, i64* %PC
  %18 = inttoptr i64 %13 to i32*
  store i32 %14, i32* %18
  ret %struct.Memory* %2
}

define %struct.Memory* @routine_movl_0xb5a250___r9_4____ecx(%struct.State* dereferenceable(3376), i64, %struct.Memory*) {
block_400488:
  %3 = getelementptr inbounds %struct.State, %struct.State* %0, i32 0, i32 6
  %4 = getelementptr inbounds %struct.GPR, %struct.GPR* %3, i32 0, i32 33
  %5 = getelementptr inbounds %struct.Reg, %struct.Reg* %4, i32 0, i32 0
  %PC = bitcast %union.anon* %5 to i64*
  %6 = getelementptr inbounds %struct.State, %struct.State* %0, i32 0, i32 6
  %7 = getelementptr inbounds %struct.GPR, %struct.GPR* %6, i32 0, i32 5
  %8 = getelementptr inbounds %struct.Reg, %struct.Reg* %7, i32 0, i32 0
  %RCX = bitcast %union.anon* %8 to i64*
  %9 = getelementptr inbounds %struct.State, %struct.State* %0, i32 0, i32 6
  %10 = getelementptr inbounds %struct.GPR, %struct.GPR* %9, i32 0, i32 19
  %11 = getelementptr inbounds %struct.Reg, %struct.Reg* %10, i32 0, i32 0
  %R9 = bitcast %union.anon* %11 to i64*
  %12 = load i64, i64* %R9
  %13 = mul i64 %12, 4
  %14 = add i64 %13, 11903568
  %15 = load i64, i64* %PC
  %16 = add i64 %15, 8
  store i64 %16, i64* %PC
  %17 = inttoptr i64 %14 to i32*
  %18 = load i32, i32* %17
  %19 = zext i32 %18 to i64
  store i64 %19, i64* %RCX, align 8
  ret %struct.Memory* %2
}

define %struct.Memory* @routine_movl__ecx__MINUS0x18__rbp_(%struct.State* dereferenceable(3376), i64, %struct.Memory*) {
block_400488:
  %3 = getelementptr inbounds %struct.State, %struct.State* %0, i32 0, i32 6
  %4 = getelementptr inbounds %struct.GPR, %struct.GPR* %3, i32 0, i32 33
  %5 = getelementptr inbounds %struct.Reg, %struct.Reg* %4, i32 0, i32 0
  %PC = bitcast %union.anon* %5 to i64*
  %6 = getelementptr inbounds %struct.State, %struct.State* %0, i32 0, i32 6
  %7 = getelementptr inbounds %struct.GPR, %struct.GPR* %6, i32 0, i32 5
  %8 = getelementptr inbounds %struct.Reg, %struct.Reg* %7, i32 0, i32 0
  %ECX = bitcast %union.anon* %8 to i32*
  %9 = getelementptr inbounds %struct.State, %struct.State* %0, i32 0, i32 6
  %10 = getelementptr inbounds %struct.GPR, %struct.GPR* %9, i32 0, i32 15
  %11 = getelementptr inbounds %struct.Reg, %struct.Reg* %10, i32 0, i32 0
  %RBP = bitcast %union.anon* %11 to i64*
  %12 = load i64, i64* %RBP
  %13 = sub i64 %12, 24
  %14 = load i32, i32* %ECX
  %15 = zext i32 %14 to i64
  %16 = load i64, i64* %PC
  %17 = add i64 %16, 3
  store i64 %17, i64* %PC
  %18 = inttoptr i64 %13 to i32*
  store i32 %14, i32* %18
  ret %struct.Memory* %2
}

define %struct.Memory* @routine_movl_MINUS0xc__rbp____edi(%struct.State* dereferenceable(3376), i64, %struct.Memory*) {
block_400488:
  %3 = getelementptr inbounds %struct.State, %struct.State* %0, i32 0, i32 6
  %4 = getelementptr inbounds %struct.GPR, %struct.GPR* %3, i32 0, i32 33
  %5 = getelementptr inbounds %struct.Reg, %struct.Reg* %4, i32 0, i32 0
  %PC = bitcast %union.anon* %5 to i64*
  %6 = getelementptr inbounds %struct.State, %struct.State* %0, i32 0, i32 6
  %7 = getelementptr inbounds %struct.GPR, %struct.GPR* %6, i32 0, i32 11
  %8 = getelementptr inbounds %struct.Reg, %struct.Reg* %7, i32 0, i32 0
  %RDI = bitcast %union.anon* %8 to i64*
  %9 = getelementptr inbounds %struct.State, %struct.State* %0, i32 0, i32 6
  %10 = getelementptr inbounds %struct.GPR, %struct.GPR* %9, i32 0, i32 15
  %11 = getelementptr inbounds %struct.Reg, %struct.Reg* %10, i32 0, i32 0
  %RBP = bitcast %union.anon* %11 to i64*
  %12 = load i64, i64* %RBP
  %13 = sub i64 %12, 12
  %14 = load i64, i64* %PC
  %15 = add i64 %14, 3
  store i64 %15, i64* %PC
  %16 = inttoptr i64 %13 to i32*
  %17 = load i32, i32* %16
  %18 = zext i32 %17 to i64
  store i64 %18, i64* %RDI, align 8
  ret %struct.Memory* %2
}

define %struct.Memory* @routine_movl_MINUS0x8__rbp____ecx(%struct.State* dereferenceable(3376), i64, %struct.Memory*) {
block_400488:
  %3 = getelementptr inbounds %struct.State, %struct.State* %0, i32 0, i32 6
  %4 = getelementptr inbounds %struct.GPR, %struct.GPR* %3, i32 0, i32 33
  %5 = getelementptr inbounds %struct.Reg, %struct.Reg* %4, i32 0, i32 0
  %PC = bitcast %union.anon* %5 to i64*
  %6 = getelementptr inbounds %struct.State, %struct.State* %0, i32 0, i32 6
  %7 = getelementptr inbounds %struct.GPR, %struct.GPR* %6, i32 0, i32 5
  %8 = getelementptr inbounds %struct.Reg, %struct.Reg* %7, i32 0, i32 0
  %RCX = bitcast %union.anon* %8 to i64*
  %9 = getelementptr inbounds %struct.State, %struct.State* %0, i32 0, i32 6
  %10 = getelementptr inbounds %struct.GPR, %struct.GPR* %9, i32 0, i32 15
  %11 = getelementptr inbounds %struct.Reg, %struct.Reg* %10, i32 0, i32 0
  %RBP = bitcast %union.anon* %11 to i64*
  %12 = load i64, i64* %RBP
  %13 = sub i64 %12, 8
  %14 = load i64, i64* %PC
  %15 = add i64 %14, 3
  store i64 %15, i64* %PC
  %16 = inttoptr i64 %13 to i32*
  %17 = load i32, i32* %16
  %18 = zext i32 %17 to i64
  store i64 %18, i64* %RCX, align 8
  ret %struct.Memory* %2
}

define %struct.Memory* @routine_movl_MINUS0x14__rbp____edx(%struct.State* dereferenceable(3376), i64, %struct.Memory*) {
block_400488:
  %3 = getelementptr inbounds %struct.State, %struct.State* %0, i32 0, i32 6
  %4 = getelementptr inbounds %struct.GPR, %struct.GPR* %3, i32 0, i32 33
  %5 = getelementptr inbounds %struct.Reg, %struct.Reg* %4, i32 0, i32 0
  %PC = bitcast %union.anon* %5 to i64*
  %6 = getelementptr inbounds %struct.State, %struct.State* %0, i32 0, i32 6
  %7 = getelementptr inbounds %struct.GPR, %struct.GPR* %6, i32 0, i32 7
  %8 = getelementptr inbounds %struct.Reg, %struct.Reg* %7, i32 0, i32 0
  %RDX = bitcast %union.anon* %8 to i64*
  %9 = getelementptr inbounds %struct.State, %struct.State* %0, i32 0, i32 6
  %10 = getelementptr inbounds %struct.GPR, %struct.GPR* %9, i32 0, i32 15
  %11 = getelementptr inbounds %struct.Reg, %struct.Reg* %10, i32 0, i32 0
  %RBP = bitcast %union.anon* %11 to i64*
  %12 = load i64, i64* %RBP
  %13 = sub i64 %12, 20
  %14 = load i64, i64* %PC
  %15 = add i64 %14, 3
  store i64 %15, i64* %PC
  %16 = inttoptr i64 %13 to i32*
  %17 = load i32, i32* %16
  %18 = zext i32 %17 to i64
  store i64 %18, i64* %RDX, align 8
  ret %struct.Memory* %2
}

define %struct.Memory* @routine_movl_MINUS0x18__rbp____r9d(%struct.State* dereferenceable(3376), i64, %struct.Memory*) {
block_400488:
  %3 = getelementptr inbounds %struct.State, %struct.State* %0, i32 0, i32 6
  %4 = getelementptr inbounds %struct.GPR, %struct.GPR* %3, i32 0, i32 33
  %5 = getelementptr inbounds %struct.Reg, %struct.Reg* %4, i32 0, i32 0
  %PC = bitcast %union.anon* %5 to i64*
  %6 = getelementptr inbounds %struct.State, %struct.State* %0, i32 0, i32 6
  %7 = getelementptr inbounds %struct.GPR, %struct.GPR* %6, i32 0, i32 19
  %8 = getelementptr inbounds %struct.Reg, %struct.Reg* %7, i32 0, i32 0
  %R9D = bitcast %union.anon* %8 to i32*
  %9 = getelementptr inbounds %struct.State, %struct.State* %0, i32 0, i32 6
  %10 = getelementptr inbounds %struct.GPR, %struct.GPR* %9, i32 0, i32 15
  %11 = getelementptr inbounds %struct.Reg, %struct.Reg* %10, i32 0, i32 0
  %RBP = bitcast %union.anon* %11 to i64*
  %12 = bitcast i32* %R9D to i64*
  %13 = load i64, i64* %RBP
  %14 = sub i64 %13, 24
  %15 = load i64, i64* %PC
  %16 = add i64 %15, 4
  store i64 %16, i64* %PC
  %17 = inttoptr i64 %14 to i32*
  %18 = load i32, i32* %17
  %19 = zext i32 %18 to i64
  store i64 %19, i64* %12, align 8
  ret %struct.Memory* %2
}

define %struct.Memory* @routine_movl__eax___esi(%struct.State* dereferenceable(3376), i64, %struct.Memory*) {
block_400488:
  %3 = getelementptr inbounds %struct.State, %struct.State* %0, i32 0, i32 6
  %4 = getelementptr inbounds %struct.GPR, %struct.GPR* %3, i32 0, i32 33
  %5 = getelementptr inbounds %struct.Reg, %struct.Reg* %4, i32 0, i32 0
  %PC = bitcast %union.anon* %5 to i64*
  %6 = getelementptr inbounds %struct.State, %struct.State* %0, i32 0, i32 6
  %7 = getelementptr inbounds %struct.GPR, %struct.GPR* %6, i32 0, i32 1
  %8 = getelementptr inbounds %struct.Reg, %struct.Reg* %7, i32 0, i32 0
  %EAX = bitcast %union.anon* %8 to i32*
  %9 = getelementptr inbounds %struct.State, %struct.State* %0, i32 0, i32 6
  %10 = getelementptr inbounds %struct.GPR, %struct.GPR* %9, i32 0, i32 9
  %11 = getelementptr inbounds %struct.Reg, %struct.Reg* %10, i32 0, i32 0
  %RSI = bitcast %union.anon* %11 to i64*
  %12 = load i32, i32* %EAX
  %13 = zext i32 %12 to i64
  %14 = load i64, i64* %PC
  %15 = add i64 %14, 2
  store i64 %15, i64* %PC
  %16 = and i64 %13, 4294967295
  store i64 %16, i64* %RSI, align 8
  ret %struct.Memory* %2
}

define %struct.Memory* @routine_movl__edx__MINUS0x1c__rbp_(%struct.State* dereferenceable(3376), i64, %struct.Memory*) {
block_400488:
  %3 = getelementptr inbounds %struct.State, %struct.State* %0, i32 0, i32 6
  %4 = getelementptr inbounds %struct.GPR, %struct.GPR* %3, i32 0, i32 33
  %5 = getelementptr inbounds %struct.Reg, %struct.Reg* %4, i32 0, i32 0
  %PC = bitcast %union.anon* %5 to i64*
  %6 = getelementptr inbounds %struct.State, %struct.State* %0, i32 0, i32 6
  %7 = getelementptr inbounds %struct.GPR, %struct.GPR* %6, i32 0, i32 7
  %8 = getelementptr inbounds %struct.Reg, %struct.Reg* %7, i32 0, i32 0
  %EDX = bitcast %union.anon* %8 to i32*
  %9 = getelementptr inbounds %struct.State, %struct.State* %0, i32 0, i32 6
  %10 = getelementptr inbounds %struct.GPR, %struct.GPR* %9, i32 0, i32 15
  %11 = getelementptr inbounds %struct.Reg, %struct.Reg* %10, i32 0, i32 0
  %RBP = bitcast %union.anon* %11 to i64*
  %12 = load i64, i64* %RBP
  %13 = sub i64 %12, 28
  %14 = load i32, i32* %EDX
  %15 = zext i32 %14 to i64
  %16 = load i64, i64* %PC
  %17 = add i64 %16, 3
  store i64 %17, i64* %PC
  %18 = inttoptr i64 %13 to i32*
  store i32 %14, i32* %18
  ret %struct.Memory* %2
}

define %struct.Memory* @routine_movl__r8d___edx(%struct.State* dereferenceable(3376), i64, %struct.Memory*) {
block_400488:
  %3 = getelementptr inbounds %struct.State, %struct.State* %0, i32 0, i32 6
  %4 = getelementptr inbounds %struct.GPR, %struct.GPR* %3, i32 0, i32 33
  %5 = getelementptr inbounds %struct.Reg, %struct.Reg* %4, i32 0, i32 0
  %PC = bitcast %union.anon* %5 to i64*
  %6 = getelementptr inbounds %struct.State, %struct.State* %0, i32 0, i32 6
  %7 = getelementptr inbounds %struct.GPR, %struct.GPR* %6, i32 0, i32 17
  %8 = getelementptr inbounds %struct.Reg, %struct.Reg* %7, i32 0, i32 0
  %R8D = bitcast %union.anon* %8 to i32*
  %9 = getelementptr inbounds %struct.State, %struct.State* %0, i32 0, i32 6
  %10 = getelementptr inbounds %struct.GPR, %struct.GPR* %9, i32 0, i32 7
  %11 = getelementptr inbounds %struct.Reg, %struct.Reg* %10, i32 0, i32 0
  %RDX = bitcast %union.anon* %11 to i64*
  %12 = load i32, i32* %R8D
  %13 = zext i32 %12 to i64
  %14 = load i64, i64* %PC
  %15 = add i64 %14, 3
  store i64 %15, i64* %PC
  %16 = and i64 %13, 4294967295
  store i64 %16, i64* %RDX, align 8
  ret %struct.Memory* %2
}

define %struct.Memory* @routine_movl_MINUS0x1c__rbp____r8d(%struct.State* dereferenceable(3376), i64, %struct.Memory*) {
block_400488:
  %3 = getelementptr inbounds %struct.State, %struct.State* %0, i32 0, i32 6
  %4 = getelementptr inbounds %struct.GPR, %struct.GPR* %3, i32 0, i32 33
  %5 = getelementptr inbounds %struct.Reg, %struct.Reg* %4, i32 0, i32 0
  %PC = bitcast %union.anon* %5 to i64*
  %6 = getelementptr inbounds %struct.State, %struct.State* %0, i32 0, i32 6
  %7 = getelementptr inbounds %struct.GPR, %struct.GPR* %6, i32 0, i32 17
  %8 = getelementptr inbounds %struct.Reg, %struct.Reg* %7, i32 0, i32 0
  %R8D = bitcast %union.anon* %8 to i32*
  %9 = getelementptr inbounds %struct.State, %struct.State* %0, i32 0, i32 6
  %10 = getelementptr inbounds %struct.GPR, %struct.GPR* %9, i32 0, i32 15
  %11 = getelementptr inbounds %struct.Reg, %struct.Reg* %10, i32 0, i32 0
  %RBP = bitcast %union.anon* %11 to i64*
  %12 = bitcast i32* %R8D to i64*
  %13 = load i64, i64* %RBP
  %14 = sub i64 %13, 28
  %15 = load i64, i64* %PC
  %16 = add i64 %15, 4
  store i64 %16, i64* %PC
  %17 = inttoptr i64 %14 to i32*
  %18 = load i32, i32* %17
  %19 = zext i32 %18 to i64
  store i64 %19, i64* %12, align 8
  ret %struct.Memory* %2
}

define %struct.Memory* @routine_movb__0x0___al(%struct.State* dereferenceable(3376), i64, %struct.Memory*) {
block_400488:
  %3 = getelementptr inbounds %struct.State, %struct.State* %0, i32 0, i32 6
  %4 = getelementptr inbounds %struct.GPR, %struct.GPR* %3, i32 0, i32 33
  %5 = getelementptr inbounds %struct.Reg, %struct.Reg* %4, i32 0, i32 0
  %PC = bitcast %union.anon* %5 to i64*
  %6 = getelementptr inbounds %struct.State, %struct.State* %0, i32 0, i32 6
  %7 = getelementptr inbounds %struct.GPR, %struct.GPR* %6, i32 0, i32 1
  %8 = getelementptr inbounds %struct.Reg, %struct.Reg* %7, i32 0, i32 0
  %9 = bitcast %union.anon* %8 to %struct.anon.2*
  %AL = getelementptr inbounds %struct.anon.2, %struct.anon.2* %9, i32 0, i32 0
  %10 = load i64, i64* %PC
  %11 = add i64 %10, 2
  store i64 %11, i64* %PC
  store i8 0, i8* %AL, align 1
  ret %struct.Memory* %2
}

define %struct.Memory* @routine_callq_.play_attack_defend_n(%struct.State* dereferenceable(3376), i64, %struct.Memory*, i64 %rel_off1, i64 %rel_off2, i64 %rel_off3) {
block_400488:
  %3 = getelementptr inbounds %struct.State, %struct.State* %0, i32 0, i32 6
  %4 = getelementptr inbounds %struct.GPR, %struct.GPR* %3, i32 0, i32 33
  %5 = getelementptr inbounds %struct.Reg, %struct.Reg* %4, i32 0, i32 0
  %PC = bitcast %union.anon* %5 to i64*
  %6 = load i64, i64* %PC
  %7 = add i64 %6, %rel_off1
  %8 = load i64, i64* %PC
  %9 = add i64 %8, %rel_off2
  %10 = load i64, i64* %PC
  %11 = add i64 %10, %rel_off3
  store i64 %11, i64* %PC
  %12 = getelementptr inbounds %struct.State, %struct.State* %0, i64 0, i32 6, i32 13, i32 0, i32 0
  %13 = load i64, i64* %12, align 8
  %14 = add i64 %13, -8
  %15 = inttoptr i64 %14 to i64*
  store i64 %9, i64* %15
  store i64 %14, i64* %12, align 8
  %16 = getelementptr inbounds %struct.State, %struct.State* %0, i64 0, i32 6, i32 33, i32 0, i32 0
  store i64 %7, i64* %16, align 8
  ret %struct.Memory* %2
}

define %struct.Memory* @routine_addq__0x20___rsp(%struct.State* dereferenceable(3376), i64, %struct.Memory*) {
block_400488:
  %3 = getelementptr inbounds %struct.State, %struct.State* %0, i32 0, i32 6
  %4 = getelementptr inbounds %struct.GPR, %struct.GPR* %3, i32 0, i32 33
  %5 = getelementptr inbounds %struct.Reg, %struct.Reg* %4, i32 0, i32 0
  %PC = bitcast %union.anon* %5 to i64*
  %6 = getelementptr inbounds %struct.State, %struct.State* %0, i32 0, i32 6
  %7 = getelementptr inbounds %struct.GPR, %struct.GPR* %6, i32 0, i32 13
  %8 = getelementptr inbounds %struct.Reg, %struct.Reg* %7, i32 0, i32 0
  %RSP = bitcast %union.anon* %8 to i64*
  %9 = load i64, i64* %RSP
  %10 = load i64, i64* %PC
  %11 = add i64 %10, 4
  store i64 %11, i64* %PC
  %12 = add i64 32, %9
  store i64 %12, i64* %RSP, align 8
  %13 = icmp ult i64 %12, %9
  %14 = icmp ult i64 %12, 32
  %15 = or i1 %13, %14
  %16 = zext i1 %15 to i8
  %17 = getelementptr inbounds %struct.State, %struct.State* %0, i64 0, i32 2, i32 1
  store i8 %16, i8* %17, align 1
  %18 = trunc i64 %12 to i32
  %19 = and i32 %18, 255
  %20 = call i32 @llvm.ctpop.i32(i32 %19)
  %21 = trunc i32 %20 to i8
  %22 = and i8 %21, 1
  %23 = xor i8 %22, 1
  %24 = getelementptr inbounds %struct.State, %struct.State* %0, i64 0, i32 2, i32 3
  store i8 %23, i8* %24, align 1
  %25 = xor i64 32, %9
  %26 = xor i64 %25, %12
  %27 = lshr i64 %26, 4
  %28 = trunc i64 %27 to i8
  %29 = and i8 %28, 1
  %30 = getelementptr inbounds %struct.State, %struct.State* %0, i64 0, i32 2, i32 5
  store i8 %29, i8* %30, align 1
  %31 = icmp eq i64 %12, 0
  %32 = zext i1 %31 to i8
  %33 = getelementptr inbounds %struct.State, %struct.State* %0, i64 0, i32 2, i32 7
  store i8 %32, i8* %33, align 1
  %34 = lshr i64 %12, 63
  %35 = trunc i64 %34 to i8
  %36 = getelementptr inbounds %struct.State, %struct.State* %0, i64 0, i32 2, i32 9
  store i8 %35, i8* %36, align 1
  %37 = lshr i64 %9, 63
  %38 = xor i64 %34, %37
  %39 = add i64 %38, %34
  %40 = icmp eq i64 %39, 2
  %41 = zext i1 %40 to i8
  %42 = getelementptr inbounds %struct.State, %struct.State* %0, i64 0, i32 2, i32 13
  store i8 %41, i8* %42, align 1
  ret %struct.Memory* %2
}

define %struct.Memory* @routine_popq__rbp(%struct.State* dereferenceable(3376), i64, %struct.Memory*) {
block_400488:
  %3 = getelementptr inbounds %struct.State, %struct.State* %0, i32 0, i32 6
  %4 = getelementptr inbounds %struct.GPR, %struct.GPR* %3, i32 0, i32 33
  %5 = getelementptr inbounds %struct.Reg, %struct.Reg* %4, i32 0, i32 0
  %PC = bitcast %union.anon* %5 to i64*
  %6 = getelementptr inbounds %struct.State, %struct.State* %0, i32 0, i32 6
  %7 = getelementptr inbounds %struct.GPR, %struct.GPR* %6, i32 0, i32 15
  %8 = getelementptr inbounds %struct.Reg, %struct.Reg* %7, i32 0, i32 0
  %RBP = bitcast %union.anon* %8 to i64*
  %9 = load i64, i64* %PC
  %10 = add i64 %9, 1
  store i64 %10, i64* %PC
  %11 = getelementptr inbounds %struct.State, %struct.State* %0, i64 0, i32 6, i32 13, i32 0, i32 0
  %12 = load i64, i64* %11, align 8
  %13 = add i64 %12, 8
  %14 = inttoptr i64 %12 to i64*
  %15 = load i64, i64* %14
  store i64 %15, i64* %RBP, align 8
  store i64 %13, i64* %11, align 8
  ret %struct.Memory* %2
}

define %struct.Memory* @routine_retq(%struct.State* dereferenceable(3376), i64, %struct.Memory*) {
block_400488:
  %3 = getelementptr inbounds %struct.State, %struct.State* %0, i32 0, i32 6
  %4 = getelementptr inbounds %struct.GPR, %struct.GPR* %3, i32 0, i32 33
  %5 = getelementptr inbounds %struct.Reg, %struct.Reg* %4, i32 0, i32 0
  %PC = bitcast %union.anon* %5 to i64*
  %6 = load i64, i64* %PC
  %7 = add i64 %6, 1
  store i64 %7, i64* %PC
  %8 = getelementptr inbounds %struct.State, %struct.State* %0, i64 0, i32 6, i32 33, i32 0, i32 0
  %9 = getelementptr inbounds %struct.State, %struct.State* %0, i64 0, i32 6, i32 13, i32 0, i32 0
  %10 = load i64, i64* %9, align 8
  %11 = inttoptr i64 %10 to i64*
  %12 = load i64, i64* %11
  store i64 %12, i64* %8, align 8
  %13 = add i64 %10, 8
  store i64 %13, i64* %9, align 8
  ret %struct.Memory* %2
}

attributes #0 = { argmemonly nounwind }
attributes #1 = { nounwind readnone }
attributes #2 = { alwaysinline }
