; ModuleID = 'mcsema/test.proposed.ll'
source_filename = "llvm-link"
target datalayout = "e-m:e-i64:64-f80:128-n8:16:32:64-S128"
target triple = "x86_64-pc-linux-gnu-elf"

%union.anon = type { i64 }
%seg_400370__init_type = type <{ [23 x i8] }>
%seg_400390__text_type = type <{ [354 x i8] }>
%seg_4004f4__fini_type = type <{ [9 x i8] }>
%seg_400500__rodata_type = type <{ [4 x i8] }>
%seg_400504__eh_frame_hdr_type = type <{ [52 x i8] }>
%seg_400538__eh_frame_type = type <{ [208 x i8] }>
%seg_601018__data_type = type <{ [16 x i8] }>
%__bss_start_type = type <{ [8 x i8] }>
%struct.State = type { %struct.ArchState, [32 x %union.VectorReg], %struct.ArithFlags, %union.anon, %struct.Segments, %struct.AddressSpace, %struct.GPR, %struct.X87Stack, %struct.MMX, %struct.FPUStatusFlags, %union.anon, %union.FPU, %struct.SegmentCaches }
%struct.ArchState = type { i32, i32, %union.anon }
%union.VectorReg = type { %union.vec512_t }
%union.vec512_t = type { %struct.uint64v8_t }
%struct.uint64v8_t = type { [8 x i64] }
%struct.ArithFlags = type { i8, i8, i8, i8, i8, i8, i8, i8, i8, i8, i8, i8, i8, i8, i8, i8 }
%struct.Segments = type { i16, %union.SegmentSelector, i16, %union.SegmentSelector, i16, %union.SegmentSelector, i16, %union.SegmentSelector, i16, %union.SegmentSelector, i16, %union.SegmentSelector }
%union.SegmentSelector = type { i16 }
%struct.AddressSpace = type { i64, %struct.Reg, i64, %struct.Reg, i64, %struct.Reg, i64, %struct.Reg, i64, %struct.Reg, i64, %struct.Reg }
%struct.Reg = type { %union.anon }
%struct.GPR = type { i64, %struct.Reg, i64, %struct.Reg, i64, %struct.Reg, i64, %struct.Reg, i64, %struct.Reg, i64, %struct.Reg, i64, %struct.Reg, i64, %struct.Reg, i64, %struct.Reg, i64, %struct.Reg, i64, %struct.Reg, i64, %struct.Reg, i64, %struct.Reg, i64, %struct.Reg, i64, %struct.Reg, i64, %struct.Reg, i64, %struct.Reg }
%struct.X87Stack = type { [8 x %struct.anon.3] }
%struct.anon.3 = type { i64, double }
%struct.MMX = type { [8 x %struct.anon.4] }
%struct.anon.4 = type { i64, %union.vec64_t }
%union.vec64_t = type { %struct.uint64v1_t }
%struct.uint64v1_t = type { [1 x i64] }
%struct.FPUStatusFlags = type { i8, i8, i8, i8, i8, i8, i8, i8, i8, i8, i8, i8, i8, i8, i8, i8, i8, i8, i8, i8, [4 x i8] }
%union.FPU = type { %struct.anon.13 }
%struct.anon.13 = type { %struct.FpuFXSAVE, [96 x i8] }
%struct.FpuFXSAVE = type { %union.SegmentSelector, %union.SegmentSelector, %union.FPUAbridgedTagWord, i8, i16, i32, %union.SegmentSelector, i16, i32, %union.SegmentSelector, i16, %union.FPUControlStatus, %union.FPUControlStatus, [8 x %struct.FPUStackElem], [16 x %union.vec128_t] }
%union.FPUAbridgedTagWord = type { i8 }
%union.FPUControlStatus = type { i32 }
%struct.FPUStackElem = type { %union.anon.11, [6 x i8] }
%union.anon.11 = type { %struct.float80_t }
%struct.float80_t = type { [10 x i8] }
%union.vec128_t = type { %struct.uint128v1_t }
%struct.uint128v1_t = type { [1 x i128] }
%struct.SegmentCaches = type { %struct.SegmentShadow, %struct.SegmentShadow, %struct.SegmentShadow, %struct.SegmentShadow, %struct.SegmentShadow, %struct.SegmentShadow }
%struct.SegmentShadow = type { %union.anon, i32, i32 }
%struct.Memory = type opaque
%struct.anon.2 = type { i8, i8 }

@switch.table = private unnamed_addr constant [4 x i32] [i32 2048, i32 3072, i32 0, i32 1024]
@DR0 = external global i64, align 8
@DR1 = external global i64, align 8
@DR2 = external global i64, align 8
@DR3 = external global i64, align 8
@DR4 = external global i64, align 8
@DR5 = external global i64, align 8
@DR6 = external global i64, align 8
@DR7 = external global i64, align 8
@gCR0 = external global %union.anon, align 1
@gCR1 = external global %union.anon, align 1
@gCR2 = external global %union.anon, align 1
@gCR3 = external global %union.anon, align 1
@gCR4 = external global %union.anon, align 1
@gCR8 = external global %union.anon, align 1
@seg_400370__init = internal constant %seg_400370__init_type <{ [23 x i8] c"H\83\EC\08H\8B\05}\0C \00H\85\C0t\02\FF\D0H\83\C4\08\C3" }>
@seg_400390__text = internal constant %seg_400390__text_type <{ [354 x i8] c"1\EDI\89\D1^H\89\E2H\83\E4\F0PTI\C7\C0\F0\04@\00H\C7\C1\80\04@\00H\C7\C7x\04@\00\FF\156\0C \00\F4\0F\1FD\00\00\F3\C3f.\0F\1F\84\00\00\00\00\00\0F\1F@\00U\B8(\10`\00H=(\10`\00H\89\E5t\17\B8\00\00\00\00H\85\C0t\0D]\BF(\10`\00\FF\E0\0F\1FD\00\00]\C3f\0F\1FD\00\00\BE(\10`\00UH\81\EE(\10`\00H\89\E5H\C1\FE\03H\89\F0H\C1\E8?H\01\C6H\D1\FEt\15\B8\00\00\00\00H\85\C0t\0B]\BF(\10`\00\FF\E0\0F\1F\00]\C3f\0F\1FD\00\00\80=\E1\0B \00\00u\17UH\89\E5\E8~\FF\FF\FF\C6\05\CF\0B \00\01]\C3\0F\1FD\00\00\F3\C3\0F\1F@\00f.\0F\1F\84\00\00\00\00\00UH\89\E5]\EB\89\90U\C3f\0F\1FD\00\00AWAVI\89\D7AUATL\8D%\BE\09 \00UH\8D-\BE\09 \00SA\89\FDI\89\F6L)\E5H\83\EC\08H\C1\FD\03\E8\BF\FE\FF\FFH\85\EDt 1\DB\0F\1F\84\00\00\00\00\00L\89\FAL\89\F6D\89\EFA\FF\14\DCH\83\C3\01H9\DDu\EAH\83\C4\08[]A\5CA]A^A_\C3\90f.\0F\1F\84\00\00\00\00\00\F3\C3" }>
@seg_4004f4__fini = internal constant %seg_4004f4__fini_type <{ [9 x i8] c"H\83\EC\08H\83\C4\08\C3" }>
@seg_400500__rodata = internal constant %seg_400500__rodata_type <{ [4 x i8] c"\01\00\02\00" }>
@seg_400504__eh_frame_hdr = internal constant %seg_400504__eh_frame_hdr_type <{ [52 x i8] c"\01\1B\03;0\00\00\00\05\00\00\00\8C\FE\FF\FFL\00\00\00\BC\FE\FF\FFx\00\00\00t\FF\FF\FF\8C\00\00\00|\FF\FF\FF\A4\00\00\00\EC\FF\FF\FF\EC\00\00\00" }>
@seg_400538__eh_frame = internal constant %seg_400538__eh_frame_type <{ [208 x i8] c"\14\00\00\00\00\00\00\00\01zR\00\01x\10\01\1B\0C\07\08\90\01\07\10\10\00\00\00\1C\00\00\008\FE\FF\FF+\00\00\00\00\00\00\00\14\00\00\00\00\00\00\00\01zR\00\01x\10\01\1B\0C\07\08\90\01\00\00\10\00\00\00\1C\00\00\00<\FE\FF\FF\02\00\00\00\00\00\00\00\14\00\00\000\00\00\00\E0\FE\FF\FF\02\00\00\00\00\00\00\00\00\00\00\00D\00\00\00H\00\00\00\D0\FE\FF\FFe\00\00\00\00B\0E\10\8F\02B\0E\18\8E\03E\0E \8D\04B\0E(\8C\05H\0E0\86\06H\0E8\83\07M\0E@r\0E8A\0E0A\0E(B\0E B\0E\18B\0E\10B\0E\08\00\10\00\00\00\90\00\00\00\F8\FE\FF\FF\02\00\00\00\00\00\00\00\00\00\00\00" }>
@seg_601018__data = internal global %seg_601018__data_type zeroinitializer
@__bss_start = global %__bss_start_type zeroinitializer
@0 = internal global i1 false

declare %struct.Memory* @__remill_error(%struct.State* dereferenceable(3376), i64, %struct.Memory*)

declare i32 @__remill_fpu_exception_test_and_clear(i32, i32)

; Function Attrs: argmemonly nounwind
declare void @llvm.lifetime.start(i64, i8* nocapture) #0

; Function Attrs: argmemonly nounwind
declare void @llvm.lifetime.end(i64, i8* nocapture) #0

; Function Attrs: nounwind readnone
declare i32 @llvm.ctpop.i32(i32) #1

; Function Attrs: nounwind readnone
declare i32 @llvm.bswap.i32(i32) #1

; Function Attrs: nounwind readnone
declare i64 @llvm.bswap.i64(i64) #1

; Function Attrs: nounwind readnone
declare i32 @llvm.cttz.i32(i32, i1) #1

; Function Attrs: nounwind readnone
declare i64 @llvm.cttz.i64(i64, i1) #1

; Function Attrs: nounwind readnone
declare i32 @llvm.ctlz.i32(i32, i1) #1

; Function Attrs: nounwind readnone
declare i64 @llvm.ctlz.i64(i64, i1) #1

; Function Attrs: argmemonly nounwind
declare void @llvm.memcpy.p0i8.p0i8.i64(i8* nocapture writeonly, i8* nocapture readonly, i64, i32, i1) #0

; Function Attrs: nounwind readnone
declare double @llvm.nearbyint.f64(double) #1

; Function Attrs: nounwind readnone
declare double @llvm.fabs.f64(double) #1

; Function Attrs: nounwind readnone
declare <4 x double> @llvm.nearbyint.v4f64(<4 x double>) #1

; Function Attrs: nounwind readnone
declare <4 x double> @llvm.fabs.v4f64(<4 x double>) #1

; Function Attrs: nounwind readnone
declare double @llvm.trunc.f64(double) #1

; Function Attrs: nounwind readnone
declare <4 x double> @llvm.trunc.v4f64(<4 x double>) #1

; Function Attrs: nounwind readnone
declare float @llvm.nearbyint.f32(float) #1

; Function Attrs: nounwind readnone
declare float @llvm.fabs.f32(float) #1

; Function Attrs: nounwind readnone
declare <4 x float> @llvm.nearbyint.v4f32(<4 x float>) #1

; Function Attrs: nounwind readnone
declare <4 x float> @llvm.fabs.v4f32(<4 x float>) #1

; Function Attrs: nounwind readnone
declare float @llvm.trunc.f32(float) #1

; Function Attrs: nounwind readnone
declare <4 x float> @llvm.trunc.v4f32(<4 x float>) #1

; Function Attrs: argmemonly nounwind
declare void @llvm.memset.p0i8.i64(i8* nocapture writeonly, i8, i64, i32, i1) #0

declare double @atan(double) local_unnamed_addr

declare double @cos(double) local_unnamed_addr

declare double @sin(double) local_unnamed_addr

declare double @sqrt(double) local_unnamed_addr

declare double @tan(double) local_unnamed_addr

declare extern_weak x86_64_sysvcc i64 @abort()

declare extern_weak x86_64_sysvcc i64 @abs(i64)

declare extern_weak x86_64_sysvcc i64 @asin(i64)

declare extern_weak x86_64_sysvcc i64 @atof(i64)

declare extern_weak x86_64_sysvcc i64 @atoi(i64)

declare extern_weak x86_64_sysvcc i64 @atol(i64)

declare extern_weak x86_64_sysvcc i64 @calloc(i64, i64)

declare extern_weak x86_64_sysvcc i64 @clock()

declare extern_weak x86_64_sysvcc i64 @cosf(i64)

declare extern_weak x86_64_sysvcc i64 @exit(i64)

declare extern_weak x86_64_sysvcc i64 @exp(i64)

declare extern_weak x86_64_sysvcc i64 @fflush(i64)

declare extern_weak x86_64_sysvcc i64 @floor(i64)

declare extern_weak x86_64_sysvcc i64 @fprintf(i64, i64, i64, i64, i64, i64, i64, i64, i64, i64, i64, i64, i64, i64, i64, i64)

declare extern_weak x86_64_sysvcc i64 @fputs(i64, i64)

declare extern_weak x86_64_sysvcc i64 @free(i64)

declare extern_weak x86_64_sysvcc i64 @fwrite(i64, i64, i64, i64)

declare extern_weak x86_64_sysvcc i64 @getchar()

declare extern_weak x86_64_sysvcc i64 @gettimeofday(i64, i64)

declare extern_weak x86_64_sysvcc i64 @__isoc99_fscanf(i64, i64, i64, i64, i64, i64, i64, i64, i64, i64, i64, i64, i64, i64, i64, i64)

declare extern_weak x86_64_sysvcc i64 @__isoc99_scanf(i64, i64, i64, i64, i64, i64, i64, i64, i64, i64, i64, i64, i64, i64, i64, i64)

declare extern_weak x86_64_sysvcc i64 @__isoc99_sscanf(i64, i64, i64, i64, i64, i64, i64, i64, i64, i64, i64, i64, i64, i64, i64, i64)

declare extern_weak x86_64_sysvcc i64 @log(i64)

declare extern_weak x86_64_sysvcc i64 @lrand48()

declare extern_weak x86_64_sysvcc i64 @malloc(i64)

declare extern_weak x86_64_sysvcc i64 @memalign(i64, i64)

declare extern_weak x86_64_sysvcc i64 @memcpy(i64, i64, i64)

declare extern_weak x86_64_sysvcc i64 @memset(i64, i64, i64)

declare extern_weak x86_64_sysvcc i64 @perror(i64)

declare extern_weak x86_64_sysvcc i64 @posix_memalign(i64, i64, i64)

declare extern_weak x86_64_sysvcc i64 @pow(i64, i64)

declare extern_weak x86_64_sysvcc i64 @printf(i64, i64, i64, i64, i64, i64, i64, i64, i64, i64, i64, i64, i64, i64, i64, i64)

declare extern_weak x86_64_sysvcc i64 @putchar(i64)

declare extern_weak x86_64_sysvcc i64 @puts(i64)

declare extern_weak x86_64_sysvcc i64 @rand()

declare extern_weak x86_64_sysvcc i64 @random()

declare extern_weak x86_64_sysvcc i64 @realloc(i64, i64)

declare extern_weak x86_64_sysvcc i64 @seed48(i64)

declare extern_weak x86_64_sysvcc i64 @sinf(i64)

declare extern_weak x86_64_sysvcc i64 @sprintf(i64, i64, i64, i64, i64, i64, i64, i64, i64, i64, i64, i64, i64, i64, i64, i64)

declare extern_weak x86_64_sysvcc i64 @srand(i64)

declare extern_weak x86_64_sysvcc i64 @strcat(i64, i64)

declare extern_weak x86_64_sysvcc i64 @strcmp(i64, i64)

declare extern_weak x86_64_sysvcc i64 @strcpy(i64, i64)

declare extern_weak x86_64_sysvcc i64 @strdup(i64)

declare extern_weak x86_64_sysvcc i64 @strlen(i64)

declare extern_weak x86_64_sysvcc i64 @strncmp(i64, i64, i64)

declare extern_weak x86_64_sysvcc i64 @strtoll(i64, i64, i64)

declare extern_weak x86_64_sysvcc i64 @time(i64)

declare extern_weak x86_64_sysvcc i64 @ungetc(i64, i64)

declare extern_weak x86_64_sysvcc i64 @pthread_join(i64, i64)

declare extern_weak x86_64_sysvcc i64 @pthread_create(i64, i64, i64, i64)

declare %struct.Memory* @__remill_function_call(%struct.State* dereferenceable(3376), i64, %struct.Memory*)

declare %struct.Memory* @ext_sqrt(%struct.State* noalias dereferenceable(3376), i64, %struct.Memory* noalias)

declare %struct.Memory* @ext_atan(%struct.State* noalias dereferenceable(3376), i64, %struct.Memory* noalias)

declare %struct.Memory* @ext_cos(%struct.State* noalias dereferenceable(3376), i64, %struct.Memory* noalias)

declare %struct.Memory* @ext_tan(%struct.State* noalias dereferenceable(3376), i64, %struct.Memory* noalias)

declare %struct.Memory* @ext_sin(%struct.State* noalias dereferenceable(3376), i64, %struct.Memory* noalias)

; Function Attrs: alwaysinline
define %struct.Memory* @_ZN34custom_multiply_multiple_variable2IaE8do_shiftEaaaaa(%struct.State* noalias, i64, %struct.Memory* noalias) #2 {
entry:
  %3 = getelementptr inbounds %struct.State, %struct.State* %0, i64 0, i32 6, i32 33, i32 0, i32 0
  store i64 %1, i64* %3, align 8
  %BRANCH_TAKEN = alloca i8, align 1
  store i8 0, i8* %BRANCH_TAKEN, align 1
  %MEMORY = alloca %struct.Memory*, align 8
  store %struct.Memory* %2, %struct.Memory** %MEMORY, align 8
  %loadMem_413800 = load %struct.Memory*, %struct.Memory** %MEMORY
  %4 = getelementptr inbounds %struct.State, %struct.State* %0, i32 0, i32 6
  %5 = getelementptr inbounds %struct.GPR, %struct.GPR* %4, i32 0, i32 33
  %6 = getelementptr inbounds %struct.Reg, %struct.Reg* %5, i32 0, i32 0
  %PC.i = bitcast %union.anon* %6 to i64*
  %7 = getelementptr inbounds %struct.State, %struct.State* %0, i32 0, i32 6
  %8 = getelementptr inbounds %struct.GPR, %struct.GPR* %7, i32 0, i32 15
  %9 = getelementptr inbounds %struct.Reg, %struct.Reg* %8, i32 0, i32 0
  %RBP.i = bitcast %union.anon* %9 to i64*
  %10 = load i64, i64* %RBP.i
  %11 = load i64, i64* %PC.i
  %12 = add i64 %11, 1
  store i64 %12, i64* %PC.i
  %13 = getelementptr inbounds %struct.State, %struct.State* %0, i64 0, i32 6, i32 13, i32 0, i32 0
  %14 = load i64, i64* %13, align 8
  %15 = add i64 %14, -8
  %16 = inttoptr i64 %15 to i64*
  store i64 %10, i64* %16
  store i64 %15, i64* %13, align 8
  store %struct.Memory* %loadMem_413800, %struct.Memory** %MEMORY
  %loadMem_413801 = load %struct.Memory*, %struct.Memory** %MEMORY
  %17 = getelementptr inbounds %struct.State, %struct.State* %0, i32 0, i32 6
  %18 = getelementptr inbounds %struct.GPR, %struct.GPR* %17, i32 0, i32 33
  %19 = getelementptr inbounds %struct.Reg, %struct.Reg* %18, i32 0, i32 0
  %PC.i54 = bitcast %union.anon* %19 to i64*
  %20 = getelementptr inbounds %struct.State, %struct.State* %0, i32 0, i32 6
  %21 = getelementptr inbounds %struct.GPR, %struct.GPR* %20, i32 0, i32 13
  %22 = getelementptr inbounds %struct.Reg, %struct.Reg* %21, i32 0, i32 0
  %RSP.i = bitcast %union.anon* %22 to i64*
  %23 = getelementptr inbounds %struct.State, %struct.State* %0, i32 0, i32 6
  %24 = getelementptr inbounds %struct.GPR, %struct.GPR* %23, i32 0, i32 15
  %25 = getelementptr inbounds %struct.Reg, %struct.Reg* %24, i32 0, i32 0
  %RBP.i55 = bitcast %union.anon* %25 to i64*
  %26 = load i64, i64* %RSP.i
  %27 = load i64, i64* %PC.i54
  %28 = add i64 %27, 3
  store i64 %28, i64* %PC.i54
  store i64 %26, i64* %RBP.i55, align 8
  store %struct.Memory* %loadMem_413801, %struct.Memory** %MEMORY
  %loadMem_413804 = load %struct.Memory*, %struct.Memory** %MEMORY
  %29 = getelementptr inbounds %struct.State, %struct.State* %0, i32 0, i32 6
  %30 = getelementptr inbounds %struct.GPR, %struct.GPR* %29, i32 0, i32 33
  %31 = getelementptr inbounds %struct.Reg, %struct.Reg* %30, i32 0, i32 0
  %PC.i52 = bitcast %union.anon* %31 to i64*
  %32 = getelementptr inbounds %struct.State, %struct.State* %0, i32 0, i32 6
  %33 = getelementptr inbounds %struct.GPR, %struct.GPR* %32, i32 0, i32 3
  %34 = getelementptr inbounds %struct.Reg, %struct.Reg* %33, i32 0, i32 0
  %RBX.i53 = bitcast %union.anon* %34 to i64*
  %35 = load i64, i64* %RBX.i53
  %36 = load i64, i64* %PC.i52
  %37 = add i64 %36, 1
  store i64 %37, i64* %PC.i52
  %38 = getelementptr inbounds %struct.State, %struct.State* %0, i64 0, i32 6, i32 13, i32 0, i32 0
  %39 = load i64, i64* %38, align 8
  %40 = add i64 %39, -8
  %41 = inttoptr i64 %40 to i64*
  store i64 %35, i64* %41
  store i64 %40, i64* %38, align 8
  store %struct.Memory* %loadMem_413804, %struct.Memory** %MEMORY
  %loadMem_413805 = load %struct.Memory*, %struct.Memory** %MEMORY
  %42 = getelementptr inbounds %struct.State, %struct.State* %0, i32 0, i32 6
  %43 = getelementptr inbounds %struct.GPR, %struct.GPR* %42, i32 0, i32 33
  %44 = getelementptr inbounds %struct.Reg, %struct.Reg* %43, i32 0, i32 0
  %PC.i50 = bitcast %union.anon* %44 to i64*
  %45 = getelementptr inbounds %struct.State, %struct.State* %0, i32 0, i32 6
  %46 = getelementptr inbounds %struct.GPR, %struct.GPR* %45, i32 0, i32 1
  %47 = getelementptr inbounds %struct.Reg, %struct.Reg* %46, i32 0, i32 0
  %48 = bitcast %union.anon* %47 to %struct.anon.2*
  %AL.i51 = getelementptr inbounds %struct.anon.2, %struct.anon.2* %48, i32 0, i32 0
  %49 = getelementptr inbounds %struct.State, %struct.State* %0, i32 0, i32 6
  %50 = getelementptr inbounds %struct.GPR, %struct.GPR* %49, i32 0, i32 17
  %51 = getelementptr inbounds %struct.Reg, %struct.Reg* %50, i32 0, i32 0
  %52 = bitcast %union.anon* %51 to %struct.anon.2*
  %R8B.i = getelementptr inbounds %struct.anon.2, %struct.anon.2* %52, i32 0, i32 0
  %53 = load i8, i8* %R8B.i
  %54 = zext i8 %53 to i64
  %55 = load i64, i64* %PC.i50
  %56 = add i64 %55, 3
  store i64 %56, i64* %PC.i50
  store i8 %53, i8* %AL.i51, align 1
  store %struct.Memory* %loadMem_413805, %struct.Memory** %MEMORY
  %loadMem_413808 = load %struct.Memory*, %struct.Memory** %MEMORY
  %57 = getelementptr inbounds %struct.State, %struct.State* %0, i32 0, i32 6
  %58 = getelementptr inbounds %struct.GPR, %struct.GPR* %57, i32 0, i32 33
  %59 = getelementptr inbounds %struct.Reg, %struct.Reg* %58, i32 0, i32 0
  %PC.i47 = bitcast %union.anon* %59 to i64*
  %60 = getelementptr inbounds %struct.State, %struct.State* %0, i32 0, i32 6
  %61 = getelementptr inbounds %struct.GPR, %struct.GPR* %60, i32 0, i32 5
  %62 = getelementptr inbounds %struct.Reg, %struct.Reg* %61, i32 0, i32 0
  %63 = bitcast %union.anon* %62 to %struct.anon.2*
  %CL.i48 = getelementptr inbounds %struct.anon.2, %struct.anon.2* %63, i32 0, i32 0
  %64 = getelementptr inbounds %struct.State, %struct.State* %0, i32 0, i32 6
  %65 = getelementptr inbounds %struct.GPR, %struct.GPR* %64, i32 0, i32 19
  %66 = getelementptr inbounds %struct.Reg, %struct.Reg* %65, i32 0, i32 0
  %67 = bitcast %union.anon* %66 to %struct.anon.2*
  %R9B.i49 = getelementptr inbounds %struct.anon.2, %struct.anon.2* %67, i32 0, i32 0
  %68 = load i8, i8* %CL.i48
  %69 = zext i8 %68 to i64
  %70 = load i64, i64* %PC.i47
  %71 = add i64 %70, 3
  store i64 %71, i64* %PC.i47
  store i8 %68, i8* %R9B.i49, align 1
  store %struct.Memory* %loadMem_413808, %struct.Memory** %MEMORY
  %loadMem_41380b = load %struct.Memory*, %struct.Memory** %MEMORY
  %72 = getelementptr inbounds %struct.State, %struct.State* %0, i32 0, i32 6
  %73 = getelementptr inbounds %struct.GPR, %struct.GPR* %72, i32 0, i32 33
  %74 = getelementptr inbounds %struct.Reg, %struct.Reg* %73, i32 0, i32 0
  %PC.i45 = bitcast %union.anon* %74 to i64*
  %75 = getelementptr inbounds %struct.State, %struct.State* %0, i32 0, i32 6
  %76 = getelementptr inbounds %struct.GPR, %struct.GPR* %75, i32 0, i32 7
  %77 = getelementptr inbounds %struct.Reg, %struct.Reg* %76, i32 0, i32 0
  %78 = bitcast %union.anon* %77 to %struct.anon.2*
  %DL.i = getelementptr inbounds %struct.anon.2, %struct.anon.2* %78, i32 0, i32 0
  %79 = getelementptr inbounds %struct.State, %struct.State* %0, i32 0, i32 6
  %80 = getelementptr inbounds %struct.GPR, %struct.GPR* %79, i32 0, i32 21
  %81 = getelementptr inbounds %struct.Reg, %struct.Reg* %80, i32 0, i32 0
  %82 = bitcast %union.anon* %81 to %struct.anon.2*
  %R10B.i46 = getelementptr inbounds %struct.anon.2, %struct.anon.2* %82, i32 0, i32 0
  %83 = load i8, i8* %DL.i
  %84 = zext i8 %83 to i64
  %85 = load i64, i64* %PC.i45
  %86 = add i64 %85, 3
  store i64 %86, i64* %PC.i45
  store i8 %83, i8* %R10B.i46, align 1
  store %struct.Memory* %loadMem_41380b, %struct.Memory** %MEMORY
  %loadMem_41380e = load %struct.Memory*, %struct.Memory** %MEMORY
  %87 = getelementptr inbounds %struct.State, %struct.State* %0, i32 0, i32 6
  %88 = getelementptr inbounds %struct.GPR, %struct.GPR* %87, i32 0, i32 33
  %89 = getelementptr inbounds %struct.Reg, %struct.Reg* %88, i32 0, i32 0
  %PC.i43 = bitcast %union.anon* %89 to i64*
  %90 = getelementptr inbounds %struct.State, %struct.State* %0, i32 0, i32 6
  %91 = getelementptr inbounds %struct.GPR, %struct.GPR* %90, i32 0, i32 9
  %92 = getelementptr inbounds %struct.Reg, %struct.Reg* %91, i32 0, i32 0
  %93 = bitcast %union.anon* %92 to %struct.anon.2*
  %SIL.i = getelementptr inbounds %struct.anon.2, %struct.anon.2* %93, i32 0, i32 0
  %94 = getelementptr inbounds %struct.State, %struct.State* %0, i32 0, i32 6
  %95 = getelementptr inbounds %struct.GPR, %struct.GPR* %94, i32 0, i32 23
  %96 = getelementptr inbounds %struct.Reg, %struct.Reg* %95, i32 0, i32 0
  %97 = bitcast %union.anon* %96 to %struct.anon.2*
  %R11B.i44 = getelementptr inbounds %struct.anon.2, %struct.anon.2* %97, i32 0, i32 0
  %98 = load i8, i8* %SIL.i
  %99 = zext i8 %98 to i64
  %100 = load i64, i64* %PC.i43
  %101 = add i64 %100, 3
  store i64 %101, i64* %PC.i43
  store i8 %98, i8* %R11B.i44, align 1
  store %struct.Memory* %loadMem_41380e, %struct.Memory** %MEMORY
  %loadMem_413811 = load %struct.Memory*, %struct.Memory** %MEMORY
  %102 = getelementptr inbounds %struct.State, %struct.State* %0, i32 0, i32 6
  %103 = getelementptr inbounds %struct.GPR, %struct.GPR* %102, i32 0, i32 33
  %104 = getelementptr inbounds %struct.Reg, %struct.Reg* %103, i32 0, i32 0
  %PC.i41 = bitcast %union.anon* %104 to i64*
  %105 = getelementptr inbounds %struct.State, %struct.State* %0, i32 0, i32 6
  %106 = getelementptr inbounds %struct.GPR, %struct.GPR* %105, i32 0, i32 3
  %107 = getelementptr inbounds %struct.Reg, %struct.Reg* %106, i32 0, i32 0
  %108 = bitcast %union.anon* %107 to %struct.anon.2*
  %BL.i42 = getelementptr inbounds %struct.anon.2, %struct.anon.2* %108, i32 0, i32 0
  %109 = getelementptr inbounds %struct.State, %struct.State* %0, i32 0, i32 6
  %110 = getelementptr inbounds %struct.GPR, %struct.GPR* %109, i32 0, i32 11
  %111 = getelementptr inbounds %struct.Reg, %struct.Reg* %110, i32 0, i32 0
  %112 = bitcast %union.anon* %111 to %struct.anon.2*
  %DIL.i = getelementptr inbounds %struct.anon.2, %struct.anon.2* %112, i32 0, i32 0
  %113 = load i8, i8* %DIL.i
  %114 = zext i8 %113 to i64
  %115 = load i64, i64* %PC.i41
  %116 = add i64 %115, 3
  store i64 %116, i64* %PC.i41
  store i8 %113, i8* %BL.i42, align 1
  store %struct.Memory* %loadMem_413811, %struct.Memory** %MEMORY
  %loadMem_413814 = load %struct.Memory*, %struct.Memory** %MEMORY
  %117 = getelementptr inbounds %struct.State, %struct.State* %0, i32 0, i32 6
  %118 = getelementptr inbounds %struct.GPR, %struct.GPR* %117, i32 0, i32 33
  %119 = getelementptr inbounds %struct.Reg, %struct.Reg* %118, i32 0, i32 0
  %PC.i39 = bitcast %union.anon* %119 to i64*
  %120 = getelementptr inbounds %struct.State, %struct.State* %0, i32 0, i32 6
  %121 = getelementptr inbounds %struct.GPR, %struct.GPR* %120, i32 0, i32 3
  %122 = getelementptr inbounds %struct.Reg, %struct.Reg* %121, i32 0, i32 0
  %123 = bitcast %union.anon* %122 to %struct.anon.2*
  %BL.i = getelementptr inbounds %struct.anon.2, %struct.anon.2* %123, i32 0, i32 0
  %124 = getelementptr inbounds %struct.State, %struct.State* %0, i32 0, i32 6
  %125 = getelementptr inbounds %struct.GPR, %struct.GPR* %124, i32 0, i32 15
  %126 = getelementptr inbounds %struct.Reg, %struct.Reg* %125, i32 0, i32 0
  %RBP.i40 = bitcast %union.anon* %126 to i64*
  %127 = load i64, i64* %RBP.i40
  %128 = sub i64 %127, 9
  %129 = load i8, i8* %BL.i
  %130 = zext i8 %129 to i64
  %131 = load i64, i64* %PC.i39
  %132 = add i64 %131, 3
  store i64 %132, i64* %PC.i39
  %133 = inttoptr i64 %128 to i8*
  store i8 %129, i8* %133
  store %struct.Memory* %loadMem_413814, %struct.Memory** %MEMORY
  %loadMem_413817 = load %struct.Memory*, %struct.Memory** %MEMORY
  %134 = getelementptr inbounds %struct.State, %struct.State* %0, i32 0, i32 6
  %135 = getelementptr inbounds %struct.GPR, %struct.GPR* %134, i32 0, i32 33
  %136 = getelementptr inbounds %struct.Reg, %struct.Reg* %135, i32 0, i32 0
  %PC.i37 = bitcast %union.anon* %136 to i64*
  %137 = getelementptr inbounds %struct.State, %struct.State* %0, i32 0, i32 6
  %138 = getelementptr inbounds %struct.GPR, %struct.GPR* %137, i32 0, i32 23
  %139 = getelementptr inbounds %struct.Reg, %struct.Reg* %138, i32 0, i32 0
  %140 = bitcast %union.anon* %139 to %struct.anon.2*
  %R11B.i = getelementptr inbounds %struct.anon.2, %struct.anon.2* %140, i32 0, i32 0
  %141 = getelementptr inbounds %struct.State, %struct.State* %0, i32 0, i32 6
  %142 = getelementptr inbounds %struct.GPR, %struct.GPR* %141, i32 0, i32 15
  %143 = getelementptr inbounds %struct.Reg, %struct.Reg* %142, i32 0, i32 0
  %RBP.i38 = bitcast %union.anon* %143 to i64*
  %144 = load i64, i64* %RBP.i38
  %145 = sub i64 %144, 10
  %146 = load i8, i8* %R11B.i
  %147 = zext i8 %146 to i64
  %148 = load i64, i64* %PC.i37
  %149 = add i64 %148, 4
  store i64 %149, i64* %PC.i37
  %150 = inttoptr i64 %145 to i8*
  store i8 %146, i8* %150
  store %struct.Memory* %loadMem_413817, %struct.Memory** %MEMORY
  %loadMem_41381b = load %struct.Memory*, %struct.Memory** %MEMORY
  %151 = getelementptr inbounds %struct.State, %struct.State* %0, i32 0, i32 6
  %152 = getelementptr inbounds %struct.GPR, %struct.GPR* %151, i32 0, i32 33
  %153 = getelementptr inbounds %struct.Reg, %struct.Reg* %152, i32 0, i32 0
  %PC.i35 = bitcast %union.anon* %153 to i64*
  %154 = getelementptr inbounds %struct.State, %struct.State* %0, i32 0, i32 6
  %155 = getelementptr inbounds %struct.GPR, %struct.GPR* %154, i32 0, i32 21
  %156 = getelementptr inbounds %struct.Reg, %struct.Reg* %155, i32 0, i32 0
  %157 = bitcast %union.anon* %156 to %struct.anon.2*
  %R10B.i = getelementptr inbounds %struct.anon.2, %struct.anon.2* %157, i32 0, i32 0
  %158 = getelementptr inbounds %struct.State, %struct.State* %0, i32 0, i32 6
  %159 = getelementptr inbounds %struct.GPR, %struct.GPR* %158, i32 0, i32 15
  %160 = getelementptr inbounds %struct.Reg, %struct.Reg* %159, i32 0, i32 0
  %RBP.i36 = bitcast %union.anon* %160 to i64*
  %161 = load i64, i64* %RBP.i36
  %162 = sub i64 %161, 11
  %163 = load i8, i8* %R10B.i
  %164 = zext i8 %163 to i64
  %165 = load i64, i64* %PC.i35
  %166 = add i64 %165, 4
  store i64 %166, i64* %PC.i35
  %167 = inttoptr i64 %162 to i8*
  store i8 %163, i8* %167
  store %struct.Memory* %loadMem_41381b, %struct.Memory** %MEMORY
  %loadMem_41381f = load %struct.Memory*, %struct.Memory** %MEMORY
  %168 = getelementptr inbounds %struct.State, %struct.State* %0, i32 0, i32 6
  %169 = getelementptr inbounds %struct.GPR, %struct.GPR* %168, i32 0, i32 33
  %170 = getelementptr inbounds %struct.Reg, %struct.Reg* %169, i32 0, i32 0
  %PC.i33 = bitcast %union.anon* %170 to i64*
  %171 = getelementptr inbounds %struct.State, %struct.State* %0, i32 0, i32 6
  %172 = getelementptr inbounds %struct.GPR, %struct.GPR* %171, i32 0, i32 19
  %173 = getelementptr inbounds %struct.Reg, %struct.Reg* %172, i32 0, i32 0
  %174 = bitcast %union.anon* %173 to %struct.anon.2*
  %R9B.i = getelementptr inbounds %struct.anon.2, %struct.anon.2* %174, i32 0, i32 0
  %175 = getelementptr inbounds %struct.State, %struct.State* %0, i32 0, i32 6
  %176 = getelementptr inbounds %struct.GPR, %struct.GPR* %175, i32 0, i32 15
  %177 = getelementptr inbounds %struct.Reg, %struct.Reg* %176, i32 0, i32 0
  %RBP.i34 = bitcast %union.anon* %177 to i64*
  %178 = load i64, i64* %RBP.i34
  %179 = sub i64 %178, 12
  %180 = load i8, i8* %R9B.i
  %181 = zext i8 %180 to i64
  %182 = load i64, i64* %PC.i33
  %183 = add i64 %182, 4
  store i64 %183, i64* %PC.i33
  %184 = inttoptr i64 %179 to i8*
  store i8 %180, i8* %184
  store %struct.Memory* %loadMem_41381f, %struct.Memory** %MEMORY
  %loadMem_413823 = load %struct.Memory*, %struct.Memory** %MEMORY
  %185 = getelementptr inbounds %struct.State, %struct.State* %0, i32 0, i32 6
  %186 = getelementptr inbounds %struct.GPR, %struct.GPR* %185, i32 0, i32 33
  %187 = getelementptr inbounds %struct.Reg, %struct.Reg* %186, i32 0, i32 0
  %PC.i30 = bitcast %union.anon* %187 to i64*
  %188 = getelementptr inbounds %struct.State, %struct.State* %0, i32 0, i32 6
  %189 = getelementptr inbounds %struct.GPR, %struct.GPR* %188, i32 0, i32 1
  %190 = getelementptr inbounds %struct.Reg, %struct.Reg* %189, i32 0, i32 0
  %191 = bitcast %union.anon* %190 to %struct.anon.2*
  %AL.i31 = getelementptr inbounds %struct.anon.2, %struct.anon.2* %191, i32 0, i32 0
  %192 = getelementptr inbounds %struct.State, %struct.State* %0, i32 0, i32 6
  %193 = getelementptr inbounds %struct.GPR, %struct.GPR* %192, i32 0, i32 15
  %194 = getelementptr inbounds %struct.Reg, %struct.Reg* %193, i32 0, i32 0
  %RBP.i32 = bitcast %union.anon* %194 to i64*
  %195 = load i64, i64* %RBP.i32
  %196 = sub i64 %195, 13
  %197 = load i8, i8* %AL.i31
  %198 = zext i8 %197 to i64
  %199 = load i64, i64* %PC.i30
  %200 = add i64 %199, 3
  store i64 %200, i64* %PC.i30
  %201 = inttoptr i64 %196 to i8*
  store i8 %197, i8* %201
  store %struct.Memory* %loadMem_413823, %struct.Memory** %MEMORY
  %loadMem_413826 = load %struct.Memory*, %struct.Memory** %MEMORY
  %202 = getelementptr inbounds %struct.State, %struct.State* %0, i32 0, i32 6
  %203 = getelementptr inbounds %struct.GPR, %struct.GPR* %202, i32 0, i32 33
  %204 = getelementptr inbounds %struct.Reg, %struct.Reg* %203, i32 0, i32 0
  %PC.i27 = bitcast %union.anon* %204 to i64*
  %205 = getelementptr inbounds %struct.State, %struct.State* %0, i32 0, i32 6
  %206 = getelementptr inbounds %struct.GPR, %struct.GPR* %205, i32 0, i32 5
  %207 = getelementptr inbounds %struct.Reg, %struct.Reg* %206, i32 0, i32 0
  %RCX.i28 = bitcast %union.anon* %207 to i64*
  %208 = getelementptr inbounds %struct.State, %struct.State* %0, i32 0, i32 6
  %209 = getelementptr inbounds %struct.GPR, %struct.GPR* %208, i32 0, i32 15
  %210 = getelementptr inbounds %struct.Reg, %struct.Reg* %209, i32 0, i32 0
  %RBP.i29 = bitcast %union.anon* %210 to i64*
  %211 = load i64, i64* %RBP.i29
  %212 = sub i64 %211, 9
  %213 = load i64, i64* %PC.i27
  %214 = add i64 %213, 4
  store i64 %214, i64* %PC.i27
  %215 = inttoptr i64 %212 to i8*
  %216 = load i8, i8* %215
  %217 = sext i8 %216 to i64
  %218 = and i64 %217, 4294967295
  store i64 %218, i64* %RCX.i28, align 8
  store %struct.Memory* %loadMem_413826, %struct.Memory** %MEMORY
  %loadMem_41382a = load %struct.Memory*, %struct.Memory** %MEMORY
  %219 = getelementptr inbounds %struct.State, %struct.State* %0, i32 0, i32 6
  %220 = getelementptr inbounds %struct.GPR, %struct.GPR* %219, i32 0, i32 33
  %221 = getelementptr inbounds %struct.Reg, %struct.Reg* %220, i32 0, i32 0
  %PC.i24 = bitcast %union.anon* %221 to i64*
  %222 = getelementptr inbounds %struct.State, %struct.State* %0, i32 0, i32 6
  %223 = getelementptr inbounds %struct.GPR, %struct.GPR* %222, i32 0, i32 7
  %224 = getelementptr inbounds %struct.Reg, %struct.Reg* %223, i32 0, i32 0
  %RDX.i25 = bitcast %union.anon* %224 to i64*
  %225 = getelementptr inbounds %struct.State, %struct.State* %0, i32 0, i32 6
  %226 = getelementptr inbounds %struct.GPR, %struct.GPR* %225, i32 0, i32 15
  %227 = getelementptr inbounds %struct.Reg, %struct.Reg* %226, i32 0, i32 0
  %RBP.i26 = bitcast %union.anon* %227 to i64*
  %228 = load i64, i64* %RBP.i26
  %229 = sub i64 %228, 10
  %230 = load i64, i64* %PC.i24
  %231 = add i64 %230, 4
  store i64 %231, i64* %PC.i24
  %232 = inttoptr i64 %229 to i8*
  %233 = load i8, i8* %232
  %234 = sext i8 %233 to i64
  %235 = and i64 %234, 4294967295
  store i64 %235, i64* %RDX.i25, align 8
  store %struct.Memory* %loadMem_41382a, %struct.Memory** %MEMORY
  %loadMem_41382e = load %struct.Memory*, %struct.Memory** %MEMORY
  %236 = getelementptr inbounds %struct.State, %struct.State* %0, i32 0, i32 6
  %237 = getelementptr inbounds %struct.GPR, %struct.GPR* %236, i32 0, i32 33
  %238 = getelementptr inbounds %struct.Reg, %struct.Reg* %237, i32 0, i32 0
  %PC.i21 = bitcast %union.anon* %238 to i64*
  %239 = getelementptr inbounds %struct.State, %struct.State* %0, i32 0, i32 6
  %240 = getelementptr inbounds %struct.GPR, %struct.GPR* %239, i32 0, i32 9
  %241 = getelementptr inbounds %struct.Reg, %struct.Reg* %240, i32 0, i32 0
  %RSI.i22 = bitcast %union.anon* %241 to i64*
  %242 = getelementptr inbounds %struct.State, %struct.State* %0, i32 0, i32 6
  %243 = getelementptr inbounds %struct.GPR, %struct.GPR* %242, i32 0, i32 15
  %244 = getelementptr inbounds %struct.Reg, %struct.Reg* %243, i32 0, i32 0
  %RBP.i23 = bitcast %union.anon* %244 to i64*
  %245 = load i64, i64* %RBP.i23
  %246 = sub i64 %245, 11
  %247 = load i64, i64* %PC.i21
  %248 = add i64 %247, 4
  store i64 %248, i64* %PC.i21
  %249 = inttoptr i64 %246 to i8*
  %250 = load i8, i8* %249
  %251 = sext i8 %250 to i64
  %252 = and i64 %251, 4294967295
  store i64 %252, i64* %RSI.i22, align 8
  store %struct.Memory* %loadMem_41382e, %struct.Memory** %MEMORY
  %loadMem_413832 = load %struct.Memory*, %struct.Memory** %MEMORY
  %253 = getelementptr inbounds %struct.State, %struct.State* %0, i32 0, i32 6
  %254 = getelementptr inbounds %struct.GPR, %struct.GPR* %253, i32 0, i32 33
  %255 = getelementptr inbounds %struct.Reg, %struct.Reg* %254, i32 0, i32 0
  %PC.i18 = bitcast %union.anon* %255 to i64*
  %256 = getelementptr inbounds %struct.State, %struct.State* %0, i32 0, i32 6
  %257 = getelementptr inbounds %struct.GPR, %struct.GPR* %256, i32 0, i32 9
  %258 = getelementptr inbounds %struct.Reg, %struct.Reg* %257, i32 0, i32 0
  %ESI.i19 = bitcast %union.anon* %258 to i32*
  %259 = getelementptr inbounds %struct.State, %struct.State* %0, i32 0, i32 6
  %260 = getelementptr inbounds %struct.GPR, %struct.GPR* %259, i32 0, i32 7
  %261 = getelementptr inbounds %struct.Reg, %struct.Reg* %260, i32 0, i32 0
  %RDX.i20 = bitcast %union.anon* %261 to i64*
  %262 = load i64, i64* %RDX.i20
  %263 = load i32, i32* %ESI.i19
  %264 = zext i32 %263 to i64
  %265 = load i64, i64* %PC.i18
  %266 = add i64 %265, 3
  store i64 %266, i64* %PC.i18
  %267 = shl i64 %262, 32
  %268 = ashr exact i64 %267, 32
  %269 = shl i64 %264, 32
  %270 = ashr exact i64 %269, 32
  %271 = mul i64 %270, %268
  %272 = trunc i64 %271 to i32
  %273 = and i64 %271, 4294967295
  store i64 %273, i64* %RDX.i20, align 8
  %274 = shl i64 %271, 32
  %275 = ashr exact i64 %274, 32
  %276 = icmp ne i64 %275, %271
  %277 = zext i1 %276 to i8
  %278 = getelementptr inbounds %struct.State, %struct.State* %0, i64 0, i32 2, i32 1
  store i8 %277, i8* %278, align 1
  %279 = and i32 %272, 255
  %280 = call i32 @llvm.ctpop.i32(i32 %279)
  %281 = trunc i32 %280 to i8
  %282 = and i8 %281, 1
  %283 = xor i8 %282, 1
  %284 = getelementptr inbounds %struct.State, %struct.State* %0, i64 0, i32 2, i32 3
  store i8 %283, i8* %284, align 1
  %285 = getelementptr inbounds %struct.State, %struct.State* %0, i64 0, i32 2, i32 5
  store i8 0, i8* %285, align 1
  %286 = getelementptr inbounds %struct.State, %struct.State* %0, i64 0, i32 2, i32 7
  store i8 0, i8* %286, align 1
  %287 = lshr i32 %272, 31
  %288 = trunc i32 %287 to i8
  %289 = getelementptr inbounds %struct.State, %struct.State* %0, i64 0, i32 2, i32 9
  store i8 %288, i8* %289, align 1
  %290 = getelementptr inbounds %struct.State, %struct.State* %0, i64 0, i32 2, i32 13
  store i8 %277, i8* %290, align 1
  store %struct.Memory* %loadMem_413832, %struct.Memory** %MEMORY
  %loadMem_413835 = load %struct.Memory*, %struct.Memory** %MEMORY
  %291 = getelementptr inbounds %struct.State, %struct.State* %0, i32 0, i32 6
  %292 = getelementptr inbounds %struct.GPR, %struct.GPR* %291, i32 0, i32 33
  %293 = getelementptr inbounds %struct.Reg, %struct.Reg* %292, i32 0, i32 0
  %PC.i15 = bitcast %union.anon* %293 to i64*
  %294 = getelementptr inbounds %struct.State, %struct.State* %0, i32 0, i32 6
  %295 = getelementptr inbounds %struct.GPR, %struct.GPR* %294, i32 0, i32 9
  %296 = getelementptr inbounds %struct.Reg, %struct.Reg* %295, i32 0, i32 0
  %RSI.i16 = bitcast %union.anon* %296 to i64*
  %297 = getelementptr inbounds %struct.State, %struct.State* %0, i32 0, i32 6
  %298 = getelementptr inbounds %struct.GPR, %struct.GPR* %297, i32 0, i32 15
  %299 = getelementptr inbounds %struct.Reg, %struct.Reg* %298, i32 0, i32 0
  %RBP.i17 = bitcast %union.anon* %299 to i64*
  %300 = load i64, i64* %RBP.i17
  %301 = sub i64 %300, 12
  %302 = load i64, i64* %PC.i15
  %303 = add i64 %302, 4
  store i64 %303, i64* %PC.i15
  %304 = inttoptr i64 %301 to i8*
  %305 = load i8, i8* %304
  %306 = sext i8 %305 to i64
  %307 = and i64 %306, 4294967295
  store i64 %307, i64* %RSI.i16, align 8
  store %struct.Memory* %loadMem_413835, %struct.Memory** %MEMORY
  %loadMem_413839 = load %struct.Memory*, %struct.Memory** %MEMORY
  %308 = getelementptr inbounds %struct.State, %struct.State* %0, i32 0, i32 6
  %309 = getelementptr inbounds %struct.GPR, %struct.GPR* %308, i32 0, i32 33
  %310 = getelementptr inbounds %struct.Reg, %struct.Reg* %309, i32 0, i32 0
  %PC.i12 = bitcast %union.anon* %310 to i64*
  %311 = getelementptr inbounds %struct.State, %struct.State* %0, i32 0, i32 6
  %312 = getelementptr inbounds %struct.GPR, %struct.GPR* %311, i32 0, i32 9
  %313 = getelementptr inbounds %struct.Reg, %struct.Reg* %312, i32 0, i32 0
  %ESI.i13 = bitcast %union.anon* %313 to i32*
  %314 = getelementptr inbounds %struct.State, %struct.State* %0, i32 0, i32 6
  %315 = getelementptr inbounds %struct.GPR, %struct.GPR* %314, i32 0, i32 7
  %316 = getelementptr inbounds %struct.Reg, %struct.Reg* %315, i32 0, i32 0
  %RDX.i14 = bitcast %union.anon* %316 to i64*
  %317 = load i64, i64* %RDX.i14
  %318 = load i32, i32* %ESI.i13
  %319 = zext i32 %318 to i64
  %320 = load i64, i64* %PC.i12
  %321 = add i64 %320, 3
  store i64 %321, i64* %PC.i12
  %322 = shl i64 %317, 32
  %323 = ashr exact i64 %322, 32
  %324 = shl i64 %319, 32
  %325 = ashr exact i64 %324, 32
  %326 = mul i64 %325, %323
  %327 = trunc i64 %326 to i32
  %328 = and i64 %326, 4294967295
  store i64 %328, i64* %RDX.i14, align 8
  %329 = shl i64 %326, 32
  %330 = ashr exact i64 %329, 32
  %331 = icmp ne i64 %330, %326
  %332 = zext i1 %331 to i8
  %333 = getelementptr inbounds %struct.State, %struct.State* %0, i64 0, i32 2, i32 1
  store i8 %332, i8* %333, align 1
  %334 = and i32 %327, 255
  %335 = call i32 @llvm.ctpop.i32(i32 %334)
  %336 = trunc i32 %335 to i8
  %337 = and i8 %336, 1
  %338 = xor i8 %337, 1
  %339 = getelementptr inbounds %struct.State, %struct.State* %0, i64 0, i32 2, i32 3
  store i8 %338, i8* %339, align 1
  %340 = getelementptr inbounds %struct.State, %struct.State* %0, i64 0, i32 2, i32 5
  store i8 0, i8* %340, align 1
  %341 = getelementptr inbounds %struct.State, %struct.State* %0, i64 0, i32 2, i32 7
  store i8 0, i8* %341, align 1
  %342 = lshr i32 %327, 31
  %343 = trunc i32 %342 to i8
  %344 = getelementptr inbounds %struct.State, %struct.State* %0, i64 0, i32 2, i32 9
  store i8 %343, i8* %344, align 1
  %345 = getelementptr inbounds %struct.State, %struct.State* %0, i64 0, i32 2, i32 13
  store i8 %332, i8* %345, align 1
  store %struct.Memory* %loadMem_413839, %struct.Memory** %MEMORY
  %loadMem_41383c = load %struct.Memory*, %struct.Memory** %MEMORY
  %346 = getelementptr inbounds %struct.State, %struct.State* %0, i32 0, i32 6
  %347 = getelementptr inbounds %struct.GPR, %struct.GPR* %346, i32 0, i32 33
  %348 = getelementptr inbounds %struct.Reg, %struct.Reg* %347, i32 0, i32 0
  %PC.i10 = bitcast %union.anon* %348 to i64*
  %349 = getelementptr inbounds %struct.State, %struct.State* %0, i32 0, i32 6
  %350 = getelementptr inbounds %struct.GPR, %struct.GPR* %349, i32 0, i32 9
  %351 = getelementptr inbounds %struct.Reg, %struct.Reg* %350, i32 0, i32 0
  %RSI.i = bitcast %union.anon* %351 to i64*
  %352 = getelementptr inbounds %struct.State, %struct.State* %0, i32 0, i32 6
  %353 = getelementptr inbounds %struct.GPR, %struct.GPR* %352, i32 0, i32 15
  %354 = getelementptr inbounds %struct.Reg, %struct.Reg* %353, i32 0, i32 0
  %RBP.i11 = bitcast %union.anon* %354 to i64*
  %355 = load i64, i64* %RBP.i11
  %356 = sub i64 %355, 13
  %357 = load i64, i64* %PC.i10
  %358 = add i64 %357, 4
  store i64 %358, i64* %PC.i10
  %359 = inttoptr i64 %356 to i8*
  %360 = load i8, i8* %359
  %361 = sext i8 %360 to i64
  %362 = and i64 %361, 4294967295
  store i64 %362, i64* %RSI.i, align 8
  store %struct.Memory* %loadMem_41383c, %struct.Memory** %MEMORY
  %loadMem_413840 = load %struct.Memory*, %struct.Memory** %MEMORY
  %363 = getelementptr inbounds %struct.State, %struct.State* %0, i32 0, i32 6
  %364 = getelementptr inbounds %struct.GPR, %struct.GPR* %363, i32 0, i32 33
  %365 = getelementptr inbounds %struct.Reg, %struct.Reg* %364, i32 0, i32 0
  %PC.i9 = bitcast %union.anon* %365 to i64*
  %366 = getelementptr inbounds %struct.State, %struct.State* %0, i32 0, i32 6
  %367 = getelementptr inbounds %struct.GPR, %struct.GPR* %366, i32 0, i32 9
  %368 = getelementptr inbounds %struct.Reg, %struct.Reg* %367, i32 0, i32 0
  %ESI.i = bitcast %union.anon* %368 to i32*
  %369 = getelementptr inbounds %struct.State, %struct.State* %0, i32 0, i32 6
  %370 = getelementptr inbounds %struct.GPR, %struct.GPR* %369, i32 0, i32 7
  %371 = getelementptr inbounds %struct.Reg, %struct.Reg* %370, i32 0, i32 0
  %RDX.i = bitcast %union.anon* %371 to i64*
  %372 = load i64, i64* %RDX.i
  %373 = load i32, i32* %ESI.i
  %374 = zext i32 %373 to i64
  %375 = load i64, i64* %PC.i9
  %376 = add i64 %375, 3
  store i64 %376, i64* %PC.i9
  %377 = shl i64 %372, 32
  %378 = ashr exact i64 %377, 32
  %379 = shl i64 %374, 32
  %380 = ashr exact i64 %379, 32
  %381 = mul i64 %380, %378
  %382 = trunc i64 %381 to i32
  %383 = and i64 %381, 4294967295
  store i64 %383, i64* %RDX.i, align 8
  %384 = shl i64 %381, 32
  %385 = ashr exact i64 %384, 32
  %386 = icmp ne i64 %385, %381
  %387 = zext i1 %386 to i8
  %388 = getelementptr inbounds %struct.State, %struct.State* %0, i64 0, i32 2, i32 1
  store i8 %387, i8* %388, align 1
  %389 = and i32 %382, 255
  %390 = call i32 @llvm.ctpop.i32(i32 %389)
  %391 = trunc i32 %390 to i8
  %392 = and i8 %391, 1
  %393 = xor i8 %392, 1
  %394 = getelementptr inbounds %struct.State, %struct.State* %0, i64 0, i32 2, i32 3
  store i8 %393, i8* %394, align 1
  %395 = getelementptr inbounds %struct.State, %struct.State* %0, i64 0, i32 2, i32 5
  store i8 0, i8* %395, align 1
  %396 = getelementptr inbounds %struct.State, %struct.State* %0, i64 0, i32 2, i32 7
  store i8 0, i8* %396, align 1
  %397 = lshr i32 %382, 31
  %398 = trunc i32 %397 to i8
  %399 = getelementptr inbounds %struct.State, %struct.State* %0, i64 0, i32 2, i32 9
  store i8 %398, i8* %399, align 1
  %400 = getelementptr inbounds %struct.State, %struct.State* %0, i64 0, i32 2, i32 13
  store i8 %387, i8* %400, align 1
  store %struct.Memory* %loadMem_413840, %struct.Memory** %MEMORY
  %loadMem_413843 = load %struct.Memory*, %struct.Memory** %MEMORY
  %401 = getelementptr inbounds %struct.State, %struct.State* %0, i32 0, i32 6
  %402 = getelementptr inbounds %struct.GPR, %struct.GPR* %401, i32 0, i32 33
  %403 = getelementptr inbounds %struct.Reg, %struct.Reg* %402, i32 0, i32 0
  %PC.i8 = bitcast %union.anon* %403 to i64*
  %404 = getelementptr inbounds %struct.State, %struct.State* %0, i32 0, i32 6
  %405 = getelementptr inbounds %struct.GPR, %struct.GPR* %404, i32 0, i32 7
  %406 = getelementptr inbounds %struct.Reg, %struct.Reg* %405, i32 0, i32 0
  %EDX.i = bitcast %union.anon* %406 to i32*
  %407 = getelementptr inbounds %struct.State, %struct.State* %0, i32 0, i32 6
  %408 = getelementptr inbounds %struct.GPR, %struct.GPR* %407, i32 0, i32 5
  %409 = getelementptr inbounds %struct.Reg, %struct.Reg* %408, i32 0, i32 0
  %RCX.i = bitcast %union.anon* %409 to i64*
  %410 = load i64, i64* %RCX.i
  %411 = load i32, i32* %EDX.i
  %412 = zext i32 %411 to i64
  %413 = load i64, i64* %PC.i8
  %414 = add i64 %413, 2
  store i64 %414, i64* %PC.i8
  %415 = trunc i64 %410 to i32
  %416 = add i32 %411, %415
  %417 = zext i32 %416 to i64
  store i64 %417, i64* %RCX.i, align 8
  %418 = icmp ult i32 %416, %415
  %419 = icmp ult i32 %416, %411
  %420 = or i1 %418, %419
  %421 = zext i1 %420 to i8
  %422 = getelementptr inbounds %struct.State, %struct.State* %0, i64 0, i32 2, i32 1
  store i8 %421, i8* %422, align 1
  %423 = and i32 %416, 255
  %424 = call i32 @llvm.ctpop.i32(i32 %423)
  %425 = trunc i32 %424 to i8
  %426 = and i8 %425, 1
  %427 = xor i8 %426, 1
  %428 = getelementptr inbounds %struct.State, %struct.State* %0, i64 0, i32 2, i32 3
  store i8 %427, i8* %428, align 1
  %429 = xor i64 %412, %410
  %430 = trunc i64 %429 to i32
  %431 = xor i32 %430, %416
  %432 = lshr i32 %431, 4
  %433 = trunc i32 %432 to i8
  %434 = and i8 %433, 1
  %435 = getelementptr inbounds %struct.State, %struct.State* %0, i64 0, i32 2, i32 5
  store i8 %434, i8* %435, align 1
  %436 = icmp eq i32 %416, 0
  %437 = zext i1 %436 to i8
  %438 = getelementptr inbounds %struct.State, %struct.State* %0, i64 0, i32 2, i32 7
  store i8 %437, i8* %438, align 1
  %439 = lshr i32 %416, 31
  %440 = trunc i32 %439 to i8
  %441 = getelementptr inbounds %struct.State, %struct.State* %0, i64 0, i32 2, i32 9
  store i8 %440, i8* %441, align 1
  %442 = lshr i32 %415, 31
  %443 = lshr i32 %411, 31
  %444 = xor i32 %439, %442
  %445 = xor i32 %439, %443
  %446 = add i32 %444, %445
  %447 = icmp eq i32 %446, 2
  %448 = zext i1 %447 to i8
  %449 = getelementptr inbounds %struct.State, %struct.State* %0, i64 0, i32 2, i32 13
  store i8 %448, i8* %449, align 1
  store %struct.Memory* %loadMem_413843, %struct.Memory** %MEMORY
  %loadMem_413845 = load %struct.Memory*, %struct.Memory** %MEMORY
  %450 = getelementptr inbounds %struct.State, %struct.State* %0, i32 0, i32 6
  %451 = getelementptr inbounds %struct.GPR, %struct.GPR* %450, i32 0, i32 33
  %452 = getelementptr inbounds %struct.Reg, %struct.Reg* %451, i32 0, i32 0
  %PC.i6 = bitcast %union.anon* %452 to i64*
  %453 = getelementptr inbounds %struct.State, %struct.State* %0, i32 0, i32 6
  %454 = getelementptr inbounds %struct.GPR, %struct.GPR* %453, i32 0, i32 1
  %455 = getelementptr inbounds %struct.Reg, %struct.Reg* %454, i32 0, i32 0
  %456 = bitcast %union.anon* %455 to %struct.anon.2*
  %AL.i7 = getelementptr inbounds %struct.anon.2, %struct.anon.2* %456, i32 0, i32 0
  %457 = getelementptr inbounds %struct.State, %struct.State* %0, i32 0, i32 6
  %458 = getelementptr inbounds %struct.GPR, %struct.GPR* %457, i32 0, i32 5
  %459 = getelementptr inbounds %struct.Reg, %struct.Reg* %458, i32 0, i32 0
  %460 = bitcast %union.anon* %459 to %struct.anon.2*
  %CL.i = getelementptr inbounds %struct.anon.2, %struct.anon.2* %460, i32 0, i32 0
  %461 = load i8, i8* %CL.i
  %462 = zext i8 %461 to i64
  %463 = load i64, i64* %PC.i6
  %464 = add i64 %463, 2
  store i64 %464, i64* %PC.i6
  store i8 %461, i8* %AL.i7, align 1
  store %struct.Memory* %loadMem_413845, %struct.Memory** %MEMORY
  %loadMem_413847 = load %struct.Memory*, %struct.Memory** %MEMORY
  %465 = getelementptr inbounds %struct.State, %struct.State* %0, i32 0, i32 6
  %466 = getelementptr inbounds %struct.GPR, %struct.GPR* %465, i32 0, i32 33
  %467 = getelementptr inbounds %struct.Reg, %struct.Reg* %466, i32 0, i32 0
  %PC.i5 = bitcast %union.anon* %467 to i64*
  %468 = getelementptr inbounds %struct.State, %struct.State* %0, i32 0, i32 6
  %469 = getelementptr inbounds %struct.GPR, %struct.GPR* %468, i32 0, i32 1
  %470 = getelementptr inbounds %struct.Reg, %struct.Reg* %469, i32 0, i32 0
  %471 = bitcast %union.anon* %470 to %struct.anon.2*
  %AL.i = getelementptr inbounds %struct.anon.2, %struct.anon.2* %471, i32 0, i32 0
  %472 = getelementptr inbounds %struct.State, %struct.State* %0, i32 0, i32 6
  %473 = getelementptr inbounds %struct.GPR, %struct.GPR* %472, i32 0, i32 1
  %474 = getelementptr inbounds %struct.Reg, %struct.Reg* %473, i32 0, i32 0
  %RAX.i = bitcast %union.anon* %474 to i64*
  %475 = load i8, i8* %AL.i
  %476 = zext i8 %475 to i64
  %477 = load i64, i64* %PC.i5
  %478 = add i64 %477, 3
  store i64 %478, i64* %PC.i5
  %479 = trunc i64 %476 to i32
  %480 = shl i32 %479, 24
  %481 = ashr exact i32 %480, 24
  %482 = zext i32 %481 to i64
  store i64 %482, i64* %RAX.i, align 8
  store %struct.Memory* %loadMem_413847, %struct.Memory** %MEMORY
  %loadMem_41384a = load %struct.Memory*, %struct.Memory** %MEMORY
  %483 = getelementptr inbounds %struct.State, %struct.State* %0, i32 0, i32 6
  %484 = getelementptr inbounds %struct.GPR, %struct.GPR* %483, i32 0, i32 33
  %485 = getelementptr inbounds %struct.Reg, %struct.Reg* %484, i32 0, i32 0
  %PC.i4 = bitcast %union.anon* %485 to i64*
  %486 = getelementptr inbounds %struct.State, %struct.State* %0, i32 0, i32 6
  %487 = getelementptr inbounds %struct.GPR, %struct.GPR* %486, i32 0, i32 3
  %488 = getelementptr inbounds %struct.Reg, %struct.Reg* %487, i32 0, i32 0
  %RBX.i = bitcast %union.anon* %488 to i64*
  %489 = load i64, i64* %PC.i4
  %490 = add i64 %489, 1
  store i64 %490, i64* %PC.i4
  %491 = getelementptr inbounds %struct.State, %struct.State* %0, i64 0, i32 6, i32 13, i32 0, i32 0
  %492 = load i64, i64* %491, align 8
  %493 = add i64 %492, 8
  %494 = inttoptr i64 %492 to i64*
  %495 = load i64, i64* %494
  store i64 %495, i64* %RBX.i, align 8
  store i64 %493, i64* %491, align 8
  store %struct.Memory* %loadMem_41384a, %struct.Memory** %MEMORY
  %loadMem_41384b = load %struct.Memory*, %struct.Memory** %MEMORY
  %496 = getelementptr inbounds %struct.State, %struct.State* %0, i32 0, i32 6
  %497 = getelementptr inbounds %struct.GPR, %struct.GPR* %496, i32 0, i32 33
  %498 = getelementptr inbounds %struct.Reg, %struct.Reg* %497, i32 0, i32 0
  %PC.i2 = bitcast %union.anon* %498 to i64*
  %499 = getelementptr inbounds %struct.State, %struct.State* %0, i32 0, i32 6
  %500 = getelementptr inbounds %struct.GPR, %struct.GPR* %499, i32 0, i32 15
  %501 = getelementptr inbounds %struct.Reg, %struct.Reg* %500, i32 0, i32 0
  %RBP.i3 = bitcast %union.anon* %501 to i64*
  %502 = load i64, i64* %PC.i2
  %503 = add i64 %502, 1
  store i64 %503, i64* %PC.i2
  %504 = getelementptr inbounds %struct.State, %struct.State* %0, i64 0, i32 6, i32 13, i32 0, i32 0
  %505 = load i64, i64* %504, align 8
  %506 = add i64 %505, 8
  %507 = inttoptr i64 %505 to i64*
  %508 = load i64, i64* %507
  store i64 %508, i64* %RBP.i3, align 8
  store i64 %506, i64* %504, align 8
  store %struct.Memory* %loadMem_41384b, %struct.Memory** %MEMORY
  %loadMem_41384c = load %struct.Memory*, %struct.Memory** %MEMORY
  %509 = getelementptr inbounds %struct.State, %struct.State* %0, i32 0, i32 6
  %510 = getelementptr inbounds %struct.GPR, %struct.GPR* %509, i32 0, i32 33
  %511 = getelementptr inbounds %struct.Reg, %struct.Reg* %510, i32 0, i32 0
  %PC.i1 = bitcast %union.anon* %511 to i64*
  %512 = load i64, i64* %PC.i1
  %513 = add i64 %512, 1
  store i64 %513, i64* %PC.i1
  %514 = getelementptr inbounds %struct.State, %struct.State* %0, i64 0, i32 6, i32 33, i32 0, i32 0
  %515 = getelementptr inbounds %struct.State, %struct.State* %0, i64 0, i32 6, i32 13, i32 0, i32 0
  %516 = load i64, i64* %515, align 8
  %517 = inttoptr i64 %516 to i64*
  %518 = load i64, i64* %517
  store i64 %518, i64* %514, align 8
  %519 = add i64 %516, 8
  store i64 %519, i64* %515, align 8
  store %struct.Memory* %loadMem_41384c, %struct.Memory** %MEMORY
  ret %struct.Memory* %loadMem_41384c
}

define %struct.Memory* @routine_pushq__rbp(%struct.State* dereferenceable(3376), i64, %struct.Memory*) {
block_400478:
  %3 = getelementptr inbounds %struct.State, %struct.State* %0, i32 0, i32 6
  %4 = getelementptr inbounds %struct.GPR, %struct.GPR* %3, i32 0, i32 33
  %5 = getelementptr inbounds %struct.Reg, %struct.Reg* %4, i32 0, i32 0
  %PC = bitcast %union.anon* %5 to i64*
  %6 = getelementptr inbounds %struct.State, %struct.State* %0, i32 0, i32 6
  %7 = getelementptr inbounds %struct.GPR, %struct.GPR* %6, i32 0, i32 15
  %8 = getelementptr inbounds %struct.Reg, %struct.Reg* %7, i32 0, i32 0
  %RBP = bitcast %union.anon* %8 to i64*
  %9 = load i64, i64* %RBP
  %10 = load i64, i64* %PC
  %11 = add i64 %10, 1
  store i64 %11, i64* %PC
  %12 = getelementptr inbounds %struct.State, %struct.State* %0, i64 0, i32 6, i32 13, i32 0, i32 0
  %13 = load i64, i64* %12, align 8
  %14 = add i64 %13, -8
  %15 = inttoptr i64 %14 to i64*
  store i64 %9, i64* %15
  store i64 %14, i64* %12, align 8
  ret %struct.Memory* %2
}

define %struct.Memory* @routine_movq__rsp___rbp(%struct.State* dereferenceable(3376), i64, %struct.Memory*) {
block_400478:
  %3 = getelementptr inbounds %struct.State, %struct.State* %0, i32 0, i32 6
  %4 = getelementptr inbounds %struct.GPR, %struct.GPR* %3, i32 0, i32 33
  %5 = getelementptr inbounds %struct.Reg, %struct.Reg* %4, i32 0, i32 0
  %PC = bitcast %union.anon* %5 to i64*
  %6 = getelementptr inbounds %struct.State, %struct.State* %0, i32 0, i32 6
  %7 = getelementptr inbounds %struct.GPR, %struct.GPR* %6, i32 0, i32 13
  %8 = getelementptr inbounds %struct.Reg, %struct.Reg* %7, i32 0, i32 0
  %RSP = bitcast %union.anon* %8 to i64*
  %9 = getelementptr inbounds %struct.State, %struct.State* %0, i32 0, i32 6
  %10 = getelementptr inbounds %struct.GPR, %struct.GPR* %9, i32 0, i32 15
  %11 = getelementptr inbounds %struct.Reg, %struct.Reg* %10, i32 0, i32 0
  %RBP = bitcast %union.anon* %11 to i64*
  %12 = load i64, i64* %RSP
  %13 = load i64, i64* %PC
  %14 = add i64 %13, 3
  store i64 %14, i64* %PC
  store i64 %12, i64* %RBP, align 8
  ret %struct.Memory* %2
}

define %struct.Memory* @routine_pushq__rbx(%struct.State* dereferenceable(3376), i64, %struct.Memory*) {
block_400478:
  %3 = getelementptr inbounds %struct.State, %struct.State* %0, i32 0, i32 6
  %4 = getelementptr inbounds %struct.GPR, %struct.GPR* %3, i32 0, i32 33
  %5 = getelementptr inbounds %struct.Reg, %struct.Reg* %4, i32 0, i32 0
  %PC = bitcast %union.anon* %5 to i64*
  %6 = getelementptr inbounds %struct.State, %struct.State* %0, i32 0, i32 6
  %7 = getelementptr inbounds %struct.GPR, %struct.GPR* %6, i32 0, i32 3
  %8 = getelementptr inbounds %struct.Reg, %struct.Reg* %7, i32 0, i32 0
  %RBX = bitcast %union.anon* %8 to i64*
  %9 = load i64, i64* %RBX
  %10 = load i64, i64* %PC
  %11 = add i64 %10, 1
  store i64 %11, i64* %PC
  %12 = getelementptr inbounds %struct.State, %struct.State* %0, i64 0, i32 6, i32 13, i32 0, i32 0
  %13 = load i64, i64* %12, align 8
  %14 = add i64 %13, -8
  %15 = inttoptr i64 %14 to i64*
  store i64 %9, i64* %15
  store i64 %14, i64* %12, align 8
  ret %struct.Memory* %2
}

define %struct.Memory* @routine_movb__r8b___al(%struct.State* dereferenceable(3376), i64, %struct.Memory*) {
block_400478:
  %3 = getelementptr inbounds %struct.State, %struct.State* %0, i32 0, i32 6
  %4 = getelementptr inbounds %struct.GPR, %struct.GPR* %3, i32 0, i32 33
  %5 = getelementptr inbounds %struct.Reg, %struct.Reg* %4, i32 0, i32 0
  %PC = bitcast %union.anon* %5 to i64*
  %6 = getelementptr inbounds %struct.State, %struct.State* %0, i32 0, i32 6
  %7 = getelementptr inbounds %struct.GPR, %struct.GPR* %6, i32 0, i32 1
  %8 = getelementptr inbounds %struct.Reg, %struct.Reg* %7, i32 0, i32 0
  %9 = bitcast %union.anon* %8 to %struct.anon.2*
  %AL = getelementptr inbounds %struct.anon.2, %struct.anon.2* %9, i32 0, i32 0
  %10 = getelementptr inbounds %struct.State, %struct.State* %0, i32 0, i32 6
  %11 = getelementptr inbounds %struct.GPR, %struct.GPR* %10, i32 0, i32 17
  %12 = getelementptr inbounds %struct.Reg, %struct.Reg* %11, i32 0, i32 0
  %13 = bitcast %union.anon* %12 to %struct.anon.2*
  %R8B = getelementptr inbounds %struct.anon.2, %struct.anon.2* %13, i32 0, i32 0
  %14 = load i8, i8* %R8B
  %15 = zext i8 %14 to i64
  %16 = load i64, i64* %PC
  %17 = add i64 %16, 3
  store i64 %17, i64* %PC
  store i8 %14, i8* %AL, align 1
  ret %struct.Memory* %2
}

define %struct.Memory* @routine_movb__cl___r9b(%struct.State* dereferenceable(3376), i64, %struct.Memory*) {
block_400478:
  %3 = getelementptr inbounds %struct.State, %struct.State* %0, i32 0, i32 6
  %4 = getelementptr inbounds %struct.GPR, %struct.GPR* %3, i32 0, i32 33
  %5 = getelementptr inbounds %struct.Reg, %struct.Reg* %4, i32 0, i32 0
  %PC = bitcast %union.anon* %5 to i64*
  %6 = getelementptr inbounds %struct.State, %struct.State* %0, i32 0, i32 6
  %7 = getelementptr inbounds %struct.GPR, %struct.GPR* %6, i32 0, i32 5
  %8 = getelementptr inbounds %struct.Reg, %struct.Reg* %7, i32 0, i32 0
  %9 = bitcast %union.anon* %8 to %struct.anon.2*
  %CL = getelementptr inbounds %struct.anon.2, %struct.anon.2* %9, i32 0, i32 0
  %10 = getelementptr inbounds %struct.State, %struct.State* %0, i32 0, i32 6
  %11 = getelementptr inbounds %struct.GPR, %struct.GPR* %10, i32 0, i32 19
  %12 = getelementptr inbounds %struct.Reg, %struct.Reg* %11, i32 0, i32 0
  %13 = bitcast %union.anon* %12 to %struct.anon.2*
  %R9B = getelementptr inbounds %struct.anon.2, %struct.anon.2* %13, i32 0, i32 0
  %14 = load i8, i8* %CL
  %15 = zext i8 %14 to i64
  %16 = load i64, i64* %PC
  %17 = add i64 %16, 3
  store i64 %17, i64* %PC
  store i8 %14, i8* %R9B, align 1
  ret %struct.Memory* %2
}

define %struct.Memory* @routine_movb__dl___r10b(%struct.State* dereferenceable(3376), i64, %struct.Memory*) {
block_400478:
  %3 = getelementptr inbounds %struct.State, %struct.State* %0, i32 0, i32 6
  %4 = getelementptr inbounds %struct.GPR, %struct.GPR* %3, i32 0, i32 33
  %5 = getelementptr inbounds %struct.Reg, %struct.Reg* %4, i32 0, i32 0
  %PC = bitcast %union.anon* %5 to i64*
  %6 = getelementptr inbounds %struct.State, %struct.State* %0, i32 0, i32 6
  %7 = getelementptr inbounds %struct.GPR, %struct.GPR* %6, i32 0, i32 7
  %8 = getelementptr inbounds %struct.Reg, %struct.Reg* %7, i32 0, i32 0
  %9 = bitcast %union.anon* %8 to %struct.anon.2*
  %DL = getelementptr inbounds %struct.anon.2, %struct.anon.2* %9, i32 0, i32 0
  %10 = getelementptr inbounds %struct.State, %struct.State* %0, i32 0, i32 6
  %11 = getelementptr inbounds %struct.GPR, %struct.GPR* %10, i32 0, i32 21
  %12 = getelementptr inbounds %struct.Reg, %struct.Reg* %11, i32 0, i32 0
  %13 = bitcast %union.anon* %12 to %struct.anon.2*
  %R10B = getelementptr inbounds %struct.anon.2, %struct.anon.2* %13, i32 0, i32 0
  %14 = load i8, i8* %DL
  %15 = zext i8 %14 to i64
  %16 = load i64, i64* %PC
  %17 = add i64 %16, 3
  store i64 %17, i64* %PC
  store i8 %14, i8* %R10B, align 1
  ret %struct.Memory* %2
}

define %struct.Memory* @routine_movb__sil___r11b(%struct.State* dereferenceable(3376), i64, %struct.Memory*) {
block_400478:
  %3 = getelementptr inbounds %struct.State, %struct.State* %0, i32 0, i32 6
  %4 = getelementptr inbounds %struct.GPR, %struct.GPR* %3, i32 0, i32 33
  %5 = getelementptr inbounds %struct.Reg, %struct.Reg* %4, i32 0, i32 0
  %PC = bitcast %union.anon* %5 to i64*
  %6 = getelementptr inbounds %struct.State, %struct.State* %0, i32 0, i32 6
  %7 = getelementptr inbounds %struct.GPR, %struct.GPR* %6, i32 0, i32 9
  %8 = getelementptr inbounds %struct.Reg, %struct.Reg* %7, i32 0, i32 0
  %9 = bitcast %union.anon* %8 to %struct.anon.2*
  %SIL = getelementptr inbounds %struct.anon.2, %struct.anon.2* %9, i32 0, i32 0
  %10 = getelementptr inbounds %struct.State, %struct.State* %0, i32 0, i32 6
  %11 = getelementptr inbounds %struct.GPR, %struct.GPR* %10, i32 0, i32 23
  %12 = getelementptr inbounds %struct.Reg, %struct.Reg* %11, i32 0, i32 0
  %13 = bitcast %union.anon* %12 to %struct.anon.2*
  %R11B = getelementptr inbounds %struct.anon.2, %struct.anon.2* %13, i32 0, i32 0
  %14 = load i8, i8* %SIL
  %15 = zext i8 %14 to i64
  %16 = load i64, i64* %PC
  %17 = add i64 %16, 3
  store i64 %17, i64* %PC
  store i8 %14, i8* %R11B, align 1
  ret %struct.Memory* %2
}

define %struct.Memory* @routine_movb__dil___bl(%struct.State* dereferenceable(3376), i64, %struct.Memory*) {
block_400478:
  %3 = getelementptr inbounds %struct.State, %struct.State* %0, i32 0, i32 6
  %4 = getelementptr inbounds %struct.GPR, %struct.GPR* %3, i32 0, i32 33
  %5 = getelementptr inbounds %struct.Reg, %struct.Reg* %4, i32 0, i32 0
  %PC = bitcast %union.anon* %5 to i64*
  %6 = getelementptr inbounds %struct.State, %struct.State* %0, i32 0, i32 6
  %7 = getelementptr inbounds %struct.GPR, %struct.GPR* %6, i32 0, i32 3
  %8 = getelementptr inbounds %struct.Reg, %struct.Reg* %7, i32 0, i32 0
  %9 = bitcast %union.anon* %8 to %struct.anon.2*
  %BL = getelementptr inbounds %struct.anon.2, %struct.anon.2* %9, i32 0, i32 0
  %10 = getelementptr inbounds %struct.State, %struct.State* %0, i32 0, i32 6
  %11 = getelementptr inbounds %struct.GPR, %struct.GPR* %10, i32 0, i32 11
  %12 = getelementptr inbounds %struct.Reg, %struct.Reg* %11, i32 0, i32 0
  %13 = bitcast %union.anon* %12 to %struct.anon.2*
  %DIL = getelementptr inbounds %struct.anon.2, %struct.anon.2* %13, i32 0, i32 0
  %14 = load i8, i8* %DIL
  %15 = zext i8 %14 to i64
  %16 = load i64, i64* %PC
  %17 = add i64 %16, 3
  store i64 %17, i64* %PC
  store i8 %14, i8* %BL, align 1
  ret %struct.Memory* %2
}

define %struct.Memory* @routine_movb__bl__MINUS0x9__rbp_(%struct.State* dereferenceable(3376), i64, %struct.Memory*) {
block_400478:
  %3 = getelementptr inbounds %struct.State, %struct.State* %0, i32 0, i32 6
  %4 = getelementptr inbounds %struct.GPR, %struct.GPR* %3, i32 0, i32 33
  %5 = getelementptr inbounds %struct.Reg, %struct.Reg* %4, i32 0, i32 0
  %PC = bitcast %union.anon* %5 to i64*
  %6 = getelementptr inbounds %struct.State, %struct.State* %0, i32 0, i32 6
  %7 = getelementptr inbounds %struct.GPR, %struct.GPR* %6, i32 0, i32 3
  %8 = getelementptr inbounds %struct.Reg, %struct.Reg* %7, i32 0, i32 0
  %9 = bitcast %union.anon* %8 to %struct.anon.2*
  %BL = getelementptr inbounds %struct.anon.2, %struct.anon.2* %9, i32 0, i32 0
  %10 = getelementptr inbounds %struct.State, %struct.State* %0, i32 0, i32 6
  %11 = getelementptr inbounds %struct.GPR, %struct.GPR* %10, i32 0, i32 15
  %12 = getelementptr inbounds %struct.Reg, %struct.Reg* %11, i32 0, i32 0
  %RBP = bitcast %union.anon* %12 to i64*
  %13 = load i64, i64* %RBP
  %14 = sub i64 %13, 9
  %15 = load i8, i8* %BL
  %16 = zext i8 %15 to i64
  %17 = load i64, i64* %PC
  %18 = add i64 %17, 3
  store i64 %18, i64* %PC
  %19 = inttoptr i64 %14 to i8*
  store i8 %15, i8* %19
  ret %struct.Memory* %2
}

define %struct.Memory* @routine_movb__r11b__MINUS0xa__rbp_(%struct.State* dereferenceable(3376), i64, %struct.Memory*) {
block_400478:
  %3 = getelementptr inbounds %struct.State, %struct.State* %0, i32 0, i32 6
  %4 = getelementptr inbounds %struct.GPR, %struct.GPR* %3, i32 0, i32 33
  %5 = getelementptr inbounds %struct.Reg, %struct.Reg* %4, i32 0, i32 0
  %PC = bitcast %union.anon* %5 to i64*
  %6 = getelementptr inbounds %struct.State, %struct.State* %0, i32 0, i32 6
  %7 = getelementptr inbounds %struct.GPR, %struct.GPR* %6, i32 0, i32 23
  %8 = getelementptr inbounds %struct.Reg, %struct.Reg* %7, i32 0, i32 0
  %9 = bitcast %union.anon* %8 to %struct.anon.2*
  %R11B = getelementptr inbounds %struct.anon.2, %struct.anon.2* %9, i32 0, i32 0
  %10 = getelementptr inbounds %struct.State, %struct.State* %0, i32 0, i32 6
  %11 = getelementptr inbounds %struct.GPR, %struct.GPR* %10, i32 0, i32 15
  %12 = getelementptr inbounds %struct.Reg, %struct.Reg* %11, i32 0, i32 0
  %RBP = bitcast %union.anon* %12 to i64*
  %13 = load i64, i64* %RBP
  %14 = sub i64 %13, 10
  %15 = load i8, i8* %R11B
  %16 = zext i8 %15 to i64
  %17 = load i64, i64* %PC
  %18 = add i64 %17, 4
  store i64 %18, i64* %PC
  %19 = inttoptr i64 %14 to i8*
  store i8 %15, i8* %19
  ret %struct.Memory* %2
}

define %struct.Memory* @routine_movb__r10b__MINUS0xb__rbp_(%struct.State* dereferenceable(3376), i64, %struct.Memory*) {
block_400478:
  %3 = getelementptr inbounds %struct.State, %struct.State* %0, i32 0, i32 6
  %4 = getelementptr inbounds %struct.GPR, %struct.GPR* %3, i32 0, i32 33
  %5 = getelementptr inbounds %struct.Reg, %struct.Reg* %4, i32 0, i32 0
  %PC = bitcast %union.anon* %5 to i64*
  %6 = getelementptr inbounds %struct.State, %struct.State* %0, i32 0, i32 6
  %7 = getelementptr inbounds %struct.GPR, %struct.GPR* %6, i32 0, i32 21
  %8 = getelementptr inbounds %struct.Reg, %struct.Reg* %7, i32 0, i32 0
  %9 = bitcast %union.anon* %8 to %struct.anon.2*
  %R10B = getelementptr inbounds %struct.anon.2, %struct.anon.2* %9, i32 0, i32 0
  %10 = getelementptr inbounds %struct.State, %struct.State* %0, i32 0, i32 6
  %11 = getelementptr inbounds %struct.GPR, %struct.GPR* %10, i32 0, i32 15
  %12 = getelementptr inbounds %struct.Reg, %struct.Reg* %11, i32 0, i32 0
  %RBP = bitcast %union.anon* %12 to i64*
  %13 = load i64, i64* %RBP
  %14 = sub i64 %13, 11
  %15 = load i8, i8* %R10B
  %16 = zext i8 %15 to i64
  %17 = load i64, i64* %PC
  %18 = add i64 %17, 4
  store i64 %18, i64* %PC
  %19 = inttoptr i64 %14 to i8*
  store i8 %15, i8* %19
  ret %struct.Memory* %2
}

define %struct.Memory* @routine_movb__r9b__MINUS0xc__rbp_(%struct.State* dereferenceable(3376), i64, %struct.Memory*) {
block_400478:
  %3 = getelementptr inbounds %struct.State, %struct.State* %0, i32 0, i32 6
  %4 = getelementptr inbounds %struct.GPR, %struct.GPR* %3, i32 0, i32 33
  %5 = getelementptr inbounds %struct.Reg, %struct.Reg* %4, i32 0, i32 0
  %PC = bitcast %union.anon* %5 to i64*
  %6 = getelementptr inbounds %struct.State, %struct.State* %0, i32 0, i32 6
  %7 = getelementptr inbounds %struct.GPR, %struct.GPR* %6, i32 0, i32 19
  %8 = getelementptr inbounds %struct.Reg, %struct.Reg* %7, i32 0, i32 0
  %9 = bitcast %union.anon* %8 to %struct.anon.2*
  %R9B = getelementptr inbounds %struct.anon.2, %struct.anon.2* %9, i32 0, i32 0
  %10 = getelementptr inbounds %struct.State, %struct.State* %0, i32 0, i32 6
  %11 = getelementptr inbounds %struct.GPR, %struct.GPR* %10, i32 0, i32 15
  %12 = getelementptr inbounds %struct.Reg, %struct.Reg* %11, i32 0, i32 0
  %RBP = bitcast %union.anon* %12 to i64*
  %13 = load i64, i64* %RBP
  %14 = sub i64 %13, 12
  %15 = load i8, i8* %R9B
  %16 = zext i8 %15 to i64
  %17 = load i64, i64* %PC
  %18 = add i64 %17, 4
  store i64 %18, i64* %PC
  %19 = inttoptr i64 %14 to i8*
  store i8 %15, i8* %19
  ret %struct.Memory* %2
}

define %struct.Memory* @routine_movb__al__MINUS0xd__rbp_(%struct.State* dereferenceable(3376), i64, %struct.Memory*) {
block_400478:
  %3 = getelementptr inbounds %struct.State, %struct.State* %0, i32 0, i32 6
  %4 = getelementptr inbounds %struct.GPR, %struct.GPR* %3, i32 0, i32 33
  %5 = getelementptr inbounds %struct.Reg, %struct.Reg* %4, i32 0, i32 0
  %PC = bitcast %union.anon* %5 to i64*
  %6 = getelementptr inbounds %struct.State, %struct.State* %0, i32 0, i32 6
  %7 = getelementptr inbounds %struct.GPR, %struct.GPR* %6, i32 0, i32 1
  %8 = getelementptr inbounds %struct.Reg, %struct.Reg* %7, i32 0, i32 0
  %9 = bitcast %union.anon* %8 to %struct.anon.2*
  %AL = getelementptr inbounds %struct.anon.2, %struct.anon.2* %9, i32 0, i32 0
  %10 = getelementptr inbounds %struct.State, %struct.State* %0, i32 0, i32 6
  %11 = getelementptr inbounds %struct.GPR, %struct.GPR* %10, i32 0, i32 15
  %12 = getelementptr inbounds %struct.Reg, %struct.Reg* %11, i32 0, i32 0
  %RBP = bitcast %union.anon* %12 to i64*
  %13 = load i64, i64* %RBP
  %14 = sub i64 %13, 13
  %15 = load i8, i8* %AL
  %16 = zext i8 %15 to i64
  %17 = load i64, i64* %PC
  %18 = add i64 %17, 3
  store i64 %18, i64* %PC
  %19 = inttoptr i64 %14 to i8*
  store i8 %15, i8* %19
  ret %struct.Memory* %2
}

define %struct.Memory* @routine_movsbl_MINUS0x9__rbp____ecx(%struct.State* dereferenceable(3376), i64, %struct.Memory*) {
block_400478:
  %3 = getelementptr inbounds %struct.State, %struct.State* %0, i32 0, i32 6
  %4 = getelementptr inbounds %struct.GPR, %struct.GPR* %3, i32 0, i32 33
  %5 = getelementptr inbounds %struct.Reg, %struct.Reg* %4, i32 0, i32 0
  %PC = bitcast %union.anon* %5 to i64*
  %6 = getelementptr inbounds %struct.State, %struct.State* %0, i32 0, i32 6
  %7 = getelementptr inbounds %struct.GPR, %struct.GPR* %6, i32 0, i32 5
  %8 = getelementptr inbounds %struct.Reg, %struct.Reg* %7, i32 0, i32 0
  %RCX = bitcast %union.anon* %8 to i64*
  %9 = getelementptr inbounds %struct.State, %struct.State* %0, i32 0, i32 6
  %10 = getelementptr inbounds %struct.GPR, %struct.GPR* %9, i32 0, i32 15
  %11 = getelementptr inbounds %struct.Reg, %struct.Reg* %10, i32 0, i32 0
  %RBP = bitcast %union.anon* %11 to i64*
  %12 = load i64, i64* %RBP
  %13 = sub i64 %12, 9
  %14 = load i64, i64* %PC
  %15 = add i64 %14, 4
  store i64 %15, i64* %PC
  %16 = inttoptr i64 %13 to i8*
  %17 = load i8, i8* %16
  %18 = sext i8 %17 to i64
  %19 = and i64 %18, 4294967295
  store i64 %19, i64* %RCX, align 8
  ret %struct.Memory* %2
}

define %struct.Memory* @routine_movsbl_MINUS0xa__rbp____edx(%struct.State* dereferenceable(3376), i64, %struct.Memory*) {
block_400478:
  %3 = getelementptr inbounds %struct.State, %struct.State* %0, i32 0, i32 6
  %4 = getelementptr inbounds %struct.GPR, %struct.GPR* %3, i32 0, i32 33
  %5 = getelementptr inbounds %struct.Reg, %struct.Reg* %4, i32 0, i32 0
  %PC = bitcast %union.anon* %5 to i64*
  %6 = getelementptr inbounds %struct.State, %struct.State* %0, i32 0, i32 6
  %7 = getelementptr inbounds %struct.GPR, %struct.GPR* %6, i32 0, i32 7
  %8 = getelementptr inbounds %struct.Reg, %struct.Reg* %7, i32 0, i32 0
  %RDX = bitcast %union.anon* %8 to i64*
  %9 = getelementptr inbounds %struct.State, %struct.State* %0, i32 0, i32 6
  %10 = getelementptr inbounds %struct.GPR, %struct.GPR* %9, i32 0, i32 15
  %11 = getelementptr inbounds %struct.Reg, %struct.Reg* %10, i32 0, i32 0
  %RBP = bitcast %union.anon* %11 to i64*
  %12 = load i64, i64* %RBP
  %13 = sub i64 %12, 10
  %14 = load i64, i64* %PC
  %15 = add i64 %14, 4
  store i64 %15, i64* %PC
  %16 = inttoptr i64 %13 to i8*
  %17 = load i8, i8* %16
  %18 = sext i8 %17 to i64
  %19 = and i64 %18, 4294967295
  store i64 %19, i64* %RDX, align 8
  ret %struct.Memory* %2
}

define %struct.Memory* @routine_movsbl_MINUS0xb__rbp____esi(%struct.State* dereferenceable(3376), i64, %struct.Memory*) {
block_400478:
  %3 = getelementptr inbounds %struct.State, %struct.State* %0, i32 0, i32 6
  %4 = getelementptr inbounds %struct.GPR, %struct.GPR* %3, i32 0, i32 33
  %5 = getelementptr inbounds %struct.Reg, %struct.Reg* %4, i32 0, i32 0
  %PC = bitcast %union.anon* %5 to i64*
  %6 = getelementptr inbounds %struct.State, %struct.State* %0, i32 0, i32 6
  %7 = getelementptr inbounds %struct.GPR, %struct.GPR* %6, i32 0, i32 9
  %8 = getelementptr inbounds %struct.Reg, %struct.Reg* %7, i32 0, i32 0
  %RSI = bitcast %union.anon* %8 to i64*
  %9 = getelementptr inbounds %struct.State, %struct.State* %0, i32 0, i32 6
  %10 = getelementptr inbounds %struct.GPR, %struct.GPR* %9, i32 0, i32 15
  %11 = getelementptr inbounds %struct.Reg, %struct.Reg* %10, i32 0, i32 0
  %RBP = bitcast %union.anon* %11 to i64*
  %12 = load i64, i64* %RBP
  %13 = sub i64 %12, 11
  %14 = load i64, i64* %PC
  %15 = add i64 %14, 4
  store i64 %15, i64* %PC
  %16 = inttoptr i64 %13 to i8*
  %17 = load i8, i8* %16
  %18 = sext i8 %17 to i64
  %19 = and i64 %18, 4294967295
  store i64 %19, i64* %RSI, align 8
  ret %struct.Memory* %2
}

define %struct.Memory* @routine_imull__esi___edx(%struct.State* dereferenceable(3376), i64, %struct.Memory*) {
block_400478:
  %3 = getelementptr inbounds %struct.State, %struct.State* %0, i32 0, i32 6
  %4 = getelementptr inbounds %struct.GPR, %struct.GPR* %3, i32 0, i32 33
  %5 = getelementptr inbounds %struct.Reg, %struct.Reg* %4, i32 0, i32 0
  %PC = bitcast %union.anon* %5 to i64*
  %6 = getelementptr inbounds %struct.State, %struct.State* %0, i32 0, i32 6
  %7 = getelementptr inbounds %struct.GPR, %struct.GPR* %6, i32 0, i32 9
  %8 = getelementptr inbounds %struct.Reg, %struct.Reg* %7, i32 0, i32 0
  %ESI = bitcast %union.anon* %8 to i32*
  %9 = getelementptr inbounds %struct.State, %struct.State* %0, i32 0, i32 6
  %10 = getelementptr inbounds %struct.GPR, %struct.GPR* %9, i32 0, i32 7
  %11 = getelementptr inbounds %struct.Reg, %struct.Reg* %10, i32 0, i32 0
  %RDX = bitcast %union.anon* %11 to i64*
  %12 = load i64, i64* %RDX
  %13 = load i32, i32* %ESI
  %14 = zext i32 %13 to i64
  %15 = load i64, i64* %PC
  %16 = add i64 %15, 3
  store i64 %16, i64* %PC
  %17 = shl i64 %12, 32
  %18 = ashr exact i64 %17, 32
  %19 = shl i64 %14, 32
  %20 = ashr exact i64 %19, 32
  %21 = mul i64 %20, %18
  %22 = trunc i64 %21 to i32
  %23 = and i64 %21, 4294967295
  store i64 %23, i64* %RDX, align 8
  %24 = shl i64 %21, 32
  %25 = ashr exact i64 %24, 32
  %26 = icmp ne i64 %25, %21
  %27 = zext i1 %26 to i8
  %28 = getelementptr inbounds %struct.State, %struct.State* %0, i64 0, i32 2, i32 1
  store i8 %27, i8* %28, align 1
  %29 = and i32 %22, 255
  %30 = call i32 @llvm.ctpop.i32(i32 %29)
  %31 = trunc i32 %30 to i8
  %32 = and i8 %31, 1
  %33 = xor i8 %32, 1
  %34 = getelementptr inbounds %struct.State, %struct.State* %0, i64 0, i32 2, i32 3
  store i8 %33, i8* %34, align 1
  %35 = getelementptr inbounds %struct.State, %struct.State* %0, i64 0, i32 2, i32 5
  store i8 0, i8* %35, align 1
  %36 = getelementptr inbounds %struct.State, %struct.State* %0, i64 0, i32 2, i32 7
  store i8 0, i8* %36, align 1
  %37 = lshr i32 %22, 31
  %38 = trunc i32 %37 to i8
  %39 = getelementptr inbounds %struct.State, %struct.State* %0, i64 0, i32 2, i32 9
  store i8 %38, i8* %39, align 1
  %40 = getelementptr inbounds %struct.State, %struct.State* %0, i64 0, i32 2, i32 13
  store i8 %27, i8* %40, align 1
  ret %struct.Memory* %2
}

define %struct.Memory* @routine_movsbl_MINUS0xc__rbp____esi(%struct.State* dereferenceable(3376), i64, %struct.Memory*) {
block_400478:
  %3 = getelementptr inbounds %struct.State, %struct.State* %0, i32 0, i32 6
  %4 = getelementptr inbounds %struct.GPR, %struct.GPR* %3, i32 0, i32 33
  %5 = getelementptr inbounds %struct.Reg, %struct.Reg* %4, i32 0, i32 0
  %PC = bitcast %union.anon* %5 to i64*
  %6 = getelementptr inbounds %struct.State, %struct.State* %0, i32 0, i32 6
  %7 = getelementptr inbounds %struct.GPR, %struct.GPR* %6, i32 0, i32 9
  %8 = getelementptr inbounds %struct.Reg, %struct.Reg* %7, i32 0, i32 0
  %RSI = bitcast %union.anon* %8 to i64*
  %9 = getelementptr inbounds %struct.State, %struct.State* %0, i32 0, i32 6
  %10 = getelementptr inbounds %struct.GPR, %struct.GPR* %9, i32 0, i32 15
  %11 = getelementptr inbounds %struct.Reg, %struct.Reg* %10, i32 0, i32 0
  %RBP = bitcast %union.anon* %11 to i64*
  %12 = load i64, i64* %RBP
  %13 = sub i64 %12, 12
  %14 = load i64, i64* %PC
  %15 = add i64 %14, 4
  store i64 %15, i64* %PC
  %16 = inttoptr i64 %13 to i8*
  %17 = load i8, i8* %16
  %18 = sext i8 %17 to i64
  %19 = and i64 %18, 4294967295
  store i64 %19, i64* %RSI, align 8
  ret %struct.Memory* %2
}

define %struct.Memory* @routine_movsbl_MINUS0xd__rbp____esi(%struct.State* dereferenceable(3376), i64, %struct.Memory*) {
block_400478:
  %3 = getelementptr inbounds %struct.State, %struct.State* %0, i32 0, i32 6
  %4 = getelementptr inbounds %struct.GPR, %struct.GPR* %3, i32 0, i32 33
  %5 = getelementptr inbounds %struct.Reg, %struct.Reg* %4, i32 0, i32 0
  %PC = bitcast %union.anon* %5 to i64*
  %6 = getelementptr inbounds %struct.State, %struct.State* %0, i32 0, i32 6
  %7 = getelementptr inbounds %struct.GPR, %struct.GPR* %6, i32 0, i32 9
  %8 = getelementptr inbounds %struct.Reg, %struct.Reg* %7, i32 0, i32 0
  %RSI = bitcast %union.anon* %8 to i64*
  %9 = getelementptr inbounds %struct.State, %struct.State* %0, i32 0, i32 6
  %10 = getelementptr inbounds %struct.GPR, %struct.GPR* %9, i32 0, i32 15
  %11 = getelementptr inbounds %struct.Reg, %struct.Reg* %10, i32 0, i32 0
  %RBP = bitcast %union.anon* %11 to i64*
  %12 = load i64, i64* %RBP
  %13 = sub i64 %12, 13
  %14 = load i64, i64* %PC
  %15 = add i64 %14, 4
  store i64 %15, i64* %PC
  %16 = inttoptr i64 %13 to i8*
  %17 = load i8, i8* %16
  %18 = sext i8 %17 to i64
  %19 = and i64 %18, 4294967295
  store i64 %19, i64* %RSI, align 8
  ret %struct.Memory* %2
}

define %struct.Memory* @routine_addl__edx___ecx(%struct.State* dereferenceable(3376), i64, %struct.Memory*) {
block_400478:
  %3 = getelementptr inbounds %struct.State, %struct.State* %0, i32 0, i32 6
  %4 = getelementptr inbounds %struct.GPR, %struct.GPR* %3, i32 0, i32 33
  %5 = getelementptr inbounds %struct.Reg, %struct.Reg* %4, i32 0, i32 0
  %PC = bitcast %union.anon* %5 to i64*
  %6 = getelementptr inbounds %struct.State, %struct.State* %0, i32 0, i32 6
  %7 = getelementptr inbounds %struct.GPR, %struct.GPR* %6, i32 0, i32 7
  %8 = getelementptr inbounds %struct.Reg, %struct.Reg* %7, i32 0, i32 0
  %EDX = bitcast %union.anon* %8 to i32*
  %9 = getelementptr inbounds %struct.State, %struct.State* %0, i32 0, i32 6
  %10 = getelementptr inbounds %struct.GPR, %struct.GPR* %9, i32 0, i32 5
  %11 = getelementptr inbounds %struct.Reg, %struct.Reg* %10, i32 0, i32 0
  %RCX = bitcast %union.anon* %11 to i64*
  %12 = load i64, i64* %RCX
  %13 = load i32, i32* %EDX
  %14 = zext i32 %13 to i64
  %15 = load i64, i64* %PC
  %16 = add i64 %15, 2
  store i64 %16, i64* %PC
  %17 = trunc i64 %12 to i32
  %18 = add i32 %13, %17
  %19 = zext i32 %18 to i64
  store i64 %19, i64* %RCX, align 8
  %20 = icmp ult i32 %18, %17
  %21 = icmp ult i32 %18, %13
  %22 = or i1 %20, %21
  %23 = zext i1 %22 to i8
  %24 = getelementptr inbounds %struct.State, %struct.State* %0, i64 0, i32 2, i32 1
  store i8 %23, i8* %24, align 1
  %25 = and i32 %18, 255
  %26 = call i32 @llvm.ctpop.i32(i32 %25)
  %27 = trunc i32 %26 to i8
  %28 = and i8 %27, 1
  %29 = xor i8 %28, 1
  %30 = getelementptr inbounds %struct.State, %struct.State* %0, i64 0, i32 2, i32 3
  store i8 %29, i8* %30, align 1
  %31 = xor i64 %14, %12
  %32 = trunc i64 %31 to i32
  %33 = xor i32 %32, %18
  %34 = lshr i32 %33, 4
  %35 = trunc i32 %34 to i8
  %36 = and i8 %35, 1
  %37 = getelementptr inbounds %struct.State, %struct.State* %0, i64 0, i32 2, i32 5
  store i8 %36, i8* %37, align 1
  %38 = icmp eq i32 %18, 0
  %39 = zext i1 %38 to i8
  %40 = getelementptr inbounds %struct.State, %struct.State* %0, i64 0, i32 2, i32 7
  store i8 %39, i8* %40, align 1
  %41 = lshr i32 %18, 31
  %42 = trunc i32 %41 to i8
  %43 = getelementptr inbounds %struct.State, %struct.State* %0, i64 0, i32 2, i32 9
  store i8 %42, i8* %43, align 1
  %44 = lshr i32 %17, 31
  %45 = lshr i32 %13, 31
  %46 = xor i32 %41, %44
  %47 = xor i32 %41, %45
  %48 = add i32 %46, %47
  %49 = icmp eq i32 %48, 2
  %50 = zext i1 %49 to i8
  %51 = getelementptr inbounds %struct.State, %struct.State* %0, i64 0, i32 2, i32 13
  store i8 %50, i8* %51, align 1
  ret %struct.Memory* %2
}

define %struct.Memory* @routine_movb__cl___al(%struct.State* dereferenceable(3376), i64, %struct.Memory*) {
block_400478:
  %3 = getelementptr inbounds %struct.State, %struct.State* %0, i32 0, i32 6
  %4 = getelementptr inbounds %struct.GPR, %struct.GPR* %3, i32 0, i32 33
  %5 = getelementptr inbounds %struct.Reg, %struct.Reg* %4, i32 0, i32 0
  %PC = bitcast %union.anon* %5 to i64*
  %6 = getelementptr inbounds %struct.State, %struct.State* %0, i32 0, i32 6
  %7 = getelementptr inbounds %struct.GPR, %struct.GPR* %6, i32 0, i32 1
  %8 = getelementptr inbounds %struct.Reg, %struct.Reg* %7, i32 0, i32 0
  %9 = bitcast %union.anon* %8 to %struct.anon.2*
  %AL = getelementptr inbounds %struct.anon.2, %struct.anon.2* %9, i32 0, i32 0
  %10 = getelementptr inbounds %struct.State, %struct.State* %0, i32 0, i32 6
  %11 = getelementptr inbounds %struct.GPR, %struct.GPR* %10, i32 0, i32 5
  %12 = getelementptr inbounds %struct.Reg, %struct.Reg* %11, i32 0, i32 0
  %13 = bitcast %union.anon* %12 to %struct.anon.2*
  %CL = getelementptr inbounds %struct.anon.2, %struct.anon.2* %13, i32 0, i32 0
  %14 = load i8, i8* %CL
  %15 = zext i8 %14 to i64
  %16 = load i64, i64* %PC
  %17 = add i64 %16, 2
  store i64 %17, i64* %PC
  store i8 %14, i8* %AL, align 1
  ret %struct.Memory* %2
}

define %struct.Memory* @routine_movsbl__al___eax(%struct.State* dereferenceable(3376), i64, %struct.Memory*) {
block_400478:
  %3 = getelementptr inbounds %struct.State, %struct.State* %0, i32 0, i32 6
  %4 = getelementptr inbounds %struct.GPR, %struct.GPR* %3, i32 0, i32 33
  %5 = getelementptr inbounds %struct.Reg, %struct.Reg* %4, i32 0, i32 0
  %PC = bitcast %union.anon* %5 to i64*
  %6 = getelementptr inbounds %struct.State, %struct.State* %0, i32 0, i32 6
  %7 = getelementptr inbounds %struct.GPR, %struct.GPR* %6, i32 0, i32 1
  %8 = getelementptr inbounds %struct.Reg, %struct.Reg* %7, i32 0, i32 0
  %9 = bitcast %union.anon* %8 to %struct.anon.2*
  %AL = getelementptr inbounds %struct.anon.2, %struct.anon.2* %9, i32 0, i32 0
  %10 = getelementptr inbounds %struct.State, %struct.State* %0, i32 0, i32 6
  %11 = getelementptr inbounds %struct.GPR, %struct.GPR* %10, i32 0, i32 1
  %12 = getelementptr inbounds %struct.Reg, %struct.Reg* %11, i32 0, i32 0
  %RAX = bitcast %union.anon* %12 to i64*
  %13 = load i8, i8* %AL
  %14 = zext i8 %13 to i64
  %15 = load i64, i64* %PC
  %16 = add i64 %15, 3
  store i64 %16, i64* %PC
  %17 = trunc i64 %14 to i32
  %18 = shl i32 %17, 24
  %19 = ashr exact i32 %18, 24
  %20 = zext i32 %19 to i64
  store i64 %20, i64* %RAX, align 8
  ret %struct.Memory* %2
}

define %struct.Memory* @routine_popq__rbx(%struct.State* dereferenceable(3376), i64, %struct.Memory*) {
block_400478:
  %3 = getelementptr inbounds %struct.State, %struct.State* %0, i32 0, i32 6
  %4 = getelementptr inbounds %struct.GPR, %struct.GPR* %3, i32 0, i32 33
  %5 = getelementptr inbounds %struct.Reg, %struct.Reg* %4, i32 0, i32 0
  %PC = bitcast %union.anon* %5 to i64*
  %6 = getelementptr inbounds %struct.State, %struct.State* %0, i32 0, i32 6
  %7 = getelementptr inbounds %struct.GPR, %struct.GPR* %6, i32 0, i32 3
  %8 = getelementptr inbounds %struct.Reg, %struct.Reg* %7, i32 0, i32 0
  %RBX = bitcast %union.anon* %8 to i64*
  %9 = load i64, i64* %PC
  %10 = add i64 %9, 1
  store i64 %10, i64* %PC
  %11 = getelementptr inbounds %struct.State, %struct.State* %0, i64 0, i32 6, i32 13, i32 0, i32 0
  %12 = load i64, i64* %11, align 8
  %13 = add i64 %12, 8
  %14 = inttoptr i64 %12 to i64*
  %15 = load i64, i64* %14
  store i64 %15, i64* %RBX, align 8
  store i64 %13, i64* %11, align 8
  ret %struct.Memory* %2
}

define %struct.Memory* @routine_popq__rbp(%struct.State* dereferenceable(3376), i64, %struct.Memory*) {
block_400478:
  %3 = getelementptr inbounds %struct.State, %struct.State* %0, i32 0, i32 6
  %4 = getelementptr inbounds %struct.GPR, %struct.GPR* %3, i32 0, i32 33
  %5 = getelementptr inbounds %struct.Reg, %struct.Reg* %4, i32 0, i32 0
  %PC = bitcast %union.anon* %5 to i64*
  %6 = getelementptr inbounds %struct.State, %struct.State* %0, i32 0, i32 6
  %7 = getelementptr inbounds %struct.GPR, %struct.GPR* %6, i32 0, i32 15
  %8 = getelementptr inbounds %struct.Reg, %struct.Reg* %7, i32 0, i32 0
  %RBP = bitcast %union.anon* %8 to i64*
  %9 = load i64, i64* %PC
  %10 = add i64 %9, 1
  store i64 %10, i64* %PC
  %11 = getelementptr inbounds %struct.State, %struct.State* %0, i64 0, i32 6, i32 13, i32 0, i32 0
  %12 = load i64, i64* %11, align 8
  %13 = add i64 %12, 8
  %14 = inttoptr i64 %12 to i64*
  %15 = load i64, i64* %14
  store i64 %15, i64* %RBP, align 8
  store i64 %13, i64* %11, align 8
  ret %struct.Memory* %2
}

define %struct.Memory* @routine_retq(%struct.State* dereferenceable(3376), i64, %struct.Memory*) {
block_400478:
  %3 = getelementptr inbounds %struct.State, %struct.State* %0, i32 0, i32 6
  %4 = getelementptr inbounds %struct.GPR, %struct.GPR* %3, i32 0, i32 33
  %5 = getelementptr inbounds %struct.Reg, %struct.Reg* %4, i32 0, i32 0
  %PC = bitcast %union.anon* %5 to i64*
  %6 = load i64, i64* %PC
  %7 = add i64 %6, 1
  store i64 %7, i64* %PC
  %8 = getelementptr inbounds %struct.State, %struct.State* %0, i64 0, i32 6, i32 33, i32 0, i32 0
  %9 = getelementptr inbounds %struct.State, %struct.State* %0, i64 0, i32 6, i32 13, i32 0, i32 0
  %10 = load i64, i64* %9, align 8
  %11 = inttoptr i64 %10 to i64*
  %12 = load i64, i64* %11
  store i64 %12, i64* %8, align 8
  %13 = add i64 %10, 8
  store i64 %13, i64* %9, align 8
  ret %struct.Memory* %2
}

attributes #0 = { argmemonly nounwind }
attributes #1 = { nounwind readnone }
attributes #2 = { alwaysinline }
