; ModuleID = 'mcsema/test.proposed.ll'
source_filename = "llvm-link"
target datalayout = "e-m:e-i64:64-f80:128-n8:16:32:64-S128"
target triple = "x86_64-pc-linux-gnu-elf"

%union.anon = type { i64 }
%seg_400388__init_type = type <{ [23 x i8] }>
%seg_4003a0__text_type = type <{ [354 x i8] }>
%seg_400504__fini_type = type <{ [9 x i8] }>
%seg_400510__rodata_type = type <{ [4 x i8] }>
%seg_400514__eh_frame_hdr_type = type <{ [52 x i8] }>
%seg_400548__eh_frame_type = type <{ [208 x i8] }>
%seg_601018__data_type = type <{ [16 x i8] }>
%__bss_start_type = type <{ [8 x i8] }>
%struct.State = type { %struct.ArchState, [32 x %union.VectorReg], %struct.ArithFlags, %union.anon, %struct.Segments, %struct.AddressSpace, %struct.GPR, %struct.X87Stack, %struct.MMX, %struct.FPUStatusFlags, %union.anon, %union.FPU, %struct.SegmentCaches }
%struct.ArchState = type { i32, i32, %union.anon }
%union.VectorReg = type { %union.vec512_t }
%union.vec512_t = type { %struct.uint64v8_t }
%struct.uint64v8_t = type { [8 x i64] }
%struct.ArithFlags = type { i8, i8, i8, i8, i8, i8, i8, i8, i8, i8, i8, i8, i8, i8, i8, i8 }
%struct.Segments = type { i16, %union.SegmentSelector, i16, %union.SegmentSelector, i16, %union.SegmentSelector, i16, %union.SegmentSelector, i16, %union.SegmentSelector, i16, %union.SegmentSelector }
%union.SegmentSelector = type { i16 }
%struct.AddressSpace = type { i64, %struct.Reg, i64, %struct.Reg, i64, %struct.Reg, i64, %struct.Reg, i64, %struct.Reg, i64, %struct.Reg }
%struct.Reg = type { %union.anon }
%struct.GPR = type { i64, %struct.Reg, i64, %struct.Reg, i64, %struct.Reg, i64, %struct.Reg, i64, %struct.Reg, i64, %struct.Reg, i64, %struct.Reg, i64, %struct.Reg, i64, %struct.Reg, i64, %struct.Reg, i64, %struct.Reg, i64, %struct.Reg, i64, %struct.Reg, i64, %struct.Reg, i64, %struct.Reg, i64, %struct.Reg, i64, %struct.Reg }
%struct.X87Stack = type { [8 x %struct.anon.3] }
%struct.anon.3 = type { i64, double }
%struct.MMX = type { [8 x %struct.anon.4] }
%struct.anon.4 = type { i64, %union.vec64_t }
%union.vec64_t = type { %struct.uint64v1_t }
%struct.uint64v1_t = type { [1 x i64] }
%struct.FPUStatusFlags = type { i8, i8, i8, i8, i8, i8, i8, i8, i8, i8, i8, i8, i8, i8, i8, i8, i8, i8, i8, i8, [4 x i8] }
%union.FPU = type { %struct.anon.13 }
%struct.anon.13 = type { %struct.FpuFXSAVE, [96 x i8] }
%struct.FpuFXSAVE = type { %union.SegmentSelector, %union.SegmentSelector, %union.FPUAbridgedTagWord, i8, i16, i32, %union.SegmentSelector, i16, i32, %union.SegmentSelector, i16, %union.FPUControlStatus, %union.FPUControlStatus, [8 x %struct.FPUStackElem], [16 x %union.vec128_t] }
%union.FPUAbridgedTagWord = type { i8 }
%union.FPUControlStatus = type { i32 }
%struct.FPUStackElem = type { %union.anon.11, [6 x i8] }
%union.anon.11 = type { %struct.float80_t }
%struct.float80_t = type { [10 x i8] }
%union.vec128_t = type { %struct.uint128v1_t }
%struct.uint128v1_t = type { [1 x i128] }
%struct.SegmentCaches = type { %struct.SegmentShadow, %struct.SegmentShadow, %struct.SegmentShadow, %struct.SegmentShadow, %struct.SegmentShadow, %struct.SegmentShadow }
%struct.SegmentShadow = type { %union.anon, i32, i32 }
%struct.Memory = type opaque
%"class.std::bitset" = type { %struct.uint64v4_t }
%struct.uint64v4_t = type { [4 x i64] }
%struct.anon.2 = type { i8, i8 }

@switch.table = private unnamed_addr constant [4 x i32] [i32 2048, i32 3072, i32 0, i32 1024]
@DR0 = external global i64, align 8
@DR1 = external global i64, align 8
@DR2 = external global i64, align 8
@DR3 = external global i64, align 8
@DR4 = external global i64, align 8
@DR5 = external global i64, align 8
@DR6 = external global i64, align 8
@DR7 = external global i64, align 8
@gCR0 = external global %union.anon, align 1
@gCR1 = external global %union.anon, align 1
@gCR2 = external global %union.anon, align 1
@gCR3 = external global %union.anon, align 1
@gCR4 = external global %union.anon, align 1
@gCR8 = external global %union.anon, align 1
@seg_400388__init = internal constant %seg_400388__init_type <{ [23 x i8] c"H\83\EC\08H\8B\05e\0C \00H\85\C0t\02\FF\D0H\83\C4\08\C3" }>
@seg_4003a0__text = internal constant %seg_4003a0__text_type <{ [354 x i8] c"1\EDI\89\D1^H\89\E2H\83\E4\F0PTI\C7\C0\00\05@\00H\C7\C1\90\04@\00H\C7\C7\88\04@\00\FF\15&\0C \00\F4\0F\1FD\00\00\F3\C3f.\0F\1F\84\00\00\00\00\00\0F\1F@\00U\B8(\10`\00H=(\10`\00H\89\E5t\17\B8\00\00\00\00H\85\C0t\0D]\BF(\10`\00\FF\E0\0F\1FD\00\00]\C3f\0F\1FD\00\00\BE(\10`\00UH\81\EE(\10`\00H\89\E5H\C1\FE\03H\89\F0H\C1\E8?H\01\C6H\D1\FEt\15\B8\00\00\00\00H\85\C0t\0B]\BF(\10`\00\FF\E0\0F\1F\00]\C3f\0F\1FD\00\00\80=\D1\0B \00\00u\17UH\89\E5\E8~\FF\FF\FF\C6\05\BF\0B \00\01]\C3\0F\1FD\00\00\F3\C3\0F\1F@\00f.\0F\1F\84\00\00\00\00\00UH\89\E5]\EB\89\90U\C3f\0F\1FD\00\00AWAVI\89\D7AUATL\8D%\9E\09 \00UH\8D-\9E\09 \00SA\89\FDI\89\F6L)\E5H\83\EC\08H\C1\FD\03\E8\C7\FE\FF\FFH\85\EDt 1\DB\0F\1F\84\00\00\00\00\00L\89\FAL\89\F6D\89\EFA\FF\14\DCH\83\C3\01H9\DDu\EAH\83\C4\08[]A\5CA]A^A_\C3\90f.\0F\1F\84\00\00\00\00\00\F3\C3" }>
@seg_400504__fini = internal constant %seg_400504__fini_type <{ [9 x i8] c"H\83\EC\08H\83\C4\08\C3" }>
@seg_400510__rodata = internal constant %seg_400510__rodata_type <{ [4 x i8] c"\01\00\02\00" }>
@seg_400514__eh_frame_hdr = internal constant %seg_400514__eh_frame_hdr_type <{ [52 x i8] c"\01\1B\03;0\00\00\00\05\00\00\00\8C\FE\FF\FFL\00\00\00\BC\FE\FF\FFx\00\00\00t\FF\FF\FF\8C\00\00\00|\FF\FF\FF\A4\00\00\00\EC\FF\FF\FF\EC\00\00\00" }>
@seg_400548__eh_frame = internal constant %seg_400548__eh_frame_type <{ [208 x i8] c"\14\00\00\00\00\00\00\00\01zR\00\01x\10\01\1B\0C\07\08\90\01\07\10\10\00\00\00\1C\00\00\008\FE\FF\FF+\00\00\00\00\00\00\00\14\00\00\00\00\00\00\00\01zR\00\01x\10\01\1B\0C\07\08\90\01\00\00\10\00\00\00\1C\00\00\00<\FE\FF\FF\02\00\00\00\00\00\00\00\14\00\00\000\00\00\00\E0\FE\FF\FF\02\00\00\00\00\00\00\00\00\00\00\00D\00\00\00H\00\00\00\D0\FE\FF\FFe\00\00\00\00B\0E\10\8F\02B\0E\18\8E\03E\0E \8D\04B\0E(\8C\05H\0E0\86\06H\0E8\83\07M\0E@r\0E8A\0E0A\0E(B\0E B\0E\18B\0E\10B\0E\08\00\10\00\00\00\90\00\00\00\F8\FE\FF\FF\02\00\00\00\00\00\00\00\00\00\00\00" }>
@seg_601018__data = internal global %seg_601018__data_type zeroinitializer
@__bss_start = global %__bss_start_type zeroinitializer
@0 = internal global i1 false

declare %struct.Memory* @__remill_error(%struct.State* dereferenceable(3376), i64, %struct.Memory*)

declare i32 @__remill_fpu_exception_test_and_clear(i32, i32)

; Function Attrs: argmemonly nounwind
declare void @llvm.lifetime.start(i64, i8* nocapture) #0

; Function Attrs: argmemonly nounwind
declare void @llvm.lifetime.end(i64, i8* nocapture) #0

; Function Attrs: nounwind readnone
declare i32 @llvm.ctpop.i32(i32) #1

; Function Attrs: nounwind readnone
declare i32 @llvm.bswap.i32(i32) #1

; Function Attrs: nounwind readnone
declare i64 @llvm.bswap.i64(i64) #1

; Function Attrs: nounwind readnone
declare i32 @llvm.cttz.i32(i32, i1) #1

; Function Attrs: nounwind readnone
declare i64 @llvm.cttz.i64(i64, i1) #1

; Function Attrs: nounwind readnone
declare i32 @llvm.ctlz.i32(i32, i1) #1

; Function Attrs: nounwind readnone
declare i64 @llvm.ctlz.i64(i64, i1) #1

; Function Attrs: argmemonly nounwind
declare void @llvm.memcpy.p0i8.p0i8.i64(i8* nocapture writeonly, i8* nocapture readonly, i64, i32, i1) #0

; Function Attrs: nounwind readnone
declare double @llvm.nearbyint.f64(double) #1

; Function Attrs: nounwind readnone
declare double @llvm.fabs.f64(double) #1

; Function Attrs: nounwind readnone
declare <4 x double> @llvm.nearbyint.v4f64(<4 x double>) #1

; Function Attrs: nounwind readnone
declare <4 x double> @llvm.fabs.v4f64(<4 x double>) #1

; Function Attrs: nounwind readnone
declare double @llvm.trunc.f64(double) #1

; Function Attrs: nounwind readnone
declare <4 x double> @llvm.trunc.v4f64(<4 x double>) #1

; Function Attrs: nounwind readnone
declare float @llvm.nearbyint.f32(float) #1

; Function Attrs: nounwind readnone
declare float @llvm.fabs.f32(float) #1

; Function Attrs: nounwind readnone
declare <4 x float> @llvm.nearbyint.v4f32(<4 x float>) #1

; Function Attrs: nounwind readnone
declare <4 x float> @llvm.fabs.v4f32(<4 x float>) #1

; Function Attrs: nounwind readnone
declare float @llvm.trunc.f32(float) #1

; Function Attrs: nounwind readnone
declare <4 x float> @llvm.trunc.v4f32(<4 x float>) #1

; Function Attrs: argmemonly nounwind
declare void @llvm.memset.p0i8.i64(i8* nocapture writeonly, i8, i64, i32, i1) #0

declare double @atan(double) local_unnamed_addr

declare double @cos(double) local_unnamed_addr

declare double @sin(double) local_unnamed_addr

declare double @sqrt(double) local_unnamed_addr

declare double @tan(double) local_unnamed_addr

declare extern_weak x86_64_sysvcc i64 @abort()

declare extern_weak x86_64_sysvcc i64 @abs(i64)

declare extern_weak x86_64_sysvcc i64 @asin(i64)

declare extern_weak x86_64_sysvcc i64 @atof(i64)

declare extern_weak x86_64_sysvcc i64 @atoi(i64)

declare extern_weak x86_64_sysvcc i64 @atol(i64)

declare extern_weak x86_64_sysvcc i64 @calloc(i64, i64)

declare extern_weak x86_64_sysvcc i64 @clock()

declare extern_weak x86_64_sysvcc i64 @cosf(i64)

declare extern_weak x86_64_sysvcc i64 @exit(i64)

declare extern_weak x86_64_sysvcc i64 @exp(i64)

declare extern_weak x86_64_sysvcc i64 @fflush(i64)

declare extern_weak x86_64_sysvcc i64 @floor(i64)

declare extern_weak x86_64_sysvcc i64 @fprintf(i64, i64, i64, i64, i64, i64, i64, i64, i64, i64, i64, i64, i64, i64, i64, i64)

declare extern_weak x86_64_sysvcc i64 @fputs(i64, i64)

declare extern_weak x86_64_sysvcc i64 @free(i64)

declare extern_weak x86_64_sysvcc i64 @fwrite(i64, i64, i64, i64)

declare extern_weak x86_64_sysvcc i64 @getchar()

declare extern_weak x86_64_sysvcc i64 @gettimeofday(i64, i64)

declare extern_weak x86_64_sysvcc i64 @__isoc99_fscanf(i64, i64, i64, i64, i64, i64, i64, i64, i64, i64, i64, i64, i64, i64, i64, i64)

declare extern_weak x86_64_sysvcc i64 @__isoc99_scanf(i64, i64, i64, i64, i64, i64, i64, i64, i64, i64, i64, i64, i64, i64, i64, i64)

declare extern_weak x86_64_sysvcc i64 @__isoc99_sscanf(i64, i64, i64, i64, i64, i64, i64, i64, i64, i64, i64, i64, i64, i64, i64, i64)

declare extern_weak x86_64_sysvcc i64 @log(i64)

declare extern_weak x86_64_sysvcc i64 @lrand48()

declare extern_weak x86_64_sysvcc i64 @malloc(i64)

declare extern_weak x86_64_sysvcc i64 @memalign(i64, i64)

declare extern_weak x86_64_sysvcc i64 @memcpy(i64, i64, i64)

declare extern_weak x86_64_sysvcc i64 @memset(i64, i64, i64)

declare extern_weak x86_64_sysvcc i64 @perror(i64)

declare extern_weak x86_64_sysvcc i64 @posix_memalign(i64, i64, i64)

declare extern_weak x86_64_sysvcc i64 @pow(i64, i64)

declare extern_weak x86_64_sysvcc i64 @printf(i64, i64, i64, i64, i64, i64, i64, i64, i64, i64, i64, i64, i64, i64, i64, i64)

declare extern_weak x86_64_sysvcc i64 @putchar(i64)

declare extern_weak x86_64_sysvcc i64 @puts(i64)

declare extern_weak x86_64_sysvcc i64 @rand()

declare extern_weak x86_64_sysvcc i64 @random()

declare extern_weak x86_64_sysvcc i64 @realloc(i64, i64)

declare extern_weak x86_64_sysvcc i64 @seed48(i64)

declare extern_weak x86_64_sysvcc i64 @sinf(i64)

declare extern_weak x86_64_sysvcc i64 @sprintf(i64, i64, i64, i64, i64, i64, i64, i64, i64, i64, i64, i64, i64, i64, i64, i64)

declare extern_weak x86_64_sysvcc i64 @srand(i64)

declare extern_weak x86_64_sysvcc i64 @strcat(i64, i64)

declare extern_weak x86_64_sysvcc i64 @strcmp(i64, i64)

declare extern_weak x86_64_sysvcc i64 @strcpy(i64, i64)

declare extern_weak x86_64_sysvcc i64 @strdup(i64)

declare extern_weak x86_64_sysvcc i64 @strlen(i64)

declare extern_weak x86_64_sysvcc i64 @strncmp(i64, i64, i64)

declare extern_weak x86_64_sysvcc i64 @strtoll(i64, i64, i64)

declare extern_weak x86_64_sysvcc i64 @time(i64)

declare extern_weak x86_64_sysvcc i64 @ungetc(i64, i64)

declare extern_weak x86_64_sysvcc i64 @pthread_join(i64, i64)

declare extern_weak x86_64_sysvcc i64 @pthread_create(i64, i64, i64, i64)

declare %struct.Memory* @__remill_function_call(%struct.State* dereferenceable(3376), i64, %struct.Memory*)

declare %struct.Memory* @ext_sqrt(%struct.State* noalias dereferenceable(3376), i64, %struct.Memory* noalias)

declare %struct.Memory* @ext_atan(%struct.State* noalias dereferenceable(3376), i64, %struct.Memory* noalias)

declare %struct.Memory* @ext_cos(%struct.State* noalias dereferenceable(3376), i64, %struct.Memory* noalias)

declare %struct.Memory* @ext_tan(%struct.State* noalias dereferenceable(3376), i64, %struct.Memory* noalias)

declare %struct.Memory* @ext_sin(%struct.State* noalias dereferenceable(3376), i64, %struct.Memory* noalias)

declare %struct.Memory* @sub_479520.blunder_size(%struct.State* noalias dereferenceable(3376), i64, %struct.Memory* noalias readnone returned)

; Function Attrs: alwaysinline
define %struct.Memory* @confirm_safety(%struct.State* noalias, i64, %struct.Memory* noalias) #2 {
entry:
  %3 = getelementptr inbounds %struct.State, %struct.State* %0, i64 0, i32 6, i32 33, i32 0, i32 0
  store i64 %1, i64* %3, align 8
  %BRANCH_TAKEN = alloca i8, align 1
  store i8 0, i8* %BRANCH_TAKEN, align 1
  %MEMORY = alloca %struct.Memory*, align 8
  store %struct.Memory* %2, %struct.Memory** %MEMORY, align 8
  %loadMem_4794d0 = load %struct.Memory*, %struct.Memory** %MEMORY
  %4 = getelementptr inbounds %struct.State, %struct.State* %0, i32 0, i32 6
  %5 = getelementptr inbounds %struct.GPR, %struct.GPR* %4, i32 0, i32 33
  %6 = getelementptr inbounds %struct.Reg, %struct.Reg* %5, i32 0, i32 0
  %PC.i = bitcast %union.anon* %6 to i64*
  %7 = getelementptr inbounds %struct.State, %struct.State* %0, i32 0, i32 6
  %8 = getelementptr inbounds %struct.GPR, %struct.GPR* %7, i32 0, i32 15
  %9 = getelementptr inbounds %struct.Reg, %struct.Reg* %8, i32 0, i32 0
  %RBP.i = bitcast %union.anon* %9 to i64*
  %10 = load i64, i64* %RBP.i
  %11 = load i64, i64* %PC.i
  %12 = add i64 %11, 1
  store i64 %12, i64* %PC.i
  %13 = getelementptr inbounds %struct.State, %struct.State* %0, i64 0, i32 6, i32 13, i32 0, i32 0
  %14 = load i64, i64* %13, align 8
  %15 = add i64 %14, -8
  %16 = inttoptr i64 %15 to i64*
  store i64 %10, i64* %16
  store i64 %15, i64* %13, align 8
  store %struct.Memory* %loadMem_4794d0, %struct.Memory** %MEMORY
  %loadMem_4794d1 = load %struct.Memory*, %struct.Memory** %MEMORY
  %17 = getelementptr inbounds %struct.State, %struct.State* %0, i32 0, i32 6
  %18 = getelementptr inbounds %struct.GPR, %struct.GPR* %17, i32 0, i32 33
  %19 = getelementptr inbounds %struct.Reg, %struct.Reg* %18, i32 0, i32 0
  %PC.i15 = bitcast %union.anon* %19 to i64*
  %20 = getelementptr inbounds %struct.State, %struct.State* %0, i32 0, i32 6
  %21 = getelementptr inbounds %struct.GPR, %struct.GPR* %20, i32 0, i32 13
  %22 = getelementptr inbounds %struct.Reg, %struct.Reg* %21, i32 0, i32 0
  %RSP.i16 = bitcast %union.anon* %22 to i64*
  %23 = getelementptr inbounds %struct.State, %struct.State* %0, i32 0, i32 6
  %24 = getelementptr inbounds %struct.GPR, %struct.GPR* %23, i32 0, i32 15
  %25 = getelementptr inbounds %struct.Reg, %struct.Reg* %24, i32 0, i32 0
  %RBP.i17 = bitcast %union.anon* %25 to i64*
  %26 = load i64, i64* %RSP.i16
  %27 = load i64, i64* %PC.i15
  %28 = add i64 %27, 3
  store i64 %28, i64* %PC.i15
  store i64 %26, i64* %RBP.i17, align 8
  store %struct.Memory* %loadMem_4794d1, %struct.Memory** %MEMORY
  %loadMem_4794d4 = load %struct.Memory*, %struct.Memory** %MEMORY
  %29 = getelementptr inbounds %struct.State, %struct.State* %0, i32 0, i32 6
  %30 = getelementptr inbounds %struct.GPR, %struct.GPR* %29, i32 0, i32 33
  %31 = getelementptr inbounds %struct.Reg, %struct.Reg* %30, i32 0, i32 0
  %PC.i41 = bitcast %union.anon* %31 to i64*
  %32 = getelementptr inbounds %struct.State, %struct.State* %0, i32 0, i32 6
  %33 = getelementptr inbounds %struct.GPR, %struct.GPR* %32, i32 0, i32 13
  %34 = getelementptr inbounds %struct.Reg, %struct.Reg* %33, i32 0, i32 0
  %RSP.i42 = bitcast %union.anon* %34 to i64*
  %35 = load i64, i64* %RSP.i42
  %36 = load i64, i64* %PC.i41
  %37 = add i64 %36, 4
  store i64 %37, i64* %PC.i41
  %38 = sub i64 %35, 32
  store i64 %38, i64* %RSP.i42, align 8
  %39 = icmp ult i64 %35, 32
  %40 = zext i1 %39 to i8
  %41 = getelementptr inbounds %struct.State, %struct.State* %0, i64 0, i32 2, i32 1
  store i8 %40, i8* %41, align 1
  %42 = trunc i64 %38 to i32
  %43 = and i32 %42, 255
  %44 = call i32 @llvm.ctpop.i32(i32 %43)
  %45 = trunc i32 %44 to i8
  %46 = and i8 %45, 1
  %47 = xor i8 %46, 1
  %48 = getelementptr inbounds %struct.State, %struct.State* %0, i64 0, i32 2, i32 3
  store i8 %47, i8* %48, align 1
  %49 = xor i64 32, %35
  %50 = xor i64 %49, %38
  %51 = lshr i64 %50, 4
  %52 = trunc i64 %51 to i8
  %53 = and i8 %52, 1
  %54 = getelementptr inbounds %struct.State, %struct.State* %0, i64 0, i32 2, i32 5
  store i8 %53, i8* %54, align 1
  %55 = icmp eq i64 %38, 0
  %56 = zext i1 %55 to i8
  %57 = getelementptr inbounds %struct.State, %struct.State* %0, i64 0, i32 2, i32 7
  store i8 %56, i8* %57, align 1
  %58 = lshr i64 %38, 63
  %59 = trunc i64 %58 to i8
  %60 = getelementptr inbounds %struct.State, %struct.State* %0, i64 0, i32 2, i32 9
  store i8 %59, i8* %60, align 1
  %61 = lshr i64 %35, 63
  %62 = xor i64 %58, %61
  %63 = add i64 %62, %61
  %64 = icmp eq i64 %63, 2
  %65 = zext i1 %64 to i8
  %66 = getelementptr inbounds %struct.State, %struct.State* %0, i64 0, i32 2, i32 13
  store i8 %65, i8* %66, align 1
  store %struct.Memory* %loadMem_4794d4, %struct.Memory** %MEMORY
  %loadMem_4794d8 = load %struct.Memory*, %struct.Memory** %MEMORY
  %67 = getelementptr inbounds %struct.State, %struct.State* %0, i32 0, i32 6
  %68 = getelementptr inbounds %struct.GPR, %struct.GPR* %67, i32 0, i32 33
  %69 = getelementptr inbounds %struct.Reg, %struct.Reg* %68, i32 0, i32 0
  %PC.i39 = bitcast %union.anon* %69 to i64*
  %70 = getelementptr inbounds %struct.State, %struct.State* %0, i32 0, i32 6
  %71 = getelementptr inbounds %struct.GPR, %struct.GPR* %70, i32 0, i32 11
  %72 = getelementptr inbounds %struct.Reg, %struct.Reg* %71, i32 0, i32 0
  %EDI.i = bitcast %union.anon* %72 to i32*
  %73 = getelementptr inbounds %struct.State, %struct.State* %0, i32 0, i32 6
  %74 = getelementptr inbounds %struct.GPR, %struct.GPR* %73, i32 0, i32 15
  %75 = getelementptr inbounds %struct.Reg, %struct.Reg* %74, i32 0, i32 0
  %RBP.i40 = bitcast %union.anon* %75 to i64*
  %76 = load i64, i64* %RBP.i40
  %77 = sub i64 %76, 4
  %78 = load i32, i32* %EDI.i
  %79 = zext i32 %78 to i64
  %80 = load i64, i64* %PC.i39
  %81 = add i64 %80, 3
  store i64 %81, i64* %PC.i39
  %82 = inttoptr i64 %77 to i32*
  store i32 %78, i32* %82
  store %struct.Memory* %loadMem_4794d8, %struct.Memory** %MEMORY
  %loadMem_4794db = load %struct.Memory*, %struct.Memory** %MEMORY
  %83 = getelementptr inbounds %struct.State, %struct.State* %0, i32 0, i32 6
  %84 = getelementptr inbounds %struct.GPR, %struct.GPR* %83, i32 0, i32 33
  %85 = getelementptr inbounds %struct.Reg, %struct.Reg* %84, i32 0, i32 0
  %PC.i37 = bitcast %union.anon* %85 to i64*
  %86 = getelementptr inbounds %struct.State, %struct.State* %0, i32 0, i32 6
  %87 = getelementptr inbounds %struct.GPR, %struct.GPR* %86, i32 0, i32 9
  %88 = getelementptr inbounds %struct.Reg, %struct.Reg* %87, i32 0, i32 0
  %ESI.i = bitcast %union.anon* %88 to i32*
  %89 = getelementptr inbounds %struct.State, %struct.State* %0, i32 0, i32 6
  %90 = getelementptr inbounds %struct.GPR, %struct.GPR* %89, i32 0, i32 15
  %91 = getelementptr inbounds %struct.Reg, %struct.Reg* %90, i32 0, i32 0
  %RBP.i38 = bitcast %union.anon* %91 to i64*
  %92 = load i64, i64* %RBP.i38
  %93 = sub i64 %92, 8
  %94 = load i32, i32* %ESI.i
  %95 = zext i32 %94 to i64
  %96 = load i64, i64* %PC.i37
  %97 = add i64 %96, 3
  store i64 %97, i64* %PC.i37
  %98 = inttoptr i64 %93 to i32*
  store i32 %94, i32* %98
  store %struct.Memory* %loadMem_4794db, %struct.Memory** %MEMORY
  %loadMem_4794de = load %struct.Memory*, %struct.Memory** %MEMORY
  %99 = getelementptr inbounds %struct.State, %struct.State* %0, i32 0, i32 6
  %100 = getelementptr inbounds %struct.GPR, %struct.GPR* %99, i32 0, i32 33
  %101 = getelementptr inbounds %struct.Reg, %struct.Reg* %100, i32 0, i32 0
  %PC.i34 = bitcast %union.anon* %101 to i64*
  %102 = getelementptr inbounds %struct.State, %struct.State* %0, i32 0, i32 6
  %103 = getelementptr inbounds %struct.GPR, %struct.GPR* %102, i32 0, i32 7
  %104 = getelementptr inbounds %struct.Reg, %struct.Reg* %103, i32 0, i32 0
  %RDX.i35 = bitcast %union.anon* %104 to i64*
  %105 = getelementptr inbounds %struct.State, %struct.State* %0, i32 0, i32 6
  %106 = getelementptr inbounds %struct.GPR, %struct.GPR* %105, i32 0, i32 15
  %107 = getelementptr inbounds %struct.Reg, %struct.Reg* %106, i32 0, i32 0
  %RBP.i36 = bitcast %union.anon* %107 to i64*
  %108 = load i64, i64* %RBP.i36
  %109 = sub i64 %108, 16
  %110 = load i64, i64* %RDX.i35
  %111 = load i64, i64* %PC.i34
  %112 = add i64 %111, 4
  store i64 %112, i64* %PC.i34
  %113 = inttoptr i64 %109 to i64*
  store i64 %110, i64* %113
  store %struct.Memory* %loadMem_4794de, %struct.Memory** %MEMORY
  %loadMem_4794e2 = load %struct.Memory*, %struct.Memory** %MEMORY
  %114 = getelementptr inbounds %struct.State, %struct.State* %0, i32 0, i32 6
  %115 = getelementptr inbounds %struct.GPR, %struct.GPR* %114, i32 0, i32 33
  %116 = getelementptr inbounds %struct.Reg, %struct.Reg* %115, i32 0, i32 0
  %PC.i31 = bitcast %union.anon* %116 to i64*
  %117 = getelementptr inbounds %struct.State, %struct.State* %0, i32 0, i32 6
  %118 = getelementptr inbounds %struct.GPR, %struct.GPR* %117, i32 0, i32 5
  %119 = getelementptr inbounds %struct.Reg, %struct.Reg* %118, i32 0, i32 0
  %RCX.i32 = bitcast %union.anon* %119 to i64*
  %120 = getelementptr inbounds %struct.State, %struct.State* %0, i32 0, i32 6
  %121 = getelementptr inbounds %struct.GPR, %struct.GPR* %120, i32 0, i32 15
  %122 = getelementptr inbounds %struct.Reg, %struct.Reg* %121, i32 0, i32 0
  %RBP.i33 = bitcast %union.anon* %122 to i64*
  %123 = load i64, i64* %RBP.i33
  %124 = sub i64 %123, 24
  %125 = load i64, i64* %RCX.i32
  %126 = load i64, i64* %PC.i31
  %127 = add i64 %126, 4
  store i64 %127, i64* %PC.i31
  %128 = inttoptr i64 %124 to i64*
  store i64 %125, i64* %128
  store %struct.Memory* %loadMem_4794e2, %struct.Memory** %MEMORY
  %loadMem_4794e6 = load %struct.Memory*, %struct.Memory** %MEMORY
  %129 = getelementptr inbounds %struct.State, %struct.State* %0, i32 0, i32 6
  %130 = getelementptr inbounds %struct.GPR, %struct.GPR* %129, i32 0, i32 33
  %131 = getelementptr inbounds %struct.Reg, %struct.Reg* %130, i32 0, i32 0
  %PC.i29 = bitcast %union.anon* %131 to i64*
  %132 = getelementptr inbounds %struct.State, %struct.State* %0, i32 0, i32 6
  %133 = getelementptr inbounds %struct.GPR, %struct.GPR* %132, i32 0, i32 11
  %134 = getelementptr inbounds %struct.Reg, %struct.Reg* %133, i32 0, i32 0
  %RDI.i = bitcast %union.anon* %134 to i64*
  %135 = getelementptr inbounds %struct.State, %struct.State* %0, i32 0, i32 6
  %136 = getelementptr inbounds %struct.GPR, %struct.GPR* %135, i32 0, i32 15
  %137 = getelementptr inbounds %struct.Reg, %struct.Reg* %136, i32 0, i32 0
  %RBP.i30 = bitcast %union.anon* %137 to i64*
  %138 = load i64, i64* %RBP.i30
  %139 = sub i64 %138, 4
  %140 = load i64, i64* %PC.i29
  %141 = add i64 %140, 3
  store i64 %141, i64* %PC.i29
  %142 = inttoptr i64 %139 to i32*
  %143 = load i32, i32* %142
  %144 = zext i32 %143 to i64
  store i64 %144, i64* %RDI.i, align 8
  store %struct.Memory* %loadMem_4794e6, %struct.Memory** %MEMORY
  %loadMem_4794e9 = load %struct.Memory*, %struct.Memory** %MEMORY
  %145 = getelementptr inbounds %struct.State, %struct.State* %0, i32 0, i32 6
  %146 = getelementptr inbounds %struct.GPR, %struct.GPR* %145, i32 0, i32 33
  %147 = getelementptr inbounds %struct.Reg, %struct.Reg* %146, i32 0, i32 0
  %PC.i27 = bitcast %union.anon* %147 to i64*
  %148 = getelementptr inbounds %struct.State, %struct.State* %0, i32 0, i32 6
  %149 = getelementptr inbounds %struct.GPR, %struct.GPR* %148, i32 0, i32 9
  %150 = getelementptr inbounds %struct.Reg, %struct.Reg* %149, i32 0, i32 0
  %RSI.i = bitcast %union.anon* %150 to i64*
  %151 = getelementptr inbounds %struct.State, %struct.State* %0, i32 0, i32 6
  %152 = getelementptr inbounds %struct.GPR, %struct.GPR* %151, i32 0, i32 15
  %153 = getelementptr inbounds %struct.Reg, %struct.Reg* %152, i32 0, i32 0
  %RBP.i28 = bitcast %union.anon* %153 to i64*
  %154 = load i64, i64* %RBP.i28
  %155 = sub i64 %154, 8
  %156 = load i64, i64* %PC.i27
  %157 = add i64 %156, 3
  store i64 %157, i64* %PC.i27
  %158 = inttoptr i64 %155 to i32*
  %159 = load i32, i32* %158
  %160 = zext i32 %159 to i64
  store i64 %160, i64* %RSI.i, align 8
  store %struct.Memory* %loadMem_4794e9, %struct.Memory** %MEMORY
  %loadMem_4794ec = load %struct.Memory*, %struct.Memory** %MEMORY
  %161 = getelementptr inbounds %struct.State, %struct.State* %0, i32 0, i32 6
  %162 = getelementptr inbounds %struct.GPR, %struct.GPR* %161, i32 0, i32 33
  %163 = getelementptr inbounds %struct.Reg, %struct.Reg* %162, i32 0, i32 0
  %PC.i25 = bitcast %union.anon* %163 to i64*
  %164 = getelementptr inbounds %struct.State, %struct.State* %0, i32 0, i32 6
  %165 = getelementptr inbounds %struct.GPR, %struct.GPR* %164, i32 0, i32 7
  %166 = getelementptr inbounds %struct.Reg, %struct.Reg* %165, i32 0, i32 0
  %RDX.i = bitcast %union.anon* %166 to i64*
  %167 = getelementptr inbounds %struct.State, %struct.State* %0, i32 0, i32 6
  %168 = getelementptr inbounds %struct.GPR, %struct.GPR* %167, i32 0, i32 15
  %169 = getelementptr inbounds %struct.Reg, %struct.Reg* %168, i32 0, i32 0
  %RBP.i26 = bitcast %union.anon* %169 to i64*
  %170 = load i64, i64* %RBP.i26
  %171 = sub i64 %170, 16
  %172 = load i64, i64* %PC.i25
  %173 = add i64 %172, 4
  store i64 %173, i64* %PC.i25
  %174 = inttoptr i64 %171 to i64*
  %175 = load i64, i64* %174
  store i64 %175, i64* %RDX.i, align 8
  store %struct.Memory* %loadMem_4794ec, %struct.Memory** %MEMORY
  %loadMem_4794f0 = load %struct.Memory*, %struct.Memory** %MEMORY
  %176 = getelementptr inbounds %struct.State, %struct.State* %0, i32 0, i32 6
  %177 = getelementptr inbounds %struct.GPR, %struct.GPR* %176, i32 0, i32 33
  %178 = getelementptr inbounds %struct.Reg, %struct.Reg* %177, i32 0, i32 0
  %PC.i23 = bitcast %union.anon* %178 to i64*
  %179 = getelementptr inbounds %struct.State, %struct.State* %0, i32 0, i32 6
  %180 = getelementptr inbounds %struct.GPR, %struct.GPR* %179, i32 0, i32 5
  %181 = getelementptr inbounds %struct.Reg, %struct.Reg* %180, i32 0, i32 0
  %RCX.i = bitcast %union.anon* %181 to i64*
  %182 = getelementptr inbounds %struct.State, %struct.State* %0, i32 0, i32 6
  %183 = getelementptr inbounds %struct.GPR, %struct.GPR* %182, i32 0, i32 15
  %184 = getelementptr inbounds %struct.Reg, %struct.Reg* %183, i32 0, i32 0
  %RBP.i24 = bitcast %union.anon* %184 to i64*
  %185 = load i64, i64* %RBP.i24
  %186 = sub i64 %185, 24
  %187 = load i64, i64* %PC.i23
  %188 = add i64 %187, 4
  store i64 %188, i64* %PC.i23
  %189 = inttoptr i64 %186 to i64*
  %190 = load i64, i64* %189
  store i64 %190, i64* %RCX.i, align 8
  store %struct.Memory* %loadMem_4794f0, %struct.Memory** %MEMORY
  %loadMem1_4794f4 = load %struct.Memory*, %struct.Memory** %MEMORY
  %191 = getelementptr inbounds %struct.State, %struct.State* %0, i32 0, i32 6
  %192 = getelementptr inbounds %struct.GPR, %struct.GPR* %191, i32 0, i32 33
  %193 = getelementptr inbounds %struct.Reg, %struct.Reg* %192, i32 0, i32 0
  %PC.i22 = bitcast %union.anon* %193 to i64*
  %194 = load i64, i64* %PC.i22
  %195 = add i64 %194, 44
  %196 = load i64, i64* %PC.i22
  %197 = add i64 %196, 5
  %198 = load i64, i64* %PC.i22
  %199 = add i64 %198, 5
  store i64 %199, i64* %PC.i22
  %200 = getelementptr inbounds %struct.State, %struct.State* %0, i64 0, i32 6, i32 13, i32 0, i32 0
  %201 = load i64, i64* %200, align 8
  %202 = add i64 %201, -8
  %203 = inttoptr i64 %202 to i64*
  store i64 %197, i64* %203
  store i64 %202, i64* %200, align 8
  %204 = getelementptr inbounds %struct.State, %struct.State* %0, i64 0, i32 6, i32 33, i32 0, i32 0
  store i64 %195, i64* %204, align 8
  store %struct.Memory* %loadMem1_4794f4, %struct.Memory** %MEMORY
  %loadMem2_4794f4 = load %struct.Memory*, %struct.Memory** %MEMORY
  %loadPC_4794f4 = load i64, i64* %3
  %call2_4794f4 = call %struct.Memory* @sub_479520.blunder_size(%struct.State* %0, i64 %loadPC_4794f4, %struct.Memory* %loadMem2_4794f4)
  store %struct.Memory* %call2_4794f4, %struct.Memory** %MEMORY
  %loadMem_4794f9 = load %struct.Memory*, %struct.Memory** %MEMORY
  %205 = getelementptr inbounds %struct.State, %struct.State* %0, i32 0, i32 6
  %206 = getelementptr inbounds %struct.GPR, %struct.GPR* %205, i32 0, i32 33
  %207 = getelementptr inbounds %struct.Reg, %struct.Reg* %206, i32 0, i32 0
  %PC.i20 = bitcast %union.anon* %207 to i64*
  %208 = getelementptr inbounds %struct.State, %struct.State* %0, i32 0, i32 1
  %209 = getelementptr inbounds [32 x %union.VectorReg], [32 x %union.VectorReg]* %208, i64 0, i64 1
  %YMM1.i = bitcast %union.VectorReg* %209 to %"class.std::bitset"*
  %210 = getelementptr inbounds %struct.State, %struct.State* %0, i32 0, i32 1
  %211 = getelementptr inbounds [32 x %union.VectorReg], [32 x %union.VectorReg]* %210, i64 0, i64 1
  %XMM1.i21 = bitcast %union.VectorReg* %211 to %union.vec128_t*
  %212 = bitcast %"class.std::bitset"* %YMM1.i to i8*
  %213 = bitcast %"class.std::bitset"* %YMM1.i to i8*
  %214 = bitcast %union.vec128_t* %XMM1.i21 to i8*
  %215 = load i64, i64* %PC.i20
  %216 = add i64 %215, 3
  store i64 %216, i64* %PC.i20
  %217 = bitcast i8* %213 to i64*
  %218 = load i64, i64* %217, align 1
  %219 = getelementptr inbounds i8, i8* %213, i64 8
  %220 = bitcast i8* %219 to i64*
  %221 = load i64, i64* %220, align 1
  %222 = bitcast i8* %214 to i64*
  %223 = load i64, i64* %222, align 1
  %224 = getelementptr inbounds i8, i8* %214, i64 8
  %225 = bitcast i8* %224 to i64*
  %226 = load i64, i64* %225, align 1
  %227 = xor i64 %223, %218
  %228 = xor i64 %226, %221
  %229 = trunc i64 %227 to i32
  %230 = lshr i64 %227, 32
  %231 = trunc i64 %230 to i32
  %232 = bitcast i8* %212 to i32*
  store i32 %229, i32* %232, align 1
  %233 = getelementptr inbounds i8, i8* %212, i64 4
  %234 = bitcast i8* %233 to i32*
  store i32 %231, i32* %234, align 1
  %235 = trunc i64 %228 to i32
  %236 = getelementptr inbounds i8, i8* %212, i64 8
  %237 = bitcast i8* %236 to i32*
  store i32 %235, i32* %237, align 1
  %238 = lshr i64 %228, 32
  %239 = trunc i64 %238 to i32
  %240 = getelementptr inbounds i8, i8* %212, i64 12
  %241 = bitcast i8* %240 to i32*
  store i32 %239, i32* %241, align 1
  store %struct.Memory* %loadMem_4794f9, %struct.Memory** %MEMORY
  %loadMem_4794fc = load %struct.Memory*, %struct.Memory** %MEMORY
  %242 = getelementptr inbounds %struct.State, %struct.State* %0, i32 0, i32 6
  %243 = getelementptr inbounds %struct.GPR, %struct.GPR* %242, i32 0, i32 33
  %244 = getelementptr inbounds %struct.Reg, %struct.Reg* %243, i32 0, i32 0
  %PC.i18 = bitcast %union.anon* %244 to i64*
  %245 = getelementptr inbounds %struct.State, %struct.State* %0, i32 0, i32 1
  %246 = getelementptr inbounds [32 x %union.VectorReg], [32 x %union.VectorReg]* %245, i64 0, i64 0
  %YMM0.i = bitcast %union.VectorReg* %246 to %"class.std::bitset"*
  %247 = getelementptr inbounds %struct.State, %struct.State* %0, i32 0, i32 1
  %248 = getelementptr inbounds [32 x %union.VectorReg], [32 x %union.VectorReg]* %247, i64 0, i64 0
  %XMM0.i19 = bitcast %union.VectorReg* %248 to %union.vec128_t*
  %249 = bitcast %"class.std::bitset"* %YMM0.i to i8*
  %250 = bitcast %union.vec128_t* %XMM0.i19 to i8*
  %251 = load i64, i64* %PC.i18
  %252 = add i64 %251, 4
  store i64 %252, i64* %PC.i18
  %253 = bitcast i8* %250 to <2 x float>*
  %254 = load <2 x float>, <2 x float>* %253, align 1
  %255 = extractelement <2 x float> %254, i32 0
  %256 = fpext float %255 to double
  %257 = bitcast i8* %249 to double*
  store double %256, double* %257, align 1
  store %struct.Memory* %loadMem_4794fc, %struct.Memory** %MEMORY
  %loadMem_479500 = load %struct.Memory*, %struct.Memory** %MEMORY
  %258 = getelementptr inbounds %struct.State, %struct.State* %0, i32 0, i32 6
  %259 = getelementptr inbounds %struct.GPR, %struct.GPR* %258, i32 0, i32 33
  %260 = getelementptr inbounds %struct.Reg, %struct.Reg* %259, i32 0, i32 0
  %PC.i14 = bitcast %union.anon* %260 to i64*
  %261 = getelementptr inbounds %struct.State, %struct.State* %0, i32 0, i32 1
  %262 = getelementptr inbounds [32 x %union.VectorReg], [32 x %union.VectorReg]* %261, i64 0, i64 0
  %XMM0.i = bitcast %union.VectorReg* %262 to %union.vec128_t*
  %263 = getelementptr inbounds %struct.State, %struct.State* %0, i32 0, i32 1
  %264 = getelementptr inbounds [32 x %union.VectorReg], [32 x %union.VectorReg]* %263, i64 0, i64 1
  %XMM1.i = bitcast %union.VectorReg* %264 to %union.vec128_t*
  %265 = bitcast %union.vec128_t* %XMM0.i to i8*
  %266 = bitcast %union.vec128_t* %XMM1.i to i8*
  %267 = load i64, i64* %PC.i14
  %268 = add i64 %267, 4
  store i64 %268, i64* %PC.i14
  %269 = bitcast i8* %265 to double*
  %270 = load double, double* %269, align 1
  %271 = bitcast i8* %266 to double*
  %272 = load double, double* %271, align 1
  %273 = fcmp uno double %270, %272
  br i1 %273, label %274, label %286

; <label>:274:                                    ; preds = %entry
  %275 = fadd double %270, %272
  %276 = bitcast double %275 to i64
  %277 = and i64 %276, 9221120237041090560
  %278 = icmp eq i64 %277, 9218868437227405312
  %279 = and i64 %276, 2251799813685247
  %280 = icmp ne i64 %279, 0
  %281 = and i1 %278, %280
  br i1 %281, label %282, label %292

; <label>:282:                                    ; preds = %274
  %283 = getelementptr inbounds %struct.State, %struct.State* %0, i64 0, i32 6, i32 33, i32 0, i32 0
  %284 = load i64, i64* %283, align 8
  %285 = call %struct.Memory* @__remill_error(%struct.State* nonnull dereferenceable(3376) %0, i64 %284, %struct.Memory* %loadMem_479500)
  br label %routine_ucomisd__xmm1___xmm0.exit

; <label>:286:                                    ; preds = %entry
  %287 = fcmp ogt double %270, %272
  br i1 %287, label %292, label %288

; <label>:288:                                    ; preds = %286
  %289 = fcmp olt double %270, %272
  br i1 %289, label %292, label %290

; <label>:290:                                    ; preds = %288
  %291 = fcmp oeq double %270, %272
  br i1 %291, label %292, label %299

; <label>:292:                                    ; preds = %290, %288, %286, %274
  %293 = phi i8 [ 0, %286 ], [ 0, %288 ], [ 1, %290 ], [ 1, %274 ]
  %294 = phi i8 [ 0, %286 ], [ 0, %288 ], [ 0, %290 ], [ 1, %274 ]
  %295 = phi i8 [ 0, %286 ], [ 1, %288 ], [ 0, %290 ], [ 1, %274 ]
  %296 = getelementptr inbounds %struct.State, %struct.State* %0, i64 0, i32 2, i32 7
  store i8 %293, i8* %296, align 1
  %297 = getelementptr inbounds %struct.State, %struct.State* %0, i64 0, i32 2, i32 3
  store i8 %294, i8* %297, align 1
  %298 = getelementptr inbounds %struct.State, %struct.State* %0, i64 0, i32 2, i32 1
  store i8 %295, i8* %298, align 1
  br label %299

; <label>:299:                                    ; preds = %292, %290
  %300 = getelementptr inbounds %struct.State, %struct.State* %0, i64 0, i32 2, i32 13
  store i8 0, i8* %300, align 1
  %301 = getelementptr inbounds %struct.State, %struct.State* %0, i64 0, i32 2, i32 9
  store i8 0, i8* %301, align 1
  %302 = getelementptr inbounds %struct.State, %struct.State* %0, i64 0, i32 2, i32 5
  store i8 0, i8* %302, align 1
  br label %routine_ucomisd__xmm1___xmm0.exit

routine_ucomisd__xmm1___xmm0.exit:                ; preds = %282, %299
  %303 = phi %struct.Memory* [ %285, %282 ], [ %loadMem_479500, %299 ]
  store %struct.Memory* %303, %struct.Memory** %MEMORY
  %loadMem_479504 = load %struct.Memory*, %struct.Memory** %MEMORY
  %304 = getelementptr inbounds %struct.State, %struct.State* %0, i32 0, i32 6
  %305 = getelementptr inbounds %struct.GPR, %struct.GPR* %304, i32 0, i32 33
  %306 = getelementptr inbounds %struct.Reg, %struct.Reg* %305, i32 0, i32 0
  %PC.i12 = bitcast %union.anon* %306 to i64*
  %307 = getelementptr inbounds %struct.State, %struct.State* %0, i32 0, i32 6
  %308 = getelementptr inbounds %struct.GPR, %struct.GPR* %307, i32 0, i32 1
  %309 = getelementptr inbounds %struct.Reg, %struct.Reg* %308, i32 0, i32 0
  %310 = bitcast %union.anon* %309 to %struct.anon.2*
  %AL.i13 = getelementptr inbounds %struct.anon.2, %struct.anon.2* %310, i32 0, i32 0
  %311 = load i64, i64* %PC.i12
  %312 = add i64 %311, 3
  store i64 %312, i64* %PC.i12
  %313 = getelementptr inbounds %struct.State, %struct.State* %0, i64 0, i32 2, i32 7
  %314 = load i8, i8* %313, align 1
  store i8 %314, i8* %AL.i13, align 1
  store %struct.Memory* %loadMem_479504, %struct.Memory** %MEMORY
  %loadMem_479507 = load %struct.Memory*, %struct.Memory** %MEMORY
  %315 = getelementptr inbounds %struct.State, %struct.State* %0, i32 0, i32 6
  %316 = getelementptr inbounds %struct.GPR, %struct.GPR* %315, i32 0, i32 33
  %317 = getelementptr inbounds %struct.Reg, %struct.Reg* %316, i32 0, i32 0
  %PC.i10 = bitcast %union.anon* %317 to i64*
  %318 = getelementptr inbounds %struct.State, %struct.State* %0, i32 0, i32 6
  %319 = getelementptr inbounds %struct.GPR, %struct.GPR* %318, i32 0, i32 17
  %320 = getelementptr inbounds %struct.Reg, %struct.Reg* %319, i32 0, i32 0
  %321 = bitcast %union.anon* %320 to %struct.anon.2*
  %R8B.i11 = getelementptr inbounds %struct.anon.2, %struct.anon.2* %321, i32 0, i32 0
  %322 = load i64, i64* %PC.i10
  %323 = add i64 %322, 4
  store i64 %323, i64* %PC.i10
  %324 = getelementptr inbounds %struct.State, %struct.State* %0, i64 0, i32 2, i32 3
  %325 = load i8, i8* %324, align 1
  %326 = icmp eq i8 %325, 0
  %327 = zext i1 %326 to i8
  store i8 %327, i8* %R8B.i11, align 1
  store %struct.Memory* %loadMem_479507, %struct.Memory** %MEMORY
  %loadMem_47950b = load %struct.Memory*, %struct.Memory** %MEMORY
  %328 = getelementptr inbounds %struct.State, %struct.State* %0, i32 0, i32 6
  %329 = getelementptr inbounds %struct.GPR, %struct.GPR* %328, i32 0, i32 33
  %330 = getelementptr inbounds %struct.Reg, %struct.Reg* %329, i32 0, i32 0
  %PC.i8 = bitcast %union.anon* %330 to i64*
  %331 = getelementptr inbounds %struct.State, %struct.State* %0, i32 0, i32 6
  %332 = getelementptr inbounds %struct.GPR, %struct.GPR* %331, i32 0, i32 1
  %333 = getelementptr inbounds %struct.Reg, %struct.Reg* %332, i32 0, i32 0
  %334 = bitcast %union.anon* %333 to %struct.anon.2*
  %AL.i9 = getelementptr inbounds %struct.anon.2, %struct.anon.2* %334, i32 0, i32 0
  %335 = getelementptr inbounds %struct.State, %struct.State* %0, i32 0, i32 6
  %336 = getelementptr inbounds %struct.GPR, %struct.GPR* %335, i32 0, i32 17
  %337 = getelementptr inbounds %struct.Reg, %struct.Reg* %336, i32 0, i32 0
  %338 = bitcast %union.anon* %337 to %struct.anon.2*
  %R8B.i = getelementptr inbounds %struct.anon.2, %struct.anon.2* %338, i32 0, i32 0
  %339 = load i8, i8* %AL.i9
  %340 = zext i8 %339 to i64
  %341 = load i8, i8* %R8B.i
  %342 = zext i8 %341 to i64
  %343 = load i64, i64* %PC.i8
  %344 = add i64 %343, 3
  store i64 %344, i64* %PC.i8
  %345 = and i64 %342, %340
  %346 = trunc i64 %345 to i8
  store i8 %346, i8* %AL.i9, align 1
  %347 = getelementptr inbounds %struct.State, %struct.State* %0, i64 0, i32 2, i32 1
  store i8 0, i8* %347, align 1
  %348 = trunc i64 %345 to i32
  %349 = and i32 %348, 255
  %350 = call i32 @llvm.ctpop.i32(i32 %349)
  %351 = trunc i32 %350 to i8
  %352 = and i8 %351, 1
  %353 = xor i8 %352, 1
  %354 = getelementptr inbounds %struct.State, %struct.State* %0, i64 0, i32 2, i32 3
  store i8 %353, i8* %354, align 1
  %355 = icmp eq i8 %346, 0
  %356 = zext i1 %355 to i8
  %357 = getelementptr inbounds %struct.State, %struct.State* %0, i64 0, i32 2, i32 7
  store i8 %356, i8* %357, align 1
  %358 = lshr i8 %346, 7
  %359 = getelementptr inbounds %struct.State, %struct.State* %0, i64 0, i32 2, i32 9
  store i8 %358, i8* %359, align 1
  %360 = getelementptr inbounds %struct.State, %struct.State* %0, i64 0, i32 2, i32 13
  store i8 0, i8* %360, align 1
  %361 = getelementptr inbounds %struct.State, %struct.State* %0, i64 0, i32 2, i32 5
  store i8 0, i8* %361, align 1
  store %struct.Memory* %loadMem_47950b, %struct.Memory** %MEMORY
  %loadMem_47950e = load %struct.Memory*, %struct.Memory** %MEMORY
  %362 = getelementptr inbounds %struct.State, %struct.State* %0, i32 0, i32 6
  %363 = getelementptr inbounds %struct.GPR, %struct.GPR* %362, i32 0, i32 33
  %364 = getelementptr inbounds %struct.Reg, %struct.Reg* %363, i32 0, i32 0
  %PC.i6 = bitcast %union.anon* %364 to i64*
  %365 = getelementptr inbounds %struct.State, %struct.State* %0, i32 0, i32 6
  %366 = getelementptr inbounds %struct.GPR, %struct.GPR* %365, i32 0, i32 1
  %367 = getelementptr inbounds %struct.Reg, %struct.Reg* %366, i32 0, i32 0
  %368 = bitcast %union.anon* %367 to %struct.anon.2*
  %AL.i7 = getelementptr inbounds %struct.anon.2, %struct.anon.2* %368, i32 0, i32 0
  %369 = load i8, i8* %AL.i7
  %370 = zext i8 %369 to i64
  %371 = load i64, i64* %PC.i6
  %372 = add i64 %371, 2
  store i64 %372, i64* %PC.i6
  %373 = and i64 1, %370
  %374 = trunc i64 %373 to i8
  store i8 %374, i8* %AL.i7, align 1
  %375 = getelementptr inbounds %struct.State, %struct.State* %0, i64 0, i32 2, i32 1
  store i8 0, i8* %375, align 1
  %376 = trunc i64 %373 to i32
  %377 = and i32 %376, 255
  %378 = call i32 @llvm.ctpop.i32(i32 %377)
  %379 = trunc i32 %378 to i8
  %380 = and i8 %379, 1
  %381 = xor i8 %380, 1
  %382 = getelementptr inbounds %struct.State, %struct.State* %0, i64 0, i32 2, i32 3
  store i8 %381, i8* %382, align 1
  %383 = icmp eq i8 %374, 0
  %384 = zext i1 %383 to i8
  %385 = getelementptr inbounds %struct.State, %struct.State* %0, i64 0, i32 2, i32 7
  store i8 %384, i8* %385, align 1
  %386 = getelementptr inbounds %struct.State, %struct.State* %0, i64 0, i32 2, i32 9
  store i8 0, i8* %386, align 1
  %387 = getelementptr inbounds %struct.State, %struct.State* %0, i64 0, i32 2, i32 13
  store i8 0, i8* %387, align 1
  %388 = getelementptr inbounds %struct.State, %struct.State* %0, i64 0, i32 2, i32 5
  store i8 0, i8* %388, align 1
  store %struct.Memory* %loadMem_47950e, %struct.Memory** %MEMORY
  %loadMem_479510 = load %struct.Memory*, %struct.Memory** %MEMORY
  %389 = getelementptr inbounds %struct.State, %struct.State* %0, i32 0, i32 6
  %390 = getelementptr inbounds %struct.GPR, %struct.GPR* %389, i32 0, i32 33
  %391 = getelementptr inbounds %struct.Reg, %struct.Reg* %390, i32 0, i32 0
  %PC.i5 = bitcast %union.anon* %391 to i64*
  %392 = getelementptr inbounds %struct.State, %struct.State* %0, i32 0, i32 6
  %393 = getelementptr inbounds %struct.GPR, %struct.GPR* %392, i32 0, i32 1
  %394 = getelementptr inbounds %struct.Reg, %struct.Reg* %393, i32 0, i32 0
  %395 = bitcast %union.anon* %394 to %struct.anon.2*
  %AL.i = getelementptr inbounds %struct.anon.2, %struct.anon.2* %395, i32 0, i32 0
  %396 = getelementptr inbounds %struct.State, %struct.State* %0, i32 0, i32 6
  %397 = getelementptr inbounds %struct.GPR, %struct.GPR* %396, i32 0, i32 1
  %398 = getelementptr inbounds %struct.Reg, %struct.Reg* %397, i32 0, i32 0
  %RAX.i = bitcast %union.anon* %398 to i64*
  %399 = load i8, i8* %AL.i
  %400 = zext i8 %399 to i64
  %401 = load i64, i64* %PC.i5
  %402 = add i64 %401, 3
  store i64 %402, i64* %PC.i5
  %403 = and i64 %400, 255
  store i64 %403, i64* %RAX.i, align 8
  store %struct.Memory* %loadMem_479510, %struct.Memory** %MEMORY
  %loadMem_479513 = load %struct.Memory*, %struct.Memory** %MEMORY
  %404 = getelementptr inbounds %struct.State, %struct.State* %0, i32 0, i32 6
  %405 = getelementptr inbounds %struct.GPR, %struct.GPR* %404, i32 0, i32 33
  %406 = getelementptr inbounds %struct.Reg, %struct.Reg* %405, i32 0, i32 0
  %PC.i4 = bitcast %union.anon* %406 to i64*
  %407 = getelementptr inbounds %struct.State, %struct.State* %0, i32 0, i32 6
  %408 = getelementptr inbounds %struct.GPR, %struct.GPR* %407, i32 0, i32 13
  %409 = getelementptr inbounds %struct.Reg, %struct.Reg* %408, i32 0, i32 0
  %RSP.i = bitcast %union.anon* %409 to i64*
  %410 = load i64, i64* %RSP.i
  %411 = load i64, i64* %PC.i4
  %412 = add i64 %411, 4
  store i64 %412, i64* %PC.i4
  %413 = add i64 32, %410
  store i64 %413, i64* %RSP.i, align 8
  %414 = icmp ult i64 %413, %410
  %415 = icmp ult i64 %413, 32
  %416 = or i1 %414, %415
  %417 = zext i1 %416 to i8
  %418 = getelementptr inbounds %struct.State, %struct.State* %0, i64 0, i32 2, i32 1
  store i8 %417, i8* %418, align 1
  %419 = trunc i64 %413 to i32
  %420 = and i32 %419, 255
  %421 = call i32 @llvm.ctpop.i32(i32 %420)
  %422 = trunc i32 %421 to i8
  %423 = and i8 %422, 1
  %424 = xor i8 %423, 1
  %425 = getelementptr inbounds %struct.State, %struct.State* %0, i64 0, i32 2, i32 3
  store i8 %424, i8* %425, align 1
  %426 = xor i64 32, %410
  %427 = xor i64 %426, %413
  %428 = lshr i64 %427, 4
  %429 = trunc i64 %428 to i8
  %430 = and i8 %429, 1
  %431 = getelementptr inbounds %struct.State, %struct.State* %0, i64 0, i32 2, i32 5
  store i8 %430, i8* %431, align 1
  %432 = icmp eq i64 %413, 0
  %433 = zext i1 %432 to i8
  %434 = getelementptr inbounds %struct.State, %struct.State* %0, i64 0, i32 2, i32 7
  store i8 %433, i8* %434, align 1
  %435 = lshr i64 %413, 63
  %436 = trunc i64 %435 to i8
  %437 = getelementptr inbounds %struct.State, %struct.State* %0, i64 0, i32 2, i32 9
  store i8 %436, i8* %437, align 1
  %438 = lshr i64 %410, 63
  %439 = xor i64 %435, %438
  %440 = add i64 %439, %435
  %441 = icmp eq i64 %440, 2
  %442 = zext i1 %441 to i8
  %443 = getelementptr inbounds %struct.State, %struct.State* %0, i64 0, i32 2, i32 13
  store i8 %442, i8* %443, align 1
  store %struct.Memory* %loadMem_479513, %struct.Memory** %MEMORY
  %loadMem_479517 = load %struct.Memory*, %struct.Memory** %MEMORY
  %444 = getelementptr inbounds %struct.State, %struct.State* %0, i32 0, i32 6
  %445 = getelementptr inbounds %struct.GPR, %struct.GPR* %444, i32 0, i32 33
  %446 = getelementptr inbounds %struct.Reg, %struct.Reg* %445, i32 0, i32 0
  %PC.i2 = bitcast %union.anon* %446 to i64*
  %447 = getelementptr inbounds %struct.State, %struct.State* %0, i32 0, i32 6
  %448 = getelementptr inbounds %struct.GPR, %struct.GPR* %447, i32 0, i32 15
  %449 = getelementptr inbounds %struct.Reg, %struct.Reg* %448, i32 0, i32 0
  %RBP.i3 = bitcast %union.anon* %449 to i64*
  %450 = load i64, i64* %PC.i2
  %451 = add i64 %450, 1
  store i64 %451, i64* %PC.i2
  %452 = getelementptr inbounds %struct.State, %struct.State* %0, i64 0, i32 6, i32 13, i32 0, i32 0
  %453 = load i64, i64* %452, align 8
  %454 = add i64 %453, 8
  %455 = inttoptr i64 %453 to i64*
  %456 = load i64, i64* %455
  store i64 %456, i64* %RBP.i3, align 8
  store i64 %454, i64* %452, align 8
  store %struct.Memory* %loadMem_479517, %struct.Memory** %MEMORY
  %loadMem_479518 = load %struct.Memory*, %struct.Memory** %MEMORY
  %457 = getelementptr inbounds %struct.State, %struct.State* %0, i32 0, i32 6
  %458 = getelementptr inbounds %struct.GPR, %struct.GPR* %457, i32 0, i32 33
  %459 = getelementptr inbounds %struct.Reg, %struct.Reg* %458, i32 0, i32 0
  %PC.i1 = bitcast %union.anon* %459 to i64*
  %460 = load i64, i64* %PC.i1
  %461 = add i64 %460, 1
  store i64 %461, i64* %PC.i1
  %462 = getelementptr inbounds %struct.State, %struct.State* %0, i64 0, i32 6, i32 33, i32 0, i32 0
  %463 = getelementptr inbounds %struct.State, %struct.State* %0, i64 0, i32 6, i32 13, i32 0, i32 0
  %464 = load i64, i64* %463, align 8
  %465 = inttoptr i64 %464 to i64*
  %466 = load i64, i64* %465
  store i64 %466, i64* %462, align 8
  %467 = add i64 %464, 8
  store i64 %467, i64* %463, align 8
  store %struct.Memory* %loadMem_479518, %struct.Memory** %MEMORY
  ret %struct.Memory* %loadMem_479518
}

define %struct.Memory* @routine_pushq__rbp(%struct.State* dereferenceable(3376), i64, %struct.Memory*) {
block_400488:
  %3 = getelementptr inbounds %struct.State, %struct.State* %0, i32 0, i32 6
  %4 = getelementptr inbounds %struct.GPR, %struct.GPR* %3, i32 0, i32 33
  %5 = getelementptr inbounds %struct.Reg, %struct.Reg* %4, i32 0, i32 0
  %PC = bitcast %union.anon* %5 to i64*
  %6 = getelementptr inbounds %struct.State, %struct.State* %0, i32 0, i32 6
  %7 = getelementptr inbounds %struct.GPR, %struct.GPR* %6, i32 0, i32 15
  %8 = getelementptr inbounds %struct.Reg, %struct.Reg* %7, i32 0, i32 0
  %RBP = bitcast %union.anon* %8 to i64*
  %9 = load i64, i64* %RBP
  %10 = load i64, i64* %PC
  %11 = add i64 %10, 1
  store i64 %11, i64* %PC
  %12 = getelementptr inbounds %struct.State, %struct.State* %0, i64 0, i32 6, i32 13, i32 0, i32 0
  %13 = load i64, i64* %12, align 8
  %14 = add i64 %13, -8
  %15 = inttoptr i64 %14 to i64*
  store i64 %9, i64* %15
  store i64 %14, i64* %12, align 8
  ret %struct.Memory* %2
}

define %struct.Memory* @routine_movq__rsp___rbp(%struct.State* dereferenceable(3376), i64, %struct.Memory*) {
block_400488:
  %3 = getelementptr inbounds %struct.State, %struct.State* %0, i32 0, i32 6
  %4 = getelementptr inbounds %struct.GPR, %struct.GPR* %3, i32 0, i32 33
  %5 = getelementptr inbounds %struct.Reg, %struct.Reg* %4, i32 0, i32 0
  %PC = bitcast %union.anon* %5 to i64*
  %6 = getelementptr inbounds %struct.State, %struct.State* %0, i32 0, i32 6
  %7 = getelementptr inbounds %struct.GPR, %struct.GPR* %6, i32 0, i32 13
  %8 = getelementptr inbounds %struct.Reg, %struct.Reg* %7, i32 0, i32 0
  %RSP = bitcast %union.anon* %8 to i64*
  %9 = getelementptr inbounds %struct.State, %struct.State* %0, i32 0, i32 6
  %10 = getelementptr inbounds %struct.GPR, %struct.GPR* %9, i32 0, i32 15
  %11 = getelementptr inbounds %struct.Reg, %struct.Reg* %10, i32 0, i32 0
  %RBP = bitcast %union.anon* %11 to i64*
  %12 = load i64, i64* %RSP
  %13 = load i64, i64* %PC
  %14 = add i64 %13, 3
  store i64 %14, i64* %PC
  store i64 %12, i64* %RBP, align 8
  ret %struct.Memory* %2
}

define %struct.Memory* @routine_subq__0x20___rsp(%struct.State* dereferenceable(3376), i64, %struct.Memory*) {
block_400488:
  %3 = getelementptr inbounds %struct.State, %struct.State* %0, i32 0, i32 6
  %4 = getelementptr inbounds %struct.GPR, %struct.GPR* %3, i32 0, i32 33
  %5 = getelementptr inbounds %struct.Reg, %struct.Reg* %4, i32 0, i32 0
  %PC = bitcast %union.anon* %5 to i64*
  %6 = getelementptr inbounds %struct.State, %struct.State* %0, i32 0, i32 6
  %7 = getelementptr inbounds %struct.GPR, %struct.GPR* %6, i32 0, i32 13
  %8 = getelementptr inbounds %struct.Reg, %struct.Reg* %7, i32 0, i32 0
  %RSP = bitcast %union.anon* %8 to i64*
  %9 = load i64, i64* %RSP
  %10 = load i64, i64* %PC
  %11 = add i64 %10, 4
  store i64 %11, i64* %PC
  %12 = sub i64 %9, 32
  store i64 %12, i64* %RSP, align 8
  %13 = icmp ult i64 %9, 32
  %14 = zext i1 %13 to i8
  %15 = getelementptr inbounds %struct.State, %struct.State* %0, i64 0, i32 2, i32 1
  store i8 %14, i8* %15, align 1
  %16 = trunc i64 %12 to i32
  %17 = and i32 %16, 255
  %18 = call i32 @llvm.ctpop.i32(i32 %17)
  %19 = trunc i32 %18 to i8
  %20 = and i8 %19, 1
  %21 = xor i8 %20, 1
  %22 = getelementptr inbounds %struct.State, %struct.State* %0, i64 0, i32 2, i32 3
  store i8 %21, i8* %22, align 1
  %23 = xor i64 32, %9
  %24 = xor i64 %23, %12
  %25 = lshr i64 %24, 4
  %26 = trunc i64 %25 to i8
  %27 = and i8 %26, 1
  %28 = getelementptr inbounds %struct.State, %struct.State* %0, i64 0, i32 2, i32 5
  store i8 %27, i8* %28, align 1
  %29 = icmp eq i64 %12, 0
  %30 = zext i1 %29 to i8
  %31 = getelementptr inbounds %struct.State, %struct.State* %0, i64 0, i32 2, i32 7
  store i8 %30, i8* %31, align 1
  %32 = lshr i64 %12, 63
  %33 = trunc i64 %32 to i8
  %34 = getelementptr inbounds %struct.State, %struct.State* %0, i64 0, i32 2, i32 9
  store i8 %33, i8* %34, align 1
  %35 = lshr i64 %9, 63
  %36 = xor i64 %32, %35
  %37 = add i64 %36, %35
  %38 = icmp eq i64 %37, 2
  %39 = zext i1 %38 to i8
  %40 = getelementptr inbounds %struct.State, %struct.State* %0, i64 0, i32 2, i32 13
  store i8 %39, i8* %40, align 1
  ret %struct.Memory* %2
}

define %struct.Memory* @routine_movl__edi__MINUS0x4__rbp_(%struct.State* dereferenceable(3376), i64, %struct.Memory*) {
block_400488:
  %3 = getelementptr inbounds %struct.State, %struct.State* %0, i32 0, i32 6
  %4 = getelementptr inbounds %struct.GPR, %struct.GPR* %3, i32 0, i32 33
  %5 = getelementptr inbounds %struct.Reg, %struct.Reg* %4, i32 0, i32 0
  %PC = bitcast %union.anon* %5 to i64*
  %6 = getelementptr inbounds %struct.State, %struct.State* %0, i32 0, i32 6
  %7 = getelementptr inbounds %struct.GPR, %struct.GPR* %6, i32 0, i32 11
  %8 = getelementptr inbounds %struct.Reg, %struct.Reg* %7, i32 0, i32 0
  %EDI = bitcast %union.anon* %8 to i32*
  %9 = getelementptr inbounds %struct.State, %struct.State* %0, i32 0, i32 6
  %10 = getelementptr inbounds %struct.GPR, %struct.GPR* %9, i32 0, i32 15
  %11 = getelementptr inbounds %struct.Reg, %struct.Reg* %10, i32 0, i32 0
  %RBP = bitcast %union.anon* %11 to i64*
  %12 = load i64, i64* %RBP
  %13 = sub i64 %12, 4
  %14 = load i32, i32* %EDI
  %15 = zext i32 %14 to i64
  %16 = load i64, i64* %PC
  %17 = add i64 %16, 3
  store i64 %17, i64* %PC
  %18 = inttoptr i64 %13 to i32*
  store i32 %14, i32* %18
  ret %struct.Memory* %2
}

define %struct.Memory* @routine_movl__esi__MINUS0x8__rbp_(%struct.State* dereferenceable(3376), i64, %struct.Memory*) {
block_400488:
  %3 = getelementptr inbounds %struct.State, %struct.State* %0, i32 0, i32 6
  %4 = getelementptr inbounds %struct.GPR, %struct.GPR* %3, i32 0, i32 33
  %5 = getelementptr inbounds %struct.Reg, %struct.Reg* %4, i32 0, i32 0
  %PC = bitcast %union.anon* %5 to i64*
  %6 = getelementptr inbounds %struct.State, %struct.State* %0, i32 0, i32 6
  %7 = getelementptr inbounds %struct.GPR, %struct.GPR* %6, i32 0, i32 9
  %8 = getelementptr inbounds %struct.Reg, %struct.Reg* %7, i32 0, i32 0
  %ESI = bitcast %union.anon* %8 to i32*
  %9 = getelementptr inbounds %struct.State, %struct.State* %0, i32 0, i32 6
  %10 = getelementptr inbounds %struct.GPR, %struct.GPR* %9, i32 0, i32 15
  %11 = getelementptr inbounds %struct.Reg, %struct.Reg* %10, i32 0, i32 0
  %RBP = bitcast %union.anon* %11 to i64*
  %12 = load i64, i64* %RBP
  %13 = sub i64 %12, 8
  %14 = load i32, i32* %ESI
  %15 = zext i32 %14 to i64
  %16 = load i64, i64* %PC
  %17 = add i64 %16, 3
  store i64 %17, i64* %PC
  %18 = inttoptr i64 %13 to i32*
  store i32 %14, i32* %18
  ret %struct.Memory* %2
}

define %struct.Memory* @routine_movq__rdx__MINUS0x10__rbp_(%struct.State* dereferenceable(3376), i64, %struct.Memory*) {
block_400488:
  %3 = getelementptr inbounds %struct.State, %struct.State* %0, i32 0, i32 6
  %4 = getelementptr inbounds %struct.GPR, %struct.GPR* %3, i32 0, i32 33
  %5 = getelementptr inbounds %struct.Reg, %struct.Reg* %4, i32 0, i32 0
  %PC = bitcast %union.anon* %5 to i64*
  %6 = getelementptr inbounds %struct.State, %struct.State* %0, i32 0, i32 6
  %7 = getelementptr inbounds %struct.GPR, %struct.GPR* %6, i32 0, i32 7
  %8 = getelementptr inbounds %struct.Reg, %struct.Reg* %7, i32 0, i32 0
  %RDX = bitcast %union.anon* %8 to i64*
  %9 = getelementptr inbounds %struct.State, %struct.State* %0, i32 0, i32 6
  %10 = getelementptr inbounds %struct.GPR, %struct.GPR* %9, i32 0, i32 15
  %11 = getelementptr inbounds %struct.Reg, %struct.Reg* %10, i32 0, i32 0
  %RBP = bitcast %union.anon* %11 to i64*
  %12 = load i64, i64* %RBP
  %13 = sub i64 %12, 16
  %14 = load i64, i64* %RDX
  %15 = load i64, i64* %PC
  %16 = add i64 %15, 4
  store i64 %16, i64* %PC
  %17 = inttoptr i64 %13 to i64*
  store i64 %14, i64* %17
  ret %struct.Memory* %2
}

define %struct.Memory* @routine_movq__rcx__MINUS0x18__rbp_(%struct.State* dereferenceable(3376), i64, %struct.Memory*) {
block_400488:
  %3 = getelementptr inbounds %struct.State, %struct.State* %0, i32 0, i32 6
  %4 = getelementptr inbounds %struct.GPR, %struct.GPR* %3, i32 0, i32 33
  %5 = getelementptr inbounds %struct.Reg, %struct.Reg* %4, i32 0, i32 0
  %PC = bitcast %union.anon* %5 to i64*
  %6 = getelementptr inbounds %struct.State, %struct.State* %0, i32 0, i32 6
  %7 = getelementptr inbounds %struct.GPR, %struct.GPR* %6, i32 0, i32 5
  %8 = getelementptr inbounds %struct.Reg, %struct.Reg* %7, i32 0, i32 0
  %RCX = bitcast %union.anon* %8 to i64*
  %9 = getelementptr inbounds %struct.State, %struct.State* %0, i32 0, i32 6
  %10 = getelementptr inbounds %struct.GPR, %struct.GPR* %9, i32 0, i32 15
  %11 = getelementptr inbounds %struct.Reg, %struct.Reg* %10, i32 0, i32 0
  %RBP = bitcast %union.anon* %11 to i64*
  %12 = load i64, i64* %RBP
  %13 = sub i64 %12, 24
  %14 = load i64, i64* %RCX
  %15 = load i64, i64* %PC
  %16 = add i64 %15, 4
  store i64 %16, i64* %PC
  %17 = inttoptr i64 %13 to i64*
  store i64 %14, i64* %17
  ret %struct.Memory* %2
}

define %struct.Memory* @routine_movl_MINUS0x4__rbp____edi(%struct.State* dereferenceable(3376), i64, %struct.Memory*) {
block_400488:
  %3 = getelementptr inbounds %struct.State, %struct.State* %0, i32 0, i32 6
  %4 = getelementptr inbounds %struct.GPR, %struct.GPR* %3, i32 0, i32 33
  %5 = getelementptr inbounds %struct.Reg, %struct.Reg* %4, i32 0, i32 0
  %PC = bitcast %union.anon* %5 to i64*
  %6 = getelementptr inbounds %struct.State, %struct.State* %0, i32 0, i32 6
  %7 = getelementptr inbounds %struct.GPR, %struct.GPR* %6, i32 0, i32 11
  %8 = getelementptr inbounds %struct.Reg, %struct.Reg* %7, i32 0, i32 0
  %RDI = bitcast %union.anon* %8 to i64*
  %9 = getelementptr inbounds %struct.State, %struct.State* %0, i32 0, i32 6
  %10 = getelementptr inbounds %struct.GPR, %struct.GPR* %9, i32 0, i32 15
  %11 = getelementptr inbounds %struct.Reg, %struct.Reg* %10, i32 0, i32 0
  %RBP = bitcast %union.anon* %11 to i64*
  %12 = load i64, i64* %RBP
  %13 = sub i64 %12, 4
  %14 = load i64, i64* %PC
  %15 = add i64 %14, 3
  store i64 %15, i64* %PC
  %16 = inttoptr i64 %13 to i32*
  %17 = load i32, i32* %16
  %18 = zext i32 %17 to i64
  store i64 %18, i64* %RDI, align 8
  ret %struct.Memory* %2
}

define %struct.Memory* @routine_movl_MINUS0x8__rbp____esi(%struct.State* dereferenceable(3376), i64, %struct.Memory*) {
block_400488:
  %3 = getelementptr inbounds %struct.State, %struct.State* %0, i32 0, i32 6
  %4 = getelementptr inbounds %struct.GPR, %struct.GPR* %3, i32 0, i32 33
  %5 = getelementptr inbounds %struct.Reg, %struct.Reg* %4, i32 0, i32 0
  %PC = bitcast %union.anon* %5 to i64*
  %6 = getelementptr inbounds %struct.State, %struct.State* %0, i32 0, i32 6
  %7 = getelementptr inbounds %struct.GPR, %struct.GPR* %6, i32 0, i32 9
  %8 = getelementptr inbounds %struct.Reg, %struct.Reg* %7, i32 0, i32 0
  %RSI = bitcast %union.anon* %8 to i64*
  %9 = getelementptr inbounds %struct.State, %struct.State* %0, i32 0, i32 6
  %10 = getelementptr inbounds %struct.GPR, %struct.GPR* %9, i32 0, i32 15
  %11 = getelementptr inbounds %struct.Reg, %struct.Reg* %10, i32 0, i32 0
  %RBP = bitcast %union.anon* %11 to i64*
  %12 = load i64, i64* %RBP
  %13 = sub i64 %12, 8
  %14 = load i64, i64* %PC
  %15 = add i64 %14, 3
  store i64 %15, i64* %PC
  %16 = inttoptr i64 %13 to i32*
  %17 = load i32, i32* %16
  %18 = zext i32 %17 to i64
  store i64 %18, i64* %RSI, align 8
  ret %struct.Memory* %2
}

define %struct.Memory* @routine_movq_MINUS0x10__rbp____rdx(%struct.State* dereferenceable(3376), i64, %struct.Memory*) {
block_400488:
  %3 = getelementptr inbounds %struct.State, %struct.State* %0, i32 0, i32 6
  %4 = getelementptr inbounds %struct.GPR, %struct.GPR* %3, i32 0, i32 33
  %5 = getelementptr inbounds %struct.Reg, %struct.Reg* %4, i32 0, i32 0
  %PC = bitcast %union.anon* %5 to i64*
  %6 = getelementptr inbounds %struct.State, %struct.State* %0, i32 0, i32 6
  %7 = getelementptr inbounds %struct.GPR, %struct.GPR* %6, i32 0, i32 7
  %8 = getelementptr inbounds %struct.Reg, %struct.Reg* %7, i32 0, i32 0
  %RDX = bitcast %union.anon* %8 to i64*
  %9 = getelementptr inbounds %struct.State, %struct.State* %0, i32 0, i32 6
  %10 = getelementptr inbounds %struct.GPR, %struct.GPR* %9, i32 0, i32 15
  %11 = getelementptr inbounds %struct.Reg, %struct.Reg* %10, i32 0, i32 0
  %RBP = bitcast %union.anon* %11 to i64*
  %12 = load i64, i64* %RBP
  %13 = sub i64 %12, 16
  %14 = load i64, i64* %PC
  %15 = add i64 %14, 4
  store i64 %15, i64* %PC
  %16 = inttoptr i64 %13 to i64*
  %17 = load i64, i64* %16
  store i64 %17, i64* %RDX, align 8
  ret %struct.Memory* %2
}

define %struct.Memory* @routine_movq_MINUS0x18__rbp____rcx(%struct.State* dereferenceable(3376), i64, %struct.Memory*) {
block_400488:
  %3 = getelementptr inbounds %struct.State, %struct.State* %0, i32 0, i32 6
  %4 = getelementptr inbounds %struct.GPR, %struct.GPR* %3, i32 0, i32 33
  %5 = getelementptr inbounds %struct.Reg, %struct.Reg* %4, i32 0, i32 0
  %PC = bitcast %union.anon* %5 to i64*
  %6 = getelementptr inbounds %struct.State, %struct.State* %0, i32 0, i32 6
  %7 = getelementptr inbounds %struct.GPR, %struct.GPR* %6, i32 0, i32 5
  %8 = getelementptr inbounds %struct.Reg, %struct.Reg* %7, i32 0, i32 0
  %RCX = bitcast %union.anon* %8 to i64*
  %9 = getelementptr inbounds %struct.State, %struct.State* %0, i32 0, i32 6
  %10 = getelementptr inbounds %struct.GPR, %struct.GPR* %9, i32 0, i32 15
  %11 = getelementptr inbounds %struct.Reg, %struct.Reg* %10, i32 0, i32 0
  %RBP = bitcast %union.anon* %11 to i64*
  %12 = load i64, i64* %RBP
  %13 = sub i64 %12, 24
  %14 = load i64, i64* %PC
  %15 = add i64 %14, 4
  store i64 %15, i64* %PC
  %16 = inttoptr i64 %13 to i64*
  %17 = load i64, i64* %16
  store i64 %17, i64* %RCX, align 8
  ret %struct.Memory* %2
}

define %struct.Memory* @routine_callq_.blunder_size(%struct.State* dereferenceable(3376), i64, %struct.Memory*, i64 %rel_off1, i64 %rel_off2, i64 %rel_off3) {
block_400488:
  %3 = getelementptr inbounds %struct.State, %struct.State* %0, i32 0, i32 6
  %4 = getelementptr inbounds %struct.GPR, %struct.GPR* %3, i32 0, i32 33
  %5 = getelementptr inbounds %struct.Reg, %struct.Reg* %4, i32 0, i32 0
  %PC = bitcast %union.anon* %5 to i64*
  %6 = load i64, i64* %PC
  %7 = add i64 %6, %rel_off1
  %8 = load i64, i64* %PC
  %9 = add i64 %8, %rel_off2
  %10 = load i64, i64* %PC
  %11 = add i64 %10, %rel_off3
  store i64 %11, i64* %PC
  %12 = getelementptr inbounds %struct.State, %struct.State* %0, i64 0, i32 6, i32 13, i32 0, i32 0
  %13 = load i64, i64* %12, align 8
  %14 = add i64 %13, -8
  %15 = inttoptr i64 %14 to i64*
  store i64 %9, i64* %15
  store i64 %14, i64* %12, align 8
  %16 = getelementptr inbounds %struct.State, %struct.State* %0, i64 0, i32 6, i32 33, i32 0, i32 0
  store i64 %7, i64* %16, align 8
  ret %struct.Memory* %2
}

define %struct.Memory* @routine_xorps__xmm1___xmm1(%struct.State* dereferenceable(3376), i64, %struct.Memory*) {
block_400488:
  %3 = getelementptr inbounds %struct.State, %struct.State* %0, i32 0, i32 6
  %4 = getelementptr inbounds %struct.GPR, %struct.GPR* %3, i32 0, i32 33
  %5 = getelementptr inbounds %struct.Reg, %struct.Reg* %4, i32 0, i32 0
  %PC = bitcast %union.anon* %5 to i64*
  %6 = getelementptr inbounds %struct.State, %struct.State* %0, i32 0, i32 1
  %7 = getelementptr inbounds [32 x %union.VectorReg], [32 x %union.VectorReg]* %6, i64 0, i64 1
  %YMM1 = bitcast %union.VectorReg* %7 to %"class.std::bitset"*
  %8 = getelementptr inbounds %struct.State, %struct.State* %0, i32 0, i32 1
  %9 = getelementptr inbounds [32 x %union.VectorReg], [32 x %union.VectorReg]* %8, i64 0, i64 1
  %XMM1 = bitcast %union.VectorReg* %9 to %union.vec128_t*
  %10 = bitcast %"class.std::bitset"* %YMM1 to i8*
  %11 = bitcast %"class.std::bitset"* %YMM1 to i8*
  %12 = bitcast %union.vec128_t* %XMM1 to i8*
  %13 = load i64, i64* %PC
  %14 = add i64 %13, 3
  store i64 %14, i64* %PC
  %15 = bitcast i8* %11 to i64*
  %16 = load i64, i64* %15, align 1
  %17 = getelementptr inbounds i8, i8* %11, i64 8
  %18 = bitcast i8* %17 to i64*
  %19 = load i64, i64* %18, align 1
  %20 = bitcast i8* %12 to i64*
  %21 = load i64, i64* %20, align 1
  %22 = getelementptr inbounds i8, i8* %12, i64 8
  %23 = bitcast i8* %22 to i64*
  %24 = load i64, i64* %23, align 1
  %25 = xor i64 %21, %16
  %26 = xor i64 %24, %19
  %27 = trunc i64 %25 to i32
  %28 = lshr i64 %25, 32
  %29 = trunc i64 %28 to i32
  %30 = bitcast i8* %10 to i32*
  store i32 %27, i32* %30, align 1
  %31 = getelementptr inbounds i8, i8* %10, i64 4
  %32 = bitcast i8* %31 to i32*
  store i32 %29, i32* %32, align 1
  %33 = trunc i64 %26 to i32
  %34 = getelementptr inbounds i8, i8* %10, i64 8
  %35 = bitcast i8* %34 to i32*
  store i32 %33, i32* %35, align 1
  %36 = lshr i64 %26, 32
  %37 = trunc i64 %36 to i32
  %38 = getelementptr inbounds i8, i8* %10, i64 12
  %39 = bitcast i8* %38 to i32*
  store i32 %37, i32* %39, align 1
  ret %struct.Memory* %2
}

define %struct.Memory* @routine_cvtss2sd__xmm0___xmm0(%struct.State* dereferenceable(3376), i64, %struct.Memory*) {
block_400488:
  %3 = getelementptr inbounds %struct.State, %struct.State* %0, i32 0, i32 6
  %4 = getelementptr inbounds %struct.GPR, %struct.GPR* %3, i32 0, i32 33
  %5 = getelementptr inbounds %struct.Reg, %struct.Reg* %4, i32 0, i32 0
  %PC = bitcast %union.anon* %5 to i64*
  %6 = getelementptr inbounds %struct.State, %struct.State* %0, i32 0, i32 1
  %7 = getelementptr inbounds [32 x %union.VectorReg], [32 x %union.VectorReg]* %6, i64 0, i64 0
  %YMM0 = bitcast %union.VectorReg* %7 to %"class.std::bitset"*
  %8 = getelementptr inbounds %struct.State, %struct.State* %0, i32 0, i32 1
  %9 = getelementptr inbounds [32 x %union.VectorReg], [32 x %union.VectorReg]* %8, i64 0, i64 0
  %XMM0 = bitcast %union.VectorReg* %9 to %union.vec128_t*
  %10 = bitcast %"class.std::bitset"* %YMM0 to i8*
  %11 = bitcast %union.vec128_t* %XMM0 to i8*
  %12 = load i64, i64* %PC
  %13 = add i64 %12, 4
  store i64 %13, i64* %PC
  %14 = bitcast i8* %11 to <2 x float>*
  %15 = load <2 x float>, <2 x float>* %14, align 1
  %16 = extractelement <2 x float> %15, i32 0
  %17 = fpext float %16 to double
  %18 = bitcast i8* %10 to double*
  store double %17, double* %18, align 1
  ret %struct.Memory* %2
}

define %struct.Memory* @routine_ucomisd__xmm1___xmm0(%struct.State* dereferenceable(3376), i64, %struct.Memory*) {
block_400488:
  %3 = getelementptr inbounds %struct.State, %struct.State* %0, i32 0, i32 6
  %4 = getelementptr inbounds %struct.GPR, %struct.GPR* %3, i32 0, i32 33
  %5 = getelementptr inbounds %struct.Reg, %struct.Reg* %4, i32 0, i32 0
  %PC = bitcast %union.anon* %5 to i64*
  %6 = getelementptr inbounds %struct.State, %struct.State* %0, i32 0, i32 1
  %7 = getelementptr inbounds [32 x %union.VectorReg], [32 x %union.VectorReg]* %6, i64 0, i64 0
  %XMM0 = bitcast %union.VectorReg* %7 to %union.vec128_t*
  %8 = getelementptr inbounds %struct.State, %struct.State* %0, i32 0, i32 1
  %9 = getelementptr inbounds [32 x %union.VectorReg], [32 x %union.VectorReg]* %8, i64 0, i64 1
  %XMM1 = bitcast %union.VectorReg* %9 to %union.vec128_t*
  %10 = bitcast %union.vec128_t* %XMM0 to i8*
  %11 = bitcast %union.vec128_t* %XMM1 to i8*
  %12 = load i64, i64* %PC
  %13 = add i64 %12, 4
  store i64 %13, i64* %PC
  %14 = bitcast i8* %10 to double*
  %15 = load double, double* %14, align 1
  %16 = bitcast i8* %11 to double*
  %17 = load double, double* %16, align 1
  %18 = fcmp uno double %15, %17
  br i1 %18, label %19, label %31

; <label>:19:                                     ; preds = %block_400488
  %20 = fadd double %15, %17
  %21 = bitcast double %20 to i64
  %22 = and i64 %21, 9221120237041090560
  %23 = icmp eq i64 %22, 9218868437227405312
  %24 = and i64 %21, 2251799813685247
  %25 = icmp ne i64 %24, 0
  %26 = and i1 %23, %25
  br i1 %26, label %27, label %37

; <label>:27:                                     ; preds = %19
  %28 = getelementptr inbounds %struct.State, %struct.State* %0, i64 0, i32 6, i32 33, i32 0, i32 0
  %29 = load i64, i64* %28, align 8
  %30 = call %struct.Memory* @__remill_error(%struct.State* nonnull dereferenceable(3376) %0, i64 %29, %struct.Memory* %2)
  br label %_ZN12_GLOBAL__N_1L6COMISDI2VnI8vec128_tES3_EEP6MemoryS5_R5StateT_T0_.exit

; <label>:31:                                     ; preds = %block_400488
  %32 = fcmp ogt double %15, %17
  br i1 %32, label %37, label %33

; <label>:33:                                     ; preds = %31
  %34 = fcmp olt double %15, %17
  br i1 %34, label %37, label %35

; <label>:35:                                     ; preds = %33
  %36 = fcmp oeq double %15, %17
  br i1 %36, label %37, label %44

; <label>:37:                                     ; preds = %35, %33, %31, %19
  %38 = phi i8 [ 0, %31 ], [ 0, %33 ], [ 1, %35 ], [ 1, %19 ]
  %39 = phi i8 [ 0, %31 ], [ 0, %33 ], [ 0, %35 ], [ 1, %19 ]
  %40 = phi i8 [ 0, %31 ], [ 1, %33 ], [ 0, %35 ], [ 1, %19 ]
  %41 = getelementptr inbounds %struct.State, %struct.State* %0, i64 0, i32 2, i32 7
  store i8 %38, i8* %41, align 1
  %42 = getelementptr inbounds %struct.State, %struct.State* %0, i64 0, i32 2, i32 3
  store i8 %39, i8* %42, align 1
  %43 = getelementptr inbounds %struct.State, %struct.State* %0, i64 0, i32 2, i32 1
  store i8 %40, i8* %43, align 1
  br label %44

; <label>:44:                                     ; preds = %37, %35
  %45 = getelementptr inbounds %struct.State, %struct.State* %0, i64 0, i32 2, i32 13
  store i8 0, i8* %45, align 1
  %46 = getelementptr inbounds %struct.State, %struct.State* %0, i64 0, i32 2, i32 9
  store i8 0, i8* %46, align 1
  %47 = getelementptr inbounds %struct.State, %struct.State* %0, i64 0, i32 2, i32 5
  store i8 0, i8* %47, align 1
  br label %_ZN12_GLOBAL__N_1L6COMISDI2VnI8vec128_tES3_EEP6MemoryS5_R5StateT_T0_.exit

_ZN12_GLOBAL__N_1L6COMISDI2VnI8vec128_tES3_EEP6MemoryS5_R5StateT_T0_.exit: ; preds = %27, %44
  %48 = phi %struct.Memory* [ %30, %27 ], [ %2, %44 ]
  ret %struct.Memory* %48
}

define %struct.Memory* @routine_sete__al(%struct.State* dereferenceable(3376), i64, %struct.Memory*) {
block_400488:
  %3 = getelementptr inbounds %struct.State, %struct.State* %0, i32 0, i32 6
  %4 = getelementptr inbounds %struct.GPR, %struct.GPR* %3, i32 0, i32 33
  %5 = getelementptr inbounds %struct.Reg, %struct.Reg* %4, i32 0, i32 0
  %PC = bitcast %union.anon* %5 to i64*
  %6 = getelementptr inbounds %struct.State, %struct.State* %0, i32 0, i32 6
  %7 = getelementptr inbounds %struct.GPR, %struct.GPR* %6, i32 0, i32 1
  %8 = getelementptr inbounds %struct.Reg, %struct.Reg* %7, i32 0, i32 0
  %9 = bitcast %union.anon* %8 to %struct.anon.2*
  %AL = getelementptr inbounds %struct.anon.2, %struct.anon.2* %9, i32 0, i32 0
  %10 = load i64, i64* %PC
  %11 = add i64 %10, 3
  store i64 %11, i64* %PC
  %12 = getelementptr inbounds %struct.State, %struct.State* %0, i64 0, i32 2, i32 7
  %13 = load i8, i8* %12, align 1
  store i8 %13, i8* %AL, align 1
  ret %struct.Memory* %2
}

define %struct.Memory* @routine_setnp__r8b(%struct.State* dereferenceable(3376), i64, %struct.Memory*) {
block_400488:
  %3 = getelementptr inbounds %struct.State, %struct.State* %0, i32 0, i32 6
  %4 = getelementptr inbounds %struct.GPR, %struct.GPR* %3, i32 0, i32 33
  %5 = getelementptr inbounds %struct.Reg, %struct.Reg* %4, i32 0, i32 0
  %PC = bitcast %union.anon* %5 to i64*
  %6 = getelementptr inbounds %struct.State, %struct.State* %0, i32 0, i32 6
  %7 = getelementptr inbounds %struct.GPR, %struct.GPR* %6, i32 0, i32 17
  %8 = getelementptr inbounds %struct.Reg, %struct.Reg* %7, i32 0, i32 0
  %9 = bitcast %union.anon* %8 to %struct.anon.2*
  %R8B = getelementptr inbounds %struct.anon.2, %struct.anon.2* %9, i32 0, i32 0
  %10 = load i64, i64* %PC
  %11 = add i64 %10, 4
  store i64 %11, i64* %PC
  %12 = getelementptr inbounds %struct.State, %struct.State* %0, i64 0, i32 2, i32 3
  %13 = load i8, i8* %12, align 1
  %14 = icmp eq i8 %13, 0
  %15 = zext i1 %14 to i8
  store i8 %15, i8* %R8B, align 1
  ret %struct.Memory* %2
}

define %struct.Memory* @routine_andb__r8b___al(%struct.State* dereferenceable(3376), i64, %struct.Memory*) {
block_400488:
  %3 = getelementptr inbounds %struct.State, %struct.State* %0, i32 0, i32 6
  %4 = getelementptr inbounds %struct.GPR, %struct.GPR* %3, i32 0, i32 33
  %5 = getelementptr inbounds %struct.Reg, %struct.Reg* %4, i32 0, i32 0
  %PC = bitcast %union.anon* %5 to i64*
  %6 = getelementptr inbounds %struct.State, %struct.State* %0, i32 0, i32 6
  %7 = getelementptr inbounds %struct.GPR, %struct.GPR* %6, i32 0, i32 1
  %8 = getelementptr inbounds %struct.Reg, %struct.Reg* %7, i32 0, i32 0
  %9 = bitcast %union.anon* %8 to %struct.anon.2*
  %AL = getelementptr inbounds %struct.anon.2, %struct.anon.2* %9, i32 0, i32 0
  %10 = getelementptr inbounds %struct.State, %struct.State* %0, i32 0, i32 6
  %11 = getelementptr inbounds %struct.GPR, %struct.GPR* %10, i32 0, i32 17
  %12 = getelementptr inbounds %struct.Reg, %struct.Reg* %11, i32 0, i32 0
  %13 = bitcast %union.anon* %12 to %struct.anon.2*
  %R8B = getelementptr inbounds %struct.anon.2, %struct.anon.2* %13, i32 0, i32 0
  %14 = load i8, i8* %AL
  %15 = zext i8 %14 to i64
  %16 = load i8, i8* %R8B
  %17 = zext i8 %16 to i64
  %18 = load i64, i64* %PC
  %19 = add i64 %18, 3
  store i64 %19, i64* %PC
  %20 = and i64 %17, %15
  %21 = trunc i64 %20 to i8
  store i8 %21, i8* %AL, align 1
  %22 = getelementptr inbounds %struct.State, %struct.State* %0, i64 0, i32 2, i32 1
  store i8 0, i8* %22, align 1
  %23 = trunc i64 %20 to i32
  %24 = and i32 %23, 255
  %25 = call i32 @llvm.ctpop.i32(i32 %24)
  %26 = trunc i32 %25 to i8
  %27 = and i8 %26, 1
  %28 = xor i8 %27, 1
  %29 = getelementptr inbounds %struct.State, %struct.State* %0, i64 0, i32 2, i32 3
  store i8 %28, i8* %29, align 1
  %30 = icmp eq i8 %21, 0
  %31 = zext i1 %30 to i8
  %32 = getelementptr inbounds %struct.State, %struct.State* %0, i64 0, i32 2, i32 7
  store i8 %31, i8* %32, align 1
  %33 = lshr i8 %21, 7
  %34 = getelementptr inbounds %struct.State, %struct.State* %0, i64 0, i32 2, i32 9
  store i8 %33, i8* %34, align 1
  %35 = getelementptr inbounds %struct.State, %struct.State* %0, i64 0, i32 2, i32 13
  store i8 0, i8* %35, align 1
  %36 = getelementptr inbounds %struct.State, %struct.State* %0, i64 0, i32 2, i32 5
  store i8 0, i8* %36, align 1
  ret %struct.Memory* %2
}

define %struct.Memory* @routine_andb__0x1___al(%struct.State* dereferenceable(3376), i64, %struct.Memory*) {
block_400488:
  %3 = getelementptr inbounds %struct.State, %struct.State* %0, i32 0, i32 6
  %4 = getelementptr inbounds %struct.GPR, %struct.GPR* %3, i32 0, i32 33
  %5 = getelementptr inbounds %struct.Reg, %struct.Reg* %4, i32 0, i32 0
  %PC = bitcast %union.anon* %5 to i64*
  %6 = getelementptr inbounds %struct.State, %struct.State* %0, i32 0, i32 6
  %7 = getelementptr inbounds %struct.GPR, %struct.GPR* %6, i32 0, i32 1
  %8 = getelementptr inbounds %struct.Reg, %struct.Reg* %7, i32 0, i32 0
  %9 = bitcast %union.anon* %8 to %struct.anon.2*
  %AL = getelementptr inbounds %struct.anon.2, %struct.anon.2* %9, i32 0, i32 0
  %10 = load i8, i8* %AL
  %11 = zext i8 %10 to i64
  %12 = load i64, i64* %PC
  %13 = add i64 %12, 2
  store i64 %13, i64* %PC
  %14 = and i64 1, %11
  %15 = trunc i64 %14 to i8
  store i8 %15, i8* %AL, align 1
  %16 = getelementptr inbounds %struct.State, %struct.State* %0, i64 0, i32 2, i32 1
  store i8 0, i8* %16, align 1
  %17 = trunc i64 %14 to i32
  %18 = and i32 %17, 255
  %19 = call i32 @llvm.ctpop.i32(i32 %18)
  %20 = trunc i32 %19 to i8
  %21 = and i8 %20, 1
  %22 = xor i8 %21, 1
  %23 = getelementptr inbounds %struct.State, %struct.State* %0, i64 0, i32 2, i32 3
  store i8 %22, i8* %23, align 1
  %24 = icmp eq i8 %15, 0
  %25 = zext i1 %24 to i8
  %26 = getelementptr inbounds %struct.State, %struct.State* %0, i64 0, i32 2, i32 7
  store i8 %25, i8* %26, align 1
  %27 = getelementptr inbounds %struct.State, %struct.State* %0, i64 0, i32 2, i32 9
  store i8 0, i8* %27, align 1
  %28 = getelementptr inbounds %struct.State, %struct.State* %0, i64 0, i32 2, i32 13
  store i8 0, i8* %28, align 1
  %29 = getelementptr inbounds %struct.State, %struct.State* %0, i64 0, i32 2, i32 5
  store i8 0, i8* %29, align 1
  ret %struct.Memory* %2
}

define %struct.Memory* @routine_movzbl__al___eax(%struct.State* dereferenceable(3376), i64, %struct.Memory*) {
block_400488:
  %3 = getelementptr inbounds %struct.State, %struct.State* %0, i32 0, i32 6
  %4 = getelementptr inbounds %struct.GPR, %struct.GPR* %3, i32 0, i32 33
  %5 = getelementptr inbounds %struct.Reg, %struct.Reg* %4, i32 0, i32 0
  %PC = bitcast %union.anon* %5 to i64*
  %6 = getelementptr inbounds %struct.State, %struct.State* %0, i32 0, i32 6
  %7 = getelementptr inbounds %struct.GPR, %struct.GPR* %6, i32 0, i32 1
  %8 = getelementptr inbounds %struct.Reg, %struct.Reg* %7, i32 0, i32 0
  %9 = bitcast %union.anon* %8 to %struct.anon.2*
  %AL = getelementptr inbounds %struct.anon.2, %struct.anon.2* %9, i32 0, i32 0
  %10 = getelementptr inbounds %struct.State, %struct.State* %0, i32 0, i32 6
  %11 = getelementptr inbounds %struct.GPR, %struct.GPR* %10, i32 0, i32 1
  %12 = getelementptr inbounds %struct.Reg, %struct.Reg* %11, i32 0, i32 0
  %RAX = bitcast %union.anon* %12 to i64*
  %13 = load i8, i8* %AL
  %14 = zext i8 %13 to i64
  %15 = load i64, i64* %PC
  %16 = add i64 %15, 3
  store i64 %16, i64* %PC
  %17 = and i64 %14, 255
  store i64 %17, i64* %RAX, align 8
  ret %struct.Memory* %2
}

define %struct.Memory* @routine_addq__0x20___rsp(%struct.State* dereferenceable(3376), i64, %struct.Memory*) {
block_400488:
  %3 = getelementptr inbounds %struct.State, %struct.State* %0, i32 0, i32 6
  %4 = getelementptr inbounds %struct.GPR, %struct.GPR* %3, i32 0, i32 33
  %5 = getelementptr inbounds %struct.Reg, %struct.Reg* %4, i32 0, i32 0
  %PC = bitcast %union.anon* %5 to i64*
  %6 = getelementptr inbounds %struct.State, %struct.State* %0, i32 0, i32 6
  %7 = getelementptr inbounds %struct.GPR, %struct.GPR* %6, i32 0, i32 13
  %8 = getelementptr inbounds %struct.Reg, %struct.Reg* %7, i32 0, i32 0
  %RSP = bitcast %union.anon* %8 to i64*
  %9 = load i64, i64* %RSP
  %10 = load i64, i64* %PC
  %11 = add i64 %10, 4
  store i64 %11, i64* %PC
  %12 = add i64 32, %9
  store i64 %12, i64* %RSP, align 8
  %13 = icmp ult i64 %12, %9
  %14 = icmp ult i64 %12, 32
  %15 = or i1 %13, %14
  %16 = zext i1 %15 to i8
  %17 = getelementptr inbounds %struct.State, %struct.State* %0, i64 0, i32 2, i32 1
  store i8 %16, i8* %17, align 1
  %18 = trunc i64 %12 to i32
  %19 = and i32 %18, 255
  %20 = call i32 @llvm.ctpop.i32(i32 %19)
  %21 = trunc i32 %20 to i8
  %22 = and i8 %21, 1
  %23 = xor i8 %22, 1
  %24 = getelementptr inbounds %struct.State, %struct.State* %0, i64 0, i32 2, i32 3
  store i8 %23, i8* %24, align 1
  %25 = xor i64 32, %9
  %26 = xor i64 %25, %12
  %27 = lshr i64 %26, 4
  %28 = trunc i64 %27 to i8
  %29 = and i8 %28, 1
  %30 = getelementptr inbounds %struct.State, %struct.State* %0, i64 0, i32 2, i32 5
  store i8 %29, i8* %30, align 1
  %31 = icmp eq i64 %12, 0
  %32 = zext i1 %31 to i8
  %33 = getelementptr inbounds %struct.State, %struct.State* %0, i64 0, i32 2, i32 7
  store i8 %32, i8* %33, align 1
  %34 = lshr i64 %12, 63
  %35 = trunc i64 %34 to i8
  %36 = getelementptr inbounds %struct.State, %struct.State* %0, i64 0, i32 2, i32 9
  store i8 %35, i8* %36, align 1
  %37 = lshr i64 %9, 63
  %38 = xor i64 %34, %37
  %39 = add i64 %38, %34
  %40 = icmp eq i64 %39, 2
  %41 = zext i1 %40 to i8
  %42 = getelementptr inbounds %struct.State, %struct.State* %0, i64 0, i32 2, i32 13
  store i8 %41, i8* %42, align 1
  ret %struct.Memory* %2
}

define %struct.Memory* @routine_popq__rbp(%struct.State* dereferenceable(3376), i64, %struct.Memory*) {
block_400488:
  %3 = getelementptr inbounds %struct.State, %struct.State* %0, i32 0, i32 6
  %4 = getelementptr inbounds %struct.GPR, %struct.GPR* %3, i32 0, i32 33
  %5 = getelementptr inbounds %struct.Reg, %struct.Reg* %4, i32 0, i32 0
  %PC = bitcast %union.anon* %5 to i64*
  %6 = getelementptr inbounds %struct.State, %struct.State* %0, i32 0, i32 6
  %7 = getelementptr inbounds %struct.GPR, %struct.GPR* %6, i32 0, i32 15
  %8 = getelementptr inbounds %struct.Reg, %struct.Reg* %7, i32 0, i32 0
  %RBP = bitcast %union.anon* %8 to i64*
  %9 = load i64, i64* %PC
  %10 = add i64 %9, 1
  store i64 %10, i64* %PC
  %11 = getelementptr inbounds %struct.State, %struct.State* %0, i64 0, i32 6, i32 13, i32 0, i32 0
  %12 = load i64, i64* %11, align 8
  %13 = add i64 %12, 8
  %14 = inttoptr i64 %12 to i64*
  %15 = load i64, i64* %14
  store i64 %15, i64* %RBP, align 8
  store i64 %13, i64* %11, align 8
  ret %struct.Memory* %2
}

define %struct.Memory* @routine_retq(%struct.State* dereferenceable(3376), i64, %struct.Memory*) {
block_400488:
  %3 = getelementptr inbounds %struct.State, %struct.State* %0, i32 0, i32 6
  %4 = getelementptr inbounds %struct.GPR, %struct.GPR* %3, i32 0, i32 33
  %5 = getelementptr inbounds %struct.Reg, %struct.Reg* %4, i32 0, i32 0
  %PC = bitcast %union.anon* %5 to i64*
  %6 = load i64, i64* %PC
  %7 = add i64 %6, 1
  store i64 %7, i64* %PC
  %8 = getelementptr inbounds %struct.State, %struct.State* %0, i64 0, i32 6, i32 33, i32 0, i32 0
  %9 = getelementptr inbounds %struct.State, %struct.State* %0, i64 0, i32 6, i32 13, i32 0, i32 0
  %10 = load i64, i64* %9, align 8
  %11 = inttoptr i64 %10 to i64*
  %12 = load i64, i64* %11
  store i64 %12, i64* %8, align 8
  %13 = add i64 %10, 8
  store i64 %13, i64* %9, align 8
  ret %struct.Memory* %2
}

attributes #0 = { argmemonly nounwind }
attributes #1 = { nounwind readnone }
attributes #2 = { alwaysinline }
