; ModuleID = 'mcsema/test.proposed.ll'
source_filename = "llvm-link"
target datalayout = "e-m:e-i64:64-f80:128-n8:16:32:64-S128"
target triple = "x86_64-pc-linux-gnu-elf"

%union.anon = type { i64 }
%seg_400388__init_type = type <{ [23 x i8] }>
%seg_4003a0__text_type = type <{ [354 x i8] }>
%seg_400504__fini_type = type <{ [9 x i8] }>
%seg_400510__rodata_type = type <{ [4 x i8] }>
%seg_400514__eh_frame_hdr_type = type <{ [52 x i8] }>
%seg_400548__eh_frame_type = type <{ [208 x i8] }>
%seg_601018__data_type = type <{ [16 x i8] }>
%__bss_start_type = type <{ [8 x i8] }>
%seg_400514__fini_type = type <{ [9 x i8] }>
%seg_400520__rodata_type = type <{ [4 x i8] }>
%seg_400524__eh_frame_hdr_type = type <{ [52 x i8] }>
%seg_400558__eh_frame_type = type <{ [208 x i8] }>
%G_0xb454f8_type = type <{ [16 x i8] }>
%struct.State = type { %struct.ArchState, [32 x %union.VectorReg], %struct.ArithFlags, %union.anon, %struct.Segments, %struct.AddressSpace, %struct.GPR, %struct.X87Stack, %struct.MMX, %struct.FPUStatusFlags, %union.anon, %union.FPU, %struct.SegmentCaches }
%struct.ArchState = type { i32, i32, %union.anon }
%union.VectorReg = type { %union.vec512_t }
%union.vec512_t = type { %struct.uint64v8_t }
%struct.uint64v8_t = type { [8 x i64] }
%struct.ArithFlags = type { i8, i8, i8, i8, i8, i8, i8, i8, i8, i8, i8, i8, i8, i8, i8, i8 }
%struct.Segments = type { i16, %union.SegmentSelector, i16, %union.SegmentSelector, i16, %union.SegmentSelector, i16, %union.SegmentSelector, i16, %union.SegmentSelector, i16, %union.SegmentSelector }
%union.SegmentSelector = type { i16 }
%struct.AddressSpace = type { i64, %struct.Reg, i64, %struct.Reg, i64, %struct.Reg, i64, %struct.Reg, i64, %struct.Reg, i64, %struct.Reg }
%struct.Reg = type { %union.anon }
%struct.GPR = type { i64, %struct.Reg, i64, %struct.Reg, i64, %struct.Reg, i64, %struct.Reg, i64, %struct.Reg, i64, %struct.Reg, i64, %struct.Reg, i64, %struct.Reg, i64, %struct.Reg, i64, %struct.Reg, i64, %struct.Reg, i64, %struct.Reg, i64, %struct.Reg, i64, %struct.Reg, i64, %struct.Reg, i64, %struct.Reg, i64, %struct.Reg }
%struct.X87Stack = type { [8 x %struct.anon.3] }
%struct.anon.3 = type { i64, double }
%struct.MMX = type { [8 x %struct.anon.4] }
%struct.anon.4 = type { i64, %union.vec64_t }
%union.vec64_t = type { %struct.uint64v1_t }
%struct.uint64v1_t = type { [1 x i64] }
%struct.FPUStatusFlags = type { i8, i8, i8, i8, i8, i8, i8, i8, i8, i8, i8, i8, i8, i8, i8, i8, i8, i8, i8, i8, [4 x i8] }
%union.FPU = type { %struct.anon.13 }
%struct.anon.13 = type { %struct.FpuFXSAVE, [96 x i8] }
%struct.FpuFXSAVE = type { %union.SegmentSelector, %union.SegmentSelector, %union.FPUAbridgedTagWord, i8, i16, i32, %union.SegmentSelector, i16, i32, %union.SegmentSelector, i16, %union.FPUControlStatus, %union.FPUControlStatus, [8 x %struct.FPUStackElem], [16 x %union.vec128_t] }
%union.FPUAbridgedTagWord = type { i8 }
%union.FPUControlStatus = type { i32 }
%struct.FPUStackElem = type { %union.anon.11, [6 x i8] }
%union.anon.11 = type { %struct.float80_t }
%struct.float80_t = type { [10 x i8] }
%union.vec128_t = type { %struct.uint128v1_t }
%struct.uint128v1_t = type { [1 x i128] }
%struct.SegmentCaches = type { %struct.SegmentShadow, %struct.SegmentShadow, %struct.SegmentShadow, %struct.SegmentShadow, %struct.SegmentShadow, %struct.SegmentShadow }
%struct.SegmentShadow = type { %union.anon, i32, i32 }
%struct.Memory = type opaque
%"class.std::bitset" = type { %struct.uint64v4_t }
%struct.uint64v4_t = type { [4 x i64] }

@switch.table = private unnamed_addr constant [4 x i32] [i32 2048, i32 3072, i32 0, i32 1024]
@DR0 = external global i64, align 8
@DR1 = external global i64, align 8
@DR2 = external global i64, align 8
@DR3 = external global i64, align 8
@DR4 = external global i64, align 8
@DR5 = external global i64, align 8
@DR6 = external global i64, align 8
@DR7 = external global i64, align 8
@gCR0 = external global %union.anon, align 1
@gCR1 = external global %union.anon, align 1
@gCR2 = external global %union.anon, align 1
@gCR3 = external global %union.anon, align 1
@gCR4 = external global %union.anon, align 1
@gCR8 = external global %union.anon, align 1
@seg_400388__init = internal constant %seg_400388__init_type <{ [23 x i8] c"H\83\EC\08H\8B\05e\0C \00H\85\C0t\02\FF\D0H\83\C4\08\C3" }>
@seg_4003a0__text = internal constant %seg_4003a0__text_type <{ [354 x i8] c"1\EDI\89\D1^H\89\E2H\83\E4\F0PTI\C7\C0\00\05@\00H\C7\C1\90\04@\00H\C7\C7\88\04@\00\FF\15&\0C \00\F4\0F\1FD\00\00\F3\C3f.\0F\1F\84\00\00\00\00\00\0F\1F@\00U\B8(\10`\00H=(\10`\00H\89\E5t\17\B8\00\00\00\00H\85\C0t\0D]\BF(\10`\00\FF\E0\0F\1FD\00\00]\C3f\0F\1FD\00\00\BE(\10`\00UH\81\EE(\10`\00H\89\E5H\C1\FE\03H\89\F0H\C1\E8?H\01\C6H\D1\FEt\15\B8\00\00\00\00H\85\C0t\0B]\BF(\10`\00\FF\E0\0F\1F\00]\C3f\0F\1FD\00\00\80=\D1\0B \00\00u\17UH\89\E5\E8~\FF\FF\FF\C6\05\BF\0B \00\01]\C3\0F\1FD\00\00\F3\C3\0F\1F@\00f.\0F\1F\84\00\00\00\00\00UH\89\E5]\EB\89\90U\C3f\0F\1FD\00\00AWAVI\89\D7AUATL\8D%\9E\09 \00UH\8D-\9E\09 \00SA\89\FDI\89\F6L)\E5H\83\EC\08H\C1\FD\03\E8\C7\FE\FF\FFH\85\EDt 1\DB\0F\1F\84\00\00\00\00\00L\89\FAL\89\F6D\89\EFA\FF\14\DCH\83\C3\01H9\DDu\EAH\83\C4\08[]A\5CA]A^A_\C3\90f.\0F\1F\84\00\00\00\00\00\F3\C3" }>
@seg_400504__fini = internal constant %seg_400504__fini_type <{ [9 x i8] c"H\83\EC\08H\83\C4\08\C3" }>
@seg_400510__rodata = internal constant %seg_400510__rodata_type <{ [4 x i8] c"\01\00\02\00" }>
@seg_400514__eh_frame_hdr = internal constant %seg_400514__eh_frame_hdr_type <{ [52 x i8] c"\01\1B\03;0\00\00\00\05\00\00\00\8C\FE\FF\FFL\00\00\00\BC\FE\FF\FFx\00\00\00t\FF\FF\FF\8C\00\00\00|\FF\FF\FF\A4\00\00\00\EC\FF\FF\FF\EC\00\00\00" }>
@seg_400548__eh_frame = internal constant %seg_400548__eh_frame_type <{ [208 x i8] c"\14\00\00\00\00\00\00\00\01zR\00\01x\10\01\1B\0C\07\08\90\01\07\10\10\00\00\00\1C\00\00\008\FE\FF\FF+\00\00\00\00\00\00\00\14\00\00\00\00\00\00\00\01zR\00\01x\10\01\1B\0C\07\08\90\01\00\00\10\00\00\00\1C\00\00\00<\FE\FF\FF\02\00\00\00\00\00\00\00\14\00\00\000\00\00\00\E0\FE\FF\FF\02\00\00\00\00\00\00\00\00\00\00\00D\00\00\00H\00\00\00\D0\FE\FF\FFe\00\00\00\00B\0E\10\8F\02B\0E\18\8E\03E\0E \8D\04B\0E(\8C\05H\0E0\86\06H\0E8\83\07M\0E@r\0E8A\0E0A\0E(B\0E B\0E\18B\0E\10B\0E\08\00\10\00\00\00\90\00\00\00\F8\FE\FF\FF\02\00\00\00\00\00\00\00\00\00\00\00" }>
@seg_601018__data = internal global %seg_601018__data_type zeroinitializer
@__bss_start = global %__bss_start_type zeroinitializer
@0 = internal global i1 false
@seg_400514__fini = internal constant %seg_400514__fini_type <{ [9 x i8] c"H\83\EC\08H\83\C4\08\C3" }>
@seg_400520__rodata = internal constant %seg_400520__rodata_type <{ [4 x i8] c"\01\00\02\00" }>
@seg_400524__eh_frame_hdr = internal constant %seg_400524__eh_frame_hdr_type <{ [52 x i8] c"\01\1B\03;0\00\00\00\05\00\00\00|\FE\FF\FFL\00\00\00\AC\FE\FF\FFx\00\00\00d\FF\FF\FF\8C\00\00\00|\FF\FF\FF\A4\00\00\00\EC\FF\FF\FF\EC\00\00\00" }>
@seg_400558__eh_frame = internal constant %seg_400558__eh_frame_type <{ [208 x i8] c"\14\00\00\00\00\00\00\00\01zR\00\01x\10\01\1B\0C\07\08\90\01\07\10\10\00\00\00\1C\00\00\00(\FE\FF\FF+\00\00\00\00\00\00\00\14\00\00\00\00\00\00\00\01zR\00\01x\10\01\1B\0C\07\08\90\01\00\00\10\00\00\00\1C\00\00\00,\FE\FF\FF\02\00\00\00\00\00\00\00\14\00\00\000\00\00\00\D0\FE\FF\FF\0A\00\00\00\00\00\00\00\00\00\00\00D\00\00\00H\00\00\00\D0\FE\FF\FFe\00\00\00\00B\0E\10\8F\02B\0E\18\8E\03E\0E \8D\04B\0E(\8C\05H\0E0\86\06H\0E8\83\07M\0E@r\0E8A\0E0A\0E(B\0E B\0E\18B\0E\10B\0E\08\00\10\00\00\00\90\00\00\00\F8\FE\FF\FF\02\00\00\00\00\00\00\00\00\00\00\00" }>
@G_0xb454f8 = global %G_0xb454f8_type zeroinitializer

declare %struct.Memory* @__remill_error(%struct.State* dereferenceable(3376), i64, %struct.Memory*)

declare i32 @__remill_fpu_exception_test_and_clear(i32, i32)

; Function Attrs: argmemonly nounwind
declare void @llvm.lifetime.start(i64, i8* nocapture) #0

; Function Attrs: argmemonly nounwind
declare void @llvm.lifetime.end(i64, i8* nocapture) #0

; Function Attrs: nounwind readnone
declare i32 @llvm.ctpop.i32(i32) #1

; Function Attrs: nounwind readnone
declare i32 @llvm.bswap.i32(i32) #1

; Function Attrs: nounwind readnone
declare i64 @llvm.bswap.i64(i64) #1

; Function Attrs: nounwind readnone
declare i32 @llvm.cttz.i32(i32, i1) #1

; Function Attrs: nounwind readnone
declare i64 @llvm.cttz.i64(i64, i1) #1

; Function Attrs: nounwind readnone
declare i32 @llvm.ctlz.i32(i32, i1) #1

; Function Attrs: nounwind readnone
declare i64 @llvm.ctlz.i64(i64, i1) #1

; Function Attrs: argmemonly nounwind
declare void @llvm.memcpy.p0i8.p0i8.i64(i8* nocapture writeonly, i8* nocapture readonly, i64, i32, i1) #0

; Function Attrs: nounwind readnone
declare double @llvm.nearbyint.f64(double) #1

; Function Attrs: nounwind readnone
declare double @llvm.fabs.f64(double) #1

; Function Attrs: nounwind readnone
declare <4 x double> @llvm.nearbyint.v4f64(<4 x double>) #1

; Function Attrs: nounwind readnone
declare <4 x double> @llvm.fabs.v4f64(<4 x double>) #1

; Function Attrs: nounwind readnone
declare double @llvm.trunc.f64(double) #1

; Function Attrs: nounwind readnone
declare <4 x double> @llvm.trunc.v4f64(<4 x double>) #1

; Function Attrs: nounwind readnone
declare float @llvm.nearbyint.f32(float) #1

; Function Attrs: nounwind readnone
declare float @llvm.fabs.f32(float) #1

; Function Attrs: nounwind readnone
declare <4 x float> @llvm.nearbyint.v4f32(<4 x float>) #1

; Function Attrs: nounwind readnone
declare <4 x float> @llvm.fabs.v4f32(<4 x float>) #1

; Function Attrs: nounwind readnone
declare float @llvm.trunc.f32(float) #1

; Function Attrs: nounwind readnone
declare <4 x float> @llvm.trunc.v4f32(<4 x float>) #1

; Function Attrs: argmemonly nounwind
declare void @llvm.memset.p0i8.i64(i8* nocapture writeonly, i8, i64, i32, i1) #0

declare double @atan(double) local_unnamed_addr

declare double @cos(double) local_unnamed_addr

declare double @sin(double) local_unnamed_addr

declare double @sqrt(double) local_unnamed_addr

declare double @tan(double) local_unnamed_addr

declare extern_weak x86_64_sysvcc i64 @abort()

declare extern_weak x86_64_sysvcc i64 @abs(i64)

declare extern_weak x86_64_sysvcc i64 @asin(i64)

declare extern_weak x86_64_sysvcc i64 @atof(i64)

declare extern_weak x86_64_sysvcc i64 @atoi(i64)

declare extern_weak x86_64_sysvcc i64 @atol(i64)

declare extern_weak x86_64_sysvcc i64 @calloc(i64, i64)

declare extern_weak x86_64_sysvcc i64 @clock()

declare extern_weak x86_64_sysvcc i64 @cosf(i64)

declare extern_weak x86_64_sysvcc i64 @exit(i64)

declare extern_weak x86_64_sysvcc i64 @exp(i64)

declare extern_weak x86_64_sysvcc i64 @fflush(i64)

declare extern_weak x86_64_sysvcc i64 @floor(i64)

declare extern_weak x86_64_sysvcc i64 @fprintf(i64, i64, i64, i64, i64, i64, i64, i64, i64, i64, i64, i64, i64, i64, i64, i64)

declare extern_weak x86_64_sysvcc i64 @fputs(i64, i64)

declare extern_weak x86_64_sysvcc i64 @free(i64)

declare extern_weak x86_64_sysvcc i64 @fwrite(i64, i64, i64, i64)

declare extern_weak x86_64_sysvcc i64 @getchar()

declare extern_weak x86_64_sysvcc i64 @gettimeofday(i64, i64)

declare extern_weak x86_64_sysvcc i64 @__isoc99_fscanf(i64, i64, i64, i64, i64, i64, i64, i64, i64, i64, i64, i64, i64, i64, i64, i64)

declare extern_weak x86_64_sysvcc i64 @__isoc99_scanf(i64, i64, i64, i64, i64, i64, i64, i64, i64, i64, i64, i64, i64, i64, i64, i64)

declare extern_weak x86_64_sysvcc i64 @__isoc99_sscanf(i64, i64, i64, i64, i64, i64, i64, i64, i64, i64, i64, i64, i64, i64, i64, i64)

declare extern_weak x86_64_sysvcc i64 @log(i64)

declare extern_weak x86_64_sysvcc i64 @lrand48()

declare extern_weak x86_64_sysvcc i64 @malloc(i64)

declare extern_weak x86_64_sysvcc i64 @memalign(i64, i64)

declare extern_weak x86_64_sysvcc i64 @memcpy(i64, i64, i64)

declare extern_weak x86_64_sysvcc i64 @memset(i64, i64, i64)

declare extern_weak x86_64_sysvcc i64 @perror(i64)

declare extern_weak x86_64_sysvcc i64 @posix_memalign(i64, i64, i64)

declare extern_weak x86_64_sysvcc i64 @pow(i64, i64)

declare extern_weak x86_64_sysvcc i64 @printf(i64, i64, i64, i64, i64, i64, i64, i64, i64, i64, i64, i64, i64, i64, i64, i64)

declare extern_weak x86_64_sysvcc i64 @putchar(i64)

declare extern_weak x86_64_sysvcc i64 @puts(i64)

declare extern_weak x86_64_sysvcc i64 @rand()

declare extern_weak x86_64_sysvcc i64 @random()

declare extern_weak x86_64_sysvcc i64 @realloc(i64, i64)

declare extern_weak x86_64_sysvcc i64 @seed48(i64)

declare extern_weak x86_64_sysvcc i64 @sinf(i64)

declare extern_weak x86_64_sysvcc i64 @sprintf(i64, i64, i64, i64, i64, i64, i64, i64, i64, i64, i64, i64, i64, i64, i64, i64)

declare extern_weak x86_64_sysvcc i64 @srand(i64)

declare extern_weak x86_64_sysvcc i64 @strcat(i64, i64)

declare extern_weak x86_64_sysvcc i64 @strcmp(i64, i64)

declare extern_weak x86_64_sysvcc i64 @strcpy(i64, i64)

declare extern_weak x86_64_sysvcc i64 @strdup(i64)

declare extern_weak x86_64_sysvcc i64 @strlen(i64)

declare extern_weak x86_64_sysvcc i64 @strncmp(i64, i64, i64)

declare extern_weak x86_64_sysvcc i64 @strtoll(i64, i64, i64)

declare extern_weak x86_64_sysvcc i64 @time(i64)

declare extern_weak x86_64_sysvcc i64 @ungetc(i64, i64)

declare extern_weak x86_64_sysvcc i64 @pthread_join(i64, i64)

declare extern_weak x86_64_sysvcc i64 @pthread_create(i64, i64, i64, i64)

declare %struct.Memory* @__remill_function_call(%struct.State* dereferenceable(3376), i64, %struct.Memory*)

declare %struct.Memory* @ext_sqrt(%struct.State* noalias dereferenceable(3376), i64, %struct.Memory* noalias)

declare %struct.Memory* @ext_atan(%struct.State* noalias dereferenceable(3376), i64, %struct.Memory* noalias)

declare %struct.Memory* @ext_cos(%struct.State* noalias dereferenceable(3376), i64, %struct.Memory* noalias)

declare %struct.Memory* @ext_tan(%struct.State* noalias dereferenceable(3376), i64, %struct.Memory* noalias)

declare %struct.Memory* @ext_sin(%struct.State* noalias dereferenceable(3376), i64, %struct.Memory* noalias)

; Function Attrs: alwaysinline
define %struct.Memory* @gnugo_set_komi(%struct.State* noalias, i64, %struct.Memory* noalias) #2 {
entry:
  %3 = getelementptr inbounds %struct.State, %struct.State* %0, i64 0, i32 6, i32 33, i32 0, i32 0
  store i64 %1, i64* %3, align 8
  %BRANCH_TAKEN = alloca i8, align 1
  store i8 0, i8* %BRANCH_TAKEN, align 1
  %MEMORY = alloca %struct.Memory*, align 8
  store %struct.Memory* %2, %struct.Memory** %MEMORY, align 8
  %loadMem_42e4a0 = load %struct.Memory*, %struct.Memory** %MEMORY
  %4 = getelementptr inbounds %struct.State, %struct.State* %0, i32 0, i32 6
  %5 = getelementptr inbounds %struct.GPR, %struct.GPR* %4, i32 0, i32 33
  %6 = getelementptr inbounds %struct.Reg, %struct.Reg* %5, i32 0, i32 0
  %PC.i = bitcast %union.anon* %6 to i64*
  %7 = getelementptr inbounds %struct.State, %struct.State* %0, i32 0, i32 6
  %8 = getelementptr inbounds %struct.GPR, %struct.GPR* %7, i32 0, i32 15
  %9 = getelementptr inbounds %struct.Reg, %struct.Reg* %8, i32 0, i32 0
  %RBP.i = bitcast %union.anon* %9 to i64*
  %10 = load i64, i64* %RBP.i
  %11 = load i64, i64* %PC.i
  %12 = add i64 %11, 1
  store i64 %12, i64* %PC.i
  %13 = getelementptr inbounds %struct.State, %struct.State* %0, i64 0, i32 6, i32 13, i32 0, i32 0
  %14 = load i64, i64* %13, align 8
  %15 = add i64 %14, -8
  %16 = inttoptr i64 %15 to i64*
  store i64 %10, i64* %16
  store i64 %15, i64* %13, align 8
  store %struct.Memory* %loadMem_42e4a0, %struct.Memory** %MEMORY
  %loadMem_42e4a1 = load %struct.Memory*, %struct.Memory** %MEMORY
  %17 = getelementptr inbounds %struct.State, %struct.State* %0, i32 0, i32 6
  %18 = getelementptr inbounds %struct.GPR, %struct.GPR* %17, i32 0, i32 33
  %19 = getelementptr inbounds %struct.Reg, %struct.Reg* %18, i32 0, i32 0
  %PC.i10 = bitcast %union.anon* %19 to i64*
  %20 = getelementptr inbounds %struct.State, %struct.State* %0, i32 0, i32 6
  %21 = getelementptr inbounds %struct.GPR, %struct.GPR* %20, i32 0, i32 13
  %22 = getelementptr inbounds %struct.Reg, %struct.Reg* %21, i32 0, i32 0
  %RSP.i = bitcast %union.anon* %22 to i64*
  %23 = getelementptr inbounds %struct.State, %struct.State* %0, i32 0, i32 6
  %24 = getelementptr inbounds %struct.GPR, %struct.GPR* %23, i32 0, i32 15
  %25 = getelementptr inbounds %struct.Reg, %struct.Reg* %24, i32 0, i32 0
  %RBP.i11 = bitcast %union.anon* %25 to i64*
  %26 = load i64, i64* %RSP.i
  %27 = load i64, i64* %PC.i10
  %28 = add i64 %27, 3
  store i64 %28, i64* %PC.i10
  store i64 %26, i64* %RBP.i11, align 8
  store %struct.Memory* %loadMem_42e4a1, %struct.Memory** %MEMORY
  %loadMem_42e4a4 = load %struct.Memory*, %struct.Memory** %MEMORY
  %29 = getelementptr inbounds %struct.State, %struct.State* %0, i32 0, i32 6
  %30 = getelementptr inbounds %struct.GPR, %struct.GPR* %29, i32 0, i32 33
  %31 = getelementptr inbounds %struct.Reg, %struct.Reg* %30, i32 0, i32 0
  %PC.i7 = bitcast %union.anon* %31 to i64*
  %32 = getelementptr inbounds %struct.State, %struct.State* %0, i32 0, i32 6
  %33 = getelementptr inbounds %struct.GPR, %struct.GPR* %32, i32 0, i32 15
  %34 = getelementptr inbounds %struct.Reg, %struct.Reg* %33, i32 0, i32 0
  %RBP.i8 = bitcast %union.anon* %34 to i64*
  %35 = getelementptr inbounds %struct.State, %struct.State* %0, i32 0, i32 1
  %36 = getelementptr inbounds [32 x %union.VectorReg], [32 x %union.VectorReg]* %35, i64 0, i64 0
  %XMM0.i9 = bitcast %union.VectorReg* %36 to %union.vec128_t*
  %37 = load i64, i64* %RBP.i8
  %38 = sub i64 %37, 4
  %39 = bitcast %union.vec128_t* %XMM0.i9 to i8*
  %40 = load i64, i64* %PC.i7
  %41 = add i64 %40, 5
  store i64 %41, i64* %PC.i7
  %42 = bitcast i8* %39 to <2 x float>*
  %43 = load <2 x float>, <2 x float>* %42, align 1
  %44 = extractelement <2 x float> %43, i32 0
  %45 = inttoptr i64 %38 to float*
  store float %44, float* %45
  store %struct.Memory* %loadMem_42e4a4, %struct.Memory** %MEMORY
  %loadMem_42e4a9 = load %struct.Memory*, %struct.Memory** %MEMORY
  %46 = getelementptr inbounds %struct.State, %struct.State* %0, i32 0, i32 6
  %47 = getelementptr inbounds %struct.GPR, %struct.GPR* %46, i32 0, i32 33
  %48 = getelementptr inbounds %struct.Reg, %struct.Reg* %47, i32 0, i32 0
  %PC.i5 = bitcast %union.anon* %48 to i64*
  %49 = getelementptr inbounds %struct.State, %struct.State* %0, i32 0, i32 6
  %50 = getelementptr inbounds %struct.GPR, %struct.GPR* %49, i32 0, i32 15
  %51 = getelementptr inbounds %struct.Reg, %struct.Reg* %50, i32 0, i32 0
  %RBP.i6 = bitcast %union.anon* %51 to i64*
  %52 = getelementptr inbounds %struct.State, %struct.State* %0, i32 0, i32 1
  %53 = getelementptr inbounds [32 x %union.VectorReg], [32 x %union.VectorReg]* %52, i64 0, i64 0
  %YMM0.i = bitcast %union.VectorReg* %53 to %"class.std::bitset"*
  %54 = bitcast %"class.std::bitset"* %YMM0.i to i8*
  %55 = load i64, i64* %RBP.i6
  %56 = sub i64 %55, 4
  %57 = load i64, i64* %PC.i5
  %58 = add i64 %57, 5
  store i64 %58, i64* %PC.i5
  %59 = inttoptr i64 %56 to float*
  %60 = load float, float* %59
  %61 = bitcast i8* %54 to float*
  store float %60, float* %61, align 1
  %62 = getelementptr inbounds i8, i8* %54, i64 4
  %63 = bitcast i8* %62 to float*
  store float 0.000000e+00, float* %63, align 1
  %64 = getelementptr inbounds i8, i8* %54, i64 8
  %65 = bitcast i8* %64 to float*
  store float 0.000000e+00, float* %65, align 1
  %66 = getelementptr inbounds i8, i8* %54, i64 12
  %67 = bitcast i8* %66 to float*
  store float 0.000000e+00, float* %67, align 1
  store %struct.Memory* %loadMem_42e4a9, %struct.Memory** %MEMORY
  %loadMem_42e4ae = load %struct.Memory*, %struct.Memory** %MEMORY
  %68 = getelementptr inbounds %struct.State, %struct.State* %0, i32 0, i32 6
  %69 = getelementptr inbounds %struct.GPR, %struct.GPR* %68, i32 0, i32 33
  %70 = getelementptr inbounds %struct.Reg, %struct.Reg* %69, i32 0, i32 0
  %PC.i4 = bitcast %union.anon* %70 to i64*
  %71 = getelementptr inbounds %struct.State, %struct.State* %0, i32 0, i32 1
  %72 = getelementptr inbounds [32 x %union.VectorReg], [32 x %union.VectorReg]* %71, i64 0, i64 0
  %XMM0.i = bitcast %union.VectorReg* %72 to %union.vec128_t*
  %73 = bitcast %union.vec128_t* %XMM0.i to i8*
  %74 = load i64, i64* %PC.i4
  %75 = add i64 %74, 9
  store i64 %75, i64* %PC.i4
  %76 = bitcast i8* %73 to <2 x float>*
  %77 = load <2 x float>, <2 x float>* %76, align 1
  %78 = extractelement <2 x float> %77, i32 0
  store float %78, float* bitcast (%G_0xb454f8_type* @G_0xb454f8 to float*)
  store %struct.Memory* %loadMem_42e4ae, %struct.Memory** %MEMORY
  %loadMem_42e4b7 = load %struct.Memory*, %struct.Memory** %MEMORY
  %79 = getelementptr inbounds %struct.State, %struct.State* %0, i32 0, i32 6
  %80 = getelementptr inbounds %struct.GPR, %struct.GPR* %79, i32 0, i32 33
  %81 = getelementptr inbounds %struct.Reg, %struct.Reg* %80, i32 0, i32 0
  %PC.i2 = bitcast %union.anon* %81 to i64*
  %82 = getelementptr inbounds %struct.State, %struct.State* %0, i32 0, i32 6
  %83 = getelementptr inbounds %struct.GPR, %struct.GPR* %82, i32 0, i32 15
  %84 = getelementptr inbounds %struct.Reg, %struct.Reg* %83, i32 0, i32 0
  %RBP.i3 = bitcast %union.anon* %84 to i64*
  %85 = load i64, i64* %PC.i2
  %86 = add i64 %85, 1
  store i64 %86, i64* %PC.i2
  %87 = getelementptr inbounds %struct.State, %struct.State* %0, i64 0, i32 6, i32 13, i32 0, i32 0
  %88 = load i64, i64* %87, align 8
  %89 = add i64 %88, 8
  %90 = inttoptr i64 %88 to i64*
  %91 = load i64, i64* %90
  store i64 %91, i64* %RBP.i3, align 8
  store i64 %89, i64* %87, align 8
  store %struct.Memory* %loadMem_42e4b7, %struct.Memory** %MEMORY
  %loadMem_42e4b8 = load %struct.Memory*, %struct.Memory** %MEMORY
  %92 = getelementptr inbounds %struct.State, %struct.State* %0, i32 0, i32 6
  %93 = getelementptr inbounds %struct.GPR, %struct.GPR* %92, i32 0, i32 33
  %94 = getelementptr inbounds %struct.Reg, %struct.Reg* %93, i32 0, i32 0
  %PC.i1 = bitcast %union.anon* %94 to i64*
  %95 = load i64, i64* %PC.i1
  %96 = add i64 %95, 1
  store i64 %96, i64* %PC.i1
  %97 = getelementptr inbounds %struct.State, %struct.State* %0, i64 0, i32 6, i32 33, i32 0, i32 0
  %98 = getelementptr inbounds %struct.State, %struct.State* %0, i64 0, i32 6, i32 13, i32 0, i32 0
  %99 = load i64, i64* %98, align 8
  %100 = inttoptr i64 %99 to i64*
  %101 = load i64, i64* %100
  store i64 %101, i64* %97, align 8
  %102 = add i64 %99, 8
  store i64 %102, i64* %98, align 8
  store %struct.Memory* %loadMem_42e4b8, %struct.Memory** %MEMORY
  ret %struct.Memory* %loadMem_42e4b8
}

define %struct.Memory* @routine_pushq__rbp(%struct.State* dereferenceable(3376), i64, %struct.Memory*) {
block_400488:
  %3 = getelementptr inbounds %struct.State, %struct.State* %0, i32 0, i32 6
  %4 = getelementptr inbounds %struct.GPR, %struct.GPR* %3, i32 0, i32 33
  %5 = getelementptr inbounds %struct.Reg, %struct.Reg* %4, i32 0, i32 0
  %PC = bitcast %union.anon* %5 to i64*
  %6 = getelementptr inbounds %struct.State, %struct.State* %0, i32 0, i32 6
  %7 = getelementptr inbounds %struct.GPR, %struct.GPR* %6, i32 0, i32 15
  %8 = getelementptr inbounds %struct.Reg, %struct.Reg* %7, i32 0, i32 0
  %RBP = bitcast %union.anon* %8 to i64*
  %9 = load i64, i64* %RBP
  %10 = load i64, i64* %PC
  %11 = add i64 %10, 1
  store i64 %11, i64* %PC
  %12 = getelementptr inbounds %struct.State, %struct.State* %0, i64 0, i32 6, i32 13, i32 0, i32 0
  %13 = load i64, i64* %12, align 8
  %14 = add i64 %13, -8
  %15 = inttoptr i64 %14 to i64*
  store i64 %9, i64* %15
  store i64 %14, i64* %12, align 8
  ret %struct.Memory* %2
}

define %struct.Memory* @routine_movq__rsp___rbp(%struct.State* dereferenceable(3376), i64, %struct.Memory*) {
block_400488:
  %3 = getelementptr inbounds %struct.State, %struct.State* %0, i32 0, i32 6
  %4 = getelementptr inbounds %struct.GPR, %struct.GPR* %3, i32 0, i32 33
  %5 = getelementptr inbounds %struct.Reg, %struct.Reg* %4, i32 0, i32 0
  %PC = bitcast %union.anon* %5 to i64*
  %6 = getelementptr inbounds %struct.State, %struct.State* %0, i32 0, i32 6
  %7 = getelementptr inbounds %struct.GPR, %struct.GPR* %6, i32 0, i32 13
  %8 = getelementptr inbounds %struct.Reg, %struct.Reg* %7, i32 0, i32 0
  %RSP = bitcast %union.anon* %8 to i64*
  %9 = getelementptr inbounds %struct.State, %struct.State* %0, i32 0, i32 6
  %10 = getelementptr inbounds %struct.GPR, %struct.GPR* %9, i32 0, i32 15
  %11 = getelementptr inbounds %struct.Reg, %struct.Reg* %10, i32 0, i32 0
  %RBP = bitcast %union.anon* %11 to i64*
  %12 = load i64, i64* %RSP
  %13 = load i64, i64* %PC
  %14 = add i64 %13, 3
  store i64 %14, i64* %PC
  store i64 %12, i64* %RBP, align 8
  ret %struct.Memory* %2
}

define %struct.Memory* @routine_movss__xmm0__MINUS0x4__rbp_(%struct.State* dereferenceable(3376), i64, %struct.Memory*) {
block_400488:
  %3 = getelementptr inbounds %struct.State, %struct.State* %0, i32 0, i32 6
  %4 = getelementptr inbounds %struct.GPR, %struct.GPR* %3, i32 0, i32 33
  %5 = getelementptr inbounds %struct.Reg, %struct.Reg* %4, i32 0, i32 0
  %PC = bitcast %union.anon* %5 to i64*
  %6 = getelementptr inbounds %struct.State, %struct.State* %0, i32 0, i32 6
  %7 = getelementptr inbounds %struct.GPR, %struct.GPR* %6, i32 0, i32 15
  %8 = getelementptr inbounds %struct.Reg, %struct.Reg* %7, i32 0, i32 0
  %RBP = bitcast %union.anon* %8 to i64*
  %9 = getelementptr inbounds %struct.State, %struct.State* %0, i32 0, i32 1
  %10 = getelementptr inbounds [32 x %union.VectorReg], [32 x %union.VectorReg]* %9, i64 0, i64 0
  %XMM0 = bitcast %union.VectorReg* %10 to %union.vec128_t*
  %11 = load i64, i64* %RBP
  %12 = sub i64 %11, 4
  %13 = bitcast %union.vec128_t* %XMM0 to i8*
  %14 = load i64, i64* %PC
  %15 = add i64 %14, 5
  store i64 %15, i64* %PC
  %16 = bitcast i8* %13 to <2 x float>*
  %17 = load <2 x float>, <2 x float>* %16, align 1
  %18 = extractelement <2 x float> %17, i32 0
  %19 = inttoptr i64 %12 to float*
  store float %18, float* %19
  ret %struct.Memory* %2
}

define %struct.Memory* @routine_movss_MINUS0x4__rbp____xmm0(%struct.State* dereferenceable(3376), i64, %struct.Memory*) {
block_400488:
  %3 = getelementptr inbounds %struct.State, %struct.State* %0, i32 0, i32 6
  %4 = getelementptr inbounds %struct.GPR, %struct.GPR* %3, i32 0, i32 33
  %5 = getelementptr inbounds %struct.Reg, %struct.Reg* %4, i32 0, i32 0
  %PC = bitcast %union.anon* %5 to i64*
  %6 = getelementptr inbounds %struct.State, %struct.State* %0, i32 0, i32 6
  %7 = getelementptr inbounds %struct.GPR, %struct.GPR* %6, i32 0, i32 15
  %8 = getelementptr inbounds %struct.Reg, %struct.Reg* %7, i32 0, i32 0
  %RBP = bitcast %union.anon* %8 to i64*
  %9 = getelementptr inbounds %struct.State, %struct.State* %0, i32 0, i32 1
  %10 = getelementptr inbounds [32 x %union.VectorReg], [32 x %union.VectorReg]* %9, i64 0, i64 0
  %YMM0 = bitcast %union.VectorReg* %10 to %"class.std::bitset"*
  %11 = bitcast %"class.std::bitset"* %YMM0 to i8*
  %12 = load i64, i64* %RBP
  %13 = sub i64 %12, 4
  %14 = load i64, i64* %PC
  %15 = add i64 %14, 5
  store i64 %15, i64* %PC
  %16 = inttoptr i64 %13 to float*
  %17 = load float, float* %16
  %18 = bitcast i8* %11 to float*
  store float %17, float* %18, align 1
  %19 = getelementptr inbounds i8, i8* %11, i64 4
  %20 = bitcast i8* %19 to float*
  store float 0.000000e+00, float* %20, align 1
  %21 = getelementptr inbounds i8, i8* %11, i64 8
  %22 = bitcast i8* %21 to float*
  store float 0.000000e+00, float* %22, align 1
  %23 = getelementptr inbounds i8, i8* %11, i64 12
  %24 = bitcast i8* %23 to float*
  store float 0.000000e+00, float* %24, align 1
  ret %struct.Memory* %2
}

define %struct.Memory* @routine_movss__xmm0__0xb454f8(%struct.State* dereferenceable(3376), i64, %struct.Memory*) {
block_400488:
  %3 = getelementptr inbounds %struct.State, %struct.State* %0, i32 0, i32 6
  %4 = getelementptr inbounds %struct.GPR, %struct.GPR* %3, i32 0, i32 33
  %5 = getelementptr inbounds %struct.Reg, %struct.Reg* %4, i32 0, i32 0
  %PC = bitcast %union.anon* %5 to i64*
  %6 = getelementptr inbounds %struct.State, %struct.State* %0, i32 0, i32 1
  %7 = getelementptr inbounds [32 x %union.VectorReg], [32 x %union.VectorReg]* %6, i64 0, i64 0
  %XMM0 = bitcast %union.VectorReg* %7 to %union.vec128_t*
  %8 = bitcast %union.vec128_t* %XMM0 to i8*
  %9 = load i64, i64* %PC
  %10 = add i64 %9, 9
  store i64 %10, i64* %PC
  %11 = bitcast i8* %8 to <2 x float>*
  %12 = load <2 x float>, <2 x float>* %11, align 1
  %13 = extractelement <2 x float> %12, i32 0
  store float %13, float* bitcast (%G_0xb454f8_type* @G_0xb454f8 to float*)
  ret %struct.Memory* %2
}

define %struct.Memory* @routine_popq__rbp(%struct.State* dereferenceable(3376), i64, %struct.Memory*) {
block_400488:
  %3 = getelementptr inbounds %struct.State, %struct.State* %0, i32 0, i32 6
  %4 = getelementptr inbounds %struct.GPR, %struct.GPR* %3, i32 0, i32 33
  %5 = getelementptr inbounds %struct.Reg, %struct.Reg* %4, i32 0, i32 0
  %PC = bitcast %union.anon* %5 to i64*
  %6 = getelementptr inbounds %struct.State, %struct.State* %0, i32 0, i32 6
  %7 = getelementptr inbounds %struct.GPR, %struct.GPR* %6, i32 0, i32 15
  %8 = getelementptr inbounds %struct.Reg, %struct.Reg* %7, i32 0, i32 0
  %RBP = bitcast %union.anon* %8 to i64*
  %9 = load i64, i64* %PC
  %10 = add i64 %9, 1
  store i64 %10, i64* %PC
  %11 = getelementptr inbounds %struct.State, %struct.State* %0, i64 0, i32 6, i32 13, i32 0, i32 0
  %12 = load i64, i64* %11, align 8
  %13 = add i64 %12, 8
  %14 = inttoptr i64 %12 to i64*
  %15 = load i64, i64* %14
  store i64 %15, i64* %RBP, align 8
  store i64 %13, i64* %11, align 8
  ret %struct.Memory* %2
}

define %struct.Memory* @routine_retq(%struct.State* dereferenceable(3376), i64, %struct.Memory*) {
block_400488:
  %3 = getelementptr inbounds %struct.State, %struct.State* %0, i32 0, i32 6
  %4 = getelementptr inbounds %struct.GPR, %struct.GPR* %3, i32 0, i32 33
  %5 = getelementptr inbounds %struct.Reg, %struct.Reg* %4, i32 0, i32 0
  %PC = bitcast %union.anon* %5 to i64*
  %6 = load i64, i64* %PC
  %7 = add i64 %6, 1
  store i64 %7, i64* %PC
  %8 = getelementptr inbounds %struct.State, %struct.State* %0, i64 0, i32 6, i32 33, i32 0, i32 0
  %9 = getelementptr inbounds %struct.State, %struct.State* %0, i64 0, i32 6, i32 13, i32 0, i32 0
  %10 = load i64, i64* %9, align 8
  %11 = inttoptr i64 %10 to i64*
  %12 = load i64, i64* %11
  store i64 %12, i64* %8, align 8
  %13 = add i64 %10, 8
  store i64 %13, i64* %9, align 8
  ret %struct.Memory* %2
}

attributes #0 = { argmemonly nounwind }
attributes #1 = { nounwind readnone }
attributes #2 = { alwaysinline }
