; ModuleID = 'mcsema/test.proposed.ll'
source_filename = "llvm-link"
target datalayout = "e-m:e-i64:64-f80:128-n8:16:32:64-S128"
target triple = "x86_64-pc-linux-gnu-elf"

%union.anon = type { i64 }
%seg_400388__init_type = type <{ [23 x i8] }>
%seg_4003a0__text_type = type <{ [354 x i8] }>
%seg_400504__fini_type = type <{ [9 x i8] }>
%seg_400510__rodata_type = type <{ [4 x i8] }>
%seg_400514__eh_frame_hdr_type = type <{ [52 x i8] }>
%seg_400548__eh_frame_type = type <{ [208 x i8] }>
%seg_601018__data_type = type <{ [16 x i8] }>
%__bss_start_type = type <{ [8 x i8] }>
%seg_400514__fini_type = type <{ [9 x i8] }>
%seg_400520__rodata_type = type <{ [4 x i8] }>
%seg_400524__eh_frame_hdr_type = type <{ [52 x i8] }>
%seg_400558__eh_frame_type = type <{ [208 x i8] }>
%G__0xb38cb4_type = type <{ [8 x i8] }>
%G__0xb7df8c_type = type <{ [8 x i8] }>
%struct.State = type { %struct.ArchState, [32 x %union.VectorReg], %struct.ArithFlags, %union.anon, %struct.Segments, %struct.AddressSpace, %struct.GPR, %struct.X87Stack, %struct.MMX, %struct.FPUStatusFlags, %union.anon, %union.FPU, %struct.SegmentCaches }
%struct.ArchState = type { i32, i32, %union.anon }
%union.VectorReg = type { %union.vec512_t }
%union.vec512_t = type { %struct.uint64v8_t }
%struct.uint64v8_t = type { [8 x i64] }
%struct.ArithFlags = type { i8, i8, i8, i8, i8, i8, i8, i8, i8, i8, i8, i8, i8, i8, i8, i8 }
%struct.Segments = type { i16, %union.SegmentSelector, i16, %union.SegmentSelector, i16, %union.SegmentSelector, i16, %union.SegmentSelector, i16, %union.SegmentSelector, i16, %union.SegmentSelector }
%union.SegmentSelector = type { i16 }
%struct.AddressSpace = type { i64, %struct.Reg, i64, %struct.Reg, i64, %struct.Reg, i64, %struct.Reg, i64, %struct.Reg, i64, %struct.Reg }
%struct.Reg = type { %union.anon }
%struct.GPR = type { i64, %struct.Reg, i64, %struct.Reg, i64, %struct.Reg, i64, %struct.Reg, i64, %struct.Reg, i64, %struct.Reg, i64, %struct.Reg, i64, %struct.Reg, i64, %struct.Reg, i64, %struct.Reg, i64, %struct.Reg, i64, %struct.Reg, i64, %struct.Reg, i64, %struct.Reg, i64, %struct.Reg, i64, %struct.Reg, i64, %struct.Reg }
%struct.X87Stack = type { [8 x %struct.anon.3] }
%struct.anon.3 = type { i64, double }
%struct.MMX = type { [8 x %struct.anon.4] }
%struct.anon.4 = type { i64, %union.vec64_t }
%union.vec64_t = type { %struct.uint64v1_t }
%struct.uint64v1_t = type { [1 x i64] }
%struct.FPUStatusFlags = type { i8, i8, i8, i8, i8, i8, i8, i8, i8, i8, i8, i8, i8, i8, i8, i8, i8, i8, i8, i8, [4 x i8] }
%union.FPU = type { %struct.anon.13 }
%struct.anon.13 = type { %struct.FpuFXSAVE, [96 x i8] }
%struct.FpuFXSAVE = type { %union.SegmentSelector, %union.SegmentSelector, %union.FPUAbridgedTagWord, i8, i16, i32, %union.SegmentSelector, i16, i32, %union.SegmentSelector, i16, %union.FPUControlStatus, %union.FPUControlStatus, [8 x %struct.FPUStackElem], [16 x %union.vec128_t] }
%union.FPUAbridgedTagWord = type { i8 }
%union.FPUControlStatus = type { i32 }
%struct.FPUStackElem = type { %union.anon.11, [6 x i8] }
%union.anon.11 = type { %struct.float80_t }
%struct.float80_t = type { [10 x i8] }
%union.vec128_t = type { %struct.uint128v1_t }
%struct.uint128v1_t = type { [1 x i128] }
%struct.SegmentCaches = type { %struct.SegmentShadow, %struct.SegmentShadow, %struct.SegmentShadow, %struct.SegmentShadow, %struct.SegmentShadow, %struct.SegmentShadow }
%struct.SegmentShadow = type { %union.anon, i32, i32 }
%struct.Memory = type opaque
%struct.anon.2 = type { i8, i8 }

@switch.table = private unnamed_addr constant [4 x i32] [i32 2048, i32 3072, i32 0, i32 1024]
@DR0 = external global i64, align 8
@DR1 = external global i64, align 8
@DR2 = external global i64, align 8
@DR3 = external global i64, align 8
@DR4 = external global i64, align 8
@DR5 = external global i64, align 8
@DR6 = external global i64, align 8
@DR7 = external global i64, align 8
@gCR0 = external global %union.anon, align 1
@gCR1 = external global %union.anon, align 1
@gCR2 = external global %union.anon, align 1
@gCR3 = external global %union.anon, align 1
@gCR4 = external global %union.anon, align 1
@gCR8 = external global %union.anon, align 1
@seg_400388__init = internal constant %seg_400388__init_type <{ [23 x i8] c"H\83\EC\08H\8B\05e\0C \00H\85\C0t\02\FF\D0H\83\C4\08\C3" }>
@seg_4003a0__text = internal constant %seg_4003a0__text_type <{ [354 x i8] c"1\EDI\89\D1^H\89\E2H\83\E4\F0PTI\C7\C0\00\05@\00H\C7\C1\90\04@\00H\C7\C7\88\04@\00\FF\15&\0C \00\F4\0F\1FD\00\00\F3\C3f.\0F\1F\84\00\00\00\00\00\0F\1F@\00U\B8(\10`\00H=(\10`\00H\89\E5t\17\B8\00\00\00\00H\85\C0t\0D]\BF(\10`\00\FF\E0\0F\1FD\00\00]\C3f\0F\1FD\00\00\BE(\10`\00UH\81\EE(\10`\00H\89\E5H\C1\FE\03H\89\F0H\C1\E8?H\01\C6H\D1\FEt\15\B8\00\00\00\00H\85\C0t\0B]\BF(\10`\00\FF\E0\0F\1F\00]\C3f\0F\1FD\00\00\80=\D1\0B \00\00u\17UH\89\E5\E8~\FF\FF\FF\C6\05\BF\0B \00\01]\C3\0F\1FD\00\00\F3\C3\0F\1F@\00f.\0F\1F\84\00\00\00\00\00UH\89\E5]\EB\89\90U\C3f\0F\1FD\00\00AWAVI\89\D7AUATL\8D%\9E\09 \00UH\8D-\9E\09 \00SA\89\FDI\89\F6L)\E5H\83\EC\08H\C1\FD\03\E8\C7\FE\FF\FFH\85\EDt 1\DB\0F\1F\84\00\00\00\00\00L\89\FAL\89\F6D\89\EFA\FF\14\DCH\83\C3\01H9\DDu\EAH\83\C4\08[]A\5CA]A^A_\C3\90f.\0F\1F\84\00\00\00\00\00\F3\C3" }>
@seg_400504__fini = internal constant %seg_400504__fini_type <{ [9 x i8] c"H\83\EC\08H\83\C4\08\C3" }>
@seg_400510__rodata = internal constant %seg_400510__rodata_type <{ [4 x i8] c"\01\00\02\00" }>
@seg_400514__eh_frame_hdr = internal constant %seg_400514__eh_frame_hdr_type <{ [52 x i8] c"\01\1B\03;0\00\00\00\05\00\00\00\8C\FE\FF\FFL\00\00\00\BC\FE\FF\FFx\00\00\00t\FF\FF\FF\8C\00\00\00|\FF\FF\FF\A4\00\00\00\EC\FF\FF\FF\EC\00\00\00" }>
@seg_400548__eh_frame = internal constant %seg_400548__eh_frame_type <{ [208 x i8] c"\14\00\00\00\00\00\00\00\01zR\00\01x\10\01\1B\0C\07\08\90\01\07\10\10\00\00\00\1C\00\00\008\FE\FF\FF+\00\00\00\00\00\00\00\14\00\00\00\00\00\00\00\01zR\00\01x\10\01\1B\0C\07\08\90\01\00\00\10\00\00\00\1C\00\00\00<\FE\FF\FF\02\00\00\00\00\00\00\00\14\00\00\000\00\00\00\E0\FE\FF\FF\02\00\00\00\00\00\00\00\00\00\00\00D\00\00\00H\00\00\00\D0\FE\FF\FFe\00\00\00\00B\0E\10\8F\02B\0E\18\8E\03E\0E \8D\04B\0E(\8C\05H\0E0\86\06H\0E8\83\07M\0E@r\0E8A\0E0A\0E(B\0E B\0E\18B\0E\10B\0E\08\00\10\00\00\00\90\00\00\00\F8\FE\FF\FF\02\00\00\00\00\00\00\00\00\00\00\00" }>
@seg_601018__data = internal global %seg_601018__data_type zeroinitializer
@__bss_start = global %__bss_start_type zeroinitializer
@0 = internal global i1 false
@seg_400514__fini = internal constant %seg_400514__fini_type <{ [9 x i8] c"H\83\EC\08H\83\C4\08\C3" }>
@seg_400520__rodata = internal constant %seg_400520__rodata_type <{ [4 x i8] c"\01\00\02\00" }>
@seg_400524__eh_frame_hdr = internal constant %seg_400524__eh_frame_hdr_type <{ [52 x i8] c"\01\1B\03;0\00\00\00\05\00\00\00|\FE\FF\FFL\00\00\00\AC\FE\FF\FFx\00\00\00d\FF\FF\FF\8C\00\00\00|\FF\FF\FF\A4\00\00\00\EC\FF\FF\FF\EC\00\00\00" }>
@seg_400558__eh_frame = internal constant %seg_400558__eh_frame_type <{ [208 x i8] c"\14\00\00\00\00\00\00\00\01zR\00\01x\10\01\1B\0C\07\08\90\01\07\10\10\00\00\00\1C\00\00\00(\FE\FF\FF+\00\00\00\00\00\00\00\14\00\00\00\00\00\00\00\01zR\00\01x\10\01\1B\0C\07\08\90\01\00\00\10\00\00\00\1C\00\00\00,\FE\FF\FF\02\00\00\00\00\00\00\00\14\00\00\000\00\00\00\D0\FE\FF\FF\0B\00\00\00\00\00\00\00\00\00\00\00D\00\00\00H\00\00\00\D0\FE\FF\FFe\00\00\00\00B\0E\10\8F\02B\0E\18\8E\03E\0E \8D\04B\0E(\8C\05H\0E0\86\06H\0E8\83\07M\0E@r\0E8A\0E0A\0E(B\0E B\0E\18B\0E\10B\0E\08\00\10\00\00\00\90\00\00\00\F8\FE\FF\FF\02\00\00\00\00\00\00\00\00\00\00\00" }>
@G__0xb38cb4 = global %G__0xb38cb4_type zeroinitializer
@G__0xb7df8c = global %G__0xb7df8c_type zeroinitializer

declare %struct.Memory* @__remill_error(%struct.State* dereferenceable(3376), i64, %struct.Memory*)

declare i32 @__remill_fpu_exception_test_and_clear(i32, i32)

; Function Attrs: argmemonly nounwind
declare void @llvm.lifetime.start(i64, i8* nocapture) #0

; Function Attrs: argmemonly nounwind
declare void @llvm.lifetime.end(i64, i8* nocapture) #0

; Function Attrs: nounwind readnone
declare i32 @llvm.ctpop.i32(i32) #1

; Function Attrs: nounwind readnone
declare i32 @llvm.bswap.i32(i32) #1

; Function Attrs: nounwind readnone
declare i64 @llvm.bswap.i64(i64) #1

; Function Attrs: nounwind readnone
declare i32 @llvm.cttz.i32(i32, i1) #1

; Function Attrs: nounwind readnone
declare i64 @llvm.cttz.i64(i64, i1) #1

; Function Attrs: nounwind readnone
declare i32 @llvm.ctlz.i32(i32, i1) #1

; Function Attrs: nounwind readnone
declare i64 @llvm.ctlz.i64(i64, i1) #1

; Function Attrs: argmemonly nounwind
declare void @llvm.memcpy.p0i8.p0i8.i64(i8* nocapture writeonly, i8* nocapture readonly, i64, i32, i1) #0

; Function Attrs: nounwind readnone
declare double @llvm.nearbyint.f64(double) #1

; Function Attrs: nounwind readnone
declare double @llvm.fabs.f64(double) #1

; Function Attrs: nounwind readnone
declare <4 x double> @llvm.nearbyint.v4f64(<4 x double>) #1

; Function Attrs: nounwind readnone
declare <4 x double> @llvm.fabs.v4f64(<4 x double>) #1

; Function Attrs: nounwind readnone
declare double @llvm.trunc.f64(double) #1

; Function Attrs: nounwind readnone
declare <4 x double> @llvm.trunc.v4f64(<4 x double>) #1

; Function Attrs: nounwind readnone
declare float @llvm.nearbyint.f32(float) #1

; Function Attrs: nounwind readnone
declare float @llvm.fabs.f32(float) #1

; Function Attrs: nounwind readnone
declare <4 x float> @llvm.nearbyint.v4f32(<4 x float>) #1

; Function Attrs: nounwind readnone
declare <4 x float> @llvm.fabs.v4f32(<4 x float>) #1

; Function Attrs: nounwind readnone
declare float @llvm.trunc.f32(float) #1

; Function Attrs: nounwind readnone
declare <4 x float> @llvm.trunc.v4f32(<4 x float>) #1

; Function Attrs: argmemonly nounwind
declare void @llvm.memset.p0i8.i64(i8* nocapture writeonly, i8, i64, i32, i1) #0

declare double @atan(double) local_unnamed_addr

declare double @cos(double) local_unnamed_addr

declare double @sin(double) local_unnamed_addr

declare double @sqrt(double) local_unnamed_addr

declare double @tan(double) local_unnamed_addr

declare extern_weak x86_64_sysvcc i64 @abort()

declare extern_weak x86_64_sysvcc i64 @abs(i64)

declare extern_weak x86_64_sysvcc i64 @asin(i64)

declare extern_weak x86_64_sysvcc i64 @atof(i64)

declare extern_weak x86_64_sysvcc i64 @atoi(i64)

declare extern_weak x86_64_sysvcc i64 @atol(i64)

declare extern_weak x86_64_sysvcc i64 @calloc(i64, i64)

declare extern_weak x86_64_sysvcc i64 @clock()

declare extern_weak x86_64_sysvcc i64 @cosf(i64)

declare extern_weak x86_64_sysvcc i64 @exit(i64)

declare extern_weak x86_64_sysvcc i64 @exp(i64)

declare extern_weak x86_64_sysvcc i64 @fflush(i64)

declare extern_weak x86_64_sysvcc i64 @floor(i64)

declare extern_weak x86_64_sysvcc i64 @fprintf(i64, i64, i64, i64, i64, i64, i64, i64, i64, i64, i64, i64, i64, i64, i64, i64)

declare extern_weak x86_64_sysvcc i64 @fputs(i64, i64)

declare extern_weak x86_64_sysvcc i64 @free(i64)

declare extern_weak x86_64_sysvcc i64 @fwrite(i64, i64, i64, i64)

declare extern_weak x86_64_sysvcc i64 @getchar()

declare extern_weak x86_64_sysvcc i64 @gettimeofday(i64, i64)

declare extern_weak x86_64_sysvcc i64 @__isoc99_fscanf(i64, i64, i64, i64, i64, i64, i64, i64, i64, i64, i64, i64, i64, i64, i64, i64)

declare extern_weak x86_64_sysvcc i64 @__isoc99_scanf(i64, i64, i64, i64, i64, i64, i64, i64, i64, i64, i64, i64, i64, i64, i64, i64)

declare extern_weak x86_64_sysvcc i64 @__isoc99_sscanf(i64, i64, i64, i64, i64, i64, i64, i64, i64, i64, i64, i64, i64, i64, i64, i64)

declare extern_weak x86_64_sysvcc i64 @log(i64)

declare extern_weak x86_64_sysvcc i64 @lrand48()

declare extern_weak x86_64_sysvcc i64 @malloc(i64)

declare extern_weak x86_64_sysvcc i64 @memalign(i64, i64)

declare extern_weak x86_64_sysvcc i64 @memcpy(i64, i64, i64)

declare extern_weak x86_64_sysvcc i64 @memset(i64, i64, i64)

declare extern_weak x86_64_sysvcc i64 @perror(i64)

declare extern_weak x86_64_sysvcc i64 @posix_memalign(i64, i64, i64)

declare extern_weak x86_64_sysvcc i64 @pow(i64, i64)

declare extern_weak x86_64_sysvcc i64 @printf(i64, i64, i64, i64, i64, i64, i64, i64, i64, i64, i64, i64, i64, i64, i64, i64)

declare extern_weak x86_64_sysvcc i64 @putchar(i64)

declare extern_weak x86_64_sysvcc i64 @puts(i64)

declare extern_weak x86_64_sysvcc i64 @rand()

declare extern_weak x86_64_sysvcc i64 @random()

declare extern_weak x86_64_sysvcc i64 @realloc(i64, i64)

declare extern_weak x86_64_sysvcc i64 @seed48(i64)

declare extern_weak x86_64_sysvcc i64 @sinf(i64)

declare extern_weak x86_64_sysvcc i64 @sprintf(i64, i64, i64, i64, i64, i64, i64, i64, i64, i64, i64, i64, i64, i64, i64, i64)

declare extern_weak x86_64_sysvcc i64 @srand(i64)

declare extern_weak x86_64_sysvcc i64 @strcat(i64, i64)

declare extern_weak x86_64_sysvcc i64 @strcmp(i64, i64)

declare extern_weak x86_64_sysvcc i64 @strcpy(i64, i64)

declare extern_weak x86_64_sysvcc i64 @strdup(i64)

declare extern_weak x86_64_sysvcc i64 @strlen(i64)

declare extern_weak x86_64_sysvcc i64 @strncmp(i64, i64, i64)

declare extern_weak x86_64_sysvcc i64 @strtoll(i64, i64, i64)

declare extern_weak x86_64_sysvcc i64 @time(i64)

declare extern_weak x86_64_sysvcc i64 @ungetc(i64, i64)

declare extern_weak x86_64_sysvcc i64 @pthread_join(i64, i64)

declare extern_weak x86_64_sysvcc i64 @pthread_create(i64, i64, i64, i64)

declare %struct.Memory* @__remill_function_call(%struct.State* dereferenceable(3376), i64, %struct.Memory*)

declare %struct.Memory* @ext_sqrt(%struct.State* noalias dereferenceable(3376), i64, %struct.Memory* noalias)

declare %struct.Memory* @ext_atan(%struct.State* noalias dereferenceable(3376), i64, %struct.Memory* noalias)

declare %struct.Memory* @ext_cos(%struct.State* noalias dereferenceable(3376), i64, %struct.Memory* noalias)

declare %struct.Memory* @ext_tan(%struct.State* noalias dereferenceable(3376), i64, %struct.Memory* noalias)

declare %struct.Memory* @ext_sin(%struct.State* noalias dereferenceable(3376), i64, %struct.Memory* noalias)

declare %struct.Memory* @sub_42b3d0.whose_moyo(%struct.State* noalias dereferenceable(3376), i64, %struct.Memory* noalias readnone returned)

; Function Attrs: alwaysinline
define %struct.Memory* @autohelperpat591(%struct.State* noalias, i64, %struct.Memory* noalias) #2 {
entry:
  %3 = getelementptr inbounds %struct.State, %struct.State* %0, i64 0, i32 6, i32 33, i32 0, i32 0
  store i64 %1, i64* %3, align 8
  %BRANCH_TAKEN = alloca i8, align 1
  store i8 0, i8* %BRANCH_TAKEN, align 1
  %MEMORY = alloca %struct.Memory*, align 8
  store %struct.Memory* %2, %struct.Memory** %MEMORY, align 8
  %loadMem_4d0ce0 = load %struct.Memory*, %struct.Memory** %MEMORY
  %4 = getelementptr inbounds %struct.State, %struct.State* %0, i32 0, i32 6
  %5 = getelementptr inbounds %struct.GPR, %struct.GPR* %4, i32 0, i32 33
  %6 = getelementptr inbounds %struct.Reg, %struct.Reg* %5, i32 0, i32 0
  %PC.i = bitcast %union.anon* %6 to i64*
  %7 = getelementptr inbounds %struct.State, %struct.State* %0, i32 0, i32 6
  %8 = getelementptr inbounds %struct.GPR, %struct.GPR* %7, i32 0, i32 15
  %9 = getelementptr inbounds %struct.Reg, %struct.Reg* %8, i32 0, i32 0
  %RBP.i = bitcast %union.anon* %9 to i64*
  %10 = load i64, i64* %RBP.i
  %11 = load i64, i64* %PC.i
  %12 = add i64 %11, 1
  store i64 %12, i64* %PC.i
  %13 = getelementptr inbounds %struct.State, %struct.State* %0, i64 0, i32 6, i32 13, i32 0, i32 0
  %14 = load i64, i64* %13, align 8
  %15 = add i64 %14, -8
  %16 = inttoptr i64 %15 to i64*
  store i64 %10, i64* %16
  store i64 %15, i64* %13, align 8
  store %struct.Memory* %loadMem_4d0ce0, %struct.Memory** %MEMORY
  %loadMem_4d0ce1 = load %struct.Memory*, %struct.Memory** %MEMORY
  %17 = getelementptr inbounds %struct.State, %struct.State* %0, i32 0, i32 6
  %18 = getelementptr inbounds %struct.GPR, %struct.GPR* %17, i32 0, i32 33
  %19 = getelementptr inbounds %struct.Reg, %struct.Reg* %18, i32 0, i32 0
  %PC.i45 = bitcast %union.anon* %19 to i64*
  %20 = getelementptr inbounds %struct.State, %struct.State* %0, i32 0, i32 6
  %21 = getelementptr inbounds %struct.GPR, %struct.GPR* %20, i32 0, i32 13
  %22 = getelementptr inbounds %struct.Reg, %struct.Reg* %21, i32 0, i32 0
  %RSP.i46 = bitcast %union.anon* %22 to i64*
  %23 = getelementptr inbounds %struct.State, %struct.State* %0, i32 0, i32 6
  %24 = getelementptr inbounds %struct.GPR, %struct.GPR* %23, i32 0, i32 15
  %25 = getelementptr inbounds %struct.Reg, %struct.Reg* %24, i32 0, i32 0
  %RBP.i47 = bitcast %union.anon* %25 to i64*
  %26 = load i64, i64* %RSP.i46
  %27 = load i64, i64* %PC.i45
  %28 = add i64 %27, 3
  store i64 %28, i64* %PC.i45
  store i64 %26, i64* %RBP.i47, align 8
  store %struct.Memory* %loadMem_4d0ce1, %struct.Memory** %MEMORY
  %loadMem_4d0ce4 = load %struct.Memory*, %struct.Memory** %MEMORY
  %29 = getelementptr inbounds %struct.State, %struct.State* %0, i32 0, i32 6
  %30 = getelementptr inbounds %struct.GPR, %struct.GPR* %29, i32 0, i32 33
  %31 = getelementptr inbounds %struct.Reg, %struct.Reg* %30, i32 0, i32 0
  %PC.i43 = bitcast %union.anon* %31 to i64*
  %32 = getelementptr inbounds %struct.State, %struct.State* %0, i32 0, i32 6
  %33 = getelementptr inbounds %struct.GPR, %struct.GPR* %32, i32 0, i32 13
  %34 = getelementptr inbounds %struct.Reg, %struct.Reg* %33, i32 0, i32 0
  %RSP.i44 = bitcast %union.anon* %34 to i64*
  %35 = load i64, i64* %RSP.i44
  %36 = load i64, i64* %PC.i43
  %37 = add i64 %36, 4
  store i64 %37, i64* %PC.i43
  %38 = sub i64 %35, 16
  store i64 %38, i64* %RSP.i44, align 8
  %39 = icmp ult i64 %35, 16
  %40 = zext i1 %39 to i8
  %41 = getelementptr inbounds %struct.State, %struct.State* %0, i64 0, i32 2, i32 1
  store i8 %40, i8* %41, align 1
  %42 = trunc i64 %38 to i32
  %43 = and i32 %42, 255
  %44 = call i32 @llvm.ctpop.i32(i32 %43)
  %45 = trunc i32 %44 to i8
  %46 = and i8 %45, 1
  %47 = xor i8 %46, 1
  %48 = getelementptr inbounds %struct.State, %struct.State* %0, i64 0, i32 2, i32 3
  store i8 %47, i8* %48, align 1
  %49 = xor i64 16, %35
  %50 = xor i64 %49, %38
  %51 = lshr i64 %50, 4
  %52 = trunc i64 %51 to i8
  %53 = and i8 %52, 1
  %54 = getelementptr inbounds %struct.State, %struct.State* %0, i64 0, i32 2, i32 5
  store i8 %53, i8* %54, align 1
  %55 = icmp eq i64 %38, 0
  %56 = zext i1 %55 to i8
  %57 = getelementptr inbounds %struct.State, %struct.State* %0, i64 0, i32 2, i32 7
  store i8 %56, i8* %57, align 1
  %58 = lshr i64 %38, 63
  %59 = trunc i64 %58 to i8
  %60 = getelementptr inbounds %struct.State, %struct.State* %0, i64 0, i32 2, i32 9
  store i8 %59, i8* %60, align 1
  %61 = lshr i64 %35, 63
  %62 = xor i64 %58, %61
  %63 = add i64 %62, %61
  %64 = icmp eq i64 %63, 2
  %65 = zext i1 %64 to i8
  %66 = getelementptr inbounds %struct.State, %struct.State* %0, i64 0, i32 2, i32 13
  store i8 %65, i8* %66, align 1
  store %struct.Memory* %loadMem_4d0ce4, %struct.Memory** %MEMORY
  %loadMem_4d0ce8 = load %struct.Memory*, %struct.Memory** %MEMORY
  %67 = getelementptr inbounds %struct.State, %struct.State* %0, i32 0, i32 6
  %68 = getelementptr inbounds %struct.GPR, %struct.GPR* %67, i32 0, i32 33
  %69 = getelementptr inbounds %struct.Reg, %struct.Reg* %68, i32 0, i32 0
  %PC.i41 = bitcast %union.anon* %69 to i64*
  %70 = getelementptr inbounds %struct.State, %struct.State* %0, i32 0, i32 6
  %71 = getelementptr inbounds %struct.GPR, %struct.GPR* %70, i32 0, i32 1
  %72 = getelementptr inbounds %struct.Reg, %struct.Reg* %71, i32 0, i32 0
  %RAX.i42 = bitcast %union.anon* %72 to i64*
  %73 = load i64, i64* %PC.i41
  %74 = add i64 %73, 10
  store i64 %74, i64* %PC.i41
  store i64 ptrtoint (%G__0xb7df8c_type* @G__0xb7df8c to i64), i64* %RAX.i42, align 8
  store %struct.Memory* %loadMem_4d0ce8, %struct.Memory** %MEMORY
  %loadMem_4d0cf2 = load %struct.Memory*, %struct.Memory** %MEMORY
  %75 = getelementptr inbounds %struct.State, %struct.State* %0, i32 0, i32 6
  %76 = getelementptr inbounds %struct.GPR, %struct.GPR* %75, i32 0, i32 33
  %77 = getelementptr inbounds %struct.Reg, %struct.Reg* %76, i32 0, i32 0
  %PC.i39 = bitcast %union.anon* %77 to i64*
  %78 = getelementptr inbounds %struct.State, %struct.State* %0, i32 0, i32 6
  %79 = getelementptr inbounds %struct.GPR, %struct.GPR* %78, i32 0, i32 17
  %80 = getelementptr inbounds %struct.Reg, %struct.Reg* %79, i32 0, i32 0
  %R8.i40 = bitcast %union.anon* %80 to i64*
  %81 = load i64, i64* %PC.i39
  %82 = add i64 %81, 10
  store i64 %82, i64* %PC.i39
  store i64 ptrtoint (%G__0xb38cb4_type* @G__0xb38cb4 to i64), i64* %R8.i40, align 8
  store %struct.Memory* %loadMem_4d0cf2, %struct.Memory** %MEMORY
  %loadMem_4d0cfc = load %struct.Memory*, %struct.Memory** %MEMORY
  %83 = getelementptr inbounds %struct.State, %struct.State* %0, i32 0, i32 6
  %84 = getelementptr inbounds %struct.GPR, %struct.GPR* %83, i32 0, i32 33
  %85 = getelementptr inbounds %struct.Reg, %struct.Reg* %84, i32 0, i32 0
  %PC.i37 = bitcast %union.anon* %85 to i64*
  %86 = getelementptr inbounds %struct.State, %struct.State* %0, i32 0, i32 6
  %87 = getelementptr inbounds %struct.GPR, %struct.GPR* %86, i32 0, i32 19
  %88 = getelementptr inbounds %struct.Reg, %struct.Reg* %87, i32 0, i32 0
  %R9D.i38 = bitcast %union.anon* %88 to i32*
  %89 = bitcast i32* %R9D.i38 to i64*
  %90 = load i64, i64* %PC.i37
  %91 = add i64 %90, 6
  store i64 %91, i64* %PC.i37
  store i64 3, i64* %89, align 8
  store %struct.Memory* %loadMem_4d0cfc, %struct.Memory** %MEMORY
  %loadMem_4d0d02 = load %struct.Memory*, %struct.Memory** %MEMORY
  %92 = getelementptr inbounds %struct.State, %struct.State* %0, i32 0, i32 6
  %93 = getelementptr inbounds %struct.GPR, %struct.GPR* %92, i32 0, i32 33
  %94 = getelementptr inbounds %struct.Reg, %struct.Reg* %93, i32 0, i32 0
  %PC.i35 = bitcast %union.anon* %94 to i64*
  %95 = getelementptr inbounds %struct.State, %struct.State* %0, i32 0, i32 6
  %96 = getelementptr inbounds %struct.GPR, %struct.GPR* %95, i32 0, i32 11
  %97 = getelementptr inbounds %struct.Reg, %struct.Reg* %96, i32 0, i32 0
  %EDI.i = bitcast %union.anon* %97 to i32*
  %98 = getelementptr inbounds %struct.State, %struct.State* %0, i32 0, i32 6
  %99 = getelementptr inbounds %struct.GPR, %struct.GPR* %98, i32 0, i32 15
  %100 = getelementptr inbounds %struct.Reg, %struct.Reg* %99, i32 0, i32 0
  %RBP.i36 = bitcast %union.anon* %100 to i64*
  %101 = load i64, i64* %RBP.i36
  %102 = sub i64 %101, 4
  %103 = load i32, i32* %EDI.i
  %104 = zext i32 %103 to i64
  %105 = load i64, i64* %PC.i35
  %106 = add i64 %105, 3
  store i64 %106, i64* %PC.i35
  %107 = inttoptr i64 %102 to i32*
  store i32 %103, i32* %107
  store %struct.Memory* %loadMem_4d0d02, %struct.Memory** %MEMORY
  %loadMem_4d0d05 = load %struct.Memory*, %struct.Memory** %MEMORY
  %108 = getelementptr inbounds %struct.State, %struct.State* %0, i32 0, i32 6
  %109 = getelementptr inbounds %struct.GPR, %struct.GPR* %108, i32 0, i32 33
  %110 = getelementptr inbounds %struct.Reg, %struct.Reg* %109, i32 0, i32 0
  %PC.i33 = bitcast %union.anon* %110 to i64*
  %111 = getelementptr inbounds %struct.State, %struct.State* %0, i32 0, i32 6
  %112 = getelementptr inbounds %struct.GPR, %struct.GPR* %111, i32 0, i32 9
  %113 = getelementptr inbounds %struct.Reg, %struct.Reg* %112, i32 0, i32 0
  %ESI.i = bitcast %union.anon* %113 to i32*
  %114 = getelementptr inbounds %struct.State, %struct.State* %0, i32 0, i32 6
  %115 = getelementptr inbounds %struct.GPR, %struct.GPR* %114, i32 0, i32 15
  %116 = getelementptr inbounds %struct.Reg, %struct.Reg* %115, i32 0, i32 0
  %RBP.i34 = bitcast %union.anon* %116 to i64*
  %117 = load i64, i64* %RBP.i34
  %118 = sub i64 %117, 8
  %119 = load i32, i32* %ESI.i
  %120 = zext i32 %119 to i64
  %121 = load i64, i64* %PC.i33
  %122 = add i64 %121, 3
  store i64 %122, i64* %PC.i33
  %123 = inttoptr i64 %118 to i32*
  store i32 %119, i32* %123
  store %struct.Memory* %loadMem_4d0d05, %struct.Memory** %MEMORY
  %loadMem_4d0d08 = load %struct.Memory*, %struct.Memory** %MEMORY
  %124 = getelementptr inbounds %struct.State, %struct.State* %0, i32 0, i32 6
  %125 = getelementptr inbounds %struct.GPR, %struct.GPR* %124, i32 0, i32 33
  %126 = getelementptr inbounds %struct.Reg, %struct.Reg* %125, i32 0, i32 0
  %PC.i31 = bitcast %union.anon* %126 to i64*
  %127 = getelementptr inbounds %struct.State, %struct.State* %0, i32 0, i32 6
  %128 = getelementptr inbounds %struct.GPR, %struct.GPR* %127, i32 0, i32 7
  %129 = getelementptr inbounds %struct.Reg, %struct.Reg* %128, i32 0, i32 0
  %EDX.i = bitcast %union.anon* %129 to i32*
  %130 = getelementptr inbounds %struct.State, %struct.State* %0, i32 0, i32 6
  %131 = getelementptr inbounds %struct.GPR, %struct.GPR* %130, i32 0, i32 15
  %132 = getelementptr inbounds %struct.Reg, %struct.Reg* %131, i32 0, i32 0
  %RBP.i32 = bitcast %union.anon* %132 to i64*
  %133 = load i64, i64* %RBP.i32
  %134 = sub i64 %133, 12
  %135 = load i32, i32* %EDX.i
  %136 = zext i32 %135 to i64
  %137 = load i64, i64* %PC.i31
  %138 = add i64 %137, 3
  store i64 %138, i64* %PC.i31
  %139 = inttoptr i64 %134 to i32*
  store i32 %135, i32* %139
  store %struct.Memory* %loadMem_4d0d08, %struct.Memory** %MEMORY
  %loadMem_4d0d0b = load %struct.Memory*, %struct.Memory** %MEMORY
  %140 = getelementptr inbounds %struct.State, %struct.State* %0, i32 0, i32 6
  %141 = getelementptr inbounds %struct.GPR, %struct.GPR* %140, i32 0, i32 33
  %142 = getelementptr inbounds %struct.Reg, %struct.Reg* %141, i32 0, i32 0
  %PC.i28 = bitcast %union.anon* %142 to i64*
  %143 = getelementptr inbounds %struct.State, %struct.State* %0, i32 0, i32 6
  %144 = getelementptr inbounds %struct.GPR, %struct.GPR* %143, i32 0, i32 5
  %145 = getelementptr inbounds %struct.Reg, %struct.Reg* %144, i32 0, i32 0
  %ECX.i29 = bitcast %union.anon* %145 to i32*
  %146 = getelementptr inbounds %struct.State, %struct.State* %0, i32 0, i32 6
  %147 = getelementptr inbounds %struct.GPR, %struct.GPR* %146, i32 0, i32 15
  %148 = getelementptr inbounds %struct.Reg, %struct.Reg* %147, i32 0, i32 0
  %RBP.i30 = bitcast %union.anon* %148 to i64*
  %149 = load i64, i64* %RBP.i30
  %150 = sub i64 %149, 16
  %151 = load i32, i32* %ECX.i29
  %152 = zext i32 %151 to i64
  %153 = load i64, i64* %PC.i28
  %154 = add i64 %153, 3
  store i64 %154, i64* %PC.i28
  %155 = inttoptr i64 %150 to i32*
  store i32 %151, i32* %155
  store %struct.Memory* %loadMem_4d0d0b, %struct.Memory** %MEMORY
  %loadMem_4d0d0e = load %struct.Memory*, %struct.Memory** %MEMORY
  %156 = getelementptr inbounds %struct.State, %struct.State* %0, i32 0, i32 6
  %157 = getelementptr inbounds %struct.GPR, %struct.GPR* %156, i32 0, i32 33
  %158 = getelementptr inbounds %struct.Reg, %struct.Reg* %157, i32 0, i32 0
  %PC.i25 = bitcast %union.anon* %158 to i64*
  %159 = getelementptr inbounds %struct.State, %struct.State* %0, i32 0, i32 6
  %160 = getelementptr inbounds %struct.GPR, %struct.GPR* %159, i32 0, i32 19
  %161 = getelementptr inbounds %struct.Reg, %struct.Reg* %160, i32 0, i32 0
  %R9D.i26 = bitcast %union.anon* %161 to i32*
  %162 = getelementptr inbounds %struct.State, %struct.State* %0, i32 0, i32 6
  %163 = getelementptr inbounds %struct.GPR, %struct.GPR* %162, i32 0, i32 15
  %164 = getelementptr inbounds %struct.Reg, %struct.Reg* %163, i32 0, i32 0
  %RBP.i27 = bitcast %union.anon* %164 to i64*
  %165 = bitcast i32* %R9D.i26 to i64*
  %166 = load i32, i32* %R9D.i26
  %167 = zext i32 %166 to i64
  %168 = load i64, i64* %RBP.i27
  %169 = sub i64 %168, 12
  %170 = load i64, i64* %PC.i25
  %171 = add i64 %170, 4
  store i64 %171, i64* %PC.i25
  %172 = inttoptr i64 %169 to i32*
  %173 = load i32, i32* %172
  %174 = sub i32 %166, %173
  %175 = zext i32 %174 to i64
  store i64 %175, i64* %165, align 8
  %176 = icmp ult i32 %166, %173
  %177 = zext i1 %176 to i8
  %178 = getelementptr inbounds %struct.State, %struct.State* %0, i64 0, i32 2, i32 1
  store i8 %177, i8* %178, align 1
  %179 = and i32 %174, 255
  %180 = call i32 @llvm.ctpop.i32(i32 %179)
  %181 = trunc i32 %180 to i8
  %182 = and i8 %181, 1
  %183 = xor i8 %182, 1
  %184 = getelementptr inbounds %struct.State, %struct.State* %0, i64 0, i32 2, i32 3
  store i8 %183, i8* %184, align 1
  %185 = xor i32 %173, %166
  %186 = xor i32 %185, %174
  %187 = lshr i32 %186, 4
  %188 = trunc i32 %187 to i8
  %189 = and i8 %188, 1
  %190 = getelementptr inbounds %struct.State, %struct.State* %0, i64 0, i32 2, i32 5
  store i8 %189, i8* %190, align 1
  %191 = icmp eq i32 %174, 0
  %192 = zext i1 %191 to i8
  %193 = getelementptr inbounds %struct.State, %struct.State* %0, i64 0, i32 2, i32 7
  store i8 %192, i8* %193, align 1
  %194 = lshr i32 %174, 31
  %195 = trunc i32 %194 to i8
  %196 = getelementptr inbounds %struct.State, %struct.State* %0, i64 0, i32 2, i32 9
  store i8 %195, i8* %196, align 1
  %197 = lshr i32 %166, 31
  %198 = lshr i32 %173, 31
  %199 = xor i32 %198, %197
  %200 = xor i32 %194, %197
  %201 = add i32 %200, %199
  %202 = icmp eq i32 %201, 2
  %203 = zext i1 %202 to i8
  %204 = getelementptr inbounds %struct.State, %struct.State* %0, i64 0, i32 2, i32 13
  store i8 %203, i8* %204, align 1
  store %struct.Memory* %loadMem_4d0d0e, %struct.Memory** %MEMORY
  %loadMem_4d0d12 = load %struct.Memory*, %struct.Memory** %MEMORY
  %205 = getelementptr inbounds %struct.State, %struct.State* %0, i32 0, i32 6
  %206 = getelementptr inbounds %struct.GPR, %struct.GPR* %205, i32 0, i32 33
  %207 = getelementptr inbounds %struct.Reg, %struct.Reg* %206, i32 0, i32 0
  %PC.i24 = bitcast %union.anon* %207 to i64*
  %208 = getelementptr inbounds %struct.State, %struct.State* %0, i32 0, i32 6
  %209 = getelementptr inbounds %struct.GPR, %struct.GPR* %208, i32 0, i32 19
  %210 = getelementptr inbounds %struct.Reg, %struct.Reg* %209, i32 0, i32 0
  %R9D.i = bitcast %union.anon* %210 to i32*
  %211 = load i32, i32* %R9D.i
  %212 = zext i32 %211 to i64
  %213 = load i64, i64* %PC.i24
  %214 = add i64 %213, 4
  store i64 %214, i64* %PC.i24
  %215 = sub i32 %211, 1
  %216 = icmp ult i32 %211, 1
  %217 = zext i1 %216 to i8
  %218 = getelementptr inbounds %struct.State, %struct.State* %0, i64 0, i32 2, i32 1
  store i8 %217, i8* %218, align 1
  %219 = and i32 %215, 255
  %220 = call i32 @llvm.ctpop.i32(i32 %219)
  %221 = trunc i32 %220 to i8
  %222 = and i8 %221, 1
  %223 = xor i8 %222, 1
  %224 = getelementptr inbounds %struct.State, %struct.State* %0, i64 0, i32 2, i32 3
  store i8 %223, i8* %224, align 1
  %225 = xor i64 1, %212
  %226 = trunc i64 %225 to i32
  %227 = xor i32 %226, %215
  %228 = lshr i32 %227, 4
  %229 = trunc i32 %228 to i8
  %230 = and i8 %229, 1
  %231 = getelementptr inbounds %struct.State, %struct.State* %0, i64 0, i32 2, i32 5
  store i8 %230, i8* %231, align 1
  %232 = icmp eq i32 %215, 0
  %233 = zext i1 %232 to i8
  %234 = getelementptr inbounds %struct.State, %struct.State* %0, i64 0, i32 2, i32 7
  store i8 %233, i8* %234, align 1
  %235 = lshr i32 %215, 31
  %236 = trunc i32 %235 to i8
  %237 = getelementptr inbounds %struct.State, %struct.State* %0, i64 0, i32 2, i32 9
  store i8 %236, i8* %237, align 1
  %238 = lshr i32 %211, 31
  %239 = xor i32 %235, %238
  %240 = add i32 %239, %238
  %241 = icmp eq i32 %240, 2
  %242 = zext i1 %241 to i8
  %243 = getelementptr inbounds %struct.State, %struct.State* %0, i64 0, i32 2, i32 13
  store i8 %242, i8* %243, align 1
  store %struct.Memory* %loadMem_4d0d12, %struct.Memory** %MEMORY
  %loadMem_4d0d16 = load %struct.Memory*, %struct.Memory** %MEMORY
  %244 = getelementptr inbounds %struct.State, %struct.State* %0, i32 0, i32 6
  %245 = getelementptr inbounds %struct.GPR, %struct.GPR* %244, i32 0, i32 33
  %246 = getelementptr inbounds %struct.Reg, %struct.Reg* %245, i32 0, i32 0
  %PC.i22 = bitcast %union.anon* %246 to i64*
  %247 = getelementptr inbounds %struct.State, %struct.State* %0, i32 0, i32 6
  %248 = getelementptr inbounds %struct.GPR, %struct.GPR* %247, i32 0, i32 1
  %249 = getelementptr inbounds %struct.Reg, %struct.Reg* %248, i32 0, i32 0
  %RAX.i23 = bitcast %union.anon* %249 to i64*
  %250 = getelementptr inbounds %struct.State, %struct.State* %0, i32 0, i32 6
  %251 = getelementptr inbounds %struct.GPR, %struct.GPR* %250, i32 0, i32 17
  %252 = getelementptr inbounds %struct.Reg, %struct.Reg* %251, i32 0, i32 0
  %R8.i = bitcast %union.anon* %252 to i64*
  %253 = load i64, i64* %R8.i
  %254 = load i64, i64* %PC.i22
  %255 = add i64 %254, 4
  store i64 %255, i64* %PC.i22
  %256 = getelementptr inbounds %struct.State, %struct.State* %0, i64 0, i32 2, i32 7
  %257 = load i8, i8* %256, align 1
  %258 = icmp ne i8 %257, 0
  %259 = load i64, i64* %RAX.i23, align 8
  %260 = select i1 %258, i64 %253, i64 %259
  store i64 %260, i64* %RAX.i23, align 8
  store %struct.Memory* %loadMem_4d0d16, %struct.Memory** %MEMORY
  %loadMem_4d0d1a = load %struct.Memory*, %struct.Memory** %MEMORY
  %261 = getelementptr inbounds %struct.State, %struct.State* %0, i32 0, i32 6
  %262 = getelementptr inbounds %struct.GPR, %struct.GPR* %261, i32 0, i32 33
  %263 = getelementptr inbounds %struct.Reg, %struct.Reg* %262, i32 0, i32 0
  %PC.i20 = bitcast %union.anon* %263 to i64*
  %264 = getelementptr inbounds %struct.State, %struct.State* %0, i32 0, i32 6
  %265 = getelementptr inbounds %struct.GPR, %struct.GPR* %264, i32 0, i32 9
  %266 = getelementptr inbounds %struct.Reg, %struct.Reg* %265, i32 0, i32 0
  %RSI.i = bitcast %union.anon* %266 to i64*
  %267 = getelementptr inbounds %struct.State, %struct.State* %0, i32 0, i32 6
  %268 = getelementptr inbounds %struct.GPR, %struct.GPR* %267, i32 0, i32 15
  %269 = getelementptr inbounds %struct.Reg, %struct.Reg* %268, i32 0, i32 0
  %RBP.i21 = bitcast %union.anon* %269 to i64*
  %270 = load i64, i64* %RBP.i21
  %271 = sub i64 %270, 8
  %272 = load i64, i64* %PC.i20
  %273 = add i64 %272, 3
  store i64 %273, i64* %PC.i20
  %274 = inttoptr i64 %271 to i32*
  %275 = load i32, i32* %274
  %276 = zext i32 %275 to i64
  store i64 %276, i64* %RSI.i, align 8
  store %struct.Memory* %loadMem_4d0d1a, %struct.Memory** %MEMORY
  %loadMem_4d0d1d = load %struct.Memory*, %struct.Memory** %MEMORY
  %277 = getelementptr inbounds %struct.State, %struct.State* %0, i32 0, i32 6
  %278 = getelementptr inbounds %struct.GPR, %struct.GPR* %277, i32 0, i32 33
  %279 = getelementptr inbounds %struct.Reg, %struct.Reg* %278, i32 0, i32 0
  %PC.i18 = bitcast %union.anon* %279 to i64*
  %280 = getelementptr inbounds %struct.State, %struct.State* %0, i32 0, i32 6
  %281 = getelementptr inbounds %struct.GPR, %struct.GPR* %280, i32 0, i32 1
  %282 = getelementptr inbounds %struct.Reg, %struct.Reg* %281, i32 0, i32 0
  %RAX.i19 = bitcast %union.anon* %282 to i64*
  %283 = getelementptr inbounds %struct.State, %struct.State* %0, i32 0, i32 6
  %284 = getelementptr inbounds %struct.GPR, %struct.GPR* %283, i32 0, i32 11
  %285 = getelementptr inbounds %struct.Reg, %struct.Reg* %284, i32 0, i32 0
  %RDI.i = bitcast %union.anon* %285 to i64*
  %286 = load i64, i64* %RAX.i19
  %287 = load i64, i64* %PC.i18
  %288 = add i64 %287, 3
  store i64 %288, i64* %PC.i18
  store i64 %286, i64* %RDI.i, align 8
  store %struct.Memory* %loadMem_4d0d1d, %struct.Memory** %MEMORY
  %loadMem1_4d0d20 = load %struct.Memory*, %struct.Memory** %MEMORY
  %289 = getelementptr inbounds %struct.State, %struct.State* %0, i32 0, i32 6
  %290 = getelementptr inbounds %struct.GPR, %struct.GPR* %289, i32 0, i32 33
  %291 = getelementptr inbounds %struct.Reg, %struct.Reg* %290, i32 0, i32 0
  %PC.i17 = bitcast %union.anon* %291 to i64*
  %292 = load i64, i64* %PC.i17
  %293 = add i64 %292, -678224
  %294 = load i64, i64* %PC.i17
  %295 = add i64 %294, 5
  %296 = load i64, i64* %PC.i17
  %297 = add i64 %296, 5
  store i64 %297, i64* %PC.i17
  %298 = getelementptr inbounds %struct.State, %struct.State* %0, i64 0, i32 6, i32 13, i32 0, i32 0
  %299 = load i64, i64* %298, align 8
  %300 = add i64 %299, -8
  %301 = inttoptr i64 %300 to i64*
  store i64 %295, i64* %301
  store i64 %300, i64* %298, align 8
  %302 = getelementptr inbounds %struct.State, %struct.State* %0, i64 0, i32 6, i32 33, i32 0, i32 0
  store i64 %293, i64* %302, align 8
  store %struct.Memory* %loadMem1_4d0d20, %struct.Memory** %MEMORY
  %loadMem2_4d0d20 = load %struct.Memory*, %struct.Memory** %MEMORY
  %loadPC_4d0d20 = load i64, i64* %3
  %call2_4d0d20 = call %struct.Memory* @sub_42b3d0.whose_moyo(%struct.State* %0, i64 %loadPC_4d0d20, %struct.Memory* %loadMem2_4d0d20)
  store %struct.Memory* %call2_4d0d20, %struct.Memory** %MEMORY
  %loadMem_4d0d25 = load %struct.Memory*, %struct.Memory** %MEMORY
  %303 = getelementptr inbounds %struct.State, %struct.State* %0, i32 0, i32 6
  %304 = getelementptr inbounds %struct.GPR, %struct.GPR* %303, i32 0, i32 33
  %305 = getelementptr inbounds %struct.Reg, %struct.Reg* %304, i32 0, i32 0
  %PC.i15 = bitcast %union.anon* %305 to i64*
  %306 = getelementptr inbounds %struct.State, %struct.State* %0, i32 0, i32 6
  %307 = getelementptr inbounds %struct.GPR, %struct.GPR* %306, i32 0, i32 5
  %308 = getelementptr inbounds %struct.Reg, %struct.Reg* %307, i32 0, i32 0
  %RCX.i16 = bitcast %union.anon* %308 to i64*
  %309 = load i64, i64* %PC.i15
  %310 = add i64 %309, 5
  store i64 %310, i64* %PC.i15
  store i64 3, i64* %RCX.i16, align 8
  store %struct.Memory* %loadMem_4d0d25, %struct.Memory** %MEMORY
  %loadMem_4d0d2a = load %struct.Memory*, %struct.Memory** %MEMORY
  %311 = getelementptr inbounds %struct.State, %struct.State* %0, i32 0, i32 6
  %312 = getelementptr inbounds %struct.GPR, %struct.GPR* %311, i32 0, i32 33
  %313 = getelementptr inbounds %struct.Reg, %struct.Reg* %312, i32 0, i32 0
  %PC.i13 = bitcast %union.anon* %313 to i64*
  %314 = getelementptr inbounds %struct.State, %struct.State* %0, i32 0, i32 6
  %315 = getelementptr inbounds %struct.GPR, %struct.GPR* %314, i32 0, i32 5
  %316 = getelementptr inbounds %struct.Reg, %struct.Reg* %315, i32 0, i32 0
  %RCX.i = bitcast %union.anon* %316 to i64*
  %317 = getelementptr inbounds %struct.State, %struct.State* %0, i32 0, i32 6
  %318 = getelementptr inbounds %struct.GPR, %struct.GPR* %317, i32 0, i32 15
  %319 = getelementptr inbounds %struct.Reg, %struct.Reg* %318, i32 0, i32 0
  %RBP.i14 = bitcast %union.anon* %319 to i64*
  %320 = load i64, i64* %RCX.i
  %321 = load i64, i64* %RBP.i14
  %322 = sub i64 %321, 12
  %323 = load i64, i64* %PC.i13
  %324 = add i64 %323, 3
  store i64 %324, i64* %PC.i13
  %325 = trunc i64 %320 to i32
  %326 = inttoptr i64 %322 to i32*
  %327 = load i32, i32* %326
  %328 = sub i32 %325, %327
  %329 = zext i32 %328 to i64
  store i64 %329, i64* %RCX.i, align 8
  %330 = icmp ult i32 %325, %327
  %331 = zext i1 %330 to i8
  %332 = getelementptr inbounds %struct.State, %struct.State* %0, i64 0, i32 2, i32 1
  store i8 %331, i8* %332, align 1
  %333 = and i32 %328, 255
  %334 = call i32 @llvm.ctpop.i32(i32 %333)
  %335 = trunc i32 %334 to i8
  %336 = and i8 %335, 1
  %337 = xor i8 %336, 1
  %338 = getelementptr inbounds %struct.State, %struct.State* %0, i64 0, i32 2, i32 3
  store i8 %337, i8* %338, align 1
  %339 = xor i32 %327, %325
  %340 = xor i32 %339, %328
  %341 = lshr i32 %340, 4
  %342 = trunc i32 %341 to i8
  %343 = and i8 %342, 1
  %344 = getelementptr inbounds %struct.State, %struct.State* %0, i64 0, i32 2, i32 5
  store i8 %343, i8* %344, align 1
  %345 = icmp eq i32 %328, 0
  %346 = zext i1 %345 to i8
  %347 = getelementptr inbounds %struct.State, %struct.State* %0, i64 0, i32 2, i32 7
  store i8 %346, i8* %347, align 1
  %348 = lshr i32 %328, 31
  %349 = trunc i32 %348 to i8
  %350 = getelementptr inbounds %struct.State, %struct.State* %0, i64 0, i32 2, i32 9
  store i8 %349, i8* %350, align 1
  %351 = lshr i32 %325, 31
  %352 = lshr i32 %327, 31
  %353 = xor i32 %352, %351
  %354 = xor i32 %348, %351
  %355 = add i32 %354, %353
  %356 = icmp eq i32 %355, 2
  %357 = zext i1 %356 to i8
  %358 = getelementptr inbounds %struct.State, %struct.State* %0, i64 0, i32 2, i32 13
  store i8 %357, i8* %358, align 1
  store %struct.Memory* %loadMem_4d0d2a, %struct.Memory** %MEMORY
  %loadMem_4d0d2d = load %struct.Memory*, %struct.Memory** %MEMORY
  %359 = getelementptr inbounds %struct.State, %struct.State* %0, i32 0, i32 6
  %360 = getelementptr inbounds %struct.GPR, %struct.GPR* %359, i32 0, i32 33
  %361 = getelementptr inbounds %struct.Reg, %struct.Reg* %360, i32 0, i32 0
  %PC.i12 = bitcast %union.anon* %361 to i64*
  %362 = getelementptr inbounds %struct.State, %struct.State* %0, i32 0, i32 6
  %363 = getelementptr inbounds %struct.GPR, %struct.GPR* %362, i32 0, i32 1
  %364 = getelementptr inbounds %struct.Reg, %struct.Reg* %363, i32 0, i32 0
  %EAX.i = bitcast %union.anon* %364 to i32*
  %365 = getelementptr inbounds %struct.State, %struct.State* %0, i32 0, i32 6
  %366 = getelementptr inbounds %struct.GPR, %struct.GPR* %365, i32 0, i32 5
  %367 = getelementptr inbounds %struct.Reg, %struct.Reg* %366, i32 0, i32 0
  %ECX.i = bitcast %union.anon* %367 to i32*
  %368 = load i32, i32* %EAX.i
  %369 = zext i32 %368 to i64
  %370 = load i32, i32* %ECX.i
  %371 = zext i32 %370 to i64
  %372 = load i64, i64* %PC.i12
  %373 = add i64 %372, 2
  store i64 %373, i64* %PC.i12
  %374 = sub i32 %368, %370
  %375 = icmp ult i32 %368, %370
  %376 = zext i1 %375 to i8
  %377 = getelementptr inbounds %struct.State, %struct.State* %0, i64 0, i32 2, i32 1
  store i8 %376, i8* %377, align 1
  %378 = and i32 %374, 255
  %379 = call i32 @llvm.ctpop.i32(i32 %378)
  %380 = trunc i32 %379 to i8
  %381 = and i8 %380, 1
  %382 = xor i8 %381, 1
  %383 = getelementptr inbounds %struct.State, %struct.State* %0, i64 0, i32 2, i32 3
  store i8 %382, i8* %383, align 1
  %384 = xor i64 %371, %369
  %385 = trunc i64 %384 to i32
  %386 = xor i32 %385, %374
  %387 = lshr i32 %386, 4
  %388 = trunc i32 %387 to i8
  %389 = and i8 %388, 1
  %390 = getelementptr inbounds %struct.State, %struct.State* %0, i64 0, i32 2, i32 5
  store i8 %389, i8* %390, align 1
  %391 = icmp eq i32 %374, 0
  %392 = zext i1 %391 to i8
  %393 = getelementptr inbounds %struct.State, %struct.State* %0, i64 0, i32 2, i32 7
  store i8 %392, i8* %393, align 1
  %394 = lshr i32 %374, 31
  %395 = trunc i32 %394 to i8
  %396 = getelementptr inbounds %struct.State, %struct.State* %0, i64 0, i32 2, i32 9
  store i8 %395, i8* %396, align 1
  %397 = lshr i32 %368, 31
  %398 = lshr i32 %370, 31
  %399 = xor i32 %398, %397
  %400 = xor i32 %394, %397
  %401 = add i32 %400, %399
  %402 = icmp eq i32 %401, 2
  %403 = zext i1 %402 to i8
  %404 = getelementptr inbounds %struct.State, %struct.State* %0, i64 0, i32 2, i32 13
  store i8 %403, i8* %404, align 1
  store %struct.Memory* %loadMem_4d0d2d, %struct.Memory** %MEMORY
  %loadMem_4d0d2f = load %struct.Memory*, %struct.Memory** %MEMORY
  %405 = getelementptr inbounds %struct.State, %struct.State* %0, i32 0, i32 6
  %406 = getelementptr inbounds %struct.GPR, %struct.GPR* %405, i32 0, i32 33
  %407 = getelementptr inbounds %struct.Reg, %struct.Reg* %406, i32 0, i32 0
  %PC.i10 = bitcast %union.anon* %407 to i64*
  %408 = getelementptr inbounds %struct.State, %struct.State* %0, i32 0, i32 6
  %409 = getelementptr inbounds %struct.GPR, %struct.GPR* %408, i32 0, i32 21
  %410 = getelementptr inbounds %struct.Reg, %struct.Reg* %409, i32 0, i32 0
  %411 = bitcast %union.anon* %410 to %struct.anon.2*
  %R10B.i11 = getelementptr inbounds %struct.anon.2, %struct.anon.2* %411, i32 0, i32 0
  %412 = load i64, i64* %PC.i10
  %413 = add i64 %412, 4
  store i64 %413, i64* %PC.i10
  %414 = getelementptr inbounds %struct.State, %struct.State* %0, i64 0, i32 2, i32 7
  %415 = load i8, i8* %414, align 1
  store i8 %415, i8* %R10B.i11, align 1
  store %struct.Memory* %loadMem_4d0d2f, %struct.Memory** %MEMORY
  %loadMem_4d0d33 = load %struct.Memory*, %struct.Memory** %MEMORY
  %416 = getelementptr inbounds %struct.State, %struct.State* %0, i32 0, i32 6
  %417 = getelementptr inbounds %struct.GPR, %struct.GPR* %416, i32 0, i32 33
  %418 = getelementptr inbounds %struct.Reg, %struct.Reg* %417, i32 0, i32 0
  %PC.i8 = bitcast %union.anon* %418 to i64*
  %419 = getelementptr inbounds %struct.State, %struct.State* %0, i32 0, i32 6
  %420 = getelementptr inbounds %struct.GPR, %struct.GPR* %419, i32 0, i32 21
  %421 = getelementptr inbounds %struct.Reg, %struct.Reg* %420, i32 0, i32 0
  %422 = bitcast %union.anon* %421 to %struct.anon.2*
  %R10B.i9 = getelementptr inbounds %struct.anon.2, %struct.anon.2* %422, i32 0, i32 0
  %423 = load i8, i8* %R10B.i9
  %424 = zext i8 %423 to i64
  %425 = load i64, i64* %PC.i8
  %426 = add i64 %425, 4
  store i64 %426, i64* %PC.i8
  %427 = xor i64 255, %424
  %428 = trunc i64 %427 to i8
  store i8 %428, i8* %R10B.i9, align 1
  %429 = getelementptr inbounds %struct.State, %struct.State* %0, i64 0, i32 2, i32 1
  store i8 0, i8* %429, align 1
  %430 = trunc i64 %427 to i32
  %431 = and i32 %430, 255
  %432 = call i32 @llvm.ctpop.i32(i32 %431)
  %433 = trunc i32 %432 to i8
  %434 = and i8 %433, 1
  %435 = xor i8 %434, 1
  %436 = getelementptr inbounds %struct.State, %struct.State* %0, i64 0, i32 2, i32 3
  store i8 %435, i8* %436, align 1
  %437 = icmp eq i8 %428, 0
  %438 = zext i1 %437 to i8
  %439 = getelementptr inbounds %struct.State, %struct.State* %0, i64 0, i32 2, i32 7
  store i8 %438, i8* %439, align 1
  %440 = lshr i8 %428, 7
  %441 = getelementptr inbounds %struct.State, %struct.State* %0, i64 0, i32 2, i32 9
  store i8 %440, i8* %441, align 1
  %442 = getelementptr inbounds %struct.State, %struct.State* %0, i64 0, i32 2, i32 13
  store i8 0, i8* %442, align 1
  %443 = getelementptr inbounds %struct.State, %struct.State* %0, i64 0, i32 2, i32 5
  store i8 0, i8* %443, align 1
  store %struct.Memory* %loadMem_4d0d33, %struct.Memory** %MEMORY
  %loadMem_4d0d37 = load %struct.Memory*, %struct.Memory** %MEMORY
  %444 = getelementptr inbounds %struct.State, %struct.State* %0, i32 0, i32 6
  %445 = getelementptr inbounds %struct.GPR, %struct.GPR* %444, i32 0, i32 33
  %446 = getelementptr inbounds %struct.Reg, %struct.Reg* %445, i32 0, i32 0
  %PC.i6 = bitcast %union.anon* %446 to i64*
  %447 = getelementptr inbounds %struct.State, %struct.State* %0, i32 0, i32 6
  %448 = getelementptr inbounds %struct.GPR, %struct.GPR* %447, i32 0, i32 21
  %449 = getelementptr inbounds %struct.Reg, %struct.Reg* %448, i32 0, i32 0
  %450 = bitcast %union.anon* %449 to %struct.anon.2*
  %R10B.i7 = getelementptr inbounds %struct.anon.2, %struct.anon.2* %450, i32 0, i32 0
  %451 = load i8, i8* %R10B.i7
  %452 = zext i8 %451 to i64
  %453 = load i64, i64* %PC.i6
  %454 = add i64 %453, 4
  store i64 %454, i64* %PC.i6
  %455 = and i64 1, %452
  %456 = trunc i64 %455 to i8
  store i8 %456, i8* %R10B.i7, align 1
  %457 = getelementptr inbounds %struct.State, %struct.State* %0, i64 0, i32 2, i32 1
  store i8 0, i8* %457, align 1
  %458 = trunc i64 %455 to i32
  %459 = and i32 %458, 255
  %460 = call i32 @llvm.ctpop.i32(i32 %459)
  %461 = trunc i32 %460 to i8
  %462 = and i8 %461, 1
  %463 = xor i8 %462, 1
  %464 = getelementptr inbounds %struct.State, %struct.State* %0, i64 0, i32 2, i32 3
  store i8 %463, i8* %464, align 1
  %465 = icmp eq i8 %456, 0
  %466 = zext i1 %465 to i8
  %467 = getelementptr inbounds %struct.State, %struct.State* %0, i64 0, i32 2, i32 7
  store i8 %466, i8* %467, align 1
  %468 = getelementptr inbounds %struct.State, %struct.State* %0, i64 0, i32 2, i32 9
  store i8 0, i8* %468, align 1
  %469 = getelementptr inbounds %struct.State, %struct.State* %0, i64 0, i32 2, i32 13
  store i8 0, i8* %469, align 1
  %470 = getelementptr inbounds %struct.State, %struct.State* %0, i64 0, i32 2, i32 5
  store i8 0, i8* %470, align 1
  store %struct.Memory* %loadMem_4d0d37, %struct.Memory** %MEMORY
  %loadMem_4d0d3b = load %struct.Memory*, %struct.Memory** %MEMORY
  %471 = getelementptr inbounds %struct.State, %struct.State* %0, i32 0, i32 6
  %472 = getelementptr inbounds %struct.GPR, %struct.GPR* %471, i32 0, i32 33
  %473 = getelementptr inbounds %struct.Reg, %struct.Reg* %472, i32 0, i32 0
  %PC.i5 = bitcast %union.anon* %473 to i64*
  %474 = getelementptr inbounds %struct.State, %struct.State* %0, i32 0, i32 6
  %475 = getelementptr inbounds %struct.GPR, %struct.GPR* %474, i32 0, i32 21
  %476 = getelementptr inbounds %struct.Reg, %struct.Reg* %475, i32 0, i32 0
  %477 = bitcast %union.anon* %476 to %struct.anon.2*
  %R10B.i = getelementptr inbounds %struct.anon.2, %struct.anon.2* %477, i32 0, i32 0
  %478 = getelementptr inbounds %struct.State, %struct.State* %0, i32 0, i32 6
  %479 = getelementptr inbounds %struct.GPR, %struct.GPR* %478, i32 0, i32 1
  %480 = getelementptr inbounds %struct.Reg, %struct.Reg* %479, i32 0, i32 0
  %RAX.i = bitcast %union.anon* %480 to i64*
  %481 = load i8, i8* %R10B.i
  %482 = zext i8 %481 to i64
  %483 = load i64, i64* %PC.i5
  %484 = add i64 %483, 4
  store i64 %484, i64* %PC.i5
  %485 = and i64 %482, 255
  store i64 %485, i64* %RAX.i, align 8
  store %struct.Memory* %loadMem_4d0d3b, %struct.Memory** %MEMORY
  %loadMem_4d0d3f = load %struct.Memory*, %struct.Memory** %MEMORY
  %486 = getelementptr inbounds %struct.State, %struct.State* %0, i32 0, i32 6
  %487 = getelementptr inbounds %struct.GPR, %struct.GPR* %486, i32 0, i32 33
  %488 = getelementptr inbounds %struct.Reg, %struct.Reg* %487, i32 0, i32 0
  %PC.i4 = bitcast %union.anon* %488 to i64*
  %489 = getelementptr inbounds %struct.State, %struct.State* %0, i32 0, i32 6
  %490 = getelementptr inbounds %struct.GPR, %struct.GPR* %489, i32 0, i32 13
  %491 = getelementptr inbounds %struct.Reg, %struct.Reg* %490, i32 0, i32 0
  %RSP.i = bitcast %union.anon* %491 to i64*
  %492 = load i64, i64* %RSP.i
  %493 = load i64, i64* %PC.i4
  %494 = add i64 %493, 4
  store i64 %494, i64* %PC.i4
  %495 = add i64 16, %492
  store i64 %495, i64* %RSP.i, align 8
  %496 = icmp ult i64 %495, %492
  %497 = icmp ult i64 %495, 16
  %498 = or i1 %496, %497
  %499 = zext i1 %498 to i8
  %500 = getelementptr inbounds %struct.State, %struct.State* %0, i64 0, i32 2, i32 1
  store i8 %499, i8* %500, align 1
  %501 = trunc i64 %495 to i32
  %502 = and i32 %501, 255
  %503 = call i32 @llvm.ctpop.i32(i32 %502)
  %504 = trunc i32 %503 to i8
  %505 = and i8 %504, 1
  %506 = xor i8 %505, 1
  %507 = getelementptr inbounds %struct.State, %struct.State* %0, i64 0, i32 2, i32 3
  store i8 %506, i8* %507, align 1
  %508 = xor i64 16, %492
  %509 = xor i64 %508, %495
  %510 = lshr i64 %509, 4
  %511 = trunc i64 %510 to i8
  %512 = and i8 %511, 1
  %513 = getelementptr inbounds %struct.State, %struct.State* %0, i64 0, i32 2, i32 5
  store i8 %512, i8* %513, align 1
  %514 = icmp eq i64 %495, 0
  %515 = zext i1 %514 to i8
  %516 = getelementptr inbounds %struct.State, %struct.State* %0, i64 0, i32 2, i32 7
  store i8 %515, i8* %516, align 1
  %517 = lshr i64 %495, 63
  %518 = trunc i64 %517 to i8
  %519 = getelementptr inbounds %struct.State, %struct.State* %0, i64 0, i32 2, i32 9
  store i8 %518, i8* %519, align 1
  %520 = lshr i64 %492, 63
  %521 = xor i64 %517, %520
  %522 = add i64 %521, %517
  %523 = icmp eq i64 %522, 2
  %524 = zext i1 %523 to i8
  %525 = getelementptr inbounds %struct.State, %struct.State* %0, i64 0, i32 2, i32 13
  store i8 %524, i8* %525, align 1
  store %struct.Memory* %loadMem_4d0d3f, %struct.Memory** %MEMORY
  %loadMem_4d0d43 = load %struct.Memory*, %struct.Memory** %MEMORY
  %526 = getelementptr inbounds %struct.State, %struct.State* %0, i32 0, i32 6
  %527 = getelementptr inbounds %struct.GPR, %struct.GPR* %526, i32 0, i32 33
  %528 = getelementptr inbounds %struct.Reg, %struct.Reg* %527, i32 0, i32 0
  %PC.i2 = bitcast %union.anon* %528 to i64*
  %529 = getelementptr inbounds %struct.State, %struct.State* %0, i32 0, i32 6
  %530 = getelementptr inbounds %struct.GPR, %struct.GPR* %529, i32 0, i32 15
  %531 = getelementptr inbounds %struct.Reg, %struct.Reg* %530, i32 0, i32 0
  %RBP.i3 = bitcast %union.anon* %531 to i64*
  %532 = load i64, i64* %PC.i2
  %533 = add i64 %532, 1
  store i64 %533, i64* %PC.i2
  %534 = getelementptr inbounds %struct.State, %struct.State* %0, i64 0, i32 6, i32 13, i32 0, i32 0
  %535 = load i64, i64* %534, align 8
  %536 = add i64 %535, 8
  %537 = inttoptr i64 %535 to i64*
  %538 = load i64, i64* %537
  store i64 %538, i64* %RBP.i3, align 8
  store i64 %536, i64* %534, align 8
  store %struct.Memory* %loadMem_4d0d43, %struct.Memory** %MEMORY
  %loadMem_4d0d44 = load %struct.Memory*, %struct.Memory** %MEMORY
  %539 = getelementptr inbounds %struct.State, %struct.State* %0, i32 0, i32 6
  %540 = getelementptr inbounds %struct.GPR, %struct.GPR* %539, i32 0, i32 33
  %541 = getelementptr inbounds %struct.Reg, %struct.Reg* %540, i32 0, i32 0
  %PC.i1 = bitcast %union.anon* %541 to i64*
  %542 = load i64, i64* %PC.i1
  %543 = add i64 %542, 1
  store i64 %543, i64* %PC.i1
  %544 = getelementptr inbounds %struct.State, %struct.State* %0, i64 0, i32 6, i32 33, i32 0, i32 0
  %545 = getelementptr inbounds %struct.State, %struct.State* %0, i64 0, i32 6, i32 13, i32 0, i32 0
  %546 = load i64, i64* %545, align 8
  %547 = inttoptr i64 %546 to i64*
  %548 = load i64, i64* %547
  store i64 %548, i64* %544, align 8
  %549 = add i64 %546, 8
  store i64 %549, i64* %545, align 8
  store %struct.Memory* %loadMem_4d0d44, %struct.Memory** %MEMORY
  ret %struct.Memory* %loadMem_4d0d44
}

define %struct.Memory* @routine_pushq__rbp(%struct.State* dereferenceable(3376), i64, %struct.Memory*) {
block_400488:
  %3 = getelementptr inbounds %struct.State, %struct.State* %0, i32 0, i32 6
  %4 = getelementptr inbounds %struct.GPR, %struct.GPR* %3, i32 0, i32 33
  %5 = getelementptr inbounds %struct.Reg, %struct.Reg* %4, i32 0, i32 0
  %PC = bitcast %union.anon* %5 to i64*
  %6 = getelementptr inbounds %struct.State, %struct.State* %0, i32 0, i32 6
  %7 = getelementptr inbounds %struct.GPR, %struct.GPR* %6, i32 0, i32 15
  %8 = getelementptr inbounds %struct.Reg, %struct.Reg* %7, i32 0, i32 0
  %RBP = bitcast %union.anon* %8 to i64*
  %9 = load i64, i64* %RBP
  %10 = load i64, i64* %PC
  %11 = add i64 %10, 1
  store i64 %11, i64* %PC
  %12 = getelementptr inbounds %struct.State, %struct.State* %0, i64 0, i32 6, i32 13, i32 0, i32 0
  %13 = load i64, i64* %12, align 8
  %14 = add i64 %13, -8
  %15 = inttoptr i64 %14 to i64*
  store i64 %9, i64* %15
  store i64 %14, i64* %12, align 8
  ret %struct.Memory* %2
}

define %struct.Memory* @routine_movq__rsp___rbp(%struct.State* dereferenceable(3376), i64, %struct.Memory*) {
block_400488:
  %3 = getelementptr inbounds %struct.State, %struct.State* %0, i32 0, i32 6
  %4 = getelementptr inbounds %struct.GPR, %struct.GPR* %3, i32 0, i32 33
  %5 = getelementptr inbounds %struct.Reg, %struct.Reg* %4, i32 0, i32 0
  %PC = bitcast %union.anon* %5 to i64*
  %6 = getelementptr inbounds %struct.State, %struct.State* %0, i32 0, i32 6
  %7 = getelementptr inbounds %struct.GPR, %struct.GPR* %6, i32 0, i32 13
  %8 = getelementptr inbounds %struct.Reg, %struct.Reg* %7, i32 0, i32 0
  %RSP = bitcast %union.anon* %8 to i64*
  %9 = getelementptr inbounds %struct.State, %struct.State* %0, i32 0, i32 6
  %10 = getelementptr inbounds %struct.GPR, %struct.GPR* %9, i32 0, i32 15
  %11 = getelementptr inbounds %struct.Reg, %struct.Reg* %10, i32 0, i32 0
  %RBP = bitcast %union.anon* %11 to i64*
  %12 = load i64, i64* %RSP
  %13 = load i64, i64* %PC
  %14 = add i64 %13, 3
  store i64 %14, i64* %PC
  store i64 %12, i64* %RBP, align 8
  ret %struct.Memory* %2
}

define %struct.Memory* @routine_subq__0x10___rsp(%struct.State* dereferenceable(3376), i64, %struct.Memory*) {
block_400488:
  %3 = getelementptr inbounds %struct.State, %struct.State* %0, i32 0, i32 6
  %4 = getelementptr inbounds %struct.GPR, %struct.GPR* %3, i32 0, i32 33
  %5 = getelementptr inbounds %struct.Reg, %struct.Reg* %4, i32 0, i32 0
  %PC = bitcast %union.anon* %5 to i64*
  %6 = getelementptr inbounds %struct.State, %struct.State* %0, i32 0, i32 6
  %7 = getelementptr inbounds %struct.GPR, %struct.GPR* %6, i32 0, i32 13
  %8 = getelementptr inbounds %struct.Reg, %struct.Reg* %7, i32 0, i32 0
  %RSP = bitcast %union.anon* %8 to i64*
  %9 = load i64, i64* %RSP
  %10 = load i64, i64* %PC
  %11 = add i64 %10, 4
  store i64 %11, i64* %PC
  %12 = sub i64 %9, 16
  store i64 %12, i64* %RSP, align 8
  %13 = icmp ult i64 %9, 16
  %14 = zext i1 %13 to i8
  %15 = getelementptr inbounds %struct.State, %struct.State* %0, i64 0, i32 2, i32 1
  store i8 %14, i8* %15, align 1
  %16 = trunc i64 %12 to i32
  %17 = and i32 %16, 255
  %18 = call i32 @llvm.ctpop.i32(i32 %17)
  %19 = trunc i32 %18 to i8
  %20 = and i8 %19, 1
  %21 = xor i8 %20, 1
  %22 = getelementptr inbounds %struct.State, %struct.State* %0, i64 0, i32 2, i32 3
  store i8 %21, i8* %22, align 1
  %23 = xor i64 16, %9
  %24 = xor i64 %23, %12
  %25 = lshr i64 %24, 4
  %26 = trunc i64 %25 to i8
  %27 = and i8 %26, 1
  %28 = getelementptr inbounds %struct.State, %struct.State* %0, i64 0, i32 2, i32 5
  store i8 %27, i8* %28, align 1
  %29 = icmp eq i64 %12, 0
  %30 = zext i1 %29 to i8
  %31 = getelementptr inbounds %struct.State, %struct.State* %0, i64 0, i32 2, i32 7
  store i8 %30, i8* %31, align 1
  %32 = lshr i64 %12, 63
  %33 = trunc i64 %32 to i8
  %34 = getelementptr inbounds %struct.State, %struct.State* %0, i64 0, i32 2, i32 9
  store i8 %33, i8* %34, align 1
  %35 = lshr i64 %9, 63
  %36 = xor i64 %32, %35
  %37 = add i64 %36, %35
  %38 = icmp eq i64 %37, 2
  %39 = zext i1 %38 to i8
  %40 = getelementptr inbounds %struct.State, %struct.State* %0, i64 0, i32 2, i32 13
  store i8 %39, i8* %40, align 1
  ret %struct.Memory* %2
}

define %struct.Memory* @routine_movq__0xb7df8c___rax(%struct.State* dereferenceable(3376), i64, %struct.Memory*) {
block_400488:
  %3 = getelementptr inbounds %struct.State, %struct.State* %0, i32 0, i32 6
  %4 = getelementptr inbounds %struct.GPR, %struct.GPR* %3, i32 0, i32 33
  %5 = getelementptr inbounds %struct.Reg, %struct.Reg* %4, i32 0, i32 0
  %PC = bitcast %union.anon* %5 to i64*
  %6 = getelementptr inbounds %struct.State, %struct.State* %0, i32 0, i32 6
  %7 = getelementptr inbounds %struct.GPR, %struct.GPR* %6, i32 0, i32 1
  %8 = getelementptr inbounds %struct.Reg, %struct.Reg* %7, i32 0, i32 0
  %RAX = bitcast %union.anon* %8 to i64*
  %9 = load i64, i64* %PC
  %10 = add i64 %9, 10
  store i64 %10, i64* %PC
  store i64 ptrtoint (%G__0xb7df8c_type* @G__0xb7df8c to i64), i64* %RAX, align 8
  ret %struct.Memory* %2
}

define %struct.Memory* @routine_movq__0xb38cb4___r8(%struct.State* dereferenceable(3376), i64, %struct.Memory*) {
block_400488:
  %3 = getelementptr inbounds %struct.State, %struct.State* %0, i32 0, i32 6
  %4 = getelementptr inbounds %struct.GPR, %struct.GPR* %3, i32 0, i32 33
  %5 = getelementptr inbounds %struct.Reg, %struct.Reg* %4, i32 0, i32 0
  %PC = bitcast %union.anon* %5 to i64*
  %6 = getelementptr inbounds %struct.State, %struct.State* %0, i32 0, i32 6
  %7 = getelementptr inbounds %struct.GPR, %struct.GPR* %6, i32 0, i32 17
  %8 = getelementptr inbounds %struct.Reg, %struct.Reg* %7, i32 0, i32 0
  %R8 = bitcast %union.anon* %8 to i64*
  %9 = load i64, i64* %PC
  %10 = add i64 %9, 10
  store i64 %10, i64* %PC
  store i64 ptrtoint (%G__0xb38cb4_type* @G__0xb38cb4 to i64), i64* %R8, align 8
  ret %struct.Memory* %2
}

define %struct.Memory* @routine_movl__0x3___r9d(%struct.State* dereferenceable(3376), i64, %struct.Memory*) {
block_400488:
  %3 = getelementptr inbounds %struct.State, %struct.State* %0, i32 0, i32 6
  %4 = getelementptr inbounds %struct.GPR, %struct.GPR* %3, i32 0, i32 33
  %5 = getelementptr inbounds %struct.Reg, %struct.Reg* %4, i32 0, i32 0
  %PC = bitcast %union.anon* %5 to i64*
  %6 = getelementptr inbounds %struct.State, %struct.State* %0, i32 0, i32 6
  %7 = getelementptr inbounds %struct.GPR, %struct.GPR* %6, i32 0, i32 19
  %8 = getelementptr inbounds %struct.Reg, %struct.Reg* %7, i32 0, i32 0
  %R9D = bitcast %union.anon* %8 to i32*
  %9 = bitcast i32* %R9D to i64*
  %10 = load i64, i64* %PC
  %11 = add i64 %10, 6
  store i64 %11, i64* %PC
  store i64 3, i64* %9, align 8
  ret %struct.Memory* %2
}

define %struct.Memory* @routine_movl__edi__MINUS0x4__rbp_(%struct.State* dereferenceable(3376), i64, %struct.Memory*) {
block_400488:
  %3 = getelementptr inbounds %struct.State, %struct.State* %0, i32 0, i32 6
  %4 = getelementptr inbounds %struct.GPR, %struct.GPR* %3, i32 0, i32 33
  %5 = getelementptr inbounds %struct.Reg, %struct.Reg* %4, i32 0, i32 0
  %PC = bitcast %union.anon* %5 to i64*
  %6 = getelementptr inbounds %struct.State, %struct.State* %0, i32 0, i32 6
  %7 = getelementptr inbounds %struct.GPR, %struct.GPR* %6, i32 0, i32 11
  %8 = getelementptr inbounds %struct.Reg, %struct.Reg* %7, i32 0, i32 0
  %EDI = bitcast %union.anon* %8 to i32*
  %9 = getelementptr inbounds %struct.State, %struct.State* %0, i32 0, i32 6
  %10 = getelementptr inbounds %struct.GPR, %struct.GPR* %9, i32 0, i32 15
  %11 = getelementptr inbounds %struct.Reg, %struct.Reg* %10, i32 0, i32 0
  %RBP = bitcast %union.anon* %11 to i64*
  %12 = load i64, i64* %RBP
  %13 = sub i64 %12, 4
  %14 = load i32, i32* %EDI
  %15 = zext i32 %14 to i64
  %16 = load i64, i64* %PC
  %17 = add i64 %16, 3
  store i64 %17, i64* %PC
  %18 = inttoptr i64 %13 to i32*
  store i32 %14, i32* %18
  ret %struct.Memory* %2
}

define %struct.Memory* @routine_movl__esi__MINUS0x8__rbp_(%struct.State* dereferenceable(3376), i64, %struct.Memory*) {
block_400488:
  %3 = getelementptr inbounds %struct.State, %struct.State* %0, i32 0, i32 6
  %4 = getelementptr inbounds %struct.GPR, %struct.GPR* %3, i32 0, i32 33
  %5 = getelementptr inbounds %struct.Reg, %struct.Reg* %4, i32 0, i32 0
  %PC = bitcast %union.anon* %5 to i64*
  %6 = getelementptr inbounds %struct.State, %struct.State* %0, i32 0, i32 6
  %7 = getelementptr inbounds %struct.GPR, %struct.GPR* %6, i32 0, i32 9
  %8 = getelementptr inbounds %struct.Reg, %struct.Reg* %7, i32 0, i32 0
  %ESI = bitcast %union.anon* %8 to i32*
  %9 = getelementptr inbounds %struct.State, %struct.State* %0, i32 0, i32 6
  %10 = getelementptr inbounds %struct.GPR, %struct.GPR* %9, i32 0, i32 15
  %11 = getelementptr inbounds %struct.Reg, %struct.Reg* %10, i32 0, i32 0
  %RBP = bitcast %union.anon* %11 to i64*
  %12 = load i64, i64* %RBP
  %13 = sub i64 %12, 8
  %14 = load i32, i32* %ESI
  %15 = zext i32 %14 to i64
  %16 = load i64, i64* %PC
  %17 = add i64 %16, 3
  store i64 %17, i64* %PC
  %18 = inttoptr i64 %13 to i32*
  store i32 %14, i32* %18
  ret %struct.Memory* %2
}

define %struct.Memory* @routine_movl__edx__MINUS0xc__rbp_(%struct.State* dereferenceable(3376), i64, %struct.Memory*) {
block_400488:
  %3 = getelementptr inbounds %struct.State, %struct.State* %0, i32 0, i32 6
  %4 = getelementptr inbounds %struct.GPR, %struct.GPR* %3, i32 0, i32 33
  %5 = getelementptr inbounds %struct.Reg, %struct.Reg* %4, i32 0, i32 0
  %PC = bitcast %union.anon* %5 to i64*
  %6 = getelementptr inbounds %struct.State, %struct.State* %0, i32 0, i32 6
  %7 = getelementptr inbounds %struct.GPR, %struct.GPR* %6, i32 0, i32 7
  %8 = getelementptr inbounds %struct.Reg, %struct.Reg* %7, i32 0, i32 0
  %EDX = bitcast %union.anon* %8 to i32*
  %9 = getelementptr inbounds %struct.State, %struct.State* %0, i32 0, i32 6
  %10 = getelementptr inbounds %struct.GPR, %struct.GPR* %9, i32 0, i32 15
  %11 = getelementptr inbounds %struct.Reg, %struct.Reg* %10, i32 0, i32 0
  %RBP = bitcast %union.anon* %11 to i64*
  %12 = load i64, i64* %RBP
  %13 = sub i64 %12, 12
  %14 = load i32, i32* %EDX
  %15 = zext i32 %14 to i64
  %16 = load i64, i64* %PC
  %17 = add i64 %16, 3
  store i64 %17, i64* %PC
  %18 = inttoptr i64 %13 to i32*
  store i32 %14, i32* %18
  ret %struct.Memory* %2
}

define %struct.Memory* @routine_movl__ecx__MINUS0x10__rbp_(%struct.State* dereferenceable(3376), i64, %struct.Memory*) {
block_400488:
  %3 = getelementptr inbounds %struct.State, %struct.State* %0, i32 0, i32 6
  %4 = getelementptr inbounds %struct.GPR, %struct.GPR* %3, i32 0, i32 33
  %5 = getelementptr inbounds %struct.Reg, %struct.Reg* %4, i32 0, i32 0
  %PC = bitcast %union.anon* %5 to i64*
  %6 = getelementptr inbounds %struct.State, %struct.State* %0, i32 0, i32 6
  %7 = getelementptr inbounds %struct.GPR, %struct.GPR* %6, i32 0, i32 5
  %8 = getelementptr inbounds %struct.Reg, %struct.Reg* %7, i32 0, i32 0
  %ECX = bitcast %union.anon* %8 to i32*
  %9 = getelementptr inbounds %struct.State, %struct.State* %0, i32 0, i32 6
  %10 = getelementptr inbounds %struct.GPR, %struct.GPR* %9, i32 0, i32 15
  %11 = getelementptr inbounds %struct.Reg, %struct.Reg* %10, i32 0, i32 0
  %RBP = bitcast %union.anon* %11 to i64*
  %12 = load i64, i64* %RBP
  %13 = sub i64 %12, 16
  %14 = load i32, i32* %ECX
  %15 = zext i32 %14 to i64
  %16 = load i64, i64* %PC
  %17 = add i64 %16, 3
  store i64 %17, i64* %PC
  %18 = inttoptr i64 %13 to i32*
  store i32 %14, i32* %18
  ret %struct.Memory* %2
}

define %struct.Memory* @routine_subl_MINUS0xc__rbp____r9d(%struct.State* dereferenceable(3376), i64, %struct.Memory*) {
block_400488:
  %3 = getelementptr inbounds %struct.State, %struct.State* %0, i32 0, i32 6
  %4 = getelementptr inbounds %struct.GPR, %struct.GPR* %3, i32 0, i32 33
  %5 = getelementptr inbounds %struct.Reg, %struct.Reg* %4, i32 0, i32 0
  %PC = bitcast %union.anon* %5 to i64*
  %6 = getelementptr inbounds %struct.State, %struct.State* %0, i32 0, i32 6
  %7 = getelementptr inbounds %struct.GPR, %struct.GPR* %6, i32 0, i32 19
  %8 = getelementptr inbounds %struct.Reg, %struct.Reg* %7, i32 0, i32 0
  %R9D = bitcast %union.anon* %8 to i32*
  %9 = getelementptr inbounds %struct.State, %struct.State* %0, i32 0, i32 6
  %10 = getelementptr inbounds %struct.GPR, %struct.GPR* %9, i32 0, i32 15
  %11 = getelementptr inbounds %struct.Reg, %struct.Reg* %10, i32 0, i32 0
  %RBP = bitcast %union.anon* %11 to i64*
  %12 = bitcast i32* %R9D to i64*
  %13 = load i32, i32* %R9D
  %14 = zext i32 %13 to i64
  %15 = load i64, i64* %RBP
  %16 = sub i64 %15, 12
  %17 = load i64, i64* %PC
  %18 = add i64 %17, 4
  store i64 %18, i64* %PC
  %19 = inttoptr i64 %16 to i32*
  %20 = load i32, i32* %19
  %21 = sub i32 %13, %20
  %22 = zext i32 %21 to i64
  store i64 %22, i64* %12, align 8
  %23 = icmp ult i32 %13, %20
  %24 = zext i1 %23 to i8
  %25 = getelementptr inbounds %struct.State, %struct.State* %0, i64 0, i32 2, i32 1
  store i8 %24, i8* %25, align 1
  %26 = and i32 %21, 255
  %27 = call i32 @llvm.ctpop.i32(i32 %26)
  %28 = trunc i32 %27 to i8
  %29 = and i8 %28, 1
  %30 = xor i8 %29, 1
  %31 = getelementptr inbounds %struct.State, %struct.State* %0, i64 0, i32 2, i32 3
  store i8 %30, i8* %31, align 1
  %32 = xor i32 %20, %13
  %33 = xor i32 %32, %21
  %34 = lshr i32 %33, 4
  %35 = trunc i32 %34 to i8
  %36 = and i8 %35, 1
  %37 = getelementptr inbounds %struct.State, %struct.State* %0, i64 0, i32 2, i32 5
  store i8 %36, i8* %37, align 1
  %38 = icmp eq i32 %21, 0
  %39 = zext i1 %38 to i8
  %40 = getelementptr inbounds %struct.State, %struct.State* %0, i64 0, i32 2, i32 7
  store i8 %39, i8* %40, align 1
  %41 = lshr i32 %21, 31
  %42 = trunc i32 %41 to i8
  %43 = getelementptr inbounds %struct.State, %struct.State* %0, i64 0, i32 2, i32 9
  store i8 %42, i8* %43, align 1
  %44 = lshr i32 %13, 31
  %45 = lshr i32 %20, 31
  %46 = xor i32 %45, %44
  %47 = xor i32 %41, %44
  %48 = add i32 %47, %46
  %49 = icmp eq i32 %48, 2
  %50 = zext i1 %49 to i8
  %51 = getelementptr inbounds %struct.State, %struct.State* %0, i64 0, i32 2, i32 13
  store i8 %50, i8* %51, align 1
  ret %struct.Memory* %2
}

define %struct.Memory* @routine_cmpl__0x1___r9d(%struct.State* dereferenceable(3376), i64, %struct.Memory*) {
block_400488:
  %3 = getelementptr inbounds %struct.State, %struct.State* %0, i32 0, i32 6
  %4 = getelementptr inbounds %struct.GPR, %struct.GPR* %3, i32 0, i32 33
  %5 = getelementptr inbounds %struct.Reg, %struct.Reg* %4, i32 0, i32 0
  %PC = bitcast %union.anon* %5 to i64*
  %6 = getelementptr inbounds %struct.State, %struct.State* %0, i32 0, i32 6
  %7 = getelementptr inbounds %struct.GPR, %struct.GPR* %6, i32 0, i32 19
  %8 = getelementptr inbounds %struct.Reg, %struct.Reg* %7, i32 0, i32 0
  %R9D = bitcast %union.anon* %8 to i32*
  %9 = load i32, i32* %R9D
  %10 = zext i32 %9 to i64
  %11 = load i64, i64* %PC
  %12 = add i64 %11, 4
  store i64 %12, i64* %PC
  %13 = sub i32 %9, 1
  %14 = icmp ult i32 %9, 1
  %15 = zext i1 %14 to i8
  %16 = getelementptr inbounds %struct.State, %struct.State* %0, i64 0, i32 2, i32 1
  store i8 %15, i8* %16, align 1
  %17 = and i32 %13, 255
  %18 = call i32 @llvm.ctpop.i32(i32 %17)
  %19 = trunc i32 %18 to i8
  %20 = and i8 %19, 1
  %21 = xor i8 %20, 1
  %22 = getelementptr inbounds %struct.State, %struct.State* %0, i64 0, i32 2, i32 3
  store i8 %21, i8* %22, align 1
  %23 = xor i64 1, %10
  %24 = trunc i64 %23 to i32
  %25 = xor i32 %24, %13
  %26 = lshr i32 %25, 4
  %27 = trunc i32 %26 to i8
  %28 = and i8 %27, 1
  %29 = getelementptr inbounds %struct.State, %struct.State* %0, i64 0, i32 2, i32 5
  store i8 %28, i8* %29, align 1
  %30 = icmp eq i32 %13, 0
  %31 = zext i1 %30 to i8
  %32 = getelementptr inbounds %struct.State, %struct.State* %0, i64 0, i32 2, i32 7
  store i8 %31, i8* %32, align 1
  %33 = lshr i32 %13, 31
  %34 = trunc i32 %33 to i8
  %35 = getelementptr inbounds %struct.State, %struct.State* %0, i64 0, i32 2, i32 9
  store i8 %34, i8* %35, align 1
  %36 = lshr i32 %9, 31
  %37 = xor i32 %33, %36
  %38 = add i32 %37, %36
  %39 = icmp eq i32 %38, 2
  %40 = zext i1 %39 to i8
  %41 = getelementptr inbounds %struct.State, %struct.State* %0, i64 0, i32 2, i32 13
  store i8 %40, i8* %41, align 1
  ret %struct.Memory* %2
}

define %struct.Memory* @routine_cmoveq__r8___rax(%struct.State* dereferenceable(3376), i64, %struct.Memory*) {
block_400488:
  %3 = getelementptr inbounds %struct.State, %struct.State* %0, i32 0, i32 6
  %4 = getelementptr inbounds %struct.GPR, %struct.GPR* %3, i32 0, i32 33
  %5 = getelementptr inbounds %struct.Reg, %struct.Reg* %4, i32 0, i32 0
  %PC = bitcast %union.anon* %5 to i64*
  %6 = getelementptr inbounds %struct.State, %struct.State* %0, i32 0, i32 6
  %7 = getelementptr inbounds %struct.GPR, %struct.GPR* %6, i32 0, i32 1
  %8 = getelementptr inbounds %struct.Reg, %struct.Reg* %7, i32 0, i32 0
  %RAX = bitcast %union.anon* %8 to i64*
  %9 = getelementptr inbounds %struct.State, %struct.State* %0, i32 0, i32 6
  %10 = getelementptr inbounds %struct.GPR, %struct.GPR* %9, i32 0, i32 17
  %11 = getelementptr inbounds %struct.Reg, %struct.Reg* %10, i32 0, i32 0
  %R8 = bitcast %union.anon* %11 to i64*
  %12 = load i64, i64* %R8
  %13 = load i64, i64* %PC
  %14 = add i64 %13, 4
  store i64 %14, i64* %PC
  %15 = getelementptr inbounds %struct.State, %struct.State* %0, i64 0, i32 2, i32 7
  %16 = load i8, i8* %15, align 1
  %17 = icmp ne i8 %16, 0
  %18 = load i64, i64* %RAX, align 8
  %19 = select i1 %17, i64 %12, i64 %18
  store i64 %19, i64* %RAX, align 8
  ret %struct.Memory* %2
}

define %struct.Memory* @routine_movl_MINUS0x8__rbp____esi(%struct.State* dereferenceable(3376), i64, %struct.Memory*) {
block_400488:
  %3 = getelementptr inbounds %struct.State, %struct.State* %0, i32 0, i32 6
  %4 = getelementptr inbounds %struct.GPR, %struct.GPR* %3, i32 0, i32 33
  %5 = getelementptr inbounds %struct.Reg, %struct.Reg* %4, i32 0, i32 0
  %PC = bitcast %union.anon* %5 to i64*
  %6 = getelementptr inbounds %struct.State, %struct.State* %0, i32 0, i32 6
  %7 = getelementptr inbounds %struct.GPR, %struct.GPR* %6, i32 0, i32 9
  %8 = getelementptr inbounds %struct.Reg, %struct.Reg* %7, i32 0, i32 0
  %RSI = bitcast %union.anon* %8 to i64*
  %9 = getelementptr inbounds %struct.State, %struct.State* %0, i32 0, i32 6
  %10 = getelementptr inbounds %struct.GPR, %struct.GPR* %9, i32 0, i32 15
  %11 = getelementptr inbounds %struct.Reg, %struct.Reg* %10, i32 0, i32 0
  %RBP = bitcast %union.anon* %11 to i64*
  %12 = load i64, i64* %RBP
  %13 = sub i64 %12, 8
  %14 = load i64, i64* %PC
  %15 = add i64 %14, 3
  store i64 %15, i64* %PC
  %16 = inttoptr i64 %13 to i32*
  %17 = load i32, i32* %16
  %18 = zext i32 %17 to i64
  store i64 %18, i64* %RSI, align 8
  ret %struct.Memory* %2
}

define %struct.Memory* @routine_movq__rax___rdi(%struct.State* dereferenceable(3376), i64, %struct.Memory*) {
block_400488:
  %3 = getelementptr inbounds %struct.State, %struct.State* %0, i32 0, i32 6
  %4 = getelementptr inbounds %struct.GPR, %struct.GPR* %3, i32 0, i32 33
  %5 = getelementptr inbounds %struct.Reg, %struct.Reg* %4, i32 0, i32 0
  %PC = bitcast %union.anon* %5 to i64*
  %6 = getelementptr inbounds %struct.State, %struct.State* %0, i32 0, i32 6
  %7 = getelementptr inbounds %struct.GPR, %struct.GPR* %6, i32 0, i32 1
  %8 = getelementptr inbounds %struct.Reg, %struct.Reg* %7, i32 0, i32 0
  %RAX = bitcast %union.anon* %8 to i64*
  %9 = getelementptr inbounds %struct.State, %struct.State* %0, i32 0, i32 6
  %10 = getelementptr inbounds %struct.GPR, %struct.GPR* %9, i32 0, i32 11
  %11 = getelementptr inbounds %struct.Reg, %struct.Reg* %10, i32 0, i32 0
  %RDI = bitcast %union.anon* %11 to i64*
  %12 = load i64, i64* %RAX
  %13 = load i64, i64* %PC
  %14 = add i64 %13, 3
  store i64 %14, i64* %PC
  store i64 %12, i64* %RDI, align 8
  ret %struct.Memory* %2
}

define %struct.Memory* @routine_callq_.whose_moyo(%struct.State* dereferenceable(3376), i64, %struct.Memory*, i64 %rel_off1, i64 %rel_off2, i64 %rel_off3) {
block_400488:
  %3 = getelementptr inbounds %struct.State, %struct.State* %0, i32 0, i32 6
  %4 = getelementptr inbounds %struct.GPR, %struct.GPR* %3, i32 0, i32 33
  %5 = getelementptr inbounds %struct.Reg, %struct.Reg* %4, i32 0, i32 0
  %PC = bitcast %union.anon* %5 to i64*
  %6 = load i64, i64* %PC
  %7 = add i64 %6, %rel_off1
  %8 = load i64, i64* %PC
  %9 = add i64 %8, %rel_off2
  %10 = load i64, i64* %PC
  %11 = add i64 %10, %rel_off3
  store i64 %11, i64* %PC
  %12 = getelementptr inbounds %struct.State, %struct.State* %0, i64 0, i32 6, i32 13, i32 0, i32 0
  %13 = load i64, i64* %12, align 8
  %14 = add i64 %13, -8
  %15 = inttoptr i64 %14 to i64*
  store i64 %9, i64* %15
  store i64 %14, i64* %12, align 8
  %16 = getelementptr inbounds %struct.State, %struct.State* %0, i64 0, i32 6, i32 33, i32 0, i32 0
  store i64 %7, i64* %16, align 8
  ret %struct.Memory* %2
}

define %struct.Memory* @routine_movl__0x3___ecx(%struct.State* dereferenceable(3376), i64, %struct.Memory*) {
block_400488:
  %3 = getelementptr inbounds %struct.State, %struct.State* %0, i32 0, i32 6
  %4 = getelementptr inbounds %struct.GPR, %struct.GPR* %3, i32 0, i32 33
  %5 = getelementptr inbounds %struct.Reg, %struct.Reg* %4, i32 0, i32 0
  %PC = bitcast %union.anon* %5 to i64*
  %6 = getelementptr inbounds %struct.State, %struct.State* %0, i32 0, i32 6
  %7 = getelementptr inbounds %struct.GPR, %struct.GPR* %6, i32 0, i32 5
  %8 = getelementptr inbounds %struct.Reg, %struct.Reg* %7, i32 0, i32 0
  %RCX = bitcast %union.anon* %8 to i64*
  %9 = load i64, i64* %PC
  %10 = add i64 %9, 5
  store i64 %10, i64* %PC
  store i64 3, i64* %RCX, align 8
  ret %struct.Memory* %2
}

define %struct.Memory* @routine_subl_MINUS0xc__rbp____ecx(%struct.State* dereferenceable(3376), i64, %struct.Memory*) {
block_400488:
  %3 = getelementptr inbounds %struct.State, %struct.State* %0, i32 0, i32 6
  %4 = getelementptr inbounds %struct.GPR, %struct.GPR* %3, i32 0, i32 33
  %5 = getelementptr inbounds %struct.Reg, %struct.Reg* %4, i32 0, i32 0
  %PC = bitcast %union.anon* %5 to i64*
  %6 = getelementptr inbounds %struct.State, %struct.State* %0, i32 0, i32 6
  %7 = getelementptr inbounds %struct.GPR, %struct.GPR* %6, i32 0, i32 5
  %8 = getelementptr inbounds %struct.Reg, %struct.Reg* %7, i32 0, i32 0
  %RCX = bitcast %union.anon* %8 to i64*
  %9 = getelementptr inbounds %struct.State, %struct.State* %0, i32 0, i32 6
  %10 = getelementptr inbounds %struct.GPR, %struct.GPR* %9, i32 0, i32 15
  %11 = getelementptr inbounds %struct.Reg, %struct.Reg* %10, i32 0, i32 0
  %RBP = bitcast %union.anon* %11 to i64*
  %12 = load i64, i64* %RCX
  %13 = load i64, i64* %RBP
  %14 = sub i64 %13, 12
  %15 = load i64, i64* %PC
  %16 = add i64 %15, 3
  store i64 %16, i64* %PC
  %17 = trunc i64 %12 to i32
  %18 = inttoptr i64 %14 to i32*
  %19 = load i32, i32* %18
  %20 = sub i32 %17, %19
  %21 = zext i32 %20 to i64
  store i64 %21, i64* %RCX, align 8
  %22 = icmp ult i32 %17, %19
  %23 = zext i1 %22 to i8
  %24 = getelementptr inbounds %struct.State, %struct.State* %0, i64 0, i32 2, i32 1
  store i8 %23, i8* %24, align 1
  %25 = and i32 %20, 255
  %26 = call i32 @llvm.ctpop.i32(i32 %25)
  %27 = trunc i32 %26 to i8
  %28 = and i8 %27, 1
  %29 = xor i8 %28, 1
  %30 = getelementptr inbounds %struct.State, %struct.State* %0, i64 0, i32 2, i32 3
  store i8 %29, i8* %30, align 1
  %31 = xor i32 %19, %17
  %32 = xor i32 %31, %20
  %33 = lshr i32 %32, 4
  %34 = trunc i32 %33 to i8
  %35 = and i8 %34, 1
  %36 = getelementptr inbounds %struct.State, %struct.State* %0, i64 0, i32 2, i32 5
  store i8 %35, i8* %36, align 1
  %37 = icmp eq i32 %20, 0
  %38 = zext i1 %37 to i8
  %39 = getelementptr inbounds %struct.State, %struct.State* %0, i64 0, i32 2, i32 7
  store i8 %38, i8* %39, align 1
  %40 = lshr i32 %20, 31
  %41 = trunc i32 %40 to i8
  %42 = getelementptr inbounds %struct.State, %struct.State* %0, i64 0, i32 2, i32 9
  store i8 %41, i8* %42, align 1
  %43 = lshr i32 %17, 31
  %44 = lshr i32 %19, 31
  %45 = xor i32 %44, %43
  %46 = xor i32 %40, %43
  %47 = add i32 %46, %45
  %48 = icmp eq i32 %47, 2
  %49 = zext i1 %48 to i8
  %50 = getelementptr inbounds %struct.State, %struct.State* %0, i64 0, i32 2, i32 13
  store i8 %49, i8* %50, align 1
  ret %struct.Memory* %2
}

define %struct.Memory* @routine_cmpl__ecx___eax(%struct.State* dereferenceable(3376), i64, %struct.Memory*) {
block_400488:
  %3 = getelementptr inbounds %struct.State, %struct.State* %0, i32 0, i32 6
  %4 = getelementptr inbounds %struct.GPR, %struct.GPR* %3, i32 0, i32 33
  %5 = getelementptr inbounds %struct.Reg, %struct.Reg* %4, i32 0, i32 0
  %PC = bitcast %union.anon* %5 to i64*
  %6 = getelementptr inbounds %struct.State, %struct.State* %0, i32 0, i32 6
  %7 = getelementptr inbounds %struct.GPR, %struct.GPR* %6, i32 0, i32 1
  %8 = getelementptr inbounds %struct.Reg, %struct.Reg* %7, i32 0, i32 0
  %EAX = bitcast %union.anon* %8 to i32*
  %9 = getelementptr inbounds %struct.State, %struct.State* %0, i32 0, i32 6
  %10 = getelementptr inbounds %struct.GPR, %struct.GPR* %9, i32 0, i32 5
  %11 = getelementptr inbounds %struct.Reg, %struct.Reg* %10, i32 0, i32 0
  %ECX = bitcast %union.anon* %11 to i32*
  %12 = load i32, i32* %EAX
  %13 = zext i32 %12 to i64
  %14 = load i32, i32* %ECX
  %15 = zext i32 %14 to i64
  %16 = load i64, i64* %PC
  %17 = add i64 %16, 2
  store i64 %17, i64* %PC
  %18 = sub i32 %12, %14
  %19 = icmp ult i32 %12, %14
  %20 = zext i1 %19 to i8
  %21 = getelementptr inbounds %struct.State, %struct.State* %0, i64 0, i32 2, i32 1
  store i8 %20, i8* %21, align 1
  %22 = and i32 %18, 255
  %23 = call i32 @llvm.ctpop.i32(i32 %22)
  %24 = trunc i32 %23 to i8
  %25 = and i8 %24, 1
  %26 = xor i8 %25, 1
  %27 = getelementptr inbounds %struct.State, %struct.State* %0, i64 0, i32 2, i32 3
  store i8 %26, i8* %27, align 1
  %28 = xor i64 %15, %13
  %29 = trunc i64 %28 to i32
  %30 = xor i32 %29, %18
  %31 = lshr i32 %30, 4
  %32 = trunc i32 %31 to i8
  %33 = and i8 %32, 1
  %34 = getelementptr inbounds %struct.State, %struct.State* %0, i64 0, i32 2, i32 5
  store i8 %33, i8* %34, align 1
  %35 = icmp eq i32 %18, 0
  %36 = zext i1 %35 to i8
  %37 = getelementptr inbounds %struct.State, %struct.State* %0, i64 0, i32 2, i32 7
  store i8 %36, i8* %37, align 1
  %38 = lshr i32 %18, 31
  %39 = trunc i32 %38 to i8
  %40 = getelementptr inbounds %struct.State, %struct.State* %0, i64 0, i32 2, i32 9
  store i8 %39, i8* %40, align 1
  %41 = lshr i32 %12, 31
  %42 = lshr i32 %14, 31
  %43 = xor i32 %42, %41
  %44 = xor i32 %38, %41
  %45 = add i32 %44, %43
  %46 = icmp eq i32 %45, 2
  %47 = zext i1 %46 to i8
  %48 = getelementptr inbounds %struct.State, %struct.State* %0, i64 0, i32 2, i32 13
  store i8 %47, i8* %48, align 1
  ret %struct.Memory* %2
}

define %struct.Memory* @routine_sete__r10b(%struct.State* dereferenceable(3376), i64, %struct.Memory*) {
block_400488:
  %3 = getelementptr inbounds %struct.State, %struct.State* %0, i32 0, i32 6
  %4 = getelementptr inbounds %struct.GPR, %struct.GPR* %3, i32 0, i32 33
  %5 = getelementptr inbounds %struct.Reg, %struct.Reg* %4, i32 0, i32 0
  %PC = bitcast %union.anon* %5 to i64*
  %6 = getelementptr inbounds %struct.State, %struct.State* %0, i32 0, i32 6
  %7 = getelementptr inbounds %struct.GPR, %struct.GPR* %6, i32 0, i32 21
  %8 = getelementptr inbounds %struct.Reg, %struct.Reg* %7, i32 0, i32 0
  %9 = bitcast %union.anon* %8 to %struct.anon.2*
  %R10B = getelementptr inbounds %struct.anon.2, %struct.anon.2* %9, i32 0, i32 0
  %10 = load i64, i64* %PC
  %11 = add i64 %10, 4
  store i64 %11, i64* %PC
  %12 = getelementptr inbounds %struct.State, %struct.State* %0, i64 0, i32 2, i32 7
  %13 = load i8, i8* %12, align 1
  store i8 %13, i8* %R10B, align 1
  ret %struct.Memory* %2
}

define %struct.Memory* @routine_xorb__0xff___r10b(%struct.State* dereferenceable(3376), i64, %struct.Memory*) {
block_400488:
  %3 = getelementptr inbounds %struct.State, %struct.State* %0, i32 0, i32 6
  %4 = getelementptr inbounds %struct.GPR, %struct.GPR* %3, i32 0, i32 33
  %5 = getelementptr inbounds %struct.Reg, %struct.Reg* %4, i32 0, i32 0
  %PC = bitcast %union.anon* %5 to i64*
  %6 = getelementptr inbounds %struct.State, %struct.State* %0, i32 0, i32 6
  %7 = getelementptr inbounds %struct.GPR, %struct.GPR* %6, i32 0, i32 21
  %8 = getelementptr inbounds %struct.Reg, %struct.Reg* %7, i32 0, i32 0
  %9 = bitcast %union.anon* %8 to %struct.anon.2*
  %R10B = getelementptr inbounds %struct.anon.2, %struct.anon.2* %9, i32 0, i32 0
  %10 = load i8, i8* %R10B
  %11 = zext i8 %10 to i64
  %12 = load i64, i64* %PC
  %13 = add i64 %12, 4
  store i64 %13, i64* %PC
  %14 = xor i64 255, %11
  %15 = trunc i64 %14 to i8
  store i8 %15, i8* %R10B, align 1
  %16 = getelementptr inbounds %struct.State, %struct.State* %0, i64 0, i32 2, i32 1
  store i8 0, i8* %16, align 1
  %17 = trunc i64 %14 to i32
  %18 = and i32 %17, 255
  %19 = call i32 @llvm.ctpop.i32(i32 %18)
  %20 = trunc i32 %19 to i8
  %21 = and i8 %20, 1
  %22 = xor i8 %21, 1
  %23 = getelementptr inbounds %struct.State, %struct.State* %0, i64 0, i32 2, i32 3
  store i8 %22, i8* %23, align 1
  %24 = icmp eq i8 %15, 0
  %25 = zext i1 %24 to i8
  %26 = getelementptr inbounds %struct.State, %struct.State* %0, i64 0, i32 2, i32 7
  store i8 %25, i8* %26, align 1
  %27 = lshr i8 %15, 7
  %28 = getelementptr inbounds %struct.State, %struct.State* %0, i64 0, i32 2, i32 9
  store i8 %27, i8* %28, align 1
  %29 = getelementptr inbounds %struct.State, %struct.State* %0, i64 0, i32 2, i32 13
  store i8 0, i8* %29, align 1
  %30 = getelementptr inbounds %struct.State, %struct.State* %0, i64 0, i32 2, i32 5
  store i8 0, i8* %30, align 1
  ret %struct.Memory* %2
}

define %struct.Memory* @routine_andb__0x1___r10b(%struct.State* dereferenceable(3376), i64, %struct.Memory*) {
block_400488:
  %3 = getelementptr inbounds %struct.State, %struct.State* %0, i32 0, i32 6
  %4 = getelementptr inbounds %struct.GPR, %struct.GPR* %3, i32 0, i32 33
  %5 = getelementptr inbounds %struct.Reg, %struct.Reg* %4, i32 0, i32 0
  %PC = bitcast %union.anon* %5 to i64*
  %6 = getelementptr inbounds %struct.State, %struct.State* %0, i32 0, i32 6
  %7 = getelementptr inbounds %struct.GPR, %struct.GPR* %6, i32 0, i32 21
  %8 = getelementptr inbounds %struct.Reg, %struct.Reg* %7, i32 0, i32 0
  %9 = bitcast %union.anon* %8 to %struct.anon.2*
  %R10B = getelementptr inbounds %struct.anon.2, %struct.anon.2* %9, i32 0, i32 0
  %10 = load i8, i8* %R10B
  %11 = zext i8 %10 to i64
  %12 = load i64, i64* %PC
  %13 = add i64 %12, 4
  store i64 %13, i64* %PC
  %14 = and i64 1, %11
  %15 = trunc i64 %14 to i8
  store i8 %15, i8* %R10B, align 1
  %16 = getelementptr inbounds %struct.State, %struct.State* %0, i64 0, i32 2, i32 1
  store i8 0, i8* %16, align 1
  %17 = trunc i64 %14 to i32
  %18 = and i32 %17, 255
  %19 = call i32 @llvm.ctpop.i32(i32 %18)
  %20 = trunc i32 %19 to i8
  %21 = and i8 %20, 1
  %22 = xor i8 %21, 1
  %23 = getelementptr inbounds %struct.State, %struct.State* %0, i64 0, i32 2, i32 3
  store i8 %22, i8* %23, align 1
  %24 = icmp eq i8 %15, 0
  %25 = zext i1 %24 to i8
  %26 = getelementptr inbounds %struct.State, %struct.State* %0, i64 0, i32 2, i32 7
  store i8 %25, i8* %26, align 1
  %27 = getelementptr inbounds %struct.State, %struct.State* %0, i64 0, i32 2, i32 9
  store i8 0, i8* %27, align 1
  %28 = getelementptr inbounds %struct.State, %struct.State* %0, i64 0, i32 2, i32 13
  store i8 0, i8* %28, align 1
  %29 = getelementptr inbounds %struct.State, %struct.State* %0, i64 0, i32 2, i32 5
  store i8 0, i8* %29, align 1
  ret %struct.Memory* %2
}

define %struct.Memory* @routine_movzbl__r10b___eax(%struct.State* dereferenceable(3376), i64, %struct.Memory*) {
block_400488:
  %3 = getelementptr inbounds %struct.State, %struct.State* %0, i32 0, i32 6
  %4 = getelementptr inbounds %struct.GPR, %struct.GPR* %3, i32 0, i32 33
  %5 = getelementptr inbounds %struct.Reg, %struct.Reg* %4, i32 0, i32 0
  %PC = bitcast %union.anon* %5 to i64*
  %6 = getelementptr inbounds %struct.State, %struct.State* %0, i32 0, i32 6
  %7 = getelementptr inbounds %struct.GPR, %struct.GPR* %6, i32 0, i32 21
  %8 = getelementptr inbounds %struct.Reg, %struct.Reg* %7, i32 0, i32 0
  %9 = bitcast %union.anon* %8 to %struct.anon.2*
  %R10B = getelementptr inbounds %struct.anon.2, %struct.anon.2* %9, i32 0, i32 0
  %10 = getelementptr inbounds %struct.State, %struct.State* %0, i32 0, i32 6
  %11 = getelementptr inbounds %struct.GPR, %struct.GPR* %10, i32 0, i32 1
  %12 = getelementptr inbounds %struct.Reg, %struct.Reg* %11, i32 0, i32 0
  %RAX = bitcast %union.anon* %12 to i64*
  %13 = load i8, i8* %R10B
  %14 = zext i8 %13 to i64
  %15 = load i64, i64* %PC
  %16 = add i64 %15, 4
  store i64 %16, i64* %PC
  %17 = and i64 %14, 255
  store i64 %17, i64* %RAX, align 8
  ret %struct.Memory* %2
}

define %struct.Memory* @routine_addq__0x10___rsp(%struct.State* dereferenceable(3376), i64, %struct.Memory*) {
block_400488:
  %3 = getelementptr inbounds %struct.State, %struct.State* %0, i32 0, i32 6
  %4 = getelementptr inbounds %struct.GPR, %struct.GPR* %3, i32 0, i32 33
  %5 = getelementptr inbounds %struct.Reg, %struct.Reg* %4, i32 0, i32 0
  %PC = bitcast %union.anon* %5 to i64*
  %6 = getelementptr inbounds %struct.State, %struct.State* %0, i32 0, i32 6
  %7 = getelementptr inbounds %struct.GPR, %struct.GPR* %6, i32 0, i32 13
  %8 = getelementptr inbounds %struct.Reg, %struct.Reg* %7, i32 0, i32 0
  %RSP = bitcast %union.anon* %8 to i64*
  %9 = load i64, i64* %RSP
  %10 = load i64, i64* %PC
  %11 = add i64 %10, 4
  store i64 %11, i64* %PC
  %12 = add i64 16, %9
  store i64 %12, i64* %RSP, align 8
  %13 = icmp ult i64 %12, %9
  %14 = icmp ult i64 %12, 16
  %15 = or i1 %13, %14
  %16 = zext i1 %15 to i8
  %17 = getelementptr inbounds %struct.State, %struct.State* %0, i64 0, i32 2, i32 1
  store i8 %16, i8* %17, align 1
  %18 = trunc i64 %12 to i32
  %19 = and i32 %18, 255
  %20 = call i32 @llvm.ctpop.i32(i32 %19)
  %21 = trunc i32 %20 to i8
  %22 = and i8 %21, 1
  %23 = xor i8 %22, 1
  %24 = getelementptr inbounds %struct.State, %struct.State* %0, i64 0, i32 2, i32 3
  store i8 %23, i8* %24, align 1
  %25 = xor i64 16, %9
  %26 = xor i64 %25, %12
  %27 = lshr i64 %26, 4
  %28 = trunc i64 %27 to i8
  %29 = and i8 %28, 1
  %30 = getelementptr inbounds %struct.State, %struct.State* %0, i64 0, i32 2, i32 5
  store i8 %29, i8* %30, align 1
  %31 = icmp eq i64 %12, 0
  %32 = zext i1 %31 to i8
  %33 = getelementptr inbounds %struct.State, %struct.State* %0, i64 0, i32 2, i32 7
  store i8 %32, i8* %33, align 1
  %34 = lshr i64 %12, 63
  %35 = trunc i64 %34 to i8
  %36 = getelementptr inbounds %struct.State, %struct.State* %0, i64 0, i32 2, i32 9
  store i8 %35, i8* %36, align 1
  %37 = lshr i64 %9, 63
  %38 = xor i64 %34, %37
  %39 = add i64 %38, %34
  %40 = icmp eq i64 %39, 2
  %41 = zext i1 %40 to i8
  %42 = getelementptr inbounds %struct.State, %struct.State* %0, i64 0, i32 2, i32 13
  store i8 %41, i8* %42, align 1
  ret %struct.Memory* %2
}

define %struct.Memory* @routine_popq__rbp(%struct.State* dereferenceable(3376), i64, %struct.Memory*) {
block_400488:
  %3 = getelementptr inbounds %struct.State, %struct.State* %0, i32 0, i32 6
  %4 = getelementptr inbounds %struct.GPR, %struct.GPR* %3, i32 0, i32 33
  %5 = getelementptr inbounds %struct.Reg, %struct.Reg* %4, i32 0, i32 0
  %PC = bitcast %union.anon* %5 to i64*
  %6 = getelementptr inbounds %struct.State, %struct.State* %0, i32 0, i32 6
  %7 = getelementptr inbounds %struct.GPR, %struct.GPR* %6, i32 0, i32 15
  %8 = getelementptr inbounds %struct.Reg, %struct.Reg* %7, i32 0, i32 0
  %RBP = bitcast %union.anon* %8 to i64*
  %9 = load i64, i64* %PC
  %10 = add i64 %9, 1
  store i64 %10, i64* %PC
  %11 = getelementptr inbounds %struct.State, %struct.State* %0, i64 0, i32 6, i32 13, i32 0, i32 0
  %12 = load i64, i64* %11, align 8
  %13 = add i64 %12, 8
  %14 = inttoptr i64 %12 to i64*
  %15 = load i64, i64* %14
  store i64 %15, i64* %RBP, align 8
  store i64 %13, i64* %11, align 8
  ret %struct.Memory* %2
}

define %struct.Memory* @routine_retq(%struct.State* dereferenceable(3376), i64, %struct.Memory*) {
block_400488:
  %3 = getelementptr inbounds %struct.State, %struct.State* %0, i32 0, i32 6
  %4 = getelementptr inbounds %struct.GPR, %struct.GPR* %3, i32 0, i32 33
  %5 = getelementptr inbounds %struct.Reg, %struct.Reg* %4, i32 0, i32 0
  %PC = bitcast %union.anon* %5 to i64*
  %6 = load i64, i64* %PC
  %7 = add i64 %6, 1
  store i64 %7, i64* %PC
  %8 = getelementptr inbounds %struct.State, %struct.State* %0, i64 0, i32 6, i32 33, i32 0, i32 0
  %9 = getelementptr inbounds %struct.State, %struct.State* %0, i64 0, i32 6, i32 13, i32 0, i32 0
  %10 = load i64, i64* %9, align 8
  %11 = inttoptr i64 %10 to i64*
  %12 = load i64, i64* %11
  store i64 %12, i64* %8, align 8
  %13 = add i64 %10, 8
  store i64 %13, i64* %9, align 8
  ret %struct.Memory* %2
}

attributes #0 = { argmemonly nounwind }
attributes #1 = { nounwind readnone }
attributes #2 = { alwaysinline }
