; ModuleID = 'mcsema/test.proposed.ll'
source_filename = "llvm-link"
target datalayout = "e-m:e-i64:64-f80:128-n8:16:32:64-S128"
target triple = "x86_64-pc-linux-gnu-elf"

%union.anon = type { i64 }
%seg_400388__init_type = type <{ [23 x i8] }>
%seg_4003a0__text_type = type <{ [354 x i8] }>
%seg_400504__fini_type = type <{ [9 x i8] }>
%seg_400510__rodata_type = type <{ [4 x i8] }>
%seg_400514__eh_frame_hdr_type = type <{ [52 x i8] }>
%seg_400548__eh_frame_type = type <{ [208 x i8] }>
%seg_601018__data_type = type <{ [16 x i8] }>
%__bss_start_type = type <{ [8 x i8] }>
%seg_400514__fini_type = type <{ [9 x i8] }>
%seg_400520__rodata_type = type <{ [4 x i8] }>
%seg_400524__eh_frame_hdr_type = type <{ [52 x i8] }>
%seg_400558__eh_frame_type = type <{ [208 x i8] }>
%struct.State = type { %struct.ArchState, [32 x %union.VectorReg], %struct.ArithFlags, %union.anon, %struct.Segments, %struct.AddressSpace, %struct.GPR, %struct.X87Stack, %struct.MMX, %struct.FPUStatusFlags, %union.anon, %union.FPU, %struct.SegmentCaches }
%struct.ArchState = type { i32, i32, %union.anon }
%union.VectorReg = type { %union.vec512_t }
%union.vec512_t = type { %struct.uint64v8_t }
%struct.uint64v8_t = type { [8 x i64] }
%struct.ArithFlags = type { i8, i8, i8, i8, i8, i8, i8, i8, i8, i8, i8, i8, i8, i8, i8, i8 }
%struct.Segments = type { i16, %union.SegmentSelector, i16, %union.SegmentSelector, i16, %union.SegmentSelector, i16, %union.SegmentSelector, i16, %union.SegmentSelector, i16, %union.SegmentSelector }
%union.SegmentSelector = type { i16 }
%struct.AddressSpace = type { i64, %struct.Reg, i64, %struct.Reg, i64, %struct.Reg, i64, %struct.Reg, i64, %struct.Reg, i64, %struct.Reg }
%struct.Reg = type { %union.anon }
%struct.GPR = type { i64, %struct.Reg, i64, %struct.Reg, i64, %struct.Reg, i64, %struct.Reg, i64, %struct.Reg, i64, %struct.Reg, i64, %struct.Reg, i64, %struct.Reg, i64, %struct.Reg, i64, %struct.Reg, i64, %struct.Reg, i64, %struct.Reg, i64, %struct.Reg, i64, %struct.Reg, i64, %struct.Reg, i64, %struct.Reg, i64, %struct.Reg }
%struct.X87Stack = type { [8 x %struct.anon.3] }
%struct.anon.3 = type { i64, double }
%struct.MMX = type { [8 x %struct.anon.4] }
%struct.anon.4 = type { i64, %union.vec64_t }
%union.vec64_t = type { %struct.uint64v1_t }
%struct.uint64v1_t = type { [1 x i64] }
%struct.FPUStatusFlags = type { i8, i8, i8, i8, i8, i8, i8, i8, i8, i8, i8, i8, i8, i8, i8, i8, i8, i8, i8, i8, [4 x i8] }
%union.FPU = type { %struct.anon.13 }
%struct.anon.13 = type { %struct.FpuFXSAVE, [96 x i8] }
%struct.FpuFXSAVE = type { %union.SegmentSelector, %union.SegmentSelector, %union.FPUAbridgedTagWord, i8, i16, i32, %union.SegmentSelector, i16, i32, %union.SegmentSelector, i16, %union.FPUControlStatus, %union.FPUControlStatus, [8 x %struct.FPUStackElem], [16 x %union.vec128_t] }
%union.FPUAbridgedTagWord = type { i8 }
%union.FPUControlStatus = type { i32 }
%struct.FPUStackElem = type { %union.anon.11, [6 x i8] }
%union.anon.11 = type { %struct.float80_t }
%struct.float80_t = type { [10 x i8] }
%union.vec128_t = type { %struct.uint128v1_t }
%struct.uint128v1_t = type { [1 x i128] }
%struct.SegmentCaches = type { %struct.SegmentShadow, %struct.SegmentShadow, %struct.SegmentShadow, %struct.SegmentShadow, %struct.SegmentShadow, %struct.SegmentShadow }
%struct.SegmentShadow = type { %union.anon, i32, i32 }
%struct.Memory = type opaque

@switch.table = private unnamed_addr constant [4 x i32] [i32 2048, i32 3072, i32 0, i32 1024]
@DR0 = external global i64, align 8
@DR1 = external global i64, align 8
@DR2 = external global i64, align 8
@DR3 = external global i64, align 8
@DR4 = external global i64, align 8
@DR5 = external global i64, align 8
@DR6 = external global i64, align 8
@DR7 = external global i64, align 8
@gCR0 = external global %union.anon, align 1
@gCR1 = external global %union.anon, align 1
@gCR2 = external global %union.anon, align 1
@gCR3 = external global %union.anon, align 1
@gCR4 = external global %union.anon, align 1
@gCR8 = external global %union.anon, align 1
@seg_400388__init = internal constant %seg_400388__init_type <{ [23 x i8] c"H\83\EC\08H\8B\05e\0C \00H\85\C0t\02\FF\D0H\83\C4\08\C3" }>
@seg_4003a0__text = internal constant %seg_4003a0__text_type <{ [354 x i8] c"1\EDI\89\D1^H\89\E2H\83\E4\F0PTI\C7\C0\00\05@\00H\C7\C1\90\04@\00H\C7\C7\88\04@\00\FF\15&\0C \00\F4\0F\1FD\00\00\F3\C3f.\0F\1F\84\00\00\00\00\00\0F\1F@\00U\B8(\10`\00H=(\10`\00H\89\E5t\17\B8\00\00\00\00H\85\C0t\0D]\BF(\10`\00\FF\E0\0F\1FD\00\00]\C3f\0F\1FD\00\00\BE(\10`\00UH\81\EE(\10`\00H\89\E5H\C1\FE\03H\89\F0H\C1\E8?H\01\C6H\D1\FEt\15\B8\00\00\00\00H\85\C0t\0B]\BF(\10`\00\FF\E0\0F\1F\00]\C3f\0F\1FD\00\00\80=\D1\0B \00\00u\17UH\89\E5\E8~\FF\FF\FF\C6\05\BF\0B \00\01]\C3\0F\1FD\00\00\F3\C3\0F\1F@\00f.\0F\1F\84\00\00\00\00\00UH\89\E5]\EB\89\90U\C3f\0F\1FD\00\00AWAVI\89\D7AUATL\8D%\9E\09 \00UH\8D-\9E\09 \00SA\89\FDI\89\F6L)\E5H\83\EC\08H\C1\FD\03\E8\C7\FE\FF\FFH\85\EDt 1\DB\0F\1F\84\00\00\00\00\00L\89\FAL\89\F6D\89\EFA\FF\14\DCH\83\C3\01H9\DDu\EAH\83\C4\08[]A\5CA]A^A_\C3\90f.\0F\1F\84\00\00\00\00\00\F3\C3" }>
@seg_400504__fini = internal constant %seg_400504__fini_type <{ [9 x i8] c"H\83\EC\08H\83\C4\08\C3" }>
@seg_400510__rodata = internal constant %seg_400510__rodata_type <{ [4 x i8] c"\01\00\02\00" }>
@seg_400514__eh_frame_hdr = internal constant %seg_400514__eh_frame_hdr_type <{ [52 x i8] c"\01\1B\03;0\00\00\00\05\00\00\00\8C\FE\FF\FFL\00\00\00\BC\FE\FF\FFx\00\00\00t\FF\FF\FF\8C\00\00\00|\FF\FF\FF\A4\00\00\00\EC\FF\FF\FF\EC\00\00\00" }>
@seg_400548__eh_frame = internal constant %seg_400548__eh_frame_type <{ [208 x i8] c"\14\00\00\00\00\00\00\00\01zR\00\01x\10\01\1B\0C\07\08\90\01\07\10\10\00\00\00\1C\00\00\008\FE\FF\FF+\00\00\00\00\00\00\00\14\00\00\00\00\00\00\00\01zR\00\01x\10\01\1B\0C\07\08\90\01\00\00\10\00\00\00\1C\00\00\00<\FE\FF\FF\02\00\00\00\00\00\00\00\14\00\00\000\00\00\00\E0\FE\FF\FF\02\00\00\00\00\00\00\00\00\00\00\00D\00\00\00H\00\00\00\D0\FE\FF\FFe\00\00\00\00B\0E\10\8F\02B\0E\18\8E\03E\0E \8D\04B\0E(\8C\05H\0E0\86\06H\0E8\83\07M\0E@r\0E8A\0E0A\0E(B\0E B\0E\18B\0E\10B\0E\08\00\10\00\00\00\90\00\00\00\F8\FE\FF\FF\02\00\00\00\00\00\00\00\00\00\00\00" }>
@seg_601018__data = internal global %seg_601018__data_type zeroinitializer
@__bss_start = global %__bss_start_type zeroinitializer
@0 = internal global i1 false
@seg_400514__fini = internal constant %seg_400514__fini_type <{ [9 x i8] c"H\83\EC\08H\83\C4\08\C3" }>
@seg_400520__rodata = internal constant %seg_400520__rodata_type <{ [4 x i8] c"\01\00\02\00" }>
@seg_400524__eh_frame_hdr = internal constant %seg_400524__eh_frame_hdr_type <{ [52 x i8] c"\01\1B\03;0\00\00\00\05\00\00\00|\FE\FF\FFL\00\00\00\AC\FE\FF\FFx\00\00\00d\FF\FF\FF\8C\00\00\00|\FF\FF\FF\A4\00\00\00\EC\FF\FF\FF\EC\00\00\00" }>
@seg_400558__eh_frame = internal constant %seg_400558__eh_frame_type <{ [208 x i8] c"\14\00\00\00\00\00\00\00\01zR\00\01x\10\01\1B\0C\07\08\90\01\07\10\10\00\00\00\1C\00\00\00(\FE\FF\FF+\00\00\00\00\00\00\00\14\00\00\00\00\00\00\00\01zR\00\01x\10\01\1B\0C\07\08\90\01\00\00\10\00\00\00\1C\00\00\00,\FE\FF\FF\02\00\00\00\00\00\00\00\14\00\00\000\00\00\00\D0\FE\FF\FF\09\00\00\00\00\00\00\00\00\00\00\00D\00\00\00H\00\00\00\D0\FE\FF\FFe\00\00\00\00B\0E\10\8F\02B\0E\18\8E\03E\0E \8D\04B\0E(\8C\05H\0E0\86\06H\0E8\83\07M\0E@r\0E8A\0E0A\0E(B\0E B\0E\18B\0E\10B\0E\08\00\10\00\00\00\90\00\00\00\F8\FE\FF\FF\02\00\00\00\00\00\00\00\00\00\00\00" }>

declare %struct.Memory* @__remill_error(%struct.State* dereferenceable(3376), i64, %struct.Memory*)

declare i32 @__remill_fpu_exception_test_and_clear(i32, i32)

; Function Attrs: argmemonly nounwind
declare void @llvm.lifetime.start(i64, i8* nocapture) #0

; Function Attrs: argmemonly nounwind
declare void @llvm.lifetime.end(i64, i8* nocapture) #0

; Function Attrs: nounwind readnone
declare i32 @llvm.ctpop.i32(i32) #1

; Function Attrs: nounwind readnone
declare i32 @llvm.bswap.i32(i32) #1

; Function Attrs: nounwind readnone
declare i64 @llvm.bswap.i64(i64) #1

; Function Attrs: nounwind readnone
declare i32 @llvm.cttz.i32(i32, i1) #1

; Function Attrs: nounwind readnone
declare i64 @llvm.cttz.i64(i64, i1) #1

; Function Attrs: nounwind readnone
declare i32 @llvm.ctlz.i32(i32, i1) #1

; Function Attrs: nounwind readnone
declare i64 @llvm.ctlz.i64(i64, i1) #1

; Function Attrs: argmemonly nounwind
declare void @llvm.memcpy.p0i8.p0i8.i64(i8* nocapture writeonly, i8* nocapture readonly, i64, i32, i1) #0

; Function Attrs: nounwind readnone
declare double @llvm.nearbyint.f64(double) #1

; Function Attrs: nounwind readnone
declare double @llvm.fabs.f64(double) #1

; Function Attrs: nounwind readnone
declare <4 x double> @llvm.nearbyint.v4f64(<4 x double>) #1

; Function Attrs: nounwind readnone
declare <4 x double> @llvm.fabs.v4f64(<4 x double>) #1

; Function Attrs: nounwind readnone
declare double @llvm.trunc.f64(double) #1

; Function Attrs: nounwind readnone
declare <4 x double> @llvm.trunc.v4f64(<4 x double>) #1

; Function Attrs: nounwind readnone
declare float @llvm.nearbyint.f32(float) #1

; Function Attrs: nounwind readnone
declare float @llvm.fabs.f32(float) #1

; Function Attrs: nounwind readnone
declare <4 x float> @llvm.nearbyint.v4f32(<4 x float>) #1

; Function Attrs: nounwind readnone
declare <4 x float> @llvm.fabs.v4f32(<4 x float>) #1

; Function Attrs: nounwind readnone
declare float @llvm.trunc.f32(float) #1

; Function Attrs: nounwind readnone
declare <4 x float> @llvm.trunc.v4f32(<4 x float>) #1

; Function Attrs: argmemonly nounwind
declare void @llvm.memset.p0i8.i64(i8* nocapture writeonly, i8, i64, i32, i1) #0

declare double @atan(double) local_unnamed_addr

declare double @cos(double) local_unnamed_addr

declare double @sin(double) local_unnamed_addr

declare double @sqrt(double) local_unnamed_addr

declare double @tan(double) local_unnamed_addr

declare extern_weak x86_64_sysvcc i64 @abort()

declare extern_weak x86_64_sysvcc i64 @abs(i64)

declare extern_weak x86_64_sysvcc i64 @asin(i64)

declare extern_weak x86_64_sysvcc i64 @atof(i64)

declare extern_weak x86_64_sysvcc i64 @atoi(i64)

declare extern_weak x86_64_sysvcc i64 @atol(i64)

declare extern_weak x86_64_sysvcc i64 @calloc(i64, i64)

declare extern_weak x86_64_sysvcc i64 @clock()

declare extern_weak x86_64_sysvcc i64 @cosf(i64)

declare extern_weak x86_64_sysvcc i64 @exit(i64)

declare extern_weak x86_64_sysvcc i64 @exp(i64)

declare extern_weak x86_64_sysvcc i64 @fflush(i64)

declare extern_weak x86_64_sysvcc i64 @floor(i64)

declare extern_weak x86_64_sysvcc i64 @fprintf(i64, i64, i64, i64, i64, i64, i64, i64, i64, i64, i64, i64, i64, i64, i64, i64)

declare extern_weak x86_64_sysvcc i64 @fputs(i64, i64)

declare extern_weak x86_64_sysvcc i64 @free(i64)

declare extern_weak x86_64_sysvcc i64 @fwrite(i64, i64, i64, i64)

declare extern_weak x86_64_sysvcc i64 @getchar()

declare extern_weak x86_64_sysvcc i64 @gettimeofday(i64, i64)

declare extern_weak x86_64_sysvcc i64 @__isoc99_fscanf(i64, i64, i64, i64, i64, i64, i64, i64, i64, i64, i64, i64, i64, i64, i64, i64)

declare extern_weak x86_64_sysvcc i64 @__isoc99_scanf(i64, i64, i64, i64, i64, i64, i64, i64, i64, i64, i64, i64, i64, i64, i64, i64)

declare extern_weak x86_64_sysvcc i64 @__isoc99_sscanf(i64, i64, i64, i64, i64, i64, i64, i64, i64, i64, i64, i64, i64, i64, i64, i64)

declare extern_weak x86_64_sysvcc i64 @log(i64)

declare extern_weak x86_64_sysvcc i64 @lrand48()

declare extern_weak x86_64_sysvcc i64 @malloc(i64)

declare extern_weak x86_64_sysvcc i64 @memalign(i64, i64)

declare extern_weak x86_64_sysvcc i64 @memcpy(i64, i64, i64)

declare extern_weak x86_64_sysvcc i64 @memset(i64, i64, i64)

declare extern_weak x86_64_sysvcc i64 @perror(i64)

declare extern_weak x86_64_sysvcc i64 @posix_memalign(i64, i64, i64)

declare extern_weak x86_64_sysvcc i64 @pow(i64, i64)

declare extern_weak x86_64_sysvcc i64 @printf(i64, i64, i64, i64, i64, i64, i64, i64, i64, i64, i64, i64, i64, i64, i64, i64)

declare extern_weak x86_64_sysvcc i64 @putchar(i64)

declare extern_weak x86_64_sysvcc i64 @puts(i64)

declare extern_weak x86_64_sysvcc i64 @rand()

declare extern_weak x86_64_sysvcc i64 @random()

declare extern_weak x86_64_sysvcc i64 @realloc(i64, i64)

declare extern_weak x86_64_sysvcc i64 @seed48(i64)

declare extern_weak x86_64_sysvcc i64 @sinf(i64)

declare extern_weak x86_64_sysvcc i64 @sprintf(i64, i64, i64, i64, i64, i64, i64, i64, i64, i64, i64, i64, i64, i64, i64, i64)

declare extern_weak x86_64_sysvcc i64 @srand(i64)

declare extern_weak x86_64_sysvcc i64 @strcat(i64, i64)

declare extern_weak x86_64_sysvcc i64 @strcmp(i64, i64)

declare extern_weak x86_64_sysvcc i64 @strcpy(i64, i64)

declare extern_weak x86_64_sysvcc i64 @strdup(i64)

declare extern_weak x86_64_sysvcc i64 @strlen(i64)

declare extern_weak x86_64_sysvcc i64 @strncmp(i64, i64, i64)

declare extern_weak x86_64_sysvcc i64 @strtoll(i64, i64, i64)

declare extern_weak x86_64_sysvcc i64 @time(i64)

declare extern_weak x86_64_sysvcc i64 @ungetc(i64, i64)

declare extern_weak x86_64_sysvcc i64 @pthread_join(i64, i64)

declare extern_weak x86_64_sysvcc i64 @pthread_create(i64, i64, i64, i64)

declare %struct.Memory* @__remill_function_call(%struct.State* dereferenceable(3376), i64, %struct.Memory*)

declare %struct.Memory* @ext_sqrt(%struct.State* noalias dereferenceable(3376), i64, %struct.Memory* noalias)

declare %struct.Memory* @ext_atan(%struct.State* noalias dereferenceable(3376), i64, %struct.Memory* noalias)

declare %struct.Memory* @ext_cos(%struct.State* noalias dereferenceable(3376), i64, %struct.Memory* noalias)

declare %struct.Memory* @ext_tan(%struct.State* noalias dereferenceable(3376), i64, %struct.Memory* noalias)

declare %struct.Memory* @ext_sin(%struct.State* noalias dereferenceable(3376), i64, %struct.Memory* noalias)

declare %struct.Memory* @sub_428ce0.influence_mark_non_territory(%struct.State* noalias dereferenceable(3376), i64, %struct.Memory* noalias readnone returned)

; Function Attrs: alwaysinline
define %struct.Memory* @autohelperbarrierspat144(%struct.State* noalias, i64, %struct.Memory* noalias) #2 {
entry:
  %3 = getelementptr inbounds %struct.State, %struct.State* %0, i64 0, i32 6, i32 33, i32 0, i32 0
  store i64 %1, i64* %3, align 8
  %BRANCH_TAKEN = alloca i8, align 1
  store i8 0, i8* %BRANCH_TAKEN, align 1
  %MEMORY = alloca %struct.Memory*, align 8
  store %struct.Memory* %2, %struct.Memory** %MEMORY, align 8
  %loadMem_49f0b0 = load %struct.Memory*, %struct.Memory** %MEMORY
  %4 = getelementptr inbounds %struct.State, %struct.State* %0, i32 0, i32 6
  %5 = getelementptr inbounds %struct.GPR, %struct.GPR* %4, i32 0, i32 33
  %6 = getelementptr inbounds %struct.Reg, %struct.Reg* %5, i32 0, i32 0
  %PC.i = bitcast %union.anon* %6 to i64*
  %7 = getelementptr inbounds %struct.State, %struct.State* %0, i32 0, i32 6
  %8 = getelementptr inbounds %struct.GPR, %struct.GPR* %7, i32 0, i32 15
  %9 = getelementptr inbounds %struct.Reg, %struct.Reg* %8, i32 0, i32 0
  %RBP.i = bitcast %union.anon* %9 to i64*
  %10 = load i64, i64* %RBP.i
  %11 = load i64, i64* %PC.i
  %12 = add i64 %11, 1
  store i64 %12, i64* %PC.i
  %13 = getelementptr inbounds %struct.State, %struct.State* %0, i64 0, i32 6, i32 13, i32 0, i32 0
  %14 = load i64, i64* %13, align 8
  %15 = add i64 %14, -8
  %16 = inttoptr i64 %15 to i64*
  store i64 %10, i64* %16
  store i64 %15, i64* %13, align 8
  store %struct.Memory* %loadMem_49f0b0, %struct.Memory** %MEMORY
  %loadMem_49f0b1 = load %struct.Memory*, %struct.Memory** %MEMORY
  %17 = getelementptr inbounds %struct.State, %struct.State* %0, i32 0, i32 6
  %18 = getelementptr inbounds %struct.GPR, %struct.GPR* %17, i32 0, i32 33
  %19 = getelementptr inbounds %struct.Reg, %struct.Reg* %18, i32 0, i32 0
  %PC.i60 = bitcast %union.anon* %19 to i64*
  %20 = getelementptr inbounds %struct.State, %struct.State* %0, i32 0, i32 6
  %21 = getelementptr inbounds %struct.GPR, %struct.GPR* %20, i32 0, i32 13
  %22 = getelementptr inbounds %struct.Reg, %struct.Reg* %21, i32 0, i32 0
  %RSP.i61 = bitcast %union.anon* %22 to i64*
  %23 = getelementptr inbounds %struct.State, %struct.State* %0, i32 0, i32 6
  %24 = getelementptr inbounds %struct.GPR, %struct.GPR* %23, i32 0, i32 15
  %25 = getelementptr inbounds %struct.Reg, %struct.Reg* %24, i32 0, i32 0
  %RBP.i62 = bitcast %union.anon* %25 to i64*
  %26 = load i64, i64* %RSP.i61
  %27 = load i64, i64* %PC.i60
  %28 = add i64 %27, 3
  store i64 %28, i64* %PC.i60
  store i64 %26, i64* %RBP.i62, align 8
  store %struct.Memory* %loadMem_49f0b1, %struct.Memory** %MEMORY
  %loadMem_49f0b4 = load %struct.Memory*, %struct.Memory** %MEMORY
  %29 = getelementptr inbounds %struct.State, %struct.State* %0, i32 0, i32 6
  %30 = getelementptr inbounds %struct.GPR, %struct.GPR* %29, i32 0, i32 33
  %31 = getelementptr inbounds %struct.Reg, %struct.Reg* %30, i32 0, i32 0
  %PC.i58 = bitcast %union.anon* %31 to i64*
  %32 = getelementptr inbounds %struct.State, %struct.State* %0, i32 0, i32 6
  %33 = getelementptr inbounds %struct.GPR, %struct.GPR* %32, i32 0, i32 13
  %34 = getelementptr inbounds %struct.Reg, %struct.Reg* %33, i32 0, i32 0
  %RSP.i59 = bitcast %union.anon* %34 to i64*
  %35 = load i64, i64* %RSP.i59
  %36 = load i64, i64* %PC.i58
  %37 = add i64 %36, 4
  store i64 %37, i64* %PC.i58
  %38 = sub i64 %35, 32
  store i64 %38, i64* %RSP.i59, align 8
  %39 = icmp ult i64 %35, 32
  %40 = zext i1 %39 to i8
  %41 = getelementptr inbounds %struct.State, %struct.State* %0, i64 0, i32 2, i32 1
  store i8 %40, i8* %41, align 1
  %42 = trunc i64 %38 to i32
  %43 = and i32 %42, 255
  %44 = call i32 @llvm.ctpop.i32(i32 %43)
  %45 = trunc i32 %44 to i8
  %46 = and i8 %45, 1
  %47 = xor i8 %46, 1
  %48 = getelementptr inbounds %struct.State, %struct.State* %0, i64 0, i32 2, i32 3
  store i8 %47, i8* %48, align 1
  %49 = xor i64 32, %35
  %50 = xor i64 %49, %38
  %51 = lshr i64 %50, 4
  %52 = trunc i64 %51 to i8
  %53 = and i8 %52, 1
  %54 = getelementptr inbounds %struct.State, %struct.State* %0, i64 0, i32 2, i32 5
  store i8 %53, i8* %54, align 1
  %55 = icmp eq i64 %38, 0
  %56 = zext i1 %55 to i8
  %57 = getelementptr inbounds %struct.State, %struct.State* %0, i64 0, i32 2, i32 7
  store i8 %56, i8* %57, align 1
  %58 = lshr i64 %38, 63
  %59 = trunc i64 %58 to i8
  %60 = getelementptr inbounds %struct.State, %struct.State* %0, i64 0, i32 2, i32 9
  store i8 %59, i8* %60, align 1
  %61 = lshr i64 %35, 63
  %62 = xor i64 %58, %61
  %63 = add i64 %62, %61
  %64 = icmp eq i64 %63, 2
  %65 = zext i1 %64 to i8
  %66 = getelementptr inbounds %struct.State, %struct.State* %0, i64 0, i32 2, i32 13
  store i8 %65, i8* %66, align 1
  store %struct.Memory* %loadMem_49f0b4, %struct.Memory** %MEMORY
  %loadMem_49f0b8 = load %struct.Memory*, %struct.Memory** %MEMORY
  %67 = getelementptr inbounds %struct.State, %struct.State* %0, i32 0, i32 6
  %68 = getelementptr inbounds %struct.GPR, %struct.GPR* %67, i32 0, i32 33
  %69 = getelementptr inbounds %struct.Reg, %struct.Reg* %68, i32 0, i32 0
  %PC.i56 = bitcast %union.anon* %69 to i64*
  %70 = getelementptr inbounds %struct.State, %struct.State* %0, i32 0, i32 6
  %71 = getelementptr inbounds %struct.GPR, %struct.GPR* %70, i32 0, i32 1
  %72 = getelementptr inbounds %struct.Reg, %struct.Reg* %71, i32 0, i32 0
  %RAX.i57 = bitcast %union.anon* %72 to i64*
  %73 = load i64, i64* %PC.i56
  %74 = add i64 %73, 5
  store i64 %74, i64* %PC.i56
  store i64 3, i64* %RAX.i57, align 8
  store %struct.Memory* %loadMem_49f0b8, %struct.Memory** %MEMORY
  %loadMem_49f0bd = load %struct.Memory*, %struct.Memory** %MEMORY
  %75 = getelementptr inbounds %struct.State, %struct.State* %0, i32 0, i32 6
  %76 = getelementptr inbounds %struct.GPR, %struct.GPR* %75, i32 0, i32 33
  %77 = getelementptr inbounds %struct.Reg, %struct.Reg* %76, i32 0, i32 0
  %PC.i54 = bitcast %union.anon* %77 to i64*
  %78 = getelementptr inbounds %struct.State, %struct.State* %0, i32 0, i32 6
  %79 = getelementptr inbounds %struct.GPR, %struct.GPR* %78, i32 0, i32 11
  %80 = getelementptr inbounds %struct.Reg, %struct.Reg* %79, i32 0, i32 0
  %EDI.i = bitcast %union.anon* %80 to i32*
  %81 = getelementptr inbounds %struct.State, %struct.State* %0, i32 0, i32 6
  %82 = getelementptr inbounds %struct.GPR, %struct.GPR* %81, i32 0, i32 15
  %83 = getelementptr inbounds %struct.Reg, %struct.Reg* %82, i32 0, i32 0
  %RBP.i55 = bitcast %union.anon* %83 to i64*
  %84 = load i64, i64* %RBP.i55
  %85 = sub i64 %84, 4
  %86 = load i32, i32* %EDI.i
  %87 = zext i32 %86 to i64
  %88 = load i64, i64* %PC.i54
  %89 = add i64 %88, 3
  store i64 %89, i64* %PC.i54
  %90 = inttoptr i64 %85 to i32*
  store i32 %86, i32* %90
  store %struct.Memory* %loadMem_49f0bd, %struct.Memory** %MEMORY
  %loadMem_49f0c0 = load %struct.Memory*, %struct.Memory** %MEMORY
  %91 = getelementptr inbounds %struct.State, %struct.State* %0, i32 0, i32 6
  %92 = getelementptr inbounds %struct.GPR, %struct.GPR* %91, i32 0, i32 33
  %93 = getelementptr inbounds %struct.Reg, %struct.Reg* %92, i32 0, i32 0
  %PC.i52 = bitcast %union.anon* %93 to i64*
  %94 = getelementptr inbounds %struct.State, %struct.State* %0, i32 0, i32 6
  %95 = getelementptr inbounds %struct.GPR, %struct.GPR* %94, i32 0, i32 9
  %96 = getelementptr inbounds %struct.Reg, %struct.Reg* %95, i32 0, i32 0
  %ESI.i = bitcast %union.anon* %96 to i32*
  %97 = getelementptr inbounds %struct.State, %struct.State* %0, i32 0, i32 6
  %98 = getelementptr inbounds %struct.GPR, %struct.GPR* %97, i32 0, i32 15
  %99 = getelementptr inbounds %struct.Reg, %struct.Reg* %98, i32 0, i32 0
  %RBP.i53 = bitcast %union.anon* %99 to i64*
  %100 = load i64, i64* %RBP.i53
  %101 = sub i64 %100, 8
  %102 = load i32, i32* %ESI.i
  %103 = zext i32 %102 to i64
  %104 = load i64, i64* %PC.i52
  %105 = add i64 %104, 3
  store i64 %105, i64* %PC.i52
  %106 = inttoptr i64 %101 to i32*
  store i32 %102, i32* %106
  store %struct.Memory* %loadMem_49f0c0, %struct.Memory** %MEMORY
  %loadMem_49f0c3 = load %struct.Memory*, %struct.Memory** %MEMORY
  %107 = getelementptr inbounds %struct.State, %struct.State* %0, i32 0, i32 6
  %108 = getelementptr inbounds %struct.GPR, %struct.GPR* %107, i32 0, i32 33
  %109 = getelementptr inbounds %struct.Reg, %struct.Reg* %108, i32 0, i32 0
  %PC.i50 = bitcast %union.anon* %109 to i64*
  %110 = getelementptr inbounds %struct.State, %struct.State* %0, i32 0, i32 6
  %111 = getelementptr inbounds %struct.GPR, %struct.GPR* %110, i32 0, i32 7
  %112 = getelementptr inbounds %struct.Reg, %struct.Reg* %111, i32 0, i32 0
  %EDX.i = bitcast %union.anon* %112 to i32*
  %113 = getelementptr inbounds %struct.State, %struct.State* %0, i32 0, i32 6
  %114 = getelementptr inbounds %struct.GPR, %struct.GPR* %113, i32 0, i32 15
  %115 = getelementptr inbounds %struct.Reg, %struct.Reg* %114, i32 0, i32 0
  %RBP.i51 = bitcast %union.anon* %115 to i64*
  %116 = load i64, i64* %RBP.i51
  %117 = sub i64 %116, 12
  %118 = load i32, i32* %EDX.i
  %119 = zext i32 %118 to i64
  %120 = load i64, i64* %PC.i50
  %121 = add i64 %120, 3
  store i64 %121, i64* %PC.i50
  %122 = inttoptr i64 %117 to i32*
  store i32 %118, i32* %122
  store %struct.Memory* %loadMem_49f0c3, %struct.Memory** %MEMORY
  %loadMem_49f0c6 = load %struct.Memory*, %struct.Memory** %MEMORY
  %123 = getelementptr inbounds %struct.State, %struct.State* %0, i32 0, i32 6
  %124 = getelementptr inbounds %struct.GPR, %struct.GPR* %123, i32 0, i32 33
  %125 = getelementptr inbounds %struct.Reg, %struct.Reg* %124, i32 0, i32 0
  %PC.i47 = bitcast %union.anon* %125 to i64*
  %126 = getelementptr inbounds %struct.State, %struct.State* %0, i32 0, i32 6
  %127 = getelementptr inbounds %struct.GPR, %struct.GPR* %126, i32 0, i32 5
  %128 = getelementptr inbounds %struct.Reg, %struct.Reg* %127, i32 0, i32 0
  %ECX.i48 = bitcast %union.anon* %128 to i32*
  %129 = getelementptr inbounds %struct.State, %struct.State* %0, i32 0, i32 6
  %130 = getelementptr inbounds %struct.GPR, %struct.GPR* %129, i32 0, i32 15
  %131 = getelementptr inbounds %struct.Reg, %struct.Reg* %130, i32 0, i32 0
  %RBP.i49 = bitcast %union.anon* %131 to i64*
  %132 = load i64, i64* %RBP.i49
  %133 = sub i64 %132, 16
  %134 = load i32, i32* %ECX.i48
  %135 = zext i32 %134 to i64
  %136 = load i64, i64* %PC.i47
  %137 = add i64 %136, 3
  store i64 %137, i64* %PC.i47
  %138 = inttoptr i64 %133 to i32*
  store i32 %134, i32* %138
  store %struct.Memory* %loadMem_49f0c6, %struct.Memory** %MEMORY
  %loadMem_49f0c9 = load %struct.Memory*, %struct.Memory** %MEMORY
  %139 = getelementptr inbounds %struct.State, %struct.State* %0, i32 0, i32 6
  %140 = getelementptr inbounds %struct.GPR, %struct.GPR* %139, i32 0, i32 33
  %141 = getelementptr inbounds %struct.Reg, %struct.Reg* %140, i32 0, i32 0
  %PC.i44 = bitcast %union.anon* %141 to i64*
  %142 = getelementptr inbounds %struct.State, %struct.State* %0, i32 0, i32 6
  %143 = getelementptr inbounds %struct.GPR, %struct.GPR* %142, i32 0, i32 15
  %144 = getelementptr inbounds %struct.Reg, %struct.Reg* %143, i32 0, i32 0
  %RBP.i45 = bitcast %union.anon* %144 to i64*
  %145 = getelementptr inbounds %struct.State, %struct.State* %0, i32 0, i32 6
  %146 = getelementptr inbounds %struct.GPR, %struct.GPR* %145, i32 0, i32 17
  %147 = getelementptr inbounds %struct.Reg, %struct.Reg* %146, i32 0, i32 0
  %R8.i46 = bitcast %union.anon* %147 to i64*
  %148 = load i64, i64* %RBP.i45
  %149 = sub i64 %148, 4
  %150 = load i64, i64* %PC.i44
  %151 = add i64 %150, 4
  store i64 %151, i64* %PC.i44
  %152 = inttoptr i64 %149 to i32*
  %153 = load i32, i32* %152
  %154 = sext i32 %153 to i64
  store i64 %154, i64* %R8.i46, align 8
  store %struct.Memory* %loadMem_49f0c9, %struct.Memory** %MEMORY
  %loadMem_49f0cd = load %struct.Memory*, %struct.Memory** %MEMORY
  %155 = getelementptr inbounds %struct.State, %struct.State* %0, i32 0, i32 6
  %156 = getelementptr inbounds %struct.GPR, %struct.GPR* %155, i32 0, i32 33
  %157 = getelementptr inbounds %struct.Reg, %struct.Reg* %156, i32 0, i32 0
  %PC.i41 = bitcast %union.anon* %157 to i64*
  %158 = getelementptr inbounds %struct.State, %struct.State* %0, i32 0, i32 6
  %159 = getelementptr inbounds %struct.GPR, %struct.GPR* %158, i32 0, i32 5
  %160 = getelementptr inbounds %struct.Reg, %struct.Reg* %159, i32 0, i32 0
  %RCX.i42 = bitcast %union.anon* %160 to i64*
  %161 = getelementptr inbounds %struct.State, %struct.State* %0, i32 0, i32 6
  %162 = getelementptr inbounds %struct.GPR, %struct.GPR* %161, i32 0, i32 17
  %163 = getelementptr inbounds %struct.Reg, %struct.Reg* %162, i32 0, i32 0
  %R8.i43 = bitcast %union.anon* %163 to i64*
  %164 = load i64, i64* %R8.i43
  %165 = mul i64 %164, 4
  %166 = add i64 %165, 11901264
  %167 = load i64, i64* %PC.i41
  %168 = add i64 %167, 8
  store i64 %168, i64* %PC.i41
  %169 = inttoptr i64 %166 to i32*
  %170 = load i32, i32* %169
  %171 = zext i32 %170 to i64
  store i64 %171, i64* %RCX.i42, align 8
  store %struct.Memory* %loadMem_49f0cd, %struct.Memory** %MEMORY
  %loadMem_49f0d5 = load %struct.Memory*, %struct.Memory** %MEMORY
  %172 = getelementptr inbounds %struct.State, %struct.State* %0, i32 0, i32 6
  %173 = getelementptr inbounds %struct.GPR, %struct.GPR* %172, i32 0, i32 33
  %174 = getelementptr inbounds %struct.Reg, %struct.Reg* %173, i32 0, i32 0
  %PC.i38 = bitcast %union.anon* %174 to i64*
  %175 = getelementptr inbounds %struct.State, %struct.State* %0, i32 0, i32 6
  %176 = getelementptr inbounds %struct.GPR, %struct.GPR* %175, i32 0, i32 5
  %177 = getelementptr inbounds %struct.Reg, %struct.Reg* %176, i32 0, i32 0
  %RCX.i39 = bitcast %union.anon* %177 to i64*
  %178 = getelementptr inbounds %struct.State, %struct.State* %0, i32 0, i32 6
  %179 = getelementptr inbounds %struct.GPR, %struct.GPR* %178, i32 0, i32 15
  %180 = getelementptr inbounds %struct.Reg, %struct.Reg* %179, i32 0, i32 0
  %RBP.i40 = bitcast %union.anon* %180 to i64*
  %181 = load i64, i64* %RCX.i39
  %182 = load i64, i64* %RBP.i40
  %183 = sub i64 %182, 8
  %184 = load i64, i64* %PC.i38
  %185 = add i64 %184, 3
  store i64 %185, i64* %PC.i38
  %186 = trunc i64 %181 to i32
  %187 = inttoptr i64 %183 to i32*
  %188 = load i32, i32* %187
  %189 = add i32 %188, %186
  %190 = zext i32 %189 to i64
  store i64 %190, i64* %RCX.i39, align 8
  %191 = icmp ult i32 %189, %186
  %192 = icmp ult i32 %189, %188
  %193 = or i1 %191, %192
  %194 = zext i1 %193 to i8
  %195 = getelementptr inbounds %struct.State, %struct.State* %0, i64 0, i32 2, i32 1
  store i8 %194, i8* %195, align 1
  %196 = and i32 %189, 255
  %197 = call i32 @llvm.ctpop.i32(i32 %196)
  %198 = trunc i32 %197 to i8
  %199 = and i8 %198, 1
  %200 = xor i8 %199, 1
  %201 = getelementptr inbounds %struct.State, %struct.State* %0, i64 0, i32 2, i32 3
  store i8 %200, i8* %201, align 1
  %202 = xor i32 %188, %186
  %203 = xor i32 %202, %189
  %204 = lshr i32 %203, 4
  %205 = trunc i32 %204 to i8
  %206 = and i8 %205, 1
  %207 = getelementptr inbounds %struct.State, %struct.State* %0, i64 0, i32 2, i32 5
  store i8 %206, i8* %207, align 1
  %208 = icmp eq i32 %189, 0
  %209 = zext i1 %208 to i8
  %210 = getelementptr inbounds %struct.State, %struct.State* %0, i64 0, i32 2, i32 7
  store i8 %209, i8* %210, align 1
  %211 = lshr i32 %189, 31
  %212 = trunc i32 %211 to i8
  %213 = getelementptr inbounds %struct.State, %struct.State* %0, i64 0, i32 2, i32 9
  store i8 %212, i8* %213, align 1
  %214 = lshr i32 %186, 31
  %215 = lshr i32 %188, 31
  %216 = xor i32 %211, %214
  %217 = xor i32 %211, %215
  %218 = add i32 %216, %217
  %219 = icmp eq i32 %218, 2
  %220 = zext i1 %219 to i8
  %221 = getelementptr inbounds %struct.State, %struct.State* %0, i64 0, i32 2, i32 13
  store i8 %220, i8* %221, align 1
  store %struct.Memory* %loadMem_49f0d5, %struct.Memory** %MEMORY
  %loadMem_49f0d8 = load %struct.Memory*, %struct.Memory** %MEMORY
  %222 = getelementptr inbounds %struct.State, %struct.State* %0, i32 0, i32 6
  %223 = getelementptr inbounds %struct.GPR, %struct.GPR* %222, i32 0, i32 33
  %224 = getelementptr inbounds %struct.Reg, %struct.Reg* %223, i32 0, i32 0
  %PC.i35 = bitcast %union.anon* %224 to i64*
  %225 = getelementptr inbounds %struct.State, %struct.State* %0, i32 0, i32 6
  %226 = getelementptr inbounds %struct.GPR, %struct.GPR* %225, i32 0, i32 5
  %227 = getelementptr inbounds %struct.Reg, %struct.Reg* %226, i32 0, i32 0
  %ECX.i36 = bitcast %union.anon* %227 to i32*
  %228 = getelementptr inbounds %struct.State, %struct.State* %0, i32 0, i32 6
  %229 = getelementptr inbounds %struct.GPR, %struct.GPR* %228, i32 0, i32 15
  %230 = getelementptr inbounds %struct.Reg, %struct.Reg* %229, i32 0, i32 0
  %RBP.i37 = bitcast %union.anon* %230 to i64*
  %231 = load i64, i64* %RBP.i37
  %232 = sub i64 %231, 20
  %233 = load i32, i32* %ECX.i36
  %234 = zext i32 %233 to i64
  %235 = load i64, i64* %PC.i35
  %236 = add i64 %235, 3
  store i64 %236, i64* %PC.i35
  %237 = inttoptr i64 %232 to i32*
  store i32 %233, i32* %237
  store %struct.Memory* %loadMem_49f0d8, %struct.Memory** %MEMORY
  %loadMem_49f0db = load %struct.Memory*, %struct.Memory** %MEMORY
  %238 = getelementptr inbounds %struct.State, %struct.State* %0, i32 0, i32 6
  %239 = getelementptr inbounds %struct.GPR, %struct.GPR* %238, i32 0, i32 33
  %240 = getelementptr inbounds %struct.Reg, %struct.Reg* %239, i32 0, i32 0
  %PC.i32 = bitcast %union.anon* %240 to i64*
  %241 = getelementptr inbounds %struct.State, %struct.State* %0, i32 0, i32 6
  %242 = getelementptr inbounds %struct.GPR, %struct.GPR* %241, i32 0, i32 15
  %243 = getelementptr inbounds %struct.Reg, %struct.Reg* %242, i32 0, i32 0
  %RBP.i33 = bitcast %union.anon* %243 to i64*
  %244 = getelementptr inbounds %struct.State, %struct.State* %0, i32 0, i32 6
  %245 = getelementptr inbounds %struct.GPR, %struct.GPR* %244, i32 0, i32 17
  %246 = getelementptr inbounds %struct.Reg, %struct.Reg* %245, i32 0, i32 0
  %R8.i34 = bitcast %union.anon* %246 to i64*
  %247 = load i64, i64* %RBP.i33
  %248 = sub i64 %247, 4
  %249 = load i64, i64* %PC.i32
  %250 = add i64 %249, 4
  store i64 %250, i64* %PC.i32
  %251 = inttoptr i64 %248 to i32*
  %252 = load i32, i32* %251
  %253 = sext i32 %252 to i64
  store i64 %253, i64* %R8.i34, align 8
  store %struct.Memory* %loadMem_49f0db, %struct.Memory** %MEMORY
  %loadMem_49f0df = load %struct.Memory*, %struct.Memory** %MEMORY
  %254 = getelementptr inbounds %struct.State, %struct.State* %0, i32 0, i32 6
  %255 = getelementptr inbounds %struct.GPR, %struct.GPR* %254, i32 0, i32 33
  %256 = getelementptr inbounds %struct.Reg, %struct.Reg* %255, i32 0, i32 0
  %PC.i30 = bitcast %union.anon* %256 to i64*
  %257 = getelementptr inbounds %struct.State, %struct.State* %0, i32 0, i32 6
  %258 = getelementptr inbounds %struct.GPR, %struct.GPR* %257, i32 0, i32 5
  %259 = getelementptr inbounds %struct.Reg, %struct.Reg* %258, i32 0, i32 0
  %RCX.i31 = bitcast %union.anon* %259 to i64*
  %260 = getelementptr inbounds %struct.State, %struct.State* %0, i32 0, i32 6
  %261 = getelementptr inbounds %struct.GPR, %struct.GPR* %260, i32 0, i32 17
  %262 = getelementptr inbounds %struct.Reg, %struct.Reg* %261, i32 0, i32 0
  %R8.i = bitcast %union.anon* %262 to i64*
  %263 = load i64, i64* %R8.i
  %264 = mul i64 %263, 4
  %265 = add i64 %264, 11902448
  %266 = load i64, i64* %PC.i30
  %267 = add i64 %266, 8
  store i64 %267, i64* %PC.i30
  %268 = inttoptr i64 %265 to i32*
  %269 = load i32, i32* %268
  %270 = zext i32 %269 to i64
  store i64 %270, i64* %RCX.i31, align 8
  store %struct.Memory* %loadMem_49f0df, %struct.Memory** %MEMORY
  %loadMem_49f0e7 = load %struct.Memory*, %struct.Memory** %MEMORY
  %271 = getelementptr inbounds %struct.State, %struct.State* %0, i32 0, i32 6
  %272 = getelementptr inbounds %struct.GPR, %struct.GPR* %271, i32 0, i32 33
  %273 = getelementptr inbounds %struct.Reg, %struct.Reg* %272, i32 0, i32 0
  %PC.i28 = bitcast %union.anon* %273 to i64*
  %274 = getelementptr inbounds %struct.State, %struct.State* %0, i32 0, i32 6
  %275 = getelementptr inbounds %struct.GPR, %struct.GPR* %274, i32 0, i32 5
  %276 = getelementptr inbounds %struct.Reg, %struct.Reg* %275, i32 0, i32 0
  %RCX.i = bitcast %union.anon* %276 to i64*
  %277 = getelementptr inbounds %struct.State, %struct.State* %0, i32 0, i32 6
  %278 = getelementptr inbounds %struct.GPR, %struct.GPR* %277, i32 0, i32 15
  %279 = getelementptr inbounds %struct.Reg, %struct.Reg* %278, i32 0, i32 0
  %RBP.i29 = bitcast %union.anon* %279 to i64*
  %280 = load i64, i64* %RCX.i
  %281 = load i64, i64* %RBP.i29
  %282 = sub i64 %281, 8
  %283 = load i64, i64* %PC.i28
  %284 = add i64 %283, 3
  store i64 %284, i64* %PC.i28
  %285 = trunc i64 %280 to i32
  %286 = inttoptr i64 %282 to i32*
  %287 = load i32, i32* %286
  %288 = add i32 %287, %285
  %289 = zext i32 %288 to i64
  store i64 %289, i64* %RCX.i, align 8
  %290 = icmp ult i32 %288, %285
  %291 = icmp ult i32 %288, %287
  %292 = or i1 %290, %291
  %293 = zext i1 %292 to i8
  %294 = getelementptr inbounds %struct.State, %struct.State* %0, i64 0, i32 2, i32 1
  store i8 %293, i8* %294, align 1
  %295 = and i32 %288, 255
  %296 = call i32 @llvm.ctpop.i32(i32 %295)
  %297 = trunc i32 %296 to i8
  %298 = and i8 %297, 1
  %299 = xor i8 %298, 1
  %300 = getelementptr inbounds %struct.State, %struct.State* %0, i64 0, i32 2, i32 3
  store i8 %299, i8* %300, align 1
  %301 = xor i32 %287, %285
  %302 = xor i32 %301, %288
  %303 = lshr i32 %302, 4
  %304 = trunc i32 %303 to i8
  %305 = and i8 %304, 1
  %306 = getelementptr inbounds %struct.State, %struct.State* %0, i64 0, i32 2, i32 5
  store i8 %305, i8* %306, align 1
  %307 = icmp eq i32 %288, 0
  %308 = zext i1 %307 to i8
  %309 = getelementptr inbounds %struct.State, %struct.State* %0, i64 0, i32 2, i32 7
  store i8 %308, i8* %309, align 1
  %310 = lshr i32 %288, 31
  %311 = trunc i32 %310 to i8
  %312 = getelementptr inbounds %struct.State, %struct.State* %0, i64 0, i32 2, i32 9
  store i8 %311, i8* %312, align 1
  %313 = lshr i32 %285, 31
  %314 = lshr i32 %287, 31
  %315 = xor i32 %310, %313
  %316 = xor i32 %310, %314
  %317 = add i32 %315, %316
  %318 = icmp eq i32 %317, 2
  %319 = zext i1 %318 to i8
  %320 = getelementptr inbounds %struct.State, %struct.State* %0, i64 0, i32 2, i32 13
  store i8 %319, i8* %320, align 1
  store %struct.Memory* %loadMem_49f0e7, %struct.Memory** %MEMORY
  %loadMem_49f0ea = load %struct.Memory*, %struct.Memory** %MEMORY
  %321 = getelementptr inbounds %struct.State, %struct.State* %0, i32 0, i32 6
  %322 = getelementptr inbounds %struct.GPR, %struct.GPR* %321, i32 0, i32 33
  %323 = getelementptr inbounds %struct.Reg, %struct.Reg* %322, i32 0, i32 0
  %PC.i26 = bitcast %union.anon* %323 to i64*
  %324 = getelementptr inbounds %struct.State, %struct.State* %0, i32 0, i32 6
  %325 = getelementptr inbounds %struct.GPR, %struct.GPR* %324, i32 0, i32 5
  %326 = getelementptr inbounds %struct.Reg, %struct.Reg* %325, i32 0, i32 0
  %ECX.i = bitcast %union.anon* %326 to i32*
  %327 = getelementptr inbounds %struct.State, %struct.State* %0, i32 0, i32 6
  %328 = getelementptr inbounds %struct.GPR, %struct.GPR* %327, i32 0, i32 15
  %329 = getelementptr inbounds %struct.Reg, %struct.Reg* %328, i32 0, i32 0
  %RBP.i27 = bitcast %union.anon* %329 to i64*
  %330 = load i64, i64* %RBP.i27
  %331 = sub i64 %330, 24
  %332 = load i32, i32* %ECX.i
  %333 = zext i32 %332 to i64
  %334 = load i64, i64* %PC.i26
  %335 = add i64 %334, 3
  store i64 %335, i64* %PC.i26
  %336 = inttoptr i64 %331 to i32*
  store i32 %332, i32* %336
  store %struct.Memory* %loadMem_49f0ea, %struct.Memory** %MEMORY
  %loadMem_49f0ed = load %struct.Memory*, %struct.Memory** %MEMORY
  %337 = getelementptr inbounds %struct.State, %struct.State* %0, i32 0, i32 6
  %338 = getelementptr inbounds %struct.GPR, %struct.GPR* %337, i32 0, i32 33
  %339 = getelementptr inbounds %struct.Reg, %struct.Reg* %338, i32 0, i32 0
  %PC.i23 = bitcast %union.anon* %339 to i64*
  %340 = getelementptr inbounds %struct.State, %struct.State* %0, i32 0, i32 6
  %341 = getelementptr inbounds %struct.GPR, %struct.GPR* %340, i32 0, i32 11
  %342 = getelementptr inbounds %struct.Reg, %struct.Reg* %341, i32 0, i32 0
  %RDI.i24 = bitcast %union.anon* %342 to i64*
  %343 = getelementptr inbounds %struct.State, %struct.State* %0, i32 0, i32 6
  %344 = getelementptr inbounds %struct.GPR, %struct.GPR* %343, i32 0, i32 15
  %345 = getelementptr inbounds %struct.Reg, %struct.Reg* %344, i32 0, i32 0
  %RBP.i25 = bitcast %union.anon* %345 to i64*
  %346 = load i64, i64* %RBP.i25
  %347 = sub i64 %346, 20
  %348 = load i64, i64* %PC.i23
  %349 = add i64 %348, 3
  store i64 %349, i64* %PC.i23
  %350 = inttoptr i64 %347 to i32*
  %351 = load i32, i32* %350
  %352 = zext i32 %351 to i64
  store i64 %352, i64* %RDI.i24, align 8
  store %struct.Memory* %loadMem_49f0ed, %struct.Memory** %MEMORY
  %loadMem_49f0f0 = load %struct.Memory*, %struct.Memory** %MEMORY
  %353 = getelementptr inbounds %struct.State, %struct.State* %0, i32 0, i32 6
  %354 = getelementptr inbounds %struct.GPR, %struct.GPR* %353, i32 0, i32 33
  %355 = getelementptr inbounds %struct.Reg, %struct.Reg* %354, i32 0, i32 0
  %PC.i20 = bitcast %union.anon* %355 to i64*
  %356 = getelementptr inbounds %struct.State, %struct.State* %0, i32 0, i32 6
  %357 = getelementptr inbounds %struct.GPR, %struct.GPR* %356, i32 0, i32 1
  %358 = getelementptr inbounds %struct.Reg, %struct.Reg* %357, i32 0, i32 0
  %RAX.i21 = bitcast %union.anon* %358 to i64*
  %359 = getelementptr inbounds %struct.State, %struct.State* %0, i32 0, i32 6
  %360 = getelementptr inbounds %struct.GPR, %struct.GPR* %359, i32 0, i32 15
  %361 = getelementptr inbounds %struct.Reg, %struct.Reg* %360, i32 0, i32 0
  %RBP.i22 = bitcast %union.anon* %361 to i64*
  %362 = load i64, i64* %RAX.i21
  %363 = load i64, i64* %RBP.i22
  %364 = sub i64 %363, 12
  %365 = load i64, i64* %PC.i20
  %366 = add i64 %365, 3
  store i64 %366, i64* %PC.i20
  %367 = trunc i64 %362 to i32
  %368 = inttoptr i64 %364 to i32*
  %369 = load i32, i32* %368
  %370 = sub i32 %367, %369
  %371 = zext i32 %370 to i64
  store i64 %371, i64* %RAX.i21, align 8
  %372 = icmp ult i32 %367, %369
  %373 = zext i1 %372 to i8
  %374 = getelementptr inbounds %struct.State, %struct.State* %0, i64 0, i32 2, i32 1
  store i8 %373, i8* %374, align 1
  %375 = and i32 %370, 255
  %376 = call i32 @llvm.ctpop.i32(i32 %375)
  %377 = trunc i32 %376 to i8
  %378 = and i8 %377, 1
  %379 = xor i8 %378, 1
  %380 = getelementptr inbounds %struct.State, %struct.State* %0, i64 0, i32 2, i32 3
  store i8 %379, i8* %380, align 1
  %381 = xor i32 %369, %367
  %382 = xor i32 %381, %370
  %383 = lshr i32 %382, 4
  %384 = trunc i32 %383 to i8
  %385 = and i8 %384, 1
  %386 = getelementptr inbounds %struct.State, %struct.State* %0, i64 0, i32 2, i32 5
  store i8 %385, i8* %386, align 1
  %387 = icmp eq i32 %370, 0
  %388 = zext i1 %387 to i8
  %389 = getelementptr inbounds %struct.State, %struct.State* %0, i64 0, i32 2, i32 7
  store i8 %388, i8* %389, align 1
  %390 = lshr i32 %370, 31
  %391 = trunc i32 %390 to i8
  %392 = getelementptr inbounds %struct.State, %struct.State* %0, i64 0, i32 2, i32 9
  store i8 %391, i8* %392, align 1
  %393 = lshr i32 %367, 31
  %394 = lshr i32 %369, 31
  %395 = xor i32 %394, %393
  %396 = xor i32 %390, %393
  %397 = add i32 %396, %395
  %398 = icmp eq i32 %397, 2
  %399 = zext i1 %398 to i8
  %400 = getelementptr inbounds %struct.State, %struct.State* %0, i64 0, i32 2, i32 13
  store i8 %399, i8* %400, align 1
  store %struct.Memory* %loadMem_49f0f0, %struct.Memory** %MEMORY
  %loadMem_49f0f3 = load %struct.Memory*, %struct.Memory** %MEMORY
  %401 = getelementptr inbounds %struct.State, %struct.State* %0, i32 0, i32 6
  %402 = getelementptr inbounds %struct.GPR, %struct.GPR* %401, i32 0, i32 33
  %403 = getelementptr inbounds %struct.Reg, %struct.Reg* %402, i32 0, i32 0
  %PC.i17 = bitcast %union.anon* %403 to i64*
  %404 = getelementptr inbounds %struct.State, %struct.State* %0, i32 0, i32 6
  %405 = getelementptr inbounds %struct.GPR, %struct.GPR* %404, i32 0, i32 1
  %406 = getelementptr inbounds %struct.Reg, %struct.Reg* %405, i32 0, i32 0
  %EAX.i18 = bitcast %union.anon* %406 to i32*
  %407 = getelementptr inbounds %struct.State, %struct.State* %0, i32 0, i32 6
  %408 = getelementptr inbounds %struct.GPR, %struct.GPR* %407, i32 0, i32 9
  %409 = getelementptr inbounds %struct.Reg, %struct.Reg* %408, i32 0, i32 0
  %RSI.i19 = bitcast %union.anon* %409 to i64*
  %410 = load i32, i32* %EAX.i18
  %411 = zext i32 %410 to i64
  %412 = load i64, i64* %PC.i17
  %413 = add i64 %412, 2
  store i64 %413, i64* %PC.i17
  %414 = and i64 %411, 4294967295
  store i64 %414, i64* %RSI.i19, align 8
  store %struct.Memory* %loadMem_49f0f3, %struct.Memory** %MEMORY
  %loadMem1_49f0f5 = load %struct.Memory*, %struct.Memory** %MEMORY
  %415 = getelementptr inbounds %struct.State, %struct.State* %0, i32 0, i32 6
  %416 = getelementptr inbounds %struct.GPR, %struct.GPR* %415, i32 0, i32 33
  %417 = getelementptr inbounds %struct.Reg, %struct.Reg* %416, i32 0, i32 0
  %PC.i16 = bitcast %union.anon* %417 to i64*
  %418 = load i64, i64* %PC.i16
  %419 = add i64 %418, -484373
  %420 = load i64, i64* %PC.i16
  %421 = add i64 %420, 5
  %422 = load i64, i64* %PC.i16
  %423 = add i64 %422, 5
  store i64 %423, i64* %PC.i16
  %424 = getelementptr inbounds %struct.State, %struct.State* %0, i64 0, i32 6, i32 13, i32 0, i32 0
  %425 = load i64, i64* %424, align 8
  %426 = add i64 %425, -8
  %427 = inttoptr i64 %426 to i64*
  store i64 %421, i64* %427
  store i64 %426, i64* %424, align 8
  %428 = getelementptr inbounds %struct.State, %struct.State* %0, i64 0, i32 6, i32 33, i32 0, i32 0
  store i64 %419, i64* %428, align 8
  store %struct.Memory* %loadMem1_49f0f5, %struct.Memory** %MEMORY
  %loadMem2_49f0f5 = load %struct.Memory*, %struct.Memory** %MEMORY
  %loadPC_49f0f5 = load i64, i64* %3
  %call2_49f0f5 = call %struct.Memory* @sub_428ce0.influence_mark_non_territory(%struct.State* %0, i64 %loadPC_49f0f5, %struct.Memory* %loadMem2_49f0f5)
  store %struct.Memory* %call2_49f0f5, %struct.Memory** %MEMORY
  %loadMem_49f0fa = load %struct.Memory*, %struct.Memory** %MEMORY
  %429 = getelementptr inbounds %struct.State, %struct.State* %0, i32 0, i32 6
  %430 = getelementptr inbounds %struct.GPR, %struct.GPR* %429, i32 0, i32 33
  %431 = getelementptr inbounds %struct.Reg, %struct.Reg* %430, i32 0, i32 0
  %PC.i14 = bitcast %union.anon* %431 to i64*
  %432 = getelementptr inbounds %struct.State, %struct.State* %0, i32 0, i32 6
  %433 = getelementptr inbounds %struct.GPR, %struct.GPR* %432, i32 0, i32 1
  %434 = getelementptr inbounds %struct.Reg, %struct.Reg* %433, i32 0, i32 0
  %RAX.i15 = bitcast %union.anon* %434 to i64*
  %435 = load i64, i64* %PC.i14
  %436 = add i64 %435, 5
  store i64 %436, i64* %PC.i14
  store i64 3, i64* %RAX.i15, align 8
  store %struct.Memory* %loadMem_49f0fa, %struct.Memory** %MEMORY
  %loadMem_49f0ff = load %struct.Memory*, %struct.Memory** %MEMORY
  %437 = getelementptr inbounds %struct.State, %struct.State* %0, i32 0, i32 6
  %438 = getelementptr inbounds %struct.GPR, %struct.GPR* %437, i32 0, i32 33
  %439 = getelementptr inbounds %struct.Reg, %struct.Reg* %438, i32 0, i32 0
  %PC.i12 = bitcast %union.anon* %439 to i64*
  %440 = getelementptr inbounds %struct.State, %struct.State* %0, i32 0, i32 6
  %441 = getelementptr inbounds %struct.GPR, %struct.GPR* %440, i32 0, i32 11
  %442 = getelementptr inbounds %struct.Reg, %struct.Reg* %441, i32 0, i32 0
  %RDI.i = bitcast %union.anon* %442 to i64*
  %443 = getelementptr inbounds %struct.State, %struct.State* %0, i32 0, i32 6
  %444 = getelementptr inbounds %struct.GPR, %struct.GPR* %443, i32 0, i32 15
  %445 = getelementptr inbounds %struct.Reg, %struct.Reg* %444, i32 0, i32 0
  %RBP.i13 = bitcast %union.anon* %445 to i64*
  %446 = load i64, i64* %RBP.i13
  %447 = sub i64 %446, 24
  %448 = load i64, i64* %PC.i12
  %449 = add i64 %448, 3
  store i64 %449, i64* %PC.i12
  %450 = inttoptr i64 %447 to i32*
  %451 = load i32, i32* %450
  %452 = zext i32 %451 to i64
  store i64 %452, i64* %RDI.i, align 8
  store %struct.Memory* %loadMem_49f0ff, %struct.Memory** %MEMORY
  %loadMem_49f102 = load %struct.Memory*, %struct.Memory** %MEMORY
  %453 = getelementptr inbounds %struct.State, %struct.State* %0, i32 0, i32 6
  %454 = getelementptr inbounds %struct.GPR, %struct.GPR* %453, i32 0, i32 33
  %455 = getelementptr inbounds %struct.Reg, %struct.Reg* %454, i32 0, i32 0
  %PC.i9 = bitcast %union.anon* %455 to i64*
  %456 = getelementptr inbounds %struct.State, %struct.State* %0, i32 0, i32 6
  %457 = getelementptr inbounds %struct.GPR, %struct.GPR* %456, i32 0, i32 1
  %458 = getelementptr inbounds %struct.Reg, %struct.Reg* %457, i32 0, i32 0
  %RAX.i10 = bitcast %union.anon* %458 to i64*
  %459 = getelementptr inbounds %struct.State, %struct.State* %0, i32 0, i32 6
  %460 = getelementptr inbounds %struct.GPR, %struct.GPR* %459, i32 0, i32 15
  %461 = getelementptr inbounds %struct.Reg, %struct.Reg* %460, i32 0, i32 0
  %RBP.i11 = bitcast %union.anon* %461 to i64*
  %462 = load i64, i64* %RAX.i10
  %463 = load i64, i64* %RBP.i11
  %464 = sub i64 %463, 12
  %465 = load i64, i64* %PC.i9
  %466 = add i64 %465, 3
  store i64 %466, i64* %PC.i9
  %467 = trunc i64 %462 to i32
  %468 = inttoptr i64 %464 to i32*
  %469 = load i32, i32* %468
  %470 = sub i32 %467, %469
  %471 = zext i32 %470 to i64
  store i64 %471, i64* %RAX.i10, align 8
  %472 = icmp ult i32 %467, %469
  %473 = zext i1 %472 to i8
  %474 = getelementptr inbounds %struct.State, %struct.State* %0, i64 0, i32 2, i32 1
  store i8 %473, i8* %474, align 1
  %475 = and i32 %470, 255
  %476 = call i32 @llvm.ctpop.i32(i32 %475)
  %477 = trunc i32 %476 to i8
  %478 = and i8 %477, 1
  %479 = xor i8 %478, 1
  %480 = getelementptr inbounds %struct.State, %struct.State* %0, i64 0, i32 2, i32 3
  store i8 %479, i8* %480, align 1
  %481 = xor i32 %469, %467
  %482 = xor i32 %481, %470
  %483 = lshr i32 %482, 4
  %484 = trunc i32 %483 to i8
  %485 = and i8 %484, 1
  %486 = getelementptr inbounds %struct.State, %struct.State* %0, i64 0, i32 2, i32 5
  store i8 %485, i8* %486, align 1
  %487 = icmp eq i32 %470, 0
  %488 = zext i1 %487 to i8
  %489 = getelementptr inbounds %struct.State, %struct.State* %0, i64 0, i32 2, i32 7
  store i8 %488, i8* %489, align 1
  %490 = lshr i32 %470, 31
  %491 = trunc i32 %490 to i8
  %492 = getelementptr inbounds %struct.State, %struct.State* %0, i64 0, i32 2, i32 9
  store i8 %491, i8* %492, align 1
  %493 = lshr i32 %467, 31
  %494 = lshr i32 %469, 31
  %495 = xor i32 %494, %493
  %496 = xor i32 %490, %493
  %497 = add i32 %496, %495
  %498 = icmp eq i32 %497, 2
  %499 = zext i1 %498 to i8
  %500 = getelementptr inbounds %struct.State, %struct.State* %0, i64 0, i32 2, i32 13
  store i8 %499, i8* %500, align 1
  store %struct.Memory* %loadMem_49f102, %struct.Memory** %MEMORY
  %loadMem_49f105 = load %struct.Memory*, %struct.Memory** %MEMORY
  %501 = getelementptr inbounds %struct.State, %struct.State* %0, i32 0, i32 6
  %502 = getelementptr inbounds %struct.GPR, %struct.GPR* %501, i32 0, i32 33
  %503 = getelementptr inbounds %struct.Reg, %struct.Reg* %502, i32 0, i32 0
  %PC.i7 = bitcast %union.anon* %503 to i64*
  %504 = getelementptr inbounds %struct.State, %struct.State* %0, i32 0, i32 6
  %505 = getelementptr inbounds %struct.GPR, %struct.GPR* %504, i32 0, i32 1
  %506 = getelementptr inbounds %struct.Reg, %struct.Reg* %505, i32 0, i32 0
  %EAX.i8 = bitcast %union.anon* %506 to i32*
  %507 = getelementptr inbounds %struct.State, %struct.State* %0, i32 0, i32 6
  %508 = getelementptr inbounds %struct.GPR, %struct.GPR* %507, i32 0, i32 9
  %509 = getelementptr inbounds %struct.Reg, %struct.Reg* %508, i32 0, i32 0
  %RSI.i = bitcast %union.anon* %509 to i64*
  %510 = load i32, i32* %EAX.i8
  %511 = zext i32 %510 to i64
  %512 = load i64, i64* %PC.i7
  %513 = add i64 %512, 2
  store i64 %513, i64* %PC.i7
  %514 = and i64 %511, 4294967295
  store i64 %514, i64* %RSI.i, align 8
  store %struct.Memory* %loadMem_49f105, %struct.Memory** %MEMORY
  %loadMem1_49f107 = load %struct.Memory*, %struct.Memory** %MEMORY
  %515 = getelementptr inbounds %struct.State, %struct.State* %0, i32 0, i32 6
  %516 = getelementptr inbounds %struct.GPR, %struct.GPR* %515, i32 0, i32 33
  %517 = getelementptr inbounds %struct.Reg, %struct.Reg* %516, i32 0, i32 0
  %PC.i6 = bitcast %union.anon* %517 to i64*
  %518 = load i64, i64* %PC.i6
  %519 = add i64 %518, -484391
  %520 = load i64, i64* %PC.i6
  %521 = add i64 %520, 5
  %522 = load i64, i64* %PC.i6
  %523 = add i64 %522, 5
  store i64 %523, i64* %PC.i6
  %524 = getelementptr inbounds %struct.State, %struct.State* %0, i64 0, i32 6, i32 13, i32 0, i32 0
  %525 = load i64, i64* %524, align 8
  %526 = add i64 %525, -8
  %527 = inttoptr i64 %526 to i64*
  store i64 %521, i64* %527
  store i64 %526, i64* %524, align 8
  %528 = getelementptr inbounds %struct.State, %struct.State* %0, i64 0, i32 6, i32 33, i32 0, i32 0
  store i64 %519, i64* %528, align 8
  store %struct.Memory* %loadMem1_49f107, %struct.Memory** %MEMORY
  %loadMem2_49f107 = load %struct.Memory*, %struct.Memory** %MEMORY
  %loadPC_49f107 = load i64, i64* %3
  %call2_49f107 = call %struct.Memory* @sub_428ce0.influence_mark_non_territory(%struct.State* %0, i64 %loadPC_49f107, %struct.Memory* %loadMem2_49f107)
  store %struct.Memory* %call2_49f107, %struct.Memory** %MEMORY
  %loadMem_49f10c = load %struct.Memory*, %struct.Memory** %MEMORY
  %529 = getelementptr inbounds %struct.State, %struct.State* %0, i32 0, i32 6
  %530 = getelementptr inbounds %struct.GPR, %struct.GPR* %529, i32 0, i32 33
  %531 = getelementptr inbounds %struct.Reg, %struct.Reg* %530, i32 0, i32 0
  %PC.i5 = bitcast %union.anon* %531 to i64*
  %532 = getelementptr inbounds %struct.State, %struct.State* %0, i32 0, i32 6
  %533 = getelementptr inbounds %struct.GPR, %struct.GPR* %532, i32 0, i32 1
  %534 = getelementptr inbounds %struct.Reg, %struct.Reg* %533, i32 0, i32 0
  %EAX.i = bitcast %union.anon* %534 to i32*
  %535 = getelementptr inbounds %struct.State, %struct.State* %0, i32 0, i32 6
  %536 = getelementptr inbounds %struct.GPR, %struct.GPR* %535, i32 0, i32 1
  %537 = getelementptr inbounds %struct.Reg, %struct.Reg* %536, i32 0, i32 0
  %RAX.i = bitcast %union.anon* %537 to i64*
  %538 = load i64, i64* %RAX.i
  %539 = load i32, i32* %EAX.i
  %540 = zext i32 %539 to i64
  %541 = load i64, i64* %PC.i5
  %542 = add i64 %541, 2
  store i64 %542, i64* %PC.i5
  %543 = xor i64 %540, %538
  %544 = trunc i64 %543 to i32
  %545 = and i64 %543, 4294967295
  store i64 %545, i64* %RAX.i, align 8
  %546 = getelementptr inbounds %struct.State, %struct.State* %0, i64 0, i32 2, i32 1
  store i8 0, i8* %546, align 1
  %547 = and i32 %544, 255
  %548 = call i32 @llvm.ctpop.i32(i32 %547)
  %549 = trunc i32 %548 to i8
  %550 = and i8 %549, 1
  %551 = xor i8 %550, 1
  %552 = getelementptr inbounds %struct.State, %struct.State* %0, i64 0, i32 2, i32 3
  store i8 %551, i8* %552, align 1
  %553 = icmp eq i32 %544, 0
  %554 = zext i1 %553 to i8
  %555 = getelementptr inbounds %struct.State, %struct.State* %0, i64 0, i32 2, i32 7
  store i8 %554, i8* %555, align 1
  %556 = lshr i32 %544, 31
  %557 = trunc i32 %556 to i8
  %558 = getelementptr inbounds %struct.State, %struct.State* %0, i64 0, i32 2, i32 9
  store i8 %557, i8* %558, align 1
  %559 = getelementptr inbounds %struct.State, %struct.State* %0, i64 0, i32 2, i32 13
  store i8 0, i8* %559, align 1
  %560 = getelementptr inbounds %struct.State, %struct.State* %0, i64 0, i32 2, i32 5
  store i8 0, i8* %560, align 1
  store %struct.Memory* %loadMem_49f10c, %struct.Memory** %MEMORY
  %loadMem_49f10e = load %struct.Memory*, %struct.Memory** %MEMORY
  %561 = getelementptr inbounds %struct.State, %struct.State* %0, i32 0, i32 6
  %562 = getelementptr inbounds %struct.GPR, %struct.GPR* %561, i32 0, i32 33
  %563 = getelementptr inbounds %struct.Reg, %struct.Reg* %562, i32 0, i32 0
  %PC.i4 = bitcast %union.anon* %563 to i64*
  %564 = getelementptr inbounds %struct.State, %struct.State* %0, i32 0, i32 6
  %565 = getelementptr inbounds %struct.GPR, %struct.GPR* %564, i32 0, i32 13
  %566 = getelementptr inbounds %struct.Reg, %struct.Reg* %565, i32 0, i32 0
  %RSP.i = bitcast %union.anon* %566 to i64*
  %567 = load i64, i64* %RSP.i
  %568 = load i64, i64* %PC.i4
  %569 = add i64 %568, 4
  store i64 %569, i64* %PC.i4
  %570 = add i64 32, %567
  store i64 %570, i64* %RSP.i, align 8
  %571 = icmp ult i64 %570, %567
  %572 = icmp ult i64 %570, 32
  %573 = or i1 %571, %572
  %574 = zext i1 %573 to i8
  %575 = getelementptr inbounds %struct.State, %struct.State* %0, i64 0, i32 2, i32 1
  store i8 %574, i8* %575, align 1
  %576 = trunc i64 %570 to i32
  %577 = and i32 %576, 255
  %578 = call i32 @llvm.ctpop.i32(i32 %577)
  %579 = trunc i32 %578 to i8
  %580 = and i8 %579, 1
  %581 = xor i8 %580, 1
  %582 = getelementptr inbounds %struct.State, %struct.State* %0, i64 0, i32 2, i32 3
  store i8 %581, i8* %582, align 1
  %583 = xor i64 32, %567
  %584 = xor i64 %583, %570
  %585 = lshr i64 %584, 4
  %586 = trunc i64 %585 to i8
  %587 = and i8 %586, 1
  %588 = getelementptr inbounds %struct.State, %struct.State* %0, i64 0, i32 2, i32 5
  store i8 %587, i8* %588, align 1
  %589 = icmp eq i64 %570, 0
  %590 = zext i1 %589 to i8
  %591 = getelementptr inbounds %struct.State, %struct.State* %0, i64 0, i32 2, i32 7
  store i8 %590, i8* %591, align 1
  %592 = lshr i64 %570, 63
  %593 = trunc i64 %592 to i8
  %594 = getelementptr inbounds %struct.State, %struct.State* %0, i64 0, i32 2, i32 9
  store i8 %593, i8* %594, align 1
  %595 = lshr i64 %567, 63
  %596 = xor i64 %592, %595
  %597 = add i64 %596, %592
  %598 = icmp eq i64 %597, 2
  %599 = zext i1 %598 to i8
  %600 = getelementptr inbounds %struct.State, %struct.State* %0, i64 0, i32 2, i32 13
  store i8 %599, i8* %600, align 1
  store %struct.Memory* %loadMem_49f10e, %struct.Memory** %MEMORY
  %loadMem_49f112 = load %struct.Memory*, %struct.Memory** %MEMORY
  %601 = getelementptr inbounds %struct.State, %struct.State* %0, i32 0, i32 6
  %602 = getelementptr inbounds %struct.GPR, %struct.GPR* %601, i32 0, i32 33
  %603 = getelementptr inbounds %struct.Reg, %struct.Reg* %602, i32 0, i32 0
  %PC.i2 = bitcast %union.anon* %603 to i64*
  %604 = getelementptr inbounds %struct.State, %struct.State* %0, i32 0, i32 6
  %605 = getelementptr inbounds %struct.GPR, %struct.GPR* %604, i32 0, i32 15
  %606 = getelementptr inbounds %struct.Reg, %struct.Reg* %605, i32 0, i32 0
  %RBP.i3 = bitcast %union.anon* %606 to i64*
  %607 = load i64, i64* %PC.i2
  %608 = add i64 %607, 1
  store i64 %608, i64* %PC.i2
  %609 = getelementptr inbounds %struct.State, %struct.State* %0, i64 0, i32 6, i32 13, i32 0, i32 0
  %610 = load i64, i64* %609, align 8
  %611 = add i64 %610, 8
  %612 = inttoptr i64 %610 to i64*
  %613 = load i64, i64* %612
  store i64 %613, i64* %RBP.i3, align 8
  store i64 %611, i64* %609, align 8
  store %struct.Memory* %loadMem_49f112, %struct.Memory** %MEMORY
  %loadMem_49f113 = load %struct.Memory*, %struct.Memory** %MEMORY
  %614 = getelementptr inbounds %struct.State, %struct.State* %0, i32 0, i32 6
  %615 = getelementptr inbounds %struct.GPR, %struct.GPR* %614, i32 0, i32 33
  %616 = getelementptr inbounds %struct.Reg, %struct.Reg* %615, i32 0, i32 0
  %PC.i1 = bitcast %union.anon* %616 to i64*
  %617 = load i64, i64* %PC.i1
  %618 = add i64 %617, 1
  store i64 %618, i64* %PC.i1
  %619 = getelementptr inbounds %struct.State, %struct.State* %0, i64 0, i32 6, i32 33, i32 0, i32 0
  %620 = getelementptr inbounds %struct.State, %struct.State* %0, i64 0, i32 6, i32 13, i32 0, i32 0
  %621 = load i64, i64* %620, align 8
  %622 = inttoptr i64 %621 to i64*
  %623 = load i64, i64* %622
  store i64 %623, i64* %619, align 8
  %624 = add i64 %621, 8
  store i64 %624, i64* %620, align 8
  store %struct.Memory* %loadMem_49f113, %struct.Memory** %MEMORY
  ret %struct.Memory* %loadMem_49f113
}

define %struct.Memory* @routine_pushq__rbp(%struct.State* dereferenceable(3376), i64, %struct.Memory*) {
block_400488:
  %3 = getelementptr inbounds %struct.State, %struct.State* %0, i32 0, i32 6
  %4 = getelementptr inbounds %struct.GPR, %struct.GPR* %3, i32 0, i32 33
  %5 = getelementptr inbounds %struct.Reg, %struct.Reg* %4, i32 0, i32 0
  %PC = bitcast %union.anon* %5 to i64*
  %6 = getelementptr inbounds %struct.State, %struct.State* %0, i32 0, i32 6
  %7 = getelementptr inbounds %struct.GPR, %struct.GPR* %6, i32 0, i32 15
  %8 = getelementptr inbounds %struct.Reg, %struct.Reg* %7, i32 0, i32 0
  %RBP = bitcast %union.anon* %8 to i64*
  %9 = load i64, i64* %RBP
  %10 = load i64, i64* %PC
  %11 = add i64 %10, 1
  store i64 %11, i64* %PC
  %12 = getelementptr inbounds %struct.State, %struct.State* %0, i64 0, i32 6, i32 13, i32 0, i32 0
  %13 = load i64, i64* %12, align 8
  %14 = add i64 %13, -8
  %15 = inttoptr i64 %14 to i64*
  store i64 %9, i64* %15
  store i64 %14, i64* %12, align 8
  ret %struct.Memory* %2
}

define %struct.Memory* @routine_movq__rsp___rbp(%struct.State* dereferenceable(3376), i64, %struct.Memory*) {
block_400488:
  %3 = getelementptr inbounds %struct.State, %struct.State* %0, i32 0, i32 6
  %4 = getelementptr inbounds %struct.GPR, %struct.GPR* %3, i32 0, i32 33
  %5 = getelementptr inbounds %struct.Reg, %struct.Reg* %4, i32 0, i32 0
  %PC = bitcast %union.anon* %5 to i64*
  %6 = getelementptr inbounds %struct.State, %struct.State* %0, i32 0, i32 6
  %7 = getelementptr inbounds %struct.GPR, %struct.GPR* %6, i32 0, i32 13
  %8 = getelementptr inbounds %struct.Reg, %struct.Reg* %7, i32 0, i32 0
  %RSP = bitcast %union.anon* %8 to i64*
  %9 = getelementptr inbounds %struct.State, %struct.State* %0, i32 0, i32 6
  %10 = getelementptr inbounds %struct.GPR, %struct.GPR* %9, i32 0, i32 15
  %11 = getelementptr inbounds %struct.Reg, %struct.Reg* %10, i32 0, i32 0
  %RBP = bitcast %union.anon* %11 to i64*
  %12 = load i64, i64* %RSP
  %13 = load i64, i64* %PC
  %14 = add i64 %13, 3
  store i64 %14, i64* %PC
  store i64 %12, i64* %RBP, align 8
  ret %struct.Memory* %2
}

define %struct.Memory* @routine_subq__0x20___rsp(%struct.State* dereferenceable(3376), i64, %struct.Memory*) {
block_400488:
  %3 = getelementptr inbounds %struct.State, %struct.State* %0, i32 0, i32 6
  %4 = getelementptr inbounds %struct.GPR, %struct.GPR* %3, i32 0, i32 33
  %5 = getelementptr inbounds %struct.Reg, %struct.Reg* %4, i32 0, i32 0
  %PC = bitcast %union.anon* %5 to i64*
  %6 = getelementptr inbounds %struct.State, %struct.State* %0, i32 0, i32 6
  %7 = getelementptr inbounds %struct.GPR, %struct.GPR* %6, i32 0, i32 13
  %8 = getelementptr inbounds %struct.Reg, %struct.Reg* %7, i32 0, i32 0
  %RSP = bitcast %union.anon* %8 to i64*
  %9 = load i64, i64* %RSP
  %10 = load i64, i64* %PC
  %11 = add i64 %10, 4
  store i64 %11, i64* %PC
  %12 = sub i64 %9, 32
  store i64 %12, i64* %RSP, align 8
  %13 = icmp ult i64 %9, 32
  %14 = zext i1 %13 to i8
  %15 = getelementptr inbounds %struct.State, %struct.State* %0, i64 0, i32 2, i32 1
  store i8 %14, i8* %15, align 1
  %16 = trunc i64 %12 to i32
  %17 = and i32 %16, 255
  %18 = call i32 @llvm.ctpop.i32(i32 %17)
  %19 = trunc i32 %18 to i8
  %20 = and i8 %19, 1
  %21 = xor i8 %20, 1
  %22 = getelementptr inbounds %struct.State, %struct.State* %0, i64 0, i32 2, i32 3
  store i8 %21, i8* %22, align 1
  %23 = xor i64 32, %9
  %24 = xor i64 %23, %12
  %25 = lshr i64 %24, 4
  %26 = trunc i64 %25 to i8
  %27 = and i8 %26, 1
  %28 = getelementptr inbounds %struct.State, %struct.State* %0, i64 0, i32 2, i32 5
  store i8 %27, i8* %28, align 1
  %29 = icmp eq i64 %12, 0
  %30 = zext i1 %29 to i8
  %31 = getelementptr inbounds %struct.State, %struct.State* %0, i64 0, i32 2, i32 7
  store i8 %30, i8* %31, align 1
  %32 = lshr i64 %12, 63
  %33 = trunc i64 %32 to i8
  %34 = getelementptr inbounds %struct.State, %struct.State* %0, i64 0, i32 2, i32 9
  store i8 %33, i8* %34, align 1
  %35 = lshr i64 %9, 63
  %36 = xor i64 %32, %35
  %37 = add i64 %36, %35
  %38 = icmp eq i64 %37, 2
  %39 = zext i1 %38 to i8
  %40 = getelementptr inbounds %struct.State, %struct.State* %0, i64 0, i32 2, i32 13
  store i8 %39, i8* %40, align 1
  ret %struct.Memory* %2
}

define %struct.Memory* @routine_movl__0x3___eax(%struct.State* dereferenceable(3376), i64, %struct.Memory*) {
block_400488:
  %3 = getelementptr inbounds %struct.State, %struct.State* %0, i32 0, i32 6
  %4 = getelementptr inbounds %struct.GPR, %struct.GPR* %3, i32 0, i32 33
  %5 = getelementptr inbounds %struct.Reg, %struct.Reg* %4, i32 0, i32 0
  %PC = bitcast %union.anon* %5 to i64*
  %6 = getelementptr inbounds %struct.State, %struct.State* %0, i32 0, i32 6
  %7 = getelementptr inbounds %struct.GPR, %struct.GPR* %6, i32 0, i32 1
  %8 = getelementptr inbounds %struct.Reg, %struct.Reg* %7, i32 0, i32 0
  %RAX = bitcast %union.anon* %8 to i64*
  %9 = load i64, i64* %PC
  %10 = add i64 %9, 5
  store i64 %10, i64* %PC
  store i64 3, i64* %RAX, align 8
  ret %struct.Memory* %2
}

define %struct.Memory* @routine_movl__edi__MINUS0x4__rbp_(%struct.State* dereferenceable(3376), i64, %struct.Memory*) {
block_400488:
  %3 = getelementptr inbounds %struct.State, %struct.State* %0, i32 0, i32 6
  %4 = getelementptr inbounds %struct.GPR, %struct.GPR* %3, i32 0, i32 33
  %5 = getelementptr inbounds %struct.Reg, %struct.Reg* %4, i32 0, i32 0
  %PC = bitcast %union.anon* %5 to i64*
  %6 = getelementptr inbounds %struct.State, %struct.State* %0, i32 0, i32 6
  %7 = getelementptr inbounds %struct.GPR, %struct.GPR* %6, i32 0, i32 11
  %8 = getelementptr inbounds %struct.Reg, %struct.Reg* %7, i32 0, i32 0
  %EDI = bitcast %union.anon* %8 to i32*
  %9 = getelementptr inbounds %struct.State, %struct.State* %0, i32 0, i32 6
  %10 = getelementptr inbounds %struct.GPR, %struct.GPR* %9, i32 0, i32 15
  %11 = getelementptr inbounds %struct.Reg, %struct.Reg* %10, i32 0, i32 0
  %RBP = bitcast %union.anon* %11 to i64*
  %12 = load i64, i64* %RBP
  %13 = sub i64 %12, 4
  %14 = load i32, i32* %EDI
  %15 = zext i32 %14 to i64
  %16 = load i64, i64* %PC
  %17 = add i64 %16, 3
  store i64 %17, i64* %PC
  %18 = inttoptr i64 %13 to i32*
  store i32 %14, i32* %18
  ret %struct.Memory* %2
}

define %struct.Memory* @routine_movl__esi__MINUS0x8__rbp_(%struct.State* dereferenceable(3376), i64, %struct.Memory*) {
block_400488:
  %3 = getelementptr inbounds %struct.State, %struct.State* %0, i32 0, i32 6
  %4 = getelementptr inbounds %struct.GPR, %struct.GPR* %3, i32 0, i32 33
  %5 = getelementptr inbounds %struct.Reg, %struct.Reg* %4, i32 0, i32 0
  %PC = bitcast %union.anon* %5 to i64*
  %6 = getelementptr inbounds %struct.State, %struct.State* %0, i32 0, i32 6
  %7 = getelementptr inbounds %struct.GPR, %struct.GPR* %6, i32 0, i32 9
  %8 = getelementptr inbounds %struct.Reg, %struct.Reg* %7, i32 0, i32 0
  %ESI = bitcast %union.anon* %8 to i32*
  %9 = getelementptr inbounds %struct.State, %struct.State* %0, i32 0, i32 6
  %10 = getelementptr inbounds %struct.GPR, %struct.GPR* %9, i32 0, i32 15
  %11 = getelementptr inbounds %struct.Reg, %struct.Reg* %10, i32 0, i32 0
  %RBP = bitcast %union.anon* %11 to i64*
  %12 = load i64, i64* %RBP
  %13 = sub i64 %12, 8
  %14 = load i32, i32* %ESI
  %15 = zext i32 %14 to i64
  %16 = load i64, i64* %PC
  %17 = add i64 %16, 3
  store i64 %17, i64* %PC
  %18 = inttoptr i64 %13 to i32*
  store i32 %14, i32* %18
  ret %struct.Memory* %2
}

define %struct.Memory* @routine_movl__edx__MINUS0xc__rbp_(%struct.State* dereferenceable(3376), i64, %struct.Memory*) {
block_400488:
  %3 = getelementptr inbounds %struct.State, %struct.State* %0, i32 0, i32 6
  %4 = getelementptr inbounds %struct.GPR, %struct.GPR* %3, i32 0, i32 33
  %5 = getelementptr inbounds %struct.Reg, %struct.Reg* %4, i32 0, i32 0
  %PC = bitcast %union.anon* %5 to i64*
  %6 = getelementptr inbounds %struct.State, %struct.State* %0, i32 0, i32 6
  %7 = getelementptr inbounds %struct.GPR, %struct.GPR* %6, i32 0, i32 7
  %8 = getelementptr inbounds %struct.Reg, %struct.Reg* %7, i32 0, i32 0
  %EDX = bitcast %union.anon* %8 to i32*
  %9 = getelementptr inbounds %struct.State, %struct.State* %0, i32 0, i32 6
  %10 = getelementptr inbounds %struct.GPR, %struct.GPR* %9, i32 0, i32 15
  %11 = getelementptr inbounds %struct.Reg, %struct.Reg* %10, i32 0, i32 0
  %RBP = bitcast %union.anon* %11 to i64*
  %12 = load i64, i64* %RBP
  %13 = sub i64 %12, 12
  %14 = load i32, i32* %EDX
  %15 = zext i32 %14 to i64
  %16 = load i64, i64* %PC
  %17 = add i64 %16, 3
  store i64 %17, i64* %PC
  %18 = inttoptr i64 %13 to i32*
  store i32 %14, i32* %18
  ret %struct.Memory* %2
}

define %struct.Memory* @routine_movl__ecx__MINUS0x10__rbp_(%struct.State* dereferenceable(3376), i64, %struct.Memory*) {
block_400488:
  %3 = getelementptr inbounds %struct.State, %struct.State* %0, i32 0, i32 6
  %4 = getelementptr inbounds %struct.GPR, %struct.GPR* %3, i32 0, i32 33
  %5 = getelementptr inbounds %struct.Reg, %struct.Reg* %4, i32 0, i32 0
  %PC = bitcast %union.anon* %5 to i64*
  %6 = getelementptr inbounds %struct.State, %struct.State* %0, i32 0, i32 6
  %7 = getelementptr inbounds %struct.GPR, %struct.GPR* %6, i32 0, i32 5
  %8 = getelementptr inbounds %struct.Reg, %struct.Reg* %7, i32 0, i32 0
  %ECX = bitcast %union.anon* %8 to i32*
  %9 = getelementptr inbounds %struct.State, %struct.State* %0, i32 0, i32 6
  %10 = getelementptr inbounds %struct.GPR, %struct.GPR* %9, i32 0, i32 15
  %11 = getelementptr inbounds %struct.Reg, %struct.Reg* %10, i32 0, i32 0
  %RBP = bitcast %union.anon* %11 to i64*
  %12 = load i64, i64* %RBP
  %13 = sub i64 %12, 16
  %14 = load i32, i32* %ECX
  %15 = zext i32 %14 to i64
  %16 = load i64, i64* %PC
  %17 = add i64 %16, 3
  store i64 %17, i64* %PC
  %18 = inttoptr i64 %13 to i32*
  store i32 %14, i32* %18
  ret %struct.Memory* %2
}

define %struct.Memory* @routine_movslq_MINUS0x4__rbp____r8(%struct.State* dereferenceable(3376), i64, %struct.Memory*) {
block_400488:
  %3 = getelementptr inbounds %struct.State, %struct.State* %0, i32 0, i32 6
  %4 = getelementptr inbounds %struct.GPR, %struct.GPR* %3, i32 0, i32 33
  %5 = getelementptr inbounds %struct.Reg, %struct.Reg* %4, i32 0, i32 0
  %PC = bitcast %union.anon* %5 to i64*
  %6 = getelementptr inbounds %struct.State, %struct.State* %0, i32 0, i32 6
  %7 = getelementptr inbounds %struct.GPR, %struct.GPR* %6, i32 0, i32 15
  %8 = getelementptr inbounds %struct.Reg, %struct.Reg* %7, i32 0, i32 0
  %RBP = bitcast %union.anon* %8 to i64*
  %9 = getelementptr inbounds %struct.State, %struct.State* %0, i32 0, i32 6
  %10 = getelementptr inbounds %struct.GPR, %struct.GPR* %9, i32 0, i32 17
  %11 = getelementptr inbounds %struct.Reg, %struct.Reg* %10, i32 0, i32 0
  %R8 = bitcast %union.anon* %11 to i64*
  %12 = load i64, i64* %RBP
  %13 = sub i64 %12, 4
  %14 = load i64, i64* %PC
  %15 = add i64 %14, 4
  store i64 %15, i64* %PC
  %16 = inttoptr i64 %13 to i32*
  %17 = load i32, i32* %16
  %18 = sext i32 %17 to i64
  store i64 %18, i64* %R8, align 8
  ret %struct.Memory* %2
}

define %struct.Memory* @routine_movl_0xb59950___r8_4____ecx(%struct.State* dereferenceable(3376), i64, %struct.Memory*) {
block_400488:
  %3 = getelementptr inbounds %struct.State, %struct.State* %0, i32 0, i32 6
  %4 = getelementptr inbounds %struct.GPR, %struct.GPR* %3, i32 0, i32 33
  %5 = getelementptr inbounds %struct.Reg, %struct.Reg* %4, i32 0, i32 0
  %PC = bitcast %union.anon* %5 to i64*
  %6 = getelementptr inbounds %struct.State, %struct.State* %0, i32 0, i32 6
  %7 = getelementptr inbounds %struct.GPR, %struct.GPR* %6, i32 0, i32 5
  %8 = getelementptr inbounds %struct.Reg, %struct.Reg* %7, i32 0, i32 0
  %RCX = bitcast %union.anon* %8 to i64*
  %9 = getelementptr inbounds %struct.State, %struct.State* %0, i32 0, i32 6
  %10 = getelementptr inbounds %struct.GPR, %struct.GPR* %9, i32 0, i32 17
  %11 = getelementptr inbounds %struct.Reg, %struct.Reg* %10, i32 0, i32 0
  %R8 = bitcast %union.anon* %11 to i64*
  %12 = load i64, i64* %R8
  %13 = mul i64 %12, 4
  %14 = add i64 %13, 11901264
  %15 = load i64, i64* %PC
  %16 = add i64 %15, 8
  store i64 %16, i64* %PC
  %17 = inttoptr i64 %14 to i32*
  %18 = load i32, i32* %17
  %19 = zext i32 %18 to i64
  store i64 %19, i64* %RCX, align 8
  ret %struct.Memory* %2
}

define %struct.Memory* @routine_addl_MINUS0x8__rbp____ecx(%struct.State* dereferenceable(3376), i64, %struct.Memory*) {
block_400488:
  %3 = getelementptr inbounds %struct.State, %struct.State* %0, i32 0, i32 6
  %4 = getelementptr inbounds %struct.GPR, %struct.GPR* %3, i32 0, i32 33
  %5 = getelementptr inbounds %struct.Reg, %struct.Reg* %4, i32 0, i32 0
  %PC = bitcast %union.anon* %5 to i64*
  %6 = getelementptr inbounds %struct.State, %struct.State* %0, i32 0, i32 6
  %7 = getelementptr inbounds %struct.GPR, %struct.GPR* %6, i32 0, i32 5
  %8 = getelementptr inbounds %struct.Reg, %struct.Reg* %7, i32 0, i32 0
  %RCX = bitcast %union.anon* %8 to i64*
  %9 = getelementptr inbounds %struct.State, %struct.State* %0, i32 0, i32 6
  %10 = getelementptr inbounds %struct.GPR, %struct.GPR* %9, i32 0, i32 15
  %11 = getelementptr inbounds %struct.Reg, %struct.Reg* %10, i32 0, i32 0
  %RBP = bitcast %union.anon* %11 to i64*
  %12 = load i64, i64* %RCX
  %13 = load i64, i64* %RBP
  %14 = sub i64 %13, 8
  %15 = load i64, i64* %PC
  %16 = add i64 %15, 3
  store i64 %16, i64* %PC
  %17 = trunc i64 %12 to i32
  %18 = inttoptr i64 %14 to i32*
  %19 = load i32, i32* %18
  %20 = add i32 %19, %17
  %21 = zext i32 %20 to i64
  store i64 %21, i64* %RCX, align 8
  %22 = icmp ult i32 %20, %17
  %23 = icmp ult i32 %20, %19
  %24 = or i1 %22, %23
  %25 = zext i1 %24 to i8
  %26 = getelementptr inbounds %struct.State, %struct.State* %0, i64 0, i32 2, i32 1
  store i8 %25, i8* %26, align 1
  %27 = and i32 %20, 255
  %28 = call i32 @llvm.ctpop.i32(i32 %27)
  %29 = trunc i32 %28 to i8
  %30 = and i8 %29, 1
  %31 = xor i8 %30, 1
  %32 = getelementptr inbounds %struct.State, %struct.State* %0, i64 0, i32 2, i32 3
  store i8 %31, i8* %32, align 1
  %33 = xor i32 %19, %17
  %34 = xor i32 %33, %20
  %35 = lshr i32 %34, 4
  %36 = trunc i32 %35 to i8
  %37 = and i8 %36, 1
  %38 = getelementptr inbounds %struct.State, %struct.State* %0, i64 0, i32 2, i32 5
  store i8 %37, i8* %38, align 1
  %39 = icmp eq i32 %20, 0
  %40 = zext i1 %39 to i8
  %41 = getelementptr inbounds %struct.State, %struct.State* %0, i64 0, i32 2, i32 7
  store i8 %40, i8* %41, align 1
  %42 = lshr i32 %20, 31
  %43 = trunc i32 %42 to i8
  %44 = getelementptr inbounds %struct.State, %struct.State* %0, i64 0, i32 2, i32 9
  store i8 %43, i8* %44, align 1
  %45 = lshr i32 %17, 31
  %46 = lshr i32 %19, 31
  %47 = xor i32 %42, %45
  %48 = xor i32 %42, %46
  %49 = add i32 %47, %48
  %50 = icmp eq i32 %49, 2
  %51 = zext i1 %50 to i8
  %52 = getelementptr inbounds %struct.State, %struct.State* %0, i64 0, i32 2, i32 13
  store i8 %51, i8* %52, align 1
  ret %struct.Memory* %2
}

define %struct.Memory* @routine_movl__ecx__MINUS0x14__rbp_(%struct.State* dereferenceable(3376), i64, %struct.Memory*) {
block_400488:
  %3 = getelementptr inbounds %struct.State, %struct.State* %0, i32 0, i32 6
  %4 = getelementptr inbounds %struct.GPR, %struct.GPR* %3, i32 0, i32 33
  %5 = getelementptr inbounds %struct.Reg, %struct.Reg* %4, i32 0, i32 0
  %PC = bitcast %union.anon* %5 to i64*
  %6 = getelementptr inbounds %struct.State, %struct.State* %0, i32 0, i32 6
  %7 = getelementptr inbounds %struct.GPR, %struct.GPR* %6, i32 0, i32 5
  %8 = getelementptr inbounds %struct.Reg, %struct.Reg* %7, i32 0, i32 0
  %ECX = bitcast %union.anon* %8 to i32*
  %9 = getelementptr inbounds %struct.State, %struct.State* %0, i32 0, i32 6
  %10 = getelementptr inbounds %struct.GPR, %struct.GPR* %9, i32 0, i32 15
  %11 = getelementptr inbounds %struct.Reg, %struct.Reg* %10, i32 0, i32 0
  %RBP = bitcast %union.anon* %11 to i64*
  %12 = load i64, i64* %RBP
  %13 = sub i64 %12, 20
  %14 = load i32, i32* %ECX
  %15 = zext i32 %14 to i64
  %16 = load i64, i64* %PC
  %17 = add i64 %16, 3
  store i64 %17, i64* %PC
  %18 = inttoptr i64 %13 to i32*
  store i32 %14, i32* %18
  ret %struct.Memory* %2
}

define %struct.Memory* @routine_movl_0xb59df0___r8_4____ecx(%struct.State* dereferenceable(3376), i64, %struct.Memory*) {
block_400488:
  %3 = getelementptr inbounds %struct.State, %struct.State* %0, i32 0, i32 6
  %4 = getelementptr inbounds %struct.GPR, %struct.GPR* %3, i32 0, i32 33
  %5 = getelementptr inbounds %struct.Reg, %struct.Reg* %4, i32 0, i32 0
  %PC = bitcast %union.anon* %5 to i64*
  %6 = getelementptr inbounds %struct.State, %struct.State* %0, i32 0, i32 6
  %7 = getelementptr inbounds %struct.GPR, %struct.GPR* %6, i32 0, i32 5
  %8 = getelementptr inbounds %struct.Reg, %struct.Reg* %7, i32 0, i32 0
  %RCX = bitcast %union.anon* %8 to i64*
  %9 = getelementptr inbounds %struct.State, %struct.State* %0, i32 0, i32 6
  %10 = getelementptr inbounds %struct.GPR, %struct.GPR* %9, i32 0, i32 17
  %11 = getelementptr inbounds %struct.Reg, %struct.Reg* %10, i32 0, i32 0
  %R8 = bitcast %union.anon* %11 to i64*
  %12 = load i64, i64* %R8
  %13 = mul i64 %12, 4
  %14 = add i64 %13, 11902448
  %15 = load i64, i64* %PC
  %16 = add i64 %15, 8
  store i64 %16, i64* %PC
  %17 = inttoptr i64 %14 to i32*
  %18 = load i32, i32* %17
  %19 = zext i32 %18 to i64
  store i64 %19, i64* %RCX, align 8
  ret %struct.Memory* %2
}

define %struct.Memory* @routine_movl__ecx__MINUS0x18__rbp_(%struct.State* dereferenceable(3376), i64, %struct.Memory*) {
block_400488:
  %3 = getelementptr inbounds %struct.State, %struct.State* %0, i32 0, i32 6
  %4 = getelementptr inbounds %struct.GPR, %struct.GPR* %3, i32 0, i32 33
  %5 = getelementptr inbounds %struct.Reg, %struct.Reg* %4, i32 0, i32 0
  %PC = bitcast %union.anon* %5 to i64*
  %6 = getelementptr inbounds %struct.State, %struct.State* %0, i32 0, i32 6
  %7 = getelementptr inbounds %struct.GPR, %struct.GPR* %6, i32 0, i32 5
  %8 = getelementptr inbounds %struct.Reg, %struct.Reg* %7, i32 0, i32 0
  %ECX = bitcast %union.anon* %8 to i32*
  %9 = getelementptr inbounds %struct.State, %struct.State* %0, i32 0, i32 6
  %10 = getelementptr inbounds %struct.GPR, %struct.GPR* %9, i32 0, i32 15
  %11 = getelementptr inbounds %struct.Reg, %struct.Reg* %10, i32 0, i32 0
  %RBP = bitcast %union.anon* %11 to i64*
  %12 = load i64, i64* %RBP
  %13 = sub i64 %12, 24
  %14 = load i32, i32* %ECX
  %15 = zext i32 %14 to i64
  %16 = load i64, i64* %PC
  %17 = add i64 %16, 3
  store i64 %17, i64* %PC
  %18 = inttoptr i64 %13 to i32*
  store i32 %14, i32* %18
  ret %struct.Memory* %2
}

define %struct.Memory* @routine_movl_MINUS0x14__rbp____edi(%struct.State* dereferenceable(3376), i64, %struct.Memory*) {
block_400488:
  %3 = getelementptr inbounds %struct.State, %struct.State* %0, i32 0, i32 6
  %4 = getelementptr inbounds %struct.GPR, %struct.GPR* %3, i32 0, i32 33
  %5 = getelementptr inbounds %struct.Reg, %struct.Reg* %4, i32 0, i32 0
  %PC = bitcast %union.anon* %5 to i64*
  %6 = getelementptr inbounds %struct.State, %struct.State* %0, i32 0, i32 6
  %7 = getelementptr inbounds %struct.GPR, %struct.GPR* %6, i32 0, i32 11
  %8 = getelementptr inbounds %struct.Reg, %struct.Reg* %7, i32 0, i32 0
  %RDI = bitcast %union.anon* %8 to i64*
  %9 = getelementptr inbounds %struct.State, %struct.State* %0, i32 0, i32 6
  %10 = getelementptr inbounds %struct.GPR, %struct.GPR* %9, i32 0, i32 15
  %11 = getelementptr inbounds %struct.Reg, %struct.Reg* %10, i32 0, i32 0
  %RBP = bitcast %union.anon* %11 to i64*
  %12 = load i64, i64* %RBP
  %13 = sub i64 %12, 20
  %14 = load i64, i64* %PC
  %15 = add i64 %14, 3
  store i64 %15, i64* %PC
  %16 = inttoptr i64 %13 to i32*
  %17 = load i32, i32* %16
  %18 = zext i32 %17 to i64
  store i64 %18, i64* %RDI, align 8
  ret %struct.Memory* %2
}

define %struct.Memory* @routine_subl_MINUS0xc__rbp____eax(%struct.State* dereferenceable(3376), i64, %struct.Memory*) {
block_400488:
  %3 = getelementptr inbounds %struct.State, %struct.State* %0, i32 0, i32 6
  %4 = getelementptr inbounds %struct.GPR, %struct.GPR* %3, i32 0, i32 33
  %5 = getelementptr inbounds %struct.Reg, %struct.Reg* %4, i32 0, i32 0
  %PC = bitcast %union.anon* %5 to i64*
  %6 = getelementptr inbounds %struct.State, %struct.State* %0, i32 0, i32 6
  %7 = getelementptr inbounds %struct.GPR, %struct.GPR* %6, i32 0, i32 1
  %8 = getelementptr inbounds %struct.Reg, %struct.Reg* %7, i32 0, i32 0
  %RAX = bitcast %union.anon* %8 to i64*
  %9 = getelementptr inbounds %struct.State, %struct.State* %0, i32 0, i32 6
  %10 = getelementptr inbounds %struct.GPR, %struct.GPR* %9, i32 0, i32 15
  %11 = getelementptr inbounds %struct.Reg, %struct.Reg* %10, i32 0, i32 0
  %RBP = bitcast %union.anon* %11 to i64*
  %12 = load i64, i64* %RAX
  %13 = load i64, i64* %RBP
  %14 = sub i64 %13, 12
  %15 = load i64, i64* %PC
  %16 = add i64 %15, 3
  store i64 %16, i64* %PC
  %17 = trunc i64 %12 to i32
  %18 = inttoptr i64 %14 to i32*
  %19 = load i32, i32* %18
  %20 = sub i32 %17, %19
  %21 = zext i32 %20 to i64
  store i64 %21, i64* %RAX, align 8
  %22 = icmp ult i32 %17, %19
  %23 = zext i1 %22 to i8
  %24 = getelementptr inbounds %struct.State, %struct.State* %0, i64 0, i32 2, i32 1
  store i8 %23, i8* %24, align 1
  %25 = and i32 %20, 255
  %26 = call i32 @llvm.ctpop.i32(i32 %25)
  %27 = trunc i32 %26 to i8
  %28 = and i8 %27, 1
  %29 = xor i8 %28, 1
  %30 = getelementptr inbounds %struct.State, %struct.State* %0, i64 0, i32 2, i32 3
  store i8 %29, i8* %30, align 1
  %31 = xor i32 %19, %17
  %32 = xor i32 %31, %20
  %33 = lshr i32 %32, 4
  %34 = trunc i32 %33 to i8
  %35 = and i8 %34, 1
  %36 = getelementptr inbounds %struct.State, %struct.State* %0, i64 0, i32 2, i32 5
  store i8 %35, i8* %36, align 1
  %37 = icmp eq i32 %20, 0
  %38 = zext i1 %37 to i8
  %39 = getelementptr inbounds %struct.State, %struct.State* %0, i64 0, i32 2, i32 7
  store i8 %38, i8* %39, align 1
  %40 = lshr i32 %20, 31
  %41 = trunc i32 %40 to i8
  %42 = getelementptr inbounds %struct.State, %struct.State* %0, i64 0, i32 2, i32 9
  store i8 %41, i8* %42, align 1
  %43 = lshr i32 %17, 31
  %44 = lshr i32 %19, 31
  %45 = xor i32 %44, %43
  %46 = xor i32 %40, %43
  %47 = add i32 %46, %45
  %48 = icmp eq i32 %47, 2
  %49 = zext i1 %48 to i8
  %50 = getelementptr inbounds %struct.State, %struct.State* %0, i64 0, i32 2, i32 13
  store i8 %49, i8* %50, align 1
  ret %struct.Memory* %2
}

define %struct.Memory* @routine_movl__eax___esi(%struct.State* dereferenceable(3376), i64, %struct.Memory*) {
block_400488:
  %3 = getelementptr inbounds %struct.State, %struct.State* %0, i32 0, i32 6
  %4 = getelementptr inbounds %struct.GPR, %struct.GPR* %3, i32 0, i32 33
  %5 = getelementptr inbounds %struct.Reg, %struct.Reg* %4, i32 0, i32 0
  %PC = bitcast %union.anon* %5 to i64*
  %6 = getelementptr inbounds %struct.State, %struct.State* %0, i32 0, i32 6
  %7 = getelementptr inbounds %struct.GPR, %struct.GPR* %6, i32 0, i32 1
  %8 = getelementptr inbounds %struct.Reg, %struct.Reg* %7, i32 0, i32 0
  %EAX = bitcast %union.anon* %8 to i32*
  %9 = getelementptr inbounds %struct.State, %struct.State* %0, i32 0, i32 6
  %10 = getelementptr inbounds %struct.GPR, %struct.GPR* %9, i32 0, i32 9
  %11 = getelementptr inbounds %struct.Reg, %struct.Reg* %10, i32 0, i32 0
  %RSI = bitcast %union.anon* %11 to i64*
  %12 = load i32, i32* %EAX
  %13 = zext i32 %12 to i64
  %14 = load i64, i64* %PC
  %15 = add i64 %14, 2
  store i64 %15, i64* %PC
  %16 = and i64 %13, 4294967295
  store i64 %16, i64* %RSI, align 8
  ret %struct.Memory* %2
}

define %struct.Memory* @routine_callq_.influence_mark_non_territory(%struct.State* dereferenceable(3376), i64, %struct.Memory*, i64 %rel_off1, i64 %rel_off2, i64 %rel_off3) {
block_400488:
  %3 = getelementptr inbounds %struct.State, %struct.State* %0, i32 0, i32 6
  %4 = getelementptr inbounds %struct.GPR, %struct.GPR* %3, i32 0, i32 33
  %5 = getelementptr inbounds %struct.Reg, %struct.Reg* %4, i32 0, i32 0
  %PC = bitcast %union.anon* %5 to i64*
  %6 = load i64, i64* %PC
  %7 = add i64 %6, %rel_off1
  %8 = load i64, i64* %PC
  %9 = add i64 %8, %rel_off2
  %10 = load i64, i64* %PC
  %11 = add i64 %10, %rel_off3
  store i64 %11, i64* %PC
  %12 = getelementptr inbounds %struct.State, %struct.State* %0, i64 0, i32 6, i32 13, i32 0, i32 0
  %13 = load i64, i64* %12, align 8
  %14 = add i64 %13, -8
  %15 = inttoptr i64 %14 to i64*
  store i64 %9, i64* %15
  store i64 %14, i64* %12, align 8
  %16 = getelementptr inbounds %struct.State, %struct.State* %0, i64 0, i32 6, i32 33, i32 0, i32 0
  store i64 %7, i64* %16, align 8
  ret %struct.Memory* %2
}

define %struct.Memory* @routine_movl_MINUS0x18__rbp____edi(%struct.State* dereferenceable(3376), i64, %struct.Memory*) {
block_400488:
  %3 = getelementptr inbounds %struct.State, %struct.State* %0, i32 0, i32 6
  %4 = getelementptr inbounds %struct.GPR, %struct.GPR* %3, i32 0, i32 33
  %5 = getelementptr inbounds %struct.Reg, %struct.Reg* %4, i32 0, i32 0
  %PC = bitcast %union.anon* %5 to i64*
  %6 = getelementptr inbounds %struct.State, %struct.State* %0, i32 0, i32 6
  %7 = getelementptr inbounds %struct.GPR, %struct.GPR* %6, i32 0, i32 11
  %8 = getelementptr inbounds %struct.Reg, %struct.Reg* %7, i32 0, i32 0
  %RDI = bitcast %union.anon* %8 to i64*
  %9 = getelementptr inbounds %struct.State, %struct.State* %0, i32 0, i32 6
  %10 = getelementptr inbounds %struct.GPR, %struct.GPR* %9, i32 0, i32 15
  %11 = getelementptr inbounds %struct.Reg, %struct.Reg* %10, i32 0, i32 0
  %RBP = bitcast %union.anon* %11 to i64*
  %12 = load i64, i64* %RBP
  %13 = sub i64 %12, 24
  %14 = load i64, i64* %PC
  %15 = add i64 %14, 3
  store i64 %15, i64* %PC
  %16 = inttoptr i64 %13 to i32*
  %17 = load i32, i32* %16
  %18 = zext i32 %17 to i64
  store i64 %18, i64* %RDI, align 8
  ret %struct.Memory* %2
}

define %struct.Memory* @routine_xorl__eax___eax(%struct.State* dereferenceable(3376), i64, %struct.Memory*) {
block_400488:
  %3 = getelementptr inbounds %struct.State, %struct.State* %0, i32 0, i32 6
  %4 = getelementptr inbounds %struct.GPR, %struct.GPR* %3, i32 0, i32 33
  %5 = getelementptr inbounds %struct.Reg, %struct.Reg* %4, i32 0, i32 0
  %PC = bitcast %union.anon* %5 to i64*
  %6 = getelementptr inbounds %struct.State, %struct.State* %0, i32 0, i32 6
  %7 = getelementptr inbounds %struct.GPR, %struct.GPR* %6, i32 0, i32 1
  %8 = getelementptr inbounds %struct.Reg, %struct.Reg* %7, i32 0, i32 0
  %EAX = bitcast %union.anon* %8 to i32*
  %9 = getelementptr inbounds %struct.State, %struct.State* %0, i32 0, i32 6
  %10 = getelementptr inbounds %struct.GPR, %struct.GPR* %9, i32 0, i32 1
  %11 = getelementptr inbounds %struct.Reg, %struct.Reg* %10, i32 0, i32 0
  %RAX = bitcast %union.anon* %11 to i64*
  %12 = load i64, i64* %RAX
  %13 = load i32, i32* %EAX
  %14 = zext i32 %13 to i64
  %15 = load i64, i64* %PC
  %16 = add i64 %15, 2
  store i64 %16, i64* %PC
  %17 = xor i64 %14, %12
  %18 = trunc i64 %17 to i32
  %19 = and i64 %17, 4294967295
  store i64 %19, i64* %RAX, align 8
  %20 = getelementptr inbounds %struct.State, %struct.State* %0, i64 0, i32 2, i32 1
  store i8 0, i8* %20, align 1
  %21 = and i32 %18, 255
  %22 = call i32 @llvm.ctpop.i32(i32 %21)
  %23 = trunc i32 %22 to i8
  %24 = and i8 %23, 1
  %25 = xor i8 %24, 1
  %26 = getelementptr inbounds %struct.State, %struct.State* %0, i64 0, i32 2, i32 3
  store i8 %25, i8* %26, align 1
  %27 = icmp eq i32 %18, 0
  %28 = zext i1 %27 to i8
  %29 = getelementptr inbounds %struct.State, %struct.State* %0, i64 0, i32 2, i32 7
  store i8 %28, i8* %29, align 1
  %30 = lshr i32 %18, 31
  %31 = trunc i32 %30 to i8
  %32 = getelementptr inbounds %struct.State, %struct.State* %0, i64 0, i32 2, i32 9
  store i8 %31, i8* %32, align 1
  %33 = getelementptr inbounds %struct.State, %struct.State* %0, i64 0, i32 2, i32 13
  store i8 0, i8* %33, align 1
  %34 = getelementptr inbounds %struct.State, %struct.State* %0, i64 0, i32 2, i32 5
  store i8 0, i8* %34, align 1
  ret %struct.Memory* %2
}

define %struct.Memory* @routine_addq__0x20___rsp(%struct.State* dereferenceable(3376), i64, %struct.Memory*) {
block_400488:
  %3 = getelementptr inbounds %struct.State, %struct.State* %0, i32 0, i32 6
  %4 = getelementptr inbounds %struct.GPR, %struct.GPR* %3, i32 0, i32 33
  %5 = getelementptr inbounds %struct.Reg, %struct.Reg* %4, i32 0, i32 0
  %PC = bitcast %union.anon* %5 to i64*
  %6 = getelementptr inbounds %struct.State, %struct.State* %0, i32 0, i32 6
  %7 = getelementptr inbounds %struct.GPR, %struct.GPR* %6, i32 0, i32 13
  %8 = getelementptr inbounds %struct.Reg, %struct.Reg* %7, i32 0, i32 0
  %RSP = bitcast %union.anon* %8 to i64*
  %9 = load i64, i64* %RSP
  %10 = load i64, i64* %PC
  %11 = add i64 %10, 4
  store i64 %11, i64* %PC
  %12 = add i64 32, %9
  store i64 %12, i64* %RSP, align 8
  %13 = icmp ult i64 %12, %9
  %14 = icmp ult i64 %12, 32
  %15 = or i1 %13, %14
  %16 = zext i1 %15 to i8
  %17 = getelementptr inbounds %struct.State, %struct.State* %0, i64 0, i32 2, i32 1
  store i8 %16, i8* %17, align 1
  %18 = trunc i64 %12 to i32
  %19 = and i32 %18, 255
  %20 = call i32 @llvm.ctpop.i32(i32 %19)
  %21 = trunc i32 %20 to i8
  %22 = and i8 %21, 1
  %23 = xor i8 %22, 1
  %24 = getelementptr inbounds %struct.State, %struct.State* %0, i64 0, i32 2, i32 3
  store i8 %23, i8* %24, align 1
  %25 = xor i64 32, %9
  %26 = xor i64 %25, %12
  %27 = lshr i64 %26, 4
  %28 = trunc i64 %27 to i8
  %29 = and i8 %28, 1
  %30 = getelementptr inbounds %struct.State, %struct.State* %0, i64 0, i32 2, i32 5
  store i8 %29, i8* %30, align 1
  %31 = icmp eq i64 %12, 0
  %32 = zext i1 %31 to i8
  %33 = getelementptr inbounds %struct.State, %struct.State* %0, i64 0, i32 2, i32 7
  store i8 %32, i8* %33, align 1
  %34 = lshr i64 %12, 63
  %35 = trunc i64 %34 to i8
  %36 = getelementptr inbounds %struct.State, %struct.State* %0, i64 0, i32 2, i32 9
  store i8 %35, i8* %36, align 1
  %37 = lshr i64 %9, 63
  %38 = xor i64 %34, %37
  %39 = add i64 %38, %34
  %40 = icmp eq i64 %39, 2
  %41 = zext i1 %40 to i8
  %42 = getelementptr inbounds %struct.State, %struct.State* %0, i64 0, i32 2, i32 13
  store i8 %41, i8* %42, align 1
  ret %struct.Memory* %2
}

define %struct.Memory* @routine_popq__rbp(%struct.State* dereferenceable(3376), i64, %struct.Memory*) {
block_400488:
  %3 = getelementptr inbounds %struct.State, %struct.State* %0, i32 0, i32 6
  %4 = getelementptr inbounds %struct.GPR, %struct.GPR* %3, i32 0, i32 33
  %5 = getelementptr inbounds %struct.Reg, %struct.Reg* %4, i32 0, i32 0
  %PC = bitcast %union.anon* %5 to i64*
  %6 = getelementptr inbounds %struct.State, %struct.State* %0, i32 0, i32 6
  %7 = getelementptr inbounds %struct.GPR, %struct.GPR* %6, i32 0, i32 15
  %8 = getelementptr inbounds %struct.Reg, %struct.Reg* %7, i32 0, i32 0
  %RBP = bitcast %union.anon* %8 to i64*
  %9 = load i64, i64* %PC
  %10 = add i64 %9, 1
  store i64 %10, i64* %PC
  %11 = getelementptr inbounds %struct.State, %struct.State* %0, i64 0, i32 6, i32 13, i32 0, i32 0
  %12 = load i64, i64* %11, align 8
  %13 = add i64 %12, 8
  %14 = inttoptr i64 %12 to i64*
  %15 = load i64, i64* %14
  store i64 %15, i64* %RBP, align 8
  store i64 %13, i64* %11, align 8
  ret %struct.Memory* %2
}

define %struct.Memory* @routine_retq(%struct.State* dereferenceable(3376), i64, %struct.Memory*) {
block_400488:
  %3 = getelementptr inbounds %struct.State, %struct.State* %0, i32 0, i32 6
  %4 = getelementptr inbounds %struct.GPR, %struct.GPR* %3, i32 0, i32 33
  %5 = getelementptr inbounds %struct.Reg, %struct.Reg* %4, i32 0, i32 0
  %PC = bitcast %union.anon* %5 to i64*
  %6 = load i64, i64* %PC
  %7 = add i64 %6, 1
  store i64 %7, i64* %PC
  %8 = getelementptr inbounds %struct.State, %struct.State* %0, i64 0, i32 6, i32 33, i32 0, i32 0
  %9 = getelementptr inbounds %struct.State, %struct.State* %0, i64 0, i32 6, i32 13, i32 0, i32 0
  %10 = load i64, i64* %9, align 8
  %11 = inttoptr i64 %10 to i64*
  %12 = load i64, i64* %11
  store i64 %12, i64* %8, align 8
  %13 = add i64 %10, 8
  store i64 %13, i64* %9, align 8
  ret %struct.Memory* %2
}

attributes #0 = { argmemonly nounwind }
attributes #1 = { nounwind readnone }
attributes #2 = { alwaysinline }
