; ModuleID = 'mcsema/test.proposed.ll'
source_filename = "llvm-link"
target datalayout = "e-m:e-i64:64-f80:128-n8:16:32:64-S128"
target triple = "x86_64-pc-linux-gnu-elf"

%union.anon = type { i64 }
%seg_400370__init_type = type <{ [23 x i8] }>
%seg_400390__text_type = type <{ [354 x i8] }>
%seg_4004f4__fini_type = type <{ [9 x i8] }>
%seg_400500__rodata_type = type <{ [4 x i8] }>
%seg_400504__eh_frame_hdr_type = type <{ [52 x i8] }>
%seg_400538__eh_frame_type = type <{ [208 x i8] }>
%seg_601018__data_type = type <{ [16 x i8] }>
%__bss_start_type = type <{ [8 x i8] }>
%struct.State = type { %struct.ArchState, [32 x %union.VectorReg], %struct.ArithFlags, %union.anon, %struct.Segments, %struct.AddressSpace, %struct.GPR, %struct.X87Stack, %struct.MMX, %struct.FPUStatusFlags, %union.anon, %union.FPU, %struct.SegmentCaches }
%struct.ArchState = type { i32, i32, %union.anon }
%union.VectorReg = type { %union.vec512_t }
%union.vec512_t = type { %struct.uint64v8_t }
%struct.uint64v8_t = type { [8 x i64] }
%struct.ArithFlags = type { i8, i8, i8, i8, i8, i8, i8, i8, i8, i8, i8, i8, i8, i8, i8, i8 }
%struct.Segments = type { i16, %union.SegmentSelector, i16, %union.SegmentSelector, i16, %union.SegmentSelector, i16, %union.SegmentSelector, i16, %union.SegmentSelector, i16, %union.SegmentSelector }
%union.SegmentSelector = type { i16 }
%struct.AddressSpace = type { i64, %struct.Reg, i64, %struct.Reg, i64, %struct.Reg, i64, %struct.Reg, i64, %struct.Reg, i64, %struct.Reg }
%struct.Reg = type { %union.anon }
%struct.GPR = type { i64, %struct.Reg, i64, %struct.Reg, i64, %struct.Reg, i64, %struct.Reg, i64, %struct.Reg, i64, %struct.Reg, i64, %struct.Reg, i64, %struct.Reg, i64, %struct.Reg, i64, %struct.Reg, i64, %struct.Reg, i64, %struct.Reg, i64, %struct.Reg, i64, %struct.Reg, i64, %struct.Reg, i64, %struct.Reg, i64, %struct.Reg }
%struct.X87Stack = type { [8 x %struct.anon.3] }
%struct.anon.3 = type { i64, double }
%struct.MMX = type { [8 x %struct.anon.4] }
%struct.anon.4 = type { i64, %union.vec64_t }
%union.vec64_t = type { %struct.uint64v1_t }
%struct.uint64v1_t = type { [1 x i64] }
%struct.FPUStatusFlags = type { i8, i8, i8, i8, i8, i8, i8, i8, i8, i8, i8, i8, i8, i8, i8, i8, i8, i8, i8, i8, [4 x i8] }
%union.FPU = type { %struct.anon.13 }
%struct.anon.13 = type { %struct.FpuFXSAVE, [96 x i8] }
%struct.FpuFXSAVE = type { %union.SegmentSelector, %union.SegmentSelector, %union.FPUAbridgedTagWord, i8, i16, i32, %union.SegmentSelector, i16, i32, %union.SegmentSelector, i16, %union.FPUControlStatus, %union.FPUControlStatus, [8 x %struct.FPUStackElem], [16 x %union.vec128_t] }
%union.FPUAbridgedTagWord = type { i8 }
%union.FPUControlStatus = type { i32 }
%struct.FPUStackElem = type { %union.anon.11, [6 x i8] }
%union.anon.11 = type { %struct.float80_t }
%struct.float80_t = type { [10 x i8] }
%union.vec128_t = type { %struct.uint128v1_t }
%struct.uint128v1_t = type { [1 x i128] }
%struct.SegmentCaches = type { %struct.SegmentShadow, %struct.SegmentShadow, %struct.SegmentShadow, %struct.SegmentShadow, %struct.SegmentShadow, %struct.SegmentShadow }
%struct.SegmentShadow = type { %union.anon, i32, i32 }
%struct.Memory = type opaque
%"class.std::bitset" = type { %struct.uint64v4_t }
%struct.uint64v4_t = type { [4 x i64] }

@switch.table = private unnamed_addr constant [4 x i32] [i32 2048, i32 3072, i32 0, i32 1024]
@DR0 = external global i64, align 8
@DR1 = external global i64, align 8
@DR2 = external global i64, align 8
@DR3 = external global i64, align 8
@DR4 = external global i64, align 8
@DR5 = external global i64, align 8
@DR6 = external global i64, align 8
@DR7 = external global i64, align 8
@gCR0 = external global %union.anon, align 1
@gCR1 = external global %union.anon, align 1
@gCR2 = external global %union.anon, align 1
@gCR3 = external global %union.anon, align 1
@gCR4 = external global %union.anon, align 1
@gCR8 = external global %union.anon, align 1
@seg_400370__init = internal constant %seg_400370__init_type <{ [23 x i8] c"H\83\EC\08H\8B\05}\0C \00H\85\C0t\02\FF\D0H\83\C4\08\C3" }>
@seg_400390__text = internal constant %seg_400390__text_type <{ [354 x i8] c"1\EDI\89\D1^H\89\E2H\83\E4\F0PTI\C7\C0\F0\04@\00H\C7\C1\80\04@\00H\C7\C7x\04@\00\FF\156\0C \00\F4\0F\1FD\00\00\F3\C3f.\0F\1F\84\00\00\00\00\00\0F\1F@\00U\B8(\10`\00H=(\10`\00H\89\E5t\17\B8\00\00\00\00H\85\C0t\0D]\BF(\10`\00\FF\E0\0F\1FD\00\00]\C3f\0F\1FD\00\00\BE(\10`\00UH\81\EE(\10`\00H\89\E5H\C1\FE\03H\89\F0H\C1\E8?H\01\C6H\D1\FEt\15\B8\00\00\00\00H\85\C0t\0B]\BF(\10`\00\FF\E0\0F\1F\00]\C3f\0F\1FD\00\00\80=\E1\0B \00\00u\17UH\89\E5\E8~\FF\FF\FF\C6\05\CF\0B \00\01]\C3\0F\1FD\00\00\F3\C3\0F\1F@\00f.\0F\1F\84\00\00\00\00\00UH\89\E5]\EB\89\90U\C3f\0F\1FD\00\00AWAVI\89\D7AUATL\8D%\BE\09 \00UH\8D-\BE\09 \00SA\89\FDI\89\F6L)\E5H\83\EC\08H\C1\FD\03\E8\BF\FE\FF\FFH\85\EDt 1\DB\0F\1F\84\00\00\00\00\00L\89\FAL\89\F6D\89\EFA\FF\14\DCH\83\C3\01H9\DDu\EAH\83\C4\08[]A\5CA]A^A_\C3\90f.\0F\1F\84\00\00\00\00\00\F3\C3" }>
@seg_4004f4__fini = internal constant %seg_4004f4__fini_type <{ [9 x i8] c"H\83\EC\08H\83\C4\08\C3" }>
@seg_400500__rodata = internal constant %seg_400500__rodata_type <{ [4 x i8] c"\01\00\02\00" }>
@seg_400504__eh_frame_hdr = internal constant %seg_400504__eh_frame_hdr_type <{ [52 x i8] c"\01\1B\03;0\00\00\00\05\00\00\00\8C\FE\FF\FFL\00\00\00\BC\FE\FF\FFx\00\00\00t\FF\FF\FF\8C\00\00\00|\FF\FF\FF\A4\00\00\00\EC\FF\FF\FF\EC\00\00\00" }>
@seg_400538__eh_frame = internal constant %seg_400538__eh_frame_type <{ [208 x i8] c"\14\00\00\00\00\00\00\00\01zR\00\01x\10\01\1B\0C\07\08\90\01\07\10\10\00\00\00\1C\00\00\008\FE\FF\FF+\00\00\00\00\00\00\00\14\00\00\00\00\00\00\00\01zR\00\01x\10\01\1B\0C\07\08\90\01\00\00\10\00\00\00\1C\00\00\00<\FE\FF\FF\02\00\00\00\00\00\00\00\14\00\00\000\00\00\00\E0\FE\FF\FF\02\00\00\00\00\00\00\00\00\00\00\00D\00\00\00H\00\00\00\D0\FE\FF\FFe\00\00\00\00B\0E\10\8F\02B\0E\18\8E\03E\0E \8D\04B\0E(\8C\05H\0E0\86\06H\0E8\83\07M\0E@r\0E8A\0E0A\0E(B\0E B\0E\18B\0E\10B\0E\08\00\10\00\00\00\90\00\00\00\F8\FE\FF\FF\02\00\00\00\00\00\00\00\00\00\00\00" }>
@seg_601018__data = internal global %seg_601018__data_type zeroinitializer
@__bss_start = global %__bss_start_type zeroinitializer
@0 = internal global i1 false

declare %struct.Memory* @__remill_error(%struct.State* dereferenceable(3376), i64, %struct.Memory*)

declare i32 @__remill_fpu_exception_test_and_clear(i32, i32)

; Function Attrs: argmemonly nounwind
declare void @llvm.lifetime.start(i64, i8* nocapture) #0

; Function Attrs: argmemonly nounwind
declare void @llvm.lifetime.end(i64, i8* nocapture) #0

; Function Attrs: nounwind readnone
declare i32 @llvm.ctpop.i32(i32) #1

; Function Attrs: nounwind readnone
declare i32 @llvm.bswap.i32(i32) #1

; Function Attrs: nounwind readnone
declare i64 @llvm.bswap.i64(i64) #1

; Function Attrs: nounwind readnone
declare i32 @llvm.cttz.i32(i32, i1) #1

; Function Attrs: nounwind readnone
declare i64 @llvm.cttz.i64(i64, i1) #1

; Function Attrs: nounwind readnone
declare i32 @llvm.ctlz.i32(i32, i1) #1

; Function Attrs: nounwind readnone
declare i64 @llvm.ctlz.i64(i64, i1) #1

; Function Attrs: argmemonly nounwind
declare void @llvm.memcpy.p0i8.p0i8.i64(i8* nocapture writeonly, i8* nocapture readonly, i64, i32, i1) #0

; Function Attrs: nounwind readnone
declare double @llvm.nearbyint.f64(double) #1

; Function Attrs: nounwind readnone
declare double @llvm.fabs.f64(double) #1

; Function Attrs: nounwind readnone
declare <4 x double> @llvm.nearbyint.v4f64(<4 x double>) #1

; Function Attrs: nounwind readnone
declare <4 x double> @llvm.fabs.v4f64(<4 x double>) #1

; Function Attrs: nounwind readnone
declare double @llvm.trunc.f64(double) #1

; Function Attrs: nounwind readnone
declare <4 x double> @llvm.trunc.v4f64(<4 x double>) #1

; Function Attrs: nounwind readnone
declare float @llvm.nearbyint.f32(float) #1

; Function Attrs: nounwind readnone
declare float @llvm.fabs.f32(float) #1

; Function Attrs: nounwind readnone
declare <4 x float> @llvm.nearbyint.v4f32(<4 x float>) #1

; Function Attrs: nounwind readnone
declare <4 x float> @llvm.fabs.v4f32(<4 x float>) #1

; Function Attrs: nounwind readnone
declare float @llvm.trunc.f32(float) #1

; Function Attrs: nounwind readnone
declare <4 x float> @llvm.trunc.v4f32(<4 x float>) #1

; Function Attrs: argmemonly nounwind
declare void @llvm.memset.p0i8.i64(i8* nocapture writeonly, i8, i64, i32, i1) #0

declare double @atan(double) local_unnamed_addr

declare double @cos(double) local_unnamed_addr

declare double @sin(double) local_unnamed_addr

declare double @sqrt(double) local_unnamed_addr

declare double @tan(double) local_unnamed_addr

declare extern_weak x86_64_sysvcc i64 @abort()

declare extern_weak x86_64_sysvcc i64 @abs(i64)

declare extern_weak x86_64_sysvcc i64 @asin(i64)

declare extern_weak x86_64_sysvcc i64 @atof(i64)

declare extern_weak x86_64_sysvcc i64 @atoi(i64)

declare extern_weak x86_64_sysvcc i64 @atol(i64)

declare extern_weak x86_64_sysvcc i64 @calloc(i64, i64)

declare extern_weak x86_64_sysvcc i64 @clock()

declare extern_weak x86_64_sysvcc i64 @cosf(i64)

declare extern_weak x86_64_sysvcc i64 @exit(i64)

declare extern_weak x86_64_sysvcc i64 @exp(i64)

declare extern_weak x86_64_sysvcc i64 @fflush(i64)

declare extern_weak x86_64_sysvcc i64 @floor(i64)

declare extern_weak x86_64_sysvcc i64 @fprintf(i64, i64, i64, i64, i64, i64, i64, i64, i64, i64, i64, i64, i64, i64, i64, i64)

declare extern_weak x86_64_sysvcc i64 @fputs(i64, i64)

declare extern_weak x86_64_sysvcc i64 @free(i64)

declare extern_weak x86_64_sysvcc i64 @fwrite(i64, i64, i64, i64)

declare extern_weak x86_64_sysvcc i64 @getchar()

declare extern_weak x86_64_sysvcc i64 @gettimeofday(i64, i64)

declare extern_weak x86_64_sysvcc i64 @__isoc99_fscanf(i64, i64, i64, i64, i64, i64, i64, i64, i64, i64, i64, i64, i64, i64, i64, i64)

declare extern_weak x86_64_sysvcc i64 @__isoc99_scanf(i64, i64, i64, i64, i64, i64, i64, i64, i64, i64, i64, i64, i64, i64, i64, i64)

declare extern_weak x86_64_sysvcc i64 @__isoc99_sscanf(i64, i64, i64, i64, i64, i64, i64, i64, i64, i64, i64, i64, i64, i64, i64, i64)

declare extern_weak x86_64_sysvcc i64 @log(i64)

declare extern_weak x86_64_sysvcc i64 @lrand48()

declare extern_weak x86_64_sysvcc i64 @malloc(i64)

declare extern_weak x86_64_sysvcc i64 @memalign(i64, i64)

declare extern_weak x86_64_sysvcc i64 @memcpy(i64, i64, i64)

declare extern_weak x86_64_sysvcc i64 @memset(i64, i64, i64)

declare extern_weak x86_64_sysvcc i64 @perror(i64)

declare extern_weak x86_64_sysvcc i64 @posix_memalign(i64, i64, i64)

declare extern_weak x86_64_sysvcc i64 @pow(i64, i64)

declare extern_weak x86_64_sysvcc i64 @printf(i64, i64, i64, i64, i64, i64, i64, i64, i64, i64, i64, i64, i64, i64, i64, i64)

declare extern_weak x86_64_sysvcc i64 @putchar(i64)

declare extern_weak x86_64_sysvcc i64 @puts(i64)

declare extern_weak x86_64_sysvcc i64 @rand()

declare extern_weak x86_64_sysvcc i64 @random()

declare extern_weak x86_64_sysvcc i64 @realloc(i64, i64)

declare extern_weak x86_64_sysvcc i64 @seed48(i64)

declare extern_weak x86_64_sysvcc i64 @sinf(i64)

declare extern_weak x86_64_sysvcc i64 @sprintf(i64, i64, i64, i64, i64, i64, i64, i64, i64, i64, i64, i64, i64, i64, i64, i64)

declare extern_weak x86_64_sysvcc i64 @srand(i64)

declare extern_weak x86_64_sysvcc i64 @strcat(i64, i64)

declare extern_weak x86_64_sysvcc i64 @strcmp(i64, i64)

declare extern_weak x86_64_sysvcc i64 @strcpy(i64, i64)

declare extern_weak x86_64_sysvcc i64 @strdup(i64)

declare extern_weak x86_64_sysvcc i64 @strlen(i64)

declare extern_weak x86_64_sysvcc i64 @strncmp(i64, i64, i64)

declare extern_weak x86_64_sysvcc i64 @strtoll(i64, i64, i64)

declare extern_weak x86_64_sysvcc i64 @time(i64)

declare extern_weak x86_64_sysvcc i64 @ungetc(i64, i64)

declare extern_weak x86_64_sysvcc i64 @pthread_join(i64, i64)

declare extern_weak x86_64_sysvcc i64 @pthread_create(i64, i64, i64, i64)

declare %struct.Memory* @__remill_function_call(%struct.State* dereferenceable(3376), i64, %struct.Memory*)

declare %struct.Memory* @ext_sqrt(%struct.State* noalias dereferenceable(3376), i64, %struct.Memory* noalias)

declare %struct.Memory* @ext_atan(%struct.State* noalias dereferenceable(3376), i64, %struct.Memory* noalias)

declare %struct.Memory* @ext_cos(%struct.State* noalias dereferenceable(3376), i64, %struct.Memory* noalias)

declare %struct.Memory* @ext_tan(%struct.State* noalias dereferenceable(3376), i64, %struct.Memory* noalias)

declare %struct.Memory* @ext_sin(%struct.State* noalias dereferenceable(3376), i64, %struct.Memory* noalias)

; Function Attrs: alwaysinline
define %struct.Memory* @_ZN30custom_mixed_multiple_variableIfE8do_shiftEfffff(%struct.State* noalias, i64, %struct.Memory* noalias) #2 {
entry:
  %3 = getelementptr inbounds %struct.State, %struct.State* %0, i64 0, i32 6, i32 33, i32 0, i32 0
  store i64 %1, i64* %3, align 8
  %BRANCH_TAKEN = alloca i8, align 1
  store i8 0, i8* %BRANCH_TAKEN, align 1
  %MEMORY = alloca %struct.Memory*, align 8
  store %struct.Memory* %2, %struct.Memory** %MEMORY, align 8
  %loadMem_40c790 = load %struct.Memory*, %struct.Memory** %MEMORY
  %4 = getelementptr inbounds %struct.State, %struct.State* %0, i32 0, i32 6
  %5 = getelementptr inbounds %struct.GPR, %struct.GPR* %4, i32 0, i32 33
  %6 = getelementptr inbounds %struct.Reg, %struct.Reg* %5, i32 0, i32 0
  %PC.i = bitcast %union.anon* %6 to i64*
  %7 = getelementptr inbounds %struct.State, %struct.State* %0, i32 0, i32 6
  %8 = getelementptr inbounds %struct.GPR, %struct.GPR* %7, i32 0, i32 15
  %9 = getelementptr inbounds %struct.Reg, %struct.Reg* %8, i32 0, i32 0
  %RBP.i = bitcast %union.anon* %9 to i64*
  %10 = load i64, i64* %RBP.i
  %11 = load i64, i64* %PC.i
  %12 = add i64 %11, 1
  store i64 %12, i64* %PC.i
  %13 = getelementptr inbounds %struct.State, %struct.State* %0, i64 0, i32 6, i32 13, i32 0, i32 0
  %14 = load i64, i64* %13, align 8
  %15 = add i64 %14, -8
  %16 = inttoptr i64 %15 to i64*
  store i64 %10, i64* %16
  store i64 %15, i64* %13, align 8
  store %struct.Memory* %loadMem_40c790, %struct.Memory** %MEMORY
  %loadMem_40c791 = load %struct.Memory*, %struct.Memory** %MEMORY
  %17 = getelementptr inbounds %struct.State, %struct.State* %0, i32 0, i32 6
  %18 = getelementptr inbounds %struct.GPR, %struct.GPR* %17, i32 0, i32 33
  %19 = getelementptr inbounds %struct.Reg, %struct.Reg* %18, i32 0, i32 0
  %PC.i30 = bitcast %union.anon* %19 to i64*
  %20 = getelementptr inbounds %struct.State, %struct.State* %0, i32 0, i32 6
  %21 = getelementptr inbounds %struct.GPR, %struct.GPR* %20, i32 0, i32 13
  %22 = getelementptr inbounds %struct.Reg, %struct.Reg* %21, i32 0, i32 0
  %RSP.i = bitcast %union.anon* %22 to i64*
  %23 = getelementptr inbounds %struct.State, %struct.State* %0, i32 0, i32 6
  %24 = getelementptr inbounds %struct.GPR, %struct.GPR* %23, i32 0, i32 15
  %25 = getelementptr inbounds %struct.Reg, %struct.Reg* %24, i32 0, i32 0
  %RBP.i31 = bitcast %union.anon* %25 to i64*
  %26 = load i64, i64* %RSP.i
  %27 = load i64, i64* %PC.i30
  %28 = add i64 %27, 3
  store i64 %28, i64* %PC.i30
  store i64 %26, i64* %RBP.i31, align 8
  store %struct.Memory* %loadMem_40c791, %struct.Memory** %MEMORY
  %loadMem_40c794 = load %struct.Memory*, %struct.Memory** %MEMORY
  %29 = getelementptr inbounds %struct.State, %struct.State* %0, i32 0, i32 6
  %30 = getelementptr inbounds %struct.GPR, %struct.GPR* %29, i32 0, i32 33
  %31 = getelementptr inbounds %struct.Reg, %struct.Reg* %30, i32 0, i32 0
  %PC.i28 = bitcast %union.anon* %31 to i64*
  %32 = getelementptr inbounds %struct.State, %struct.State* %0, i32 0, i32 6
  %33 = getelementptr inbounds %struct.GPR, %struct.GPR* %32, i32 0, i32 15
  %34 = getelementptr inbounds %struct.Reg, %struct.Reg* %33, i32 0, i32 0
  %RBP.i29 = bitcast %union.anon* %34 to i64*
  %35 = getelementptr inbounds %struct.State, %struct.State* %0, i32 0, i32 1
  %36 = getelementptr inbounds [32 x %union.VectorReg], [32 x %union.VectorReg]* %35, i64 0, i64 0
  %XMM0.i = bitcast %union.VectorReg* %36 to %union.vec128_t*
  %37 = load i64, i64* %RBP.i29
  %38 = sub i64 %37, 4
  %39 = bitcast %union.vec128_t* %XMM0.i to i8*
  %40 = load i64, i64* %PC.i28
  %41 = add i64 %40, 5
  store i64 %41, i64* %PC.i28
  %42 = bitcast i8* %39 to <2 x float>*
  %43 = load <2 x float>, <2 x float>* %42, align 1
  %44 = extractelement <2 x float> %43, i32 0
  %45 = inttoptr i64 %38 to float*
  store float %44, float* %45
  store %struct.Memory* %loadMem_40c794, %struct.Memory** %MEMORY
  %loadMem_40c799 = load %struct.Memory*, %struct.Memory** %MEMORY
  %46 = getelementptr inbounds %struct.State, %struct.State* %0, i32 0, i32 6
  %47 = getelementptr inbounds %struct.GPR, %struct.GPR* %46, i32 0, i32 33
  %48 = getelementptr inbounds %struct.Reg, %struct.Reg* %47, i32 0, i32 0
  %PC.i25 = bitcast %union.anon* %48 to i64*
  %49 = getelementptr inbounds %struct.State, %struct.State* %0, i32 0, i32 6
  %50 = getelementptr inbounds %struct.GPR, %struct.GPR* %49, i32 0, i32 15
  %51 = getelementptr inbounds %struct.Reg, %struct.Reg* %50, i32 0, i32 0
  %RBP.i26 = bitcast %union.anon* %51 to i64*
  %52 = getelementptr inbounds %struct.State, %struct.State* %0, i32 0, i32 1
  %53 = getelementptr inbounds [32 x %union.VectorReg], [32 x %union.VectorReg]* %52, i64 0, i64 1
  %XMM1.i27 = bitcast %union.VectorReg* %53 to %union.vec128_t*
  %54 = load i64, i64* %RBP.i26
  %55 = sub i64 %54, 8
  %56 = bitcast %union.vec128_t* %XMM1.i27 to i8*
  %57 = load i64, i64* %PC.i25
  %58 = add i64 %57, 5
  store i64 %58, i64* %PC.i25
  %59 = bitcast i8* %56 to <2 x float>*
  %60 = load <2 x float>, <2 x float>* %59, align 1
  %61 = extractelement <2 x float> %60, i32 0
  %62 = inttoptr i64 %55 to float*
  store float %61, float* %62
  store %struct.Memory* %loadMem_40c799, %struct.Memory** %MEMORY
  %loadMem_40c79e = load %struct.Memory*, %struct.Memory** %MEMORY
  %63 = getelementptr inbounds %struct.State, %struct.State* %0, i32 0, i32 6
  %64 = getelementptr inbounds %struct.GPR, %struct.GPR* %63, i32 0, i32 33
  %65 = getelementptr inbounds %struct.Reg, %struct.Reg* %64, i32 0, i32 0
  %PC.i23 = bitcast %union.anon* %65 to i64*
  %66 = getelementptr inbounds %struct.State, %struct.State* %0, i32 0, i32 6
  %67 = getelementptr inbounds %struct.GPR, %struct.GPR* %66, i32 0, i32 15
  %68 = getelementptr inbounds %struct.Reg, %struct.Reg* %67, i32 0, i32 0
  %RBP.i24 = bitcast %union.anon* %68 to i64*
  %69 = getelementptr inbounds %struct.State, %struct.State* %0, i32 0, i32 1
  %70 = getelementptr inbounds [32 x %union.VectorReg], [32 x %union.VectorReg]* %69, i64 0, i64 2
  %XMM2.i = bitcast %union.VectorReg* %70 to %union.vec128_t*
  %71 = load i64, i64* %RBP.i24
  %72 = sub i64 %71, 12
  %73 = bitcast %union.vec128_t* %XMM2.i to i8*
  %74 = load i64, i64* %PC.i23
  %75 = add i64 %74, 5
  store i64 %75, i64* %PC.i23
  %76 = bitcast i8* %73 to <2 x float>*
  %77 = load <2 x float>, <2 x float>* %76, align 1
  %78 = extractelement <2 x float> %77, i32 0
  %79 = inttoptr i64 %72 to float*
  store float %78, float* %79
  store %struct.Memory* %loadMem_40c79e, %struct.Memory** %MEMORY
  %loadMem_40c7a3 = load %struct.Memory*, %struct.Memory** %MEMORY
  %80 = getelementptr inbounds %struct.State, %struct.State* %0, i32 0, i32 6
  %81 = getelementptr inbounds %struct.GPR, %struct.GPR* %80, i32 0, i32 33
  %82 = getelementptr inbounds %struct.Reg, %struct.Reg* %81, i32 0, i32 0
  %PC.i21 = bitcast %union.anon* %82 to i64*
  %83 = getelementptr inbounds %struct.State, %struct.State* %0, i32 0, i32 6
  %84 = getelementptr inbounds %struct.GPR, %struct.GPR* %83, i32 0, i32 15
  %85 = getelementptr inbounds %struct.Reg, %struct.Reg* %84, i32 0, i32 0
  %RBP.i22 = bitcast %union.anon* %85 to i64*
  %86 = getelementptr inbounds %struct.State, %struct.State* %0, i32 0, i32 1
  %87 = getelementptr inbounds [32 x %union.VectorReg], [32 x %union.VectorReg]* %86, i64 0, i64 3
  %XMM3.i = bitcast %union.VectorReg* %87 to %union.vec128_t*
  %88 = load i64, i64* %RBP.i22
  %89 = sub i64 %88, 16
  %90 = bitcast %union.vec128_t* %XMM3.i to i8*
  %91 = load i64, i64* %PC.i21
  %92 = add i64 %91, 5
  store i64 %92, i64* %PC.i21
  %93 = bitcast i8* %90 to <2 x float>*
  %94 = load <2 x float>, <2 x float>* %93, align 1
  %95 = extractelement <2 x float> %94, i32 0
  %96 = inttoptr i64 %89 to float*
  store float %95, float* %96
  store %struct.Memory* %loadMem_40c7a3, %struct.Memory** %MEMORY
  %loadMem_40c7a8 = load %struct.Memory*, %struct.Memory** %MEMORY
  %97 = getelementptr inbounds %struct.State, %struct.State* %0, i32 0, i32 6
  %98 = getelementptr inbounds %struct.GPR, %struct.GPR* %97, i32 0, i32 33
  %99 = getelementptr inbounds %struct.Reg, %struct.Reg* %98, i32 0, i32 0
  %PC.i19 = bitcast %union.anon* %99 to i64*
  %100 = getelementptr inbounds %struct.State, %struct.State* %0, i32 0, i32 6
  %101 = getelementptr inbounds %struct.GPR, %struct.GPR* %100, i32 0, i32 15
  %102 = getelementptr inbounds %struct.Reg, %struct.Reg* %101, i32 0, i32 0
  %RBP.i20 = bitcast %union.anon* %102 to i64*
  %103 = getelementptr inbounds %struct.State, %struct.State* %0, i32 0, i32 1
  %104 = getelementptr inbounds [32 x %union.VectorReg], [32 x %union.VectorReg]* %103, i64 0, i64 4
  %XMM4.i = bitcast %union.VectorReg* %104 to %union.vec128_t*
  %105 = load i64, i64* %RBP.i20
  %106 = sub i64 %105, 20
  %107 = bitcast %union.vec128_t* %XMM4.i to i8*
  %108 = load i64, i64* %PC.i19
  %109 = add i64 %108, 5
  store i64 %109, i64* %PC.i19
  %110 = bitcast i8* %107 to <2 x float>*
  %111 = load <2 x float>, <2 x float>* %110, align 1
  %112 = extractelement <2 x float> %111, i32 0
  %113 = inttoptr i64 %106 to float*
  store float %112, float* %113
  store %struct.Memory* %loadMem_40c7a8, %struct.Memory** %MEMORY
  %loadMem_40c7ad = load %struct.Memory*, %struct.Memory** %MEMORY
  %114 = getelementptr inbounds %struct.State, %struct.State* %0, i32 0, i32 6
  %115 = getelementptr inbounds %struct.GPR, %struct.GPR* %114, i32 0, i32 33
  %116 = getelementptr inbounds %struct.Reg, %struct.Reg* %115, i32 0, i32 0
  %PC.i16 = bitcast %union.anon* %116 to i64*
  %117 = getelementptr inbounds %struct.State, %struct.State* %0, i32 0, i32 6
  %118 = getelementptr inbounds %struct.GPR, %struct.GPR* %117, i32 0, i32 15
  %119 = getelementptr inbounds %struct.Reg, %struct.Reg* %118, i32 0, i32 0
  %RBP.i17 = bitcast %union.anon* %119 to i64*
  %120 = getelementptr inbounds %struct.State, %struct.State* %0, i32 0, i32 1
  %121 = getelementptr inbounds [32 x %union.VectorReg], [32 x %union.VectorReg]* %120, i64 0, i64 0
  %YMM0.i18 = bitcast %union.VectorReg* %121 to %"class.std::bitset"*
  %122 = bitcast %"class.std::bitset"* %YMM0.i18 to i8*
  %123 = load i64, i64* %RBP.i17
  %124 = sub i64 %123, 4
  %125 = load i64, i64* %PC.i16
  %126 = add i64 %125, 5
  store i64 %126, i64* %PC.i16
  %127 = inttoptr i64 %124 to float*
  %128 = load float, float* %127
  %129 = bitcast i8* %122 to float*
  store float %128, float* %129, align 1
  %130 = getelementptr inbounds i8, i8* %122, i64 4
  %131 = bitcast i8* %130 to float*
  store float 0.000000e+00, float* %131, align 1
  %132 = getelementptr inbounds i8, i8* %122, i64 8
  %133 = bitcast i8* %132 to float*
  store float 0.000000e+00, float* %133, align 1
  %134 = getelementptr inbounds i8, i8* %122, i64 12
  %135 = bitcast i8* %134 to float*
  store float 0.000000e+00, float* %135, align 1
  store %struct.Memory* %loadMem_40c7ad, %struct.Memory** %MEMORY
  %loadMem_40c7b2 = load %struct.Memory*, %struct.Memory** %MEMORY
  %136 = getelementptr inbounds %struct.State, %struct.State* %0, i32 0, i32 6
  %137 = getelementptr inbounds %struct.GPR, %struct.GPR* %136, i32 0, i32 33
  %138 = getelementptr inbounds %struct.Reg, %struct.Reg* %137, i32 0, i32 0
  %PC.i13 = bitcast %union.anon* %138 to i64*
  %139 = getelementptr inbounds %struct.State, %struct.State* %0, i32 0, i32 6
  %140 = getelementptr inbounds %struct.GPR, %struct.GPR* %139, i32 0, i32 15
  %141 = getelementptr inbounds %struct.Reg, %struct.Reg* %140, i32 0, i32 0
  %RBP.i14 = bitcast %union.anon* %141 to i64*
  %142 = getelementptr inbounds %struct.State, %struct.State* %0, i32 0, i32 1
  %143 = getelementptr inbounds [32 x %union.VectorReg], [32 x %union.VectorReg]* %142, i64 0, i64 0
  %YMM0.i15 = bitcast %union.VectorReg* %143 to %"class.std::bitset"*
  %144 = bitcast %"class.std::bitset"* %YMM0.i15 to i8*
  %145 = bitcast %"class.std::bitset"* %YMM0.i15 to i8*
  %146 = load i64, i64* %RBP.i14
  %147 = sub i64 %146, 8
  %148 = load i64, i64* %PC.i13
  %149 = add i64 %148, 5
  store i64 %149, i64* %PC.i13
  %150 = bitcast i8* %145 to <2 x float>*
  %151 = load <2 x float>, <2 x float>* %150, align 1
  %152 = getelementptr inbounds i8, i8* %145, i64 8
  %153 = bitcast i8* %152 to <2 x i32>*
  %154 = load <2 x i32>, <2 x i32>* %153, align 1
  %155 = inttoptr i64 %147 to float*
  %156 = load float, float* %155
  %157 = extractelement <2 x float> %151, i32 0
  %158 = fadd float %157, %156
  %159 = bitcast i8* %144 to float*
  store float %158, float* %159, align 1
  %160 = bitcast <2 x float> %151 to <2 x i32>
  %161 = extractelement <2 x i32> %160, i32 1
  %162 = getelementptr inbounds i8, i8* %144, i64 4
  %163 = bitcast i8* %162 to i32*
  store i32 %161, i32* %163, align 1
  %164 = extractelement <2 x i32> %154, i32 0
  %165 = getelementptr inbounds i8, i8* %144, i64 8
  %166 = bitcast i8* %165 to i32*
  store i32 %164, i32* %166, align 1
  %167 = extractelement <2 x i32> %154, i32 1
  %168 = getelementptr inbounds i8, i8* %144, i64 12
  %169 = bitcast i8* %168 to i32*
  store i32 %167, i32* %169, align 1
  store %struct.Memory* %loadMem_40c7b2, %struct.Memory** %MEMORY
  %loadMem_40c7b7 = load %struct.Memory*, %struct.Memory** %MEMORY
  %170 = getelementptr inbounds %struct.State, %struct.State* %0, i32 0, i32 6
  %171 = getelementptr inbounds %struct.GPR, %struct.GPR* %170, i32 0, i32 33
  %172 = getelementptr inbounds %struct.Reg, %struct.Reg* %171, i32 0, i32 0
  %PC.i10 = bitcast %union.anon* %172 to i64*
  %173 = getelementptr inbounds %struct.State, %struct.State* %0, i32 0, i32 6
  %174 = getelementptr inbounds %struct.GPR, %struct.GPR* %173, i32 0, i32 15
  %175 = getelementptr inbounds %struct.Reg, %struct.Reg* %174, i32 0, i32 0
  %RBP.i11 = bitcast %union.anon* %175 to i64*
  %176 = getelementptr inbounds %struct.State, %struct.State* %0, i32 0, i32 1
  %177 = getelementptr inbounds [32 x %union.VectorReg], [32 x %union.VectorReg]* %176, i64 0, i64 1
  %YMM1.i12 = bitcast %union.VectorReg* %177 to %"class.std::bitset"*
  %178 = bitcast %"class.std::bitset"* %YMM1.i12 to i8*
  %179 = load i64, i64* %RBP.i11
  %180 = sub i64 %179, 12
  %181 = load i64, i64* %PC.i10
  %182 = add i64 %181, 5
  store i64 %182, i64* %PC.i10
  %183 = inttoptr i64 %180 to float*
  %184 = load float, float* %183
  %185 = bitcast i8* %178 to float*
  store float %184, float* %185, align 1
  %186 = getelementptr inbounds i8, i8* %178, i64 4
  %187 = bitcast i8* %186 to float*
  store float 0.000000e+00, float* %187, align 1
  %188 = getelementptr inbounds i8, i8* %178, i64 8
  %189 = bitcast i8* %188 to float*
  store float 0.000000e+00, float* %189, align 1
  %190 = getelementptr inbounds i8, i8* %178, i64 12
  %191 = bitcast i8* %190 to float*
  store float 0.000000e+00, float* %191, align 1
  store %struct.Memory* %loadMem_40c7b7, %struct.Memory** %MEMORY
  %loadMem_40c7bc = load %struct.Memory*, %struct.Memory** %MEMORY
  %192 = getelementptr inbounds %struct.State, %struct.State* %0, i32 0, i32 6
  %193 = getelementptr inbounds %struct.GPR, %struct.GPR* %192, i32 0, i32 33
  %194 = getelementptr inbounds %struct.Reg, %struct.Reg* %193, i32 0, i32 0
  %PC.i7 = bitcast %union.anon* %194 to i64*
  %195 = getelementptr inbounds %struct.State, %struct.State* %0, i32 0, i32 6
  %196 = getelementptr inbounds %struct.GPR, %struct.GPR* %195, i32 0, i32 15
  %197 = getelementptr inbounds %struct.Reg, %struct.Reg* %196, i32 0, i32 0
  %RBP.i8 = bitcast %union.anon* %197 to i64*
  %198 = getelementptr inbounds %struct.State, %struct.State* %0, i32 0, i32 1
  %199 = getelementptr inbounds [32 x %union.VectorReg], [32 x %union.VectorReg]* %198, i64 0, i64 1
  %YMM1.i9 = bitcast %union.VectorReg* %199 to %"class.std::bitset"*
  %200 = bitcast %"class.std::bitset"* %YMM1.i9 to i8*
  %201 = bitcast %"class.std::bitset"* %YMM1.i9 to i8*
  %202 = load i64, i64* %RBP.i8
  %203 = sub i64 %202, 16
  %204 = load i64, i64* %PC.i7
  %205 = add i64 %204, 5
  store i64 %205, i64* %PC.i7
  %206 = bitcast i8* %201 to <2 x float>*
  %207 = load <2 x float>, <2 x float>* %206, align 1
  %208 = getelementptr inbounds i8, i8* %201, i64 8
  %209 = bitcast i8* %208 to <2 x i32>*
  %210 = load <2 x i32>, <2 x i32>* %209, align 1
  %211 = inttoptr i64 %203 to float*
  %212 = load float, float* %211
  %213 = extractelement <2 x float> %207, i32 0
  %214 = fmul float %213, %212
  %215 = bitcast i8* %200 to float*
  store float %214, float* %215, align 1
  %216 = bitcast <2 x float> %207 to <2 x i32>
  %217 = extractelement <2 x i32> %216, i32 1
  %218 = getelementptr inbounds i8, i8* %200, i64 4
  %219 = bitcast i8* %218 to i32*
  store i32 %217, i32* %219, align 1
  %220 = extractelement <2 x i32> %210, i32 0
  %221 = getelementptr inbounds i8, i8* %200, i64 8
  %222 = bitcast i8* %221 to i32*
  store i32 %220, i32* %222, align 1
  %223 = extractelement <2 x i32> %210, i32 1
  %224 = getelementptr inbounds i8, i8* %200, i64 12
  %225 = bitcast i8* %224 to i32*
  store i32 %223, i32* %225, align 1
  store %struct.Memory* %loadMem_40c7bc, %struct.Memory** %MEMORY
  %loadMem_40c7c1 = load %struct.Memory*, %struct.Memory** %MEMORY
  %226 = getelementptr inbounds %struct.State, %struct.State* %0, i32 0, i32 6
  %227 = getelementptr inbounds %struct.GPR, %struct.GPR* %226, i32 0, i32 33
  %228 = getelementptr inbounds %struct.Reg, %struct.Reg* %227, i32 0, i32 0
  %PC.i5 = bitcast %union.anon* %228 to i64*
  %229 = getelementptr inbounds %struct.State, %struct.State* %0, i32 0, i32 6
  %230 = getelementptr inbounds %struct.GPR, %struct.GPR* %229, i32 0, i32 15
  %231 = getelementptr inbounds %struct.Reg, %struct.Reg* %230, i32 0, i32 0
  %RBP.i6 = bitcast %union.anon* %231 to i64*
  %232 = getelementptr inbounds %struct.State, %struct.State* %0, i32 0, i32 1
  %233 = getelementptr inbounds [32 x %union.VectorReg], [32 x %union.VectorReg]* %232, i64 0, i64 1
  %YMM1.i = bitcast %union.VectorReg* %233 to %"class.std::bitset"*
  %234 = bitcast %"class.std::bitset"* %YMM1.i to i8*
  %235 = bitcast %"class.std::bitset"* %YMM1.i to i8*
  %236 = load i64, i64* %RBP.i6
  %237 = sub i64 %236, 20
  %238 = load i64, i64* %PC.i5
  %239 = add i64 %238, 5
  store i64 %239, i64* %PC.i5
  %240 = bitcast i8* %235 to <2 x float>*
  %241 = load <2 x float>, <2 x float>* %240, align 1
  %242 = getelementptr inbounds i8, i8* %235, i64 8
  %243 = bitcast i8* %242 to <2 x i32>*
  %244 = load <2 x i32>, <2 x i32>* %243, align 1
  %245 = inttoptr i64 %237 to float*
  %246 = load float, float* %245
  %247 = extractelement <2 x float> %241, i32 0
  %248 = fdiv float %247, %246
  %249 = bitcast i8* %234 to float*
  store float %248, float* %249, align 1
  %250 = bitcast <2 x float> %241 to <2 x i32>
  %251 = extractelement <2 x i32> %250, i32 1
  %252 = getelementptr inbounds i8, i8* %234, i64 4
  %253 = bitcast i8* %252 to i32*
  store i32 %251, i32* %253, align 1
  %254 = extractelement <2 x i32> %244, i32 0
  %255 = getelementptr inbounds i8, i8* %234, i64 8
  %256 = bitcast i8* %255 to i32*
  store i32 %254, i32* %256, align 1
  %257 = extractelement <2 x i32> %244, i32 1
  %258 = getelementptr inbounds i8, i8* %234, i64 12
  %259 = bitcast i8* %258 to i32*
  store i32 %257, i32* %259, align 1
  store %struct.Memory* %loadMem_40c7c1, %struct.Memory** %MEMORY
  %loadMem_40c7c6 = load %struct.Memory*, %struct.Memory** %MEMORY
  %260 = getelementptr inbounds %struct.State, %struct.State* %0, i32 0, i32 6
  %261 = getelementptr inbounds %struct.GPR, %struct.GPR* %260, i32 0, i32 33
  %262 = getelementptr inbounds %struct.Reg, %struct.Reg* %261, i32 0, i32 0
  %PC.i4 = bitcast %union.anon* %262 to i64*
  %263 = getelementptr inbounds %struct.State, %struct.State* %0, i32 0, i32 1
  %264 = getelementptr inbounds [32 x %union.VectorReg], [32 x %union.VectorReg]* %263, i64 0, i64 0
  %YMM0.i = bitcast %union.VectorReg* %264 to %"class.std::bitset"*
  %265 = getelementptr inbounds %struct.State, %struct.State* %0, i32 0, i32 1
  %266 = getelementptr inbounds [32 x %union.VectorReg], [32 x %union.VectorReg]* %265, i64 0, i64 1
  %XMM1.i = bitcast %union.VectorReg* %266 to %union.vec128_t*
  %267 = bitcast %"class.std::bitset"* %YMM0.i to i8*
  %268 = bitcast %"class.std::bitset"* %YMM0.i to i8*
  %269 = bitcast %union.vec128_t* %XMM1.i to i8*
  %270 = load i64, i64* %PC.i4
  %271 = add i64 %270, 4
  store i64 %271, i64* %PC.i4
  %272 = bitcast i8* %268 to <2 x float>*
  %273 = load <2 x float>, <2 x float>* %272, align 1
  %274 = getelementptr inbounds i8, i8* %268, i64 8
  %275 = bitcast i8* %274 to <2 x i32>*
  %276 = load <2 x i32>, <2 x i32>* %275, align 1
  %277 = bitcast i8* %269 to <2 x float>*
  %278 = load <2 x float>, <2 x float>* %277, align 1
  %279 = extractelement <2 x float> %273, i32 0
  %280 = extractelement <2 x float> %278, i32 0
  %281 = fsub float %279, %280
  %282 = bitcast i8* %267 to float*
  store float %281, float* %282, align 1
  %283 = bitcast <2 x float> %273 to <2 x i32>
  %284 = extractelement <2 x i32> %283, i32 1
  %285 = getelementptr inbounds i8, i8* %267, i64 4
  %286 = bitcast i8* %285 to i32*
  store i32 %284, i32* %286, align 1
  %287 = extractelement <2 x i32> %276, i32 0
  %288 = getelementptr inbounds i8, i8* %267, i64 8
  %289 = bitcast i8* %288 to i32*
  store i32 %287, i32* %289, align 1
  %290 = extractelement <2 x i32> %276, i32 1
  %291 = getelementptr inbounds i8, i8* %267, i64 12
  %292 = bitcast i8* %291 to i32*
  store i32 %290, i32* %292, align 1
  store %struct.Memory* %loadMem_40c7c6, %struct.Memory** %MEMORY
  %loadMem_40c7ca = load %struct.Memory*, %struct.Memory** %MEMORY
  %293 = getelementptr inbounds %struct.State, %struct.State* %0, i32 0, i32 6
  %294 = getelementptr inbounds %struct.GPR, %struct.GPR* %293, i32 0, i32 33
  %295 = getelementptr inbounds %struct.Reg, %struct.Reg* %294, i32 0, i32 0
  %PC.i2 = bitcast %union.anon* %295 to i64*
  %296 = getelementptr inbounds %struct.State, %struct.State* %0, i32 0, i32 6
  %297 = getelementptr inbounds %struct.GPR, %struct.GPR* %296, i32 0, i32 15
  %298 = getelementptr inbounds %struct.Reg, %struct.Reg* %297, i32 0, i32 0
  %RBP.i3 = bitcast %union.anon* %298 to i64*
  %299 = load i64, i64* %PC.i2
  %300 = add i64 %299, 1
  store i64 %300, i64* %PC.i2
  %301 = getelementptr inbounds %struct.State, %struct.State* %0, i64 0, i32 6, i32 13, i32 0, i32 0
  %302 = load i64, i64* %301, align 8
  %303 = add i64 %302, 8
  %304 = inttoptr i64 %302 to i64*
  %305 = load i64, i64* %304
  store i64 %305, i64* %RBP.i3, align 8
  store i64 %303, i64* %301, align 8
  store %struct.Memory* %loadMem_40c7ca, %struct.Memory** %MEMORY
  %loadMem_40c7cb = load %struct.Memory*, %struct.Memory** %MEMORY
  %306 = getelementptr inbounds %struct.State, %struct.State* %0, i32 0, i32 6
  %307 = getelementptr inbounds %struct.GPR, %struct.GPR* %306, i32 0, i32 33
  %308 = getelementptr inbounds %struct.Reg, %struct.Reg* %307, i32 0, i32 0
  %PC.i1 = bitcast %union.anon* %308 to i64*
  %309 = load i64, i64* %PC.i1
  %310 = add i64 %309, 1
  store i64 %310, i64* %PC.i1
  %311 = getelementptr inbounds %struct.State, %struct.State* %0, i64 0, i32 6, i32 33, i32 0, i32 0
  %312 = getelementptr inbounds %struct.State, %struct.State* %0, i64 0, i32 6, i32 13, i32 0, i32 0
  %313 = load i64, i64* %312, align 8
  %314 = inttoptr i64 %313 to i64*
  %315 = load i64, i64* %314
  store i64 %315, i64* %311, align 8
  %316 = add i64 %313, 8
  store i64 %316, i64* %312, align 8
  store %struct.Memory* %loadMem_40c7cb, %struct.Memory** %MEMORY
  ret %struct.Memory* %loadMem_40c7cb
}

define %struct.Memory* @routine_pushq__rbp(%struct.State* dereferenceable(3376), i64, %struct.Memory*) {
block_400478:
  %3 = getelementptr inbounds %struct.State, %struct.State* %0, i32 0, i32 6
  %4 = getelementptr inbounds %struct.GPR, %struct.GPR* %3, i32 0, i32 33
  %5 = getelementptr inbounds %struct.Reg, %struct.Reg* %4, i32 0, i32 0
  %PC = bitcast %union.anon* %5 to i64*
  %6 = getelementptr inbounds %struct.State, %struct.State* %0, i32 0, i32 6
  %7 = getelementptr inbounds %struct.GPR, %struct.GPR* %6, i32 0, i32 15
  %8 = getelementptr inbounds %struct.Reg, %struct.Reg* %7, i32 0, i32 0
  %RBP = bitcast %union.anon* %8 to i64*
  %9 = load i64, i64* %RBP
  %10 = load i64, i64* %PC
  %11 = add i64 %10, 1
  store i64 %11, i64* %PC
  %12 = getelementptr inbounds %struct.State, %struct.State* %0, i64 0, i32 6, i32 13, i32 0, i32 0
  %13 = load i64, i64* %12, align 8
  %14 = add i64 %13, -8
  %15 = inttoptr i64 %14 to i64*
  store i64 %9, i64* %15
  store i64 %14, i64* %12, align 8
  ret %struct.Memory* %2
}

define %struct.Memory* @routine_movq__rsp___rbp(%struct.State* dereferenceable(3376), i64, %struct.Memory*) {
block_400478:
  %3 = getelementptr inbounds %struct.State, %struct.State* %0, i32 0, i32 6
  %4 = getelementptr inbounds %struct.GPR, %struct.GPR* %3, i32 0, i32 33
  %5 = getelementptr inbounds %struct.Reg, %struct.Reg* %4, i32 0, i32 0
  %PC = bitcast %union.anon* %5 to i64*
  %6 = getelementptr inbounds %struct.State, %struct.State* %0, i32 0, i32 6
  %7 = getelementptr inbounds %struct.GPR, %struct.GPR* %6, i32 0, i32 13
  %8 = getelementptr inbounds %struct.Reg, %struct.Reg* %7, i32 0, i32 0
  %RSP = bitcast %union.anon* %8 to i64*
  %9 = getelementptr inbounds %struct.State, %struct.State* %0, i32 0, i32 6
  %10 = getelementptr inbounds %struct.GPR, %struct.GPR* %9, i32 0, i32 15
  %11 = getelementptr inbounds %struct.Reg, %struct.Reg* %10, i32 0, i32 0
  %RBP = bitcast %union.anon* %11 to i64*
  %12 = load i64, i64* %RSP
  %13 = load i64, i64* %PC
  %14 = add i64 %13, 3
  store i64 %14, i64* %PC
  store i64 %12, i64* %RBP, align 8
  ret %struct.Memory* %2
}

define %struct.Memory* @routine_movss__xmm0__MINUS0x4__rbp_(%struct.State* dereferenceable(3376), i64, %struct.Memory*) {
block_400478:
  %3 = getelementptr inbounds %struct.State, %struct.State* %0, i32 0, i32 6
  %4 = getelementptr inbounds %struct.GPR, %struct.GPR* %3, i32 0, i32 33
  %5 = getelementptr inbounds %struct.Reg, %struct.Reg* %4, i32 0, i32 0
  %PC = bitcast %union.anon* %5 to i64*
  %6 = getelementptr inbounds %struct.State, %struct.State* %0, i32 0, i32 6
  %7 = getelementptr inbounds %struct.GPR, %struct.GPR* %6, i32 0, i32 15
  %8 = getelementptr inbounds %struct.Reg, %struct.Reg* %7, i32 0, i32 0
  %RBP = bitcast %union.anon* %8 to i64*
  %9 = getelementptr inbounds %struct.State, %struct.State* %0, i32 0, i32 1
  %10 = getelementptr inbounds [32 x %union.VectorReg], [32 x %union.VectorReg]* %9, i64 0, i64 0
  %XMM0 = bitcast %union.VectorReg* %10 to %union.vec128_t*
  %11 = load i64, i64* %RBP
  %12 = sub i64 %11, 4
  %13 = bitcast %union.vec128_t* %XMM0 to i8*
  %14 = load i64, i64* %PC
  %15 = add i64 %14, 5
  store i64 %15, i64* %PC
  %16 = bitcast i8* %13 to <2 x float>*
  %17 = load <2 x float>, <2 x float>* %16, align 1
  %18 = extractelement <2 x float> %17, i32 0
  %19 = inttoptr i64 %12 to float*
  store float %18, float* %19
  ret %struct.Memory* %2
}

define %struct.Memory* @routine_movss__xmm1__MINUS0x8__rbp_(%struct.State* dereferenceable(3376), i64, %struct.Memory*) {
block_400478:
  %3 = getelementptr inbounds %struct.State, %struct.State* %0, i32 0, i32 6
  %4 = getelementptr inbounds %struct.GPR, %struct.GPR* %3, i32 0, i32 33
  %5 = getelementptr inbounds %struct.Reg, %struct.Reg* %4, i32 0, i32 0
  %PC = bitcast %union.anon* %5 to i64*
  %6 = getelementptr inbounds %struct.State, %struct.State* %0, i32 0, i32 6
  %7 = getelementptr inbounds %struct.GPR, %struct.GPR* %6, i32 0, i32 15
  %8 = getelementptr inbounds %struct.Reg, %struct.Reg* %7, i32 0, i32 0
  %RBP = bitcast %union.anon* %8 to i64*
  %9 = getelementptr inbounds %struct.State, %struct.State* %0, i32 0, i32 1
  %10 = getelementptr inbounds [32 x %union.VectorReg], [32 x %union.VectorReg]* %9, i64 0, i64 1
  %XMM1 = bitcast %union.VectorReg* %10 to %union.vec128_t*
  %11 = load i64, i64* %RBP
  %12 = sub i64 %11, 8
  %13 = bitcast %union.vec128_t* %XMM1 to i8*
  %14 = load i64, i64* %PC
  %15 = add i64 %14, 5
  store i64 %15, i64* %PC
  %16 = bitcast i8* %13 to <2 x float>*
  %17 = load <2 x float>, <2 x float>* %16, align 1
  %18 = extractelement <2 x float> %17, i32 0
  %19 = inttoptr i64 %12 to float*
  store float %18, float* %19
  ret %struct.Memory* %2
}

define %struct.Memory* @routine_movss__xmm2__MINUS0xc__rbp_(%struct.State* dereferenceable(3376), i64, %struct.Memory*) {
block_400478:
  %3 = getelementptr inbounds %struct.State, %struct.State* %0, i32 0, i32 6
  %4 = getelementptr inbounds %struct.GPR, %struct.GPR* %3, i32 0, i32 33
  %5 = getelementptr inbounds %struct.Reg, %struct.Reg* %4, i32 0, i32 0
  %PC = bitcast %union.anon* %5 to i64*
  %6 = getelementptr inbounds %struct.State, %struct.State* %0, i32 0, i32 6
  %7 = getelementptr inbounds %struct.GPR, %struct.GPR* %6, i32 0, i32 15
  %8 = getelementptr inbounds %struct.Reg, %struct.Reg* %7, i32 0, i32 0
  %RBP = bitcast %union.anon* %8 to i64*
  %9 = getelementptr inbounds %struct.State, %struct.State* %0, i32 0, i32 1
  %10 = getelementptr inbounds [32 x %union.VectorReg], [32 x %union.VectorReg]* %9, i64 0, i64 2
  %XMM2 = bitcast %union.VectorReg* %10 to %union.vec128_t*
  %11 = load i64, i64* %RBP
  %12 = sub i64 %11, 12
  %13 = bitcast %union.vec128_t* %XMM2 to i8*
  %14 = load i64, i64* %PC
  %15 = add i64 %14, 5
  store i64 %15, i64* %PC
  %16 = bitcast i8* %13 to <2 x float>*
  %17 = load <2 x float>, <2 x float>* %16, align 1
  %18 = extractelement <2 x float> %17, i32 0
  %19 = inttoptr i64 %12 to float*
  store float %18, float* %19
  ret %struct.Memory* %2
}

define %struct.Memory* @routine_movss__xmm3__MINUS0x10__rbp_(%struct.State* dereferenceable(3376), i64, %struct.Memory*) {
block_400478:
  %3 = getelementptr inbounds %struct.State, %struct.State* %0, i32 0, i32 6
  %4 = getelementptr inbounds %struct.GPR, %struct.GPR* %3, i32 0, i32 33
  %5 = getelementptr inbounds %struct.Reg, %struct.Reg* %4, i32 0, i32 0
  %PC = bitcast %union.anon* %5 to i64*
  %6 = getelementptr inbounds %struct.State, %struct.State* %0, i32 0, i32 6
  %7 = getelementptr inbounds %struct.GPR, %struct.GPR* %6, i32 0, i32 15
  %8 = getelementptr inbounds %struct.Reg, %struct.Reg* %7, i32 0, i32 0
  %RBP = bitcast %union.anon* %8 to i64*
  %9 = getelementptr inbounds %struct.State, %struct.State* %0, i32 0, i32 1
  %10 = getelementptr inbounds [32 x %union.VectorReg], [32 x %union.VectorReg]* %9, i64 0, i64 3
  %XMM3 = bitcast %union.VectorReg* %10 to %union.vec128_t*
  %11 = load i64, i64* %RBP
  %12 = sub i64 %11, 16
  %13 = bitcast %union.vec128_t* %XMM3 to i8*
  %14 = load i64, i64* %PC
  %15 = add i64 %14, 5
  store i64 %15, i64* %PC
  %16 = bitcast i8* %13 to <2 x float>*
  %17 = load <2 x float>, <2 x float>* %16, align 1
  %18 = extractelement <2 x float> %17, i32 0
  %19 = inttoptr i64 %12 to float*
  store float %18, float* %19
  ret %struct.Memory* %2
}

define %struct.Memory* @routine_movss__xmm4__MINUS0x14__rbp_(%struct.State* dereferenceable(3376), i64, %struct.Memory*) {
block_400478:
  %3 = getelementptr inbounds %struct.State, %struct.State* %0, i32 0, i32 6
  %4 = getelementptr inbounds %struct.GPR, %struct.GPR* %3, i32 0, i32 33
  %5 = getelementptr inbounds %struct.Reg, %struct.Reg* %4, i32 0, i32 0
  %PC = bitcast %union.anon* %5 to i64*
  %6 = getelementptr inbounds %struct.State, %struct.State* %0, i32 0, i32 6
  %7 = getelementptr inbounds %struct.GPR, %struct.GPR* %6, i32 0, i32 15
  %8 = getelementptr inbounds %struct.Reg, %struct.Reg* %7, i32 0, i32 0
  %RBP = bitcast %union.anon* %8 to i64*
  %9 = getelementptr inbounds %struct.State, %struct.State* %0, i32 0, i32 1
  %10 = getelementptr inbounds [32 x %union.VectorReg], [32 x %union.VectorReg]* %9, i64 0, i64 4
  %XMM4 = bitcast %union.VectorReg* %10 to %union.vec128_t*
  %11 = load i64, i64* %RBP
  %12 = sub i64 %11, 20
  %13 = bitcast %union.vec128_t* %XMM4 to i8*
  %14 = load i64, i64* %PC
  %15 = add i64 %14, 5
  store i64 %15, i64* %PC
  %16 = bitcast i8* %13 to <2 x float>*
  %17 = load <2 x float>, <2 x float>* %16, align 1
  %18 = extractelement <2 x float> %17, i32 0
  %19 = inttoptr i64 %12 to float*
  store float %18, float* %19
  ret %struct.Memory* %2
}

define %struct.Memory* @routine_movss_MINUS0x4__rbp____xmm0(%struct.State* dereferenceable(3376), i64, %struct.Memory*) {
block_400478:
  %3 = getelementptr inbounds %struct.State, %struct.State* %0, i32 0, i32 6
  %4 = getelementptr inbounds %struct.GPR, %struct.GPR* %3, i32 0, i32 33
  %5 = getelementptr inbounds %struct.Reg, %struct.Reg* %4, i32 0, i32 0
  %PC = bitcast %union.anon* %5 to i64*
  %6 = getelementptr inbounds %struct.State, %struct.State* %0, i32 0, i32 6
  %7 = getelementptr inbounds %struct.GPR, %struct.GPR* %6, i32 0, i32 15
  %8 = getelementptr inbounds %struct.Reg, %struct.Reg* %7, i32 0, i32 0
  %RBP = bitcast %union.anon* %8 to i64*
  %9 = getelementptr inbounds %struct.State, %struct.State* %0, i32 0, i32 1
  %10 = getelementptr inbounds [32 x %union.VectorReg], [32 x %union.VectorReg]* %9, i64 0, i64 0
  %YMM0 = bitcast %union.VectorReg* %10 to %"class.std::bitset"*
  %11 = bitcast %"class.std::bitset"* %YMM0 to i8*
  %12 = load i64, i64* %RBP
  %13 = sub i64 %12, 4
  %14 = load i64, i64* %PC
  %15 = add i64 %14, 5
  store i64 %15, i64* %PC
  %16 = inttoptr i64 %13 to float*
  %17 = load float, float* %16
  %18 = bitcast i8* %11 to float*
  store float %17, float* %18, align 1
  %19 = getelementptr inbounds i8, i8* %11, i64 4
  %20 = bitcast i8* %19 to float*
  store float 0.000000e+00, float* %20, align 1
  %21 = getelementptr inbounds i8, i8* %11, i64 8
  %22 = bitcast i8* %21 to float*
  store float 0.000000e+00, float* %22, align 1
  %23 = getelementptr inbounds i8, i8* %11, i64 12
  %24 = bitcast i8* %23 to float*
  store float 0.000000e+00, float* %24, align 1
  ret %struct.Memory* %2
}

define %struct.Memory* @routine_addss_MINUS0x8__rbp____xmm0(%struct.State* dereferenceable(3376), i64, %struct.Memory*) {
block_400478:
  %3 = getelementptr inbounds %struct.State, %struct.State* %0, i32 0, i32 6
  %4 = getelementptr inbounds %struct.GPR, %struct.GPR* %3, i32 0, i32 33
  %5 = getelementptr inbounds %struct.Reg, %struct.Reg* %4, i32 0, i32 0
  %PC = bitcast %union.anon* %5 to i64*
  %6 = getelementptr inbounds %struct.State, %struct.State* %0, i32 0, i32 6
  %7 = getelementptr inbounds %struct.GPR, %struct.GPR* %6, i32 0, i32 15
  %8 = getelementptr inbounds %struct.Reg, %struct.Reg* %7, i32 0, i32 0
  %RBP = bitcast %union.anon* %8 to i64*
  %9 = getelementptr inbounds %struct.State, %struct.State* %0, i32 0, i32 1
  %10 = getelementptr inbounds [32 x %union.VectorReg], [32 x %union.VectorReg]* %9, i64 0, i64 0
  %YMM0 = bitcast %union.VectorReg* %10 to %"class.std::bitset"*
  %11 = bitcast %"class.std::bitset"* %YMM0 to i8*
  %12 = bitcast %"class.std::bitset"* %YMM0 to i8*
  %13 = load i64, i64* %RBP
  %14 = sub i64 %13, 8
  %15 = load i64, i64* %PC
  %16 = add i64 %15, 5
  store i64 %16, i64* %PC
  %17 = bitcast i8* %12 to <2 x float>*
  %18 = load <2 x float>, <2 x float>* %17, align 1
  %19 = getelementptr inbounds i8, i8* %12, i64 8
  %20 = bitcast i8* %19 to <2 x i32>*
  %21 = load <2 x i32>, <2 x i32>* %20, align 1
  %22 = inttoptr i64 %14 to float*
  %23 = load float, float* %22
  %24 = extractelement <2 x float> %18, i32 0
  %25 = fadd float %24, %23
  %26 = bitcast i8* %11 to float*
  store float %25, float* %26, align 1
  %27 = bitcast <2 x float> %18 to <2 x i32>
  %28 = extractelement <2 x i32> %27, i32 1
  %29 = getelementptr inbounds i8, i8* %11, i64 4
  %30 = bitcast i8* %29 to i32*
  store i32 %28, i32* %30, align 1
  %31 = extractelement <2 x i32> %21, i32 0
  %32 = getelementptr inbounds i8, i8* %11, i64 8
  %33 = bitcast i8* %32 to i32*
  store i32 %31, i32* %33, align 1
  %34 = extractelement <2 x i32> %21, i32 1
  %35 = getelementptr inbounds i8, i8* %11, i64 12
  %36 = bitcast i8* %35 to i32*
  store i32 %34, i32* %36, align 1
  ret %struct.Memory* %2
}

define %struct.Memory* @routine_movss_MINUS0xc__rbp____xmm1(%struct.State* dereferenceable(3376), i64, %struct.Memory*) {
block_400478:
  %3 = getelementptr inbounds %struct.State, %struct.State* %0, i32 0, i32 6
  %4 = getelementptr inbounds %struct.GPR, %struct.GPR* %3, i32 0, i32 33
  %5 = getelementptr inbounds %struct.Reg, %struct.Reg* %4, i32 0, i32 0
  %PC = bitcast %union.anon* %5 to i64*
  %6 = getelementptr inbounds %struct.State, %struct.State* %0, i32 0, i32 6
  %7 = getelementptr inbounds %struct.GPR, %struct.GPR* %6, i32 0, i32 15
  %8 = getelementptr inbounds %struct.Reg, %struct.Reg* %7, i32 0, i32 0
  %RBP = bitcast %union.anon* %8 to i64*
  %9 = getelementptr inbounds %struct.State, %struct.State* %0, i32 0, i32 1
  %10 = getelementptr inbounds [32 x %union.VectorReg], [32 x %union.VectorReg]* %9, i64 0, i64 1
  %YMM1 = bitcast %union.VectorReg* %10 to %"class.std::bitset"*
  %11 = bitcast %"class.std::bitset"* %YMM1 to i8*
  %12 = load i64, i64* %RBP
  %13 = sub i64 %12, 12
  %14 = load i64, i64* %PC
  %15 = add i64 %14, 5
  store i64 %15, i64* %PC
  %16 = inttoptr i64 %13 to float*
  %17 = load float, float* %16
  %18 = bitcast i8* %11 to float*
  store float %17, float* %18, align 1
  %19 = getelementptr inbounds i8, i8* %11, i64 4
  %20 = bitcast i8* %19 to float*
  store float 0.000000e+00, float* %20, align 1
  %21 = getelementptr inbounds i8, i8* %11, i64 8
  %22 = bitcast i8* %21 to float*
  store float 0.000000e+00, float* %22, align 1
  %23 = getelementptr inbounds i8, i8* %11, i64 12
  %24 = bitcast i8* %23 to float*
  store float 0.000000e+00, float* %24, align 1
  ret %struct.Memory* %2
}

define %struct.Memory* @routine_mulss_MINUS0x10__rbp____xmm1(%struct.State* dereferenceable(3376), i64, %struct.Memory*) {
block_400478:
  %3 = getelementptr inbounds %struct.State, %struct.State* %0, i32 0, i32 6
  %4 = getelementptr inbounds %struct.GPR, %struct.GPR* %3, i32 0, i32 33
  %5 = getelementptr inbounds %struct.Reg, %struct.Reg* %4, i32 0, i32 0
  %PC = bitcast %union.anon* %5 to i64*
  %6 = getelementptr inbounds %struct.State, %struct.State* %0, i32 0, i32 6
  %7 = getelementptr inbounds %struct.GPR, %struct.GPR* %6, i32 0, i32 15
  %8 = getelementptr inbounds %struct.Reg, %struct.Reg* %7, i32 0, i32 0
  %RBP = bitcast %union.anon* %8 to i64*
  %9 = getelementptr inbounds %struct.State, %struct.State* %0, i32 0, i32 1
  %10 = getelementptr inbounds [32 x %union.VectorReg], [32 x %union.VectorReg]* %9, i64 0, i64 1
  %YMM1 = bitcast %union.VectorReg* %10 to %"class.std::bitset"*
  %11 = bitcast %"class.std::bitset"* %YMM1 to i8*
  %12 = bitcast %"class.std::bitset"* %YMM1 to i8*
  %13 = load i64, i64* %RBP
  %14 = sub i64 %13, 16
  %15 = load i64, i64* %PC
  %16 = add i64 %15, 5
  store i64 %16, i64* %PC
  %17 = bitcast i8* %12 to <2 x float>*
  %18 = load <2 x float>, <2 x float>* %17, align 1
  %19 = getelementptr inbounds i8, i8* %12, i64 8
  %20 = bitcast i8* %19 to <2 x i32>*
  %21 = load <2 x i32>, <2 x i32>* %20, align 1
  %22 = inttoptr i64 %14 to float*
  %23 = load float, float* %22
  %24 = extractelement <2 x float> %18, i32 0
  %25 = fmul float %24, %23
  %26 = bitcast i8* %11 to float*
  store float %25, float* %26, align 1
  %27 = bitcast <2 x float> %18 to <2 x i32>
  %28 = extractelement <2 x i32> %27, i32 1
  %29 = getelementptr inbounds i8, i8* %11, i64 4
  %30 = bitcast i8* %29 to i32*
  store i32 %28, i32* %30, align 1
  %31 = extractelement <2 x i32> %21, i32 0
  %32 = getelementptr inbounds i8, i8* %11, i64 8
  %33 = bitcast i8* %32 to i32*
  store i32 %31, i32* %33, align 1
  %34 = extractelement <2 x i32> %21, i32 1
  %35 = getelementptr inbounds i8, i8* %11, i64 12
  %36 = bitcast i8* %35 to i32*
  store i32 %34, i32* %36, align 1
  ret %struct.Memory* %2
}

define %struct.Memory* @routine_divss_MINUS0x14__rbp____xmm1(%struct.State* dereferenceable(3376), i64, %struct.Memory*) {
block_400478:
  %3 = getelementptr inbounds %struct.State, %struct.State* %0, i32 0, i32 6
  %4 = getelementptr inbounds %struct.GPR, %struct.GPR* %3, i32 0, i32 33
  %5 = getelementptr inbounds %struct.Reg, %struct.Reg* %4, i32 0, i32 0
  %PC = bitcast %union.anon* %5 to i64*
  %6 = getelementptr inbounds %struct.State, %struct.State* %0, i32 0, i32 6
  %7 = getelementptr inbounds %struct.GPR, %struct.GPR* %6, i32 0, i32 15
  %8 = getelementptr inbounds %struct.Reg, %struct.Reg* %7, i32 0, i32 0
  %RBP = bitcast %union.anon* %8 to i64*
  %9 = getelementptr inbounds %struct.State, %struct.State* %0, i32 0, i32 1
  %10 = getelementptr inbounds [32 x %union.VectorReg], [32 x %union.VectorReg]* %9, i64 0, i64 1
  %YMM1 = bitcast %union.VectorReg* %10 to %"class.std::bitset"*
  %11 = bitcast %"class.std::bitset"* %YMM1 to i8*
  %12 = bitcast %"class.std::bitset"* %YMM1 to i8*
  %13 = load i64, i64* %RBP
  %14 = sub i64 %13, 20
  %15 = load i64, i64* %PC
  %16 = add i64 %15, 5
  store i64 %16, i64* %PC
  %17 = bitcast i8* %12 to <2 x float>*
  %18 = load <2 x float>, <2 x float>* %17, align 1
  %19 = getelementptr inbounds i8, i8* %12, i64 8
  %20 = bitcast i8* %19 to <2 x i32>*
  %21 = load <2 x i32>, <2 x i32>* %20, align 1
  %22 = inttoptr i64 %14 to float*
  %23 = load float, float* %22
  %24 = extractelement <2 x float> %18, i32 0
  %25 = fdiv float %24, %23
  %26 = bitcast i8* %11 to float*
  store float %25, float* %26, align 1
  %27 = bitcast <2 x float> %18 to <2 x i32>
  %28 = extractelement <2 x i32> %27, i32 1
  %29 = getelementptr inbounds i8, i8* %11, i64 4
  %30 = bitcast i8* %29 to i32*
  store i32 %28, i32* %30, align 1
  %31 = extractelement <2 x i32> %21, i32 0
  %32 = getelementptr inbounds i8, i8* %11, i64 8
  %33 = bitcast i8* %32 to i32*
  store i32 %31, i32* %33, align 1
  %34 = extractelement <2 x i32> %21, i32 1
  %35 = getelementptr inbounds i8, i8* %11, i64 12
  %36 = bitcast i8* %35 to i32*
  store i32 %34, i32* %36, align 1
  ret %struct.Memory* %2
}

define %struct.Memory* @routine_subss__xmm1___xmm0(%struct.State* dereferenceable(3376), i64, %struct.Memory*) {
block_400478:
  %3 = getelementptr inbounds %struct.State, %struct.State* %0, i32 0, i32 6
  %4 = getelementptr inbounds %struct.GPR, %struct.GPR* %3, i32 0, i32 33
  %5 = getelementptr inbounds %struct.Reg, %struct.Reg* %4, i32 0, i32 0
  %PC = bitcast %union.anon* %5 to i64*
  %6 = getelementptr inbounds %struct.State, %struct.State* %0, i32 0, i32 1
  %7 = getelementptr inbounds [32 x %union.VectorReg], [32 x %union.VectorReg]* %6, i64 0, i64 0
  %YMM0 = bitcast %union.VectorReg* %7 to %"class.std::bitset"*
  %8 = getelementptr inbounds %struct.State, %struct.State* %0, i32 0, i32 1
  %9 = getelementptr inbounds [32 x %union.VectorReg], [32 x %union.VectorReg]* %8, i64 0, i64 1
  %XMM1 = bitcast %union.VectorReg* %9 to %union.vec128_t*
  %10 = bitcast %"class.std::bitset"* %YMM0 to i8*
  %11 = bitcast %"class.std::bitset"* %YMM0 to i8*
  %12 = bitcast %union.vec128_t* %XMM1 to i8*
  %13 = load i64, i64* %PC
  %14 = add i64 %13, 4
  store i64 %14, i64* %PC
  %15 = bitcast i8* %11 to <2 x float>*
  %16 = load <2 x float>, <2 x float>* %15, align 1
  %17 = getelementptr inbounds i8, i8* %11, i64 8
  %18 = bitcast i8* %17 to <2 x i32>*
  %19 = load <2 x i32>, <2 x i32>* %18, align 1
  %20 = bitcast i8* %12 to <2 x float>*
  %21 = load <2 x float>, <2 x float>* %20, align 1
  %22 = extractelement <2 x float> %16, i32 0
  %23 = extractelement <2 x float> %21, i32 0
  %24 = fsub float %22, %23
  %25 = bitcast i8* %10 to float*
  store float %24, float* %25, align 1
  %26 = bitcast <2 x float> %16 to <2 x i32>
  %27 = extractelement <2 x i32> %26, i32 1
  %28 = getelementptr inbounds i8, i8* %10, i64 4
  %29 = bitcast i8* %28 to i32*
  store i32 %27, i32* %29, align 1
  %30 = extractelement <2 x i32> %19, i32 0
  %31 = getelementptr inbounds i8, i8* %10, i64 8
  %32 = bitcast i8* %31 to i32*
  store i32 %30, i32* %32, align 1
  %33 = extractelement <2 x i32> %19, i32 1
  %34 = getelementptr inbounds i8, i8* %10, i64 12
  %35 = bitcast i8* %34 to i32*
  store i32 %33, i32* %35, align 1
  ret %struct.Memory* %2
}

define %struct.Memory* @routine_popq__rbp(%struct.State* dereferenceable(3376), i64, %struct.Memory*) {
block_400478:
  %3 = getelementptr inbounds %struct.State, %struct.State* %0, i32 0, i32 6
  %4 = getelementptr inbounds %struct.GPR, %struct.GPR* %3, i32 0, i32 33
  %5 = getelementptr inbounds %struct.Reg, %struct.Reg* %4, i32 0, i32 0
  %PC = bitcast %union.anon* %5 to i64*
  %6 = getelementptr inbounds %struct.State, %struct.State* %0, i32 0, i32 6
  %7 = getelementptr inbounds %struct.GPR, %struct.GPR* %6, i32 0, i32 15
  %8 = getelementptr inbounds %struct.Reg, %struct.Reg* %7, i32 0, i32 0
  %RBP = bitcast %union.anon* %8 to i64*
  %9 = load i64, i64* %PC
  %10 = add i64 %9, 1
  store i64 %10, i64* %PC
  %11 = getelementptr inbounds %struct.State, %struct.State* %0, i64 0, i32 6, i32 13, i32 0, i32 0
  %12 = load i64, i64* %11, align 8
  %13 = add i64 %12, 8
  %14 = inttoptr i64 %12 to i64*
  %15 = load i64, i64* %14
  store i64 %15, i64* %RBP, align 8
  store i64 %13, i64* %11, align 8
  ret %struct.Memory* %2
}

define %struct.Memory* @routine_retq(%struct.State* dereferenceable(3376), i64, %struct.Memory*) {
block_400478:
  %3 = getelementptr inbounds %struct.State, %struct.State* %0, i32 0, i32 6
  %4 = getelementptr inbounds %struct.GPR, %struct.GPR* %3, i32 0, i32 33
  %5 = getelementptr inbounds %struct.Reg, %struct.Reg* %4, i32 0, i32 0
  %PC = bitcast %union.anon* %5 to i64*
  %6 = load i64, i64* %PC
  %7 = add i64 %6, 1
  store i64 %7, i64* %PC
  %8 = getelementptr inbounds %struct.State, %struct.State* %0, i64 0, i32 6, i32 33, i32 0, i32 0
  %9 = getelementptr inbounds %struct.State, %struct.State* %0, i64 0, i32 6, i32 13, i32 0, i32 0
  %10 = load i64, i64* %9, align 8
  %11 = inttoptr i64 %10 to i64*
  %12 = load i64, i64* %11
  store i64 %12, i64* %8, align 8
  %13 = add i64 %10, 8
  store i64 %13, i64* %9, align 8
  ret %struct.Memory* %2
}

attributes #0 = { argmemonly nounwind }
attributes #1 = { nounwind readnone }
attributes #2 = { alwaysinline }
