; ModuleID = 'mcsema/test.proposed.inline.ll'
source_filename = "llvm-link"
target datalayout = "e-m:e-i64:64-f80:128-n8:16:32:64-S128"
target triple = "x86_64-pc-linux-gnu-elf"

%__bss_start_type = type <{ [8 x i8] }>
%G__0x57f240_type = type <{ [8 x i8] }>
%G__0x58714f_type = type <{ [8 x i8] }>
%G__0x58777f_type = type <{ [8 x i8] }>
%struct.State = type { %struct.ArchState, [32 x %union.VectorReg], %struct.ArithFlags, %union.anon, %struct.Segments, %struct.AddressSpace, %struct.GPR, %struct.X87Stack, %struct.MMX, %struct.FPUStatusFlags, %union.anon, %union.FPU, %struct.SegmentCaches }
%struct.ArchState = type { i32, i32, %union.anon }
%union.VectorReg = type { %union.vec512_t }
%union.vec512_t = type { %struct.uint64v8_t }
%struct.uint64v8_t = type { [8 x i64] }
%struct.ArithFlags = type { i8, i8, i8, i8, i8, i8, i8, i8, i8, i8, i8, i8, i8, i8, i8, i8 }
%struct.Segments = type { i16, %union.SegmentSelector, i16, %union.SegmentSelector, i16, %union.SegmentSelector, i16, %union.SegmentSelector, i16, %union.SegmentSelector, i16, %union.SegmentSelector }
%union.SegmentSelector = type { i16 }
%struct.AddressSpace = type { i64, %struct.Reg, i64, %struct.Reg, i64, %struct.Reg, i64, %struct.Reg, i64, %struct.Reg, i64, %struct.Reg }
%struct.Reg = type { %union.anon }
%struct.GPR = type { i64, %struct.Reg, i64, %struct.Reg, i64, %struct.Reg, i64, %struct.Reg, i64, %struct.Reg, i64, %struct.Reg, i64, %struct.Reg, i64, %struct.Reg, i64, %struct.Reg, i64, %struct.Reg, i64, %struct.Reg, i64, %struct.Reg, i64, %struct.Reg, i64, %struct.Reg, i64, %struct.Reg, i64, %struct.Reg, i64, %struct.Reg }
%struct.X87Stack = type { [8 x %struct.anon.3] }
%struct.anon.3 = type { i64, double }
%struct.MMX = type { [8 x %struct.anon.4] }
%struct.anon.4 = type { i64, %union.vec64_t }
%union.vec64_t = type { %struct.uint64v1_t }
%struct.uint64v1_t = type { [1 x i64] }
%struct.FPUStatusFlags = type { i8, i8, i8, i8, i8, i8, i8, i8, i8, i8, i8, i8, i8, i8, i8, i8, i8, i8, i8, i8, [4 x i8] }
%union.anon = type { i64 }
%union.FPU = type { %struct.anon.13 }
%struct.anon.13 = type { %struct.FpuFXSAVE, [96 x i8] }
%struct.FpuFXSAVE = type { %union.SegmentSelector, %union.SegmentSelector, %union.FPUAbridgedTagWord, i8, i16, i32, %union.SegmentSelector, i16, i32, %union.SegmentSelector, i16, %union.FPUControlStatus, %union.FPUControlStatus, [8 x %struct.FPUStackElem], [16 x %union.vec128_t] }
%union.FPUAbridgedTagWord = type { i8 }
%union.FPUControlStatus = type { i32 }
%struct.FPUStackElem = type { %union.anon.11, [6 x i8] }
%union.anon.11 = type { %struct.float80_t }
%struct.float80_t = type { [10 x i8] }
%union.vec128_t = type { %struct.uint128v1_t }
%struct.uint128v1_t = type { [1 x i128] }
%struct.SegmentCaches = type { %struct.SegmentShadow, %struct.SegmentShadow, %struct.SegmentShadow, %struct.SegmentShadow, %struct.SegmentShadow, %struct.SegmentShadow }
%struct.SegmentShadow = type { %union.anon, i32, i32 }
%struct.Memory = type opaque

@__bss_start = local_unnamed_addr global %__bss_start_type zeroinitializer
@G__0x57f240 = global %G__0x57f240_type zeroinitializer
@G__0x58714f = global %G__0x58714f_type zeroinitializer
@G__0x58777f = global %G__0x58777f_type zeroinitializer

declare %struct.Memory* @__remill_error(%struct.State* dereferenceable(3376), i64, %struct.Memory*) local_unnamed_addr

; Function Attrs: nounwind readnone
declare i32 @llvm.ctpop.i32(i32) #0

declare %struct.Memory* @sub_48c880.gtp_decode_coord(%struct.State* noalias dereferenceable(3376), i64, %struct.Memory* noalias readnone returned) local_unnamed_addr

declare %struct.Memory* @sub_48b8a0.gtp_failure(%struct.State* noalias dereferenceable(3376), i64, %struct.Memory* noalias readnone returned) local_unnamed_addr

declare %struct.Memory* @sub_45db40.attack(%struct.State* noalias dereferenceable(3376), i64, %struct.Memory* noalias readnone returned) local_unnamed_addr

declare %struct.Memory* @sub_48bbb0.gtp_start_response(%struct.State* noalias dereferenceable(3376), i64, %struct.Memory* noalias readnone returned) local_unnamed_addr

declare %struct.Memory* @sub_4989f0.gtp_print_code(%struct.State* noalias dereferenceable(3376), i64, %struct.Memory* noalias readnone returned) local_unnamed_addr

declare %struct.Memory* @sub_48ba40.gtp_printf(%struct.State* noalias dereferenceable(3376), i64, %struct.Memory* noalias readnone returned) local_unnamed_addr

declare %struct.Memory* @sub_48c2e0.gtp_print_vertex(%struct.State* noalias dereferenceable(3376), i64, %struct.Memory* noalias readnone returned) local_unnamed_addr

declare %struct.Memory* @sub_48bc30.gtp_finish_response(%struct.State* noalias dereferenceable(3376), i64, %struct.Memory* noalias readnone returned) local_unnamed_addr

; Function Attrs: alwaysinline
define %struct.Memory* @gtp_attack(%struct.State* noalias, i64, %struct.Memory* noalias) local_unnamed_addr #1 {
entry:
  %3 = getelementptr inbounds %struct.State, %struct.State* %0, i64 0, i32 6, i32 33, i32 0, i32 0
  %RBP.i = getelementptr inbounds %struct.State, %struct.State* %0, i64 0, i32 6, i32 15, i32 0, i32 0
  %4 = load i64, i64* %RBP.i, align 8
  %5 = add i64 %1, 1
  store i64 %5, i64* %3, align 8
  %6 = getelementptr inbounds %struct.State, %struct.State* %0, i64 0, i32 6, i32 13, i32 0, i32 0
  %7 = load i64, i64* %6, align 8
  %8 = add i64 %7, -8
  %9 = inttoptr i64 %8 to i64*
  store i64 %4, i64* %9, align 8
  %10 = load i64, i64* %3, align 8
  store i64 %8, i64* %RBP.i, align 8
  %11 = add i64 %7, -56
  store i64 %11, i64* %6, align 8
  %12 = icmp ult i64 %8, 48
  %13 = zext i1 %12 to i8
  %14 = getelementptr inbounds %struct.State, %struct.State* %0, i64 0, i32 2, i32 1
  store i8 %13, i8* %14, align 1
  %15 = trunc i64 %11 to i32
  %16 = and i32 %15, 255
  %17 = tail call i32 @llvm.ctpop.i32(i32 %16)
  %18 = trunc i32 %17 to i8
  %19 = and i8 %18, 1
  %20 = xor i8 %19, 1
  %21 = getelementptr inbounds %struct.State, %struct.State* %0, i64 0, i32 2, i32 3
  store i8 %20, i8* %21, align 1
  %22 = xor i64 %8, 16
  %23 = xor i64 %22, %11
  %24 = lshr i64 %23, 4
  %25 = trunc i64 %24 to i8
  %26 = and i8 %25, 1
  %27 = getelementptr inbounds %struct.State, %struct.State* %0, i64 0, i32 2, i32 5
  store i8 %26, i8* %27, align 1
  %28 = icmp eq i64 %11, 0
  %29 = zext i1 %28 to i8
  %30 = getelementptr inbounds %struct.State, %struct.State* %0, i64 0, i32 2, i32 7
  store i8 %29, i8* %30, align 1
  %31 = lshr i64 %11, 63
  %32 = trunc i64 %31 to i8
  %33 = getelementptr inbounds %struct.State, %struct.State* %0, i64 0, i32 2, i32 9
  store i8 %32, i8* %33, align 1
  %34 = lshr i64 %8, 63
  %35 = xor i64 %31, %34
  %36 = add nuw nsw i64 %35, %34
  %37 = icmp eq i64 %36, 2
  %38 = zext i1 %37 to i8
  %39 = getelementptr inbounds %struct.State, %struct.State* %0, i64 0, i32 2, i32 13
  store i8 %38, i8* %39, align 1
  %40 = getelementptr inbounds %struct.State, %struct.State* %0, i64 0, i32 6, i32 9, i32 0
  %RSI.i121 = getelementptr inbounds %union.anon, %union.anon* %40, i64 0, i32 0
  %41 = add i64 %7, -28
  store i64 %41, i64* %RSI.i121, align 8
  %RDX.i118 = getelementptr inbounds %struct.State, %struct.State* %0, i64 0, i32 6, i32 7, i32 0, i32 0
  %42 = add i64 %7, -32
  store i64 %42, i64* %RDX.i118, align 8
  %RDI.i115 = getelementptr inbounds %struct.State, %struct.State* %0, i64 0, i32 6, i32 11, i32 0, i32 0
  %43 = add i64 %7, -24
  %44 = load i64, i64* %RDI.i115, align 8
  %45 = add i64 %10, 19
  store i64 %45, i64* %3, align 8
  %46 = inttoptr i64 %43 to i64*
  store i64 %44, i64* %46, align 8
  %47 = load i64, i64* %RBP.i, align 8
  %48 = add i64 %47, -16
  %49 = load i64, i64* %3, align 8
  %50 = add i64 %49, 4
  store i64 %50, i64* %3, align 8
  %51 = inttoptr i64 %48 to i64*
  %52 = load i64, i64* %51, align 8
  store i64 %52, i64* %RDI.i115, align 8
  %53 = add i64 %49, -25364
  %54 = add i64 %49, 9
  %55 = load i64, i64* %6, align 8
  %56 = add i64 %55, -8
  %57 = inttoptr i64 %56 to i64*
  store i64 %54, i64* %57, align 8
  store i64 %56, i64* %6, align 8
  store i64 %53, i64* %3, align 8
  %call2_492b98 = tail call %struct.Memory* @sub_48c880.gtp_decode_coord(%struct.State* %0, i64 %53, %struct.Memory* %2)
  %58 = getelementptr inbounds %struct.State, %struct.State* %0, i64 0, i32 6, i32 1, i32 0
  %EAX.i109 = bitcast %union.anon* %58 to i32*
  %59 = load i32, i32* %EAX.i109, align 4
  %60 = load i64, i64* %3, align 8
  store i8 0, i8* %14, align 1
  %61 = and i32 %59, 255
  %62 = tail call i32 @llvm.ctpop.i32(i32 %61)
  %63 = trunc i32 %62 to i8
  %64 = and i8 %63, 1
  %65 = xor i8 %64, 1
  store i8 %65, i8* %21, align 1
  store i8 0, i8* %27, align 1
  %66 = icmp eq i32 %59, 0
  %67 = zext i1 %66 to i8
  store i8 %67, i8* %30, align 1
  %68 = lshr i32 %59, 31
  %69 = trunc i32 %68 to i8
  store i8 %69, i8* %33, align 1
  store i8 0, i8* %39, align 1
  %.v = select i1 %66, i64 9, i64 34
  %70 = add i64 %60, %.v
  store i64 %70, i64* %3, align 8
  br i1 %66, label %block_492ba6, label %block_.L_492bbf

block_492ba6:                                     ; preds = %entry
  store i64 ptrtoint (%G__0x58714f_type* @G__0x58714f to i64), i64* %RDI.i115, align 8
  %AL.i104 = bitcast %union.anon* %58 to i8*
  store i8 0, i8* %AL.i104, align 1
  %71 = add i64 %70, -29446
  %72 = add i64 %70, 17
  %73 = load i64, i64* %6, align 8
  %74 = add i64 %73, -8
  %75 = inttoptr i64 %74 to i64*
  store i64 %72, i64* %75, align 8
  store i64 %74, i64* %6, align 8
  store i64 %71, i64* %3, align 8
  %call2_492bb2 = tail call %struct.Memory* @sub_48b8a0.gtp_failure(%struct.State* nonnull %0, i64 %71, %struct.Memory* %call2_492b98)
  %76 = load i64, i64* %RBP.i, align 8
  %77 = add i64 %76, -4
  %78 = load i32, i32* %EAX.i109, align 4
  %79 = load i64, i64* %3, align 8
  %80 = add i64 %79, 3
  store i64 %80, i64* %3, align 8
  %81 = inttoptr i64 %77 to i32*
  store i32 %78, i32* %81, align 4
  %82 = load i64, i64* %3, align 8
  %83 = add i64 %82, 172
  store i64 %83, i64* %3, align 8
  %.pre9 = getelementptr inbounds %union.anon, %union.anon* %58, i64 0, i32 0
  br label %block_.L_492c66

block_.L_492bbf:                                  ; preds = %entry
  %RAX.i96 = getelementptr inbounds %union.anon, %union.anon* %58, i64 0, i32 0
  %84 = load i64, i64* %RBP.i, align 8
  %85 = add i64 %84, -20
  %86 = add i64 %70, 4
  store i64 %86, i64* %3, align 8
  %87 = inttoptr i64 %85 to i32*
  %88 = load i32, i32* %87, align 4
  %89 = mul i32 %88, 20
  %90 = add i32 %89, 21
  %91 = zext i32 %90 to i64
  store i64 %91, i64* %RAX.i96, align 8
  %92 = icmp ugt i32 %89, -22
  %93 = zext i1 %92 to i8
  store i8 %93, i8* %14, align 1
  %94 = and i32 %90, 253
  %95 = tail call i32 @llvm.ctpop.i32(i32 %94)
  %96 = trunc i32 %95 to i8
  %97 = and i8 %96, 1
  %98 = xor i8 %97, 1
  store i8 %98, i8* %21, align 1
  %99 = xor i32 %89, 16
  %100 = xor i32 %99, %90
  %101 = lshr i32 %100, 4
  %102 = trunc i32 %101 to i8
  %103 = and i8 %102, 1
  store i8 %103, i8* %27, align 1
  store i8 0, i8* %30, align 1
  %104 = lshr i32 %90, 31
  %105 = trunc i32 %104 to i8
  store i8 %105, i8* %33, align 1
  %106 = lshr i32 %89, 31
  %107 = xor i32 %104, %106
  %108 = add nuw nsw i32 %107, %104
  %109 = icmp eq i32 %108, 2
  %110 = zext i1 %109 to i8
  store i8 %110, i8* %39, align 1
  %111 = add i64 %84, -24
  %112 = add i64 %70, 10
  store i64 %112, i64* %3, align 8
  %113 = inttoptr i64 %111 to i32*
  %114 = load i32, i32* %113, align 4
  %115 = add i32 %114, %90
  %116 = zext i32 %115 to i64
  store i64 %116, i64* %RAX.i96, align 8
  %117 = icmp ult i32 %115, %90
  %118 = icmp ult i32 %115, %114
  %119 = or i1 %117, %118
  %120 = zext i1 %119 to i8
  store i8 %120, i8* %14, align 1
  %121 = and i32 %115, 255
  %122 = tail call i32 @llvm.ctpop.i32(i32 %121)
  %123 = trunc i32 %122 to i8
  %124 = and i8 %123, 1
  %125 = xor i8 %124, 1
  store i8 %125, i8* %21, align 1
  %126 = xor i32 %114, %90
  %127 = xor i32 %126, %115
  %128 = lshr i32 %127, 4
  %129 = trunc i32 %128 to i8
  %130 = and i8 %129, 1
  store i8 %130, i8* %27, align 1
  %131 = icmp eq i32 %115, 0
  %132 = zext i1 %131 to i8
  store i8 %132, i8* %30, align 1
  %133 = lshr i32 %115, 31
  %134 = trunc i32 %133 to i8
  store i8 %134, i8* %33, align 1
  %135 = lshr i32 %114, 31
  %136 = xor i32 %133, %104
  %137 = xor i32 %133, %135
  %138 = add nuw nsw i32 %136, %137
  %139 = icmp eq i32 %138, 2
  %140 = zext i1 %139 to i8
  store i8 %140, i8* %39, align 1
  %141 = getelementptr inbounds %struct.State, %struct.State* %0, i64 0, i32 6, i32 5, i32 0
  %RCX.i89 = getelementptr inbounds %union.anon, %union.anon* %141, i64 0, i32 0
  %142 = sext i32 %115 to i64
  store i64 %142, i64* %RCX.i89, align 8
  %143 = add nsw i64 %142, 12099168
  %144 = add i64 %70, 21
  store i64 %144, i64* %3, align 8
  %145 = inttoptr i64 %143 to i8*
  %146 = load i8, i8* %145, align 1
  %147 = zext i8 %146 to i64
  store i64 %147, i64* %RAX.i96, align 8
  %148 = zext i8 %146 to i32
  store i8 0, i8* %14, align 1
  %149 = tail call i32 @llvm.ctpop.i32(i32 %148)
  %150 = trunc i32 %149 to i8
  %151 = and i8 %150, 1
  %152 = xor i8 %151, 1
  store i8 %152, i8* %21, align 1
  store i8 0, i8* %27, align 1
  %153 = icmp eq i8 %146, 0
  %154 = zext i1 %153 to i8
  store i8 %154, i8* %30, align 1
  store i8 0, i8* %33, align 1
  store i8 0, i8* %39, align 1
  %.v10 = select i1 %153, i64 30, i64 55
  %155 = add i64 %70, %.v10
  store i64 %155, i64* %3, align 8
  br i1 %153, label %block_492bdd, label %block_.L_492bf6

block_492bdd:                                     ; preds = %block_.L_492bbf
  store i64 ptrtoint (%G__0x58777f_type* @G__0x58777f to i64), i64* %RDI.i115, align 8
  %AL.i78 = bitcast %union.anon* %58 to i8*
  store i8 0, i8* %AL.i78, align 1
  %156 = add i64 %155, -29501
  %157 = add i64 %155, 17
  %158 = load i64, i64* %6, align 8
  %159 = add i64 %158, -8
  %160 = inttoptr i64 %159 to i64*
  store i64 %157, i64* %160, align 8
  store i64 %159, i64* %6, align 8
  store i64 %156, i64* %3, align 8
  %call2_492be9 = tail call %struct.Memory* @sub_48b8a0.gtp_failure(%struct.State* nonnull %0, i64 %156, %struct.Memory* %call2_492b98)
  %161 = load i64, i64* %RBP.i, align 8
  %162 = add i64 %161, -4
  %163 = load i32, i32* %EAX.i109, align 4
  %164 = load i64, i64* %3, align 8
  %165 = add i64 %164, 3
  store i64 %165, i64* %3, align 8
  %166 = inttoptr i64 %162 to i32*
  store i32 %163, i32* %166, align 4
  %167 = load i64, i64* %3, align 8
  %168 = add i64 %167, 117
  store i64 %168, i64* %3, align 8
  br label %block_.L_492c66

block_.L_492bf6:                                  ; preds = %block_.L_492bbf
  %169 = load i64, i64* %RBP.i, align 8
  %170 = add i64 %169, -28
  store i64 %170, i64* %RSI.i121, align 8
  %171 = add i64 %169, -20
  %172 = add i64 %155, 8
  store i64 %172, i64* %3, align 8
  %173 = inttoptr i64 %171 to i32*
  %174 = load i32, i32* %173, align 4
  %175 = mul i32 %174, 20
  %176 = add i32 %175, 21
  %177 = zext i32 %176 to i64
  store i64 %177, i64* %RAX.i96, align 8
  %178 = icmp ugt i32 %175, -22
  %179 = zext i1 %178 to i8
  store i8 %179, i8* %14, align 1
  %180 = and i32 %176, 253
  %181 = tail call i32 @llvm.ctpop.i32(i32 %180)
  %182 = trunc i32 %181 to i8
  %183 = and i8 %182, 1
  %184 = xor i8 %183, 1
  store i8 %184, i8* %21, align 1
  %185 = xor i32 %175, 16
  %186 = xor i32 %185, %176
  %187 = lshr i32 %186, 4
  %188 = trunc i32 %187 to i8
  %189 = and i8 %188, 1
  store i8 %189, i8* %27, align 1
  store i8 0, i8* %30, align 1
  %190 = lshr i32 %176, 31
  %191 = trunc i32 %190 to i8
  store i8 %191, i8* %33, align 1
  %192 = lshr i32 %175, 31
  %193 = xor i32 %190, %192
  %194 = add nuw nsw i32 %193, %190
  %195 = icmp eq i32 %194, 2
  %196 = zext i1 %195 to i8
  store i8 %196, i8* %39, align 1
  %197 = add i64 %169, -24
  %198 = add i64 %155, 14
  store i64 %198, i64* %3, align 8
  %199 = inttoptr i64 %197 to i32*
  %200 = load i32, i32* %199, align 4
  %201 = add i32 %200, %176
  %202 = zext i32 %201 to i64
  store i64 %202, i64* %RAX.i96, align 8
  %203 = icmp ult i32 %201, %176
  %204 = icmp ult i32 %201, %200
  %205 = or i1 %203, %204
  %206 = zext i1 %205 to i8
  store i8 %206, i8* %14, align 1
  %207 = and i32 %201, 255
  %208 = tail call i32 @llvm.ctpop.i32(i32 %207)
  %209 = trunc i32 %208 to i8
  %210 = and i8 %209, 1
  %211 = xor i8 %210, 1
  store i8 %211, i8* %21, align 1
  %212 = xor i32 %200, %176
  %213 = xor i32 %212, %201
  %214 = lshr i32 %213, 4
  %215 = trunc i32 %214 to i8
  %216 = and i8 %215, 1
  store i8 %216, i8* %27, align 1
  %217 = icmp eq i32 %201, 0
  %218 = zext i1 %217 to i8
  store i8 %218, i8* %30, align 1
  %219 = lshr i32 %201, 31
  %220 = trunc i32 %219 to i8
  store i8 %220, i8* %33, align 1
  %221 = lshr i32 %200, 31
  %222 = xor i32 %219, %190
  %223 = xor i32 %219, %221
  %224 = add nuw nsw i32 %222, %223
  %225 = icmp eq i32 %224, 2
  %226 = zext i1 %225 to i8
  store i8 %226, i8* %39, align 1
  store i64 %202, i64* %RDI.i115, align 8
  %227 = add i64 %155, -217270
  %228 = add i64 %155, 21
  %229 = load i64, i64* %6, align 8
  %230 = add i64 %229, -8
  %231 = inttoptr i64 %230 to i64*
  store i64 %228, i64* %231, align 8
  store i64 %230, i64* %6, align 8
  store i64 %227, i64* %3, align 8
  %call2_492c06 = tail call %struct.Memory* @sub_45db40.attack(%struct.State* nonnull %0, i64 %227, %struct.Memory* %call2_492b98)
  %232 = load i64, i64* %3, align 8
  store i64 0, i64* %RDI.i115, align 8
  store i8 0, i8* %14, align 1
  store i8 1, i8* %21, align 1
  store i8 1, i8* %30, align 1
  store i8 0, i8* %33, align 1
  store i8 0, i8* %39, align 1
  store i8 0, i8* %27, align 1
  %233 = load i64, i64* %RBP.i, align 8
  %234 = add i64 %233, -32
  %235 = load i32, i32* %EAX.i109, align 4
  %236 = add i64 %232, 5
  store i64 %236, i64* %3, align 8
  %237 = inttoptr i64 %234 to i32*
  store i32 %235, i32* %237, align 4
  %238 = load i64, i64* %3, align 8
  %239 = add i64 %238, -28768
  %240 = add i64 %238, 5
  %241 = load i64, i64* %6, align 8
  %242 = add i64 %241, -8
  %243 = inttoptr i64 %242 to i64*
  store i64 %240, i64* %243, align 8
  store i64 %242, i64* %6, align 8
  store i64 %239, i64* %3, align 8
  %call2_492c10 = tail call %struct.Memory* @sub_48bbb0.gtp_start_response(%struct.State* nonnull %0, i64 %239, %struct.Memory* %call2_492c06)
  %244 = load i64, i64* %RBP.i, align 8
  %245 = add i64 %244, -32
  %246 = load i64, i64* %3, align 8
  %247 = add i64 %246, 3
  store i64 %247, i64* %3, align 8
  %248 = inttoptr i64 %245 to i32*
  %249 = load i32, i32* %248, align 4
  %250 = zext i32 %249 to i64
  store i64 %250, i64* %RDI.i115, align 8
  %251 = add i64 %246, 24027
  %252 = add i64 %246, 8
  %253 = load i64, i64* %6, align 8
  %254 = add i64 %253, -8
  %255 = inttoptr i64 %254 to i64*
  store i64 %252, i64* %255, align 8
  store i64 %254, i64* %6, align 8
  store i64 %251, i64* %3, align 8
  %call2_492c18 = tail call %struct.Memory* @sub_4989f0.gtp_print_code(%struct.State* nonnull %0, i64 %251, %struct.Memory* %call2_492c10)
  %256 = load i64, i64* %RBP.i, align 8
  %257 = add i64 %256, -32
  %258 = load i64, i64* %3, align 8
  %259 = add i64 %258, 4
  store i64 %259, i64* %3, align 8
  %260 = inttoptr i64 %257 to i32*
  %261 = load i32, i32* %260, align 4
  store i8 0, i8* %14, align 1
  %262 = and i32 %261, 255
  %263 = tail call i32 @llvm.ctpop.i32(i32 %262)
  %264 = trunc i32 %263 to i8
  %265 = and i8 %264, 1
  %266 = xor i8 %265, 1
  store i8 %266, i8* %21, align 1
  store i8 0, i8* %27, align 1
  %267 = icmp eq i32 %261, 0
  %268 = zext i1 %267 to i8
  store i8 %268, i8* %30, align 1
  %269 = lshr i32 %261, 31
  %270 = trunc i32 %269 to i8
  store i8 %270, i8* %33, align 1
  store i8 0, i8* %39, align 1
  %271 = icmp ne i8 %270, 0
  %272 = or i1 %267, %271
  %.v11 = select i1 %272, i64 65, i64 10
  %273 = add i64 %258, %.v11
  store i64 %273, i64* %3, align 8
  br i1 %272, label %block_.L_492c5e, label %block_492c27

block_492c27:                                     ; preds = %block_.L_492bf6
  store i64 ptrtoint (%G__0x57f240_type* @G__0x57f240 to i64), i64* %RDI.i115, align 8
  %AL.i = bitcast %union.anon* %58 to i8*
  store i8 0, i8* %AL.i, align 1
  %274 = add i64 %273, -29159
  %275 = add i64 %273, 17
  %276 = load i64, i64* %6, align 8
  %277 = add i64 %276, -8
  %278 = inttoptr i64 %277 to i64*
  store i64 %275, i64* %278, align 8
  store i64 %277, i64* %6, align 8
  store i64 %274, i64* %3, align 8
  %call2_492c33 = tail call %struct.Memory* @sub_48ba40.gtp_printf(%struct.State* nonnull %0, i64 %274, %struct.Memory* %call2_492c18)
  %279 = load i64, i64* %3, align 8
  store i64 20, i64* %RCX.i89, align 8
  %280 = load i64, i64* %RBP.i, align 8
  %281 = add i64 %280, -28
  %282 = add i64 %279, 8
  store i64 %282, i64* %3, align 8
  %283 = inttoptr i64 %281 to i32*
  %284 = load i32, i32* %283, align 4
  %285 = zext i32 %284 to i64
  store i64 %285, i64* %RAX.i96, align 8
  %286 = getelementptr inbounds %struct.State, %struct.State* %0, i64 0, i32 6, i32 7, i32 0, i32 0
  %287 = sext i32 %284 to i64
  %288 = lshr i64 %287, 32
  store i64 %288, i64* %286, align 8
  %ECX.i31 = bitcast %union.anon* %141 to i32*
  %289 = add i64 %279, 11
  store i64 %289, i64* %3, align 8
  %290 = shl nuw i64 %288, 32
  %291 = or i64 %290, %285
  %292 = sdiv i64 %291, 20
  %293 = shl i64 %292, 32
  %294 = ashr exact i64 %293, 32
  %295 = icmp eq i64 %292, %294
  br i1 %295, label %298, label %296

; <label>:296:                                    ; preds = %block_492c27
  %297 = tail call %struct.Memory* @__remill_error(%struct.State* nonnull dereferenceable(3376) %0, i64 %289, %struct.Memory* %call2_492c33)
  %.pre = load i64, i64* %RAX.i96, align 8
  %.pre3 = load i64, i64* %3, align 8
  %.pre4 = load i64, i64* %RBP.i, align 8
  br label %routine_idivl__ecx.exit32

; <label>:298:                                    ; preds = %block_492c27
  %299 = srem i64 %291, 20
  %300 = and i64 %292, 4294967295
  store i64 %300, i64* %RAX.i96, align 8
  %301 = and i64 %299, 4294967295
  store i64 %301, i64* %RDX.i118, align 8
  store i8 0, i8* %14, align 1
  store i8 0, i8* %21, align 1
  store i8 0, i8* %27, align 1
  store i8 0, i8* %30, align 1
  store i8 0, i8* %33, align 1
  store i8 0, i8* %39, align 1
  br label %routine_idivl__ecx.exit32

routine_idivl__ecx.exit32:                        ; preds = %298, %296
  %302 = phi i64 [ %.pre4, %296 ], [ %280, %298 ]
  %303 = phi i64 [ %.pre3, %296 ], [ %289, %298 ]
  %304 = phi i64 [ %.pre, %296 ], [ %300, %298 ]
  %305 = phi %struct.Memory* [ %297, %296 ], [ %call2_492c33, %298 ]
  %306 = trunc i64 %304 to i32
  %307 = add i32 %306, -1
  %308 = zext i32 %307 to i64
  store i64 %308, i64* %RAX.i96, align 8
  %309 = icmp eq i32 %306, 0
  %310 = zext i1 %309 to i8
  store i8 %310, i8* %14, align 1
  %311 = and i32 %307, 255
  %312 = tail call i32 @llvm.ctpop.i32(i32 %311)
  %313 = trunc i32 %312 to i8
  %314 = and i8 %313, 1
  %315 = xor i8 %314, 1
  store i8 %315, i8* %21, align 1
  %316 = xor i32 %307, %306
  %317 = lshr i32 %316, 4
  %318 = trunc i32 %317 to i8
  %319 = and i8 %318, 1
  store i8 %319, i8* %27, align 1
  %320 = icmp eq i32 %307, 0
  %321 = zext i1 %320 to i8
  store i8 %321, i8* %30, align 1
  %322 = lshr i32 %307, 31
  %323 = trunc i32 %322 to i8
  store i8 %323, i8* %33, align 1
  %324 = lshr i32 %306, 31
  %325 = xor i32 %322, %324
  %326 = add nuw nsw i32 %325, %324
  %327 = icmp eq i32 %326, 2
  %328 = zext i1 %327 to i8
  store i8 %328, i8* %39, align 1
  %329 = add i64 %302, -28
  %330 = add i64 %303, 6
  store i64 %330, i64* %3, align 8
  %331 = inttoptr i64 %329 to i32*
  %332 = load i32, i32* %331, align 4
  %333 = zext i32 %332 to i64
  store i64 %333, i64* %RSI.i121, align 8
  %334 = add i64 %302, -36
  %335 = add i64 %303, 9
  store i64 %335, i64* %3, align 8
  %336 = inttoptr i64 %334 to i32*
  store i32 %307, i32* %336, align 4
  %ESI.i = bitcast %union.anon* %40 to i32*
  %337 = load i32, i32* %ESI.i, align 4
  %338 = zext i32 %337 to i64
  %339 = load i64, i64* %3, align 8
  store i64 %338, i64* %RAX.i96, align 8
  %340 = sext i32 %337 to i64
  %341 = lshr i64 %340, 32
  store i64 %341, i64* %286, align 8
  %342 = load i32, i32* %ECX.i31, align 4
  %343 = add i64 %339, 5
  store i64 %343, i64* %3, align 8
  %344 = sext i32 %342 to i64
  %345 = shl nuw i64 %341, 32
  %346 = or i64 %345, %338
  %347 = sdiv i64 %346, %344
  %348 = shl i64 %347, 32
  %349 = ashr exact i64 %348, 32
  %350 = icmp eq i64 %347, %349
  br i1 %350, label %353, label %351

; <label>:351:                                    ; preds = %routine_idivl__ecx.exit32
  %352 = tail call %struct.Memory* @__remill_error(%struct.State* nonnull dereferenceable(3376) %0, i64 %343, %struct.Memory* %305)
  %.pre5 = load i64, i64* %RDX.i118, align 8
  %.pre6 = load i64, i64* %3, align 8
  br label %routine_idivl__ecx.exit

; <label>:353:                                    ; preds = %routine_idivl__ecx.exit32
  %354 = srem i64 %346, %344
  %355 = and i64 %347, 4294967295
  store i64 %355, i64* %RAX.i96, align 8
  %356 = and i64 %354, 4294967295
  store i64 %356, i64* %RDX.i118, align 8
  store i8 0, i8* %14, align 1
  store i8 0, i8* %21, align 1
  store i8 0, i8* %27, align 1
  store i8 0, i8* %30, align 1
  store i8 0, i8* %33, align 1
  store i8 0, i8* %39, align 1
  br label %routine_idivl__ecx.exit

routine_idivl__ecx.exit:                          ; preds = %353, %351
  %357 = phi i64 [ %.pre6, %351 ], [ %343, %353 ]
  %358 = phi i64 [ %.pre5, %351 ], [ %356, %353 ]
  %359 = phi %struct.Memory* [ %352, %351 ], [ %305, %353 ]
  %360 = trunc i64 %358 to i32
  %361 = add i32 %360, -1
  %362 = zext i32 %361 to i64
  store i64 %362, i64* %RDX.i118, align 8
  %363 = icmp eq i32 %360, 0
  %364 = zext i1 %363 to i8
  store i8 %364, i8* %14, align 1
  %365 = and i32 %361, 255
  %366 = tail call i32 @llvm.ctpop.i32(i32 %365)
  %367 = trunc i32 %366 to i8
  %368 = and i8 %367, 1
  %369 = xor i8 %368, 1
  store i8 %369, i8* %21, align 1
  %370 = xor i32 %361, %360
  %371 = lshr i32 %370, 4
  %372 = trunc i32 %371 to i8
  %373 = and i8 %372, 1
  store i8 %373, i8* %27, align 1
  %374 = icmp eq i32 %361, 0
  %375 = zext i1 %374 to i8
  store i8 %375, i8* %30, align 1
  %376 = lshr i32 %361, 31
  %377 = trunc i32 %376 to i8
  store i8 %377, i8* %33, align 1
  %378 = lshr i32 %360, 31
  %379 = xor i32 %376, %378
  %380 = add nuw nsw i32 %379, %378
  %381 = icmp eq i32 %380, 2
  %382 = zext i1 %381 to i8
  store i8 %382, i8* %39, align 1
  %383 = load i64, i64* %RBP.i, align 8
  %384 = add i64 %383, -36
  %385 = add i64 %357, 6
  store i64 %385, i64* %3, align 8
  %386 = inttoptr i64 %384 to i32*
  %387 = load i32, i32* %386, align 4
  %388 = zext i32 %387 to i64
  store i64 %388, i64* %RDI.i115, align 8
  store i64 %362, i64* %RSI.i121, align 8
  %389 = add i64 %357, -26993
  %390 = add i64 %357, 13
  %391 = load i64, i64* %6, align 8
  %392 = add i64 %391, -8
  %393 = inttoptr i64 %392 to i64*
  store i64 %390, i64* %393, align 8
  store i64 %392, i64* %6, align 8
  store i64 %389, i64* %3, align 8
  %call2_492c59 = tail call %struct.Memory* @sub_48c2e0.gtp_print_vertex(%struct.State* nonnull %0, i64 %389, %struct.Memory* %359)
  %.pre7 = load i64, i64* %3, align 8
  br label %block_.L_492c5e

block_.L_492c5e:                                  ; preds = %routine_idivl__ecx.exit, %block_.L_492bf6
  %394 = phi i64 [ %273, %block_.L_492bf6 ], [ %.pre7, %routine_idivl__ecx.exit ]
  %MEMORY.0 = phi %struct.Memory* [ %call2_492c18, %block_.L_492bf6 ], [ %call2_492c59, %routine_idivl__ecx.exit ]
  %395 = add i64 %394, -28718
  %396 = add i64 %394, 5
  %397 = load i64, i64* %6, align 8
  %398 = add i64 %397, -8
  %399 = inttoptr i64 %398 to i64*
  store i64 %396, i64* %399, align 8
  store i64 %398, i64* %6, align 8
  store i64 %395, i64* %3, align 8
  %call2_492c5e = tail call %struct.Memory* @sub_48bc30.gtp_finish_response(%struct.State* nonnull %0, i64 %395, %struct.Memory* %MEMORY.0)
  %400 = load i64, i64* %RBP.i, align 8
  %401 = add i64 %400, -4
  %402 = load i32, i32* %EAX.i109, align 4
  %403 = load i64, i64* %3, align 8
  %404 = add i64 %403, 3
  store i64 %404, i64* %3, align 8
  %405 = inttoptr i64 %401 to i32*
  store i32 %402, i32* %405, align 4
  %.pre8 = load i64, i64* %3, align 8
  br label %block_.L_492c66

block_.L_492c66:                                  ; preds = %block_.L_492c5e, %block_492bdd, %block_492ba6
  %RAX.i.pre-phi = phi i64* [ %RAX.i96, %block_.L_492c5e ], [ %RAX.i96, %block_492bdd ], [ %.pre9, %block_492ba6 ]
  %406 = phi i64 [ %.pre8, %block_.L_492c5e ], [ %168, %block_492bdd ], [ %83, %block_492ba6 ]
  %MEMORY.1 = phi %struct.Memory* [ %call2_492c5e, %block_.L_492c5e ], [ %call2_492be9, %block_492bdd ], [ %call2_492bb2, %block_492ba6 ]
  %407 = load i64, i64* %RBP.i, align 8
  %408 = add i64 %407, -4
  %409 = add i64 %406, 3
  store i64 %409, i64* %3, align 8
  %410 = inttoptr i64 %408 to i32*
  %411 = load i32, i32* %410, align 4
  %412 = zext i32 %411 to i64
  store i64 %412, i64* %RAX.i.pre-phi, align 8
  %413 = load i64, i64* %6, align 8
  %414 = add i64 %413, 48
  store i64 %414, i64* %6, align 8
  %415 = icmp ugt i64 %413, -49
  %416 = zext i1 %415 to i8
  store i8 %416, i8* %14, align 1
  %417 = trunc i64 %414 to i32
  %418 = and i32 %417, 255
  %419 = tail call i32 @llvm.ctpop.i32(i32 %418)
  %420 = trunc i32 %419 to i8
  %421 = and i8 %420, 1
  %422 = xor i8 %421, 1
  store i8 %422, i8* %21, align 1
  %423 = xor i64 %413, 16
  %424 = xor i64 %423, %414
  %425 = lshr i64 %424, 4
  %426 = trunc i64 %425 to i8
  %427 = and i8 %426, 1
  store i8 %427, i8* %27, align 1
  %428 = icmp eq i64 %414, 0
  %429 = zext i1 %428 to i8
  store i8 %429, i8* %30, align 1
  %430 = lshr i64 %414, 63
  %431 = trunc i64 %430 to i8
  store i8 %431, i8* %33, align 1
  %432 = lshr i64 %413, 63
  %433 = xor i64 %430, %432
  %434 = add nuw nsw i64 %433, %430
  %435 = icmp eq i64 %434, 2
  %436 = zext i1 %435 to i8
  store i8 %436, i8* %39, align 1
  %437 = add i64 %406, 8
  store i64 %437, i64* %3, align 8
  %438 = add i64 %413, 56
  %439 = inttoptr i64 %414 to i64*
  %440 = load i64, i64* %439, align 8
  store i64 %440, i64* %RBP.i, align 8
  store i64 %438, i64* %6, align 8
  %441 = add i64 %406, 9
  store i64 %441, i64* %3, align 8
  %442 = inttoptr i64 %438 to i64*
  %443 = load i64, i64* %442, align 8
  store i64 %443, i64* %3, align 8
  %444 = add i64 %413, 64
  store i64 %444, i64* %6, align 8
  ret %struct.Memory* %MEMORY.1
}

; Function Attrs: norecurse nounwind
define %struct.Memory* @routine_pushq__rbp(%struct.State* nocapture dereferenceable(3376), i64, %struct.Memory* readnone returned) local_unnamed_addr #2 {
block_400488:
  %PC = getelementptr inbounds %struct.State, %struct.State* %0, i64 0, i32 6, i32 33, i32 0, i32 0
  %RBP = getelementptr inbounds %struct.State, %struct.State* %0, i64 0, i32 6, i32 15, i32 0, i32 0
  %3 = load i64, i64* %RBP, align 8
  %4 = load i64, i64* %PC, align 8
  %5 = add i64 %4, 1
  store i64 %5, i64* %PC, align 8
  %6 = getelementptr inbounds %struct.State, %struct.State* %0, i64 0, i32 6, i32 13, i32 0, i32 0
  %7 = load i64, i64* %6, align 8
  %8 = add i64 %7, -8
  %9 = inttoptr i64 %8 to i64*
  store i64 %3, i64* %9, align 8
  store i64 %8, i64* %6, align 8
  ret %struct.Memory* %2
}

; Function Attrs: norecurse nounwind
define %struct.Memory* @routine_movq__rsp___rbp(%struct.State* nocapture dereferenceable(3376), i64, %struct.Memory* readnone returned) local_unnamed_addr #2 {
block_400488:
  %PC = getelementptr inbounds %struct.State, %struct.State* %0, i64 0, i32 6, i32 33, i32 0, i32 0
  %RSP = getelementptr inbounds %struct.State, %struct.State* %0, i64 0, i32 6, i32 13, i32 0, i32 0
  %RBP = getelementptr inbounds %struct.State, %struct.State* %0, i64 0, i32 6, i32 15, i32 0, i32 0
  %3 = load i64, i64* %RSP, align 8
  %4 = load i64, i64* %PC, align 8
  %5 = add i64 %4, 3
  store i64 %5, i64* %PC, align 8
  store i64 %3, i64* %RBP, align 8
  ret %struct.Memory* %2
}

; Function Attrs: nounwind
define %struct.Memory* @routine_subq__0x30___rsp(%struct.State* nocapture dereferenceable(3376), i64, %struct.Memory* readnone returned) local_unnamed_addr #3 {
block_400488:
  %PC = getelementptr inbounds %struct.State, %struct.State* %0, i64 0, i32 6, i32 33, i32 0, i32 0
  %RSP = getelementptr inbounds %struct.State, %struct.State* %0, i64 0, i32 6, i32 13, i32 0, i32 0
  %3 = load i64, i64* %RSP, align 8
  %4 = load i64, i64* %PC, align 8
  %5 = add i64 %4, 4
  store i64 %5, i64* %PC, align 8
  %6 = add i64 %3, -48
  store i64 %6, i64* %RSP, align 8
  %7 = icmp ult i64 %3, 48
  %8 = zext i1 %7 to i8
  %9 = getelementptr inbounds %struct.State, %struct.State* %0, i64 0, i32 2, i32 1
  store i8 %8, i8* %9, align 1
  %10 = trunc i64 %6 to i32
  %11 = and i32 %10, 255
  %12 = tail call i32 @llvm.ctpop.i32(i32 %11)
  %13 = trunc i32 %12 to i8
  %14 = and i8 %13, 1
  %15 = xor i8 %14, 1
  %16 = getelementptr inbounds %struct.State, %struct.State* %0, i64 0, i32 2, i32 3
  store i8 %15, i8* %16, align 1
  %17 = xor i64 %3, 16
  %18 = xor i64 %17, %6
  %19 = lshr i64 %18, 4
  %20 = trunc i64 %19 to i8
  %21 = and i8 %20, 1
  %22 = getelementptr inbounds %struct.State, %struct.State* %0, i64 0, i32 2, i32 5
  store i8 %21, i8* %22, align 1
  %23 = icmp eq i64 %6, 0
  %24 = zext i1 %23 to i8
  %25 = getelementptr inbounds %struct.State, %struct.State* %0, i64 0, i32 2, i32 7
  store i8 %24, i8* %25, align 1
  %26 = lshr i64 %6, 63
  %27 = trunc i64 %26 to i8
  %28 = getelementptr inbounds %struct.State, %struct.State* %0, i64 0, i32 2, i32 9
  store i8 %27, i8* %28, align 1
  %29 = lshr i64 %3, 63
  %30 = xor i64 %26, %29
  %31 = add nuw nsw i64 %30, %29
  %32 = icmp eq i64 %31, 2
  %33 = zext i1 %32 to i8
  %34 = getelementptr inbounds %struct.State, %struct.State* %0, i64 0, i32 2, i32 13
  store i8 %33, i8* %34, align 1
  ret %struct.Memory* %2
}

; Function Attrs: norecurse nounwind
define %struct.Memory* @routine_leaq_MINUS0x14__rbp____rsi(%struct.State* nocapture dereferenceable(3376), i64, %struct.Memory* readnone returned) local_unnamed_addr #2 {
block_400488:
  %PC = getelementptr inbounds %struct.State, %struct.State* %0, i64 0, i32 6, i32 33, i32 0, i32 0
  %RSI = getelementptr inbounds %struct.State, %struct.State* %0, i64 0, i32 6, i32 9, i32 0, i32 0
  %RBP = getelementptr inbounds %struct.State, %struct.State* %0, i64 0, i32 6, i32 15, i32 0, i32 0
  %3 = load i64, i64* %RBP, align 8
  %4 = add i64 %3, -20
  %5 = load i64, i64* %PC, align 8
  %6 = add i64 %5, 4
  store i64 %6, i64* %PC, align 8
  store i64 %4, i64* %RSI, align 8
  ret %struct.Memory* %2
}

; Function Attrs: norecurse nounwind
define %struct.Memory* @routine_leaq_MINUS0x18__rbp____rdx(%struct.State* nocapture dereferenceable(3376), i64, %struct.Memory* readnone returned) local_unnamed_addr #2 {
block_400488:
  %PC = getelementptr inbounds %struct.State, %struct.State* %0, i64 0, i32 6, i32 33, i32 0, i32 0
  %RDX = getelementptr inbounds %struct.State, %struct.State* %0, i64 0, i32 6, i32 7, i32 0, i32 0
  %RBP = getelementptr inbounds %struct.State, %struct.State* %0, i64 0, i32 6, i32 15, i32 0, i32 0
  %3 = load i64, i64* %RBP, align 8
  %4 = add i64 %3, -24
  %5 = load i64, i64* %PC, align 8
  %6 = add i64 %5, 4
  store i64 %6, i64* %PC, align 8
  store i64 %4, i64* %RDX, align 8
  ret %struct.Memory* %2
}

; Function Attrs: norecurse nounwind
define %struct.Memory* @routine_movq__rdi__MINUS0x10__rbp_(%struct.State* nocapture dereferenceable(3376), i64, %struct.Memory* readnone returned) local_unnamed_addr #2 {
block_400488:
  %PC = getelementptr inbounds %struct.State, %struct.State* %0, i64 0, i32 6, i32 33, i32 0, i32 0
  %RDI = getelementptr inbounds %struct.State, %struct.State* %0, i64 0, i32 6, i32 11, i32 0, i32 0
  %RBP = getelementptr inbounds %struct.State, %struct.State* %0, i64 0, i32 6, i32 15, i32 0, i32 0
  %3 = load i64, i64* %RBP, align 8
  %4 = add i64 %3, -16
  %5 = load i64, i64* %RDI, align 8
  %6 = load i64, i64* %PC, align 8
  %7 = add i64 %6, 4
  store i64 %7, i64* %PC, align 8
  %8 = inttoptr i64 %4 to i64*
  store i64 %5, i64* %8, align 8
  ret %struct.Memory* %2
}

; Function Attrs: norecurse nounwind
define %struct.Memory* @routine_movq_MINUS0x10__rbp____rdi(%struct.State* nocapture dereferenceable(3376), i64, %struct.Memory* readnone returned) local_unnamed_addr #2 {
block_400488:
  %PC = getelementptr inbounds %struct.State, %struct.State* %0, i64 0, i32 6, i32 33, i32 0, i32 0
  %RDI = getelementptr inbounds %struct.State, %struct.State* %0, i64 0, i32 6, i32 11, i32 0, i32 0
  %RBP = getelementptr inbounds %struct.State, %struct.State* %0, i64 0, i32 6, i32 15, i32 0, i32 0
  %3 = load i64, i64* %RBP, align 8
  %4 = add i64 %3, -16
  %5 = load i64, i64* %PC, align 8
  %6 = add i64 %5, 4
  store i64 %6, i64* %PC, align 8
  %7 = inttoptr i64 %4 to i64*
  %8 = load i64, i64* %7, align 8
  store i64 %8, i64* %RDI, align 8
  ret %struct.Memory* %2
}

; Function Attrs: norecurse nounwind
define %struct.Memory* @routine_callq_.gtp_decode_coord(%struct.State* nocapture dereferenceable(3376), i64, %struct.Memory* readnone returned, i64 %rel_off1, i64 %rel_off2, i64 %rel_off3) local_unnamed_addr #2 {
block_400488:
  %PC = getelementptr inbounds %struct.State, %struct.State* %0, i64 0, i32 6, i32 33, i32 0, i32 0
  %3 = load i64, i64* %PC, align 8
  %4 = add i64 %3, %rel_off1
  %5 = add i64 %3, %rel_off2
  %6 = getelementptr inbounds %struct.State, %struct.State* %0, i64 0, i32 6, i32 13, i32 0, i32 0
  %7 = load i64, i64* %6, align 8
  %8 = add i64 %7, -8
  %9 = inttoptr i64 %8 to i64*
  store i64 %5, i64* %9, align 8
  store i64 %8, i64* %6, align 8
  store i64 %4, i64* %PC, align 8
  ret %struct.Memory* %2
}

; Function Attrs: nounwind
define %struct.Memory* @routine_cmpl__0x0___eax(%struct.State* nocapture dereferenceable(3376), i64, %struct.Memory* readnone returned) local_unnamed_addr #3 {
block_400488:
  %PC = getelementptr inbounds %struct.State, %struct.State* %0, i64 0, i32 6, i32 33, i32 0, i32 0
  %3 = getelementptr inbounds %struct.State, %struct.State* %0, i64 0, i32 6, i32 1, i32 0
  %EAX = bitcast %union.anon* %3 to i32*
  %4 = load i32, i32* %EAX, align 4
  %5 = load i64, i64* %PC, align 8
  %6 = add i64 %5, 3
  store i64 %6, i64* %PC, align 8
  %7 = getelementptr inbounds %struct.State, %struct.State* %0, i64 0, i32 2, i32 1
  store i8 0, i8* %7, align 1
  %8 = and i32 %4, 255
  %9 = tail call i32 @llvm.ctpop.i32(i32 %8)
  %10 = trunc i32 %9 to i8
  %11 = and i8 %10, 1
  %12 = xor i8 %11, 1
  %13 = getelementptr inbounds %struct.State, %struct.State* %0, i64 0, i32 2, i32 3
  store i8 %12, i8* %13, align 1
  %14 = getelementptr inbounds %struct.State, %struct.State* %0, i64 0, i32 2, i32 5
  store i8 0, i8* %14, align 1
  %15 = icmp eq i32 %4, 0
  %16 = zext i1 %15 to i8
  %17 = getelementptr inbounds %struct.State, %struct.State* %0, i64 0, i32 2, i32 7
  store i8 %16, i8* %17, align 1
  %18 = lshr i32 %4, 31
  %19 = trunc i32 %18 to i8
  %20 = getelementptr inbounds %struct.State, %struct.State* %0, i64 0, i32 2, i32 9
  store i8 %19, i8* %20, align 1
  %21 = getelementptr inbounds %struct.State, %struct.State* %0, i64 0, i32 2, i32 13
  store i8 0, i8* %21, align 1
  ret %struct.Memory* %2
}

; Function Attrs: norecurse nounwind
define %struct.Memory* @routine_jne_.L_492bbf(%struct.State* nocapture dereferenceable(3376), i64, %struct.Memory* readnone returned, i8* nocapture %BRANCH_TAKEN, i64 %rel_off1, i64 %rel_off2, i64 %rel_off3) local_unnamed_addr #2 {
block_400488:
  %PC = getelementptr inbounds %struct.State, %struct.State* %0, i64 0, i32 6, i32 33, i32 0, i32 0
  %3 = load i64, i64* %PC, align 8
  %4 = getelementptr inbounds %struct.State, %struct.State* %0, i64 0, i32 2, i32 7
  %5 = load i8, i8* %4, align 1
  %6 = icmp eq i8 %5, 0
  %7 = zext i1 %6 to i8
  store i8 %7, i8* %BRANCH_TAKEN, align 1
  %.v = select i1 %6, i64 %rel_off1, i64 %rel_off2
  %8 = add i64 %.v, %3
  store i64 %8, i64* %PC, align 8
  ret %struct.Memory* %2
}

; Function Attrs: norecurse nounwind
define %struct.Memory* @routine_movq__0x58714f___rdi(%struct.State* nocapture dereferenceable(3376), i64, %struct.Memory* readnone returned) local_unnamed_addr #2 {
block_400488:
  %PC = getelementptr inbounds %struct.State, %struct.State* %0, i64 0, i32 6, i32 33, i32 0, i32 0
  %RDI = getelementptr inbounds %struct.State, %struct.State* %0, i64 0, i32 6, i32 11, i32 0, i32 0
  %3 = load i64, i64* %PC, align 8
  %4 = add i64 %3, 10
  store i64 %4, i64* %PC, align 8
  store i64 ptrtoint (%G__0x58714f_type* @G__0x58714f to i64), i64* %RDI, align 8
  ret %struct.Memory* %2
}

; Function Attrs: norecurse nounwind
define %struct.Memory* @routine_movb__0x0___al(%struct.State* nocapture dereferenceable(3376), i64, %struct.Memory* readnone returned) local_unnamed_addr #2 {
block_400488:
  %PC = getelementptr inbounds %struct.State, %struct.State* %0, i64 0, i32 6, i32 33, i32 0, i32 0
  %3 = getelementptr inbounds %struct.State, %struct.State* %0, i64 0, i32 6, i32 1, i32 0
  %AL = bitcast %union.anon* %3 to i8*
  %4 = load i64, i64* %PC, align 8
  %5 = add i64 %4, 2
  store i64 %5, i64* %PC, align 8
  store i8 0, i8* %AL, align 1
  ret %struct.Memory* %2
}

; Function Attrs: norecurse nounwind
define %struct.Memory* @routine_callq_.gtp_failure(%struct.State* nocapture dereferenceable(3376), i64, %struct.Memory* readnone returned, i64 %rel_off1, i64 %rel_off2, i64 %rel_off3) local_unnamed_addr #2 {
block_400488:
  %PC = getelementptr inbounds %struct.State, %struct.State* %0, i64 0, i32 6, i32 33, i32 0, i32 0
  %3 = load i64, i64* %PC, align 8
  %4 = add i64 %3, %rel_off1
  %5 = add i64 %3, %rel_off2
  %6 = getelementptr inbounds %struct.State, %struct.State* %0, i64 0, i32 6, i32 13, i32 0, i32 0
  %7 = load i64, i64* %6, align 8
  %8 = add i64 %7, -8
  %9 = inttoptr i64 %8 to i64*
  store i64 %5, i64* %9, align 8
  store i64 %8, i64* %6, align 8
  store i64 %4, i64* %PC, align 8
  ret %struct.Memory* %2
}

; Function Attrs: norecurse nounwind
define %struct.Memory* @routine_movl__eax__MINUS0x4__rbp_(%struct.State* nocapture dereferenceable(3376), i64, %struct.Memory* readnone returned) local_unnamed_addr #2 {
block_400488:
  %PC = getelementptr inbounds %struct.State, %struct.State* %0, i64 0, i32 6, i32 33, i32 0, i32 0
  %3 = getelementptr inbounds %struct.State, %struct.State* %0, i64 0, i32 6, i32 1, i32 0
  %EAX = bitcast %union.anon* %3 to i32*
  %RBP = getelementptr inbounds %struct.State, %struct.State* %0, i64 0, i32 6, i32 15, i32 0, i32 0
  %4 = load i64, i64* %RBP, align 8
  %5 = add i64 %4, -4
  %6 = load i32, i32* %EAX, align 4
  %7 = load i64, i64* %PC, align 8
  %8 = add i64 %7, 3
  store i64 %8, i64* %PC, align 8
  %9 = inttoptr i64 %5 to i32*
  store i32 %6, i32* %9, align 4
  ret %struct.Memory* %2
}

; Function Attrs: norecurse nounwind
define %struct.Memory* @routine_jmpq_.L_492c66(%struct.State* nocapture dereferenceable(3376), i64, %struct.Memory* readnone returned, i64 %rel_off1, i64 %rel_off2) local_unnamed_addr #2 {
block_400488:
  %PC = getelementptr inbounds %struct.State, %struct.State* %0, i64 0, i32 6, i32 33, i32 0, i32 0
  %3 = load i64, i64* %PC, align 8
  %4 = add i64 %3, %rel_off1
  store i64 %4, i64* %PC, align 8
  ret %struct.Memory* %2
}

; Function Attrs: nounwind
define %struct.Memory* @routine_imull__0x14__MINUS0x14__rbp____eax(%struct.State* nocapture dereferenceable(3376), i64, %struct.Memory* readnone returned) local_unnamed_addr #3 {
block_400488:
  %PC = getelementptr inbounds %struct.State, %struct.State* %0, i64 0, i32 6, i32 33, i32 0, i32 0
  %RAX = getelementptr inbounds %struct.State, %struct.State* %0, i64 0, i32 6, i32 1, i32 0, i32 0
  %RBP = getelementptr inbounds %struct.State, %struct.State* %0, i64 0, i32 6, i32 15, i32 0, i32 0
  %3 = load i64, i64* %RBP, align 8
  %4 = add i64 %3, -20
  %5 = load i64, i64* %PC, align 8
  %6 = add i64 %5, 4
  store i64 %6, i64* %PC, align 8
  %7 = inttoptr i64 %4 to i32*
  %8 = load i32, i32* %7, align 4
  %9 = sext i32 %8 to i64
  %10 = mul nsw i64 %9, 20
  %11 = trunc i64 %10 to i32
  %12 = and i64 %10, 4294967292
  store i64 %12, i64* %RAX, align 8
  %13 = mul i64 %9, 85899345920
  %14 = ashr exact i64 %13, 32
  %15 = icmp ne i64 %14, %10
  %16 = zext i1 %15 to i8
  %17 = getelementptr inbounds %struct.State, %struct.State* %0, i64 0, i32 2, i32 1
  store i8 %16, i8* %17, align 1
  %18 = and i32 %11, 252
  %19 = tail call i32 @llvm.ctpop.i32(i32 %18)
  %20 = trunc i32 %19 to i8
  %21 = and i8 %20, 1
  %22 = xor i8 %21, 1
  %23 = getelementptr inbounds %struct.State, %struct.State* %0, i64 0, i32 2, i32 3
  store i8 %22, i8* %23, align 1
  %24 = getelementptr inbounds %struct.State, %struct.State* %0, i64 0, i32 2, i32 5
  store i8 0, i8* %24, align 1
  %25 = getelementptr inbounds %struct.State, %struct.State* %0, i64 0, i32 2, i32 7
  store i8 0, i8* %25, align 1
  %26 = lshr i32 %11, 31
  %27 = trunc i32 %26 to i8
  %28 = getelementptr inbounds %struct.State, %struct.State* %0, i64 0, i32 2, i32 9
  store i8 %27, i8* %28, align 1
  %29 = getelementptr inbounds %struct.State, %struct.State* %0, i64 0, i32 2, i32 13
  store i8 %16, i8* %29, align 1
  ret %struct.Memory* %2
}

; Function Attrs: nounwind
define %struct.Memory* @routine_addl__0x15___eax(%struct.State* nocapture dereferenceable(3376), i64, %struct.Memory* readnone returned) local_unnamed_addr #3 {
block_400488:
  %PC = getelementptr inbounds %struct.State, %struct.State* %0, i64 0, i32 6, i32 33, i32 0, i32 0
  %RAX = getelementptr inbounds %struct.State, %struct.State* %0, i64 0, i32 6, i32 1, i32 0, i32 0
  %3 = load i64, i64* %RAX, align 8
  %4 = load i64, i64* %PC, align 8
  %5 = add i64 %4, 3
  store i64 %5, i64* %PC, align 8
  %6 = trunc i64 %3 to i32
  %7 = add i32 %6, 21
  %8 = zext i32 %7 to i64
  store i64 %8, i64* %RAX, align 8
  %9 = icmp ugt i32 %6, -22
  %10 = zext i1 %9 to i8
  %11 = getelementptr inbounds %struct.State, %struct.State* %0, i64 0, i32 2, i32 1
  store i8 %10, i8* %11, align 1
  %12 = and i32 %7, 255
  %13 = tail call i32 @llvm.ctpop.i32(i32 %12)
  %14 = trunc i32 %13 to i8
  %15 = and i8 %14, 1
  %16 = xor i8 %15, 1
  %17 = getelementptr inbounds %struct.State, %struct.State* %0, i64 0, i32 2, i32 3
  store i8 %16, i8* %17, align 1
  %18 = xor i32 %6, 16
  %19 = xor i32 %18, %7
  %20 = lshr i32 %19, 4
  %21 = trunc i32 %20 to i8
  %22 = and i8 %21, 1
  %23 = getelementptr inbounds %struct.State, %struct.State* %0, i64 0, i32 2, i32 5
  store i8 %22, i8* %23, align 1
  %24 = icmp eq i32 %7, 0
  %25 = zext i1 %24 to i8
  %26 = getelementptr inbounds %struct.State, %struct.State* %0, i64 0, i32 2, i32 7
  store i8 %25, i8* %26, align 1
  %27 = lshr i32 %7, 31
  %28 = trunc i32 %27 to i8
  %29 = getelementptr inbounds %struct.State, %struct.State* %0, i64 0, i32 2, i32 9
  store i8 %28, i8* %29, align 1
  %30 = lshr i32 %6, 31
  %31 = xor i32 %27, %30
  %32 = add nuw nsw i32 %31, %27
  %33 = icmp eq i32 %32, 2
  %34 = zext i1 %33 to i8
  %35 = getelementptr inbounds %struct.State, %struct.State* %0, i64 0, i32 2, i32 13
  store i8 %34, i8* %35, align 1
  ret %struct.Memory* %2
}

; Function Attrs: nounwind
define %struct.Memory* @routine_addl_MINUS0x18__rbp____eax(%struct.State* nocapture dereferenceable(3376), i64, %struct.Memory* readnone returned) local_unnamed_addr #3 {
block_400488:
  %PC = getelementptr inbounds %struct.State, %struct.State* %0, i64 0, i32 6, i32 33, i32 0, i32 0
  %RAX = getelementptr inbounds %struct.State, %struct.State* %0, i64 0, i32 6, i32 1, i32 0, i32 0
  %RBP = getelementptr inbounds %struct.State, %struct.State* %0, i64 0, i32 6, i32 15, i32 0, i32 0
  %3 = load i64, i64* %RAX, align 8
  %4 = load i64, i64* %RBP, align 8
  %5 = add i64 %4, -24
  %6 = load i64, i64* %PC, align 8
  %7 = add i64 %6, 3
  store i64 %7, i64* %PC, align 8
  %8 = trunc i64 %3 to i32
  %9 = inttoptr i64 %5 to i32*
  %10 = load i32, i32* %9, align 4
  %11 = add i32 %10, %8
  %12 = zext i32 %11 to i64
  store i64 %12, i64* %RAX, align 8
  %13 = icmp ult i32 %11, %8
  %14 = icmp ult i32 %11, %10
  %15 = or i1 %13, %14
  %16 = zext i1 %15 to i8
  %17 = getelementptr inbounds %struct.State, %struct.State* %0, i64 0, i32 2, i32 1
  store i8 %16, i8* %17, align 1
  %18 = and i32 %11, 255
  %19 = tail call i32 @llvm.ctpop.i32(i32 %18)
  %20 = trunc i32 %19 to i8
  %21 = and i8 %20, 1
  %22 = xor i8 %21, 1
  %23 = getelementptr inbounds %struct.State, %struct.State* %0, i64 0, i32 2, i32 3
  store i8 %22, i8* %23, align 1
  %24 = xor i32 %10, %8
  %25 = xor i32 %24, %11
  %26 = lshr i32 %25, 4
  %27 = trunc i32 %26 to i8
  %28 = and i8 %27, 1
  %29 = getelementptr inbounds %struct.State, %struct.State* %0, i64 0, i32 2, i32 5
  store i8 %28, i8* %29, align 1
  %30 = icmp eq i32 %11, 0
  %31 = zext i1 %30 to i8
  %32 = getelementptr inbounds %struct.State, %struct.State* %0, i64 0, i32 2, i32 7
  store i8 %31, i8* %32, align 1
  %33 = lshr i32 %11, 31
  %34 = trunc i32 %33 to i8
  %35 = getelementptr inbounds %struct.State, %struct.State* %0, i64 0, i32 2, i32 9
  store i8 %34, i8* %35, align 1
  %36 = lshr i32 %8, 31
  %37 = lshr i32 %10, 31
  %38 = xor i32 %33, %36
  %39 = xor i32 %33, %37
  %40 = add nuw nsw i32 %38, %39
  %41 = icmp eq i32 %40, 2
  %42 = zext i1 %41 to i8
  %43 = getelementptr inbounds %struct.State, %struct.State* %0, i64 0, i32 2, i32 13
  store i8 %42, i8* %43, align 1
  ret %struct.Memory* %2
}

; Function Attrs: norecurse nounwind
define %struct.Memory* @routine_movslq__eax___rcx(%struct.State* nocapture dereferenceable(3376), i64, %struct.Memory* readnone returned) local_unnamed_addr #2 {
block_400488:
  %PC = getelementptr inbounds %struct.State, %struct.State* %0, i64 0, i32 6, i32 33, i32 0, i32 0
  %3 = getelementptr inbounds %struct.State, %struct.State* %0, i64 0, i32 6, i32 1, i32 0
  %EAX = bitcast %union.anon* %3 to i32*
  %RCX = getelementptr inbounds %struct.State, %struct.State* %0, i64 0, i32 6, i32 5, i32 0, i32 0
  %4 = load i32, i32* %EAX, align 4
  %5 = load i64, i64* %PC, align 8
  %6 = add i64 %5, 3
  store i64 %6, i64* %PC, align 8
  %7 = sext i32 %4 to i64
  store i64 %7, i64* %RCX, align 8
  ret %struct.Memory* %2
}

; Function Attrs: norecurse nounwind
define %struct.Memory* @routine_movzbl_0xb89e60___rcx_1____eax(%struct.State* nocapture dereferenceable(3376), i64, %struct.Memory* readnone returned) local_unnamed_addr #2 {
block_400488:
  %PC = getelementptr inbounds %struct.State, %struct.State* %0, i64 0, i32 6, i32 33, i32 0, i32 0
  %RAX = getelementptr inbounds %struct.State, %struct.State* %0, i64 0, i32 6, i32 1, i32 0, i32 0
  %RCX = getelementptr inbounds %struct.State, %struct.State* %0, i64 0, i32 6, i32 5, i32 0, i32 0
  %3 = load i64, i64* %RCX, align 8
  %4 = add i64 %3, 12099168
  %5 = load i64, i64* %PC, align 8
  %6 = add i64 %5, 8
  store i64 %6, i64* %PC, align 8
  %7 = inttoptr i64 %4 to i8*
  %8 = load i8, i8* %7, align 1
  %9 = zext i8 %8 to i64
  store i64 %9, i64* %RAX, align 8
  ret %struct.Memory* %2
}

; Function Attrs: norecurse nounwind
define %struct.Memory* @routine_jne_.L_492bf6(%struct.State* nocapture dereferenceable(3376), i64, %struct.Memory* readnone returned, i8* nocapture %BRANCH_TAKEN, i64 %rel_off1, i64 %rel_off2, i64 %rel_off3) local_unnamed_addr #2 {
block_400488:
  %PC = getelementptr inbounds %struct.State, %struct.State* %0, i64 0, i32 6, i32 33, i32 0, i32 0
  %3 = load i64, i64* %PC, align 8
  %4 = getelementptr inbounds %struct.State, %struct.State* %0, i64 0, i32 2, i32 7
  %5 = load i8, i8* %4, align 1
  %6 = icmp eq i8 %5, 0
  %7 = zext i1 %6 to i8
  store i8 %7, i8* %BRANCH_TAKEN, align 1
  %.v = select i1 %6, i64 %rel_off1, i64 %rel_off2
  %8 = add i64 %.v, %3
  store i64 %8, i64* %PC, align 8
  ret %struct.Memory* %2
}

; Function Attrs: norecurse nounwind
define %struct.Memory* @routine_movq__0x58777f___rdi(%struct.State* nocapture dereferenceable(3376), i64, %struct.Memory* readnone returned) local_unnamed_addr #2 {
block_400488:
  %PC = getelementptr inbounds %struct.State, %struct.State* %0, i64 0, i32 6, i32 33, i32 0, i32 0
  %RDI = getelementptr inbounds %struct.State, %struct.State* %0, i64 0, i32 6, i32 11, i32 0, i32 0
  %3 = load i64, i64* %PC, align 8
  %4 = add i64 %3, 10
  store i64 %4, i64* %PC, align 8
  store i64 ptrtoint (%G__0x58777f_type* @G__0x58777f to i64), i64* %RDI, align 8
  ret %struct.Memory* %2
}

; Function Attrs: norecurse nounwind
define %struct.Memory* @routine_leaq_MINUS0x1c__rbp____rsi(%struct.State* nocapture dereferenceable(3376), i64, %struct.Memory* readnone returned) local_unnamed_addr #2 {
block_400488:
  %PC = getelementptr inbounds %struct.State, %struct.State* %0, i64 0, i32 6, i32 33, i32 0, i32 0
  %RSI = getelementptr inbounds %struct.State, %struct.State* %0, i64 0, i32 6, i32 9, i32 0, i32 0
  %RBP = getelementptr inbounds %struct.State, %struct.State* %0, i64 0, i32 6, i32 15, i32 0, i32 0
  %3 = load i64, i64* %RBP, align 8
  %4 = add i64 %3, -28
  %5 = load i64, i64* %PC, align 8
  %6 = add i64 %5, 4
  store i64 %6, i64* %PC, align 8
  store i64 %4, i64* %RSI, align 8
  ret %struct.Memory* %2
}

; Function Attrs: norecurse nounwind
define %struct.Memory* @routine_movl__eax___edi(%struct.State* nocapture dereferenceable(3376), i64, %struct.Memory* readnone returned) local_unnamed_addr #2 {
block_400488:
  %PC = getelementptr inbounds %struct.State, %struct.State* %0, i64 0, i32 6, i32 33, i32 0, i32 0
  %3 = getelementptr inbounds %struct.State, %struct.State* %0, i64 0, i32 6, i32 1, i32 0
  %EAX = bitcast %union.anon* %3 to i32*
  %RDI = getelementptr inbounds %struct.State, %struct.State* %0, i64 0, i32 6, i32 11, i32 0, i32 0
  %4 = load i32, i32* %EAX, align 4
  %5 = zext i32 %4 to i64
  %6 = load i64, i64* %PC, align 8
  %7 = add i64 %6, 2
  store i64 %7, i64* %PC, align 8
  store i64 %5, i64* %RDI, align 8
  ret %struct.Memory* %2
}

; Function Attrs: norecurse nounwind
define %struct.Memory* @routine_callq_.attack(%struct.State* nocapture dereferenceable(3376), i64, %struct.Memory* readnone returned, i64 %rel_off1, i64 %rel_off2, i64 %rel_off3) local_unnamed_addr #2 {
block_400488:
  %PC = getelementptr inbounds %struct.State, %struct.State* %0, i64 0, i32 6, i32 33, i32 0, i32 0
  %3 = load i64, i64* %PC, align 8
  %4 = add i64 %3, %rel_off1
  %5 = add i64 %3, %rel_off2
  %6 = getelementptr inbounds %struct.State, %struct.State* %0, i64 0, i32 6, i32 13, i32 0, i32 0
  %7 = load i64, i64* %6, align 8
  %8 = add i64 %7, -8
  %9 = inttoptr i64 %8 to i64*
  store i64 %5, i64* %9, align 8
  store i64 %8, i64* %6, align 8
  store i64 %4, i64* %PC, align 8
  ret %struct.Memory* %2
}

; Function Attrs: nounwind
define %struct.Memory* @routine_xorl__edi___edi(%struct.State* nocapture dereferenceable(3376), i64, %struct.Memory* readnone returned) local_unnamed_addr #3 {
block_400488:
  %PC = getelementptr inbounds %struct.State, %struct.State* %0, i64 0, i32 6, i32 33, i32 0, i32 0
  %RDI = getelementptr inbounds %struct.State, %struct.State* %0, i64 0, i32 6, i32 11, i32 0, i32 0
  %3 = load i64, i64* %PC, align 8
  %4 = add i64 %3, 2
  store i64 %4, i64* %PC, align 8
  store i64 0, i64* %RDI, align 8
  %5 = getelementptr inbounds %struct.State, %struct.State* %0, i64 0, i32 2, i32 1
  store i8 0, i8* %5, align 1
  %6 = getelementptr inbounds %struct.State, %struct.State* %0, i64 0, i32 2, i32 3
  store i8 1, i8* %6, align 1
  %7 = getelementptr inbounds %struct.State, %struct.State* %0, i64 0, i32 2, i32 7
  store i8 1, i8* %7, align 1
  %8 = getelementptr inbounds %struct.State, %struct.State* %0, i64 0, i32 2, i32 9
  store i8 0, i8* %8, align 1
  %9 = getelementptr inbounds %struct.State, %struct.State* %0, i64 0, i32 2, i32 13
  store i8 0, i8* %9, align 1
  %10 = getelementptr inbounds %struct.State, %struct.State* %0, i64 0, i32 2, i32 5
  store i8 0, i8* %10, align 1
  ret %struct.Memory* %2
}

; Function Attrs: norecurse nounwind
define %struct.Memory* @routine_movl__eax__MINUS0x20__rbp_(%struct.State* nocapture dereferenceable(3376), i64, %struct.Memory* readnone returned) local_unnamed_addr #2 {
block_400488:
  %PC = getelementptr inbounds %struct.State, %struct.State* %0, i64 0, i32 6, i32 33, i32 0, i32 0
  %3 = getelementptr inbounds %struct.State, %struct.State* %0, i64 0, i32 6, i32 1, i32 0
  %EAX = bitcast %union.anon* %3 to i32*
  %RBP = getelementptr inbounds %struct.State, %struct.State* %0, i64 0, i32 6, i32 15, i32 0, i32 0
  %4 = load i64, i64* %RBP, align 8
  %5 = add i64 %4, -32
  %6 = load i32, i32* %EAX, align 4
  %7 = load i64, i64* %PC, align 8
  %8 = add i64 %7, 3
  store i64 %8, i64* %PC, align 8
  %9 = inttoptr i64 %5 to i32*
  store i32 %6, i32* %9, align 4
  ret %struct.Memory* %2
}

; Function Attrs: norecurse nounwind
define %struct.Memory* @routine_callq_.gtp_start_response(%struct.State* nocapture dereferenceable(3376), i64, %struct.Memory* readnone returned, i64 %rel_off1, i64 %rel_off2, i64 %rel_off3) local_unnamed_addr #2 {
block_400488:
  %PC = getelementptr inbounds %struct.State, %struct.State* %0, i64 0, i32 6, i32 33, i32 0, i32 0
  %3 = load i64, i64* %PC, align 8
  %4 = add i64 %3, %rel_off1
  %5 = add i64 %3, %rel_off2
  %6 = getelementptr inbounds %struct.State, %struct.State* %0, i64 0, i32 6, i32 13, i32 0, i32 0
  %7 = load i64, i64* %6, align 8
  %8 = add i64 %7, -8
  %9 = inttoptr i64 %8 to i64*
  store i64 %5, i64* %9, align 8
  store i64 %8, i64* %6, align 8
  store i64 %4, i64* %PC, align 8
  ret %struct.Memory* %2
}

; Function Attrs: norecurse nounwind
define %struct.Memory* @routine_movl_MINUS0x20__rbp____edi(%struct.State* nocapture dereferenceable(3376), i64, %struct.Memory* readnone returned) local_unnamed_addr #2 {
block_400488:
  %PC = getelementptr inbounds %struct.State, %struct.State* %0, i64 0, i32 6, i32 33, i32 0, i32 0
  %RDI = getelementptr inbounds %struct.State, %struct.State* %0, i64 0, i32 6, i32 11, i32 0, i32 0
  %RBP = getelementptr inbounds %struct.State, %struct.State* %0, i64 0, i32 6, i32 15, i32 0, i32 0
  %3 = load i64, i64* %RBP, align 8
  %4 = add i64 %3, -32
  %5 = load i64, i64* %PC, align 8
  %6 = add i64 %5, 3
  store i64 %6, i64* %PC, align 8
  %7 = inttoptr i64 %4 to i32*
  %8 = load i32, i32* %7, align 4
  %9 = zext i32 %8 to i64
  store i64 %9, i64* %RDI, align 8
  ret %struct.Memory* %2
}

; Function Attrs: norecurse nounwind
define %struct.Memory* @routine_callq_.gtp_print_code(%struct.State* nocapture dereferenceable(3376), i64, %struct.Memory* readnone returned, i64 %rel_off1, i64 %rel_off2, i64 %rel_off3) local_unnamed_addr #2 {
block_400488:
  %PC = getelementptr inbounds %struct.State, %struct.State* %0, i64 0, i32 6, i32 33, i32 0, i32 0
  %3 = load i64, i64* %PC, align 8
  %4 = add i64 %3, %rel_off1
  %5 = add i64 %3, %rel_off2
  %6 = getelementptr inbounds %struct.State, %struct.State* %0, i64 0, i32 6, i32 13, i32 0, i32 0
  %7 = load i64, i64* %6, align 8
  %8 = add i64 %7, -8
  %9 = inttoptr i64 %8 to i64*
  store i64 %5, i64* %9, align 8
  store i64 %8, i64* %6, align 8
  store i64 %4, i64* %PC, align 8
  ret %struct.Memory* %2
}

; Function Attrs: nounwind
define %struct.Memory* @routine_cmpl__0x0__MINUS0x20__rbp_(%struct.State* nocapture dereferenceable(3376), i64, %struct.Memory* readnone returned) local_unnamed_addr #3 {
block_400488:
  %PC = getelementptr inbounds %struct.State, %struct.State* %0, i64 0, i32 6, i32 33, i32 0, i32 0
  %RBP = getelementptr inbounds %struct.State, %struct.State* %0, i64 0, i32 6, i32 15, i32 0, i32 0
  %3 = load i64, i64* %RBP, align 8
  %4 = add i64 %3, -32
  %5 = load i64, i64* %PC, align 8
  %6 = add i64 %5, 4
  store i64 %6, i64* %PC, align 8
  %7 = inttoptr i64 %4 to i32*
  %8 = load i32, i32* %7, align 4
  %9 = getelementptr inbounds %struct.State, %struct.State* %0, i64 0, i32 2, i32 1
  store i8 0, i8* %9, align 1
  %10 = and i32 %8, 255
  %11 = tail call i32 @llvm.ctpop.i32(i32 %10)
  %12 = trunc i32 %11 to i8
  %13 = and i8 %12, 1
  %14 = xor i8 %13, 1
  %15 = getelementptr inbounds %struct.State, %struct.State* %0, i64 0, i32 2, i32 3
  store i8 %14, i8* %15, align 1
  %16 = getelementptr inbounds %struct.State, %struct.State* %0, i64 0, i32 2, i32 5
  store i8 0, i8* %16, align 1
  %17 = icmp eq i32 %8, 0
  %18 = zext i1 %17 to i8
  %19 = getelementptr inbounds %struct.State, %struct.State* %0, i64 0, i32 2, i32 7
  store i8 %18, i8* %19, align 1
  %20 = lshr i32 %8, 31
  %21 = trunc i32 %20 to i8
  %22 = getelementptr inbounds %struct.State, %struct.State* %0, i64 0, i32 2, i32 9
  store i8 %21, i8* %22, align 1
  %23 = getelementptr inbounds %struct.State, %struct.State* %0, i64 0, i32 2, i32 13
  store i8 0, i8* %23, align 1
  ret %struct.Memory* %2
}

; Function Attrs: norecurse nounwind
define %struct.Memory* @routine_jle_.L_492c5e(%struct.State* nocapture dereferenceable(3376), i64, %struct.Memory* readnone returned, i8* nocapture %BRANCH_TAKEN, i64 %rel_off1, i64 %rel_off2, i64 %rel_off3) local_unnamed_addr #2 {
block_400488:
  %PC = getelementptr inbounds %struct.State, %struct.State* %0, i64 0, i32 6, i32 33, i32 0, i32 0
  %3 = load i64, i64* %PC, align 8
  %4 = getelementptr inbounds %struct.State, %struct.State* %0, i64 0, i32 2, i32 7
  %5 = load i8, i8* %4, align 1
  %6 = icmp ne i8 %5, 0
  %7 = getelementptr inbounds %struct.State, %struct.State* %0, i64 0, i32 2, i32 9
  %8 = load i8, i8* %7, align 1
  %9 = icmp ne i8 %8, 0
  %10 = getelementptr inbounds %struct.State, %struct.State* %0, i64 0, i32 2, i32 13
  %11 = load i8, i8* %10, align 1
  %12 = icmp ne i8 %11, 0
  %13 = xor i1 %9, %12
  %14 = or i1 %6, %13
  %15 = zext i1 %14 to i8
  store i8 %15, i8* %BRANCH_TAKEN, align 1
  %.v = select i1 %14, i64 %rel_off1, i64 %rel_off2
  %16 = add i64 %.v, %3
  store i64 %16, i64* %PC, align 8
  ret %struct.Memory* %2
}

; Function Attrs: norecurse nounwind
define %struct.Memory* @routine_movq__0x57f240___rdi(%struct.State* nocapture dereferenceable(3376), i64, %struct.Memory* readnone returned) local_unnamed_addr #2 {
block_400488:
  %PC = getelementptr inbounds %struct.State, %struct.State* %0, i64 0, i32 6, i32 33, i32 0, i32 0
  %RDI = getelementptr inbounds %struct.State, %struct.State* %0, i64 0, i32 6, i32 11, i32 0, i32 0
  %3 = load i64, i64* %PC, align 8
  %4 = add i64 %3, 10
  store i64 %4, i64* %PC, align 8
  store i64 ptrtoint (%G__0x57f240_type* @G__0x57f240 to i64), i64* %RDI, align 8
  ret %struct.Memory* %2
}

; Function Attrs: norecurse nounwind
define %struct.Memory* @routine_callq_.gtp_printf(%struct.State* nocapture dereferenceable(3376), i64, %struct.Memory* readnone returned, i64 %rel_off1, i64 %rel_off2, i64 %rel_off3) local_unnamed_addr #2 {
block_400488:
  %PC = getelementptr inbounds %struct.State, %struct.State* %0, i64 0, i32 6, i32 33, i32 0, i32 0
  %3 = load i64, i64* %PC, align 8
  %4 = add i64 %3, %rel_off1
  %5 = add i64 %3, %rel_off2
  %6 = getelementptr inbounds %struct.State, %struct.State* %0, i64 0, i32 6, i32 13, i32 0, i32 0
  %7 = load i64, i64* %6, align 8
  %8 = add i64 %7, -8
  %9 = inttoptr i64 %8 to i64*
  store i64 %5, i64* %9, align 8
  store i64 %8, i64* %6, align 8
  store i64 %4, i64* %PC, align 8
  ret %struct.Memory* %2
}

; Function Attrs: norecurse nounwind
define %struct.Memory* @routine_movl__0x14___ecx(%struct.State* nocapture dereferenceable(3376), i64, %struct.Memory* readnone returned) local_unnamed_addr #2 {
block_400488:
  %PC = getelementptr inbounds %struct.State, %struct.State* %0, i64 0, i32 6, i32 33, i32 0, i32 0
  %RCX = getelementptr inbounds %struct.State, %struct.State* %0, i64 0, i32 6, i32 5, i32 0, i32 0
  %3 = load i64, i64* %PC, align 8
  %4 = add i64 %3, 5
  store i64 %4, i64* %PC, align 8
  store i64 20, i64* %RCX, align 8
  ret %struct.Memory* %2
}

; Function Attrs: norecurse nounwind
define %struct.Memory* @routine_movl_MINUS0x1c__rbp____eax(%struct.State* nocapture dereferenceable(3376), i64, %struct.Memory* readnone returned) local_unnamed_addr #2 {
block_400488:
  %PC = getelementptr inbounds %struct.State, %struct.State* %0, i64 0, i32 6, i32 33, i32 0, i32 0
  %RAX = getelementptr inbounds %struct.State, %struct.State* %0, i64 0, i32 6, i32 1, i32 0, i32 0
  %RBP = getelementptr inbounds %struct.State, %struct.State* %0, i64 0, i32 6, i32 15, i32 0, i32 0
  %3 = load i64, i64* %RBP, align 8
  %4 = add i64 %3, -28
  %5 = load i64, i64* %PC, align 8
  %6 = add i64 %5, 3
  store i64 %6, i64* %PC, align 8
  %7 = inttoptr i64 %4 to i32*
  %8 = load i32, i32* %7, align 4
  %9 = zext i32 %8 to i64
  store i64 %9, i64* %RAX, align 8
  ret %struct.Memory* %2
}

; Function Attrs: norecurse nounwind
define %struct.Memory* @routine_cltd(%struct.State* nocapture dereferenceable(3376), i64, %struct.Memory* readnone returned) local_unnamed_addr #2 {
block_400488:
  %PC = getelementptr inbounds %struct.State, %struct.State* %0, i64 0, i32 6, i32 33, i32 0, i32 0
  %3 = load i64, i64* %PC, align 8
  %4 = add i64 %3, 1
  store i64 %4, i64* %PC, align 8
  %5 = getelementptr inbounds %struct.State, %struct.State* %0, i64 0, i32 6, i32 7, i32 0, i32 0
  %6 = getelementptr inbounds %struct.State, %struct.State* %0, i64 0, i32 6, i32 1, i32 0
  %7 = bitcast %union.anon* %6 to i32*
  %8 = load i32, i32* %7, align 8
  %9 = sext i32 %8 to i64
  %10 = lshr i64 %9, 32
  store i64 %10, i64* %5, align 8
  ret %struct.Memory* %2
}

define %struct.Memory* @routine_idivl__ecx(%struct.State* dereferenceable(3376), i64, %struct.Memory*) local_unnamed_addr {
block_400488:
  %PC = getelementptr inbounds %struct.State, %struct.State* %0, i64 0, i32 6, i32 33, i32 0, i32 0
  %3 = getelementptr inbounds %struct.State, %struct.State* %0, i64 0, i32 6, i32 5, i32 0
  %ECX = bitcast %union.anon* %3 to i32*
  %4 = load i32, i32* %ECX, align 4
  %5 = load i64, i64* %PC, align 8
  %6 = add i64 %5, 2
  store i64 %6, i64* %PC, align 8
  %7 = getelementptr inbounds %struct.State, %struct.State* %0, i64 0, i32 6, i32 1, i32 0
  %8 = bitcast %union.anon* %7 to i32*
  %9 = load i32, i32* %8, align 8
  %10 = zext i32 %9 to i64
  %11 = getelementptr inbounds %struct.State, %struct.State* %0, i64 0, i32 6, i32 7, i32 0
  %12 = bitcast %union.anon* %11 to i32*
  %13 = load i32, i32* %12, align 8
  %14 = zext i32 %13 to i64
  %15 = sext i32 %4 to i64
  %16 = shl nuw i64 %14, 32
  %17 = or i64 %16, %10
  %18 = sdiv i64 %17, %15
  %19 = shl i64 %18, 32
  %20 = ashr exact i64 %19, 32
  %21 = icmp eq i64 %18, %20
  br i1 %21, label %24, label %22

; <label>:22:                                     ; preds = %block_400488
  %23 = tail call %struct.Memory* @__remill_error(%struct.State* nonnull dereferenceable(3376) %0, i64 %6, %struct.Memory* %2)
  br label %_ZN12_GLOBAL__N_1L10IDIVedxeaxI2RnIjEEEP6MemoryS4_R5StateT_.exit

; <label>:24:                                     ; preds = %block_400488
  %25 = srem i64 %17, %15
  %26 = getelementptr inbounds %union.anon, %union.anon* %7, i64 0, i32 0
  %27 = and i64 %18, 4294967295
  store i64 %27, i64* %26, align 8
  %28 = getelementptr inbounds %union.anon, %union.anon* %11, i64 0, i32 0
  %29 = and i64 %25, 4294967295
  store i64 %29, i64* %28, align 8
  %30 = getelementptr inbounds %struct.State, %struct.State* %0, i64 0, i32 2, i32 1
  store i8 0, i8* %30, align 1
  %31 = getelementptr inbounds %struct.State, %struct.State* %0, i64 0, i32 2, i32 3
  store i8 0, i8* %31, align 1
  %32 = getelementptr inbounds %struct.State, %struct.State* %0, i64 0, i32 2, i32 5
  store i8 0, i8* %32, align 1
  %33 = getelementptr inbounds %struct.State, %struct.State* %0, i64 0, i32 2, i32 7
  store i8 0, i8* %33, align 1
  %34 = getelementptr inbounds %struct.State, %struct.State* %0, i64 0, i32 2, i32 9
  store i8 0, i8* %34, align 1
  %35 = getelementptr inbounds %struct.State, %struct.State* %0, i64 0, i32 2, i32 13
  store i8 0, i8* %35, align 1
  br label %_ZN12_GLOBAL__N_1L10IDIVedxeaxI2RnIjEEEP6MemoryS4_R5StateT_.exit

_ZN12_GLOBAL__N_1L10IDIVedxeaxI2RnIjEEEP6MemoryS4_R5StateT_.exit: ; preds = %24, %22
  %36 = phi %struct.Memory* [ %23, %22 ], [ %2, %24 ]
  ret %struct.Memory* %36
}

; Function Attrs: nounwind
define %struct.Memory* @routine_subl__0x1___eax(%struct.State* nocapture dereferenceable(3376), i64, %struct.Memory* readnone returned) local_unnamed_addr #3 {
block_400488:
  %PC = getelementptr inbounds %struct.State, %struct.State* %0, i64 0, i32 6, i32 33, i32 0, i32 0
  %RAX = getelementptr inbounds %struct.State, %struct.State* %0, i64 0, i32 6, i32 1, i32 0, i32 0
  %3 = load i64, i64* %RAX, align 8
  %4 = load i64, i64* %PC, align 8
  %5 = add i64 %4, 3
  store i64 %5, i64* %PC, align 8
  %6 = trunc i64 %3 to i32
  %7 = add i32 %6, -1
  %8 = zext i32 %7 to i64
  store i64 %8, i64* %RAX, align 8
  %9 = icmp eq i32 %6, 0
  %10 = zext i1 %9 to i8
  %11 = getelementptr inbounds %struct.State, %struct.State* %0, i64 0, i32 2, i32 1
  store i8 %10, i8* %11, align 1
  %12 = and i32 %7, 255
  %13 = tail call i32 @llvm.ctpop.i32(i32 %12)
  %14 = trunc i32 %13 to i8
  %15 = and i8 %14, 1
  %16 = xor i8 %15, 1
  %17 = getelementptr inbounds %struct.State, %struct.State* %0, i64 0, i32 2, i32 3
  store i8 %16, i8* %17, align 1
  %18 = xor i32 %7, %6
  %19 = lshr i32 %18, 4
  %20 = trunc i32 %19 to i8
  %21 = and i8 %20, 1
  %22 = getelementptr inbounds %struct.State, %struct.State* %0, i64 0, i32 2, i32 5
  store i8 %21, i8* %22, align 1
  %23 = icmp eq i32 %7, 0
  %24 = zext i1 %23 to i8
  %25 = getelementptr inbounds %struct.State, %struct.State* %0, i64 0, i32 2, i32 7
  store i8 %24, i8* %25, align 1
  %26 = lshr i32 %7, 31
  %27 = trunc i32 %26 to i8
  %28 = getelementptr inbounds %struct.State, %struct.State* %0, i64 0, i32 2, i32 9
  store i8 %27, i8* %28, align 1
  %29 = lshr i32 %6, 31
  %30 = xor i32 %26, %29
  %31 = add nuw nsw i32 %30, %29
  %32 = icmp eq i32 %31, 2
  %33 = zext i1 %32 to i8
  %34 = getelementptr inbounds %struct.State, %struct.State* %0, i64 0, i32 2, i32 13
  store i8 %33, i8* %34, align 1
  ret %struct.Memory* %2
}

; Function Attrs: norecurse nounwind
define %struct.Memory* @routine_movl_MINUS0x1c__rbp____esi(%struct.State* nocapture dereferenceable(3376), i64, %struct.Memory* readnone returned) local_unnamed_addr #2 {
block_400488:
  %PC = getelementptr inbounds %struct.State, %struct.State* %0, i64 0, i32 6, i32 33, i32 0, i32 0
  %RSI = getelementptr inbounds %struct.State, %struct.State* %0, i64 0, i32 6, i32 9, i32 0, i32 0
  %RBP = getelementptr inbounds %struct.State, %struct.State* %0, i64 0, i32 6, i32 15, i32 0, i32 0
  %3 = load i64, i64* %RBP, align 8
  %4 = add i64 %3, -28
  %5 = load i64, i64* %PC, align 8
  %6 = add i64 %5, 3
  store i64 %6, i64* %PC, align 8
  %7 = inttoptr i64 %4 to i32*
  %8 = load i32, i32* %7, align 4
  %9 = zext i32 %8 to i64
  store i64 %9, i64* %RSI, align 8
  ret %struct.Memory* %2
}

; Function Attrs: norecurse nounwind
define %struct.Memory* @routine_movl__eax__MINUS0x24__rbp_(%struct.State* nocapture dereferenceable(3376), i64, %struct.Memory* readnone returned) local_unnamed_addr #2 {
block_400488:
  %PC = getelementptr inbounds %struct.State, %struct.State* %0, i64 0, i32 6, i32 33, i32 0, i32 0
  %3 = getelementptr inbounds %struct.State, %struct.State* %0, i64 0, i32 6, i32 1, i32 0
  %EAX = bitcast %union.anon* %3 to i32*
  %RBP = getelementptr inbounds %struct.State, %struct.State* %0, i64 0, i32 6, i32 15, i32 0, i32 0
  %4 = load i64, i64* %RBP, align 8
  %5 = add i64 %4, -36
  %6 = load i32, i32* %EAX, align 4
  %7 = load i64, i64* %PC, align 8
  %8 = add i64 %7, 3
  store i64 %8, i64* %PC, align 8
  %9 = inttoptr i64 %5 to i32*
  store i32 %6, i32* %9, align 4
  ret %struct.Memory* %2
}

; Function Attrs: norecurse nounwind
define %struct.Memory* @routine_movl__esi___eax(%struct.State* nocapture dereferenceable(3376), i64, %struct.Memory* readnone returned) local_unnamed_addr #2 {
block_400488:
  %PC = getelementptr inbounds %struct.State, %struct.State* %0, i64 0, i32 6, i32 33, i32 0, i32 0
  %3 = getelementptr inbounds %struct.State, %struct.State* %0, i64 0, i32 6, i32 9, i32 0
  %ESI = bitcast %union.anon* %3 to i32*
  %RAX = getelementptr inbounds %struct.State, %struct.State* %0, i64 0, i32 6, i32 1, i32 0, i32 0
  %4 = load i32, i32* %ESI, align 4
  %5 = zext i32 %4 to i64
  %6 = load i64, i64* %PC, align 8
  %7 = add i64 %6, 2
  store i64 %7, i64* %PC, align 8
  store i64 %5, i64* %RAX, align 8
  ret %struct.Memory* %2
}

; Function Attrs: nounwind
define %struct.Memory* @routine_subl__0x1___edx(%struct.State* nocapture dereferenceable(3376), i64, %struct.Memory* readnone returned) local_unnamed_addr #3 {
block_400488:
  %PC = getelementptr inbounds %struct.State, %struct.State* %0, i64 0, i32 6, i32 33, i32 0, i32 0
  %RDX = getelementptr inbounds %struct.State, %struct.State* %0, i64 0, i32 6, i32 7, i32 0, i32 0
  %3 = load i64, i64* %RDX, align 8
  %4 = load i64, i64* %PC, align 8
  %5 = add i64 %4, 3
  store i64 %5, i64* %PC, align 8
  %6 = trunc i64 %3 to i32
  %7 = add i32 %6, -1
  %8 = zext i32 %7 to i64
  store i64 %8, i64* %RDX, align 8
  %9 = icmp eq i32 %6, 0
  %10 = zext i1 %9 to i8
  %11 = getelementptr inbounds %struct.State, %struct.State* %0, i64 0, i32 2, i32 1
  store i8 %10, i8* %11, align 1
  %12 = and i32 %7, 255
  %13 = tail call i32 @llvm.ctpop.i32(i32 %12)
  %14 = trunc i32 %13 to i8
  %15 = and i8 %14, 1
  %16 = xor i8 %15, 1
  %17 = getelementptr inbounds %struct.State, %struct.State* %0, i64 0, i32 2, i32 3
  store i8 %16, i8* %17, align 1
  %18 = xor i32 %7, %6
  %19 = lshr i32 %18, 4
  %20 = trunc i32 %19 to i8
  %21 = and i8 %20, 1
  %22 = getelementptr inbounds %struct.State, %struct.State* %0, i64 0, i32 2, i32 5
  store i8 %21, i8* %22, align 1
  %23 = icmp eq i32 %7, 0
  %24 = zext i1 %23 to i8
  %25 = getelementptr inbounds %struct.State, %struct.State* %0, i64 0, i32 2, i32 7
  store i8 %24, i8* %25, align 1
  %26 = lshr i32 %7, 31
  %27 = trunc i32 %26 to i8
  %28 = getelementptr inbounds %struct.State, %struct.State* %0, i64 0, i32 2, i32 9
  store i8 %27, i8* %28, align 1
  %29 = lshr i32 %6, 31
  %30 = xor i32 %26, %29
  %31 = add nuw nsw i32 %30, %29
  %32 = icmp eq i32 %31, 2
  %33 = zext i1 %32 to i8
  %34 = getelementptr inbounds %struct.State, %struct.State* %0, i64 0, i32 2, i32 13
  store i8 %33, i8* %34, align 1
  ret %struct.Memory* %2
}

; Function Attrs: norecurse nounwind
define %struct.Memory* @routine_movl_MINUS0x24__rbp____edi(%struct.State* nocapture dereferenceable(3376), i64, %struct.Memory* readnone returned) local_unnamed_addr #2 {
block_400488:
  %PC = getelementptr inbounds %struct.State, %struct.State* %0, i64 0, i32 6, i32 33, i32 0, i32 0
  %RDI = getelementptr inbounds %struct.State, %struct.State* %0, i64 0, i32 6, i32 11, i32 0, i32 0
  %RBP = getelementptr inbounds %struct.State, %struct.State* %0, i64 0, i32 6, i32 15, i32 0, i32 0
  %3 = load i64, i64* %RBP, align 8
  %4 = add i64 %3, -36
  %5 = load i64, i64* %PC, align 8
  %6 = add i64 %5, 3
  store i64 %6, i64* %PC, align 8
  %7 = inttoptr i64 %4 to i32*
  %8 = load i32, i32* %7, align 4
  %9 = zext i32 %8 to i64
  store i64 %9, i64* %RDI, align 8
  ret %struct.Memory* %2
}

; Function Attrs: norecurse nounwind
define %struct.Memory* @routine_movl__edx___esi(%struct.State* nocapture dereferenceable(3376), i64, %struct.Memory* readnone returned) local_unnamed_addr #2 {
block_400488:
  %PC = getelementptr inbounds %struct.State, %struct.State* %0, i64 0, i32 6, i32 33, i32 0, i32 0
  %3 = getelementptr inbounds %struct.State, %struct.State* %0, i64 0, i32 6, i32 7, i32 0
  %EDX = bitcast %union.anon* %3 to i32*
  %RSI = getelementptr inbounds %struct.State, %struct.State* %0, i64 0, i32 6, i32 9, i32 0, i32 0
  %4 = load i32, i32* %EDX, align 4
  %5 = zext i32 %4 to i64
  %6 = load i64, i64* %PC, align 8
  %7 = add i64 %6, 2
  store i64 %7, i64* %PC, align 8
  store i64 %5, i64* %RSI, align 8
  ret %struct.Memory* %2
}

; Function Attrs: norecurse nounwind
define %struct.Memory* @routine_callq_.gtp_print_vertex(%struct.State* nocapture dereferenceable(3376), i64, %struct.Memory* readnone returned, i64 %rel_off1, i64 %rel_off2, i64 %rel_off3) local_unnamed_addr #2 {
block_400488:
  %PC = getelementptr inbounds %struct.State, %struct.State* %0, i64 0, i32 6, i32 33, i32 0, i32 0
  %3 = load i64, i64* %PC, align 8
  %4 = add i64 %3, %rel_off1
  %5 = add i64 %3, %rel_off2
  %6 = getelementptr inbounds %struct.State, %struct.State* %0, i64 0, i32 6, i32 13, i32 0, i32 0
  %7 = load i64, i64* %6, align 8
  %8 = add i64 %7, -8
  %9 = inttoptr i64 %8 to i64*
  store i64 %5, i64* %9, align 8
  store i64 %8, i64* %6, align 8
  store i64 %4, i64* %PC, align 8
  ret %struct.Memory* %2
}

; Function Attrs: norecurse nounwind
define %struct.Memory* @routine_callq_.gtp_finish_response(%struct.State* nocapture dereferenceable(3376), i64, %struct.Memory* readnone returned, i64 %rel_off1, i64 %rel_off2, i64 %rel_off3) local_unnamed_addr #2 {
block_400488:
  %PC = getelementptr inbounds %struct.State, %struct.State* %0, i64 0, i32 6, i32 33, i32 0, i32 0
  %3 = load i64, i64* %PC, align 8
  %4 = add i64 %3, %rel_off1
  %5 = add i64 %3, %rel_off2
  %6 = getelementptr inbounds %struct.State, %struct.State* %0, i64 0, i32 6, i32 13, i32 0, i32 0
  %7 = load i64, i64* %6, align 8
  %8 = add i64 %7, -8
  %9 = inttoptr i64 %8 to i64*
  store i64 %5, i64* %9, align 8
  store i64 %8, i64* %6, align 8
  store i64 %4, i64* %PC, align 8
  ret %struct.Memory* %2
}

; Function Attrs: norecurse nounwind
define %struct.Memory* @routine_movl_MINUS0x4__rbp____eax(%struct.State* nocapture dereferenceable(3376), i64, %struct.Memory* readnone returned) local_unnamed_addr #2 {
block_400488:
  %PC = getelementptr inbounds %struct.State, %struct.State* %0, i64 0, i32 6, i32 33, i32 0, i32 0
  %RAX = getelementptr inbounds %struct.State, %struct.State* %0, i64 0, i32 6, i32 1, i32 0, i32 0
  %RBP = getelementptr inbounds %struct.State, %struct.State* %0, i64 0, i32 6, i32 15, i32 0, i32 0
  %3 = load i64, i64* %RBP, align 8
  %4 = add i64 %3, -4
  %5 = load i64, i64* %PC, align 8
  %6 = add i64 %5, 3
  store i64 %6, i64* %PC, align 8
  %7 = inttoptr i64 %4 to i32*
  %8 = load i32, i32* %7, align 4
  %9 = zext i32 %8 to i64
  store i64 %9, i64* %RAX, align 8
  ret %struct.Memory* %2
}

; Function Attrs: nounwind
define %struct.Memory* @routine_addq__0x30___rsp(%struct.State* nocapture dereferenceable(3376), i64, %struct.Memory* readnone returned) local_unnamed_addr #3 {
block_400488:
  %PC = getelementptr inbounds %struct.State, %struct.State* %0, i64 0, i32 6, i32 33, i32 0, i32 0
  %RSP = getelementptr inbounds %struct.State, %struct.State* %0, i64 0, i32 6, i32 13, i32 0, i32 0
  %3 = load i64, i64* %RSP, align 8
  %4 = load i64, i64* %PC, align 8
  %5 = add i64 %4, 4
  store i64 %5, i64* %PC, align 8
  %6 = add i64 %3, 48
  store i64 %6, i64* %RSP, align 8
  %7 = icmp ugt i64 %3, -49
  %8 = zext i1 %7 to i8
  %9 = getelementptr inbounds %struct.State, %struct.State* %0, i64 0, i32 2, i32 1
  store i8 %8, i8* %9, align 1
  %10 = trunc i64 %6 to i32
  %11 = and i32 %10, 255
  %12 = tail call i32 @llvm.ctpop.i32(i32 %11)
  %13 = trunc i32 %12 to i8
  %14 = and i8 %13, 1
  %15 = xor i8 %14, 1
  %16 = getelementptr inbounds %struct.State, %struct.State* %0, i64 0, i32 2, i32 3
  store i8 %15, i8* %16, align 1
  %17 = xor i64 %3, 16
  %18 = xor i64 %17, %6
  %19 = lshr i64 %18, 4
  %20 = trunc i64 %19 to i8
  %21 = and i8 %20, 1
  %22 = getelementptr inbounds %struct.State, %struct.State* %0, i64 0, i32 2, i32 5
  store i8 %21, i8* %22, align 1
  %23 = icmp eq i64 %6, 0
  %24 = zext i1 %23 to i8
  %25 = getelementptr inbounds %struct.State, %struct.State* %0, i64 0, i32 2, i32 7
  store i8 %24, i8* %25, align 1
  %26 = lshr i64 %6, 63
  %27 = trunc i64 %26 to i8
  %28 = getelementptr inbounds %struct.State, %struct.State* %0, i64 0, i32 2, i32 9
  store i8 %27, i8* %28, align 1
  %29 = lshr i64 %3, 63
  %30 = xor i64 %26, %29
  %31 = add nuw nsw i64 %30, %26
  %32 = icmp eq i64 %31, 2
  %33 = zext i1 %32 to i8
  %34 = getelementptr inbounds %struct.State, %struct.State* %0, i64 0, i32 2, i32 13
  store i8 %33, i8* %34, align 1
  ret %struct.Memory* %2
}

; Function Attrs: norecurse nounwind
define %struct.Memory* @routine_popq__rbp(%struct.State* nocapture dereferenceable(3376), i64, %struct.Memory* readnone returned) local_unnamed_addr #2 {
block_400488:
  %PC = getelementptr inbounds %struct.State, %struct.State* %0, i64 0, i32 6, i32 33, i32 0, i32 0
  %RBP = getelementptr inbounds %struct.State, %struct.State* %0, i64 0, i32 6, i32 15, i32 0, i32 0
  %3 = load i64, i64* %PC, align 8
  %4 = add i64 %3, 1
  store i64 %4, i64* %PC, align 8
  %5 = getelementptr inbounds %struct.State, %struct.State* %0, i64 0, i32 6, i32 13, i32 0, i32 0
  %6 = load i64, i64* %5, align 8
  %7 = add i64 %6, 8
  %8 = inttoptr i64 %6 to i64*
  %9 = load i64, i64* %8, align 8
  store i64 %9, i64* %RBP, align 8
  store i64 %7, i64* %5, align 8
  ret %struct.Memory* %2
}

; Function Attrs: norecurse nounwind
define %struct.Memory* @routine_retq(%struct.State* nocapture dereferenceable(3376), i64, %struct.Memory* readnone returned) local_unnamed_addr #2 {
block_400488:
  %PC = getelementptr inbounds %struct.State, %struct.State* %0, i64 0, i32 6, i32 33, i32 0, i32 0
  %3 = load i64, i64* %PC, align 8
  %4 = add i64 %3, 1
  store i64 %4, i64* %PC, align 8
  %5 = getelementptr inbounds %struct.State, %struct.State* %0, i64 0, i32 6, i32 13, i32 0, i32 0
  %6 = load i64, i64* %5, align 8
  %7 = inttoptr i64 %6 to i64*
  %8 = load i64, i64* %7, align 8
  store i64 %8, i64* %PC, align 8
  %9 = add i64 %6, 8
  store i64 %9, i64* %5, align 8
  ret %struct.Memory* %2
}

attributes #0 = { nounwind readnone }
attributes #1 = { alwaysinline }
attributes #2 = { norecurse nounwind }
attributes #3 = { nounwind }
