[     1s]    INFO tuneNormalizer:  Search Space: ['-mem2reg', '-licm', '-gvn', '-early-cse', '-globalopt', '-simplifycfg', '-basicaa', '-aa', '-memdep', '-dse', '-deadargelim', '-libcalls-shrinkwrap', '-tailcallelim', '-instcombine', '-memcpyopt', '-early-cse-memssa']


[     1s] WARNING opentuner.search.simplextechniques: only 1 point in simplex, will not use RandomNelderMead
[    37s]    INFO tuneNormalizer: run_precompiled: Early Exit: Optimal pass sequence written to mcsema//normalizer_final_config.json: [ -mem2reg -gvn -globalopt -aa -dse -tailcallelim -early-cse-memssa]
[    37s]    INFO opentuner.search.plugin.DisplayPlugin: tests=4, best #1006, cost time=0.0000, found by DifferentialEvolutionAlt
[    70s]    INFO tuneNormalizer: run_precompiled: Early Exit: Optimal pass sequence written to mcsema//normalizer_final_config.json: [ -mem2reg -gvn -globalopt -dse -early-cse-memssa]
[    70s]    INFO opentuner.search.plugin.DisplayPlugin: tests=8, best #1006, cost time=0.0000, found by DifferentialEvolutionAlt
[   104s]    INFO opentuner.search.plugin.DisplayPlugin: tests=12, best #1006, cost time=0.0000, found by DifferentialEvolutionAlt
[   129s]    INFO tuneNormalizer: run_precompiled: Early Exit: Optimal pass sequence written to mcsema//normalizer_final_config.json: [ -mem2reg -gvn -globalopt -aa -dse -tailcallelim -early-cse-memssa]
[   134s]    INFO opentuner.search.plugin.DisplayPlugin: tests=16, best #1006, cost time=0.0000, found by DifferentialEvolutionAlt
[   174s]    INFO opentuner.search.plugin.DisplayPlugin: tests=20, best #1006, cost time=0.0000, found by DifferentialEvolutionAlt
[   198s]    INFO tuneNormalizer: run_precompiled: Early Exit: Optimal pass sequence written to mcsema//normalizer_final_config.json: [ -mem2reg -gvn -globalopt -aa -dse -tailcallelim]
[   202s]    INFO opentuner.search.plugin.DisplayPlugin: tests=24, best #1006, cost time=0.0000, found by DifferentialEvolutionAlt
[   235s]    INFO opentuner.search.plugin.DisplayPlugin: tests=28, best #1006, cost time=0.0000, found by DifferentialEvolutionAlt
[   254s]    INFO tuneNormalizer: run_precompiled: Early Exit: Optimal pass sequence written to mcsema//normalizer_final_config.json: [ -mem2reg -gvn -aa -dse -tailcallelim -early-cse-memssa]
[   258s]    INFO tuneNormalizer: run_precompiled: Early Exit: Optimal pass sequence written to mcsema//normalizer_final_config.json: [ -mem2reg -gvn -globalopt -dse -early-cse-memssa]
[   262s]    INFO opentuner.search.plugin.DisplayPlugin: tests=31, best #1006, cost time=0.0000, found by DifferentialEvolutionAlt
[   280s]    INFO tuneNormalizer: run_precompiled: Early Exit: Optimal pass sequence written to mcsema//normalizer_final_config.json: [ -mem2reg -gvn -globalopt -aa -dse -libcalls-shrinkwrap -tailcallelim -memcpyopt -early-cse-memssa]
[   293s]    INFO tuneNormalizer: run_precompiled: Early Exit: Optimal pass sequence written to mcsema//normalizer_final_config.json: [ -mem2reg -licm -gvn -aa -dse -early-cse-memssa]
[   297s]    INFO tuneNormalizer: run_precompiled: Early Exit: Optimal pass sequence written to mcsema//normalizer_final_config.json: [ -gvn -globalopt -dse -tailcallelim -instcombine -early-cse-memssa]
[   297s]    INFO opentuner.search.plugin.DisplayPlugin: tests=35, best #1006, cost time=0.0000, found by DifferentialEvolutionAlt
[   313s]    INFO tuneNormalizer: run_precompiled: Early Exit: Optimal pass sequence written to mcsema//normalizer_final_config.json: [ -gvn -dse -deadargelim -instcombine]
[   331s]    INFO tuneNormalizer: run_precompiled: Early Exit: Optimal pass sequence written to mcsema//normalizer_final_config.json: [ -mem2reg -gvn -globalopt -basicaa -memdep -dse -tailcallelim -early-cse-memssa]
[   331s]    INFO opentuner.search.plugin.DisplayPlugin: tests=39, best #1006, cost time=0.0000, found by DifferentialEvolutionAlt
[   346s]    INFO tuneNormalizer: run_precompiled: Early Exit: Optimal pass sequence written to mcsema//normalizer_final_config.json: [ -mem2reg -gvn -globalopt -aa -dse -tailcallelim]
[   353s]    INFO opentuner.search.plugin.DisplayPlugin: tests=41, best #1006, cost time=0.0000, found by DifferentialEvolutionAlt
[   379s]    INFO tuneNormalizer: run_precompiled: Early Exit: Optimal pass sequence written to mcsema//normalizer_final_config.json: [ -mem2reg -gvn -globalopt -aa -dse -libcalls-shrinkwrap -tailcallelim -early-cse-memssa]
[   385s]    INFO opentuner.search.plugin.DisplayPlugin: tests=45, best #1006, cost time=0.0000, found by DifferentialEvolutionAlt
[   402s]    INFO tuneNormalizer: run_precompiled: Early Exit: Optimal pass sequence written to mcsema//normalizer_final_config.json: [ -mem2reg -gvn -globalopt -dse -early-cse-memssa]
[   425s]    INFO opentuner.search.plugin.DisplayPlugin: tests=49, best #1006, cost time=0.0000, found by DifferentialEvolutionAlt
[   442s]    INFO tuneNormalizer: run_precompiled: Early Exit: Optimal pass sequence written to mcsema//normalizer_final_config.json: [ -mem2reg -gvn -aa -dse -tailcallelim]
[   454s]    INFO tuneNormalizer: run_precompiled: Early Exit: Optimal pass sequence written to mcsema//normalizer_final_config.json: [ -mem2reg -gvn -globalopt -dse -tailcallelim -early-cse-memssa]
[   459s]    INFO tuneNormalizer: run_precompiled: Early Exit: Optimal pass sequence written to mcsema//normalizer_final_config.json: [ -mem2reg -gvn -globalopt -aa -dse -tailcallelim -early-cse-memssa]
[   459s]    INFO opentuner.search.plugin.DisplayPlugin: tests=53, best #1006, cost time=0.0000, found by DifferentialEvolutionAlt
[   478s]    INFO tuneNormalizer: run_precompiled: Early Exit: Optimal pass sequence written to mcsema//normalizer_final_config.json: [ -licm -gvn -early-cse -globalopt -aa -dse -tailcallelim -instcombine]
[   483s]    INFO tuneNormalizer: run_precompiled: Early Exit: Optimal pass sequence written to mcsema//normalizer_final_config.json: [ -mem2reg -gvn -globalopt -dse -tailcallelim -early-cse-memssa]
[   493s]    INFO opentuner.search.plugin.DisplayPlugin: tests=57, best #1006, cost time=0.0000, found by DifferentialEvolutionAlt
[   515s]    INFO tuneNormalizer: run_precompiled: Early Exit: Optimal pass sequence written to mcsema//normalizer_final_config.json: [ -mem2reg -gvn -memdep -dse -libcalls-shrinkwrap -early-cse-memssa]
[   534s]    INFO opentuner.search.plugin.DisplayPlugin: tests=61, best #1006, cost time=0.0000, found by DifferentialEvolutionAlt
[   555s]    INFO tuneNormalizer: run_precompiled: Early Exit: Optimal pass sequence written to mcsema//normalizer_final_config.json: [ -mem2reg -gvn -globalopt -dse -tailcallelim -instcombine -early-cse-memssa]
[   567s]    INFO tuneNormalizer: run_precompiled: Early Exit: Optimal pass sequence written to mcsema//normalizer_final_config.json: [ -mem2reg -gvn -aa -dse -tailcallelim -early-cse-memssa]
[   567s]    INFO opentuner.search.plugin.DisplayPlugin: tests=64, best #1006, cost time=0.0000, found by DifferentialEvolutionAlt
[   590s]    INFO tuneNormalizer: run_precompiled: Early Exit: Optimal pass sequence written to mcsema//normalizer_final_config.json: [ -mem2reg -gvn -globalopt -dse -early-cse-memssa]
[   594s]    INFO tuneNormalizer: run_precompiled: Early Exit: Optimal pass sequence written to mcsema//normalizer_final_config.json: [ -mem2reg -gvn -globalopt -aa -dse -tailcallelim]
[   599s]    INFO opentuner.search.plugin.DisplayPlugin: tests=68, best #1006, cost time=0.0000, found by DifferentialEvolutionAlt
[   639s]    INFO opentuner.search.plugin.DisplayPlugin: tests=72, best #1006, cost time=0.0000, found by DifferentialEvolutionAlt
[   657s]    INFO tuneNormalizer: run_precompiled: Early Exit: Optimal pass sequence written to mcsema//normalizer_final_config.json: [ -mem2reg -gvn -early-cse -globalopt -dse -tailcallelim -early-cse-memssa]
[   669s]    INFO tuneNormalizer: run_precompiled: Early Exit: Optimal pass sequence written to mcsema//normalizer_final_config.json: [ -mem2reg -gvn -globalopt -aa -dse -libcalls-shrinkwrap -tailcallelim]
[   669s]    INFO opentuner.search.plugin.DisplayPlugin: tests=75, best #1006, cost time=0.0000, found by DifferentialEvolutionAlt
[   691s]    INFO tuneNormalizer: run_precompiled: Early Exit: Optimal pass sequence written to mcsema//normalizer_final_config.json: [ -mem2reg -licm -gvn -globalopt -simplifycfg -aa -dse -tailcallelim -early-cse-memssa]
[   696s]    INFO tuneNormalizer: run_precompiled: Early Exit: Optimal pass sequence written to mcsema//normalizer_final_config.json: [ -mem2reg -gvn -globalopt -basicaa -aa -memdep -dse -tailcallelim -early-cse-memssa]
[   703s]    INFO opentuner.search.plugin.DisplayPlugin: tests=79, best #1006, cost time=0.0000, found by DifferentialEvolutionAlt
[   728s]    INFO tuneNormalizer: run_precompiled: Early Exit: Optimal pass sequence written to mcsema//normalizer_final_config.json: [ -mem2reg -gvn -early-cse -globalopt -aa -memdep -dse -libcalls-shrinkwrap -tailcallelim]
[   744s]    INFO opentuner.search.plugin.DisplayPlugin: tests=83, best #1006, cost time=0.0000, found by DifferentialEvolutionAlt
[   778s]    INFO tuneNormalizer: run_precompiled: Early Exit: Optimal pass sequence written to mcsema//normalizer_final_config.json: [ -mem2reg -gvn -globalopt -simplifycfg -aa -dse -tailcallelim -early-cse-memssa]
[   782s]    INFO tuneNormalizer: run_precompiled: Early Exit: Optimal pass sequence written to mcsema//normalizer_final_config.json: [ -mem2reg -licm -gvn -aa -dse -tailcallelim -memcpyopt -early-cse-memssa]
[   782s]    INFO opentuner.search.plugin.DisplayPlugin: tests=87, best #1006, cost time=0.0000, found by DifferentialEvolutionAlt
[   811s]    INFO tuneNormalizer: run_precompiled: Early Exit: Optimal pass sequence written to mcsema//normalizer_final_config.json: [ -mem2reg -gvn -globalopt -dse -tailcallelim -instcombine -early-cse-memssa]
[   823s]    INFO opentuner.search.plugin.DisplayPlugin: tests=91, best #1006, cost time=0.0000, found by DifferentialEvolutionAlt
[   864s]    INFO opentuner.search.plugin.DisplayPlugin: tests=95, best #1006, cost time=0.0000, found by DifferentialEvolutionAlt
[   893s]    INFO tuneNormalizer: run_precompiled: Early Exit: Optimal pass sequence written to mcsema//normalizer_final_config.json: [ -mem2reg -gvn -basicaa -aa -dse -tailcallelim -early-cse-memssa]
[   898s]    INFO tuneNormalizer: run_precompiled: Early Exit: Optimal pass sequence written to mcsema//normalizer_final_config.json: [ -mem2reg -gvn -globalopt -dse -libcalls-shrinkwrap -tailcallelim -early-cse-memssa]
[   898s]    INFO opentuner.search.plugin.DisplayPlugin: tests=99, best #1006, cost time=0.0000, found by DifferentialEvolutionAlt
[   898s]    INFO opentuner.search.plugin.DisplayPlugin: tests=99, best #1006, cost time=0.0000, found by DifferentialEvolutionAlt
[   898s]    INFO tuneNormalizer: Optimal pass sequence seen so far: [-mem2reg -globalopt -dse -aa -gvn -early-cse-memssa -tailcallelim ]
1044.25user 39.11system 14:58.64elapsed 120%CPU (0avgtext+0avgdata 109700maxresident)k
0inputs+2374584outputs (0major+4905981minor)pagefaults 0swaps
