[     1s]    INFO tuneNormalizer:  Search Space: ['-mem2reg', '-licm', '-gvn', '-early-cse', '-globalopt', '-simplifycfg', '-basicaa', '-aa', '-memdep', '-dse', '-deadargelim', '-libcalls-shrinkwrap', '-tailcallelim', '-instcombine', '-memcpyopt', '-early-cse-memssa']


[     4s]    INFO tuneNormalizer: run_precompiled: Early Exit: Optimal pass sequence written to mcsema//normalizer_final_config.json: [ -licm -gvn -basicaa -memdep -tailcallelim -instcombine -early-cse-memssa]
[     5s] WARNING opentuner.search.simplextechniques: only 1 point in simplex, will not use RandomNelderMead
[     7s]    INFO tuneNormalizer: run_precompiled: Early Exit: Optimal pass sequence written to mcsema//normalizer_final_config.json: [ -licm -gvn -early-cse -basicaa -memdep -dse -tailcallelim -instcombine -early-cse-memssa]
[     9s]    INFO tuneNormalizer: run_precompiled: Early Exit: Optimal pass sequence written to mcsema//normalizer_final_config.json: [ -licm -gvn -basicaa -aa -memdep -tailcallelim -instcombine -early-cse-memssa]
[    13s]    INFO tuneNormalizer: run_precompiled: Early Exit: Optimal pass sequence written to mcsema//normalizer_final_config.json: [ -licm -gvn -basicaa -memdep -instcombine -early-cse-memssa]
[    13s]    INFO opentuner.search.plugin.DisplayPlugin: tests=12, best #203, cost time=0.0000, found by UniformGreedyMutation
[    16s]    INFO tuneNormalizer: run_precompiled: Early Exit: Optimal pass sequence written to mcsema//normalizer_final_config.json: [ -licm -gvn -basicaa -memdep -tailcallelim -instcombine -early-cse-memssa]
[    17s]    INFO tuneNormalizer: run_precompiled: Early Exit: Optimal pass sequence written to mcsema//normalizer_final_config.json: [ -licm -gvn -basicaa -memdep -tailcallelim -instcombine -early-cse-memssa]
[    18s]    INFO tuneNormalizer: run_precompiled: Early Exit: Optimal pass sequence written to mcsema//normalizer_final_config.json: [ -licm -gvn -basicaa -memdep -dse -deadargelim -tailcallelim -instcombine -early-cse-memssa]
[    23s]    INFO tuneNormalizer: run_precompiled: Early Exit: Optimal pass sequence written to mcsema//normalizer_final_config.json: [ -licm -gvn -basicaa -memdep -deadargelim -tailcallelim -instcombine -early-cse-memssa]
[    24s]    INFO tuneNormalizer: run_precompiled: Early Exit: Optimal pass sequence written to mcsema//normalizer_final_config.json: [ -licm -gvn -basicaa -memdep -tailcallelim -instcombine -early-cse-memssa]
[    25s]    INFO tuneNormalizer: run_precompiled: Early Exit: Optimal pass sequence written to mcsema//normalizer_final_config.json: [ -licm -gvn -basicaa -memdep -instcombine -early-cse-memssa]
[    25s]    INFO opentuner.search.plugin.DisplayPlugin: tests=24, best #203, cost time=0.0000, found by UniformGreedyMutation
[    29s]    INFO tuneNormalizer: run_precompiled: Early Exit: Optimal pass sequence written to mcsema//normalizer_final_config.json: [ -licm -gvn -basicaa -memdep -tailcallelim -instcombine -early-cse-memssa]
[    36s]    INFO tuneNormalizer: run_precompiled: Early Exit: Optimal pass sequence written to mcsema//normalizer_final_config.json: [ -licm -gvn -basicaa -instcombine -early-cse-memssa]
[    37s]    INFO tuneNormalizer: run_precompiled: Early Exit: Optimal pass sequence written to mcsema//normalizer_final_config.json: [ -mem2reg -licm -gvn -basicaa -memdep -tailcallelim -instcombine -early-cse-memssa]
[    38s]    INFO opentuner.search.plugin.DisplayPlugin: tests=36, best #203, cost time=0.0000, found by UniformGreedyMutation
[    41s]    INFO tuneNormalizer: run_precompiled: Early Exit: Optimal pass sequence written to mcsema//normalizer_final_config.json: [ -mem2reg -gvn -basicaa -deadargelim -instcombine -early-cse-memssa]
[    41s]    INFO tuneNormalizer: run_precompiled: Early Exit: Optimal pass sequence written to mcsema//normalizer_final_config.json: [ -licm -gvn -basicaa -aa -memdep -tailcallelim -instcombine -early-cse-memssa]
[    42s]    INFO tuneNormalizer: run_precompiled: Early Exit: Optimal pass sequence written to mcsema//normalizer_final_config.json: [ -gvn -early-cse -basicaa -memdep -dse -tailcallelim -instcombine -early-cse-memssa]
[    45s]    INFO tuneNormalizer: run_precompiled: Early Exit: Optimal pass sequence written to mcsema//normalizer_final_config.json: [ -mem2reg -licm -gvn -basicaa -dse -libcalls-shrinkwrap -memcpyopt]
[    48s]    INFO tuneNormalizer: run_precompiled: Early Exit: Optimal pass sequence written to mcsema//normalizer_final_config.json: [ -licm -gvn -early-cse -basicaa -memdep -tailcallelim -instcombine -early-cse-memssa]
[    48s]    INFO tuneNormalizer: run_precompiled: Early Exit: Optimal pass sequence written to mcsema//normalizer_final_config.json: [ -licm -gvn -globalopt -basicaa -memdep -tailcallelim -instcombine -early-cse-memssa]
[    49s]    INFO tuneNormalizer: run_precompiled: Early Exit: Optimal pass sequence written to mcsema//normalizer_final_config.json: [ -licm -gvn -memdep -tailcallelim -instcombine -early-cse-memssa]
[    50s]    INFO opentuner.search.plugin.DisplayPlugin: tests=48, best #203, cost time=0.0000, found by UniformGreedyMutation
[    52s]    INFO tuneNormalizer: run_precompiled: Early Exit: Optimal pass sequence written to mcsema//normalizer_final_config.json: [ -gvn -basicaa -memdep -instcombine -memcpyopt -early-cse-memssa]
[    53s]    INFO tuneNormalizer: run_precompiled: Early Exit: Optimal pass sequence written to mcsema//normalizer_final_config.json: [ -licm -gvn -memdep -dse -tailcallelim -instcombine -early-cse-memssa]
[    54s]    INFO tuneNormalizer: run_precompiled: Early Exit: Optimal pass sequence written to mcsema//normalizer_final_config.json: [ -licm -gvn -early-cse -basicaa -memdep -instcombine -early-cse-memssa]
[    60s]    INFO tuneNormalizer: run_precompiled: Early Exit: Optimal pass sequence written to mcsema//normalizer_final_config.json: [ -licm -gvn -simplifycfg -memdep -instcombine -early-cse-memssa]
[    60s]    INFO tuneNormalizer: run_precompiled: Early Exit: Optimal pass sequence written to mcsema//normalizer_final_config.json: [ -licm -gvn -memdep -tailcallelim -instcombine -early-cse-memssa]
[    61s]    INFO tuneNormalizer: run_precompiled: Early Exit: Optimal pass sequence written to mcsema//normalizer_final_config.json: [ -licm -gvn -basicaa -memdep -libcalls-shrinkwrap -tailcallelim -instcombine -early-cse-memssa]
[    62s]    INFO opentuner.search.plugin.DisplayPlugin: tests=60, best #203, cost time=0.0000, found by UniformGreedyMutation
[    65s]    INFO tuneNormalizer: run_precompiled: Early Exit: Optimal pass sequence written to mcsema//normalizer_final_config.json: [ -licm -gvn -basicaa -memdep -dse -tailcallelim -instcombine -early-cse-memssa]
[    66s]    INFO tuneNormalizer: run_precompiled: Early Exit: Optimal pass sequence written to mcsema//normalizer_final_config.json: [ -licm -gvn -basicaa -dse -tailcallelim -instcombine -early-cse-memssa]
[    68s]    INFO tuneNormalizer: run_precompiled: Early Exit: Optimal pass sequence written to mcsema//normalizer_final_config.json: [ -gvn -simplifycfg -aa -deadargelim -instcombine -memcpyopt -early-cse-memssa]
[    72s]    INFO tuneNormalizer: run_precompiled: Early Exit: Optimal pass sequence written to mcsema//normalizer_final_config.json: [ -gvn -basicaa -memdep -deadargelim -tailcallelim -instcombine -early-cse-memssa]
[    72s]    INFO tuneNormalizer: run_precompiled: Early Exit: Optimal pass sequence written to mcsema//normalizer_final_config.json: [ -licm -gvn -basicaa -memdep -tailcallelim -instcombine -early-cse-memssa]
[    74s]    INFO tuneNormalizer: run_precompiled: Early Exit: Optimal pass sequence written to mcsema//normalizer_final_config.json: [ -licm -gvn -basicaa -memdep -tailcallelim -instcombine -early-cse-memssa]
[    74s]    INFO opentuner.search.plugin.DisplayPlugin: tests=72, best #203, cost time=0.0000, found by UniformGreedyMutation
[    76s]    INFO tuneNormalizer: run_precompiled: Early Exit: Optimal pass sequence written to mcsema//normalizer_final_config.json: [ -licm -gvn -basicaa -instcombine -early-cse-memssa]
[    77s]    INFO tuneNormalizer: run_precompiled: Early Exit: Optimal pass sequence written to mcsema//normalizer_final_config.json: [ -licm -gvn -basicaa -aa -memdep -tailcallelim -instcombine -early-cse-memssa]
[    77s]    INFO tuneNormalizer: run_precompiled: Early Exit: Optimal pass sequence written to mcsema//normalizer_final_config.json: [ -licm -gvn -aa -memdep -tailcallelim -instcombine -early-cse-memssa]
[    79s]    INFO tuneNormalizer: run_precompiled: Early Exit: Optimal pass sequence written to mcsema//normalizer_final_config.json: [ -mem2reg -gvn -early-cse -basicaa -deadargelim -instcombine -memcpyopt -early-cse-memssa]
[    84s]    INFO tuneNormalizer: run_precompiled: Early Exit: Optimal pass sequence written to mcsema//normalizer_final_config.json: [ -licm -gvn -basicaa -memdep -tailcallelim -instcombine -early-cse-memssa]
[    84s]    INFO opentuner.search.plugin.DisplayPlugin: tests=83, best #203, cost time=0.0000, found by UniformGreedyMutation
[    87s]    INFO tuneNormalizer: run_precompiled: Early Exit: Optimal pass sequence written to mcsema//normalizer_final_config.json: [ -licm -gvn -simplifycfg -basicaa -memdep -deadargelim -tailcallelim -instcombine -early-cse-memssa]
[    89s]    INFO tuneNormalizer: run_precompiled: Early Exit: Optimal pass sequence written to mcsema//normalizer_final_config.json: [ -gvn -dse -tailcallelim -instcombine]
[    95s]    INFO tuneNormalizer: run_precompiled: Early Exit: Optimal pass sequence written to mcsema//normalizer_final_config.json: [ -licm -gvn -basicaa -tailcallelim -instcombine -early-cse-memssa]
[    97s]    INFO tuneNormalizer: run_precompiled: Early Exit: Optimal pass sequence written to mcsema//normalizer_final_config.json: [ -gvn -basicaa -memdep -tailcallelim -instcombine -early-cse-memssa]
[    97s]    INFO opentuner.search.plugin.DisplayPlugin: tests=95, best #203, cost time=0.0000, found by UniformGreedyMutation
[    99s]    INFO tuneNormalizer: run_precompiled: Early Exit: Optimal pass sequence written to mcsema//normalizer_final_config.json: [ -licm -gvn -basicaa -memdep -libcalls-shrinkwrap -tailcallelim -instcombine -early-cse-memssa]
[   100s]    INFO tuneNormalizer: run_precompiled: Early Exit: Optimal pass sequence written to mcsema//normalizer_final_config.json: [ -licm -gvn -basicaa -aa -dse -tailcallelim -instcombine -memcpyopt -early-cse-memssa]
[   105s]    INFO opentuner.search.plugin.DisplayPlugin: tests=103, best #203, cost time=0.0000, found by UniformGreedyMutation
[   105s]    INFO tuneNormalizer: Optimal pass sequence seen so far: [-basicaa -instcombine -memdep -early-cse-memssa -licm -tailcallelim -gvn ]
129.55user 12.62system 1:45.44elapsed 134%CPU (0avgtext+0avgdata 55220maxresident)k
0inputs+327848outputs (0major+1182178minor)pagefaults 0swaps
