; ModuleID = 'mcsema/test.proposed.inline.ll'
source_filename = "llvm-link"
target datalayout = "e-m:e-i64:64-f80:128-n8:16:32:64-S128"
target triple = "x86_64-pc-linux-gnu-elf"

%__bss_start_type = type <{ [8 x i8] }>
%G_0xd948__rip__type = type <{ [8 x i8] }>
%G_0xda38__rip__type = type <{ [8 x i8] }>
%struct.State = type { %struct.ArchState, [32 x %union.VectorReg], %struct.ArithFlags, %union.anon, %struct.Segments, %struct.AddressSpace, %struct.GPR, %struct.X87Stack, %struct.MMX, %struct.FPUStatusFlags, %union.anon, %union.FPU, %struct.SegmentCaches }
%struct.ArchState = type { i32, i32, %union.anon }
%union.VectorReg = type { %union.vec512_t }
%union.vec512_t = type { %struct.uint64v8_t }
%struct.uint64v8_t = type { [8 x i64] }
%struct.ArithFlags = type { i8, i8, i8, i8, i8, i8, i8, i8, i8, i8, i8, i8, i8, i8, i8, i8 }
%struct.Segments = type { i16, %union.SegmentSelector, i16, %union.SegmentSelector, i16, %union.SegmentSelector, i16, %union.SegmentSelector, i16, %union.SegmentSelector, i16, %union.SegmentSelector }
%union.SegmentSelector = type { i16 }
%struct.AddressSpace = type { i64, %struct.Reg, i64, %struct.Reg, i64, %struct.Reg, i64, %struct.Reg, i64, %struct.Reg, i64, %struct.Reg }
%struct.Reg = type { %union.anon }
%struct.GPR = type { i64, %struct.Reg, i64, %struct.Reg, i64, %struct.Reg, i64, %struct.Reg, i64, %struct.Reg, i64, %struct.Reg, i64, %struct.Reg, i64, %struct.Reg, i64, %struct.Reg, i64, %struct.Reg, i64, %struct.Reg, i64, %struct.Reg, i64, %struct.Reg, i64, %struct.Reg, i64, %struct.Reg, i64, %struct.Reg, i64, %struct.Reg }
%struct.X87Stack = type { [8 x %struct.anon.3] }
%struct.anon.3 = type { i64, double }
%struct.MMX = type { [8 x %struct.anon.4] }
%struct.anon.4 = type { i64, %union.vec64_t }
%union.vec64_t = type { %struct.uint64v1_t }
%struct.uint64v1_t = type { [1 x i64] }
%struct.FPUStatusFlags = type { i8, i8, i8, i8, i8, i8, i8, i8, i8, i8, i8, i8, i8, i8, i8, i8, i8, i8, i8, i8, [4 x i8] }
%union.anon = type { i64 }
%union.FPU = type { %struct.anon.13 }
%struct.anon.13 = type { %struct.FpuFXSAVE, [96 x i8] }
%struct.FpuFXSAVE = type { %union.SegmentSelector, %union.SegmentSelector, %union.FPUAbridgedTagWord, i8, i16, i32, %union.SegmentSelector, i16, i32, %union.SegmentSelector, i16, %union.FPUControlStatus, %union.FPUControlStatus, [8 x %struct.FPUStackElem], [16 x %union.vec128_t] }
%union.FPUAbridgedTagWord = type { i8 }
%union.FPUControlStatus = type { i32 }
%struct.FPUStackElem = type { %union.anon.11, [6 x i8] }
%union.anon.11 = type { %struct.float80_t }
%struct.float80_t = type { [10 x i8] }
%union.vec128_t = type { %struct.uint128v1_t }
%struct.uint128v1_t = type { [1 x i128] }
%struct.SegmentCaches = type { %struct.SegmentShadow, %struct.SegmentShadow, %struct.SegmentShadow, %struct.SegmentShadow, %struct.SegmentShadow, %struct.SegmentShadow }
%struct.SegmentShadow = type { %union.anon, i32, i32 }
%struct.Memory = type opaque

@__bss_start = local_unnamed_addr global %__bss_start_type zeroinitializer
@G_0xd948__rip_ = global %G_0xd948__rip__type zeroinitializer
@G_0xda38__rip_ = global %G_0xda38__rip__type zeroinitializer

; Function Attrs: nounwind readnone
declare i32 @llvm.ctpop.i32(i32) #0

; Function Attrs: nounwind readnone
declare double @llvm.fabs.f64(double) #0

; Function Attrs: nounwind readnone
declare double @llvm.trunc.f64(double) #0

declare extern_weak x86_64_sysvcc i64 @floor(i64)

declare %struct.Memory* @__remill_function_call(%struct.State* dereferenceable(3376), i64, %struct.Memory*) local_unnamed_addr

declare %struct.Memory* @sub_4a4000.Mode_Decision_for_new_8x8IntraBlocks(%struct.State* noalias dereferenceable(3376), i64, %struct.Memory* noalias readnone returned) local_unnamed_addr

; Function Attrs: alwaysinline
define %struct.Memory* @Mode_Decision_for_new_Intra8x8Macroblock(%struct.State* noalias, i64, %struct.Memory* noalias) local_unnamed_addr #1 {
entry:
  %3 = getelementptr inbounds %struct.State, %struct.State* %0, i64 0, i32 6, i32 33, i32 0, i32 0
  %RBP.i = getelementptr inbounds %struct.State, %struct.State* %0, i64 0, i32 6, i32 15, i32 0, i32 0
  %4 = load i64, i64* %RBP.i, align 8
  %5 = add i64 %1, 1
  store i64 %5, i64* %3, align 8
  %6 = getelementptr inbounds %struct.State, %struct.State* %0, i64 0, i32 6, i32 13, i32 0, i32 0
  %7 = load i64, i64* %6, align 8
  %8 = add i64 %7, -8
  %9 = inttoptr i64 %8 to i64*
  store i64 %4, i64* %9, align 8
  %10 = load i64, i64* %3, align 8
  store i64 %8, i64* %RBP.i, align 8
  %11 = add i64 %7, -40
  store i64 %11, i64* %6, align 8
  %12 = icmp ult i64 %8, 32
  %13 = zext i1 %12 to i8
  %14 = getelementptr inbounds %struct.State, %struct.State* %0, i64 0, i32 2, i32 1
  store i8 %13, i8* %14, align 1
  %15 = trunc i64 %11 to i32
  %16 = and i32 %15, 255
  %17 = tail call i32 @llvm.ctpop.i32(i32 %16)
  %18 = trunc i32 %17 to i8
  %19 = and i8 %18, 1
  %20 = xor i8 %19, 1
  %21 = getelementptr inbounds %struct.State, %struct.State* %0, i64 0, i32 2, i32 3
  store i8 %20, i8* %21, align 1
  %22 = xor i64 %8, %11
  %23 = lshr i64 %22, 4
  %24 = trunc i64 %23 to i8
  %25 = and i8 %24, 1
  %26 = getelementptr inbounds %struct.State, %struct.State* %0, i64 0, i32 2, i32 5
  store i8 %25, i8* %26, align 1
  %27 = icmp eq i64 %11, 0
  %28 = zext i1 %27 to i8
  %29 = getelementptr inbounds %struct.State, %struct.State* %0, i64 0, i32 2, i32 7
  store i8 %28, i8* %29, align 1
  %30 = lshr i64 %11, 63
  %31 = trunc i64 %30 to i8
  %32 = getelementptr inbounds %struct.State, %struct.State* %0, i64 0, i32 2, i32 9
  store i8 %31, i8* %32, align 1
  %33 = lshr i64 %8, 63
  %34 = xor i64 %30, %33
  %35 = add nuw nsw i64 %34, %33
  %36 = icmp eq i64 %35, 2
  %37 = zext i1 %36 to i8
  %38 = getelementptr inbounds %struct.State, %struct.State* %0, i64 0, i32 2, i32 13
  store i8 %37, i8* %38, align 1
  %39 = getelementptr inbounds %struct.State, %struct.State* %0, i64 0, i32 1, i64 1
  %40 = add i64 %10, add (i64 ptrtoint (%G_0xd948__rip__type* @G_0xd948__rip_ to i64), i64 7)
  %41 = add i64 %10, 15
  store i64 %41, i64* %3, align 8
  %42 = inttoptr i64 %40 to i64*
  %43 = load i64, i64* %42, align 8
  %44 = getelementptr inbounds %union.VectorReg, %union.VectorReg* %39, i64 0, i32 0, i32 0, i32 0, i64 0
  store i64 %43, i64* %44, align 1
  %45 = getelementptr inbounds %struct.State, %struct.State* %0, i64 0, i32 1, i64 1, i32 0, i32 0, i32 0, i64 1
  %46 = bitcast i64* %45 to double*
  store double 0.000000e+00, double* %46, align 1
  %47 = getelementptr inbounds %struct.State, %struct.State* %0, i64 0, i32 1, i64 2
  %48 = add i64 %10, add (i64 ptrtoint (%G_0xda38__rip__type* @G_0xda38__rip_ to i64), i64 15)
  %49 = add i64 %10, 23
  store i64 %49, i64* %3, align 8
  %50 = inttoptr i64 %48 to i64*
  %51 = load i64, i64* %50, align 8
  %52 = bitcast %union.VectorReg* %47 to double*
  %53 = getelementptr inbounds %union.VectorReg, %union.VectorReg* %47, i64 0, i32 0, i32 0, i32 0, i64 0
  store i64 %51, i64* %53, align 1
  %54 = getelementptr inbounds %struct.State, %struct.State* %0, i64 0, i32 1, i64 2, i32 0, i32 0, i32 0, i64 1
  %55 = bitcast i64* %54 to double*
  store double 0.000000e+00, double* %55, align 1
  %56 = getelementptr inbounds %struct.State, %struct.State* %0, i64 0, i32 1, i64 0
  %57 = add i64 %7, -16
  %58 = add i64 %10, 28
  store i64 %58, i64* %3, align 8
  %59 = bitcast %union.VectorReg* %56 to double*
  %60 = getelementptr inbounds %union.VectorReg, %union.VectorReg* %56, i64 0, i32 0, i32 0, i32 0, i64 0
  %61 = load i64, i64* %60, align 1
  %62 = inttoptr i64 %57 to i64*
  store i64 %61, i64* %62, align 8
  %RDI.i75 = getelementptr inbounds %struct.State, %struct.State* %0, i64 0, i32 6, i32 11, i32 0, i32 0
  %63 = load i64, i64* %RBP.i, align 8
  %64 = add i64 %63, -16
  %65 = load i64, i64* %RDI.i75, align 8
  %66 = load i64, i64* %3, align 8
  %67 = add i64 %66, 4
  store i64 %67, i64* %3, align 8
  %68 = inttoptr i64 %64 to i64*
  store i64 %65, i64* %68, align 8
  %69 = load i64, i64* %RBP.i, align 8
  %70 = add i64 %69, -20
  %71 = load i64, i64* %3, align 8
  %72 = add i64 %71, 7
  store i64 %72, i64* %3, align 8
  %73 = inttoptr i64 %70 to i32*
  store i32 0, i32* %73, align 4
  %74 = load i64, i64* %RBP.i, align 8
  %75 = add i64 %74, -8
  %76 = load i64, i64* %3, align 8
  %77 = add i64 %76, 5
  store i64 %77, i64* %3, align 8
  %78 = load double, double* %52, align 1
  %79 = bitcast i64* %54 to <2 x i32>*
  %80 = load <2 x i32>, <2 x i32>* %79, align 1
  %81 = inttoptr i64 %75 to double*
  %82 = load double, double* %81, align 8
  %83 = fmul double %78, %82
  %84 = bitcast %union.VectorReg* %39 to double*
  %85 = load double, double* %84, align 1
  %86 = fadd double %83, %85
  store double %86, double* %52, align 1
  %87 = bitcast %union.VectorReg* %56 to i8*
  %88 = bitcast double %86 to <2 x i32>
  %89 = extractelement <2 x i32> %88, i32 0
  %90 = bitcast %union.VectorReg* %56 to i32*
  store i32 %89, i32* %90, align 1
  %91 = extractelement <2 x i32> %88, i32 1
  %92 = getelementptr inbounds i8, i8* %87, i64 4
  %93 = bitcast i8* %92 to i32*
  store i32 %91, i32* %93, align 1
  %94 = extractelement <2 x i32> %80, i32 0
  %95 = getelementptr inbounds %struct.State, %struct.State* %0, i64 0, i32 1, i64 0, i32 0, i32 0, i32 0, i64 1
  %96 = bitcast i64* %95 to i32*
  store i32 %94, i32* %96, align 1
  %97 = extractelement <2 x i32> %80, i32 1
  %98 = getelementptr inbounds i8, i8* %87, i64 12
  %99 = bitcast i8* %98 to i32*
  store i32 %97, i32* %99, align 1
  %100 = add i64 %76, -667096
  %101 = add i64 %76, 17
  %102 = load i64, i64* %6, align 8
  %103 = add i64 %102, -8
  %104 = inttoptr i64 %103 to i64*
  store i64 %101, i64* %104, align 8
  store i64 %103, i64* %6, align 8
  store i64 %100, i64* %3, align 8
  %105 = tail call %struct.Memory* @__remill_function_call(%struct.State* %0, i64 ptrtoint (i64 (i64)* @floor to i64), %struct.Memory* %2)
  %106 = getelementptr inbounds %struct.State, %struct.State* %0, i64 0, i32 6, i32 1, i32 0
  %RAX.i61 = getelementptr inbounds %union.anon, %union.anon* %106, i64 0, i32 0
  %107 = load i64, i64* %3, align 8
  %108 = load double, double* %59, align 1
  %109 = tail call double @llvm.trunc.f64(double %108)
  %110 = tail call double @llvm.fabs.f64(double %109)
  %111 = fcmp ogt double %110, 0x41DFFFFFFFC00000
  %112 = fptosi double %109 to i32
  %113 = zext i32 %112 to i64
  %114 = select i1 %111, i64 2147483648, i64 %113
  store i64 %114, i64* %RAX.i61, align 8
  %115 = load i64, i64* %RBP.i, align 8
  %116 = add i64 %115, -16
  %117 = add i64 %107, 8
  store i64 %117, i64* %3, align 8
  %118 = inttoptr i64 %116 to i64*
  %119 = load i64, i64* %118, align 8
  store i64 %119, i64* %RDI.i75, align 8
  %EAX.i55 = bitcast %union.anon* %106 to i32*
  %120 = trunc i64 %114 to i32
  %121 = add i64 %107, 10
  store i64 %121, i64* %3, align 8
  %122 = inttoptr i64 %119 to i32*
  store i32 %120, i32* %122, align 4
  %123 = load i64, i64* %RBP.i, align 8
  %124 = add i64 %123, -24
  %125 = load i64, i64* %3, align 8
  %126 = add i64 %125, 7
  store i64 %126, i64* %3, align 8
  %127 = inttoptr i64 %124 to i32*
  store i32 0, i32* %127, align 4
  %RSI.i = getelementptr inbounds %struct.State, %struct.State* %0, i64 0, i32 6, i32 9, i32 0, i32 0
  %128 = bitcast i64* %95 to double*
  %RCX.i21 = getelementptr inbounds %struct.State, %struct.State* %0, i64 0, i32 6, i32 5, i32 0, i32 0
  %RCX.i35 = getelementptr inbounds %struct.State, %struct.State* %0, i64 0, i32 6, i32 5, i32 0, i32 0
  %.pre = load i64, i64* %3, align 8
  br label %block_.L_4a3faa

block_.L_4a3faa:                                  ; preds = %block_.L_4a3fde, %entry
  %129 = phi i64 [ %305, %block_.L_4a3fde ], [ %.pre, %entry ]
  %130 = load i64, i64* %RBP.i, align 8
  %131 = add i64 %130, -24
  %132 = add i64 %129, 4
  store i64 %132, i64* %3, align 8
  %133 = inttoptr i64 %131 to i32*
  %134 = load i32, i32* %133, align 4
  %135 = add i32 %134, -4
  %136 = icmp ult i32 %134, 4
  %137 = zext i1 %136 to i8
  store i8 %137, i8* %14, align 1
  %138 = and i32 %135, 255
  %139 = tail call i32 @llvm.ctpop.i32(i32 %138)
  %140 = trunc i32 %139 to i8
  %141 = and i8 %140, 1
  %142 = xor i8 %141, 1
  store i8 %142, i8* %21, align 1
  %143 = xor i32 %135, %134
  %144 = lshr i32 %143, 4
  %145 = trunc i32 %144 to i8
  %146 = and i8 %145, 1
  store i8 %146, i8* %26, align 1
  %147 = icmp eq i32 %135, 0
  %148 = zext i1 %147 to i8
  store i8 %148, i8* %29, align 1
  %149 = lshr i32 %135, 31
  %150 = trunc i32 %149 to i8
  store i8 %150, i8* %32, align 1
  %151 = lshr i32 %134, 31
  %152 = xor i32 %149, %151
  %153 = add nuw nsw i32 %152, %151
  %154 = icmp eq i32 %153, 2
  %155 = zext i1 %154 to i8
  store i8 %155, i8* %38, align 1
  %156 = icmp ne i8 %150, 0
  %157 = xor i1 %156, %154
  %.v = select i1 %157, i64 10, i64 77
  %158 = add i64 %129, %.v
  store i64 %158, i64* %3, align 8
  br i1 %157, label %block_4a3fb4, label %block_.L_4a3ff7

block_4a3fb4:                                     ; preds = %block_.L_4a3faa
  %159 = add i64 %130, -28
  store i64 %159, i64* %RSI.i, align 8
  %160 = add i64 %158, 7
  store i64 %160, i64* %3, align 8
  %161 = load i32, i32* %133, align 4
  %162 = zext i32 %161 to i64
  store i64 %162, i64* %RDI.i75, align 8
  %163 = add i64 %130, -8
  %164 = add i64 %158, 12
  store i64 %164, i64* %3, align 8
  %165 = inttoptr i64 %163 to i64*
  %166 = load i64, i64* %165, align 8
  store i64 %166, i64* %60, align 1
  store double 0.000000e+00, double* %128, align 1
  %167 = add i64 %158, 76
  %168 = add i64 %158, 17
  %169 = load i64, i64* %6, align 8
  %170 = add i64 %169, -8
  %171 = inttoptr i64 %170 to i64*
  store i64 %168, i64* %171, align 8
  store i64 %170, i64* %6, align 8
  store i64 %167, i64* %3, align 8
  %call2_4a3fc0 = tail call %struct.Memory* @sub_4a4000.Mode_Decision_for_new_8x8IntraBlocks(%struct.State* nonnull %0, i64 %167, %struct.Memory* %105)
  %172 = load i32, i32* %EAX.i55, align 4
  %173 = load i64, i64* %3, align 8
  store i8 0, i8* %14, align 1
  %174 = and i32 %172, 255
  %175 = tail call i32 @llvm.ctpop.i32(i32 %174)
  %176 = trunc i32 %175 to i8
  %177 = and i8 %176, 1
  %178 = xor i8 %177, 1
  store i8 %178, i8* %21, align 1
  store i8 0, i8* %26, align 1
  %179 = icmp eq i32 %172, 0
  %180 = zext i1 %179 to i8
  store i8 %180, i8* %29, align 1
  %181 = lshr i32 %172, 31
  %182 = trunc i32 %181 to i8
  store i8 %182, i8* %32, align 1
  store i8 0, i8* %38, align 1
  %.v3 = select i1 %179, i64 25, i64 9
  %183 = add i64 %173, %.v3
  store i64 %183, i64* %3, align 8
  br i1 %179, label %block_.L_4a3fde, label %block_4a3fce

block_4a3fce:                                     ; preds = %block_4a3fb4
  store i64 1, i64* %RAX.i61, align 8
  %184 = load i64, i64* %RBP.i, align 8
  %185 = add i64 %184, -24
  %186 = add i64 %183, 8
  store i64 %186, i64* %3, align 8
  %187 = inttoptr i64 %185 to i32*
  %188 = load i32, i32* %187, align 4
  %189 = zext i32 %188 to i64
  store i64 %189, i64* %RCX.i35, align 8
  %190 = add i64 %183, 10
  store i64 %190, i64* %3, align 8
  %191 = trunc i32 %188 to i5
  switch i5 %191, label %192 [
    i5 0, label %routine_shll__cl___eax.exit
    i5 1, label %201
  ]

; <label>:192:                                    ; preds = %block_4a3fce
  %193 = and i32 %188, 31
  %194 = zext i32 %193 to i64
  %195 = add nuw nsw i64 %194, 4294967295
  %196 = and i64 %195, 4294967295
  %197 = shl i64 1, %196
  %198 = trunc i64 %197 to i32
  %199 = icmp slt i32 %198, 0
  %200 = shl i32 %198, 1
  br label %201

; <label>:201:                                    ; preds = %block_4a3fce, %192
  %202 = phi i1 [ %199, %192 ], [ false, %block_4a3fce ]
  %203 = phi i32 [ %200, %192 ], [ 2, %block_4a3fce ]
  %204 = zext i32 %203 to i64
  store i64 %204, i64* %RAX.i61, align 8
  %205 = zext i1 %202 to i8
  store i8 %205, i8* %14, align 1
  %206 = and i32 %203, 254
  %207 = tail call i32 @llvm.ctpop.i32(i32 %206)
  %208 = trunc i32 %207 to i8
  %209 = and i8 %208, 1
  %210 = xor i8 %209, 1
  store i8 %210, i8* %21, align 1
  store i8 0, i8* %26, align 1
  %211 = icmp eq i32 %203, 0
  %212 = zext i1 %211 to i8
  store i8 %212, i8* %29, align 1
  %213 = lshr i32 %203, 31
  %214 = trunc i32 %213 to i8
  store i8 %214, i8* %32, align 1
  store i8 0, i8* %38, align 1
  br label %routine_shll__cl___eax.exit

routine_shll__cl___eax.exit:                      ; preds = %201, %block_4a3fce
  %215 = phi i32 [ %203, %201 ], [ 1, %block_4a3fce ]
  %216 = add i64 %184, -20
  %217 = add i64 %183, 13
  store i64 %217, i64* %3, align 8
  %218 = inttoptr i64 %216 to i32*
  %219 = load i32, i32* %218, align 4
  %220 = or i32 %219, %215
  %221 = zext i32 %220 to i64
  store i64 %221, i64* %RAX.i61, align 8
  store i8 0, i8* %14, align 1
  %222 = and i32 %220, 255
  %223 = tail call i32 @llvm.ctpop.i32(i32 %222)
  %224 = trunc i32 %223 to i8
  %225 = and i8 %224, 1
  %226 = xor i8 %225, 1
  store i8 %226, i8* %21, align 1
  %227 = icmp eq i32 %220, 0
  %228 = zext i1 %227 to i8
  store i8 %228, i8* %29, align 1
  %229 = lshr i32 %220, 31
  %230 = trunc i32 %229 to i8
  store i8 %230, i8* %32, align 1
  store i8 0, i8* %38, align 1
  store i8 0, i8* %26, align 1
  %231 = add i64 %183, 16
  store i64 %231, i64* %3, align 8
  store i32 %220, i32* %218, align 4
  %.pre2 = load i64, i64* %3, align 8
  br label %block_.L_4a3fde

block_.L_4a3fde:                                  ; preds = %routine_shll__cl___eax.exit, %block_4a3fb4
  %232 = phi i64 [ %.pre2, %routine_shll__cl___eax.exit ], [ %183, %block_4a3fb4 ]
  %233 = load i64, i64* %RBP.i, align 8
  %234 = add i64 %233, -28
  %235 = add i64 %232, 3
  store i64 %235, i64* %3, align 8
  %236 = inttoptr i64 %234 to i32*
  %237 = load i32, i32* %236, align 4
  %238 = zext i32 %237 to i64
  store i64 %238, i64* %RAX.i61, align 8
  %239 = add i64 %233, -16
  %240 = add i64 %232, 7
  store i64 %240, i64* %3, align 8
  %241 = inttoptr i64 %239 to i64*
  %242 = load i64, i64* %241, align 8
  store i64 %242, i64* %RCX.i21, align 8
  %243 = add i64 %232, 9
  store i64 %243, i64* %3, align 8
  %244 = inttoptr i64 %242 to i32*
  %245 = load i32, i32* %244, align 4
  %246 = add i32 %245, %237
  %247 = zext i32 %246 to i64
  store i64 %247, i64* %RAX.i61, align 8
  %248 = icmp ult i32 %246, %237
  %249 = icmp ult i32 %246, %245
  %250 = or i1 %248, %249
  %251 = zext i1 %250 to i8
  store i8 %251, i8* %14, align 1
  %252 = and i32 %246, 255
  %253 = tail call i32 @llvm.ctpop.i32(i32 %252)
  %254 = trunc i32 %253 to i8
  %255 = and i8 %254, 1
  %256 = xor i8 %255, 1
  store i8 %256, i8* %21, align 1
  %257 = xor i32 %245, %237
  %258 = xor i32 %257, %246
  %259 = lshr i32 %258, 4
  %260 = trunc i32 %259 to i8
  %261 = and i8 %260, 1
  store i8 %261, i8* %26, align 1
  %262 = icmp eq i32 %246, 0
  %263 = zext i1 %262 to i8
  store i8 %263, i8* %29, align 1
  %264 = lshr i32 %246, 31
  %265 = trunc i32 %264 to i8
  store i8 %265, i8* %32, align 1
  %266 = lshr i32 %237, 31
  %267 = lshr i32 %245, 31
  %268 = xor i32 %264, %266
  %269 = xor i32 %264, %267
  %270 = add nuw nsw i32 %268, %269
  %271 = icmp eq i32 %270, 2
  %272 = zext i1 %271 to i8
  store i8 %272, i8* %38, align 1
  %273 = add i64 %232, 11
  store i64 %273, i64* %3, align 8
  store i32 %246, i32* %244, align 4
  %274 = load i64, i64* %RBP.i, align 8
  %275 = add i64 %274, -24
  %276 = load i64, i64* %3, align 8
  %277 = add i64 %276, 3
  store i64 %277, i64* %3, align 8
  %278 = inttoptr i64 %275 to i32*
  %279 = load i32, i32* %278, align 4
  %280 = add i32 %279, 1
  %281 = zext i32 %280 to i64
  store i64 %281, i64* %RAX.i61, align 8
  %282 = icmp eq i32 %279, -1
  %283 = icmp eq i32 %280, 0
  %284 = or i1 %282, %283
  %285 = zext i1 %284 to i8
  store i8 %285, i8* %14, align 1
  %286 = and i32 %280, 255
  %287 = tail call i32 @llvm.ctpop.i32(i32 %286)
  %288 = trunc i32 %287 to i8
  %289 = and i8 %288, 1
  %290 = xor i8 %289, 1
  store i8 %290, i8* %21, align 1
  %291 = xor i32 %280, %279
  %292 = lshr i32 %291, 4
  %293 = trunc i32 %292 to i8
  %294 = and i8 %293, 1
  store i8 %294, i8* %26, align 1
  %295 = zext i1 %283 to i8
  store i8 %295, i8* %29, align 1
  %296 = lshr i32 %280, 31
  %297 = trunc i32 %296 to i8
  store i8 %297, i8* %32, align 1
  %298 = lshr i32 %279, 31
  %299 = xor i32 %296, %298
  %300 = add nuw nsw i32 %299, %296
  %301 = icmp eq i32 %300, 2
  %302 = zext i1 %301 to i8
  store i8 %302, i8* %38, align 1
  %303 = add i64 %276, 9
  store i64 %303, i64* %3, align 8
  store i32 %280, i32* %278, align 4
  %304 = load i64, i64* %3, align 8
  %305 = add i64 %304, -72
  store i64 %305, i64* %3, align 8
  br label %block_.L_4a3faa

block_.L_4a3ff7:                                  ; preds = %block_.L_4a3faa
  %306 = add i64 %130, -20
  %307 = add i64 %158, 3
  store i64 %307, i64* %3, align 8
  %308 = inttoptr i64 %306 to i32*
  %309 = load i32, i32* %308, align 4
  %310 = zext i32 %309 to i64
  store i64 %310, i64* %RAX.i61, align 8
  %311 = load i64, i64* %6, align 8
  %312 = add i64 %311, 32
  store i64 %312, i64* %6, align 8
  %313 = icmp ugt i64 %311, -33
  %314 = zext i1 %313 to i8
  store i8 %314, i8* %14, align 1
  %315 = trunc i64 %312 to i32
  %316 = and i32 %315, 255
  %317 = tail call i32 @llvm.ctpop.i32(i32 %316)
  %318 = trunc i32 %317 to i8
  %319 = and i8 %318, 1
  %320 = xor i8 %319, 1
  store i8 %320, i8* %21, align 1
  %321 = xor i64 %312, %311
  %322 = lshr i64 %321, 4
  %323 = trunc i64 %322 to i8
  %324 = and i8 %323, 1
  store i8 %324, i8* %26, align 1
  %325 = icmp eq i64 %312, 0
  %326 = zext i1 %325 to i8
  store i8 %326, i8* %29, align 1
  %327 = lshr i64 %312, 63
  %328 = trunc i64 %327 to i8
  store i8 %328, i8* %32, align 1
  %329 = lshr i64 %311, 63
  %330 = xor i64 %327, %329
  %331 = add nuw nsw i64 %330, %327
  %332 = icmp eq i64 %331, 2
  %333 = zext i1 %332 to i8
  store i8 %333, i8* %38, align 1
  %334 = add i64 %158, 8
  store i64 %334, i64* %3, align 8
  %335 = add i64 %311, 40
  %336 = inttoptr i64 %312 to i64*
  %337 = load i64, i64* %336, align 8
  store i64 %337, i64* %RBP.i, align 8
  store i64 %335, i64* %6, align 8
  %338 = add i64 %158, 9
  store i64 %338, i64* %3, align 8
  %339 = inttoptr i64 %335 to i64*
  %340 = load i64, i64* %339, align 8
  store i64 %340, i64* %3, align 8
  %341 = add i64 %311, 48
  store i64 %341, i64* %6, align 8
  ret %struct.Memory* %105
}

; Function Attrs: norecurse nounwind
define %struct.Memory* @routine_pushq__rbp(%struct.State* nocapture dereferenceable(3376), i64, %struct.Memory* readnone returned) local_unnamed_addr #2 {
block_400488:
  %PC = getelementptr inbounds %struct.State, %struct.State* %0, i64 0, i32 6, i32 33, i32 0, i32 0
  %RBP = getelementptr inbounds %struct.State, %struct.State* %0, i64 0, i32 6, i32 15, i32 0, i32 0
  %3 = load i64, i64* %RBP, align 8
  %4 = load i64, i64* %PC, align 8
  %5 = add i64 %4, 1
  store i64 %5, i64* %PC, align 8
  %6 = getelementptr inbounds %struct.State, %struct.State* %0, i64 0, i32 6, i32 13, i32 0, i32 0
  %7 = load i64, i64* %6, align 8
  %8 = add i64 %7, -8
  %9 = inttoptr i64 %8 to i64*
  store i64 %3, i64* %9, align 8
  store i64 %8, i64* %6, align 8
  ret %struct.Memory* %2
}

; Function Attrs: norecurse nounwind
define %struct.Memory* @routine_movq__rsp___rbp(%struct.State* nocapture dereferenceable(3376), i64, %struct.Memory* readnone returned) local_unnamed_addr #2 {
block_400488:
  %PC = getelementptr inbounds %struct.State, %struct.State* %0, i64 0, i32 6, i32 33, i32 0, i32 0
  %RSP = getelementptr inbounds %struct.State, %struct.State* %0, i64 0, i32 6, i32 13, i32 0, i32 0
  %RBP = getelementptr inbounds %struct.State, %struct.State* %0, i64 0, i32 6, i32 15, i32 0, i32 0
  %3 = load i64, i64* %RSP, align 8
  %4 = load i64, i64* %PC, align 8
  %5 = add i64 %4, 3
  store i64 %5, i64* %PC, align 8
  store i64 %3, i64* %RBP, align 8
  ret %struct.Memory* %2
}

; Function Attrs: nounwind
define %struct.Memory* @routine_subq__0x20___rsp(%struct.State* nocapture dereferenceable(3376), i64, %struct.Memory* readnone returned) local_unnamed_addr #3 {
block_400488:
  %PC = getelementptr inbounds %struct.State, %struct.State* %0, i64 0, i32 6, i32 33, i32 0, i32 0
  %RSP = getelementptr inbounds %struct.State, %struct.State* %0, i64 0, i32 6, i32 13, i32 0, i32 0
  %3 = load i64, i64* %RSP, align 8
  %4 = load i64, i64* %PC, align 8
  %5 = add i64 %4, 4
  store i64 %5, i64* %PC, align 8
  %6 = add i64 %3, -32
  store i64 %6, i64* %RSP, align 8
  %7 = icmp ult i64 %3, 32
  %8 = zext i1 %7 to i8
  %9 = getelementptr inbounds %struct.State, %struct.State* %0, i64 0, i32 2, i32 1
  store i8 %8, i8* %9, align 1
  %10 = trunc i64 %6 to i32
  %11 = and i32 %10, 255
  %12 = tail call i32 @llvm.ctpop.i32(i32 %11)
  %13 = trunc i32 %12 to i8
  %14 = and i8 %13, 1
  %15 = xor i8 %14, 1
  %16 = getelementptr inbounds %struct.State, %struct.State* %0, i64 0, i32 2, i32 3
  store i8 %15, i8* %16, align 1
  %17 = xor i64 %6, %3
  %18 = lshr i64 %17, 4
  %19 = trunc i64 %18 to i8
  %20 = and i8 %19, 1
  %21 = getelementptr inbounds %struct.State, %struct.State* %0, i64 0, i32 2, i32 5
  store i8 %20, i8* %21, align 1
  %22 = icmp eq i64 %6, 0
  %23 = zext i1 %22 to i8
  %24 = getelementptr inbounds %struct.State, %struct.State* %0, i64 0, i32 2, i32 7
  store i8 %23, i8* %24, align 1
  %25 = lshr i64 %6, 63
  %26 = trunc i64 %25 to i8
  %27 = getelementptr inbounds %struct.State, %struct.State* %0, i64 0, i32 2, i32 9
  store i8 %26, i8* %27, align 1
  %28 = lshr i64 %3, 63
  %29 = xor i64 %25, %28
  %30 = add nuw nsw i64 %29, %28
  %31 = icmp eq i64 %30, 2
  %32 = zext i1 %31 to i8
  %33 = getelementptr inbounds %struct.State, %struct.State* %0, i64 0, i32 2, i32 13
  store i8 %32, i8* %33, align 1
  ret %struct.Memory* %2
}

; Function Attrs: norecurse nounwind
define %struct.Memory* @routine_movsd_0xd948__rip____xmm1(%struct.State* nocapture dereferenceable(3376), i64, %struct.Memory* readnone returned) local_unnamed_addr #2 {
block_400488:
  %PC = getelementptr inbounds %struct.State, %struct.State* %0, i64 0, i32 6, i32 33, i32 0, i32 0
  %3 = load i64, i64* %PC, align 8
  %4 = add i64 %3, ptrtoint (%G_0xd948__rip__type* @G_0xd948__rip_ to i64)
  %5 = add i64 %3, 8
  store i64 %5, i64* %PC, align 8
  %6 = inttoptr i64 %4 to i64*
  %7 = load i64, i64* %6, align 8
  %8 = getelementptr inbounds %struct.State, %struct.State* %0, i64 0, i32 1, i64 1, i32 0, i32 0, i32 0, i64 0
  store i64 %7, i64* %8, align 1
  %9 = getelementptr inbounds %struct.State, %struct.State* %0, i64 0, i32 1, i64 1, i32 0, i32 0, i32 0, i64 1
  %10 = bitcast i64* %9 to double*
  store double 0.000000e+00, double* %10, align 1
  ret %struct.Memory* %2
}

; Function Attrs: norecurse nounwind
define %struct.Memory* @routine_movsd_0xda38__rip____xmm2(%struct.State* nocapture dereferenceable(3376), i64, %struct.Memory* readnone returned) local_unnamed_addr #2 {
block_400488:
  %PC = getelementptr inbounds %struct.State, %struct.State* %0, i64 0, i32 6, i32 33, i32 0, i32 0
  %3 = load i64, i64* %PC, align 8
  %4 = add i64 %3, ptrtoint (%G_0xda38__rip__type* @G_0xda38__rip_ to i64)
  %5 = add i64 %3, 8
  store i64 %5, i64* %PC, align 8
  %6 = inttoptr i64 %4 to i64*
  %7 = load i64, i64* %6, align 8
  %8 = getelementptr inbounds %struct.State, %struct.State* %0, i64 0, i32 1, i64 2, i32 0, i32 0, i32 0, i64 0
  store i64 %7, i64* %8, align 1
  %9 = getelementptr inbounds %struct.State, %struct.State* %0, i64 0, i32 1, i64 2, i32 0, i32 0, i32 0, i64 1
  %10 = bitcast i64* %9 to double*
  store double 0.000000e+00, double* %10, align 1
  ret %struct.Memory* %2
}

; Function Attrs: norecurse nounwind
define %struct.Memory* @routine_movsd__xmm0__MINUS0x8__rbp_(%struct.State* nocapture dereferenceable(3376), i64, %struct.Memory* readnone returned) local_unnamed_addr #2 {
block_400488:
  %PC = getelementptr inbounds %struct.State, %struct.State* %0, i64 0, i32 6, i32 33, i32 0, i32 0
  %RBP = getelementptr inbounds %struct.State, %struct.State* %0, i64 0, i32 6, i32 15, i32 0, i32 0
  %3 = load i64, i64* %RBP, align 8
  %4 = add i64 %3, -8
  %5 = load i64, i64* %PC, align 8
  %6 = add i64 %5, 5
  store i64 %6, i64* %PC, align 8
  %7 = getelementptr inbounds %struct.State, %struct.State* %0, i64 0, i32 1, i64 0, i32 0, i32 0, i32 0, i64 0
  %8 = load i64, i64* %7, align 1
  %9 = inttoptr i64 %4 to i64*
  store i64 %8, i64* %9, align 8
  ret %struct.Memory* %2
}

; Function Attrs: norecurse nounwind
define %struct.Memory* @routine_movq__rdi__MINUS0x10__rbp_(%struct.State* nocapture dereferenceable(3376), i64, %struct.Memory* readnone returned) local_unnamed_addr #2 {
block_400488:
  %PC = getelementptr inbounds %struct.State, %struct.State* %0, i64 0, i32 6, i32 33, i32 0, i32 0
  %RDI = getelementptr inbounds %struct.State, %struct.State* %0, i64 0, i32 6, i32 11, i32 0, i32 0
  %RBP = getelementptr inbounds %struct.State, %struct.State* %0, i64 0, i32 6, i32 15, i32 0, i32 0
  %3 = load i64, i64* %RBP, align 8
  %4 = add i64 %3, -16
  %5 = load i64, i64* %RDI, align 8
  %6 = load i64, i64* %PC, align 8
  %7 = add i64 %6, 4
  store i64 %7, i64* %PC, align 8
  %8 = inttoptr i64 %4 to i64*
  store i64 %5, i64* %8, align 8
  ret %struct.Memory* %2
}

; Function Attrs: norecurse nounwind
define %struct.Memory* @routine_movl__0x0__MINUS0x14__rbp_(%struct.State* nocapture dereferenceable(3376), i64, %struct.Memory* readnone returned) local_unnamed_addr #2 {
block_400488:
  %PC = getelementptr inbounds %struct.State, %struct.State* %0, i64 0, i32 6, i32 33, i32 0, i32 0
  %RBP = getelementptr inbounds %struct.State, %struct.State* %0, i64 0, i32 6, i32 15, i32 0, i32 0
  %3 = load i64, i64* %RBP, align 8
  %4 = add i64 %3, -20
  %5 = load i64, i64* %PC, align 8
  %6 = add i64 %5, 7
  store i64 %6, i64* %PC, align 8
  %7 = inttoptr i64 %4 to i32*
  store i32 0, i32* %7, align 4
  ret %struct.Memory* %2
}

; Function Attrs: norecurse nounwind
define %struct.Memory* @routine_mulsd_MINUS0x8__rbp____xmm2(%struct.State* nocapture dereferenceable(3376), i64, %struct.Memory* readnone returned) local_unnamed_addr #2 {
block_400488:
  %PC = getelementptr inbounds %struct.State, %struct.State* %0, i64 0, i32 6, i32 33, i32 0, i32 0
  %RBP = getelementptr inbounds %struct.State, %struct.State* %0, i64 0, i32 6, i32 15, i32 0, i32 0
  %3 = getelementptr inbounds %struct.State, %struct.State* %0, i64 0, i32 1, i64 2
  %4 = load i64, i64* %RBP, align 8
  %5 = add i64 %4, -8
  %6 = load i64, i64* %PC, align 8
  %7 = add i64 %6, 5
  store i64 %7, i64* %PC, align 8
  %8 = bitcast %union.VectorReg* %3 to double*
  %9 = load double, double* %8, align 1
  %10 = inttoptr i64 %5 to double*
  %11 = load double, double* %10, align 8
  %12 = fmul double %9, %11
  store double %12, double* %8, align 1
  ret %struct.Memory* %2
}

; Function Attrs: norecurse nounwind
define %struct.Memory* @routine_addsd__xmm1___xmm2(%struct.State* nocapture dereferenceable(3376), i64, %struct.Memory* readnone returned) local_unnamed_addr #2 {
block_400488:
  %PC = getelementptr inbounds %struct.State, %struct.State* %0, i64 0, i32 6, i32 33, i32 0, i32 0
  %3 = getelementptr inbounds %struct.State, %struct.State* %0, i64 0, i32 1, i64 2
  %4 = getelementptr inbounds %struct.State, %struct.State* %0, i64 0, i32 1, i64 1
  %5 = load i64, i64* %PC, align 8
  %6 = add i64 %5, 4
  store i64 %6, i64* %PC, align 8
  %7 = bitcast %union.VectorReg* %3 to double*
  %8 = load double, double* %7, align 1
  %9 = bitcast %union.VectorReg* %4 to double*
  %10 = load double, double* %9, align 1
  %11 = fadd double %8, %10
  store double %11, double* %7, align 1
  ret %struct.Memory* %2
}

; Function Attrs: norecurse nounwind
define %struct.Memory* @routine_movaps__xmm2___xmm0(%struct.State* nocapture dereferenceable(3376), i64, %struct.Memory* readnone returned) local_unnamed_addr #2 {
block_400488:
  %PC = getelementptr inbounds %struct.State, %struct.State* %0, i64 0, i32 6, i32 33, i32 0, i32 0
  %3 = getelementptr inbounds %struct.State, %struct.State* %0, i64 0, i32 1
  %4 = getelementptr inbounds %struct.State, %struct.State* %0, i64 0, i32 1, i64 2
  %5 = bitcast [32 x %union.VectorReg]* %3 to i8*
  %6 = load i64, i64* %PC, align 8
  %7 = add i64 %6, 3
  store i64 %7, i64* %PC, align 8
  %8 = bitcast %union.VectorReg* %4 to <2 x i32>*
  %9 = load <2 x i32>, <2 x i32>* %8, align 1
  %10 = getelementptr inbounds %struct.State, %struct.State* %0, i64 0, i32 1, i64 2, i32 0, i32 0, i32 0, i64 1
  %11 = bitcast i64* %10 to <2 x i32>*
  %12 = load <2 x i32>, <2 x i32>* %11, align 1
  %13 = extractelement <2 x i32> %9, i32 0
  %14 = bitcast [32 x %union.VectorReg]* %3 to i32*
  store i32 %13, i32* %14, align 1
  %15 = extractelement <2 x i32> %9, i32 1
  %16 = getelementptr inbounds i8, i8* %5, i64 4
  %17 = bitcast i8* %16 to i32*
  store i32 %15, i32* %17, align 1
  %18 = extractelement <2 x i32> %12, i32 0
  %19 = getelementptr inbounds %struct.State, %struct.State* %0, i64 0, i32 1, i64 0, i32 0, i32 0, i32 0, i64 1
  %20 = bitcast i64* %19 to i32*
  store i32 %18, i32* %20, align 1
  %21 = extractelement <2 x i32> %12, i32 1
  %22 = getelementptr inbounds i8, i8* %5, i64 12
  %23 = bitcast i8* %22 to i32*
  store i32 %21, i32* %23, align 1
  ret %struct.Memory* %2
}

; Function Attrs: norecurse nounwind
define %struct.Memory* @routine_callq_.floor_plt(%struct.State* nocapture dereferenceable(3376), i64, %struct.Memory* readnone returned, i64 %rel_off1, i64 %rel_off2, i64 %rel_off3) local_unnamed_addr #2 {
block_400488:
  %PC = getelementptr inbounds %struct.State, %struct.State* %0, i64 0, i32 6, i32 33, i32 0, i32 0
  %3 = load i64, i64* %PC, align 8
  %4 = add i64 %3, %rel_off1
  %5 = add i64 %3, %rel_off2
  %6 = getelementptr inbounds %struct.State, %struct.State* %0, i64 0, i32 6, i32 13, i32 0, i32 0
  %7 = load i64, i64* %6, align 8
  %8 = add i64 %7, -8
  %9 = inttoptr i64 %8 to i64*
  store i64 %5, i64* %9, align 8
  store i64 %8, i64* %6, align 8
  store i64 %4, i64* %PC, align 8
  ret %struct.Memory* %2
}

; Function Attrs: nounwind
define %struct.Memory* @routine_cvttsd2si__xmm0___eax(%struct.State* nocapture dereferenceable(3376), i64, %struct.Memory* readnone returned) local_unnamed_addr #3 {
block_400488:
  %PC = getelementptr inbounds %struct.State, %struct.State* %0, i64 0, i32 6, i32 33, i32 0, i32 0
  %RAX = getelementptr inbounds %struct.State, %struct.State* %0, i64 0, i32 6, i32 1, i32 0, i32 0
  %3 = getelementptr inbounds %struct.State, %struct.State* %0, i64 0, i32 1, i64 0
  %4 = load i64, i64* %PC, align 8
  %5 = add i64 %4, 4
  store i64 %5, i64* %PC, align 8
  %6 = bitcast %union.VectorReg* %3 to double*
  %7 = load double, double* %6, align 1
  %8 = tail call double @llvm.trunc.f64(double %7)
  %9 = tail call double @llvm.fabs.f64(double %8)
  %10 = fcmp ogt double %9, 0x41DFFFFFFFC00000
  %11 = fptosi double %8 to i32
  %12 = zext i32 %11 to i64
  %13 = select i1 %10, i64 2147483648, i64 %12
  store i64 %13, i64* %RAX, align 8
  ret %struct.Memory* %2
}

; Function Attrs: norecurse nounwind
define %struct.Memory* @routine_movq_MINUS0x10__rbp____rdi(%struct.State* nocapture dereferenceable(3376), i64, %struct.Memory* readnone returned) local_unnamed_addr #2 {
block_400488:
  %PC = getelementptr inbounds %struct.State, %struct.State* %0, i64 0, i32 6, i32 33, i32 0, i32 0
  %RDI = getelementptr inbounds %struct.State, %struct.State* %0, i64 0, i32 6, i32 11, i32 0, i32 0
  %RBP = getelementptr inbounds %struct.State, %struct.State* %0, i64 0, i32 6, i32 15, i32 0, i32 0
  %3 = load i64, i64* %RBP, align 8
  %4 = add i64 %3, -16
  %5 = load i64, i64* %PC, align 8
  %6 = add i64 %5, 4
  store i64 %6, i64* %PC, align 8
  %7 = inttoptr i64 %4 to i64*
  %8 = load i64, i64* %7, align 8
  store i64 %8, i64* %RDI, align 8
  ret %struct.Memory* %2
}

; Function Attrs: norecurse nounwind
define %struct.Memory* @routine_movl__eax____rdi_(%struct.State* nocapture dereferenceable(3376), i64, %struct.Memory* readnone returned) local_unnamed_addr #2 {
block_400488:
  %PC = getelementptr inbounds %struct.State, %struct.State* %0, i64 0, i32 6, i32 33, i32 0, i32 0
  %3 = getelementptr inbounds %struct.State, %struct.State* %0, i64 0, i32 6, i32 1, i32 0
  %EAX = bitcast %union.anon* %3 to i32*
  %RDI = getelementptr inbounds %struct.State, %struct.State* %0, i64 0, i32 6, i32 11, i32 0, i32 0
  %4 = bitcast i64* %RDI to i32**
  %5 = load i32*, i32** %4, align 8
  %6 = load i32, i32* %EAX, align 4
  %7 = load i64, i64* %PC, align 8
  %8 = add i64 %7, 2
  store i64 %8, i64* %PC, align 8
  store i32 %6, i32* %5, align 4
  ret %struct.Memory* %2
}

; Function Attrs: norecurse nounwind
define %struct.Memory* @routine_movl__0x0__MINUS0x18__rbp_(%struct.State* nocapture dereferenceable(3376), i64, %struct.Memory* readnone returned) local_unnamed_addr #2 {
block_400488:
  %PC = getelementptr inbounds %struct.State, %struct.State* %0, i64 0, i32 6, i32 33, i32 0, i32 0
  %RBP = getelementptr inbounds %struct.State, %struct.State* %0, i64 0, i32 6, i32 15, i32 0, i32 0
  %3 = load i64, i64* %RBP, align 8
  %4 = add i64 %3, -24
  %5 = load i64, i64* %PC, align 8
  %6 = add i64 %5, 7
  store i64 %6, i64* %PC, align 8
  %7 = inttoptr i64 %4 to i32*
  store i32 0, i32* %7, align 4
  ret %struct.Memory* %2
}

; Function Attrs: nounwind
define %struct.Memory* @routine_cmpl__0x4__MINUS0x18__rbp_(%struct.State* nocapture dereferenceable(3376), i64, %struct.Memory* readnone returned) local_unnamed_addr #3 {
block_400488:
  %PC = getelementptr inbounds %struct.State, %struct.State* %0, i64 0, i32 6, i32 33, i32 0, i32 0
  %RBP = getelementptr inbounds %struct.State, %struct.State* %0, i64 0, i32 6, i32 15, i32 0, i32 0
  %3 = load i64, i64* %RBP, align 8
  %4 = add i64 %3, -24
  %5 = load i64, i64* %PC, align 8
  %6 = add i64 %5, 4
  store i64 %6, i64* %PC, align 8
  %7 = inttoptr i64 %4 to i32*
  %8 = load i32, i32* %7, align 4
  %9 = add i32 %8, -4
  %10 = icmp ult i32 %8, 4
  %11 = zext i1 %10 to i8
  %12 = getelementptr inbounds %struct.State, %struct.State* %0, i64 0, i32 2, i32 1
  store i8 %11, i8* %12, align 1
  %13 = and i32 %9, 255
  %14 = tail call i32 @llvm.ctpop.i32(i32 %13)
  %15 = trunc i32 %14 to i8
  %16 = and i8 %15, 1
  %17 = xor i8 %16, 1
  %18 = getelementptr inbounds %struct.State, %struct.State* %0, i64 0, i32 2, i32 3
  store i8 %17, i8* %18, align 1
  %19 = xor i32 %9, %8
  %20 = lshr i32 %19, 4
  %21 = trunc i32 %20 to i8
  %22 = and i8 %21, 1
  %23 = getelementptr inbounds %struct.State, %struct.State* %0, i64 0, i32 2, i32 5
  store i8 %22, i8* %23, align 1
  %24 = icmp eq i32 %9, 0
  %25 = zext i1 %24 to i8
  %26 = getelementptr inbounds %struct.State, %struct.State* %0, i64 0, i32 2, i32 7
  store i8 %25, i8* %26, align 1
  %27 = lshr i32 %9, 31
  %28 = trunc i32 %27 to i8
  %29 = getelementptr inbounds %struct.State, %struct.State* %0, i64 0, i32 2, i32 9
  store i8 %28, i8* %29, align 1
  %30 = lshr i32 %8, 31
  %31 = xor i32 %27, %30
  %32 = add nuw nsw i32 %31, %30
  %33 = icmp eq i32 %32, 2
  %34 = zext i1 %33 to i8
  %35 = getelementptr inbounds %struct.State, %struct.State* %0, i64 0, i32 2, i32 13
  store i8 %34, i8* %35, align 1
  ret %struct.Memory* %2
}

; Function Attrs: norecurse nounwind
define %struct.Memory* @routine_jge_.L_4a3ff7(%struct.State* nocapture dereferenceable(3376), i64, %struct.Memory* readnone returned, i8* nocapture %BRANCH_TAKEN, i64 %rel_off1, i64 %rel_off2, i64 %rel_off3) local_unnamed_addr #2 {
block_400488:
  %PC = getelementptr inbounds %struct.State, %struct.State* %0, i64 0, i32 6, i32 33, i32 0, i32 0
  %3 = load i64, i64* %PC, align 8
  %4 = getelementptr inbounds %struct.State, %struct.State* %0, i64 0, i32 2, i32 9
  %5 = load i8, i8* %4, align 1
  %6 = icmp ne i8 %5, 0
  %7 = getelementptr inbounds %struct.State, %struct.State* %0, i64 0, i32 2, i32 13
  %8 = load i8, i8* %7, align 1
  %9 = icmp ne i8 %8, 0
  %10 = xor i1 %6, %9
  %11 = xor i1 %10, true
  %12 = zext i1 %11 to i8
  store i8 %12, i8* %BRANCH_TAKEN, align 1
  %.v = select i1 %10, i64 %rel_off2, i64 %rel_off1
  %13 = add i64 %.v, %3
  store i64 %13, i64* %PC, align 8
  ret %struct.Memory* %2
}

; Function Attrs: norecurse nounwind
define %struct.Memory* @routine_leaq_MINUS0x1c__rbp____rsi(%struct.State* nocapture dereferenceable(3376), i64, %struct.Memory* readnone returned) local_unnamed_addr #2 {
block_400488:
  %PC = getelementptr inbounds %struct.State, %struct.State* %0, i64 0, i32 6, i32 33, i32 0, i32 0
  %RSI = getelementptr inbounds %struct.State, %struct.State* %0, i64 0, i32 6, i32 9, i32 0, i32 0
  %RBP = getelementptr inbounds %struct.State, %struct.State* %0, i64 0, i32 6, i32 15, i32 0, i32 0
  %3 = load i64, i64* %RBP, align 8
  %4 = add i64 %3, -28
  %5 = load i64, i64* %PC, align 8
  %6 = add i64 %5, 4
  store i64 %6, i64* %PC, align 8
  store i64 %4, i64* %RSI, align 8
  ret %struct.Memory* %2
}

; Function Attrs: norecurse nounwind
define %struct.Memory* @routine_movl_MINUS0x18__rbp____edi(%struct.State* nocapture dereferenceable(3376), i64, %struct.Memory* readnone returned) local_unnamed_addr #2 {
block_400488:
  %PC = getelementptr inbounds %struct.State, %struct.State* %0, i64 0, i32 6, i32 33, i32 0, i32 0
  %RDI = getelementptr inbounds %struct.State, %struct.State* %0, i64 0, i32 6, i32 11, i32 0, i32 0
  %RBP = getelementptr inbounds %struct.State, %struct.State* %0, i64 0, i32 6, i32 15, i32 0, i32 0
  %3 = load i64, i64* %RBP, align 8
  %4 = add i64 %3, -24
  %5 = load i64, i64* %PC, align 8
  %6 = add i64 %5, 3
  store i64 %6, i64* %PC, align 8
  %7 = inttoptr i64 %4 to i32*
  %8 = load i32, i32* %7, align 4
  %9 = zext i32 %8 to i64
  store i64 %9, i64* %RDI, align 8
  ret %struct.Memory* %2
}

; Function Attrs: norecurse nounwind
define %struct.Memory* @routine_movsd_MINUS0x8__rbp____xmm0(%struct.State* nocapture dereferenceable(3376), i64, %struct.Memory* readnone returned) local_unnamed_addr #2 {
block_400488:
  %PC = getelementptr inbounds %struct.State, %struct.State* %0, i64 0, i32 6, i32 33, i32 0, i32 0
  %RBP = getelementptr inbounds %struct.State, %struct.State* %0, i64 0, i32 6, i32 15, i32 0, i32 0
  %3 = load i64, i64* %RBP, align 8
  %4 = add i64 %3, -8
  %5 = load i64, i64* %PC, align 8
  %6 = add i64 %5, 5
  store i64 %6, i64* %PC, align 8
  %7 = inttoptr i64 %4 to i64*
  %8 = load i64, i64* %7, align 8
  %9 = getelementptr inbounds %struct.State, %struct.State* %0, i64 0, i32 1, i64 0, i32 0, i32 0, i32 0, i64 0
  store i64 %8, i64* %9, align 1
  %10 = getelementptr inbounds %struct.State, %struct.State* %0, i64 0, i32 1, i64 0, i32 0, i32 0, i32 0, i64 1
  %11 = bitcast i64* %10 to double*
  store double 0.000000e+00, double* %11, align 1
  ret %struct.Memory* %2
}

; Function Attrs: norecurse nounwind
define %struct.Memory* @routine_callq_.Mode_Decision_for_new_8x8IntraBlocks(%struct.State* nocapture dereferenceable(3376), i64, %struct.Memory* readnone returned, i64 %rel_off1, i64 %rel_off2, i64 %rel_off3) local_unnamed_addr #2 {
block_400488:
  %PC = getelementptr inbounds %struct.State, %struct.State* %0, i64 0, i32 6, i32 33, i32 0, i32 0
  %3 = load i64, i64* %PC, align 8
  %4 = add i64 %3, %rel_off1
  %5 = add i64 %3, %rel_off2
  %6 = getelementptr inbounds %struct.State, %struct.State* %0, i64 0, i32 6, i32 13, i32 0, i32 0
  %7 = load i64, i64* %6, align 8
  %8 = add i64 %7, -8
  %9 = inttoptr i64 %8 to i64*
  store i64 %5, i64* %9, align 8
  store i64 %8, i64* %6, align 8
  store i64 %4, i64* %PC, align 8
  ret %struct.Memory* %2
}

; Function Attrs: nounwind
define %struct.Memory* @routine_cmpl__0x0___eax(%struct.State* nocapture dereferenceable(3376), i64, %struct.Memory* readnone returned) local_unnamed_addr #3 {
block_400488:
  %PC = getelementptr inbounds %struct.State, %struct.State* %0, i64 0, i32 6, i32 33, i32 0, i32 0
  %3 = getelementptr inbounds %struct.State, %struct.State* %0, i64 0, i32 6, i32 1, i32 0
  %EAX = bitcast %union.anon* %3 to i32*
  %4 = load i32, i32* %EAX, align 4
  %5 = load i64, i64* %PC, align 8
  %6 = add i64 %5, 3
  store i64 %6, i64* %PC, align 8
  %7 = getelementptr inbounds %struct.State, %struct.State* %0, i64 0, i32 2, i32 1
  store i8 0, i8* %7, align 1
  %8 = and i32 %4, 255
  %9 = tail call i32 @llvm.ctpop.i32(i32 %8)
  %10 = trunc i32 %9 to i8
  %11 = and i8 %10, 1
  %12 = xor i8 %11, 1
  %13 = getelementptr inbounds %struct.State, %struct.State* %0, i64 0, i32 2, i32 3
  store i8 %12, i8* %13, align 1
  %14 = getelementptr inbounds %struct.State, %struct.State* %0, i64 0, i32 2, i32 5
  store i8 0, i8* %14, align 1
  %15 = icmp eq i32 %4, 0
  %16 = zext i1 %15 to i8
  %17 = getelementptr inbounds %struct.State, %struct.State* %0, i64 0, i32 2, i32 7
  store i8 %16, i8* %17, align 1
  %18 = lshr i32 %4, 31
  %19 = trunc i32 %18 to i8
  %20 = getelementptr inbounds %struct.State, %struct.State* %0, i64 0, i32 2, i32 9
  store i8 %19, i8* %20, align 1
  %21 = getelementptr inbounds %struct.State, %struct.State* %0, i64 0, i32 2, i32 13
  store i8 0, i8* %21, align 1
  ret %struct.Memory* %2
}

; Function Attrs: norecurse nounwind
define %struct.Memory* @routine_je_.L_4a3fde(%struct.State* nocapture dereferenceable(3376), i64, %struct.Memory* readnone returned, i8* nocapture %BRANCH_TAKEN, i64 %rel_off1, i64 %rel_off2, i64 %rel_off3) local_unnamed_addr #2 {
block_400488:
  %PC = getelementptr inbounds %struct.State, %struct.State* %0, i64 0, i32 6, i32 33, i32 0, i32 0
  %3 = load i64, i64* %PC, align 8
  %4 = getelementptr inbounds %struct.State, %struct.State* %0, i64 0, i32 2, i32 7
  %5 = load i8, i8* %4, align 1
  store i8 %5, i8* %BRANCH_TAKEN, align 1
  %6 = icmp ne i8 %5, 0
  %.v = select i1 %6, i64 %rel_off1, i64 %rel_off2
  %7 = add i64 %.v, %3
  store i64 %7, i64* %PC, align 8
  ret %struct.Memory* %2
}

; Function Attrs: norecurse nounwind
define %struct.Memory* @routine_movl__0x1___eax(%struct.State* nocapture dereferenceable(3376), i64, %struct.Memory* readnone returned) local_unnamed_addr #2 {
block_400488:
  %PC = getelementptr inbounds %struct.State, %struct.State* %0, i64 0, i32 6, i32 33, i32 0, i32 0
  %RAX = getelementptr inbounds %struct.State, %struct.State* %0, i64 0, i32 6, i32 1, i32 0, i32 0
  %3 = load i64, i64* %PC, align 8
  %4 = add i64 %3, 5
  store i64 %4, i64* %PC, align 8
  store i64 1, i64* %RAX, align 8
  ret %struct.Memory* %2
}

; Function Attrs: norecurse nounwind
define %struct.Memory* @routine_movl_MINUS0x18__rbp____ecx(%struct.State* nocapture dereferenceable(3376), i64, %struct.Memory* readnone returned) local_unnamed_addr #2 {
block_400488:
  %PC = getelementptr inbounds %struct.State, %struct.State* %0, i64 0, i32 6, i32 33, i32 0, i32 0
  %RCX = getelementptr inbounds %struct.State, %struct.State* %0, i64 0, i32 6, i32 5, i32 0, i32 0
  %RBP = getelementptr inbounds %struct.State, %struct.State* %0, i64 0, i32 6, i32 15, i32 0, i32 0
  %3 = load i64, i64* %RBP, align 8
  %4 = add i64 %3, -24
  %5 = load i64, i64* %PC, align 8
  %6 = add i64 %5, 3
  store i64 %6, i64* %PC, align 8
  %7 = inttoptr i64 %4 to i32*
  %8 = load i32, i32* %7, align 4
  %9 = zext i32 %8 to i64
  store i64 %9, i64* %RCX, align 8
  ret %struct.Memory* %2
}

; Function Attrs: nounwind
define %struct.Memory* @routine_shll__cl___eax(%struct.State* nocapture dereferenceable(3376), i64, %struct.Memory* readnone returned) local_unnamed_addr #3 {
block_400488:
  %PC = getelementptr inbounds %struct.State, %struct.State* %0, i64 0, i32 6, i32 33, i32 0, i32 0
  %3 = getelementptr inbounds %struct.State, %struct.State* %0, i64 0, i32 6, i32 5, i32 0
  %CL = bitcast %union.anon* %3 to i8*
  %RAX = getelementptr inbounds %struct.State, %struct.State* %0, i64 0, i32 6, i32 1, i32 0, i32 0
  %4 = load i64, i64* %RAX, align 8
  %5 = load i8, i8* %CL, align 1
  %6 = load i64, i64* %PC, align 8
  %7 = add i64 %6, 2
  store i64 %7, i64* %PC, align 8
  %8 = trunc i8 %5 to i5
  switch i5 %8, label %15 [
    i5 0, label %_ZN12_GLOBAL__N_1L3SHLI3RnWImE2RnIjES4_EEP6MemoryS6_R5StateT_T0_T1_.exit
    i5 1, label %9
  ]

; <label>:9:                                      ; preds = %block_400488
  %10 = trunc i64 %4 to i32
  %11 = shl i32 %10, 1
  %12 = icmp slt i32 %10, 0
  %13 = icmp slt i32 %11, 0
  %14 = xor i1 %12, %13
  br label %25

; <label>:15:                                     ; preds = %block_400488
  %16 = and i8 %5, 31
  %17 = zext i8 %16 to i64
  %18 = add nuw nsw i64 %17, 4294967295
  %19 = and i64 %4, 4294967295
  %20 = and i64 %18, 4294967295
  %21 = shl i64 %19, %20
  %22 = trunc i64 %21 to i32
  %23 = icmp slt i32 %22, 0
  %24 = shl i32 %22, 1
  br label %25

; <label>:25:                                     ; preds = %15, %9
  %26 = phi i1 [ %12, %9 ], [ %23, %15 ]
  %27 = phi i1 [ %14, %9 ], [ false, %15 ]
  %28 = phi i32 [ %11, %9 ], [ %24, %15 ]
  %29 = zext i32 %28 to i64
  store i64 %29, i64* %RAX, align 8
  %30 = getelementptr inbounds %struct.State, %struct.State* %0, i64 0, i32 2, i32 1
  %31 = zext i1 %26 to i8
  store i8 %31, i8* %30, align 1
  %32 = getelementptr inbounds %struct.State, %struct.State* %0, i64 0, i32 2, i32 3
  %33 = and i32 %28, 254
  %34 = tail call i32 @llvm.ctpop.i32(i32 %33)
  %35 = trunc i32 %34 to i8
  %36 = and i8 %35, 1
  %37 = xor i8 %36, 1
  store i8 %37, i8* %32, align 1
  %38 = getelementptr inbounds %struct.State, %struct.State* %0, i64 0, i32 2, i32 5
  store i8 0, i8* %38, align 1
  %39 = getelementptr inbounds %struct.State, %struct.State* %0, i64 0, i32 2, i32 7
  %40 = icmp eq i32 %28, 0
  %41 = zext i1 %40 to i8
  store i8 %41, i8* %39, align 1
  %42 = getelementptr inbounds %struct.State, %struct.State* %0, i64 0, i32 2, i32 9
  %43 = lshr i32 %28, 31
  %44 = trunc i32 %43 to i8
  store i8 %44, i8* %42, align 1
  %45 = getelementptr inbounds %struct.State, %struct.State* %0, i64 0, i32 2, i32 13
  %46 = zext i1 %27 to i8
  store i8 %46, i8* %45, align 1
  br label %_ZN12_GLOBAL__N_1L3SHLI3RnWImE2RnIjES4_EEP6MemoryS6_R5StateT_T0_T1_.exit

_ZN12_GLOBAL__N_1L3SHLI3RnWImE2RnIjES4_EEP6MemoryS6_R5StateT_T0_T1_.exit: ; preds = %25, %block_400488
  ret %struct.Memory* %2
}

; Function Attrs: nounwind
define %struct.Memory* @routine_orl_MINUS0x14__rbp____eax(%struct.State* nocapture dereferenceable(3376), i64, %struct.Memory* readnone returned) local_unnamed_addr #3 {
block_400488:
  %PC = getelementptr inbounds %struct.State, %struct.State* %0, i64 0, i32 6, i32 33, i32 0, i32 0
  %RAX = getelementptr inbounds %struct.State, %struct.State* %0, i64 0, i32 6, i32 1, i32 0, i32 0
  %RBP = getelementptr inbounds %struct.State, %struct.State* %0, i64 0, i32 6, i32 15, i32 0, i32 0
  %3 = load i64, i64* %RAX, align 8
  %4 = load i64, i64* %RBP, align 8
  %5 = add i64 %4, -20
  %6 = load i64, i64* %PC, align 8
  %7 = add i64 %6, 3
  store i64 %7, i64* %PC, align 8
  %8 = trunc i64 %3 to i32
  %9 = inttoptr i64 %5 to i32*
  %10 = load i32, i32* %9, align 4
  %11 = or i32 %10, %8
  %12 = zext i32 %11 to i64
  store i64 %12, i64* %RAX, align 8
  %13 = getelementptr inbounds %struct.State, %struct.State* %0, i64 0, i32 2, i32 1
  store i8 0, i8* %13, align 1
  %14 = and i32 %11, 255
  %15 = tail call i32 @llvm.ctpop.i32(i32 %14)
  %16 = trunc i32 %15 to i8
  %17 = and i8 %16, 1
  %18 = xor i8 %17, 1
  %19 = getelementptr inbounds %struct.State, %struct.State* %0, i64 0, i32 2, i32 3
  store i8 %18, i8* %19, align 1
  %20 = icmp eq i32 %11, 0
  %21 = zext i1 %20 to i8
  %22 = getelementptr inbounds %struct.State, %struct.State* %0, i64 0, i32 2, i32 7
  store i8 %21, i8* %22, align 1
  %23 = lshr i32 %11, 31
  %24 = trunc i32 %23 to i8
  %25 = getelementptr inbounds %struct.State, %struct.State* %0, i64 0, i32 2, i32 9
  store i8 %24, i8* %25, align 1
  %26 = getelementptr inbounds %struct.State, %struct.State* %0, i64 0, i32 2, i32 13
  store i8 0, i8* %26, align 1
  %27 = getelementptr inbounds %struct.State, %struct.State* %0, i64 0, i32 2, i32 5
  store i8 0, i8* %27, align 1
  ret %struct.Memory* %2
}

; Function Attrs: norecurse nounwind
define %struct.Memory* @routine_movl__eax__MINUS0x14__rbp_(%struct.State* nocapture dereferenceable(3376), i64, %struct.Memory* readnone returned) local_unnamed_addr #2 {
block_400488:
  %PC = getelementptr inbounds %struct.State, %struct.State* %0, i64 0, i32 6, i32 33, i32 0, i32 0
  %3 = getelementptr inbounds %struct.State, %struct.State* %0, i64 0, i32 6, i32 1, i32 0
  %EAX = bitcast %union.anon* %3 to i32*
  %RBP = getelementptr inbounds %struct.State, %struct.State* %0, i64 0, i32 6, i32 15, i32 0, i32 0
  %4 = load i64, i64* %RBP, align 8
  %5 = add i64 %4, -20
  %6 = load i32, i32* %EAX, align 4
  %7 = load i64, i64* %PC, align 8
  %8 = add i64 %7, 3
  store i64 %8, i64* %PC, align 8
  %9 = inttoptr i64 %5 to i32*
  store i32 %6, i32* %9, align 4
  ret %struct.Memory* %2
}

; Function Attrs: norecurse nounwind
define %struct.Memory* @routine_movl_MINUS0x1c__rbp____eax(%struct.State* nocapture dereferenceable(3376), i64, %struct.Memory* readnone returned) local_unnamed_addr #2 {
block_400488:
  %PC = getelementptr inbounds %struct.State, %struct.State* %0, i64 0, i32 6, i32 33, i32 0, i32 0
  %RAX = getelementptr inbounds %struct.State, %struct.State* %0, i64 0, i32 6, i32 1, i32 0, i32 0
  %RBP = getelementptr inbounds %struct.State, %struct.State* %0, i64 0, i32 6, i32 15, i32 0, i32 0
  %3 = load i64, i64* %RBP, align 8
  %4 = add i64 %3, -28
  %5 = load i64, i64* %PC, align 8
  %6 = add i64 %5, 3
  store i64 %6, i64* %PC, align 8
  %7 = inttoptr i64 %4 to i32*
  %8 = load i32, i32* %7, align 4
  %9 = zext i32 %8 to i64
  store i64 %9, i64* %RAX, align 8
  ret %struct.Memory* %2
}

; Function Attrs: norecurse nounwind
define %struct.Memory* @routine_movq_MINUS0x10__rbp____rcx(%struct.State* nocapture dereferenceable(3376), i64, %struct.Memory* readnone returned) local_unnamed_addr #2 {
block_400488:
  %PC = getelementptr inbounds %struct.State, %struct.State* %0, i64 0, i32 6, i32 33, i32 0, i32 0
  %RCX = getelementptr inbounds %struct.State, %struct.State* %0, i64 0, i32 6, i32 5, i32 0, i32 0
  %RBP = getelementptr inbounds %struct.State, %struct.State* %0, i64 0, i32 6, i32 15, i32 0, i32 0
  %3 = load i64, i64* %RBP, align 8
  %4 = add i64 %3, -16
  %5 = load i64, i64* %PC, align 8
  %6 = add i64 %5, 4
  store i64 %6, i64* %PC, align 8
  %7 = inttoptr i64 %4 to i64*
  %8 = load i64, i64* %7, align 8
  store i64 %8, i64* %RCX, align 8
  ret %struct.Memory* %2
}

; Function Attrs: nounwind
define %struct.Memory* @routine_addl___rcx____eax(%struct.State* nocapture dereferenceable(3376), i64, %struct.Memory* readnone returned) local_unnamed_addr #3 {
block_400488:
  %PC = getelementptr inbounds %struct.State, %struct.State* %0, i64 0, i32 6, i32 33, i32 0, i32 0
  %RAX = getelementptr inbounds %struct.State, %struct.State* %0, i64 0, i32 6, i32 1, i32 0, i32 0
  %RCX = getelementptr inbounds %struct.State, %struct.State* %0, i64 0, i32 6, i32 5, i32 0, i32 0
  %3 = load i64, i64* %RAX, align 8
  %4 = bitcast i64* %RCX to i32**
  %5 = load i32*, i32** %4, align 8
  %6 = load i64, i64* %PC, align 8
  %7 = add i64 %6, 2
  store i64 %7, i64* %PC, align 8
  %8 = trunc i64 %3 to i32
  %9 = load i32, i32* %5, align 4
  %10 = add i32 %9, %8
  %11 = zext i32 %10 to i64
  store i64 %11, i64* %RAX, align 8
  %12 = icmp ult i32 %10, %8
  %13 = icmp ult i32 %10, %9
  %14 = or i1 %12, %13
  %15 = zext i1 %14 to i8
  %16 = getelementptr inbounds %struct.State, %struct.State* %0, i64 0, i32 2, i32 1
  store i8 %15, i8* %16, align 1
  %17 = and i32 %10, 255
  %18 = tail call i32 @llvm.ctpop.i32(i32 %17)
  %19 = trunc i32 %18 to i8
  %20 = and i8 %19, 1
  %21 = xor i8 %20, 1
  %22 = getelementptr inbounds %struct.State, %struct.State* %0, i64 0, i32 2, i32 3
  store i8 %21, i8* %22, align 1
  %23 = xor i32 %9, %8
  %24 = xor i32 %23, %10
  %25 = lshr i32 %24, 4
  %26 = trunc i32 %25 to i8
  %27 = and i8 %26, 1
  %28 = getelementptr inbounds %struct.State, %struct.State* %0, i64 0, i32 2, i32 5
  store i8 %27, i8* %28, align 1
  %29 = icmp eq i32 %10, 0
  %30 = zext i1 %29 to i8
  %31 = getelementptr inbounds %struct.State, %struct.State* %0, i64 0, i32 2, i32 7
  store i8 %30, i8* %31, align 1
  %32 = lshr i32 %10, 31
  %33 = trunc i32 %32 to i8
  %34 = getelementptr inbounds %struct.State, %struct.State* %0, i64 0, i32 2, i32 9
  store i8 %33, i8* %34, align 1
  %35 = lshr i32 %8, 31
  %36 = lshr i32 %9, 31
  %37 = xor i32 %32, %35
  %38 = xor i32 %32, %36
  %39 = add nuw nsw i32 %37, %38
  %40 = icmp eq i32 %39, 2
  %41 = zext i1 %40 to i8
  %42 = getelementptr inbounds %struct.State, %struct.State* %0, i64 0, i32 2, i32 13
  store i8 %41, i8* %42, align 1
  ret %struct.Memory* %2
}

; Function Attrs: norecurse nounwind
define %struct.Memory* @routine_movl__eax____rcx_(%struct.State* nocapture dereferenceable(3376), i64, %struct.Memory* readnone returned) local_unnamed_addr #2 {
block_400488:
  %PC = getelementptr inbounds %struct.State, %struct.State* %0, i64 0, i32 6, i32 33, i32 0, i32 0
  %3 = getelementptr inbounds %struct.State, %struct.State* %0, i64 0, i32 6, i32 1, i32 0
  %EAX = bitcast %union.anon* %3 to i32*
  %RCX = getelementptr inbounds %struct.State, %struct.State* %0, i64 0, i32 6, i32 5, i32 0, i32 0
  %4 = bitcast i64* %RCX to i32**
  %5 = load i32*, i32** %4, align 8
  %6 = load i32, i32* %EAX, align 4
  %7 = load i64, i64* %PC, align 8
  %8 = add i64 %7, 2
  store i64 %8, i64* %PC, align 8
  store i32 %6, i32* %5, align 4
  ret %struct.Memory* %2
}

; Function Attrs: norecurse nounwind
define %struct.Memory* @routine_movl_MINUS0x18__rbp____eax(%struct.State* nocapture dereferenceable(3376), i64, %struct.Memory* readnone returned) local_unnamed_addr #2 {
block_400488:
  %PC = getelementptr inbounds %struct.State, %struct.State* %0, i64 0, i32 6, i32 33, i32 0, i32 0
  %RAX = getelementptr inbounds %struct.State, %struct.State* %0, i64 0, i32 6, i32 1, i32 0, i32 0
  %RBP = getelementptr inbounds %struct.State, %struct.State* %0, i64 0, i32 6, i32 15, i32 0, i32 0
  %3 = load i64, i64* %RBP, align 8
  %4 = add i64 %3, -24
  %5 = load i64, i64* %PC, align 8
  %6 = add i64 %5, 3
  store i64 %6, i64* %PC, align 8
  %7 = inttoptr i64 %4 to i32*
  %8 = load i32, i32* %7, align 4
  %9 = zext i32 %8 to i64
  store i64 %9, i64* %RAX, align 8
  ret %struct.Memory* %2
}

; Function Attrs: nounwind
define %struct.Memory* @routine_addl__0x1___eax(%struct.State* nocapture dereferenceable(3376), i64, %struct.Memory* readnone returned) local_unnamed_addr #3 {
block_400488:
  %PC = getelementptr inbounds %struct.State, %struct.State* %0, i64 0, i32 6, i32 33, i32 0, i32 0
  %RAX = getelementptr inbounds %struct.State, %struct.State* %0, i64 0, i32 6, i32 1, i32 0, i32 0
  %3 = load i64, i64* %RAX, align 8
  %4 = load i64, i64* %PC, align 8
  %5 = add i64 %4, 3
  store i64 %5, i64* %PC, align 8
  %6 = trunc i64 %3 to i32
  %7 = add i32 %6, 1
  %8 = zext i32 %7 to i64
  store i64 %8, i64* %RAX, align 8
  %9 = icmp eq i32 %6, -1
  %10 = icmp eq i32 %7, 0
  %11 = or i1 %9, %10
  %12 = zext i1 %11 to i8
  %13 = getelementptr inbounds %struct.State, %struct.State* %0, i64 0, i32 2, i32 1
  store i8 %12, i8* %13, align 1
  %14 = and i32 %7, 255
  %15 = tail call i32 @llvm.ctpop.i32(i32 %14)
  %16 = trunc i32 %15 to i8
  %17 = and i8 %16, 1
  %18 = xor i8 %17, 1
  %19 = getelementptr inbounds %struct.State, %struct.State* %0, i64 0, i32 2, i32 3
  store i8 %18, i8* %19, align 1
  %20 = xor i32 %7, %6
  %21 = lshr i32 %20, 4
  %22 = trunc i32 %21 to i8
  %23 = and i8 %22, 1
  %24 = getelementptr inbounds %struct.State, %struct.State* %0, i64 0, i32 2, i32 5
  store i8 %23, i8* %24, align 1
  %25 = zext i1 %10 to i8
  %26 = getelementptr inbounds %struct.State, %struct.State* %0, i64 0, i32 2, i32 7
  store i8 %25, i8* %26, align 1
  %27 = lshr i32 %7, 31
  %28 = trunc i32 %27 to i8
  %29 = getelementptr inbounds %struct.State, %struct.State* %0, i64 0, i32 2, i32 9
  store i8 %28, i8* %29, align 1
  %30 = lshr i32 %6, 31
  %31 = xor i32 %27, %30
  %32 = add nuw nsw i32 %31, %27
  %33 = icmp eq i32 %32, 2
  %34 = zext i1 %33 to i8
  %35 = getelementptr inbounds %struct.State, %struct.State* %0, i64 0, i32 2, i32 13
  store i8 %34, i8* %35, align 1
  ret %struct.Memory* %2
}

; Function Attrs: norecurse nounwind
define %struct.Memory* @routine_movl__eax__MINUS0x18__rbp_(%struct.State* nocapture dereferenceable(3376), i64, %struct.Memory* readnone returned) local_unnamed_addr #2 {
block_400488:
  %PC = getelementptr inbounds %struct.State, %struct.State* %0, i64 0, i32 6, i32 33, i32 0, i32 0
  %3 = getelementptr inbounds %struct.State, %struct.State* %0, i64 0, i32 6, i32 1, i32 0
  %EAX = bitcast %union.anon* %3 to i32*
  %RBP = getelementptr inbounds %struct.State, %struct.State* %0, i64 0, i32 6, i32 15, i32 0, i32 0
  %4 = load i64, i64* %RBP, align 8
  %5 = add i64 %4, -24
  %6 = load i32, i32* %EAX, align 4
  %7 = load i64, i64* %PC, align 8
  %8 = add i64 %7, 3
  store i64 %8, i64* %PC, align 8
  %9 = inttoptr i64 %5 to i32*
  store i32 %6, i32* %9, align 4
  ret %struct.Memory* %2
}

; Function Attrs: norecurse nounwind
define %struct.Memory* @routine_jmpq_.L_4a3faa(%struct.State* nocapture dereferenceable(3376), i64, %struct.Memory* readnone returned, i64 %rel_off1, i64 %rel_off2) local_unnamed_addr #2 {
block_400488:
  %PC = getelementptr inbounds %struct.State, %struct.State* %0, i64 0, i32 6, i32 33, i32 0, i32 0
  %3 = load i64, i64* %PC, align 8
  %4 = add i64 %3, %rel_off1
  store i64 %4, i64* %PC, align 8
  ret %struct.Memory* %2
}

; Function Attrs: norecurse nounwind
define %struct.Memory* @routine_movl_MINUS0x14__rbp____eax(%struct.State* nocapture dereferenceable(3376), i64, %struct.Memory* readnone returned) local_unnamed_addr #2 {
block_400488:
  %PC = getelementptr inbounds %struct.State, %struct.State* %0, i64 0, i32 6, i32 33, i32 0, i32 0
  %RAX = getelementptr inbounds %struct.State, %struct.State* %0, i64 0, i32 6, i32 1, i32 0, i32 0
  %RBP = getelementptr inbounds %struct.State, %struct.State* %0, i64 0, i32 6, i32 15, i32 0, i32 0
  %3 = load i64, i64* %RBP, align 8
  %4 = add i64 %3, -20
  %5 = load i64, i64* %PC, align 8
  %6 = add i64 %5, 3
  store i64 %6, i64* %PC, align 8
  %7 = inttoptr i64 %4 to i32*
  %8 = load i32, i32* %7, align 4
  %9 = zext i32 %8 to i64
  store i64 %9, i64* %RAX, align 8
  ret %struct.Memory* %2
}

; Function Attrs: nounwind
define %struct.Memory* @routine_addq__0x20___rsp(%struct.State* nocapture dereferenceable(3376), i64, %struct.Memory* readnone returned) local_unnamed_addr #3 {
block_400488:
  %PC = getelementptr inbounds %struct.State, %struct.State* %0, i64 0, i32 6, i32 33, i32 0, i32 0
  %RSP = getelementptr inbounds %struct.State, %struct.State* %0, i64 0, i32 6, i32 13, i32 0, i32 0
  %3 = load i64, i64* %RSP, align 8
  %4 = load i64, i64* %PC, align 8
  %5 = add i64 %4, 4
  store i64 %5, i64* %PC, align 8
  %6 = add i64 %3, 32
  store i64 %6, i64* %RSP, align 8
  %7 = icmp ugt i64 %3, -33
  %8 = zext i1 %7 to i8
  %9 = getelementptr inbounds %struct.State, %struct.State* %0, i64 0, i32 2, i32 1
  store i8 %8, i8* %9, align 1
  %10 = trunc i64 %6 to i32
  %11 = and i32 %10, 255
  %12 = tail call i32 @llvm.ctpop.i32(i32 %11)
  %13 = trunc i32 %12 to i8
  %14 = and i8 %13, 1
  %15 = xor i8 %14, 1
  %16 = getelementptr inbounds %struct.State, %struct.State* %0, i64 0, i32 2, i32 3
  store i8 %15, i8* %16, align 1
  %17 = xor i64 %6, %3
  %18 = lshr i64 %17, 4
  %19 = trunc i64 %18 to i8
  %20 = and i8 %19, 1
  %21 = getelementptr inbounds %struct.State, %struct.State* %0, i64 0, i32 2, i32 5
  store i8 %20, i8* %21, align 1
  %22 = icmp eq i64 %6, 0
  %23 = zext i1 %22 to i8
  %24 = getelementptr inbounds %struct.State, %struct.State* %0, i64 0, i32 2, i32 7
  store i8 %23, i8* %24, align 1
  %25 = lshr i64 %6, 63
  %26 = trunc i64 %25 to i8
  %27 = getelementptr inbounds %struct.State, %struct.State* %0, i64 0, i32 2, i32 9
  store i8 %26, i8* %27, align 1
  %28 = lshr i64 %3, 63
  %29 = xor i64 %25, %28
  %30 = add nuw nsw i64 %29, %25
  %31 = icmp eq i64 %30, 2
  %32 = zext i1 %31 to i8
  %33 = getelementptr inbounds %struct.State, %struct.State* %0, i64 0, i32 2, i32 13
  store i8 %32, i8* %33, align 1
  ret %struct.Memory* %2
}

; Function Attrs: norecurse nounwind
define %struct.Memory* @routine_popq__rbp(%struct.State* nocapture dereferenceable(3376), i64, %struct.Memory* readnone returned) local_unnamed_addr #2 {
block_400488:
  %PC = getelementptr inbounds %struct.State, %struct.State* %0, i64 0, i32 6, i32 33, i32 0, i32 0
  %RBP = getelementptr inbounds %struct.State, %struct.State* %0, i64 0, i32 6, i32 15, i32 0, i32 0
  %3 = load i64, i64* %PC, align 8
  %4 = add i64 %3, 1
  store i64 %4, i64* %PC, align 8
  %5 = getelementptr inbounds %struct.State, %struct.State* %0, i64 0, i32 6, i32 13, i32 0, i32 0
  %6 = load i64, i64* %5, align 8
  %7 = add i64 %6, 8
  %8 = inttoptr i64 %6 to i64*
  %9 = load i64, i64* %8, align 8
  store i64 %9, i64* %RBP, align 8
  store i64 %7, i64* %5, align 8
  ret %struct.Memory* %2
}

; Function Attrs: norecurse nounwind
define %struct.Memory* @routine_retq(%struct.State* nocapture dereferenceable(3376), i64, %struct.Memory* readnone returned) local_unnamed_addr #2 {
block_400488:
  %PC = getelementptr inbounds %struct.State, %struct.State* %0, i64 0, i32 6, i32 33, i32 0, i32 0
  %3 = load i64, i64* %PC, align 8
  %4 = add i64 %3, 1
  store i64 %4, i64* %PC, align 8
  %5 = getelementptr inbounds %struct.State, %struct.State* %0, i64 0, i32 6, i32 13, i32 0, i32 0
  %6 = load i64, i64* %5, align 8
  %7 = inttoptr i64 %6 to i64*
  %8 = load i64, i64* %7, align 8
  store i64 %8, i64* %PC, align 8
  %9 = add i64 %6, 8
  store i64 %9, i64* %5, align 8
  ret %struct.Memory* %2
}

attributes #0 = { nounwind readnone }
attributes #1 = { alwaysinline }
attributes #2 = { norecurse nounwind }
attributes #3 = { nounwind }
