; ModuleID = 'mcsema/test.proposed.ll'
source_filename = "llvm-link"
target datalayout = "e-m:e-i64:64-f80:128-n8:16:32:64-S128"
target triple = "x86_64-pc-linux-gnu-elf"

%union.anon = type { i64 }
%seg_400388__init_type = type <{ [23 x i8] }>
%seg_4003a0__text_type = type <{ [354 x i8] }>
%seg_400504__fini_type = type <{ [9 x i8] }>
%seg_400510__rodata_type = type <{ [4 x i8] }>
%seg_400514__eh_frame_hdr_type = type <{ [52 x i8] }>
%seg_400548__eh_frame_type = type <{ [208 x i8] }>
%seg_601018__data_type = type <{ [16 x i8] }>
%__bss_start_type = type <{ [8 x i8] }>
%seg_400514__fini_type = type <{ [9 x i8] }>
%seg_400520__rodata_type = type <{ [4 x i8] }>
%seg_400524__eh_frame_hdr_type = type <{ [52 x i8] }>
%seg_400558__eh_frame_type = type <{ [208 x i8] }>
%G_0x6cb8f8_type = type <{ [8 x i8] }>
%G_0x6cc028_type = type <{ [4 x i8] }>
%struct.State = type { %struct.ArchState, [32 x %union.VectorReg], %struct.ArithFlags, %union.anon, %struct.Segments, %struct.AddressSpace, %struct.GPR, %struct.X87Stack, %struct.MMX, %struct.FPUStatusFlags, %union.anon, %union.FPU, %struct.SegmentCaches }
%struct.ArchState = type { i32, i32, %union.anon }
%union.VectorReg = type { %union.vec512_t }
%union.vec512_t = type { %struct.uint64v8_t }
%struct.uint64v8_t = type { [8 x i64] }
%struct.ArithFlags = type { i8, i8, i8, i8, i8, i8, i8, i8, i8, i8, i8, i8, i8, i8, i8, i8 }
%struct.Segments = type { i16, %union.SegmentSelector, i16, %union.SegmentSelector, i16, %union.SegmentSelector, i16, %union.SegmentSelector, i16, %union.SegmentSelector, i16, %union.SegmentSelector }
%union.SegmentSelector = type { i16 }
%struct.AddressSpace = type { i64, %struct.Reg, i64, %struct.Reg, i64, %struct.Reg, i64, %struct.Reg, i64, %struct.Reg, i64, %struct.Reg }
%struct.Reg = type { %union.anon }
%struct.GPR = type { i64, %struct.Reg, i64, %struct.Reg, i64, %struct.Reg, i64, %struct.Reg, i64, %struct.Reg, i64, %struct.Reg, i64, %struct.Reg, i64, %struct.Reg, i64, %struct.Reg, i64, %struct.Reg, i64, %struct.Reg, i64, %struct.Reg, i64, %struct.Reg, i64, %struct.Reg, i64, %struct.Reg, i64, %struct.Reg, i64, %struct.Reg }
%struct.X87Stack = type { [8 x %struct.anon.3] }
%struct.anon.3 = type { i64, double }
%struct.MMX = type { [8 x %struct.anon.4] }
%struct.anon.4 = type { i64, %union.vec64_t }
%union.vec64_t = type { %struct.uint64v1_t }
%struct.uint64v1_t = type { [1 x i64] }
%struct.FPUStatusFlags = type { i8, i8, i8, i8, i8, i8, i8, i8, i8, i8, i8, i8, i8, i8, i8, i8, i8, i8, i8, i8, [4 x i8] }
%union.FPU = type { %struct.anon.13 }
%struct.anon.13 = type { %struct.FpuFXSAVE, [96 x i8] }
%struct.FpuFXSAVE = type { %union.SegmentSelector, %union.SegmentSelector, %union.FPUAbridgedTagWord, i8, i16, i32, %union.SegmentSelector, i16, i32, %union.SegmentSelector, i16, %union.FPUControlStatus, %union.FPUControlStatus, [8 x %struct.FPUStackElem], [16 x %union.vec128_t] }
%union.FPUAbridgedTagWord = type { i8 }
%union.FPUControlStatus = type { i32 }
%struct.FPUStackElem = type { %union.anon.11, [6 x i8] }
%union.anon.11 = type { %struct.float80_t }
%struct.float80_t = type { [10 x i8] }
%union.vec128_t = type { %struct.uint128v1_t }
%struct.uint128v1_t = type { [1 x i128] }
%struct.SegmentCaches = type { %struct.SegmentShadow, %struct.SegmentShadow, %struct.SegmentShadow, %struct.SegmentShadow, %struct.SegmentShadow, %struct.SegmentShadow }
%struct.SegmentShadow = type { %union.anon, i32, i32 }
%struct.Memory = type opaque

@switch.table = private unnamed_addr constant [4 x i32] [i32 2048, i32 3072, i32 0, i32 1024]
@DR0 = external global i64, align 8
@DR1 = external global i64, align 8
@DR2 = external global i64, align 8
@DR3 = external global i64, align 8
@DR4 = external global i64, align 8
@DR5 = external global i64, align 8
@DR6 = external global i64, align 8
@DR7 = external global i64, align 8
@gCR0 = external global %union.anon, align 1
@gCR1 = external global %union.anon, align 1
@gCR2 = external global %union.anon, align 1
@gCR3 = external global %union.anon, align 1
@gCR4 = external global %union.anon, align 1
@gCR8 = external global %union.anon, align 1
@seg_400388__init = internal constant %seg_400388__init_type <{ [23 x i8] c"H\83\EC\08H\8B\05e\0C \00H\85\C0t\02\FF\D0H\83\C4\08\C3" }>
@seg_4003a0__text = internal constant %seg_4003a0__text_type <{ [354 x i8] c"1\EDI\89\D1^H\89\E2H\83\E4\F0PTI\C7\C0\00\05@\00H\C7\C1\90\04@\00H\C7\C7\88\04@\00\FF\15&\0C \00\F4\0F\1FD\00\00\F3\C3f.\0F\1F\84\00\00\00\00\00\0F\1F@\00U\B8(\10`\00H=(\10`\00H\89\E5t\17\B8\00\00\00\00H\85\C0t\0D]\BF(\10`\00\FF\E0\0F\1FD\00\00]\C3f\0F\1FD\00\00\BE(\10`\00UH\81\EE(\10`\00H\89\E5H\C1\FE\03H\89\F0H\C1\E8?H\01\C6H\D1\FEt\15\B8\00\00\00\00H\85\C0t\0B]\BF(\10`\00\FF\E0\0F\1F\00]\C3f\0F\1FD\00\00\80=\D1\0B \00\00u\17UH\89\E5\E8~\FF\FF\FF\C6\05\BF\0B \00\01]\C3\0F\1FD\00\00\F3\C3\0F\1F@\00f.\0F\1F\84\00\00\00\00\00UH\89\E5]\EB\89\90U\C3f\0F\1FD\00\00AWAVI\89\D7AUATL\8D%\9E\09 \00UH\8D-\9E\09 \00SA\89\FDI\89\F6L)\E5H\83\EC\08H\C1\FD\03\E8\C7\FE\FF\FFH\85\EDt 1\DB\0F\1F\84\00\00\00\00\00L\89\FAL\89\F6D\89\EFA\FF\14\DCH\83\C3\01H9\DDu\EAH\83\C4\08[]A\5CA]A^A_\C3\90f.\0F\1F\84\00\00\00\00\00\F3\C3" }>
@seg_400504__fini = internal constant %seg_400504__fini_type <{ [9 x i8] c"H\83\EC\08H\83\C4\08\C3" }>
@seg_400510__rodata = internal constant %seg_400510__rodata_type <{ [4 x i8] c"\01\00\02\00" }>
@seg_400514__eh_frame_hdr = internal constant %seg_400514__eh_frame_hdr_type <{ [52 x i8] c"\01\1B\03;0\00\00\00\05\00\00\00\8C\FE\FF\FFL\00\00\00\BC\FE\FF\FFx\00\00\00t\FF\FF\FF\8C\00\00\00|\FF\FF\FF\A4\00\00\00\EC\FF\FF\FF\EC\00\00\00" }>
@seg_400548__eh_frame = internal constant %seg_400548__eh_frame_type <{ [208 x i8] c"\14\00\00\00\00\00\00\00\01zR\00\01x\10\01\1B\0C\07\08\90\01\07\10\10\00\00\00\1C\00\00\008\FE\FF\FF+\00\00\00\00\00\00\00\14\00\00\00\00\00\00\00\01zR\00\01x\10\01\1B\0C\07\08\90\01\00\00\10\00\00\00\1C\00\00\00<\FE\FF\FF\02\00\00\00\00\00\00\00\14\00\00\000\00\00\00\E0\FE\FF\FF\02\00\00\00\00\00\00\00\00\00\00\00D\00\00\00H\00\00\00\D0\FE\FF\FFe\00\00\00\00B\0E\10\8F\02B\0E\18\8E\03E\0E \8D\04B\0E(\8C\05H\0E0\86\06H\0E8\83\07M\0E@r\0E8A\0E0A\0E(B\0E B\0E\18B\0E\10B\0E\08\00\10\00\00\00\90\00\00\00\F8\FE\FF\FF\02\00\00\00\00\00\00\00\00\00\00\00" }>
@seg_601018__data = internal global %seg_601018__data_type zeroinitializer
@__bss_start = global %__bss_start_type zeroinitializer
@0 = internal global i1 false
@seg_400514__fini = internal constant %seg_400514__fini_type <{ [9 x i8] c"H\83\EC\08H\83\C4\08\C3" }>
@seg_400520__rodata = internal constant %seg_400520__rodata_type <{ [4 x i8] c"\01\00\02\00" }>
@seg_400524__eh_frame_hdr = internal constant %seg_400524__eh_frame_hdr_type <{ [52 x i8] c"\01\1B\03;0\00\00\00\05\00\00\00|\FE\FF\FFL\00\00\00\AC\FE\FF\FFx\00\00\00d\FF\FF\FF\8C\00\00\00|\FF\FF\FF\A4\00\00\00\EC\FF\FF\FF\EC\00\00\00" }>
@seg_400558__eh_frame = internal constant %seg_400558__eh_frame_type <{ [208 x i8] c"\14\00\00\00\00\00\00\00\01zR\00\01x\10\01\1B\0C\07\08\90\01\07\10\10\00\00\00\1C\00\00\00(\FE\FF\FF+\00\00\00\00\00\00\00\14\00\00\00\00\00\00\00\01zR\00\01x\10\01\1B\0C\07\08\90\01\00\00\10\00\00\00\1C\00\00\00,\FE\FF\FF\02\00\00\00\00\00\00\00\14\00\00\000\00\00\00\D0\FE\FF\FF\09\00\00\00\00\00\00\00\00\00\00\00D\00\00\00H\00\00\00\D0\FE\FF\FFe\00\00\00\00B\0E\10\8F\02B\0E\18\8E\03E\0E \8D\04B\0E(\8C\05H\0E0\86\06H\0E8\83\07M\0E@r\0E8A\0E0A\0E(B\0E B\0E\18B\0E\10B\0E\08\00\10\00\00\00\90\00\00\00\F8\FE\FF\FF\02\00\00\00\00\00\00\00\00\00\00\00" }>
@G_0x6cb8f8 = global %G_0x6cb8f8_type zeroinitializer
@G_0x6cc028 = global %G_0x6cc028_type zeroinitializer

declare %struct.Memory* @__remill_error(%struct.State* dereferenceable(3376), i64, %struct.Memory*)

declare i32 @__remill_fpu_exception_test_and_clear(i32, i32)

; Function Attrs: argmemonly nounwind
declare void @llvm.lifetime.start(i64, i8* nocapture) #0

; Function Attrs: argmemonly nounwind
declare void @llvm.lifetime.end(i64, i8* nocapture) #0

; Function Attrs: nounwind readnone
declare i32 @llvm.ctpop.i32(i32) #1

; Function Attrs: nounwind readnone
declare i32 @llvm.bswap.i32(i32) #1

; Function Attrs: nounwind readnone
declare i64 @llvm.bswap.i64(i64) #1

; Function Attrs: nounwind readnone
declare i32 @llvm.cttz.i32(i32, i1) #1

; Function Attrs: nounwind readnone
declare i64 @llvm.cttz.i64(i64, i1) #1

; Function Attrs: nounwind readnone
declare i32 @llvm.ctlz.i32(i32, i1) #1

; Function Attrs: nounwind readnone
declare i64 @llvm.ctlz.i64(i64, i1) #1

; Function Attrs: argmemonly nounwind
declare void @llvm.memcpy.p0i8.p0i8.i64(i8* nocapture writeonly, i8* nocapture readonly, i64, i32, i1) #0

; Function Attrs: nounwind readnone
declare double @llvm.nearbyint.f64(double) #1

; Function Attrs: nounwind readnone
declare double @llvm.fabs.f64(double) #1

; Function Attrs: nounwind readnone
declare <4 x double> @llvm.nearbyint.v4f64(<4 x double>) #1

; Function Attrs: nounwind readnone
declare <4 x double> @llvm.fabs.v4f64(<4 x double>) #1

; Function Attrs: nounwind readnone
declare double @llvm.trunc.f64(double) #1

; Function Attrs: nounwind readnone
declare <4 x double> @llvm.trunc.v4f64(<4 x double>) #1

; Function Attrs: nounwind readnone
declare float @llvm.nearbyint.f32(float) #1

; Function Attrs: nounwind readnone
declare float @llvm.fabs.f32(float) #1

; Function Attrs: nounwind readnone
declare <4 x float> @llvm.nearbyint.v4f32(<4 x float>) #1

; Function Attrs: nounwind readnone
declare <4 x float> @llvm.fabs.v4f32(<4 x float>) #1

; Function Attrs: nounwind readnone
declare float @llvm.trunc.f32(float) #1

; Function Attrs: nounwind readnone
declare <4 x float> @llvm.trunc.v4f32(<4 x float>) #1

; Function Attrs: argmemonly nounwind
declare void @llvm.memset.p0i8.i64(i8* nocapture writeonly, i8, i64, i32, i1) #0

declare double @atan(double) local_unnamed_addr

declare double @cos(double) local_unnamed_addr

declare double @sin(double) local_unnamed_addr

declare double @sqrt(double) local_unnamed_addr

declare double @tan(double) local_unnamed_addr

declare extern_weak x86_64_sysvcc i64 @abort()

declare extern_weak x86_64_sysvcc i64 @abs(i64)

declare extern_weak x86_64_sysvcc i64 @asin(i64)

declare extern_weak x86_64_sysvcc i64 @atof(i64)

declare extern_weak x86_64_sysvcc i64 @atoi(i64)

declare extern_weak x86_64_sysvcc i64 @atol(i64)

declare extern_weak x86_64_sysvcc i64 @calloc(i64, i64)

declare extern_weak x86_64_sysvcc i64 @clock()

declare extern_weak x86_64_sysvcc i64 @cosf(i64)

declare extern_weak x86_64_sysvcc i64 @exit(i64)

declare extern_weak x86_64_sysvcc i64 @exp(i64)

declare extern_weak x86_64_sysvcc i64 @fflush(i64)

declare extern_weak x86_64_sysvcc i64 @floor(i64)

declare extern_weak x86_64_sysvcc i64 @fprintf(i64, i64, i64, i64, i64, i64, i64, i64, i64, i64, i64, i64, i64, i64, i64, i64)

declare extern_weak x86_64_sysvcc i64 @fputs(i64, i64)

declare extern_weak x86_64_sysvcc i64 @free(i64)

declare extern_weak x86_64_sysvcc i64 @fwrite(i64, i64, i64, i64)

declare extern_weak x86_64_sysvcc i64 @getchar()

declare extern_weak x86_64_sysvcc i64 @gettimeofday(i64, i64)

declare extern_weak x86_64_sysvcc i64 @__isoc99_fscanf(i64, i64, i64, i64, i64, i64, i64, i64, i64, i64, i64, i64, i64, i64, i64, i64)

declare extern_weak x86_64_sysvcc i64 @__isoc99_scanf(i64, i64, i64, i64, i64, i64, i64, i64, i64, i64, i64, i64, i64, i64, i64, i64)

declare extern_weak x86_64_sysvcc i64 @__isoc99_sscanf(i64, i64, i64, i64, i64, i64, i64, i64, i64, i64, i64, i64, i64, i64, i64, i64)

declare extern_weak x86_64_sysvcc i64 @log(i64)

declare extern_weak x86_64_sysvcc i64 @lrand48()

declare extern_weak x86_64_sysvcc i64 @malloc(i64)

declare extern_weak x86_64_sysvcc i64 @memalign(i64, i64)

declare extern_weak x86_64_sysvcc i64 @memcpy(i64, i64, i64)

declare extern_weak x86_64_sysvcc i64 @memset(i64, i64, i64)

declare extern_weak x86_64_sysvcc i64 @perror(i64)

declare extern_weak x86_64_sysvcc i64 @posix_memalign(i64, i64, i64)

declare extern_weak x86_64_sysvcc i64 @pow(i64, i64)

declare extern_weak x86_64_sysvcc i64 @printf(i64, i64, i64, i64, i64, i64, i64, i64, i64, i64, i64, i64, i64, i64, i64, i64)

declare extern_weak x86_64_sysvcc i64 @putchar(i64)

declare extern_weak x86_64_sysvcc i64 @puts(i64)

declare extern_weak x86_64_sysvcc i64 @rand()

declare extern_weak x86_64_sysvcc i64 @random()

declare extern_weak x86_64_sysvcc i64 @realloc(i64, i64)

declare extern_weak x86_64_sysvcc i64 @seed48(i64)

declare extern_weak x86_64_sysvcc i64 @sinf(i64)

declare extern_weak x86_64_sysvcc i64 @sprintf(i64, i64, i64, i64, i64, i64, i64, i64, i64, i64, i64, i64, i64, i64, i64, i64)

declare extern_weak x86_64_sysvcc i64 @srand(i64)

declare extern_weak x86_64_sysvcc i64 @strcat(i64, i64)

declare extern_weak x86_64_sysvcc i64 @strcmp(i64, i64)

declare extern_weak x86_64_sysvcc i64 @strcpy(i64, i64)

declare extern_weak x86_64_sysvcc i64 @strdup(i64)

declare extern_weak x86_64_sysvcc i64 @strlen(i64)

declare extern_weak x86_64_sysvcc i64 @strncmp(i64, i64, i64)

declare extern_weak x86_64_sysvcc i64 @strtoll(i64, i64, i64)

declare extern_weak x86_64_sysvcc i64 @time(i64)

declare extern_weak x86_64_sysvcc i64 @ungetc(i64, i64)

declare extern_weak x86_64_sysvcc i64 @pthread_join(i64, i64)

declare extern_weak x86_64_sysvcc i64 @pthread_create(i64, i64, i64, i64)

declare %struct.Memory* @__remill_function_call(%struct.State* dereferenceable(3376), i64, %struct.Memory*)

declare %struct.Memory* @ext_sqrt(%struct.State* noalias dereferenceable(3376), i64, %struct.Memory* noalias)

declare %struct.Memory* @ext_atan(%struct.State* noalias dereferenceable(3376), i64, %struct.Memory* noalias)

declare %struct.Memory* @ext_cos(%struct.State* noalias dereferenceable(3376), i64, %struct.Memory* noalias)

declare %struct.Memory* @ext_tan(%struct.State* noalias dereferenceable(3376), i64, %struct.Memory* noalias)

declare %struct.Memory* @ext_sin(%struct.State* noalias dereferenceable(3376), i64, %struct.Memory* noalias)

; Function Attrs: alwaysinline
define %struct.Memory* @PatchInputNoFrames(%struct.State* noalias, i64, %struct.Memory* noalias) #2 {
entry:
  %3 = getelementptr inbounds %struct.State, %struct.State* %0, i64 0, i32 6, i32 33, i32 0, i32 0
  store i64 %1, i64* %3, align 8
  %BRANCH_TAKEN = alloca i8, align 1
  store i8 0, i8* %BRANCH_TAKEN, align 1
  %MEMORY = alloca %struct.Memory*, align 8
  store %struct.Memory* %2, %struct.Memory** %MEMORY, align 8
  %loadMem_4176d0 = load %struct.Memory*, %struct.Memory** %MEMORY
  %4 = getelementptr inbounds %struct.State, %struct.State* %0, i32 0, i32 6
  %5 = getelementptr inbounds %struct.GPR, %struct.GPR* %4, i32 0, i32 33
  %6 = getelementptr inbounds %struct.Reg, %struct.Reg* %5, i32 0, i32 0
  %PC.i = bitcast %union.anon* %6 to i64*
  %7 = getelementptr inbounds %struct.State, %struct.State* %0, i32 0, i32 6
  %8 = getelementptr inbounds %struct.GPR, %struct.GPR* %7, i32 0, i32 15
  %9 = getelementptr inbounds %struct.Reg, %struct.Reg* %8, i32 0, i32 0
  %RBP.i = bitcast %union.anon* %9 to i64*
  %10 = load i64, i64* %RBP.i
  %11 = load i64, i64* %PC.i
  %12 = add i64 %11, 1
  store i64 %12, i64* %PC.i
  %13 = getelementptr inbounds %struct.State, %struct.State* %0, i64 0, i32 6, i32 13, i32 0, i32 0
  %14 = load i64, i64* %13, align 8
  %15 = add i64 %14, -8
  %16 = inttoptr i64 %15 to i64*
  store i64 %10, i64* %16
  store i64 %15, i64* %13, align 8
  store %struct.Memory* %loadMem_4176d0, %struct.Memory** %MEMORY
  %loadMem_4176d1 = load %struct.Memory*, %struct.Memory** %MEMORY
  %17 = getelementptr inbounds %struct.State, %struct.State* %0, i32 0, i32 6
  %18 = getelementptr inbounds %struct.GPR, %struct.GPR* %17, i32 0, i32 33
  %19 = getelementptr inbounds %struct.Reg, %struct.Reg* %18, i32 0, i32 0
  %PC.i59 = bitcast %union.anon* %19 to i64*
  %20 = getelementptr inbounds %struct.State, %struct.State* %0, i32 0, i32 6
  %21 = getelementptr inbounds %struct.GPR, %struct.GPR* %20, i32 0, i32 13
  %22 = getelementptr inbounds %struct.Reg, %struct.Reg* %21, i32 0, i32 0
  %RSP.i = bitcast %union.anon* %22 to i64*
  %23 = getelementptr inbounds %struct.State, %struct.State* %0, i32 0, i32 6
  %24 = getelementptr inbounds %struct.GPR, %struct.GPR* %23, i32 0, i32 15
  %25 = getelementptr inbounds %struct.Reg, %struct.Reg* %24, i32 0, i32 0
  %RBP.i60 = bitcast %union.anon* %25 to i64*
  %26 = load i64, i64* %RSP.i
  %27 = load i64, i64* %PC.i59
  %28 = add i64 %27, 3
  store i64 %28, i64* %PC.i59
  store i64 %26, i64* %RBP.i60, align 8
  store %struct.Memory* %loadMem_4176d1, %struct.Memory** %MEMORY
  %loadMem_4176d4 = load %struct.Memory*, %struct.Memory** %MEMORY
  %29 = getelementptr inbounds %struct.State, %struct.State* %0, i32 0, i32 6
  %30 = getelementptr inbounds %struct.GPR, %struct.GPR* %29, i32 0, i32 33
  %31 = getelementptr inbounds %struct.Reg, %struct.Reg* %30, i32 0, i32 0
  %PC.i57 = bitcast %union.anon* %31 to i64*
  %32 = getelementptr inbounds %struct.State, %struct.State* %0, i32 0, i32 6
  %33 = getelementptr inbounds %struct.GPR, %struct.GPR* %32, i32 0, i32 1
  %34 = getelementptr inbounds %struct.Reg, %struct.Reg* %33, i32 0, i32 0
  %RAX.i58 = bitcast %union.anon* %34 to i64*
  %35 = load i64, i64* %PC.i57
  %36 = add i64 %35, 8
  store i64 %36, i64* %PC.i57
  %37 = load i64, i64* bitcast (%G_0x6cb8f8_type* @G_0x6cb8f8 to i64*)
  store i64 %37, i64* %RAX.i58, align 8
  store %struct.Memory* %loadMem_4176d4, %struct.Memory** %MEMORY
  %loadMem_4176dc = load %struct.Memory*, %struct.Memory** %MEMORY
  %38 = getelementptr inbounds %struct.State, %struct.State* %0, i32 0, i32 6
  %39 = getelementptr inbounds %struct.GPR, %struct.GPR* %38, i32 0, i32 33
  %40 = getelementptr inbounds %struct.Reg, %struct.Reg* %39, i32 0, i32 0
  %PC.i54 = bitcast %union.anon* %40 to i64*
  %41 = getelementptr inbounds %struct.State, %struct.State* %0, i32 0, i32 6
  %42 = getelementptr inbounds %struct.GPR, %struct.GPR* %41, i32 0, i32 1
  %43 = getelementptr inbounds %struct.Reg, %struct.Reg* %42, i32 0, i32 0
  %RAX.i55 = bitcast %union.anon* %43 to i64*
  %44 = getelementptr inbounds %struct.State, %struct.State* %0, i32 0, i32 6
  %45 = getelementptr inbounds %struct.GPR, %struct.GPR* %44, i32 0, i32 5
  %46 = getelementptr inbounds %struct.Reg, %struct.Reg* %45, i32 0, i32 0
  %RCX.i56 = bitcast %union.anon* %46 to i64*
  %47 = load i64, i64* %RAX.i55
  %48 = add i64 %47, 8
  %49 = load i64, i64* %PC.i54
  %50 = add i64 %49, 3
  store i64 %50, i64* %PC.i54
  %51 = inttoptr i64 %48 to i32*
  %52 = load i32, i32* %51
  %53 = zext i32 %52 to i64
  store i64 %53, i64* %RCX.i56, align 8
  store %struct.Memory* %loadMem_4176dc, %struct.Memory** %MEMORY
  %loadMem_4176df = load %struct.Memory*, %struct.Memory** %MEMORY
  %54 = getelementptr inbounds %struct.State, %struct.State* %0, i32 0, i32 6
  %55 = getelementptr inbounds %struct.GPR, %struct.GPR* %54, i32 0, i32 33
  %56 = getelementptr inbounds %struct.Reg, %struct.Reg* %55, i32 0, i32 0
  %PC.i52 = bitcast %union.anon* %56 to i64*
  %57 = getelementptr inbounds %struct.State, %struct.State* %0, i32 0, i32 6
  %58 = getelementptr inbounds %struct.GPR, %struct.GPR* %57, i32 0, i32 5
  %59 = getelementptr inbounds %struct.Reg, %struct.Reg* %58, i32 0, i32 0
  %RCX.i53 = bitcast %union.anon* %59 to i64*
  %60 = load i64, i64* %RCX.i53
  %61 = load i64, i64* %PC.i52
  %62 = add i64 %61, 3
  store i64 %62, i64* %PC.i52
  %63 = trunc i64 %60 to i32
  %64 = sub i32 %63, 1
  %65 = zext i32 %64 to i64
  store i64 %65, i64* %RCX.i53, align 8
  %66 = icmp ult i32 %63, 1
  %67 = zext i1 %66 to i8
  %68 = getelementptr inbounds %struct.State, %struct.State* %0, i64 0, i32 2, i32 1
  store i8 %67, i8* %68, align 1
  %69 = and i32 %64, 255
  %70 = call i32 @llvm.ctpop.i32(i32 %69)
  %71 = trunc i32 %70 to i8
  %72 = and i8 %71, 1
  %73 = xor i8 %72, 1
  %74 = getelementptr inbounds %struct.State, %struct.State* %0, i64 0, i32 2, i32 3
  store i8 %73, i8* %74, align 1
  %75 = xor i64 1, %60
  %76 = trunc i64 %75 to i32
  %77 = xor i32 %76, %64
  %78 = lshr i32 %77, 4
  %79 = trunc i32 %78 to i8
  %80 = and i8 %79, 1
  %81 = getelementptr inbounds %struct.State, %struct.State* %0, i64 0, i32 2, i32 5
  store i8 %80, i8* %81, align 1
  %82 = icmp eq i32 %64, 0
  %83 = zext i1 %82 to i8
  %84 = getelementptr inbounds %struct.State, %struct.State* %0, i64 0, i32 2, i32 7
  store i8 %83, i8* %84, align 1
  %85 = lshr i32 %64, 31
  %86 = trunc i32 %85 to i8
  %87 = getelementptr inbounds %struct.State, %struct.State* %0, i64 0, i32 2, i32 9
  store i8 %86, i8* %87, align 1
  %88 = lshr i32 %63, 31
  %89 = xor i32 %85, %88
  %90 = add i32 %89, %88
  %91 = icmp eq i32 %90, 2
  %92 = zext i1 %91 to i8
  %93 = getelementptr inbounds %struct.State, %struct.State* %0, i64 0, i32 2, i32 13
  store i8 %92, i8* %93, align 1
  store %struct.Memory* %loadMem_4176df, %struct.Memory** %MEMORY
  %loadMem_4176e2 = load %struct.Memory*, %struct.Memory** %MEMORY
  %94 = getelementptr inbounds %struct.State, %struct.State* %0, i32 0, i32 6
  %95 = getelementptr inbounds %struct.GPR, %struct.GPR* %94, i32 0, i32 33
  %96 = getelementptr inbounds %struct.Reg, %struct.Reg* %95, i32 0, i32 0
  %PC.i50 = bitcast %union.anon* %96 to i64*
  %97 = getelementptr inbounds %struct.State, %struct.State* %0, i32 0, i32 6
  %98 = getelementptr inbounds %struct.GPR, %struct.GPR* %97, i32 0, i32 1
  %99 = getelementptr inbounds %struct.Reg, %struct.Reg* %98, i32 0, i32 0
  %RAX.i51 = bitcast %union.anon* %99 to i64*
  %100 = load i64, i64* %PC.i50
  %101 = add i64 %100, 8
  store i64 %101, i64* %PC.i50
  %102 = load i64, i64* bitcast (%G_0x6cb8f8_type* @G_0x6cb8f8 to i64*)
  store i64 %102, i64* %RAX.i51, align 8
  store %struct.Memory* %loadMem_4176e2, %struct.Memory** %MEMORY
  %loadMem_4176ea = load %struct.Memory*, %struct.Memory** %MEMORY
  %103 = getelementptr inbounds %struct.State, %struct.State* %0, i32 0, i32 6
  %104 = getelementptr inbounds %struct.GPR, %struct.GPR* %103, i32 0, i32 33
  %105 = getelementptr inbounds %struct.Reg, %struct.Reg* %104, i32 0, i32 0
  %PC.i47 = bitcast %union.anon* %105 to i64*
  %106 = getelementptr inbounds %struct.State, %struct.State* %0, i32 0, i32 6
  %107 = getelementptr inbounds %struct.GPR, %struct.GPR* %106, i32 0, i32 1
  %108 = getelementptr inbounds %struct.Reg, %struct.Reg* %107, i32 0, i32 0
  %RAX.i48 = bitcast %union.anon* %108 to i64*
  %109 = getelementptr inbounds %struct.State, %struct.State* %0, i32 0, i32 6
  %110 = getelementptr inbounds %struct.GPR, %struct.GPR* %109, i32 0, i32 7
  %111 = getelementptr inbounds %struct.Reg, %struct.Reg* %110, i32 0, i32 0
  %RDX.i49 = bitcast %union.anon* %111 to i64*
  %112 = load i64, i64* %RAX.i48
  %113 = add i64 %112, 2912
  %114 = load i64, i64* %PC.i47
  %115 = add i64 %114, 6
  store i64 %115, i64* %PC.i47
  %116 = inttoptr i64 %113 to i32*
  %117 = load i32, i32* %116
  %118 = zext i32 %117 to i64
  store i64 %118, i64* %RDX.i49, align 8
  store %struct.Memory* %loadMem_4176ea, %struct.Memory** %MEMORY
  %loadMem_4176f0 = load %struct.Memory*, %struct.Memory** %MEMORY
  %119 = getelementptr inbounds %struct.State, %struct.State* %0, i32 0, i32 6
  %120 = getelementptr inbounds %struct.GPR, %struct.GPR* %119, i32 0, i32 33
  %121 = getelementptr inbounds %struct.Reg, %struct.Reg* %120, i32 0, i32 0
  %PC.i45 = bitcast %union.anon* %121 to i64*
  %122 = getelementptr inbounds %struct.State, %struct.State* %0, i32 0, i32 6
  %123 = getelementptr inbounds %struct.GPR, %struct.GPR* %122, i32 0, i32 7
  %124 = getelementptr inbounds %struct.Reg, %struct.Reg* %123, i32 0, i32 0
  %RDX.i46 = bitcast %union.anon* %124 to i64*
  %125 = load i64, i64* %RDX.i46
  %126 = load i64, i64* %PC.i45
  %127 = add i64 %126, 3
  store i64 %127, i64* %PC.i45
  %128 = trunc i64 %125 to i32
  %129 = add i32 1, %128
  %130 = zext i32 %129 to i64
  store i64 %130, i64* %RDX.i46, align 8
  %131 = icmp ult i32 %129, %128
  %132 = icmp ult i32 %129, 1
  %133 = or i1 %131, %132
  %134 = zext i1 %133 to i8
  %135 = getelementptr inbounds %struct.State, %struct.State* %0, i64 0, i32 2, i32 1
  store i8 %134, i8* %135, align 1
  %136 = and i32 %129, 255
  %137 = call i32 @llvm.ctpop.i32(i32 %136)
  %138 = trunc i32 %137 to i8
  %139 = and i8 %138, 1
  %140 = xor i8 %139, 1
  %141 = getelementptr inbounds %struct.State, %struct.State* %0, i64 0, i32 2, i32 3
  store i8 %140, i8* %141, align 1
  %142 = xor i64 1, %125
  %143 = trunc i64 %142 to i32
  %144 = xor i32 %143, %129
  %145 = lshr i32 %144, 4
  %146 = trunc i32 %145 to i8
  %147 = and i8 %146, 1
  %148 = getelementptr inbounds %struct.State, %struct.State* %0, i64 0, i32 2, i32 5
  store i8 %147, i8* %148, align 1
  %149 = icmp eq i32 %129, 0
  %150 = zext i1 %149 to i8
  %151 = getelementptr inbounds %struct.State, %struct.State* %0, i64 0, i32 2, i32 7
  store i8 %150, i8* %151, align 1
  %152 = lshr i32 %129, 31
  %153 = trunc i32 %152 to i8
  %154 = getelementptr inbounds %struct.State, %struct.State* %0, i64 0, i32 2, i32 9
  store i8 %153, i8* %154, align 1
  %155 = lshr i32 %128, 31
  %156 = xor i32 %152, %155
  %157 = add i32 %156, %152
  %158 = icmp eq i32 %157, 2
  %159 = zext i1 %158 to i8
  %160 = getelementptr inbounds %struct.State, %struct.State* %0, i64 0, i32 2, i32 13
  store i8 %159, i8* %160, align 1
  store %struct.Memory* %loadMem_4176f0, %struct.Memory** %MEMORY
  %loadMem_4176f3 = load %struct.Memory*, %struct.Memory** %MEMORY
  %161 = getelementptr inbounds %struct.State, %struct.State* %0, i32 0, i32 6
  %162 = getelementptr inbounds %struct.GPR, %struct.GPR* %161, i32 0, i32 33
  %163 = getelementptr inbounds %struct.Reg, %struct.Reg* %162, i32 0, i32 0
  %PC.i42 = bitcast %union.anon* %163 to i64*
  %164 = getelementptr inbounds %struct.State, %struct.State* %0, i32 0, i32 6
  %165 = getelementptr inbounds %struct.GPR, %struct.GPR* %164, i32 0, i32 7
  %166 = getelementptr inbounds %struct.Reg, %struct.Reg* %165, i32 0, i32 0
  %EDX.i43 = bitcast %union.anon* %166 to i32*
  %167 = getelementptr inbounds %struct.State, %struct.State* %0, i32 0, i32 6
  %168 = getelementptr inbounds %struct.GPR, %struct.GPR* %167, i32 0, i32 5
  %169 = getelementptr inbounds %struct.Reg, %struct.Reg* %168, i32 0, i32 0
  %RCX.i44 = bitcast %union.anon* %169 to i64*
  %170 = load i64, i64* %RCX.i44
  %171 = load i32, i32* %EDX.i43
  %172 = zext i32 %171 to i64
  %173 = load i64, i64* %PC.i42
  %174 = add i64 %173, 3
  store i64 %174, i64* %PC.i42
  %175 = shl i64 %170, 32
  %176 = ashr exact i64 %175, 32
  %177 = shl i64 %172, 32
  %178 = ashr exact i64 %177, 32
  %179 = mul i64 %178, %176
  %180 = trunc i64 %179 to i32
  %181 = and i64 %179, 4294967295
  store i64 %181, i64* %RCX.i44, align 8
  %182 = shl i64 %179, 32
  %183 = ashr exact i64 %182, 32
  %184 = icmp ne i64 %183, %179
  %185 = zext i1 %184 to i8
  %186 = getelementptr inbounds %struct.State, %struct.State* %0, i64 0, i32 2, i32 1
  store i8 %185, i8* %186, align 1
  %187 = and i32 %180, 255
  %188 = call i32 @llvm.ctpop.i32(i32 %187)
  %189 = trunc i32 %188 to i8
  %190 = and i8 %189, 1
  %191 = xor i8 %190, 1
  %192 = getelementptr inbounds %struct.State, %struct.State* %0, i64 0, i32 2, i32 3
  store i8 %191, i8* %192, align 1
  %193 = getelementptr inbounds %struct.State, %struct.State* %0, i64 0, i32 2, i32 5
  store i8 0, i8* %193, align 1
  %194 = getelementptr inbounds %struct.State, %struct.State* %0, i64 0, i32 2, i32 7
  store i8 0, i8* %194, align 1
  %195 = lshr i32 %180, 31
  %196 = trunc i32 %195 to i8
  %197 = getelementptr inbounds %struct.State, %struct.State* %0, i64 0, i32 2, i32 9
  store i8 %196, i8* %197, align 1
  %198 = getelementptr inbounds %struct.State, %struct.State* %0, i64 0, i32 2, i32 13
  store i8 %185, i8* %198, align 1
  store %struct.Memory* %loadMem_4176f3, %struct.Memory** %MEMORY
  %loadMem_4176f6 = load %struct.Memory*, %struct.Memory** %MEMORY
  %199 = getelementptr inbounds %struct.State, %struct.State* %0, i32 0, i32 6
  %200 = getelementptr inbounds %struct.GPR, %struct.GPR* %199, i32 0, i32 33
  %201 = getelementptr inbounds %struct.Reg, %struct.Reg* %200, i32 0, i32 0
  %PC.i40 = bitcast %union.anon* %201 to i64*
  %202 = getelementptr inbounds %struct.State, %struct.State* %0, i32 0, i32 6
  %203 = getelementptr inbounds %struct.GPR, %struct.GPR* %202, i32 0, i32 5
  %204 = getelementptr inbounds %struct.Reg, %struct.Reg* %203, i32 0, i32 0
  %RCX.i41 = bitcast %union.anon* %204 to i64*
  %205 = load i64, i64* %RCX.i41
  %206 = load i64, i64* %PC.i40
  %207 = add i64 %206, 3
  store i64 %207, i64* %PC.i40
  %208 = trunc i64 %205 to i32
  %209 = add i32 1, %208
  %210 = zext i32 %209 to i64
  store i64 %210, i64* %RCX.i41, align 8
  %211 = icmp ult i32 %209, %208
  %212 = icmp ult i32 %209, 1
  %213 = or i1 %211, %212
  %214 = zext i1 %213 to i8
  %215 = getelementptr inbounds %struct.State, %struct.State* %0, i64 0, i32 2, i32 1
  store i8 %214, i8* %215, align 1
  %216 = and i32 %209, 255
  %217 = call i32 @llvm.ctpop.i32(i32 %216)
  %218 = trunc i32 %217 to i8
  %219 = and i8 %218, 1
  %220 = xor i8 %219, 1
  %221 = getelementptr inbounds %struct.State, %struct.State* %0, i64 0, i32 2, i32 3
  store i8 %220, i8* %221, align 1
  %222 = xor i64 1, %205
  %223 = trunc i64 %222 to i32
  %224 = xor i32 %223, %209
  %225 = lshr i32 %224, 4
  %226 = trunc i32 %225 to i8
  %227 = and i8 %226, 1
  %228 = getelementptr inbounds %struct.State, %struct.State* %0, i64 0, i32 2, i32 5
  store i8 %227, i8* %228, align 1
  %229 = icmp eq i32 %209, 0
  %230 = zext i1 %229 to i8
  %231 = getelementptr inbounds %struct.State, %struct.State* %0, i64 0, i32 2, i32 7
  store i8 %230, i8* %231, align 1
  %232 = lshr i32 %209, 31
  %233 = trunc i32 %232 to i8
  %234 = getelementptr inbounds %struct.State, %struct.State* %0, i64 0, i32 2, i32 9
  store i8 %233, i8* %234, align 1
  %235 = lshr i32 %208, 31
  %236 = xor i32 %232, %235
  %237 = add i32 %236, %232
  %238 = icmp eq i32 %237, 2
  %239 = zext i1 %238 to i8
  %240 = getelementptr inbounds %struct.State, %struct.State* %0, i64 0, i32 2, i32 13
  store i8 %239, i8* %240, align 1
  store %struct.Memory* %loadMem_4176f6, %struct.Memory** %MEMORY
  %loadMem_4176f9 = load %struct.Memory*, %struct.Memory** %MEMORY
  %241 = getelementptr inbounds %struct.State, %struct.State* %0, i32 0, i32 6
  %242 = getelementptr inbounds %struct.GPR, %struct.GPR* %241, i32 0, i32 33
  %243 = getelementptr inbounds %struct.Reg, %struct.Reg* %242, i32 0, i32 0
  %PC.i38 = bitcast %union.anon* %243 to i64*
  %244 = getelementptr inbounds %struct.State, %struct.State* %0, i32 0, i32 6
  %245 = getelementptr inbounds %struct.GPR, %struct.GPR* %244, i32 0, i32 1
  %246 = getelementptr inbounds %struct.Reg, %struct.Reg* %245, i32 0, i32 0
  %RAX.i39 = bitcast %union.anon* %246 to i64*
  %247 = load i64, i64* %PC.i38
  %248 = add i64 %247, 8
  store i64 %248, i64* %PC.i38
  %249 = load i64, i64* bitcast (%G_0x6cb8f8_type* @G_0x6cb8f8 to i64*)
  store i64 %249, i64* %RAX.i39, align 8
  store %struct.Memory* %loadMem_4176f9, %struct.Memory** %MEMORY
  %loadMem_417701 = load %struct.Memory*, %struct.Memory** %MEMORY
  %250 = getelementptr inbounds %struct.State, %struct.State* %0, i32 0, i32 6
  %251 = getelementptr inbounds %struct.GPR, %struct.GPR* %250, i32 0, i32 33
  %252 = getelementptr inbounds %struct.Reg, %struct.Reg* %251, i32 0, i32 0
  %PC.i35 = bitcast %union.anon* %252 to i64*
  %253 = getelementptr inbounds %struct.State, %struct.State* %0, i32 0, i32 6
  %254 = getelementptr inbounds %struct.GPR, %struct.GPR* %253, i32 0, i32 5
  %255 = getelementptr inbounds %struct.Reg, %struct.Reg* %254, i32 0, i32 0
  %ECX.i36 = bitcast %union.anon* %255 to i32*
  %256 = getelementptr inbounds %struct.State, %struct.State* %0, i32 0, i32 6
  %257 = getelementptr inbounds %struct.GPR, %struct.GPR* %256, i32 0, i32 1
  %258 = getelementptr inbounds %struct.Reg, %struct.Reg* %257, i32 0, i32 0
  %RAX.i37 = bitcast %union.anon* %258 to i64*
  %259 = load i64, i64* %RAX.i37
  %260 = add i64 %259, 8
  %261 = load i32, i32* %ECX.i36
  %262 = zext i32 %261 to i64
  %263 = load i64, i64* %PC.i35
  %264 = add i64 %263, 3
  store i64 %264, i64* %PC.i35
  %265 = inttoptr i64 %260 to i32*
  store i32 %261, i32* %265
  store %struct.Memory* %loadMem_417701, %struct.Memory** %MEMORY
  %loadMem_417704 = load %struct.Memory*, %struct.Memory** %MEMORY
  %266 = getelementptr inbounds %struct.State, %struct.State* %0, i32 0, i32 6
  %267 = getelementptr inbounds %struct.GPR, %struct.GPR* %266, i32 0, i32 33
  %268 = getelementptr inbounds %struct.Reg, %struct.Reg* %267, i32 0, i32 0
  %PC.i33 = bitcast %union.anon* %268 to i64*
  %269 = getelementptr inbounds %struct.State, %struct.State* %0, i32 0, i32 6
  %270 = getelementptr inbounds %struct.GPR, %struct.GPR* %269, i32 0, i32 1
  %271 = getelementptr inbounds %struct.Reg, %struct.Reg* %270, i32 0, i32 0
  %RAX.i34 = bitcast %union.anon* %271 to i64*
  %272 = load i64, i64* %PC.i33
  %273 = add i64 %272, 8
  store i64 %273, i64* %PC.i33
  %274 = load i64, i64* bitcast (%G_0x6cb8f8_type* @G_0x6cb8f8 to i64*)
  store i64 %274, i64* %RAX.i34, align 8
  store %struct.Memory* %loadMem_417704, %struct.Memory** %MEMORY
  %loadMem_41770c = load %struct.Memory*, %struct.Memory** %MEMORY
  %275 = getelementptr inbounds %struct.State, %struct.State* %0, i32 0, i32 6
  %276 = getelementptr inbounds %struct.GPR, %struct.GPR* %275, i32 0, i32 33
  %277 = getelementptr inbounds %struct.Reg, %struct.Reg* %276, i32 0, i32 0
  %PC.i31 = bitcast %union.anon* %277 to i64*
  %278 = getelementptr inbounds %struct.State, %struct.State* %0, i32 0, i32 6
  %279 = getelementptr inbounds %struct.GPR, %struct.GPR* %278, i32 0, i32 1
  %280 = getelementptr inbounds %struct.Reg, %struct.Reg* %279, i32 0, i32 0
  %RAX.i32 = bitcast %union.anon* %280 to i64*
  %281 = load i64, i64* %RAX.i32
  %282 = add i64 %281, 2916
  %283 = load i64, i64* %PC.i31
  %284 = add i64 %283, 7
  store i64 %284, i64* %PC.i31
  %285 = inttoptr i64 %282 to i32*
  %286 = load i32, i32* %285
  %287 = getelementptr inbounds %struct.State, %struct.State* %0, i64 0, i32 2, i32 1
  store i8 0, i8* %287, align 1
  %288 = and i32 %286, 255
  %289 = call i32 @llvm.ctpop.i32(i32 %288)
  %290 = trunc i32 %289 to i8
  %291 = and i8 %290, 1
  %292 = xor i8 %291, 1
  %293 = getelementptr inbounds %struct.State, %struct.State* %0, i64 0, i32 2, i32 3
  store i8 %292, i8* %293, align 1
  %294 = getelementptr inbounds %struct.State, %struct.State* %0, i64 0, i32 2, i32 5
  store i8 0, i8* %294, align 1
  %295 = icmp eq i32 %286, 0
  %296 = zext i1 %295 to i8
  %297 = getelementptr inbounds %struct.State, %struct.State* %0, i64 0, i32 2, i32 7
  store i8 %296, i8* %297, align 1
  %298 = lshr i32 %286, 31
  %299 = trunc i32 %298 to i8
  %300 = getelementptr inbounds %struct.State, %struct.State* %0, i64 0, i32 2, i32 9
  store i8 %299, i8* %300, align 1
  %301 = lshr i32 %286, 31
  %302 = xor i32 %298, %301
  %303 = add i32 %302, %301
  %304 = icmp eq i32 %303, 2
  %305 = zext i1 %304 to i8
  %306 = getelementptr inbounds %struct.State, %struct.State* %0, i64 0, i32 2, i32 13
  store i8 %305, i8* %306, align 1
  store %struct.Memory* %loadMem_41770c, %struct.Memory** %MEMORY
  %loadMem_417713 = load %struct.Memory*, %struct.Memory** %MEMORY
  %307 = getelementptr inbounds %struct.State, %struct.State* %0, i32 0, i32 6
  %308 = getelementptr inbounds %struct.GPR, %struct.GPR* %307, i32 0, i32 33
  %309 = getelementptr inbounds %struct.Reg, %struct.Reg* %308, i32 0, i32 0
  %PC.i30 = bitcast %union.anon* %309 to i64*
  %310 = load i64, i64* %PC.i30
  %311 = add i64 %310, 60
  %312 = load i64, i64* %PC.i30
  %313 = add i64 %312, 6
  %314 = load i64, i64* %PC.i30
  %315 = add i64 %314, 6
  store i64 %315, i64* %PC.i30
  %316 = getelementptr inbounds %struct.State, %struct.State* %0, i64 0, i32 2, i32 7
  %317 = load i8, i8* %316, align 1
  store i8 %317, i8* %BRANCH_TAKEN, align 1
  %318 = getelementptr inbounds %struct.State, %struct.State* %0, i64 0, i32 6, i32 33, i32 0, i32 0
  %319 = icmp ne i8 %317, 0
  %320 = select i1 %319, i64 %311, i64 %313
  store i64 %320, i64* %318, align 8
  store %struct.Memory* %loadMem_417713, %struct.Memory** %MEMORY
  %loadBr_417713 = load i8, i8* %BRANCH_TAKEN
  %cmpBr_417713 = icmp eq i8 %loadBr_417713, 1
  br i1 %cmpBr_417713, label %block_.L_41774f, label %block_417719

block_417719:                                     ; preds = %entry
  %loadMem_417719 = load %struct.Memory*, %struct.Memory** %MEMORY
  %321 = getelementptr inbounds %struct.State, %struct.State* %0, i32 0, i32 6
  %322 = getelementptr inbounds %struct.GPR, %struct.GPR* %321, i32 0, i32 33
  %323 = getelementptr inbounds %struct.Reg, %struct.Reg* %322, i32 0, i32 0
  %PC.i28 = bitcast %union.anon* %323 to i64*
  %324 = getelementptr inbounds %struct.State, %struct.State* %0, i32 0, i32 6
  %325 = getelementptr inbounds %struct.GPR, %struct.GPR* %324, i32 0, i32 1
  %326 = getelementptr inbounds %struct.Reg, %struct.Reg* %325, i32 0, i32 0
  %RAX.i29 = bitcast %union.anon* %326 to i64*
  %327 = load i64, i64* %PC.i28
  %328 = add i64 %327, 8
  store i64 %328, i64* %PC.i28
  %329 = load i64, i64* bitcast (%G_0x6cb8f8_type* @G_0x6cb8f8 to i64*)
  store i64 %329, i64* %RAX.i29, align 8
  store %struct.Memory* %loadMem_417719, %struct.Memory** %MEMORY
  %loadMem_417721 = load %struct.Memory*, %struct.Memory** %MEMORY
  %330 = getelementptr inbounds %struct.State, %struct.State* %0, i32 0, i32 6
  %331 = getelementptr inbounds %struct.GPR, %struct.GPR* %330, i32 0, i32 33
  %332 = getelementptr inbounds %struct.Reg, %struct.Reg* %331, i32 0, i32 0
  %PC.i25 = bitcast %union.anon* %332 to i64*
  %333 = getelementptr inbounds %struct.State, %struct.State* %0, i32 0, i32 6
  %334 = getelementptr inbounds %struct.GPR, %struct.GPR* %333, i32 0, i32 1
  %335 = getelementptr inbounds %struct.Reg, %struct.Reg* %334, i32 0, i32 0
  %RAX.i26 = bitcast %union.anon* %335 to i64*
  %336 = getelementptr inbounds %struct.State, %struct.State* %0, i32 0, i32 6
  %337 = getelementptr inbounds %struct.GPR, %struct.GPR* %336, i32 0, i32 5
  %338 = getelementptr inbounds %struct.Reg, %struct.Reg* %337, i32 0, i32 0
  %RCX.i27 = bitcast %union.anon* %338 to i64*
  %339 = load i64, i64* %RAX.i26
  %340 = add i64 %339, 2916
  %341 = load i64, i64* %PC.i25
  %342 = add i64 %341, 6
  store i64 %342, i64* %PC.i25
  %343 = inttoptr i64 %340 to i32*
  %344 = load i32, i32* %343
  %345 = zext i32 %344 to i64
  store i64 %345, i64* %RCX.i27, align 8
  store %struct.Memory* %loadMem_417721, %struct.Memory** %MEMORY
  %loadMem_417727 = load %struct.Memory*, %struct.Memory** %MEMORY
  %346 = getelementptr inbounds %struct.State, %struct.State* %0, i32 0, i32 6
  %347 = getelementptr inbounds %struct.GPR, %struct.GPR* %346, i32 0, i32 33
  %348 = getelementptr inbounds %struct.Reg, %struct.Reg* %347, i32 0, i32 0
  %PC.i23 = bitcast %union.anon* %348 to i64*
  %349 = getelementptr inbounds %struct.State, %struct.State* %0, i32 0, i32 6
  %350 = getelementptr inbounds %struct.GPR, %struct.GPR* %349, i32 0, i32 5
  %351 = getelementptr inbounds %struct.Reg, %struct.Reg* %350, i32 0, i32 0
  %RCX.i24 = bitcast %union.anon* %351 to i64*
  %352 = load i64, i64* %RCX.i24
  %353 = load i64, i64* %PC.i23
  %354 = add i64 %353, 3
  store i64 %354, i64* %PC.i23
  %355 = trunc i64 %352 to i32
  %356 = sub i32 %355, 1
  %357 = zext i32 %356 to i64
  store i64 %357, i64* %RCX.i24, align 8
  %358 = icmp ult i32 %355, 1
  %359 = zext i1 %358 to i8
  %360 = getelementptr inbounds %struct.State, %struct.State* %0, i64 0, i32 2, i32 1
  store i8 %359, i8* %360, align 1
  %361 = and i32 %356, 255
  %362 = call i32 @llvm.ctpop.i32(i32 %361)
  %363 = trunc i32 %362 to i8
  %364 = and i8 %363, 1
  %365 = xor i8 %364, 1
  %366 = getelementptr inbounds %struct.State, %struct.State* %0, i64 0, i32 2, i32 3
  store i8 %365, i8* %366, align 1
  %367 = xor i64 1, %352
  %368 = trunc i64 %367 to i32
  %369 = xor i32 %368, %356
  %370 = lshr i32 %369, 4
  %371 = trunc i32 %370 to i8
  %372 = and i8 %371, 1
  %373 = getelementptr inbounds %struct.State, %struct.State* %0, i64 0, i32 2, i32 5
  store i8 %372, i8* %373, align 1
  %374 = icmp eq i32 %356, 0
  %375 = zext i1 %374 to i8
  %376 = getelementptr inbounds %struct.State, %struct.State* %0, i64 0, i32 2, i32 7
  store i8 %375, i8* %376, align 1
  %377 = lshr i32 %356, 31
  %378 = trunc i32 %377 to i8
  %379 = getelementptr inbounds %struct.State, %struct.State* %0, i64 0, i32 2, i32 9
  store i8 %378, i8* %379, align 1
  %380 = lshr i32 %355, 31
  %381 = xor i32 %377, %380
  %382 = add i32 %381, %380
  %383 = icmp eq i32 %382, 2
  %384 = zext i1 %383 to i8
  %385 = getelementptr inbounds %struct.State, %struct.State* %0, i64 0, i32 2, i32 13
  store i8 %384, i8* %385, align 1
  store %struct.Memory* %loadMem_417727, %struct.Memory** %MEMORY
  %loadMem_41772a = load %struct.Memory*, %struct.Memory** %MEMORY
  %386 = getelementptr inbounds %struct.State, %struct.State* %0, i32 0, i32 6
  %387 = getelementptr inbounds %struct.GPR, %struct.GPR* %386, i32 0, i32 33
  %388 = getelementptr inbounds %struct.Reg, %struct.Reg* %387, i32 0, i32 0
  %PC.i21 = bitcast %union.anon* %388 to i64*
  %389 = getelementptr inbounds %struct.State, %struct.State* %0, i32 0, i32 6
  %390 = getelementptr inbounds %struct.GPR, %struct.GPR* %389, i32 0, i32 1
  %391 = getelementptr inbounds %struct.Reg, %struct.Reg* %390, i32 0, i32 0
  %RAX.i22 = bitcast %union.anon* %391 to i64*
  %392 = load i64, i64* %PC.i21
  %393 = add i64 %392, 8
  store i64 %393, i64* %PC.i21
  %394 = load i64, i64* bitcast (%G_0x6cb8f8_type* @G_0x6cb8f8 to i64*)
  store i64 %394, i64* %RAX.i22, align 8
  store %struct.Memory* %loadMem_41772a, %struct.Memory** %MEMORY
  %loadMem_417732 = load %struct.Memory*, %struct.Memory** %MEMORY
  %395 = getelementptr inbounds %struct.State, %struct.State* %0, i32 0, i32 6
  %396 = getelementptr inbounds %struct.GPR, %struct.GPR* %395, i32 0, i32 33
  %397 = getelementptr inbounds %struct.Reg, %struct.Reg* %396, i32 0, i32 0
  %PC.i18 = bitcast %union.anon* %397 to i64*
  %398 = getelementptr inbounds %struct.State, %struct.State* %0, i32 0, i32 6
  %399 = getelementptr inbounds %struct.GPR, %struct.GPR* %398, i32 0, i32 1
  %400 = getelementptr inbounds %struct.Reg, %struct.Reg* %399, i32 0, i32 0
  %RAX.i19 = bitcast %union.anon* %400 to i64*
  %401 = getelementptr inbounds %struct.State, %struct.State* %0, i32 0, i32 6
  %402 = getelementptr inbounds %struct.GPR, %struct.GPR* %401, i32 0, i32 7
  %403 = getelementptr inbounds %struct.Reg, %struct.Reg* %402, i32 0, i32 0
  %RDX.i20 = bitcast %union.anon* %403 to i64*
  %404 = load i64, i64* %RAX.i19
  %405 = add i64 %404, 2912
  %406 = load i64, i64* %PC.i18
  %407 = add i64 %406, 6
  store i64 %407, i64* %PC.i18
  %408 = inttoptr i64 %405 to i32*
  %409 = load i32, i32* %408
  %410 = zext i32 %409 to i64
  store i64 %410, i64* %RDX.i20, align 8
  store %struct.Memory* %loadMem_417732, %struct.Memory** %MEMORY
  %loadMem_417738 = load %struct.Memory*, %struct.Memory** %MEMORY
  %411 = getelementptr inbounds %struct.State, %struct.State* %0, i32 0, i32 6
  %412 = getelementptr inbounds %struct.GPR, %struct.GPR* %411, i32 0, i32 33
  %413 = getelementptr inbounds %struct.Reg, %struct.Reg* %412, i32 0, i32 0
  %PC.i17 = bitcast %union.anon* %413 to i64*
  %414 = getelementptr inbounds %struct.State, %struct.State* %0, i32 0, i32 6
  %415 = getelementptr inbounds %struct.GPR, %struct.GPR* %414, i32 0, i32 7
  %416 = getelementptr inbounds %struct.Reg, %struct.Reg* %415, i32 0, i32 0
  %RDX.i = bitcast %union.anon* %416 to i64*
  %417 = load i64, i64* %RDX.i
  %418 = load i64, i64* %PC.i17
  %419 = add i64 %418, 3
  store i64 %419, i64* %PC.i17
  %420 = trunc i64 %417 to i32
  %421 = add i32 1, %420
  %422 = zext i32 %421 to i64
  store i64 %422, i64* %RDX.i, align 8
  %423 = icmp ult i32 %421, %420
  %424 = icmp ult i32 %421, 1
  %425 = or i1 %423, %424
  %426 = zext i1 %425 to i8
  %427 = getelementptr inbounds %struct.State, %struct.State* %0, i64 0, i32 2, i32 1
  store i8 %426, i8* %427, align 1
  %428 = and i32 %421, 255
  %429 = call i32 @llvm.ctpop.i32(i32 %428)
  %430 = trunc i32 %429 to i8
  %431 = and i8 %430, 1
  %432 = xor i8 %431, 1
  %433 = getelementptr inbounds %struct.State, %struct.State* %0, i64 0, i32 2, i32 3
  store i8 %432, i8* %433, align 1
  %434 = xor i64 1, %417
  %435 = trunc i64 %434 to i32
  %436 = xor i32 %435, %421
  %437 = lshr i32 %436, 4
  %438 = trunc i32 %437 to i8
  %439 = and i8 %438, 1
  %440 = getelementptr inbounds %struct.State, %struct.State* %0, i64 0, i32 2, i32 5
  store i8 %439, i8* %440, align 1
  %441 = icmp eq i32 %421, 0
  %442 = zext i1 %441 to i8
  %443 = getelementptr inbounds %struct.State, %struct.State* %0, i64 0, i32 2, i32 7
  store i8 %442, i8* %443, align 1
  %444 = lshr i32 %421, 31
  %445 = trunc i32 %444 to i8
  %446 = getelementptr inbounds %struct.State, %struct.State* %0, i64 0, i32 2, i32 9
  store i8 %445, i8* %446, align 1
  %447 = lshr i32 %420, 31
  %448 = xor i32 %444, %447
  %449 = add i32 %448, %444
  %450 = icmp eq i32 %449, 2
  %451 = zext i1 %450 to i8
  %452 = getelementptr inbounds %struct.State, %struct.State* %0, i64 0, i32 2, i32 13
  store i8 %451, i8* %452, align 1
  store %struct.Memory* %loadMem_417738, %struct.Memory** %MEMORY
  %loadMem_41773b = load %struct.Memory*, %struct.Memory** %MEMORY
  %453 = getelementptr inbounds %struct.State, %struct.State* %0, i32 0, i32 6
  %454 = getelementptr inbounds %struct.GPR, %struct.GPR* %453, i32 0, i32 33
  %455 = getelementptr inbounds %struct.Reg, %struct.Reg* %454, i32 0, i32 0
  %PC.i15 = bitcast %union.anon* %455 to i64*
  %456 = getelementptr inbounds %struct.State, %struct.State* %0, i32 0, i32 6
  %457 = getelementptr inbounds %struct.GPR, %struct.GPR* %456, i32 0, i32 7
  %458 = getelementptr inbounds %struct.Reg, %struct.Reg* %457, i32 0, i32 0
  %EDX.i = bitcast %union.anon* %458 to i32*
  %459 = getelementptr inbounds %struct.State, %struct.State* %0, i32 0, i32 6
  %460 = getelementptr inbounds %struct.GPR, %struct.GPR* %459, i32 0, i32 5
  %461 = getelementptr inbounds %struct.Reg, %struct.Reg* %460, i32 0, i32 0
  %RCX.i16 = bitcast %union.anon* %461 to i64*
  %462 = load i64, i64* %RCX.i16
  %463 = load i32, i32* %EDX.i
  %464 = zext i32 %463 to i64
  %465 = load i64, i64* %PC.i15
  %466 = add i64 %465, 3
  store i64 %466, i64* %PC.i15
  %467 = shl i64 %462, 32
  %468 = ashr exact i64 %467, 32
  %469 = shl i64 %464, 32
  %470 = ashr exact i64 %469, 32
  %471 = mul i64 %470, %468
  %472 = trunc i64 %471 to i32
  %473 = and i64 %471, 4294967295
  store i64 %473, i64* %RCX.i16, align 8
  %474 = shl i64 %471, 32
  %475 = ashr exact i64 %474, 32
  %476 = icmp ne i64 %475, %471
  %477 = zext i1 %476 to i8
  %478 = getelementptr inbounds %struct.State, %struct.State* %0, i64 0, i32 2, i32 1
  store i8 %477, i8* %478, align 1
  %479 = and i32 %472, 255
  %480 = call i32 @llvm.ctpop.i32(i32 %479)
  %481 = trunc i32 %480 to i8
  %482 = and i8 %481, 1
  %483 = xor i8 %482, 1
  %484 = getelementptr inbounds %struct.State, %struct.State* %0, i64 0, i32 2, i32 3
  store i8 %483, i8* %484, align 1
  %485 = getelementptr inbounds %struct.State, %struct.State* %0, i64 0, i32 2, i32 5
  store i8 0, i8* %485, align 1
  %486 = getelementptr inbounds %struct.State, %struct.State* %0, i64 0, i32 2, i32 7
  store i8 0, i8* %486, align 1
  %487 = lshr i32 %472, 31
  %488 = trunc i32 %487 to i8
  %489 = getelementptr inbounds %struct.State, %struct.State* %0, i64 0, i32 2, i32 9
  store i8 %488, i8* %489, align 1
  %490 = getelementptr inbounds %struct.State, %struct.State* %0, i64 0, i32 2, i32 13
  store i8 %477, i8* %490, align 1
  store %struct.Memory* %loadMem_41773b, %struct.Memory** %MEMORY
  %loadMem_41773e = load %struct.Memory*, %struct.Memory** %MEMORY
  %491 = getelementptr inbounds %struct.State, %struct.State* %0, i32 0, i32 6
  %492 = getelementptr inbounds %struct.GPR, %struct.GPR* %491, i32 0, i32 33
  %493 = getelementptr inbounds %struct.Reg, %struct.Reg* %492, i32 0, i32 0
  %PC.i13 = bitcast %union.anon* %493 to i64*
  %494 = getelementptr inbounds %struct.State, %struct.State* %0, i32 0, i32 6
  %495 = getelementptr inbounds %struct.GPR, %struct.GPR* %494, i32 0, i32 5
  %496 = getelementptr inbounds %struct.Reg, %struct.Reg* %495, i32 0, i32 0
  %RCX.i14 = bitcast %union.anon* %496 to i64*
  %497 = load i64, i64* %RCX.i14
  %498 = load i64, i64* %PC.i13
  %499 = add i64 %498, 3
  store i64 %499, i64* %PC.i13
  %500 = trunc i64 %497 to i32
  %501 = add i32 1, %500
  %502 = zext i32 %501 to i64
  store i64 %502, i64* %RCX.i14, align 8
  %503 = icmp ult i32 %501, %500
  %504 = icmp ult i32 %501, 1
  %505 = or i1 %503, %504
  %506 = zext i1 %505 to i8
  %507 = getelementptr inbounds %struct.State, %struct.State* %0, i64 0, i32 2, i32 1
  store i8 %506, i8* %507, align 1
  %508 = and i32 %501, 255
  %509 = call i32 @llvm.ctpop.i32(i32 %508)
  %510 = trunc i32 %509 to i8
  %511 = and i8 %510, 1
  %512 = xor i8 %511, 1
  %513 = getelementptr inbounds %struct.State, %struct.State* %0, i64 0, i32 2, i32 3
  store i8 %512, i8* %513, align 1
  %514 = xor i64 1, %497
  %515 = trunc i64 %514 to i32
  %516 = xor i32 %515, %501
  %517 = lshr i32 %516, 4
  %518 = trunc i32 %517 to i8
  %519 = and i8 %518, 1
  %520 = getelementptr inbounds %struct.State, %struct.State* %0, i64 0, i32 2, i32 5
  store i8 %519, i8* %520, align 1
  %521 = icmp eq i32 %501, 0
  %522 = zext i1 %521 to i8
  %523 = getelementptr inbounds %struct.State, %struct.State* %0, i64 0, i32 2, i32 7
  store i8 %522, i8* %523, align 1
  %524 = lshr i32 %501, 31
  %525 = trunc i32 %524 to i8
  %526 = getelementptr inbounds %struct.State, %struct.State* %0, i64 0, i32 2, i32 9
  store i8 %525, i8* %526, align 1
  %527 = lshr i32 %500, 31
  %528 = xor i32 %524, %527
  %529 = add i32 %528, %524
  %530 = icmp eq i32 %529, 2
  %531 = zext i1 %530 to i8
  %532 = getelementptr inbounds %struct.State, %struct.State* %0, i64 0, i32 2, i32 13
  store i8 %531, i8* %532, align 1
  store %struct.Memory* %loadMem_41773e, %struct.Memory** %MEMORY
  %loadMem_417741 = load %struct.Memory*, %struct.Memory** %MEMORY
  %533 = getelementptr inbounds %struct.State, %struct.State* %0, i32 0, i32 6
  %534 = getelementptr inbounds %struct.GPR, %struct.GPR* %533, i32 0, i32 33
  %535 = getelementptr inbounds %struct.Reg, %struct.Reg* %534, i32 0, i32 0
  %PC.i11 = bitcast %union.anon* %535 to i64*
  %536 = getelementptr inbounds %struct.State, %struct.State* %0, i32 0, i32 6
  %537 = getelementptr inbounds %struct.GPR, %struct.GPR* %536, i32 0, i32 1
  %538 = getelementptr inbounds %struct.Reg, %struct.Reg* %537, i32 0, i32 0
  %RAX.i12 = bitcast %union.anon* %538 to i64*
  %539 = load i64, i64* %PC.i11
  %540 = add i64 %539, 8
  store i64 %540, i64* %PC.i11
  %541 = load i64, i64* bitcast (%G_0x6cb8f8_type* @G_0x6cb8f8 to i64*)
  store i64 %541, i64* %RAX.i12, align 8
  store %struct.Memory* %loadMem_417741, %struct.Memory** %MEMORY
  %loadMem_417749 = load %struct.Memory*, %struct.Memory** %MEMORY
  %542 = getelementptr inbounds %struct.State, %struct.State* %0, i32 0, i32 6
  %543 = getelementptr inbounds %struct.GPR, %struct.GPR* %542, i32 0, i32 33
  %544 = getelementptr inbounds %struct.Reg, %struct.Reg* %543, i32 0, i32 0
  %PC.i8 = bitcast %union.anon* %544 to i64*
  %545 = getelementptr inbounds %struct.State, %struct.State* %0, i32 0, i32 6
  %546 = getelementptr inbounds %struct.GPR, %struct.GPR* %545, i32 0, i32 5
  %547 = getelementptr inbounds %struct.Reg, %struct.Reg* %546, i32 0, i32 0
  %ECX.i9 = bitcast %union.anon* %547 to i32*
  %548 = getelementptr inbounds %struct.State, %struct.State* %0, i32 0, i32 6
  %549 = getelementptr inbounds %struct.GPR, %struct.GPR* %548, i32 0, i32 1
  %550 = getelementptr inbounds %struct.Reg, %struct.Reg* %549, i32 0, i32 0
  %RAX.i10 = bitcast %union.anon* %550 to i64*
  %551 = load i64, i64* %RAX.i10
  %552 = add i64 %551, 2916
  %553 = load i32, i32* %ECX.i9
  %554 = zext i32 %553 to i64
  %555 = load i64, i64* %PC.i8
  %556 = add i64 %555, 6
  store i64 %556, i64* %PC.i8
  %557 = inttoptr i64 %552 to i32*
  store i32 %553, i32* %557
  store %struct.Memory* %loadMem_417749, %struct.Memory** %MEMORY
  br label %block_.L_41774f

block_.L_41774f:                                  ; preds = %block_417719, %entry
  %loadMem_41774f = load %struct.Memory*, %struct.Memory** %MEMORY
  %558 = getelementptr inbounds %struct.State, %struct.State* %0, i32 0, i32 6
  %559 = getelementptr inbounds %struct.GPR, %struct.GPR* %558, i32 0, i32 33
  %560 = getelementptr inbounds %struct.Reg, %struct.Reg* %559, i32 0, i32 0
  %PC.i6 = bitcast %union.anon* %560 to i64*
  %561 = getelementptr inbounds %struct.State, %struct.State* %0, i32 0, i32 6
  %562 = getelementptr inbounds %struct.GPR, %struct.GPR* %561, i32 0, i32 1
  %563 = getelementptr inbounds %struct.Reg, %struct.Reg* %562, i32 0, i32 0
  %RAX.i7 = bitcast %union.anon* %563 to i64*
  %564 = load i64, i64* %PC.i6
  %565 = add i64 %564, 8
  store i64 %565, i64* %PC.i6
  %566 = load i64, i64* bitcast (%G_0x6cb8f8_type* @G_0x6cb8f8 to i64*)
  store i64 %566, i64* %RAX.i7, align 8
  store %struct.Memory* %loadMem_41774f, %struct.Memory** %MEMORY
  %loadMem_417757 = load %struct.Memory*, %struct.Memory** %MEMORY
  %567 = getelementptr inbounds %struct.State, %struct.State* %0, i32 0, i32 6
  %568 = getelementptr inbounds %struct.GPR, %struct.GPR* %567, i32 0, i32 33
  %569 = getelementptr inbounds %struct.Reg, %struct.Reg* %568, i32 0, i32 0
  %PC.i5 = bitcast %union.anon* %569 to i64*
  %570 = getelementptr inbounds %struct.State, %struct.State* %0, i32 0, i32 6
  %571 = getelementptr inbounds %struct.GPR, %struct.GPR* %570, i32 0, i32 1
  %572 = getelementptr inbounds %struct.Reg, %struct.Reg* %571, i32 0, i32 0
  %RAX.i = bitcast %union.anon* %572 to i64*
  %573 = getelementptr inbounds %struct.State, %struct.State* %0, i32 0, i32 6
  %574 = getelementptr inbounds %struct.GPR, %struct.GPR* %573, i32 0, i32 5
  %575 = getelementptr inbounds %struct.Reg, %struct.Reg* %574, i32 0, i32 0
  %RCX.i = bitcast %union.anon* %575 to i64*
  %576 = load i64, i64* %RAX.i
  %577 = add i64 %576, 8
  %578 = load i64, i64* %PC.i5
  %579 = add i64 %578, 3
  store i64 %579, i64* %PC.i5
  %580 = inttoptr i64 %577 to i32*
  %581 = load i32, i32* %580
  %582 = zext i32 %581 to i64
  store i64 %582, i64* %RCX.i, align 8
  store %struct.Memory* %loadMem_417757, %struct.Memory** %MEMORY
  %loadMem_41775a = load %struct.Memory*, %struct.Memory** %MEMORY
  %583 = getelementptr inbounds %struct.State, %struct.State* %0, i32 0, i32 6
  %584 = getelementptr inbounds %struct.GPR, %struct.GPR* %583, i32 0, i32 33
  %585 = getelementptr inbounds %struct.Reg, %struct.Reg* %584, i32 0, i32 0
  %PC.i4 = bitcast %union.anon* %585 to i64*
  %586 = getelementptr inbounds %struct.State, %struct.State* %0, i32 0, i32 6
  %587 = getelementptr inbounds %struct.GPR, %struct.GPR* %586, i32 0, i32 5
  %588 = getelementptr inbounds %struct.Reg, %struct.Reg* %587, i32 0, i32 0
  %ECX.i = bitcast %union.anon* %588 to i32*
  %589 = load i32, i32* %ECX.i
  %590 = zext i32 %589 to i64
  %591 = load i64, i64* %PC.i4
  %592 = add i64 %591, 7
  store i64 %592, i64* %PC.i4
  store i32 %589, i32* bitcast (%G_0x6cc028_type* @G_0x6cc028 to i32*)
  store %struct.Memory* %loadMem_41775a, %struct.Memory** %MEMORY
  %loadMem_417761 = load %struct.Memory*, %struct.Memory** %MEMORY
  %593 = getelementptr inbounds %struct.State, %struct.State* %0, i32 0, i32 6
  %594 = getelementptr inbounds %struct.GPR, %struct.GPR* %593, i32 0, i32 33
  %595 = getelementptr inbounds %struct.Reg, %struct.Reg* %594, i32 0, i32 0
  %PC.i2 = bitcast %union.anon* %595 to i64*
  %596 = getelementptr inbounds %struct.State, %struct.State* %0, i32 0, i32 6
  %597 = getelementptr inbounds %struct.GPR, %struct.GPR* %596, i32 0, i32 15
  %598 = getelementptr inbounds %struct.Reg, %struct.Reg* %597, i32 0, i32 0
  %RBP.i3 = bitcast %union.anon* %598 to i64*
  %599 = load i64, i64* %PC.i2
  %600 = add i64 %599, 1
  store i64 %600, i64* %PC.i2
  %601 = getelementptr inbounds %struct.State, %struct.State* %0, i64 0, i32 6, i32 13, i32 0, i32 0
  %602 = load i64, i64* %601, align 8
  %603 = add i64 %602, 8
  %604 = inttoptr i64 %602 to i64*
  %605 = load i64, i64* %604
  store i64 %605, i64* %RBP.i3, align 8
  store i64 %603, i64* %601, align 8
  store %struct.Memory* %loadMem_417761, %struct.Memory** %MEMORY
  %loadMem_417762 = load %struct.Memory*, %struct.Memory** %MEMORY
  %606 = getelementptr inbounds %struct.State, %struct.State* %0, i32 0, i32 6
  %607 = getelementptr inbounds %struct.GPR, %struct.GPR* %606, i32 0, i32 33
  %608 = getelementptr inbounds %struct.Reg, %struct.Reg* %607, i32 0, i32 0
  %PC.i1 = bitcast %union.anon* %608 to i64*
  %609 = load i64, i64* %PC.i1
  %610 = add i64 %609, 1
  store i64 %610, i64* %PC.i1
  %611 = getelementptr inbounds %struct.State, %struct.State* %0, i64 0, i32 6, i32 33, i32 0, i32 0
  %612 = getelementptr inbounds %struct.State, %struct.State* %0, i64 0, i32 6, i32 13, i32 0, i32 0
  %613 = load i64, i64* %612, align 8
  %614 = inttoptr i64 %613 to i64*
  %615 = load i64, i64* %614
  store i64 %615, i64* %611, align 8
  %616 = add i64 %613, 8
  store i64 %616, i64* %612, align 8
  store %struct.Memory* %loadMem_417762, %struct.Memory** %MEMORY
  ret %struct.Memory* %loadMem_417762
}

define %struct.Memory* @routine_pushq__rbp(%struct.State* dereferenceable(3376), i64, %struct.Memory*) {
block_400488:
  %3 = getelementptr inbounds %struct.State, %struct.State* %0, i32 0, i32 6
  %4 = getelementptr inbounds %struct.GPR, %struct.GPR* %3, i32 0, i32 33
  %5 = getelementptr inbounds %struct.Reg, %struct.Reg* %4, i32 0, i32 0
  %PC = bitcast %union.anon* %5 to i64*
  %6 = getelementptr inbounds %struct.State, %struct.State* %0, i32 0, i32 6
  %7 = getelementptr inbounds %struct.GPR, %struct.GPR* %6, i32 0, i32 15
  %8 = getelementptr inbounds %struct.Reg, %struct.Reg* %7, i32 0, i32 0
  %RBP = bitcast %union.anon* %8 to i64*
  %9 = load i64, i64* %RBP
  %10 = load i64, i64* %PC
  %11 = add i64 %10, 1
  store i64 %11, i64* %PC
  %12 = getelementptr inbounds %struct.State, %struct.State* %0, i64 0, i32 6, i32 13, i32 0, i32 0
  %13 = load i64, i64* %12, align 8
  %14 = add i64 %13, -8
  %15 = inttoptr i64 %14 to i64*
  store i64 %9, i64* %15
  store i64 %14, i64* %12, align 8
  ret %struct.Memory* %2
}

define %struct.Memory* @routine_movq__rsp___rbp(%struct.State* dereferenceable(3376), i64, %struct.Memory*) {
block_400488:
  %3 = getelementptr inbounds %struct.State, %struct.State* %0, i32 0, i32 6
  %4 = getelementptr inbounds %struct.GPR, %struct.GPR* %3, i32 0, i32 33
  %5 = getelementptr inbounds %struct.Reg, %struct.Reg* %4, i32 0, i32 0
  %PC = bitcast %union.anon* %5 to i64*
  %6 = getelementptr inbounds %struct.State, %struct.State* %0, i32 0, i32 6
  %7 = getelementptr inbounds %struct.GPR, %struct.GPR* %6, i32 0, i32 13
  %8 = getelementptr inbounds %struct.Reg, %struct.Reg* %7, i32 0, i32 0
  %RSP = bitcast %union.anon* %8 to i64*
  %9 = getelementptr inbounds %struct.State, %struct.State* %0, i32 0, i32 6
  %10 = getelementptr inbounds %struct.GPR, %struct.GPR* %9, i32 0, i32 15
  %11 = getelementptr inbounds %struct.Reg, %struct.Reg* %10, i32 0, i32 0
  %RBP = bitcast %union.anon* %11 to i64*
  %12 = load i64, i64* %RSP
  %13 = load i64, i64* %PC
  %14 = add i64 %13, 3
  store i64 %14, i64* %PC
  store i64 %12, i64* %RBP, align 8
  ret %struct.Memory* %2
}

define %struct.Memory* @routine_movq_0x6cb8f8___rax(%struct.State* dereferenceable(3376), i64, %struct.Memory*) {
block_400488:
  %3 = getelementptr inbounds %struct.State, %struct.State* %0, i32 0, i32 6
  %4 = getelementptr inbounds %struct.GPR, %struct.GPR* %3, i32 0, i32 33
  %5 = getelementptr inbounds %struct.Reg, %struct.Reg* %4, i32 0, i32 0
  %PC = bitcast %union.anon* %5 to i64*
  %6 = getelementptr inbounds %struct.State, %struct.State* %0, i32 0, i32 6
  %7 = getelementptr inbounds %struct.GPR, %struct.GPR* %6, i32 0, i32 1
  %8 = getelementptr inbounds %struct.Reg, %struct.Reg* %7, i32 0, i32 0
  %RAX = bitcast %union.anon* %8 to i64*
  %9 = load i64, i64* %PC
  %10 = add i64 %9, 8
  store i64 %10, i64* %PC
  %11 = load i64, i64* bitcast (%G_0x6cb8f8_type* @G_0x6cb8f8 to i64*)
  store i64 %11, i64* %RAX, align 8
  ret %struct.Memory* %2
}

define %struct.Memory* @routine_movl_0x8__rax____ecx(%struct.State* dereferenceable(3376), i64, %struct.Memory*) {
block_400488:
  %3 = getelementptr inbounds %struct.State, %struct.State* %0, i32 0, i32 6
  %4 = getelementptr inbounds %struct.GPR, %struct.GPR* %3, i32 0, i32 33
  %5 = getelementptr inbounds %struct.Reg, %struct.Reg* %4, i32 0, i32 0
  %PC = bitcast %union.anon* %5 to i64*
  %6 = getelementptr inbounds %struct.State, %struct.State* %0, i32 0, i32 6
  %7 = getelementptr inbounds %struct.GPR, %struct.GPR* %6, i32 0, i32 1
  %8 = getelementptr inbounds %struct.Reg, %struct.Reg* %7, i32 0, i32 0
  %RAX = bitcast %union.anon* %8 to i64*
  %9 = getelementptr inbounds %struct.State, %struct.State* %0, i32 0, i32 6
  %10 = getelementptr inbounds %struct.GPR, %struct.GPR* %9, i32 0, i32 5
  %11 = getelementptr inbounds %struct.Reg, %struct.Reg* %10, i32 0, i32 0
  %RCX = bitcast %union.anon* %11 to i64*
  %12 = load i64, i64* %RAX
  %13 = add i64 %12, 8
  %14 = load i64, i64* %PC
  %15 = add i64 %14, 3
  store i64 %15, i64* %PC
  %16 = inttoptr i64 %13 to i32*
  %17 = load i32, i32* %16
  %18 = zext i32 %17 to i64
  store i64 %18, i64* %RCX, align 8
  ret %struct.Memory* %2
}

define %struct.Memory* @routine_subl__0x1___ecx(%struct.State* dereferenceable(3376), i64, %struct.Memory*) {
block_400488:
  %3 = getelementptr inbounds %struct.State, %struct.State* %0, i32 0, i32 6
  %4 = getelementptr inbounds %struct.GPR, %struct.GPR* %3, i32 0, i32 33
  %5 = getelementptr inbounds %struct.Reg, %struct.Reg* %4, i32 0, i32 0
  %PC = bitcast %union.anon* %5 to i64*
  %6 = getelementptr inbounds %struct.State, %struct.State* %0, i32 0, i32 6
  %7 = getelementptr inbounds %struct.GPR, %struct.GPR* %6, i32 0, i32 5
  %8 = getelementptr inbounds %struct.Reg, %struct.Reg* %7, i32 0, i32 0
  %RCX = bitcast %union.anon* %8 to i64*
  %9 = load i64, i64* %RCX
  %10 = load i64, i64* %PC
  %11 = add i64 %10, 3
  store i64 %11, i64* %PC
  %12 = trunc i64 %9 to i32
  %13 = sub i32 %12, 1
  %14 = zext i32 %13 to i64
  store i64 %14, i64* %RCX, align 8
  %15 = icmp ult i32 %12, 1
  %16 = zext i1 %15 to i8
  %17 = getelementptr inbounds %struct.State, %struct.State* %0, i64 0, i32 2, i32 1
  store i8 %16, i8* %17, align 1
  %18 = and i32 %13, 255
  %19 = call i32 @llvm.ctpop.i32(i32 %18)
  %20 = trunc i32 %19 to i8
  %21 = and i8 %20, 1
  %22 = xor i8 %21, 1
  %23 = getelementptr inbounds %struct.State, %struct.State* %0, i64 0, i32 2, i32 3
  store i8 %22, i8* %23, align 1
  %24 = xor i64 1, %9
  %25 = trunc i64 %24 to i32
  %26 = xor i32 %25, %13
  %27 = lshr i32 %26, 4
  %28 = trunc i32 %27 to i8
  %29 = and i8 %28, 1
  %30 = getelementptr inbounds %struct.State, %struct.State* %0, i64 0, i32 2, i32 5
  store i8 %29, i8* %30, align 1
  %31 = icmp eq i32 %13, 0
  %32 = zext i1 %31 to i8
  %33 = getelementptr inbounds %struct.State, %struct.State* %0, i64 0, i32 2, i32 7
  store i8 %32, i8* %33, align 1
  %34 = lshr i32 %13, 31
  %35 = trunc i32 %34 to i8
  %36 = getelementptr inbounds %struct.State, %struct.State* %0, i64 0, i32 2, i32 9
  store i8 %35, i8* %36, align 1
  %37 = lshr i32 %12, 31
  %38 = xor i32 %34, %37
  %39 = add i32 %38, %37
  %40 = icmp eq i32 %39, 2
  %41 = zext i1 %40 to i8
  %42 = getelementptr inbounds %struct.State, %struct.State* %0, i64 0, i32 2, i32 13
  store i8 %41, i8* %42, align 1
  ret %struct.Memory* %2
}

define %struct.Memory* @routine_movl_0xb60__rax____edx(%struct.State* dereferenceable(3376), i64, %struct.Memory*) {
block_400488:
  %3 = getelementptr inbounds %struct.State, %struct.State* %0, i32 0, i32 6
  %4 = getelementptr inbounds %struct.GPR, %struct.GPR* %3, i32 0, i32 33
  %5 = getelementptr inbounds %struct.Reg, %struct.Reg* %4, i32 0, i32 0
  %PC = bitcast %union.anon* %5 to i64*
  %6 = getelementptr inbounds %struct.State, %struct.State* %0, i32 0, i32 6
  %7 = getelementptr inbounds %struct.GPR, %struct.GPR* %6, i32 0, i32 1
  %8 = getelementptr inbounds %struct.Reg, %struct.Reg* %7, i32 0, i32 0
  %RAX = bitcast %union.anon* %8 to i64*
  %9 = getelementptr inbounds %struct.State, %struct.State* %0, i32 0, i32 6
  %10 = getelementptr inbounds %struct.GPR, %struct.GPR* %9, i32 0, i32 7
  %11 = getelementptr inbounds %struct.Reg, %struct.Reg* %10, i32 0, i32 0
  %RDX = bitcast %union.anon* %11 to i64*
  %12 = load i64, i64* %RAX
  %13 = add i64 %12, 2912
  %14 = load i64, i64* %PC
  %15 = add i64 %14, 6
  store i64 %15, i64* %PC
  %16 = inttoptr i64 %13 to i32*
  %17 = load i32, i32* %16
  %18 = zext i32 %17 to i64
  store i64 %18, i64* %RDX, align 8
  ret %struct.Memory* %2
}

define %struct.Memory* @routine_addl__0x1___edx(%struct.State* dereferenceable(3376), i64, %struct.Memory*) {
block_400488:
  %3 = getelementptr inbounds %struct.State, %struct.State* %0, i32 0, i32 6
  %4 = getelementptr inbounds %struct.GPR, %struct.GPR* %3, i32 0, i32 33
  %5 = getelementptr inbounds %struct.Reg, %struct.Reg* %4, i32 0, i32 0
  %PC = bitcast %union.anon* %5 to i64*
  %6 = getelementptr inbounds %struct.State, %struct.State* %0, i32 0, i32 6
  %7 = getelementptr inbounds %struct.GPR, %struct.GPR* %6, i32 0, i32 7
  %8 = getelementptr inbounds %struct.Reg, %struct.Reg* %7, i32 0, i32 0
  %RDX = bitcast %union.anon* %8 to i64*
  %9 = load i64, i64* %RDX
  %10 = load i64, i64* %PC
  %11 = add i64 %10, 3
  store i64 %11, i64* %PC
  %12 = trunc i64 %9 to i32
  %13 = add i32 1, %12
  %14 = zext i32 %13 to i64
  store i64 %14, i64* %RDX, align 8
  %15 = icmp ult i32 %13, %12
  %16 = icmp ult i32 %13, 1
  %17 = or i1 %15, %16
  %18 = zext i1 %17 to i8
  %19 = getelementptr inbounds %struct.State, %struct.State* %0, i64 0, i32 2, i32 1
  store i8 %18, i8* %19, align 1
  %20 = and i32 %13, 255
  %21 = call i32 @llvm.ctpop.i32(i32 %20)
  %22 = trunc i32 %21 to i8
  %23 = and i8 %22, 1
  %24 = xor i8 %23, 1
  %25 = getelementptr inbounds %struct.State, %struct.State* %0, i64 0, i32 2, i32 3
  store i8 %24, i8* %25, align 1
  %26 = xor i64 1, %9
  %27 = trunc i64 %26 to i32
  %28 = xor i32 %27, %13
  %29 = lshr i32 %28, 4
  %30 = trunc i32 %29 to i8
  %31 = and i8 %30, 1
  %32 = getelementptr inbounds %struct.State, %struct.State* %0, i64 0, i32 2, i32 5
  store i8 %31, i8* %32, align 1
  %33 = icmp eq i32 %13, 0
  %34 = zext i1 %33 to i8
  %35 = getelementptr inbounds %struct.State, %struct.State* %0, i64 0, i32 2, i32 7
  store i8 %34, i8* %35, align 1
  %36 = lshr i32 %13, 31
  %37 = trunc i32 %36 to i8
  %38 = getelementptr inbounds %struct.State, %struct.State* %0, i64 0, i32 2, i32 9
  store i8 %37, i8* %38, align 1
  %39 = lshr i32 %12, 31
  %40 = xor i32 %36, %39
  %41 = add i32 %40, %36
  %42 = icmp eq i32 %41, 2
  %43 = zext i1 %42 to i8
  %44 = getelementptr inbounds %struct.State, %struct.State* %0, i64 0, i32 2, i32 13
  store i8 %43, i8* %44, align 1
  ret %struct.Memory* %2
}

define %struct.Memory* @routine_imull__edx___ecx(%struct.State* dereferenceable(3376), i64, %struct.Memory*) {
block_400488:
  %3 = getelementptr inbounds %struct.State, %struct.State* %0, i32 0, i32 6
  %4 = getelementptr inbounds %struct.GPR, %struct.GPR* %3, i32 0, i32 33
  %5 = getelementptr inbounds %struct.Reg, %struct.Reg* %4, i32 0, i32 0
  %PC = bitcast %union.anon* %5 to i64*
  %6 = getelementptr inbounds %struct.State, %struct.State* %0, i32 0, i32 6
  %7 = getelementptr inbounds %struct.GPR, %struct.GPR* %6, i32 0, i32 7
  %8 = getelementptr inbounds %struct.Reg, %struct.Reg* %7, i32 0, i32 0
  %EDX = bitcast %union.anon* %8 to i32*
  %9 = getelementptr inbounds %struct.State, %struct.State* %0, i32 0, i32 6
  %10 = getelementptr inbounds %struct.GPR, %struct.GPR* %9, i32 0, i32 5
  %11 = getelementptr inbounds %struct.Reg, %struct.Reg* %10, i32 0, i32 0
  %RCX = bitcast %union.anon* %11 to i64*
  %12 = load i64, i64* %RCX
  %13 = load i32, i32* %EDX
  %14 = zext i32 %13 to i64
  %15 = load i64, i64* %PC
  %16 = add i64 %15, 3
  store i64 %16, i64* %PC
  %17 = shl i64 %12, 32
  %18 = ashr exact i64 %17, 32
  %19 = shl i64 %14, 32
  %20 = ashr exact i64 %19, 32
  %21 = mul i64 %20, %18
  %22 = trunc i64 %21 to i32
  %23 = and i64 %21, 4294967295
  store i64 %23, i64* %RCX, align 8
  %24 = shl i64 %21, 32
  %25 = ashr exact i64 %24, 32
  %26 = icmp ne i64 %25, %21
  %27 = zext i1 %26 to i8
  %28 = getelementptr inbounds %struct.State, %struct.State* %0, i64 0, i32 2, i32 1
  store i8 %27, i8* %28, align 1
  %29 = and i32 %22, 255
  %30 = call i32 @llvm.ctpop.i32(i32 %29)
  %31 = trunc i32 %30 to i8
  %32 = and i8 %31, 1
  %33 = xor i8 %32, 1
  %34 = getelementptr inbounds %struct.State, %struct.State* %0, i64 0, i32 2, i32 3
  store i8 %33, i8* %34, align 1
  %35 = getelementptr inbounds %struct.State, %struct.State* %0, i64 0, i32 2, i32 5
  store i8 0, i8* %35, align 1
  %36 = getelementptr inbounds %struct.State, %struct.State* %0, i64 0, i32 2, i32 7
  store i8 0, i8* %36, align 1
  %37 = lshr i32 %22, 31
  %38 = trunc i32 %37 to i8
  %39 = getelementptr inbounds %struct.State, %struct.State* %0, i64 0, i32 2, i32 9
  store i8 %38, i8* %39, align 1
  %40 = getelementptr inbounds %struct.State, %struct.State* %0, i64 0, i32 2, i32 13
  store i8 %27, i8* %40, align 1
  ret %struct.Memory* %2
}

define %struct.Memory* @routine_addl__0x1___ecx(%struct.State* dereferenceable(3376), i64, %struct.Memory*) {
block_400488:
  %3 = getelementptr inbounds %struct.State, %struct.State* %0, i32 0, i32 6
  %4 = getelementptr inbounds %struct.GPR, %struct.GPR* %3, i32 0, i32 33
  %5 = getelementptr inbounds %struct.Reg, %struct.Reg* %4, i32 0, i32 0
  %PC = bitcast %union.anon* %5 to i64*
  %6 = getelementptr inbounds %struct.State, %struct.State* %0, i32 0, i32 6
  %7 = getelementptr inbounds %struct.GPR, %struct.GPR* %6, i32 0, i32 5
  %8 = getelementptr inbounds %struct.Reg, %struct.Reg* %7, i32 0, i32 0
  %RCX = bitcast %union.anon* %8 to i64*
  %9 = load i64, i64* %RCX
  %10 = load i64, i64* %PC
  %11 = add i64 %10, 3
  store i64 %11, i64* %PC
  %12 = trunc i64 %9 to i32
  %13 = add i32 1, %12
  %14 = zext i32 %13 to i64
  store i64 %14, i64* %RCX, align 8
  %15 = icmp ult i32 %13, %12
  %16 = icmp ult i32 %13, 1
  %17 = or i1 %15, %16
  %18 = zext i1 %17 to i8
  %19 = getelementptr inbounds %struct.State, %struct.State* %0, i64 0, i32 2, i32 1
  store i8 %18, i8* %19, align 1
  %20 = and i32 %13, 255
  %21 = call i32 @llvm.ctpop.i32(i32 %20)
  %22 = trunc i32 %21 to i8
  %23 = and i8 %22, 1
  %24 = xor i8 %23, 1
  %25 = getelementptr inbounds %struct.State, %struct.State* %0, i64 0, i32 2, i32 3
  store i8 %24, i8* %25, align 1
  %26 = xor i64 1, %9
  %27 = trunc i64 %26 to i32
  %28 = xor i32 %27, %13
  %29 = lshr i32 %28, 4
  %30 = trunc i32 %29 to i8
  %31 = and i8 %30, 1
  %32 = getelementptr inbounds %struct.State, %struct.State* %0, i64 0, i32 2, i32 5
  store i8 %31, i8* %32, align 1
  %33 = icmp eq i32 %13, 0
  %34 = zext i1 %33 to i8
  %35 = getelementptr inbounds %struct.State, %struct.State* %0, i64 0, i32 2, i32 7
  store i8 %34, i8* %35, align 1
  %36 = lshr i32 %13, 31
  %37 = trunc i32 %36 to i8
  %38 = getelementptr inbounds %struct.State, %struct.State* %0, i64 0, i32 2, i32 9
  store i8 %37, i8* %38, align 1
  %39 = lshr i32 %12, 31
  %40 = xor i32 %36, %39
  %41 = add i32 %40, %36
  %42 = icmp eq i32 %41, 2
  %43 = zext i1 %42 to i8
  %44 = getelementptr inbounds %struct.State, %struct.State* %0, i64 0, i32 2, i32 13
  store i8 %43, i8* %44, align 1
  ret %struct.Memory* %2
}

define %struct.Memory* @routine_movl__ecx__0x8__rax_(%struct.State* dereferenceable(3376), i64, %struct.Memory*) {
block_400488:
  %3 = getelementptr inbounds %struct.State, %struct.State* %0, i32 0, i32 6
  %4 = getelementptr inbounds %struct.GPR, %struct.GPR* %3, i32 0, i32 33
  %5 = getelementptr inbounds %struct.Reg, %struct.Reg* %4, i32 0, i32 0
  %PC = bitcast %union.anon* %5 to i64*
  %6 = getelementptr inbounds %struct.State, %struct.State* %0, i32 0, i32 6
  %7 = getelementptr inbounds %struct.GPR, %struct.GPR* %6, i32 0, i32 5
  %8 = getelementptr inbounds %struct.Reg, %struct.Reg* %7, i32 0, i32 0
  %ECX = bitcast %union.anon* %8 to i32*
  %9 = getelementptr inbounds %struct.State, %struct.State* %0, i32 0, i32 6
  %10 = getelementptr inbounds %struct.GPR, %struct.GPR* %9, i32 0, i32 1
  %11 = getelementptr inbounds %struct.Reg, %struct.Reg* %10, i32 0, i32 0
  %RAX = bitcast %union.anon* %11 to i64*
  %12 = load i64, i64* %RAX
  %13 = add i64 %12, 8
  %14 = load i32, i32* %ECX
  %15 = zext i32 %14 to i64
  %16 = load i64, i64* %PC
  %17 = add i64 %16, 3
  store i64 %17, i64* %PC
  %18 = inttoptr i64 %13 to i32*
  store i32 %14, i32* %18
  ret %struct.Memory* %2
}

define %struct.Memory* @routine_cmpl__0x0__0xb64__rax_(%struct.State* dereferenceable(3376), i64, %struct.Memory*) {
block_400488:
  %3 = getelementptr inbounds %struct.State, %struct.State* %0, i32 0, i32 6
  %4 = getelementptr inbounds %struct.GPR, %struct.GPR* %3, i32 0, i32 33
  %5 = getelementptr inbounds %struct.Reg, %struct.Reg* %4, i32 0, i32 0
  %PC = bitcast %union.anon* %5 to i64*
  %6 = getelementptr inbounds %struct.State, %struct.State* %0, i32 0, i32 6
  %7 = getelementptr inbounds %struct.GPR, %struct.GPR* %6, i32 0, i32 1
  %8 = getelementptr inbounds %struct.Reg, %struct.Reg* %7, i32 0, i32 0
  %RAX = bitcast %union.anon* %8 to i64*
  %9 = load i64, i64* %RAX
  %10 = add i64 %9, 2916
  %11 = load i64, i64* %PC
  %12 = add i64 %11, 7
  store i64 %12, i64* %PC
  %13 = inttoptr i64 %10 to i32*
  %14 = load i32, i32* %13
  %15 = getelementptr inbounds %struct.State, %struct.State* %0, i64 0, i32 2, i32 1
  store i8 0, i8* %15, align 1
  %16 = and i32 %14, 255
  %17 = call i32 @llvm.ctpop.i32(i32 %16)
  %18 = trunc i32 %17 to i8
  %19 = and i8 %18, 1
  %20 = xor i8 %19, 1
  %21 = getelementptr inbounds %struct.State, %struct.State* %0, i64 0, i32 2, i32 3
  store i8 %20, i8* %21, align 1
  %22 = getelementptr inbounds %struct.State, %struct.State* %0, i64 0, i32 2, i32 5
  store i8 0, i8* %22, align 1
  %23 = icmp eq i32 %14, 0
  %24 = zext i1 %23 to i8
  %25 = getelementptr inbounds %struct.State, %struct.State* %0, i64 0, i32 2, i32 7
  store i8 %24, i8* %25, align 1
  %26 = lshr i32 %14, 31
  %27 = trunc i32 %26 to i8
  %28 = getelementptr inbounds %struct.State, %struct.State* %0, i64 0, i32 2, i32 9
  store i8 %27, i8* %28, align 1
  %29 = lshr i32 %14, 31
  %30 = xor i32 %26, %29
  %31 = add i32 %30, %29
  %32 = icmp eq i32 %31, 2
  %33 = zext i1 %32 to i8
  %34 = getelementptr inbounds %struct.State, %struct.State* %0, i64 0, i32 2, i32 13
  store i8 %33, i8* %34, align 1
  ret %struct.Memory* %2
}

define %struct.Memory* @routine_je_.L_41774f(%struct.State* dereferenceable(3376), i64, %struct.Memory*, i8* %BRANCH_TAKEN, i64 %rel_off1, i64 %rel_off2, i64 %rel_off3) {
block_400488:
  %3 = getelementptr inbounds %struct.State, %struct.State* %0, i32 0, i32 6
  %4 = getelementptr inbounds %struct.GPR, %struct.GPR* %3, i32 0, i32 33
  %5 = getelementptr inbounds %struct.Reg, %struct.Reg* %4, i32 0, i32 0
  %PC = bitcast %union.anon* %5 to i64*
  %6 = load i64, i64* %PC
  %7 = add i64 %6, %rel_off1
  %8 = load i64, i64* %PC
  %9 = add i64 %8, %rel_off2
  %10 = load i64, i64* %PC
  %11 = add i64 %10, %rel_off3
  store i64 %11, i64* %PC
  %12 = getelementptr inbounds %struct.State, %struct.State* %0, i64 0, i32 2, i32 7
  %13 = load i8, i8* %12, align 1
  store i8 %13, i8* %BRANCH_TAKEN, align 1
  %14 = getelementptr inbounds %struct.State, %struct.State* %0, i64 0, i32 6, i32 33, i32 0, i32 0
  %15 = icmp ne i8 %13, 0
  %16 = select i1 %15, i64 %7, i64 %9
  store i64 %16, i64* %14, align 8
  ret %struct.Memory* %2
}

define %struct.Memory* @routine_movl_0xb64__rax____ecx(%struct.State* dereferenceable(3376), i64, %struct.Memory*) {
block_400488:
  %3 = getelementptr inbounds %struct.State, %struct.State* %0, i32 0, i32 6
  %4 = getelementptr inbounds %struct.GPR, %struct.GPR* %3, i32 0, i32 33
  %5 = getelementptr inbounds %struct.Reg, %struct.Reg* %4, i32 0, i32 0
  %PC = bitcast %union.anon* %5 to i64*
  %6 = getelementptr inbounds %struct.State, %struct.State* %0, i32 0, i32 6
  %7 = getelementptr inbounds %struct.GPR, %struct.GPR* %6, i32 0, i32 1
  %8 = getelementptr inbounds %struct.Reg, %struct.Reg* %7, i32 0, i32 0
  %RAX = bitcast %union.anon* %8 to i64*
  %9 = getelementptr inbounds %struct.State, %struct.State* %0, i32 0, i32 6
  %10 = getelementptr inbounds %struct.GPR, %struct.GPR* %9, i32 0, i32 5
  %11 = getelementptr inbounds %struct.Reg, %struct.Reg* %10, i32 0, i32 0
  %RCX = bitcast %union.anon* %11 to i64*
  %12 = load i64, i64* %RAX
  %13 = add i64 %12, 2916
  %14 = load i64, i64* %PC
  %15 = add i64 %14, 6
  store i64 %15, i64* %PC
  %16 = inttoptr i64 %13 to i32*
  %17 = load i32, i32* %16
  %18 = zext i32 %17 to i64
  store i64 %18, i64* %RCX, align 8
  ret %struct.Memory* %2
}

define %struct.Memory* @routine_movl__ecx__0xb64__rax_(%struct.State* dereferenceable(3376), i64, %struct.Memory*) {
block_400488:
  %3 = getelementptr inbounds %struct.State, %struct.State* %0, i32 0, i32 6
  %4 = getelementptr inbounds %struct.GPR, %struct.GPR* %3, i32 0, i32 33
  %5 = getelementptr inbounds %struct.Reg, %struct.Reg* %4, i32 0, i32 0
  %PC = bitcast %union.anon* %5 to i64*
  %6 = getelementptr inbounds %struct.State, %struct.State* %0, i32 0, i32 6
  %7 = getelementptr inbounds %struct.GPR, %struct.GPR* %6, i32 0, i32 5
  %8 = getelementptr inbounds %struct.Reg, %struct.Reg* %7, i32 0, i32 0
  %ECX = bitcast %union.anon* %8 to i32*
  %9 = getelementptr inbounds %struct.State, %struct.State* %0, i32 0, i32 6
  %10 = getelementptr inbounds %struct.GPR, %struct.GPR* %9, i32 0, i32 1
  %11 = getelementptr inbounds %struct.Reg, %struct.Reg* %10, i32 0, i32 0
  %RAX = bitcast %union.anon* %11 to i64*
  %12 = load i64, i64* %RAX
  %13 = add i64 %12, 2916
  %14 = load i32, i32* %ECX
  %15 = zext i32 %14 to i64
  %16 = load i64, i64* %PC
  %17 = add i64 %16, 6
  store i64 %17, i64* %PC
  %18 = inttoptr i64 %13 to i32*
  store i32 %14, i32* %18
  ret %struct.Memory* %2
}

define %struct.Memory* @routine_movl__ecx__0x6cc028(%struct.State* dereferenceable(3376), i64, %struct.Memory*) {
block_400488:
  %3 = getelementptr inbounds %struct.State, %struct.State* %0, i32 0, i32 6
  %4 = getelementptr inbounds %struct.GPR, %struct.GPR* %3, i32 0, i32 33
  %5 = getelementptr inbounds %struct.Reg, %struct.Reg* %4, i32 0, i32 0
  %PC = bitcast %union.anon* %5 to i64*
  %6 = getelementptr inbounds %struct.State, %struct.State* %0, i32 0, i32 6
  %7 = getelementptr inbounds %struct.GPR, %struct.GPR* %6, i32 0, i32 5
  %8 = getelementptr inbounds %struct.Reg, %struct.Reg* %7, i32 0, i32 0
  %ECX = bitcast %union.anon* %8 to i32*
  %9 = load i32, i32* %ECX
  %10 = zext i32 %9 to i64
  %11 = load i64, i64* %PC
  %12 = add i64 %11, 7
  store i64 %12, i64* %PC
  store i32 %9, i32* bitcast (%G_0x6cc028_type* @G_0x6cc028 to i32*)
  ret %struct.Memory* %2
}

define %struct.Memory* @routine_popq__rbp(%struct.State* dereferenceable(3376), i64, %struct.Memory*) {
block_400488:
  %3 = getelementptr inbounds %struct.State, %struct.State* %0, i32 0, i32 6
  %4 = getelementptr inbounds %struct.GPR, %struct.GPR* %3, i32 0, i32 33
  %5 = getelementptr inbounds %struct.Reg, %struct.Reg* %4, i32 0, i32 0
  %PC = bitcast %union.anon* %5 to i64*
  %6 = getelementptr inbounds %struct.State, %struct.State* %0, i32 0, i32 6
  %7 = getelementptr inbounds %struct.GPR, %struct.GPR* %6, i32 0, i32 15
  %8 = getelementptr inbounds %struct.Reg, %struct.Reg* %7, i32 0, i32 0
  %RBP = bitcast %union.anon* %8 to i64*
  %9 = load i64, i64* %PC
  %10 = add i64 %9, 1
  store i64 %10, i64* %PC
  %11 = getelementptr inbounds %struct.State, %struct.State* %0, i64 0, i32 6, i32 13, i32 0, i32 0
  %12 = load i64, i64* %11, align 8
  %13 = add i64 %12, 8
  %14 = inttoptr i64 %12 to i64*
  %15 = load i64, i64* %14
  store i64 %15, i64* %RBP, align 8
  store i64 %13, i64* %11, align 8
  ret %struct.Memory* %2
}

define %struct.Memory* @routine_retq(%struct.State* dereferenceable(3376), i64, %struct.Memory*) {
block_400488:
  %3 = getelementptr inbounds %struct.State, %struct.State* %0, i32 0, i32 6
  %4 = getelementptr inbounds %struct.GPR, %struct.GPR* %3, i32 0, i32 33
  %5 = getelementptr inbounds %struct.Reg, %struct.Reg* %4, i32 0, i32 0
  %PC = bitcast %union.anon* %5 to i64*
  %6 = load i64, i64* %PC
  %7 = add i64 %6, 1
  store i64 %7, i64* %PC
  %8 = getelementptr inbounds %struct.State, %struct.State* %0, i64 0, i32 6, i32 33, i32 0, i32 0
  %9 = getelementptr inbounds %struct.State, %struct.State* %0, i64 0, i32 6, i32 13, i32 0, i32 0
  %10 = load i64, i64* %9, align 8
  %11 = inttoptr i64 %10 to i64*
  %12 = load i64, i64* %11
  store i64 %12, i64* %8, align 8
  %13 = add i64 %10, 8
  store i64 %13, i64* %9, align 8
  ret %struct.Memory* %2
}

attributes #0 = { argmemonly nounwind }
attributes #1 = { nounwind readnone }
attributes #2 = { alwaysinline }
