; ModuleID = 'mcsema/test.proposed.ll'
source_filename = "llvm-link"
target datalayout = "e-m:e-i64:64-f80:128-n8:16:32:64-S128"
target triple = "x86_64-pc-linux-gnu-elf"

%union.anon = type { i64 }
%seg_400388__init_type = type <{ [23 x i8] }>
%seg_4003a0__text_type = type <{ [354 x i8] }>
%seg_400504__fini_type = type <{ [9 x i8] }>
%seg_400510__rodata_type = type <{ [4 x i8] }>
%seg_400514__eh_frame_hdr_type = type <{ [52 x i8] }>
%seg_400548__eh_frame_type = type <{ [208 x i8] }>
%seg_601018__data_type = type <{ [16 x i8] }>
%__bss_start_type = type <{ [8 x i8] }>
%seg_400514__fini_type = type <{ [9 x i8] }>
%seg_400520__rodata_type = type <{ [4 x i8] }>
%seg_400524__eh_frame_hdr_type = type <{ [52 x i8] }>
%seg_400558__eh_frame_type = type <{ [208 x i8] }>
%G_0x99c0c8_type = type <{ [4 x i8] }>
%struct.State = type { %struct.ArchState, [32 x %union.VectorReg], %struct.ArithFlags, %union.anon, %struct.Segments, %struct.AddressSpace, %struct.GPR, %struct.X87Stack, %struct.MMX, %struct.FPUStatusFlags, %union.anon, %union.FPU, %struct.SegmentCaches }
%struct.ArchState = type { i32, i32, %union.anon }
%union.VectorReg = type { %union.vec512_t }
%union.vec512_t = type { %struct.uint64v8_t }
%struct.uint64v8_t = type { [8 x i64] }
%struct.ArithFlags = type { i8, i8, i8, i8, i8, i8, i8, i8, i8, i8, i8, i8, i8, i8, i8, i8 }
%struct.Segments = type { i16, %union.SegmentSelector, i16, %union.SegmentSelector, i16, %union.SegmentSelector, i16, %union.SegmentSelector, i16, %union.SegmentSelector, i16, %union.SegmentSelector }
%union.SegmentSelector = type { i16 }
%struct.AddressSpace = type { i64, %struct.Reg, i64, %struct.Reg, i64, %struct.Reg, i64, %struct.Reg, i64, %struct.Reg, i64, %struct.Reg }
%struct.Reg = type { %union.anon }
%struct.GPR = type { i64, %struct.Reg, i64, %struct.Reg, i64, %struct.Reg, i64, %struct.Reg, i64, %struct.Reg, i64, %struct.Reg, i64, %struct.Reg, i64, %struct.Reg, i64, %struct.Reg, i64, %struct.Reg, i64, %struct.Reg, i64, %struct.Reg, i64, %struct.Reg, i64, %struct.Reg, i64, %struct.Reg, i64, %struct.Reg, i64, %struct.Reg }
%struct.X87Stack = type { [8 x %struct.anon.3] }
%struct.anon.3 = type { i64, double }
%struct.MMX = type { [8 x %struct.anon.4] }
%struct.anon.4 = type { i64, %union.vec64_t }
%union.vec64_t = type { %struct.uint64v1_t }
%struct.uint64v1_t = type { [1 x i64] }
%struct.FPUStatusFlags = type { i8, i8, i8, i8, i8, i8, i8, i8, i8, i8, i8, i8, i8, i8, i8, i8, i8, i8, i8, i8, [4 x i8] }
%union.FPU = type { %struct.anon.13 }
%struct.anon.13 = type { %struct.FpuFXSAVE, [96 x i8] }
%struct.FpuFXSAVE = type { %union.SegmentSelector, %union.SegmentSelector, %union.FPUAbridgedTagWord, i8, i16, i32, %union.SegmentSelector, i16, i32, %union.SegmentSelector, i16, %union.FPUControlStatus, %union.FPUControlStatus, [8 x %struct.FPUStackElem], [16 x %union.vec128_t] }
%union.FPUAbridgedTagWord = type { i8 }
%union.FPUControlStatus = type { i32 }
%struct.FPUStackElem = type { %union.anon.11, [6 x i8] }
%union.anon.11 = type { %struct.float80_t }
%struct.float80_t = type { [10 x i8] }
%union.vec128_t = type { %struct.uint128v1_t }
%struct.uint128v1_t = type { [1 x i128] }
%struct.SegmentCaches = type { %struct.SegmentShadow, %struct.SegmentShadow, %struct.SegmentShadow, %struct.SegmentShadow, %struct.SegmentShadow, %struct.SegmentShadow }
%struct.SegmentShadow = type { %union.anon, i32, i32 }
%struct.Memory = type opaque

@switch.table = private unnamed_addr constant [4 x i32] [i32 2048, i32 3072, i32 0, i32 1024]
@DR0 = external global i64, align 8
@DR1 = external global i64, align 8
@DR2 = external global i64, align 8
@DR3 = external global i64, align 8
@DR4 = external global i64, align 8
@DR5 = external global i64, align 8
@DR6 = external global i64, align 8
@DR7 = external global i64, align 8
@gCR0 = external global %union.anon, align 1
@gCR1 = external global %union.anon, align 1
@gCR2 = external global %union.anon, align 1
@gCR3 = external global %union.anon, align 1
@gCR4 = external global %union.anon, align 1
@gCR8 = external global %union.anon, align 1
@seg_400388__init = internal constant %seg_400388__init_type <{ [23 x i8] c"H\83\EC\08H\8B\05e\0C \00H\85\C0t\02\FF\D0H\83\C4\08\C3" }>
@seg_4003a0__text = internal constant %seg_4003a0__text_type <{ [354 x i8] c"1\EDI\89\D1^H\89\E2H\83\E4\F0PTI\C7\C0\00\05@\00H\C7\C1\90\04@\00H\C7\C7\88\04@\00\FF\15&\0C \00\F4\0F\1FD\00\00\F3\C3f.\0F\1F\84\00\00\00\00\00\0F\1F@\00U\B8(\10`\00H=(\10`\00H\89\E5t\17\B8\00\00\00\00H\85\C0t\0D]\BF(\10`\00\FF\E0\0F\1FD\00\00]\C3f\0F\1FD\00\00\BE(\10`\00UH\81\EE(\10`\00H\89\E5H\C1\FE\03H\89\F0H\C1\E8?H\01\C6H\D1\FEt\15\B8\00\00\00\00H\85\C0t\0B]\BF(\10`\00\FF\E0\0F\1F\00]\C3f\0F\1FD\00\00\80=\D1\0B \00\00u\17UH\89\E5\E8~\FF\FF\FF\C6\05\BF\0B \00\01]\C3\0F\1FD\00\00\F3\C3\0F\1F@\00f.\0F\1F\84\00\00\00\00\00UH\89\E5]\EB\89\90U\C3f\0F\1FD\00\00AWAVI\89\D7AUATL\8D%\9E\09 \00UH\8D-\9E\09 \00SA\89\FDI\89\F6L)\E5H\83\EC\08H\C1\FD\03\E8\C7\FE\FF\FFH\85\EDt 1\DB\0F\1F\84\00\00\00\00\00L\89\FAL\89\F6D\89\EFA\FF\14\DCH\83\C3\01H9\DDu\EAH\83\C4\08[]A\5CA]A^A_\C3\90f.\0F\1F\84\00\00\00\00\00\F3\C3" }>
@seg_400504__fini = internal constant %seg_400504__fini_type <{ [9 x i8] c"H\83\EC\08H\83\C4\08\C3" }>
@seg_400510__rodata = internal constant %seg_400510__rodata_type <{ [4 x i8] c"\01\00\02\00" }>
@seg_400514__eh_frame_hdr = internal constant %seg_400514__eh_frame_hdr_type <{ [52 x i8] c"\01\1B\03;0\00\00\00\05\00\00\00\8C\FE\FF\FFL\00\00\00\BC\FE\FF\FFx\00\00\00t\FF\FF\FF\8C\00\00\00|\FF\FF\FF\A4\00\00\00\EC\FF\FF\FF\EC\00\00\00" }>
@seg_400548__eh_frame = internal constant %seg_400548__eh_frame_type <{ [208 x i8] c"\14\00\00\00\00\00\00\00\01zR\00\01x\10\01\1B\0C\07\08\90\01\07\10\10\00\00\00\1C\00\00\008\FE\FF\FF+\00\00\00\00\00\00\00\14\00\00\00\00\00\00\00\01zR\00\01x\10\01\1B\0C\07\08\90\01\00\00\10\00\00\00\1C\00\00\00<\FE\FF\FF\02\00\00\00\00\00\00\00\14\00\00\000\00\00\00\E0\FE\FF\FF\02\00\00\00\00\00\00\00\00\00\00\00D\00\00\00H\00\00\00\D0\FE\FF\FFe\00\00\00\00B\0E\10\8F\02B\0E\18\8E\03E\0E \8D\04B\0E(\8C\05H\0E0\86\06H\0E8\83\07M\0E@r\0E8A\0E0A\0E(B\0E B\0E\18B\0E\10B\0E\08\00\10\00\00\00\90\00\00\00\F8\FE\FF\FF\02\00\00\00\00\00\00\00\00\00\00\00" }>
@seg_601018__data = internal global %seg_601018__data_type zeroinitializer
@__bss_start = global %__bss_start_type zeroinitializer
@0 = internal global i1 false
@seg_400514__fini = internal constant %seg_400514__fini_type <{ [9 x i8] c"H\83\EC\08H\83\C4\08\C3" }>
@seg_400520__rodata = internal constant %seg_400520__rodata_type <{ [4 x i8] c"\01\00\02\00" }>
@seg_400524__eh_frame_hdr = internal constant %seg_400524__eh_frame_hdr_type <{ [52 x i8] c"\01\1B\03;0\00\00\00\05\00\00\00|\FE\FF\FFL\00\00\00\AC\FE\FF\FFx\00\00\00d\FF\FF\FF\8C\00\00\00|\FF\FF\FF\A4\00\00\00\EC\FF\FF\FF\EC\00\00\00" }>
@seg_400558__eh_frame = internal constant %seg_400558__eh_frame_type <{ [208 x i8] c"\14\00\00\00\00\00\00\00\01zR\00\01x\10\01\1B\0C\07\08\90\01\07\10\10\00\00\00\1C\00\00\00(\FE\FF\FF+\00\00\00\00\00\00\00\14\00\00\00\00\00\00\00\01zR\00\01x\10\01\1B\0C\07\08\90\01\00\00\10\00\00\00\1C\00\00\00,\FE\FF\FF\02\00\00\00\00\00\00\00\14\00\00\000\00\00\00\D0\FE\FF\FF\09\00\00\00\00\00\00\00\00\00\00\00D\00\00\00H\00\00\00\D0\FE\FF\FFe\00\00\00\00B\0E\10\8F\02B\0E\18\8E\03E\0E \8D\04B\0E(\8C\05H\0E0\86\06H\0E8\83\07M\0E@r\0E8A\0E0A\0E(B\0E B\0E\18B\0E\10B\0E\08\00\10\00\00\00\90\00\00\00\F8\FE\FF\FF\02\00\00\00\00\00\00\00\00\00\00\00" }>
@G_0x99c0c8 = global %G_0x99c0c8_type zeroinitializer

declare %struct.Memory* @__remill_error(%struct.State* dereferenceable(3376), i64, %struct.Memory*)

declare i32 @__remill_fpu_exception_test_and_clear(i32, i32)

; Function Attrs: argmemonly nounwind
declare void @llvm.lifetime.start(i64, i8* nocapture) #0

; Function Attrs: argmemonly nounwind
declare void @llvm.lifetime.end(i64, i8* nocapture) #0

; Function Attrs: nounwind readnone
declare i32 @llvm.ctpop.i32(i32) #1

; Function Attrs: nounwind readnone
declare i32 @llvm.bswap.i32(i32) #1

; Function Attrs: nounwind readnone
declare i64 @llvm.bswap.i64(i64) #1

; Function Attrs: nounwind readnone
declare i32 @llvm.cttz.i32(i32, i1) #1

; Function Attrs: nounwind readnone
declare i64 @llvm.cttz.i64(i64, i1) #1

; Function Attrs: nounwind readnone
declare i32 @llvm.ctlz.i32(i32, i1) #1

; Function Attrs: nounwind readnone
declare i64 @llvm.ctlz.i64(i64, i1) #1

; Function Attrs: argmemonly nounwind
declare void @llvm.memcpy.p0i8.p0i8.i64(i8* nocapture writeonly, i8* nocapture readonly, i64, i32, i1) #0

; Function Attrs: nounwind readnone
declare double @llvm.nearbyint.f64(double) #1

; Function Attrs: nounwind readnone
declare double @llvm.fabs.f64(double) #1

; Function Attrs: nounwind readnone
declare <4 x double> @llvm.nearbyint.v4f64(<4 x double>) #1

; Function Attrs: nounwind readnone
declare <4 x double> @llvm.fabs.v4f64(<4 x double>) #1

; Function Attrs: nounwind readnone
declare double @llvm.trunc.f64(double) #1

; Function Attrs: nounwind readnone
declare <4 x double> @llvm.trunc.v4f64(<4 x double>) #1

; Function Attrs: nounwind readnone
declare float @llvm.nearbyint.f32(float) #1

; Function Attrs: nounwind readnone
declare float @llvm.fabs.f32(float) #1

; Function Attrs: nounwind readnone
declare <4 x float> @llvm.nearbyint.v4f32(<4 x float>) #1

; Function Attrs: nounwind readnone
declare <4 x float> @llvm.fabs.v4f32(<4 x float>) #1

; Function Attrs: nounwind readnone
declare float @llvm.trunc.f32(float) #1

; Function Attrs: nounwind readnone
declare <4 x float> @llvm.trunc.v4f32(<4 x float>) #1

; Function Attrs: argmemonly nounwind
declare void @llvm.memset.p0i8.i64(i8* nocapture writeonly, i8, i64, i32, i1) #0

declare double @atan(double) local_unnamed_addr

declare double @cos(double) local_unnamed_addr

declare double @sin(double) local_unnamed_addr

declare double @sqrt(double) local_unnamed_addr

declare double @tan(double) local_unnamed_addr

declare extern_weak x86_64_sysvcc i64 @abort()

declare extern_weak x86_64_sysvcc i64 @abs(i64)

declare extern_weak x86_64_sysvcc i64 @asin(i64)

declare extern_weak x86_64_sysvcc i64 @atof(i64)

declare extern_weak x86_64_sysvcc i64 @atoi(i64)

declare extern_weak x86_64_sysvcc i64 @atol(i64)

declare extern_weak x86_64_sysvcc i64 @calloc(i64, i64)

declare extern_weak x86_64_sysvcc i64 @clock()

declare extern_weak x86_64_sysvcc i64 @cosf(i64)

declare extern_weak x86_64_sysvcc i64 @exit(i64)

declare extern_weak x86_64_sysvcc i64 @exp(i64)

declare extern_weak x86_64_sysvcc i64 @fflush(i64)

declare extern_weak x86_64_sysvcc i64 @floor(i64)

declare extern_weak x86_64_sysvcc i64 @fprintf(i64, i64, i64, i64, i64, i64, i64, i64, i64, i64, i64, i64, i64, i64, i64, i64)

declare extern_weak x86_64_sysvcc i64 @fputs(i64, i64)

declare extern_weak x86_64_sysvcc i64 @free(i64)

declare extern_weak x86_64_sysvcc i64 @fwrite(i64, i64, i64, i64)

declare extern_weak x86_64_sysvcc i64 @getchar()

declare extern_weak x86_64_sysvcc i64 @gettimeofday(i64, i64)

declare extern_weak x86_64_sysvcc i64 @__isoc99_fscanf(i64, i64, i64, i64, i64, i64, i64, i64, i64, i64, i64, i64, i64, i64, i64, i64)

declare extern_weak x86_64_sysvcc i64 @__isoc99_scanf(i64, i64, i64, i64, i64, i64, i64, i64, i64, i64, i64, i64, i64, i64, i64, i64)

declare extern_weak x86_64_sysvcc i64 @__isoc99_sscanf(i64, i64, i64, i64, i64, i64, i64, i64, i64, i64, i64, i64, i64, i64, i64, i64)

declare extern_weak x86_64_sysvcc i64 @log(i64)

declare extern_weak x86_64_sysvcc i64 @lrand48()

declare extern_weak x86_64_sysvcc i64 @malloc(i64)

declare extern_weak x86_64_sysvcc i64 @memalign(i64, i64)

declare extern_weak x86_64_sysvcc i64 @memcpy(i64, i64, i64)

declare extern_weak x86_64_sysvcc i64 @memset(i64, i64, i64)

declare extern_weak x86_64_sysvcc i64 @perror(i64)

declare extern_weak x86_64_sysvcc i64 @posix_memalign(i64, i64, i64)

declare extern_weak x86_64_sysvcc i64 @pow(i64, i64)

declare extern_weak x86_64_sysvcc i64 @printf(i64, i64, i64, i64, i64, i64, i64, i64, i64, i64, i64, i64, i64, i64, i64, i64)

declare extern_weak x86_64_sysvcc i64 @putchar(i64)

declare extern_weak x86_64_sysvcc i64 @puts(i64)

declare extern_weak x86_64_sysvcc i64 @rand()

declare extern_weak x86_64_sysvcc i64 @random()

declare extern_weak x86_64_sysvcc i64 @realloc(i64, i64)

declare extern_weak x86_64_sysvcc i64 @seed48(i64)

declare extern_weak x86_64_sysvcc i64 @sinf(i64)

declare extern_weak x86_64_sysvcc i64 @sprintf(i64, i64, i64, i64, i64, i64, i64, i64, i64, i64, i64, i64, i64, i64, i64, i64)

declare extern_weak x86_64_sysvcc i64 @srand(i64)

declare extern_weak x86_64_sysvcc i64 @strcat(i64, i64)

declare extern_weak x86_64_sysvcc i64 @strcmp(i64, i64)

declare extern_weak x86_64_sysvcc i64 @strcpy(i64, i64)

declare extern_weak x86_64_sysvcc i64 @strdup(i64)

declare extern_weak x86_64_sysvcc i64 @strlen(i64)

declare extern_weak x86_64_sysvcc i64 @strncmp(i64, i64, i64)

declare extern_weak x86_64_sysvcc i64 @strtoll(i64, i64, i64)

declare extern_weak x86_64_sysvcc i64 @time(i64)

declare extern_weak x86_64_sysvcc i64 @ungetc(i64, i64)

declare extern_weak x86_64_sysvcc i64 @pthread_join(i64, i64)

declare extern_weak x86_64_sysvcc i64 @pthread_create(i64, i64, i64, i64)

declare %struct.Memory* @__remill_function_call(%struct.State* dereferenceable(3376), i64, %struct.Memory*)

declare %struct.Memory* @ext_sqrt(%struct.State* noalias dereferenceable(3376), i64, %struct.Memory* noalias)

declare %struct.Memory* @ext_atan(%struct.State* noalias dereferenceable(3376), i64, %struct.Memory* noalias)

declare %struct.Memory* @ext_cos(%struct.State* noalias dereferenceable(3376), i64, %struct.Memory* noalias)

declare %struct.Memory* @ext_tan(%struct.State* noalias dereferenceable(3376), i64, %struct.Memory* noalias)

declare %struct.Memory* @ext_sin(%struct.State* noalias dereferenceable(3376), i64, %struct.Memory* noalias)

declare %struct.Memory* @sub_401090.fputc_plt(%struct.State* noalias dereferenceable(3376), i64, %struct.Memory* noalias readnone returned)

; Function Attrs: alwaysinline
define %struct.Memory* @sgf_putc(%struct.State* noalias, i64, %struct.Memory* noalias) #2 {
entry:
  %3 = getelementptr inbounds %struct.State, %struct.State* %0, i64 0, i32 6, i32 33, i32 0, i32 0
  store i64 %1, i64* %3, align 8
  %BRANCH_TAKEN = alloca i8, align 1
  store i8 0, i8* %BRANCH_TAKEN, align 1
  %MEMORY = alloca %struct.Memory*, align 8
  store %struct.Memory* %2, %struct.Memory** %MEMORY, align 8
  %loadMem_403c60 = load %struct.Memory*, %struct.Memory** %MEMORY
  %4 = getelementptr inbounds %struct.State, %struct.State* %0, i32 0, i32 6
  %5 = getelementptr inbounds %struct.GPR, %struct.GPR* %4, i32 0, i32 33
  %6 = getelementptr inbounds %struct.Reg, %struct.Reg* %5, i32 0, i32 0
  %PC.i = bitcast %union.anon* %6 to i64*
  %7 = getelementptr inbounds %struct.State, %struct.State* %0, i32 0, i32 6
  %8 = getelementptr inbounds %struct.GPR, %struct.GPR* %7, i32 0, i32 15
  %9 = getelementptr inbounds %struct.Reg, %struct.Reg* %8, i32 0, i32 0
  %RBP.i = bitcast %union.anon* %9 to i64*
  %10 = load i64, i64* %RBP.i
  %11 = load i64, i64* %PC.i
  %12 = add i64 %11, 1
  store i64 %12, i64* %PC.i
  %13 = getelementptr inbounds %struct.State, %struct.State* %0, i64 0, i32 6, i32 13, i32 0, i32 0
  %14 = load i64, i64* %13, align 8
  %15 = add i64 %14, -8
  %16 = inttoptr i64 %15 to i64*
  store i64 %10, i64* %16
  store i64 %15, i64* %13, align 8
  store %struct.Memory* %loadMem_403c60, %struct.Memory** %MEMORY
  %loadMem_403c61 = load %struct.Memory*, %struct.Memory** %MEMORY
  %17 = getelementptr inbounds %struct.State, %struct.State* %0, i32 0, i32 6
  %18 = getelementptr inbounds %struct.GPR, %struct.GPR* %17, i32 0, i32 33
  %19 = getelementptr inbounds %struct.Reg, %struct.Reg* %18, i32 0, i32 0
  %PC.i50 = bitcast %union.anon* %19 to i64*
  %20 = getelementptr inbounds %struct.State, %struct.State* %0, i32 0, i32 6
  %21 = getelementptr inbounds %struct.GPR, %struct.GPR* %20, i32 0, i32 13
  %22 = getelementptr inbounds %struct.Reg, %struct.Reg* %21, i32 0, i32 0
  %RSP.i51 = bitcast %union.anon* %22 to i64*
  %23 = getelementptr inbounds %struct.State, %struct.State* %0, i32 0, i32 6
  %24 = getelementptr inbounds %struct.GPR, %struct.GPR* %23, i32 0, i32 15
  %25 = getelementptr inbounds %struct.Reg, %struct.Reg* %24, i32 0, i32 0
  %RBP.i52 = bitcast %union.anon* %25 to i64*
  %26 = load i64, i64* %RSP.i51
  %27 = load i64, i64* %PC.i50
  %28 = add i64 %27, 3
  store i64 %28, i64* %PC.i50
  store i64 %26, i64* %RBP.i52, align 8
  store %struct.Memory* %loadMem_403c61, %struct.Memory** %MEMORY
  %loadMem_403c64 = load %struct.Memory*, %struct.Memory** %MEMORY
  %29 = getelementptr inbounds %struct.State, %struct.State* %0, i32 0, i32 6
  %30 = getelementptr inbounds %struct.GPR, %struct.GPR* %29, i32 0, i32 33
  %31 = getelementptr inbounds %struct.Reg, %struct.Reg* %30, i32 0, i32 0
  %PC.i48 = bitcast %union.anon* %31 to i64*
  %32 = getelementptr inbounds %struct.State, %struct.State* %0, i32 0, i32 6
  %33 = getelementptr inbounds %struct.GPR, %struct.GPR* %32, i32 0, i32 13
  %34 = getelementptr inbounds %struct.Reg, %struct.Reg* %33, i32 0, i32 0
  %RSP.i49 = bitcast %union.anon* %34 to i64*
  %35 = load i64, i64* %RSP.i49
  %36 = load i64, i64* %PC.i48
  %37 = add i64 %36, 4
  store i64 %37, i64* %PC.i48
  %38 = sub i64 %35, 32
  store i64 %38, i64* %RSP.i49, align 8
  %39 = icmp ult i64 %35, 32
  %40 = zext i1 %39 to i8
  %41 = getelementptr inbounds %struct.State, %struct.State* %0, i64 0, i32 2, i32 1
  store i8 %40, i8* %41, align 1
  %42 = trunc i64 %38 to i32
  %43 = and i32 %42, 255
  %44 = call i32 @llvm.ctpop.i32(i32 %43)
  %45 = trunc i32 %44 to i8
  %46 = and i8 %45, 1
  %47 = xor i8 %46, 1
  %48 = getelementptr inbounds %struct.State, %struct.State* %0, i64 0, i32 2, i32 3
  store i8 %47, i8* %48, align 1
  %49 = xor i64 32, %35
  %50 = xor i64 %49, %38
  %51 = lshr i64 %50, 4
  %52 = trunc i64 %51 to i8
  %53 = and i8 %52, 1
  %54 = getelementptr inbounds %struct.State, %struct.State* %0, i64 0, i32 2, i32 5
  store i8 %53, i8* %54, align 1
  %55 = icmp eq i64 %38, 0
  %56 = zext i1 %55 to i8
  %57 = getelementptr inbounds %struct.State, %struct.State* %0, i64 0, i32 2, i32 7
  store i8 %56, i8* %57, align 1
  %58 = lshr i64 %38, 63
  %59 = trunc i64 %58 to i8
  %60 = getelementptr inbounds %struct.State, %struct.State* %0, i64 0, i32 2, i32 9
  store i8 %59, i8* %60, align 1
  %61 = lshr i64 %35, 63
  %62 = xor i64 %58, %61
  %63 = add i64 %62, %61
  %64 = icmp eq i64 %63, 2
  %65 = zext i1 %64 to i8
  %66 = getelementptr inbounds %struct.State, %struct.State* %0, i64 0, i32 2, i32 13
  store i8 %65, i8* %66, align 1
  store %struct.Memory* %loadMem_403c64, %struct.Memory** %MEMORY
  %loadMem_403c68 = load %struct.Memory*, %struct.Memory** %MEMORY
  %67 = getelementptr inbounds %struct.State, %struct.State* %0, i32 0, i32 6
  %68 = getelementptr inbounds %struct.GPR, %struct.GPR* %67, i32 0, i32 33
  %69 = getelementptr inbounds %struct.Reg, %struct.Reg* %68, i32 0, i32 0
  %PC.i46 = bitcast %union.anon* %69 to i64*
  %70 = getelementptr inbounds %struct.State, %struct.State* %0, i32 0, i32 6
  %71 = getelementptr inbounds %struct.GPR, %struct.GPR* %70, i32 0, i32 11
  %72 = getelementptr inbounds %struct.Reg, %struct.Reg* %71, i32 0, i32 0
  %EDI.i = bitcast %union.anon* %72 to i32*
  %73 = getelementptr inbounds %struct.State, %struct.State* %0, i32 0, i32 6
  %74 = getelementptr inbounds %struct.GPR, %struct.GPR* %73, i32 0, i32 15
  %75 = getelementptr inbounds %struct.Reg, %struct.Reg* %74, i32 0, i32 0
  %RBP.i47 = bitcast %union.anon* %75 to i64*
  %76 = load i64, i64* %RBP.i47
  %77 = sub i64 %76, 4
  %78 = load i32, i32* %EDI.i
  %79 = zext i32 %78 to i64
  %80 = load i64, i64* %PC.i46
  %81 = add i64 %80, 3
  store i64 %81, i64* %PC.i46
  %82 = inttoptr i64 %77 to i32*
  store i32 %78, i32* %82
  store %struct.Memory* %loadMem_403c68, %struct.Memory** %MEMORY
  %loadMem_403c6b = load %struct.Memory*, %struct.Memory** %MEMORY
  %83 = getelementptr inbounds %struct.State, %struct.State* %0, i32 0, i32 6
  %84 = getelementptr inbounds %struct.GPR, %struct.GPR* %83, i32 0, i32 33
  %85 = getelementptr inbounds %struct.Reg, %struct.Reg* %84, i32 0, i32 0
  %PC.i43 = bitcast %union.anon* %85 to i64*
  %86 = getelementptr inbounds %struct.State, %struct.State* %0, i32 0, i32 6
  %87 = getelementptr inbounds %struct.GPR, %struct.GPR* %86, i32 0, i32 9
  %88 = getelementptr inbounds %struct.Reg, %struct.Reg* %87, i32 0, i32 0
  %RSI.i44 = bitcast %union.anon* %88 to i64*
  %89 = getelementptr inbounds %struct.State, %struct.State* %0, i32 0, i32 6
  %90 = getelementptr inbounds %struct.GPR, %struct.GPR* %89, i32 0, i32 15
  %91 = getelementptr inbounds %struct.Reg, %struct.Reg* %90, i32 0, i32 0
  %RBP.i45 = bitcast %union.anon* %91 to i64*
  %92 = load i64, i64* %RBP.i45
  %93 = sub i64 %92, 16
  %94 = load i64, i64* %RSI.i44
  %95 = load i64, i64* %PC.i43
  %96 = add i64 %95, 4
  store i64 %96, i64* %PC.i43
  %97 = inttoptr i64 %93 to i64*
  store i64 %94, i64* %97
  store %struct.Memory* %loadMem_403c6b, %struct.Memory** %MEMORY
  %loadMem_403c6f = load %struct.Memory*, %struct.Memory** %MEMORY
  %98 = getelementptr inbounds %struct.State, %struct.State* %0, i32 0, i32 6
  %99 = getelementptr inbounds %struct.GPR, %struct.GPR* %98, i32 0, i32 33
  %100 = getelementptr inbounds %struct.Reg, %struct.Reg* %99, i32 0, i32 0
  %PC.i41 = bitcast %union.anon* %100 to i64*
  %101 = getelementptr inbounds %struct.State, %struct.State* %0, i32 0, i32 6
  %102 = getelementptr inbounds %struct.GPR, %struct.GPR* %101, i32 0, i32 15
  %103 = getelementptr inbounds %struct.Reg, %struct.Reg* %102, i32 0, i32 0
  %RBP.i42 = bitcast %union.anon* %103 to i64*
  %104 = load i64, i64* %RBP.i42
  %105 = sub i64 %104, 4
  %106 = load i64, i64* %PC.i41
  %107 = add i64 %106, 4
  store i64 %107, i64* %PC.i41
  %108 = inttoptr i64 %105 to i32*
  %109 = load i32, i32* %108
  %110 = sub i32 %109, 10
  %111 = icmp ult i32 %109, 10
  %112 = zext i1 %111 to i8
  %113 = getelementptr inbounds %struct.State, %struct.State* %0, i64 0, i32 2, i32 1
  store i8 %112, i8* %113, align 1
  %114 = and i32 %110, 255
  %115 = call i32 @llvm.ctpop.i32(i32 %114)
  %116 = trunc i32 %115 to i8
  %117 = and i8 %116, 1
  %118 = xor i8 %117, 1
  %119 = getelementptr inbounds %struct.State, %struct.State* %0, i64 0, i32 2, i32 3
  store i8 %118, i8* %119, align 1
  %120 = xor i32 %109, 10
  %121 = xor i32 %120, %110
  %122 = lshr i32 %121, 4
  %123 = trunc i32 %122 to i8
  %124 = and i8 %123, 1
  %125 = getelementptr inbounds %struct.State, %struct.State* %0, i64 0, i32 2, i32 5
  store i8 %124, i8* %125, align 1
  %126 = icmp eq i32 %110, 0
  %127 = zext i1 %126 to i8
  %128 = getelementptr inbounds %struct.State, %struct.State* %0, i64 0, i32 2, i32 7
  store i8 %127, i8* %128, align 1
  %129 = lshr i32 %110, 31
  %130 = trunc i32 %129 to i8
  %131 = getelementptr inbounds %struct.State, %struct.State* %0, i64 0, i32 2, i32 9
  store i8 %130, i8* %131, align 1
  %132 = lshr i32 %109, 31
  %133 = xor i32 %129, %132
  %134 = add i32 %133, %132
  %135 = icmp eq i32 %134, 2
  %136 = zext i1 %135 to i8
  %137 = getelementptr inbounds %struct.State, %struct.State* %0, i64 0, i32 2, i32 13
  store i8 %136, i8* %137, align 1
  store %struct.Memory* %loadMem_403c6f, %struct.Memory** %MEMORY
  %loadMem_403c73 = load %struct.Memory*, %struct.Memory** %MEMORY
  %138 = getelementptr inbounds %struct.State, %struct.State* %0, i32 0, i32 6
  %139 = getelementptr inbounds %struct.GPR, %struct.GPR* %138, i32 0, i32 33
  %140 = getelementptr inbounds %struct.Reg, %struct.Reg* %139, i32 0, i32 0
  %PC.i40 = bitcast %union.anon* %140 to i64*
  %141 = load i64, i64* %PC.i40
  %142 = add i64 %141, 25
  %143 = load i64, i64* %PC.i40
  %144 = add i64 %143, 6
  %145 = load i64, i64* %PC.i40
  %146 = add i64 %145, 6
  store i64 %146, i64* %PC.i40
  %147 = getelementptr inbounds %struct.State, %struct.State* %0, i64 0, i32 2, i32 7
  %148 = load i8, i8* %147, align 1
  %149 = icmp eq i8 %148, 0
  %150 = zext i1 %149 to i8
  store i8 %150, i8* %BRANCH_TAKEN, align 1
  %151 = getelementptr inbounds %struct.State, %struct.State* %0, i64 0, i32 6, i32 33, i32 0, i32 0
  %152 = select i1 %149, i64 %142, i64 %144
  store i64 %152, i64* %151, align 8
  store %struct.Memory* %loadMem_403c73, %struct.Memory** %MEMORY
  %loadBr_403c73 = load i8, i8* %BRANCH_TAKEN
  %cmpBr_403c73 = icmp eq i8 %loadBr_403c73, 1
  br i1 %cmpBr_403c73, label %block_.L_403c8c, label %block_403c79

block_403c79:                                     ; preds = %entry
  %loadMem_403c79 = load %struct.Memory*, %struct.Memory** %MEMORY
  %153 = getelementptr inbounds %struct.State, %struct.State* %0, i32 0, i32 6
  %154 = getelementptr inbounds %struct.GPR, %struct.GPR* %153, i32 0, i32 33
  %155 = getelementptr inbounds %struct.Reg, %struct.Reg* %154, i32 0, i32 0
  %PC.i39 = bitcast %union.anon* %155 to i64*
  %156 = load i64, i64* %PC.i39
  %157 = add i64 %156, 8
  store i64 %157, i64* %PC.i39
  %158 = load i32, i32* bitcast (%G_0x99c0c8_type* @G_0x99c0c8 to i32*)
  %159 = getelementptr inbounds %struct.State, %struct.State* %0, i64 0, i32 2, i32 1
  store i8 0, i8* %159, align 1
  %160 = and i32 %158, 255
  %161 = call i32 @llvm.ctpop.i32(i32 %160)
  %162 = trunc i32 %161 to i8
  %163 = and i8 %162, 1
  %164 = xor i8 %163, 1
  %165 = getelementptr inbounds %struct.State, %struct.State* %0, i64 0, i32 2, i32 3
  store i8 %164, i8* %165, align 1
  %166 = getelementptr inbounds %struct.State, %struct.State* %0, i64 0, i32 2, i32 5
  store i8 0, i8* %166, align 1
  %167 = icmp eq i32 %158, 0
  %168 = zext i1 %167 to i8
  %169 = getelementptr inbounds %struct.State, %struct.State* %0, i64 0, i32 2, i32 7
  store i8 %168, i8* %169, align 1
  %170 = lshr i32 %158, 31
  %171 = trunc i32 %170 to i8
  %172 = getelementptr inbounds %struct.State, %struct.State* %0, i64 0, i32 2, i32 9
  store i8 %171, i8* %172, align 1
  %173 = lshr i32 %158, 31
  %174 = xor i32 %170, %173
  %175 = add i32 %174, %173
  %176 = icmp eq i32 %175, 2
  %177 = zext i1 %176 to i8
  %178 = getelementptr inbounds %struct.State, %struct.State* %0, i64 0, i32 2, i32 13
  store i8 %177, i8* %178, align 1
  store %struct.Memory* %loadMem_403c79, %struct.Memory** %MEMORY
  %loadMem_403c81 = load %struct.Memory*, %struct.Memory** %MEMORY
  %179 = getelementptr inbounds %struct.State, %struct.State* %0, i32 0, i32 6
  %180 = getelementptr inbounds %struct.GPR, %struct.GPR* %179, i32 0, i32 33
  %181 = getelementptr inbounds %struct.Reg, %struct.Reg* %180, i32 0, i32 0
  %PC.i38 = bitcast %union.anon* %181 to i64*
  %182 = load i64, i64* %PC.i38
  %183 = add i64 %182, 11
  %184 = load i64, i64* %PC.i38
  %185 = add i64 %184, 6
  %186 = load i64, i64* %PC.i38
  %187 = add i64 %186, 6
  store i64 %187, i64* %PC.i38
  %188 = getelementptr inbounds %struct.State, %struct.State* %0, i64 0, i32 2, i32 7
  %189 = load i8, i8* %188, align 1
  %190 = icmp eq i8 %189, 0
  %191 = zext i1 %190 to i8
  store i8 %191, i8* %BRANCH_TAKEN, align 1
  %192 = getelementptr inbounds %struct.State, %struct.State* %0, i64 0, i32 6, i32 33, i32 0, i32 0
  %193 = select i1 %190, i64 %183, i64 %185
  store i64 %193, i64* %192, align 8
  store %struct.Memory* %loadMem_403c81, %struct.Memory** %MEMORY
  %loadBr_403c81 = load i8, i8* %BRANCH_TAKEN
  %cmpBr_403c81 = icmp eq i8 %loadBr_403c81, 1
  br i1 %cmpBr_403c81, label %block_.L_403c8c, label %block_403c87

block_403c87:                                     ; preds = %block_403c79
  %loadMem_403c87 = load %struct.Memory*, %struct.Memory** %MEMORY
  %194 = getelementptr inbounds %struct.State, %struct.State* %0, i32 0, i32 6
  %195 = getelementptr inbounds %struct.GPR, %struct.GPR* %194, i32 0, i32 33
  %196 = getelementptr inbounds %struct.Reg, %struct.Reg* %195, i32 0, i32 0
  %PC.i37 = bitcast %union.anon* %196 to i64*
  %197 = load i64, i64* %PC.i37
  %198 = add i64 %197, 115
  %199 = load i64, i64* %PC.i37
  %200 = add i64 %199, 5
  store i64 %200, i64* %PC.i37
  %201 = getelementptr inbounds %struct.State, %struct.State* %0, i64 0, i32 6, i32 33, i32 0, i32 0
  store i64 %198, i64* %201, align 8
  store %struct.Memory* %loadMem_403c87, %struct.Memory** %MEMORY
  br label %block_.L_403cfa

block_.L_403c8c:                                  ; preds = %block_403c79, %entry
  %loadMem_403c8c = load %struct.Memory*, %struct.Memory** %MEMORY
  %202 = getelementptr inbounds %struct.State, %struct.State* %0, i32 0, i32 6
  %203 = getelementptr inbounds %struct.GPR, %struct.GPR* %202, i32 0, i32 33
  %204 = getelementptr inbounds %struct.Reg, %struct.Reg* %203, i32 0, i32 0
  %PC.i34 = bitcast %union.anon* %204 to i64*
  %205 = getelementptr inbounds %struct.State, %struct.State* %0, i32 0, i32 6
  %206 = getelementptr inbounds %struct.GPR, %struct.GPR* %205, i32 0, i32 11
  %207 = getelementptr inbounds %struct.Reg, %struct.Reg* %206, i32 0, i32 0
  %RDI.i35 = bitcast %union.anon* %207 to i64*
  %208 = getelementptr inbounds %struct.State, %struct.State* %0, i32 0, i32 6
  %209 = getelementptr inbounds %struct.GPR, %struct.GPR* %208, i32 0, i32 15
  %210 = getelementptr inbounds %struct.Reg, %struct.Reg* %209, i32 0, i32 0
  %RBP.i36 = bitcast %union.anon* %210 to i64*
  %211 = load i64, i64* %RBP.i36
  %212 = sub i64 %211, 4
  %213 = load i64, i64* %PC.i34
  %214 = add i64 %213, 3
  store i64 %214, i64* %PC.i34
  %215 = inttoptr i64 %212 to i32*
  %216 = load i32, i32* %215
  %217 = zext i32 %216 to i64
  store i64 %217, i64* %RDI.i35, align 8
  store %struct.Memory* %loadMem_403c8c, %struct.Memory** %MEMORY
  %loadMem_403c8f = load %struct.Memory*, %struct.Memory** %MEMORY
  %218 = getelementptr inbounds %struct.State, %struct.State* %0, i32 0, i32 6
  %219 = getelementptr inbounds %struct.GPR, %struct.GPR* %218, i32 0, i32 33
  %220 = getelementptr inbounds %struct.Reg, %struct.Reg* %219, i32 0, i32 0
  %PC.i31 = bitcast %union.anon* %220 to i64*
  %221 = getelementptr inbounds %struct.State, %struct.State* %0, i32 0, i32 6
  %222 = getelementptr inbounds %struct.GPR, %struct.GPR* %221, i32 0, i32 9
  %223 = getelementptr inbounds %struct.Reg, %struct.Reg* %222, i32 0, i32 0
  %RSI.i32 = bitcast %union.anon* %223 to i64*
  %224 = getelementptr inbounds %struct.State, %struct.State* %0, i32 0, i32 6
  %225 = getelementptr inbounds %struct.GPR, %struct.GPR* %224, i32 0, i32 15
  %226 = getelementptr inbounds %struct.Reg, %struct.Reg* %225, i32 0, i32 0
  %RBP.i33 = bitcast %union.anon* %226 to i64*
  %227 = load i64, i64* %RBP.i33
  %228 = sub i64 %227, 16
  %229 = load i64, i64* %PC.i31
  %230 = add i64 %229, 4
  store i64 %230, i64* %PC.i31
  %231 = inttoptr i64 %228 to i64*
  %232 = load i64, i64* %231
  store i64 %232, i64* %RSI.i32, align 8
  store %struct.Memory* %loadMem_403c8f, %struct.Memory** %MEMORY
  %loadMem1_403c93 = load %struct.Memory*, %struct.Memory** %MEMORY
  %233 = getelementptr inbounds %struct.State, %struct.State* %0, i32 0, i32 6
  %234 = getelementptr inbounds %struct.GPR, %struct.GPR* %233, i32 0, i32 33
  %235 = getelementptr inbounds %struct.Reg, %struct.Reg* %234, i32 0, i32 0
  %PC.i30 = bitcast %union.anon* %235 to i64*
  %236 = load i64, i64* %PC.i30
  %237 = add i64 %236, -11267
  %238 = load i64, i64* %PC.i30
  %239 = add i64 %238, 5
  %240 = load i64, i64* %PC.i30
  %241 = add i64 %240, 5
  store i64 %241, i64* %PC.i30
  %242 = getelementptr inbounds %struct.State, %struct.State* %0, i64 0, i32 6, i32 13, i32 0, i32 0
  %243 = load i64, i64* %242, align 8
  %244 = add i64 %243, -8
  %245 = inttoptr i64 %244 to i64*
  store i64 %239, i64* %245
  store i64 %244, i64* %242, align 8
  %246 = getelementptr inbounds %struct.State, %struct.State* %0, i64 0, i32 6, i32 33, i32 0, i32 0
  store i64 %237, i64* %246, align 8
  store %struct.Memory* %loadMem1_403c93, %struct.Memory** %MEMORY
  %loadMem2_403c93 = load %struct.Memory*, %struct.Memory** %MEMORY
  %loadPC_403c93 = load i64, i64* %3
  %call2_403c93 = call %struct.Memory* @sub_401090.fputc_plt(%struct.State* %0, i64 %loadPC_403c93, %struct.Memory* %loadMem2_403c93)
  store %struct.Memory* %call2_403c93, %struct.Memory** %MEMORY
  %loadMem_403c98 = load %struct.Memory*, %struct.Memory** %MEMORY
  %247 = getelementptr inbounds %struct.State, %struct.State* %0, i32 0, i32 6
  %248 = getelementptr inbounds %struct.GPR, %struct.GPR* %247, i32 0, i32 33
  %249 = getelementptr inbounds %struct.Reg, %struct.Reg* %248, i32 0, i32 0
  %PC.i28 = bitcast %union.anon* %249 to i64*
  %250 = getelementptr inbounds %struct.State, %struct.State* %0, i32 0, i32 6
  %251 = getelementptr inbounds %struct.GPR, %struct.GPR* %250, i32 0, i32 15
  %252 = getelementptr inbounds %struct.Reg, %struct.Reg* %251, i32 0, i32 0
  %RBP.i29 = bitcast %union.anon* %252 to i64*
  %253 = load i64, i64* %RBP.i29
  %254 = sub i64 %253, 4
  %255 = load i64, i64* %PC.i28
  %256 = add i64 %255, 4
  store i64 %256, i64* %PC.i28
  %257 = inttoptr i64 %254 to i32*
  %258 = load i32, i32* %257
  %259 = sub i32 %258, 10
  %260 = icmp ult i32 %258, 10
  %261 = zext i1 %260 to i8
  %262 = getelementptr inbounds %struct.State, %struct.State* %0, i64 0, i32 2, i32 1
  store i8 %261, i8* %262, align 1
  %263 = and i32 %259, 255
  %264 = call i32 @llvm.ctpop.i32(i32 %263)
  %265 = trunc i32 %264 to i8
  %266 = and i8 %265, 1
  %267 = xor i8 %266, 1
  %268 = getelementptr inbounds %struct.State, %struct.State* %0, i64 0, i32 2, i32 3
  store i8 %267, i8* %268, align 1
  %269 = xor i32 %258, 10
  %270 = xor i32 %269, %259
  %271 = lshr i32 %270, 4
  %272 = trunc i32 %271 to i8
  %273 = and i8 %272, 1
  %274 = getelementptr inbounds %struct.State, %struct.State* %0, i64 0, i32 2, i32 5
  store i8 %273, i8* %274, align 1
  %275 = icmp eq i32 %259, 0
  %276 = zext i1 %275 to i8
  %277 = getelementptr inbounds %struct.State, %struct.State* %0, i64 0, i32 2, i32 7
  store i8 %276, i8* %277, align 1
  %278 = lshr i32 %259, 31
  %279 = trunc i32 %278 to i8
  %280 = getelementptr inbounds %struct.State, %struct.State* %0, i64 0, i32 2, i32 9
  store i8 %279, i8* %280, align 1
  %281 = lshr i32 %258, 31
  %282 = xor i32 %278, %281
  %283 = add i32 %282, %281
  %284 = icmp eq i32 %283, 2
  %285 = zext i1 %284 to i8
  %286 = getelementptr inbounds %struct.State, %struct.State* %0, i64 0, i32 2, i32 13
  store i8 %285, i8* %286, align 1
  store %struct.Memory* %loadMem_403c98, %struct.Memory** %MEMORY
  %loadMem_403c9c = load %struct.Memory*, %struct.Memory** %MEMORY
  %287 = getelementptr inbounds %struct.State, %struct.State* %0, i32 0, i32 6
  %288 = getelementptr inbounds %struct.GPR, %struct.GPR* %287, i32 0, i32 33
  %289 = getelementptr inbounds %struct.Reg, %struct.Reg* %288, i32 0, i32 0
  %PC.i25 = bitcast %union.anon* %289 to i64*
  %290 = getelementptr inbounds %struct.State, %struct.State* %0, i32 0, i32 6
  %291 = getelementptr inbounds %struct.GPR, %struct.GPR* %290, i32 0, i32 1
  %292 = getelementptr inbounds %struct.Reg, %struct.Reg* %291, i32 0, i32 0
  %EAX.i26 = bitcast %union.anon* %292 to i32*
  %293 = getelementptr inbounds %struct.State, %struct.State* %0, i32 0, i32 6
  %294 = getelementptr inbounds %struct.GPR, %struct.GPR* %293, i32 0, i32 15
  %295 = getelementptr inbounds %struct.Reg, %struct.Reg* %294, i32 0, i32 0
  %RBP.i27 = bitcast %union.anon* %295 to i64*
  %296 = load i64, i64* %RBP.i27
  %297 = sub i64 %296, 20
  %298 = load i32, i32* %EAX.i26
  %299 = zext i32 %298 to i64
  %300 = load i64, i64* %PC.i25
  %301 = add i64 %300, 3
  store i64 %301, i64* %PC.i25
  %302 = inttoptr i64 %297 to i32*
  store i32 %298, i32* %302
  store %struct.Memory* %loadMem_403c9c, %struct.Memory** %MEMORY
  %loadMem_403c9f = load %struct.Memory*, %struct.Memory** %MEMORY
  %303 = getelementptr inbounds %struct.State, %struct.State* %0, i32 0, i32 6
  %304 = getelementptr inbounds %struct.GPR, %struct.GPR* %303, i32 0, i32 33
  %305 = getelementptr inbounds %struct.Reg, %struct.Reg* %304, i32 0, i32 0
  %PC.i24 = bitcast %union.anon* %305 to i64*
  %306 = load i64, i64* %PC.i24
  %307 = add i64 %306, 22
  %308 = load i64, i64* %PC.i24
  %309 = add i64 %308, 6
  %310 = load i64, i64* %PC.i24
  %311 = add i64 %310, 6
  store i64 %311, i64* %PC.i24
  %312 = getelementptr inbounds %struct.State, %struct.State* %0, i64 0, i32 2, i32 7
  %313 = load i8, i8* %312, align 1
  %314 = icmp eq i8 %313, 0
  %315 = zext i1 %314 to i8
  store i8 %315, i8* %BRANCH_TAKEN, align 1
  %316 = getelementptr inbounds %struct.State, %struct.State* %0, i64 0, i32 6, i32 33, i32 0, i32 0
  %317 = select i1 %314, i64 %307, i64 %309
  store i64 %317, i64* %316, align 8
  store %struct.Memory* %loadMem_403c9f, %struct.Memory** %MEMORY
  %loadBr_403c9f = load i8, i8* %BRANCH_TAKEN
  %cmpBr_403c9f = icmp eq i8 %loadBr_403c9f, 1
  br i1 %cmpBr_403c9f, label %block_.L_403cb5, label %block_403ca5

block_403ca5:                                     ; preds = %block_.L_403c8c
  %loadMem_403ca5 = load %struct.Memory*, %struct.Memory** %MEMORY
  %318 = getelementptr inbounds %struct.State, %struct.State* %0, i32 0, i32 6
  %319 = getelementptr inbounds %struct.GPR, %struct.GPR* %318, i32 0, i32 33
  %320 = getelementptr inbounds %struct.Reg, %struct.Reg* %319, i32 0, i32 0
  %PC.i23 = bitcast %union.anon* %320 to i64*
  %321 = load i64, i64* %PC.i23
  %322 = add i64 %321, 11
  store i64 %322, i64* %PC.i23
  store i32 0, i32* bitcast (%G_0x99c0c8_type* @G_0x99c0c8 to i32*)
  store %struct.Memory* %loadMem_403ca5, %struct.Memory** %MEMORY
  %loadMem_403cb0 = load %struct.Memory*, %struct.Memory** %MEMORY
  %323 = getelementptr inbounds %struct.State, %struct.State* %0, i32 0, i32 6
  %324 = getelementptr inbounds %struct.GPR, %struct.GPR* %323, i32 0, i32 33
  %325 = getelementptr inbounds %struct.Reg, %struct.Reg* %324, i32 0, i32 0
  %PC.i22 = bitcast %union.anon* %325 to i64*
  %326 = load i64, i64* %PC.i22
  %327 = add i64 %326, 22
  %328 = load i64, i64* %PC.i22
  %329 = add i64 %328, 5
  store i64 %329, i64* %PC.i22
  %330 = getelementptr inbounds %struct.State, %struct.State* %0, i64 0, i32 6, i32 33, i32 0, i32 0
  store i64 %327, i64* %330, align 8
  store %struct.Memory* %loadMem_403cb0, %struct.Memory** %MEMORY
  br label %block_.L_403cc6

block_.L_403cb5:                                  ; preds = %block_.L_403c8c
  %loadMem_403cb5 = load %struct.Memory*, %struct.Memory** %MEMORY
  %331 = getelementptr inbounds %struct.State, %struct.State* %0, i32 0, i32 6
  %332 = getelementptr inbounds %struct.GPR, %struct.GPR* %331, i32 0, i32 33
  %333 = getelementptr inbounds %struct.Reg, %struct.Reg* %332, i32 0, i32 0
  %PC.i20 = bitcast %union.anon* %333 to i64*
  %334 = getelementptr inbounds %struct.State, %struct.State* %0, i32 0, i32 6
  %335 = getelementptr inbounds %struct.GPR, %struct.GPR* %334, i32 0, i32 1
  %336 = getelementptr inbounds %struct.Reg, %struct.Reg* %335, i32 0, i32 0
  %RAX.i21 = bitcast %union.anon* %336 to i64*
  %337 = load i64, i64* %PC.i20
  %338 = add i64 %337, 7
  store i64 %338, i64* %PC.i20
  %339 = load i32, i32* bitcast (%G_0x99c0c8_type* @G_0x99c0c8 to i32*)
  %340 = zext i32 %339 to i64
  store i64 %340, i64* %RAX.i21, align 8
  store %struct.Memory* %loadMem_403cb5, %struct.Memory** %MEMORY
  %loadMem_403cbc = load %struct.Memory*, %struct.Memory** %MEMORY
  %341 = getelementptr inbounds %struct.State, %struct.State* %0, i32 0, i32 6
  %342 = getelementptr inbounds %struct.GPR, %struct.GPR* %341, i32 0, i32 33
  %343 = getelementptr inbounds %struct.Reg, %struct.Reg* %342, i32 0, i32 0
  %PC.i19 = bitcast %union.anon* %343 to i64*
  %344 = getelementptr inbounds %struct.State, %struct.State* %0, i32 0, i32 6
  %345 = getelementptr inbounds %struct.GPR, %struct.GPR* %344, i32 0, i32 1
  %346 = getelementptr inbounds %struct.Reg, %struct.Reg* %345, i32 0, i32 0
  %RAX.i = bitcast %union.anon* %346 to i64*
  %347 = load i64, i64* %RAX.i
  %348 = load i64, i64* %PC.i19
  %349 = add i64 %348, 3
  store i64 %349, i64* %PC.i19
  %350 = trunc i64 %347 to i32
  %351 = add i32 1, %350
  %352 = zext i32 %351 to i64
  store i64 %352, i64* %RAX.i, align 8
  %353 = icmp ult i32 %351, %350
  %354 = icmp ult i32 %351, 1
  %355 = or i1 %353, %354
  %356 = zext i1 %355 to i8
  %357 = getelementptr inbounds %struct.State, %struct.State* %0, i64 0, i32 2, i32 1
  store i8 %356, i8* %357, align 1
  %358 = and i32 %351, 255
  %359 = call i32 @llvm.ctpop.i32(i32 %358)
  %360 = trunc i32 %359 to i8
  %361 = and i8 %360, 1
  %362 = xor i8 %361, 1
  %363 = getelementptr inbounds %struct.State, %struct.State* %0, i64 0, i32 2, i32 3
  store i8 %362, i8* %363, align 1
  %364 = xor i64 1, %347
  %365 = trunc i64 %364 to i32
  %366 = xor i32 %365, %351
  %367 = lshr i32 %366, 4
  %368 = trunc i32 %367 to i8
  %369 = and i8 %368, 1
  %370 = getelementptr inbounds %struct.State, %struct.State* %0, i64 0, i32 2, i32 5
  store i8 %369, i8* %370, align 1
  %371 = icmp eq i32 %351, 0
  %372 = zext i1 %371 to i8
  %373 = getelementptr inbounds %struct.State, %struct.State* %0, i64 0, i32 2, i32 7
  store i8 %372, i8* %373, align 1
  %374 = lshr i32 %351, 31
  %375 = trunc i32 %374 to i8
  %376 = getelementptr inbounds %struct.State, %struct.State* %0, i64 0, i32 2, i32 9
  store i8 %375, i8* %376, align 1
  %377 = lshr i32 %350, 31
  %378 = xor i32 %374, %377
  %379 = add i32 %378, %374
  %380 = icmp eq i32 %379, 2
  %381 = zext i1 %380 to i8
  %382 = getelementptr inbounds %struct.State, %struct.State* %0, i64 0, i32 2, i32 13
  store i8 %381, i8* %382, align 1
  store %struct.Memory* %loadMem_403cbc, %struct.Memory** %MEMORY
  %loadMem_403cbf = load %struct.Memory*, %struct.Memory** %MEMORY
  %383 = getelementptr inbounds %struct.State, %struct.State* %0, i32 0, i32 6
  %384 = getelementptr inbounds %struct.GPR, %struct.GPR* %383, i32 0, i32 33
  %385 = getelementptr inbounds %struct.Reg, %struct.Reg* %384, i32 0, i32 0
  %PC.i17 = bitcast %union.anon* %385 to i64*
  %386 = getelementptr inbounds %struct.State, %struct.State* %0, i32 0, i32 6
  %387 = getelementptr inbounds %struct.GPR, %struct.GPR* %386, i32 0, i32 1
  %388 = getelementptr inbounds %struct.Reg, %struct.Reg* %387, i32 0, i32 0
  %EAX.i18 = bitcast %union.anon* %388 to i32*
  %389 = load i32, i32* %EAX.i18
  %390 = zext i32 %389 to i64
  %391 = load i64, i64* %PC.i17
  %392 = add i64 %391, 7
  store i64 %392, i64* %PC.i17
  store i32 %389, i32* bitcast (%G_0x99c0c8_type* @G_0x99c0c8 to i32*)
  store %struct.Memory* %loadMem_403cbf, %struct.Memory** %MEMORY
  br label %block_.L_403cc6

block_.L_403cc6:                                  ; preds = %block_.L_403cb5, %block_403ca5
  %loadMem_403cc6 = load %struct.Memory*, %struct.Memory** %MEMORY
  %393 = getelementptr inbounds %struct.State, %struct.State* %0, i32 0, i32 6
  %394 = getelementptr inbounds %struct.GPR, %struct.GPR* %393, i32 0, i32 33
  %395 = getelementptr inbounds %struct.Reg, %struct.Reg* %394, i32 0, i32 0
  %PC.i15 = bitcast %union.anon* %395 to i64*
  %396 = getelementptr inbounds %struct.State, %struct.State* %0, i32 0, i32 6
  %397 = getelementptr inbounds %struct.GPR, %struct.GPR* %396, i32 0, i32 15
  %398 = getelementptr inbounds %struct.Reg, %struct.Reg* %397, i32 0, i32 0
  %RBP.i16 = bitcast %union.anon* %398 to i64*
  %399 = load i64, i64* %RBP.i16
  %400 = sub i64 %399, 4
  %401 = load i64, i64* %PC.i15
  %402 = add i64 %401, 4
  store i64 %402, i64* %PC.i15
  %403 = inttoptr i64 %400 to i32*
  %404 = load i32, i32* %403
  %405 = sub i32 %404, 93
  %406 = icmp ult i32 %404, 93
  %407 = zext i1 %406 to i8
  %408 = getelementptr inbounds %struct.State, %struct.State* %0, i64 0, i32 2, i32 1
  store i8 %407, i8* %408, align 1
  %409 = and i32 %405, 255
  %410 = call i32 @llvm.ctpop.i32(i32 %409)
  %411 = trunc i32 %410 to i8
  %412 = and i8 %411, 1
  %413 = xor i8 %412, 1
  %414 = getelementptr inbounds %struct.State, %struct.State* %0, i64 0, i32 2, i32 3
  store i8 %413, i8* %414, align 1
  %415 = xor i32 %404, 93
  %416 = xor i32 %415, %405
  %417 = lshr i32 %416, 4
  %418 = trunc i32 %417 to i8
  %419 = and i8 %418, 1
  %420 = getelementptr inbounds %struct.State, %struct.State* %0, i64 0, i32 2, i32 5
  store i8 %419, i8* %420, align 1
  %421 = icmp eq i32 %405, 0
  %422 = zext i1 %421 to i8
  %423 = getelementptr inbounds %struct.State, %struct.State* %0, i64 0, i32 2, i32 7
  store i8 %422, i8* %423, align 1
  %424 = lshr i32 %405, 31
  %425 = trunc i32 %424 to i8
  %426 = getelementptr inbounds %struct.State, %struct.State* %0, i64 0, i32 2, i32 9
  store i8 %425, i8* %426, align 1
  %427 = lshr i32 %404, 31
  %428 = xor i32 %424, %427
  %429 = add i32 %428, %427
  %430 = icmp eq i32 %429, 2
  %431 = zext i1 %430 to i8
  %432 = getelementptr inbounds %struct.State, %struct.State* %0, i64 0, i32 2, i32 13
  store i8 %431, i8* %432, align 1
  store %struct.Memory* %loadMem_403cc6, %struct.Memory** %MEMORY
  %loadMem_403cca = load %struct.Memory*, %struct.Memory** %MEMORY
  %433 = getelementptr inbounds %struct.State, %struct.State* %0, i32 0, i32 6
  %434 = getelementptr inbounds %struct.GPR, %struct.GPR* %433, i32 0, i32 33
  %435 = getelementptr inbounds %struct.Reg, %struct.Reg* %434, i32 0, i32 0
  %PC.i14 = bitcast %union.anon* %435 to i64*
  %436 = load i64, i64* %PC.i14
  %437 = add i64 %436, 48
  %438 = load i64, i64* %PC.i14
  %439 = add i64 %438, 6
  %440 = load i64, i64* %PC.i14
  %441 = add i64 %440, 6
  store i64 %441, i64* %PC.i14
  %442 = getelementptr inbounds %struct.State, %struct.State* %0, i64 0, i32 2, i32 7
  %443 = load i8, i8* %442, align 1
  %444 = icmp eq i8 %443, 0
  %445 = zext i1 %444 to i8
  store i8 %445, i8* %BRANCH_TAKEN, align 1
  %446 = getelementptr inbounds %struct.State, %struct.State* %0, i64 0, i32 6, i32 33, i32 0, i32 0
  %447 = select i1 %444, i64 %437, i64 %439
  store i64 %447, i64* %446, align 8
  store %struct.Memory* %loadMem_403cca, %struct.Memory** %MEMORY
  %loadBr_403cca = load i8, i8* %BRANCH_TAKEN
  %cmpBr_403cca = icmp eq i8 %loadBr_403cca, 1
  br i1 %cmpBr_403cca, label %block_.L_403cfa, label %block_403cd0

block_403cd0:                                     ; preds = %block_.L_403cc6
  %loadMem_403cd0 = load %struct.Memory*, %struct.Memory** %MEMORY
  %448 = getelementptr inbounds %struct.State, %struct.State* %0, i32 0, i32 6
  %449 = getelementptr inbounds %struct.GPR, %struct.GPR* %448, i32 0, i32 33
  %450 = getelementptr inbounds %struct.Reg, %struct.Reg* %449, i32 0, i32 0
  %PC.i13 = bitcast %union.anon* %450 to i64*
  %451 = load i64, i64* %PC.i13
  %452 = add i64 %451, 8
  store i64 %452, i64* %PC.i13
  %453 = load i32, i32* bitcast (%G_0x99c0c8_type* @G_0x99c0c8 to i32*)
  %454 = sub i32 %453, 60
  %455 = icmp ult i32 %453, 60
  %456 = zext i1 %455 to i8
  %457 = getelementptr inbounds %struct.State, %struct.State* %0, i64 0, i32 2, i32 1
  store i8 %456, i8* %457, align 1
  %458 = and i32 %454, 255
  %459 = call i32 @llvm.ctpop.i32(i32 %458)
  %460 = trunc i32 %459 to i8
  %461 = and i8 %460, 1
  %462 = xor i8 %461, 1
  %463 = getelementptr inbounds %struct.State, %struct.State* %0, i64 0, i32 2, i32 3
  store i8 %462, i8* %463, align 1
  %464 = xor i32 %453, 60
  %465 = xor i32 %464, %454
  %466 = lshr i32 %465, 4
  %467 = trunc i32 %466 to i8
  %468 = and i8 %467, 1
  %469 = getelementptr inbounds %struct.State, %struct.State* %0, i64 0, i32 2, i32 5
  store i8 %468, i8* %469, align 1
  %470 = icmp eq i32 %454, 0
  %471 = zext i1 %470 to i8
  %472 = getelementptr inbounds %struct.State, %struct.State* %0, i64 0, i32 2, i32 7
  store i8 %471, i8* %472, align 1
  %473 = lshr i32 %454, 31
  %474 = trunc i32 %473 to i8
  %475 = getelementptr inbounds %struct.State, %struct.State* %0, i64 0, i32 2, i32 9
  store i8 %474, i8* %475, align 1
  %476 = lshr i32 %453, 31
  %477 = xor i32 %473, %476
  %478 = add i32 %477, %476
  %479 = icmp eq i32 %478, 2
  %480 = zext i1 %479 to i8
  %481 = getelementptr inbounds %struct.State, %struct.State* %0, i64 0, i32 2, i32 13
  store i8 %480, i8* %481, align 1
  store %struct.Memory* %loadMem_403cd0, %struct.Memory** %MEMORY
  %loadMem_403cd8 = load %struct.Memory*, %struct.Memory** %MEMORY
  %482 = getelementptr inbounds %struct.State, %struct.State* %0, i32 0, i32 6
  %483 = getelementptr inbounds %struct.GPR, %struct.GPR* %482, i32 0, i32 33
  %484 = getelementptr inbounds %struct.Reg, %struct.Reg* %483, i32 0, i32 0
  %PC.i12 = bitcast %union.anon* %484 to i64*
  %485 = load i64, i64* %PC.i12
  %486 = add i64 %485, 34
  %487 = load i64, i64* %PC.i12
  %488 = add i64 %487, 6
  %489 = load i64, i64* %PC.i12
  %490 = add i64 %489, 6
  store i64 %490, i64* %PC.i12
  %491 = getelementptr inbounds %struct.State, %struct.State* %0, i64 0, i32 2, i32 7
  %492 = load i8, i8* %491, align 1
  %493 = icmp ne i8 %492, 0
  %494 = getelementptr inbounds %struct.State, %struct.State* %0, i64 0, i32 2, i32 9
  %495 = load i8, i8* %494, align 1
  %496 = icmp ne i8 %495, 0
  %497 = getelementptr inbounds %struct.State, %struct.State* %0, i64 0, i32 2, i32 13
  %498 = load i8, i8* %497, align 1
  %499 = icmp ne i8 %498, 0
  %500 = xor i1 %496, %499
  %501 = or i1 %493, %500
  %502 = zext i1 %501 to i8
  store i8 %502, i8* %BRANCH_TAKEN, align 1
  %503 = getelementptr inbounds %struct.State, %struct.State* %0, i64 0, i32 6, i32 33, i32 0, i32 0
  %504 = select i1 %501, i64 %486, i64 %488
  store i64 %504, i64* %503, align 8
  store %struct.Memory* %loadMem_403cd8, %struct.Memory** %MEMORY
  %loadBr_403cd8 = load i8, i8* %BRANCH_TAKEN
  %cmpBr_403cd8 = icmp eq i8 %loadBr_403cd8, 1
  br i1 %cmpBr_403cd8, label %block_.L_403cfa, label %block_403cde

block_403cde:                                     ; preds = %block_403cd0
  %loadMem_403cde = load %struct.Memory*, %struct.Memory** %MEMORY
  %505 = getelementptr inbounds %struct.State, %struct.State* %0, i32 0, i32 6
  %506 = getelementptr inbounds %struct.GPR, %struct.GPR* %505, i32 0, i32 33
  %507 = getelementptr inbounds %struct.Reg, %struct.Reg* %506, i32 0, i32 0
  %PC.i11 = bitcast %union.anon* %507 to i64*
  %508 = getelementptr inbounds %struct.State, %struct.State* %0, i32 0, i32 6
  %509 = getelementptr inbounds %struct.GPR, %struct.GPR* %508, i32 0, i32 11
  %510 = getelementptr inbounds %struct.Reg, %struct.Reg* %509, i32 0, i32 0
  %RDI.i = bitcast %union.anon* %510 to i64*
  %511 = load i64, i64* %PC.i11
  %512 = add i64 %511, 5
  store i64 %512, i64* %PC.i11
  store i64 10, i64* %RDI.i, align 8
  store %struct.Memory* %loadMem_403cde, %struct.Memory** %MEMORY
  %loadMem_403ce3 = load %struct.Memory*, %struct.Memory** %MEMORY
  %513 = getelementptr inbounds %struct.State, %struct.State* %0, i32 0, i32 6
  %514 = getelementptr inbounds %struct.GPR, %struct.GPR* %513, i32 0, i32 33
  %515 = getelementptr inbounds %struct.Reg, %struct.Reg* %514, i32 0, i32 0
  %PC.i9 = bitcast %union.anon* %515 to i64*
  %516 = getelementptr inbounds %struct.State, %struct.State* %0, i32 0, i32 6
  %517 = getelementptr inbounds %struct.GPR, %struct.GPR* %516, i32 0, i32 9
  %518 = getelementptr inbounds %struct.Reg, %struct.Reg* %517, i32 0, i32 0
  %RSI.i = bitcast %union.anon* %518 to i64*
  %519 = getelementptr inbounds %struct.State, %struct.State* %0, i32 0, i32 6
  %520 = getelementptr inbounds %struct.GPR, %struct.GPR* %519, i32 0, i32 15
  %521 = getelementptr inbounds %struct.Reg, %struct.Reg* %520, i32 0, i32 0
  %RBP.i10 = bitcast %union.anon* %521 to i64*
  %522 = load i64, i64* %RBP.i10
  %523 = sub i64 %522, 16
  %524 = load i64, i64* %PC.i9
  %525 = add i64 %524, 4
  store i64 %525, i64* %PC.i9
  %526 = inttoptr i64 %523 to i64*
  %527 = load i64, i64* %526
  store i64 %527, i64* %RSI.i, align 8
  store %struct.Memory* %loadMem_403ce3, %struct.Memory** %MEMORY
  %loadMem1_403ce7 = load %struct.Memory*, %struct.Memory** %MEMORY
  %528 = getelementptr inbounds %struct.State, %struct.State* %0, i32 0, i32 6
  %529 = getelementptr inbounds %struct.GPR, %struct.GPR* %528, i32 0, i32 33
  %530 = getelementptr inbounds %struct.Reg, %struct.Reg* %529, i32 0, i32 0
  %PC.i8 = bitcast %union.anon* %530 to i64*
  %531 = load i64, i64* %PC.i8
  %532 = add i64 %531, -11351
  %533 = load i64, i64* %PC.i8
  %534 = add i64 %533, 5
  %535 = load i64, i64* %PC.i8
  %536 = add i64 %535, 5
  store i64 %536, i64* %PC.i8
  %537 = getelementptr inbounds %struct.State, %struct.State* %0, i64 0, i32 6, i32 13, i32 0, i32 0
  %538 = load i64, i64* %537, align 8
  %539 = add i64 %538, -8
  %540 = inttoptr i64 %539 to i64*
  store i64 %534, i64* %540
  store i64 %539, i64* %537, align 8
  %541 = getelementptr inbounds %struct.State, %struct.State* %0, i64 0, i32 6, i32 33, i32 0, i32 0
  store i64 %532, i64* %541, align 8
  store %struct.Memory* %loadMem1_403ce7, %struct.Memory** %MEMORY
  %loadMem2_403ce7 = load %struct.Memory*, %struct.Memory** %MEMORY
  %loadPC_403ce7 = load i64, i64* %3
  %call2_403ce7 = call %struct.Memory* @sub_401090.fputc_plt(%struct.State* %0, i64 %loadPC_403ce7, %struct.Memory* %loadMem2_403ce7)
  store %struct.Memory* %call2_403ce7, %struct.Memory** %MEMORY
  %loadMem_403cec = load %struct.Memory*, %struct.Memory** %MEMORY
  %542 = getelementptr inbounds %struct.State, %struct.State* %0, i32 0, i32 6
  %543 = getelementptr inbounds %struct.GPR, %struct.GPR* %542, i32 0, i32 33
  %544 = getelementptr inbounds %struct.Reg, %struct.Reg* %543, i32 0, i32 0
  %PC.i7 = bitcast %union.anon* %544 to i64*
  %545 = load i64, i64* %PC.i7
  %546 = add i64 %545, 11
  store i64 %546, i64* %PC.i7
  store i32 0, i32* bitcast (%G_0x99c0c8_type* @G_0x99c0c8 to i32*)
  store %struct.Memory* %loadMem_403cec, %struct.Memory** %MEMORY
  %loadMem_403cf7 = load %struct.Memory*, %struct.Memory** %MEMORY
  %547 = getelementptr inbounds %struct.State, %struct.State* %0, i32 0, i32 6
  %548 = getelementptr inbounds %struct.GPR, %struct.GPR* %547, i32 0, i32 33
  %549 = getelementptr inbounds %struct.Reg, %struct.Reg* %548, i32 0, i32 0
  %PC.i5 = bitcast %union.anon* %549 to i64*
  %550 = getelementptr inbounds %struct.State, %struct.State* %0, i32 0, i32 6
  %551 = getelementptr inbounds %struct.GPR, %struct.GPR* %550, i32 0, i32 1
  %552 = getelementptr inbounds %struct.Reg, %struct.Reg* %551, i32 0, i32 0
  %EAX.i = bitcast %union.anon* %552 to i32*
  %553 = getelementptr inbounds %struct.State, %struct.State* %0, i32 0, i32 6
  %554 = getelementptr inbounds %struct.GPR, %struct.GPR* %553, i32 0, i32 15
  %555 = getelementptr inbounds %struct.Reg, %struct.Reg* %554, i32 0, i32 0
  %RBP.i6 = bitcast %union.anon* %555 to i64*
  %556 = load i64, i64* %RBP.i6
  %557 = sub i64 %556, 24
  %558 = load i32, i32* %EAX.i
  %559 = zext i32 %558 to i64
  %560 = load i64, i64* %PC.i5
  %561 = add i64 %560, 3
  store i64 %561, i64* %PC.i5
  %562 = inttoptr i64 %557 to i32*
  store i32 %558, i32* %562
  store %struct.Memory* %loadMem_403cf7, %struct.Memory** %MEMORY
  br label %block_.L_403cfa

block_.L_403cfa:                                  ; preds = %block_403cde, %block_403cd0, %block_.L_403cc6, %block_403c87
  %loadMem_403cfa = load %struct.Memory*, %struct.Memory** %MEMORY
  %563 = getelementptr inbounds %struct.State, %struct.State* %0, i32 0, i32 6
  %564 = getelementptr inbounds %struct.GPR, %struct.GPR* %563, i32 0, i32 33
  %565 = getelementptr inbounds %struct.Reg, %struct.Reg* %564, i32 0, i32 0
  %PC.i4 = bitcast %union.anon* %565 to i64*
  %566 = getelementptr inbounds %struct.State, %struct.State* %0, i32 0, i32 6
  %567 = getelementptr inbounds %struct.GPR, %struct.GPR* %566, i32 0, i32 13
  %568 = getelementptr inbounds %struct.Reg, %struct.Reg* %567, i32 0, i32 0
  %RSP.i = bitcast %union.anon* %568 to i64*
  %569 = load i64, i64* %RSP.i
  %570 = load i64, i64* %PC.i4
  %571 = add i64 %570, 4
  store i64 %571, i64* %PC.i4
  %572 = add i64 32, %569
  store i64 %572, i64* %RSP.i, align 8
  %573 = icmp ult i64 %572, %569
  %574 = icmp ult i64 %572, 32
  %575 = or i1 %573, %574
  %576 = zext i1 %575 to i8
  %577 = getelementptr inbounds %struct.State, %struct.State* %0, i64 0, i32 2, i32 1
  store i8 %576, i8* %577, align 1
  %578 = trunc i64 %572 to i32
  %579 = and i32 %578, 255
  %580 = call i32 @llvm.ctpop.i32(i32 %579)
  %581 = trunc i32 %580 to i8
  %582 = and i8 %581, 1
  %583 = xor i8 %582, 1
  %584 = getelementptr inbounds %struct.State, %struct.State* %0, i64 0, i32 2, i32 3
  store i8 %583, i8* %584, align 1
  %585 = xor i64 32, %569
  %586 = xor i64 %585, %572
  %587 = lshr i64 %586, 4
  %588 = trunc i64 %587 to i8
  %589 = and i8 %588, 1
  %590 = getelementptr inbounds %struct.State, %struct.State* %0, i64 0, i32 2, i32 5
  store i8 %589, i8* %590, align 1
  %591 = icmp eq i64 %572, 0
  %592 = zext i1 %591 to i8
  %593 = getelementptr inbounds %struct.State, %struct.State* %0, i64 0, i32 2, i32 7
  store i8 %592, i8* %593, align 1
  %594 = lshr i64 %572, 63
  %595 = trunc i64 %594 to i8
  %596 = getelementptr inbounds %struct.State, %struct.State* %0, i64 0, i32 2, i32 9
  store i8 %595, i8* %596, align 1
  %597 = lshr i64 %569, 63
  %598 = xor i64 %594, %597
  %599 = add i64 %598, %594
  %600 = icmp eq i64 %599, 2
  %601 = zext i1 %600 to i8
  %602 = getelementptr inbounds %struct.State, %struct.State* %0, i64 0, i32 2, i32 13
  store i8 %601, i8* %602, align 1
  store %struct.Memory* %loadMem_403cfa, %struct.Memory** %MEMORY
  %loadMem_403cfe = load %struct.Memory*, %struct.Memory** %MEMORY
  %603 = getelementptr inbounds %struct.State, %struct.State* %0, i32 0, i32 6
  %604 = getelementptr inbounds %struct.GPR, %struct.GPR* %603, i32 0, i32 33
  %605 = getelementptr inbounds %struct.Reg, %struct.Reg* %604, i32 0, i32 0
  %PC.i2 = bitcast %union.anon* %605 to i64*
  %606 = getelementptr inbounds %struct.State, %struct.State* %0, i32 0, i32 6
  %607 = getelementptr inbounds %struct.GPR, %struct.GPR* %606, i32 0, i32 15
  %608 = getelementptr inbounds %struct.Reg, %struct.Reg* %607, i32 0, i32 0
  %RBP.i3 = bitcast %union.anon* %608 to i64*
  %609 = load i64, i64* %PC.i2
  %610 = add i64 %609, 1
  store i64 %610, i64* %PC.i2
  %611 = getelementptr inbounds %struct.State, %struct.State* %0, i64 0, i32 6, i32 13, i32 0, i32 0
  %612 = load i64, i64* %611, align 8
  %613 = add i64 %612, 8
  %614 = inttoptr i64 %612 to i64*
  %615 = load i64, i64* %614
  store i64 %615, i64* %RBP.i3, align 8
  store i64 %613, i64* %611, align 8
  store %struct.Memory* %loadMem_403cfe, %struct.Memory** %MEMORY
  %loadMem_403cff = load %struct.Memory*, %struct.Memory** %MEMORY
  %616 = getelementptr inbounds %struct.State, %struct.State* %0, i32 0, i32 6
  %617 = getelementptr inbounds %struct.GPR, %struct.GPR* %616, i32 0, i32 33
  %618 = getelementptr inbounds %struct.Reg, %struct.Reg* %617, i32 0, i32 0
  %PC.i1 = bitcast %union.anon* %618 to i64*
  %619 = load i64, i64* %PC.i1
  %620 = add i64 %619, 1
  store i64 %620, i64* %PC.i1
  %621 = getelementptr inbounds %struct.State, %struct.State* %0, i64 0, i32 6, i32 33, i32 0, i32 0
  %622 = getelementptr inbounds %struct.State, %struct.State* %0, i64 0, i32 6, i32 13, i32 0, i32 0
  %623 = load i64, i64* %622, align 8
  %624 = inttoptr i64 %623 to i64*
  %625 = load i64, i64* %624
  store i64 %625, i64* %621, align 8
  %626 = add i64 %623, 8
  store i64 %626, i64* %622, align 8
  store %struct.Memory* %loadMem_403cff, %struct.Memory** %MEMORY
  ret %struct.Memory* %loadMem_403cff
}

define %struct.Memory* @routine_pushq__rbp(%struct.State* dereferenceable(3376), i64, %struct.Memory*) {
block_400488:
  %3 = getelementptr inbounds %struct.State, %struct.State* %0, i32 0, i32 6
  %4 = getelementptr inbounds %struct.GPR, %struct.GPR* %3, i32 0, i32 33
  %5 = getelementptr inbounds %struct.Reg, %struct.Reg* %4, i32 0, i32 0
  %PC = bitcast %union.anon* %5 to i64*
  %6 = getelementptr inbounds %struct.State, %struct.State* %0, i32 0, i32 6
  %7 = getelementptr inbounds %struct.GPR, %struct.GPR* %6, i32 0, i32 15
  %8 = getelementptr inbounds %struct.Reg, %struct.Reg* %7, i32 0, i32 0
  %RBP = bitcast %union.anon* %8 to i64*
  %9 = load i64, i64* %RBP
  %10 = load i64, i64* %PC
  %11 = add i64 %10, 1
  store i64 %11, i64* %PC
  %12 = getelementptr inbounds %struct.State, %struct.State* %0, i64 0, i32 6, i32 13, i32 0, i32 0
  %13 = load i64, i64* %12, align 8
  %14 = add i64 %13, -8
  %15 = inttoptr i64 %14 to i64*
  store i64 %9, i64* %15
  store i64 %14, i64* %12, align 8
  ret %struct.Memory* %2
}

define %struct.Memory* @routine_movq__rsp___rbp(%struct.State* dereferenceable(3376), i64, %struct.Memory*) {
block_400488:
  %3 = getelementptr inbounds %struct.State, %struct.State* %0, i32 0, i32 6
  %4 = getelementptr inbounds %struct.GPR, %struct.GPR* %3, i32 0, i32 33
  %5 = getelementptr inbounds %struct.Reg, %struct.Reg* %4, i32 0, i32 0
  %PC = bitcast %union.anon* %5 to i64*
  %6 = getelementptr inbounds %struct.State, %struct.State* %0, i32 0, i32 6
  %7 = getelementptr inbounds %struct.GPR, %struct.GPR* %6, i32 0, i32 13
  %8 = getelementptr inbounds %struct.Reg, %struct.Reg* %7, i32 0, i32 0
  %RSP = bitcast %union.anon* %8 to i64*
  %9 = getelementptr inbounds %struct.State, %struct.State* %0, i32 0, i32 6
  %10 = getelementptr inbounds %struct.GPR, %struct.GPR* %9, i32 0, i32 15
  %11 = getelementptr inbounds %struct.Reg, %struct.Reg* %10, i32 0, i32 0
  %RBP = bitcast %union.anon* %11 to i64*
  %12 = load i64, i64* %RSP
  %13 = load i64, i64* %PC
  %14 = add i64 %13, 3
  store i64 %14, i64* %PC
  store i64 %12, i64* %RBP, align 8
  ret %struct.Memory* %2
}

define %struct.Memory* @routine_subq__0x20___rsp(%struct.State* dereferenceable(3376), i64, %struct.Memory*) {
block_400488:
  %3 = getelementptr inbounds %struct.State, %struct.State* %0, i32 0, i32 6
  %4 = getelementptr inbounds %struct.GPR, %struct.GPR* %3, i32 0, i32 33
  %5 = getelementptr inbounds %struct.Reg, %struct.Reg* %4, i32 0, i32 0
  %PC = bitcast %union.anon* %5 to i64*
  %6 = getelementptr inbounds %struct.State, %struct.State* %0, i32 0, i32 6
  %7 = getelementptr inbounds %struct.GPR, %struct.GPR* %6, i32 0, i32 13
  %8 = getelementptr inbounds %struct.Reg, %struct.Reg* %7, i32 0, i32 0
  %RSP = bitcast %union.anon* %8 to i64*
  %9 = load i64, i64* %RSP
  %10 = load i64, i64* %PC
  %11 = add i64 %10, 4
  store i64 %11, i64* %PC
  %12 = sub i64 %9, 32
  store i64 %12, i64* %RSP, align 8
  %13 = icmp ult i64 %9, 32
  %14 = zext i1 %13 to i8
  %15 = getelementptr inbounds %struct.State, %struct.State* %0, i64 0, i32 2, i32 1
  store i8 %14, i8* %15, align 1
  %16 = trunc i64 %12 to i32
  %17 = and i32 %16, 255
  %18 = call i32 @llvm.ctpop.i32(i32 %17)
  %19 = trunc i32 %18 to i8
  %20 = and i8 %19, 1
  %21 = xor i8 %20, 1
  %22 = getelementptr inbounds %struct.State, %struct.State* %0, i64 0, i32 2, i32 3
  store i8 %21, i8* %22, align 1
  %23 = xor i64 32, %9
  %24 = xor i64 %23, %12
  %25 = lshr i64 %24, 4
  %26 = trunc i64 %25 to i8
  %27 = and i8 %26, 1
  %28 = getelementptr inbounds %struct.State, %struct.State* %0, i64 0, i32 2, i32 5
  store i8 %27, i8* %28, align 1
  %29 = icmp eq i64 %12, 0
  %30 = zext i1 %29 to i8
  %31 = getelementptr inbounds %struct.State, %struct.State* %0, i64 0, i32 2, i32 7
  store i8 %30, i8* %31, align 1
  %32 = lshr i64 %12, 63
  %33 = trunc i64 %32 to i8
  %34 = getelementptr inbounds %struct.State, %struct.State* %0, i64 0, i32 2, i32 9
  store i8 %33, i8* %34, align 1
  %35 = lshr i64 %9, 63
  %36 = xor i64 %32, %35
  %37 = add i64 %36, %35
  %38 = icmp eq i64 %37, 2
  %39 = zext i1 %38 to i8
  %40 = getelementptr inbounds %struct.State, %struct.State* %0, i64 0, i32 2, i32 13
  store i8 %39, i8* %40, align 1
  ret %struct.Memory* %2
}

define %struct.Memory* @routine_movl__edi__MINUS0x4__rbp_(%struct.State* dereferenceable(3376), i64, %struct.Memory*) {
block_400488:
  %3 = getelementptr inbounds %struct.State, %struct.State* %0, i32 0, i32 6
  %4 = getelementptr inbounds %struct.GPR, %struct.GPR* %3, i32 0, i32 33
  %5 = getelementptr inbounds %struct.Reg, %struct.Reg* %4, i32 0, i32 0
  %PC = bitcast %union.anon* %5 to i64*
  %6 = getelementptr inbounds %struct.State, %struct.State* %0, i32 0, i32 6
  %7 = getelementptr inbounds %struct.GPR, %struct.GPR* %6, i32 0, i32 11
  %8 = getelementptr inbounds %struct.Reg, %struct.Reg* %7, i32 0, i32 0
  %EDI = bitcast %union.anon* %8 to i32*
  %9 = getelementptr inbounds %struct.State, %struct.State* %0, i32 0, i32 6
  %10 = getelementptr inbounds %struct.GPR, %struct.GPR* %9, i32 0, i32 15
  %11 = getelementptr inbounds %struct.Reg, %struct.Reg* %10, i32 0, i32 0
  %RBP = bitcast %union.anon* %11 to i64*
  %12 = load i64, i64* %RBP
  %13 = sub i64 %12, 4
  %14 = load i32, i32* %EDI
  %15 = zext i32 %14 to i64
  %16 = load i64, i64* %PC
  %17 = add i64 %16, 3
  store i64 %17, i64* %PC
  %18 = inttoptr i64 %13 to i32*
  store i32 %14, i32* %18
  ret %struct.Memory* %2
}

define %struct.Memory* @routine_movq__rsi__MINUS0x10__rbp_(%struct.State* dereferenceable(3376), i64, %struct.Memory*) {
block_400488:
  %3 = getelementptr inbounds %struct.State, %struct.State* %0, i32 0, i32 6
  %4 = getelementptr inbounds %struct.GPR, %struct.GPR* %3, i32 0, i32 33
  %5 = getelementptr inbounds %struct.Reg, %struct.Reg* %4, i32 0, i32 0
  %PC = bitcast %union.anon* %5 to i64*
  %6 = getelementptr inbounds %struct.State, %struct.State* %0, i32 0, i32 6
  %7 = getelementptr inbounds %struct.GPR, %struct.GPR* %6, i32 0, i32 9
  %8 = getelementptr inbounds %struct.Reg, %struct.Reg* %7, i32 0, i32 0
  %RSI = bitcast %union.anon* %8 to i64*
  %9 = getelementptr inbounds %struct.State, %struct.State* %0, i32 0, i32 6
  %10 = getelementptr inbounds %struct.GPR, %struct.GPR* %9, i32 0, i32 15
  %11 = getelementptr inbounds %struct.Reg, %struct.Reg* %10, i32 0, i32 0
  %RBP = bitcast %union.anon* %11 to i64*
  %12 = load i64, i64* %RBP
  %13 = sub i64 %12, 16
  %14 = load i64, i64* %RSI
  %15 = load i64, i64* %PC
  %16 = add i64 %15, 4
  store i64 %16, i64* %PC
  %17 = inttoptr i64 %13 to i64*
  store i64 %14, i64* %17
  ret %struct.Memory* %2
}

define %struct.Memory* @routine_cmpl__0xa__MINUS0x4__rbp_(%struct.State* dereferenceable(3376), i64, %struct.Memory*) {
block_400488:
  %3 = getelementptr inbounds %struct.State, %struct.State* %0, i32 0, i32 6
  %4 = getelementptr inbounds %struct.GPR, %struct.GPR* %3, i32 0, i32 33
  %5 = getelementptr inbounds %struct.Reg, %struct.Reg* %4, i32 0, i32 0
  %PC = bitcast %union.anon* %5 to i64*
  %6 = getelementptr inbounds %struct.State, %struct.State* %0, i32 0, i32 6
  %7 = getelementptr inbounds %struct.GPR, %struct.GPR* %6, i32 0, i32 15
  %8 = getelementptr inbounds %struct.Reg, %struct.Reg* %7, i32 0, i32 0
  %RBP = bitcast %union.anon* %8 to i64*
  %9 = load i64, i64* %RBP
  %10 = sub i64 %9, 4
  %11 = load i64, i64* %PC
  %12 = add i64 %11, 4
  store i64 %12, i64* %PC
  %13 = inttoptr i64 %10 to i32*
  %14 = load i32, i32* %13
  %15 = sub i32 %14, 10
  %16 = icmp ult i32 %14, 10
  %17 = zext i1 %16 to i8
  %18 = getelementptr inbounds %struct.State, %struct.State* %0, i64 0, i32 2, i32 1
  store i8 %17, i8* %18, align 1
  %19 = and i32 %15, 255
  %20 = call i32 @llvm.ctpop.i32(i32 %19)
  %21 = trunc i32 %20 to i8
  %22 = and i8 %21, 1
  %23 = xor i8 %22, 1
  %24 = getelementptr inbounds %struct.State, %struct.State* %0, i64 0, i32 2, i32 3
  store i8 %23, i8* %24, align 1
  %25 = xor i32 %14, 10
  %26 = xor i32 %25, %15
  %27 = lshr i32 %26, 4
  %28 = trunc i32 %27 to i8
  %29 = and i8 %28, 1
  %30 = getelementptr inbounds %struct.State, %struct.State* %0, i64 0, i32 2, i32 5
  store i8 %29, i8* %30, align 1
  %31 = icmp eq i32 %15, 0
  %32 = zext i1 %31 to i8
  %33 = getelementptr inbounds %struct.State, %struct.State* %0, i64 0, i32 2, i32 7
  store i8 %32, i8* %33, align 1
  %34 = lshr i32 %15, 31
  %35 = trunc i32 %34 to i8
  %36 = getelementptr inbounds %struct.State, %struct.State* %0, i64 0, i32 2, i32 9
  store i8 %35, i8* %36, align 1
  %37 = lshr i32 %14, 31
  %38 = xor i32 %34, %37
  %39 = add i32 %38, %37
  %40 = icmp eq i32 %39, 2
  %41 = zext i1 %40 to i8
  %42 = getelementptr inbounds %struct.State, %struct.State* %0, i64 0, i32 2, i32 13
  store i8 %41, i8* %42, align 1
  ret %struct.Memory* %2
}

define %struct.Memory* @routine_jne_.L_403c8c(%struct.State* dereferenceable(3376), i64, %struct.Memory*, i8* %BRANCH_TAKEN, i64 %rel_off1, i64 %rel_off2, i64 %rel_off3) {
block_400488:
  %3 = getelementptr inbounds %struct.State, %struct.State* %0, i32 0, i32 6
  %4 = getelementptr inbounds %struct.GPR, %struct.GPR* %3, i32 0, i32 33
  %5 = getelementptr inbounds %struct.Reg, %struct.Reg* %4, i32 0, i32 0
  %PC = bitcast %union.anon* %5 to i64*
  %6 = load i64, i64* %PC
  %7 = add i64 %6, %rel_off1
  %8 = load i64, i64* %PC
  %9 = add i64 %8, %rel_off2
  %10 = load i64, i64* %PC
  %11 = add i64 %10, %rel_off3
  store i64 %11, i64* %PC
  %12 = getelementptr inbounds %struct.State, %struct.State* %0, i64 0, i32 2, i32 7
  %13 = load i8, i8* %12, align 1
  %14 = icmp eq i8 %13, 0
  %15 = zext i1 %14 to i8
  store i8 %15, i8* %BRANCH_TAKEN, align 1
  %16 = getelementptr inbounds %struct.State, %struct.State* %0, i64 0, i32 6, i32 33, i32 0, i32 0
  %17 = select i1 %14, i64 %7, i64 %9
  store i64 %17, i64* %16, align 8
  ret %struct.Memory* %2
}

define %struct.Memory* @routine_cmpl__0x0__0x99c0c8(%struct.State* dereferenceable(3376), i64, %struct.Memory*) {
block_400488:
  %3 = getelementptr inbounds %struct.State, %struct.State* %0, i32 0, i32 6
  %4 = getelementptr inbounds %struct.GPR, %struct.GPR* %3, i32 0, i32 33
  %5 = getelementptr inbounds %struct.Reg, %struct.Reg* %4, i32 0, i32 0
  %PC = bitcast %union.anon* %5 to i64*
  %6 = load i64, i64* %PC
  %7 = add i64 %6, 8
  store i64 %7, i64* %PC
  %8 = load i32, i32* bitcast (%G_0x99c0c8_type* @G_0x99c0c8 to i32*)
  %9 = getelementptr inbounds %struct.State, %struct.State* %0, i64 0, i32 2, i32 1
  store i8 0, i8* %9, align 1
  %10 = and i32 %8, 255
  %11 = call i32 @llvm.ctpop.i32(i32 %10)
  %12 = trunc i32 %11 to i8
  %13 = and i8 %12, 1
  %14 = xor i8 %13, 1
  %15 = getelementptr inbounds %struct.State, %struct.State* %0, i64 0, i32 2, i32 3
  store i8 %14, i8* %15, align 1
  %16 = getelementptr inbounds %struct.State, %struct.State* %0, i64 0, i32 2, i32 5
  store i8 0, i8* %16, align 1
  %17 = icmp eq i32 %8, 0
  %18 = zext i1 %17 to i8
  %19 = getelementptr inbounds %struct.State, %struct.State* %0, i64 0, i32 2, i32 7
  store i8 %18, i8* %19, align 1
  %20 = lshr i32 %8, 31
  %21 = trunc i32 %20 to i8
  %22 = getelementptr inbounds %struct.State, %struct.State* %0, i64 0, i32 2, i32 9
  store i8 %21, i8* %22, align 1
  %23 = lshr i32 %8, 31
  %24 = xor i32 %20, %23
  %25 = add i32 %24, %23
  %26 = icmp eq i32 %25, 2
  %27 = zext i1 %26 to i8
  %28 = getelementptr inbounds %struct.State, %struct.State* %0, i64 0, i32 2, i32 13
  store i8 %27, i8* %28, align 1
  ret %struct.Memory* %2
}

define %struct.Memory* @routine_jmpq_.L_403cfa(%struct.State* dereferenceable(3376), i64, %struct.Memory*, i64 %rel_off1, i64 %rel_off2) {
block_400488:
  %3 = getelementptr inbounds %struct.State, %struct.State* %0, i32 0, i32 6
  %4 = getelementptr inbounds %struct.GPR, %struct.GPR* %3, i32 0, i32 33
  %5 = getelementptr inbounds %struct.Reg, %struct.Reg* %4, i32 0, i32 0
  %PC = bitcast %union.anon* %5 to i64*
  %6 = load i64, i64* %PC
  %7 = add i64 %6, %rel_off1
  %8 = load i64, i64* %PC
  %9 = add i64 %8, %rel_off2
  store i64 %9, i64* %PC
  %10 = getelementptr inbounds %struct.State, %struct.State* %0, i64 0, i32 6, i32 33, i32 0, i32 0
  store i64 %7, i64* %10, align 8
  ret %struct.Memory* %2
}

define %struct.Memory* @routine_movl_MINUS0x4__rbp____edi(%struct.State* dereferenceable(3376), i64, %struct.Memory*) {
block_400488:
  %3 = getelementptr inbounds %struct.State, %struct.State* %0, i32 0, i32 6
  %4 = getelementptr inbounds %struct.GPR, %struct.GPR* %3, i32 0, i32 33
  %5 = getelementptr inbounds %struct.Reg, %struct.Reg* %4, i32 0, i32 0
  %PC = bitcast %union.anon* %5 to i64*
  %6 = getelementptr inbounds %struct.State, %struct.State* %0, i32 0, i32 6
  %7 = getelementptr inbounds %struct.GPR, %struct.GPR* %6, i32 0, i32 11
  %8 = getelementptr inbounds %struct.Reg, %struct.Reg* %7, i32 0, i32 0
  %RDI = bitcast %union.anon* %8 to i64*
  %9 = getelementptr inbounds %struct.State, %struct.State* %0, i32 0, i32 6
  %10 = getelementptr inbounds %struct.GPR, %struct.GPR* %9, i32 0, i32 15
  %11 = getelementptr inbounds %struct.Reg, %struct.Reg* %10, i32 0, i32 0
  %RBP = bitcast %union.anon* %11 to i64*
  %12 = load i64, i64* %RBP
  %13 = sub i64 %12, 4
  %14 = load i64, i64* %PC
  %15 = add i64 %14, 3
  store i64 %15, i64* %PC
  %16 = inttoptr i64 %13 to i32*
  %17 = load i32, i32* %16
  %18 = zext i32 %17 to i64
  store i64 %18, i64* %RDI, align 8
  ret %struct.Memory* %2
}

define %struct.Memory* @routine_movq_MINUS0x10__rbp____rsi(%struct.State* dereferenceable(3376), i64, %struct.Memory*) {
block_400488:
  %3 = getelementptr inbounds %struct.State, %struct.State* %0, i32 0, i32 6
  %4 = getelementptr inbounds %struct.GPR, %struct.GPR* %3, i32 0, i32 33
  %5 = getelementptr inbounds %struct.Reg, %struct.Reg* %4, i32 0, i32 0
  %PC = bitcast %union.anon* %5 to i64*
  %6 = getelementptr inbounds %struct.State, %struct.State* %0, i32 0, i32 6
  %7 = getelementptr inbounds %struct.GPR, %struct.GPR* %6, i32 0, i32 9
  %8 = getelementptr inbounds %struct.Reg, %struct.Reg* %7, i32 0, i32 0
  %RSI = bitcast %union.anon* %8 to i64*
  %9 = getelementptr inbounds %struct.State, %struct.State* %0, i32 0, i32 6
  %10 = getelementptr inbounds %struct.GPR, %struct.GPR* %9, i32 0, i32 15
  %11 = getelementptr inbounds %struct.Reg, %struct.Reg* %10, i32 0, i32 0
  %RBP = bitcast %union.anon* %11 to i64*
  %12 = load i64, i64* %RBP
  %13 = sub i64 %12, 16
  %14 = load i64, i64* %PC
  %15 = add i64 %14, 4
  store i64 %15, i64* %PC
  %16 = inttoptr i64 %13 to i64*
  %17 = load i64, i64* %16
  store i64 %17, i64* %RSI, align 8
  ret %struct.Memory* %2
}

define %struct.Memory* @routine_callq_.fputc_plt(%struct.State* dereferenceable(3376), i64, %struct.Memory*, i64 %rel_off1, i64 %rel_off2, i64 %rel_off3) {
block_400488:
  %3 = getelementptr inbounds %struct.State, %struct.State* %0, i32 0, i32 6
  %4 = getelementptr inbounds %struct.GPR, %struct.GPR* %3, i32 0, i32 33
  %5 = getelementptr inbounds %struct.Reg, %struct.Reg* %4, i32 0, i32 0
  %PC = bitcast %union.anon* %5 to i64*
  %6 = load i64, i64* %PC
  %7 = add i64 %6, %rel_off1
  %8 = load i64, i64* %PC
  %9 = add i64 %8, %rel_off2
  %10 = load i64, i64* %PC
  %11 = add i64 %10, %rel_off3
  store i64 %11, i64* %PC
  %12 = getelementptr inbounds %struct.State, %struct.State* %0, i64 0, i32 6, i32 13, i32 0, i32 0
  %13 = load i64, i64* %12, align 8
  %14 = add i64 %13, -8
  %15 = inttoptr i64 %14 to i64*
  store i64 %9, i64* %15
  store i64 %14, i64* %12, align 8
  %16 = getelementptr inbounds %struct.State, %struct.State* %0, i64 0, i32 6, i32 33, i32 0, i32 0
  store i64 %7, i64* %16, align 8
  ret %struct.Memory* %2
}

define %struct.Memory* @routine_movl__eax__MINUS0x14__rbp_(%struct.State* dereferenceable(3376), i64, %struct.Memory*) {
block_400488:
  %3 = getelementptr inbounds %struct.State, %struct.State* %0, i32 0, i32 6
  %4 = getelementptr inbounds %struct.GPR, %struct.GPR* %3, i32 0, i32 33
  %5 = getelementptr inbounds %struct.Reg, %struct.Reg* %4, i32 0, i32 0
  %PC = bitcast %union.anon* %5 to i64*
  %6 = getelementptr inbounds %struct.State, %struct.State* %0, i32 0, i32 6
  %7 = getelementptr inbounds %struct.GPR, %struct.GPR* %6, i32 0, i32 1
  %8 = getelementptr inbounds %struct.Reg, %struct.Reg* %7, i32 0, i32 0
  %EAX = bitcast %union.anon* %8 to i32*
  %9 = getelementptr inbounds %struct.State, %struct.State* %0, i32 0, i32 6
  %10 = getelementptr inbounds %struct.GPR, %struct.GPR* %9, i32 0, i32 15
  %11 = getelementptr inbounds %struct.Reg, %struct.Reg* %10, i32 0, i32 0
  %RBP = bitcast %union.anon* %11 to i64*
  %12 = load i64, i64* %RBP
  %13 = sub i64 %12, 20
  %14 = load i32, i32* %EAX
  %15 = zext i32 %14 to i64
  %16 = load i64, i64* %PC
  %17 = add i64 %16, 3
  store i64 %17, i64* %PC
  %18 = inttoptr i64 %13 to i32*
  store i32 %14, i32* %18
  ret %struct.Memory* %2
}

define %struct.Memory* @routine_jne_.L_403cb5(%struct.State* dereferenceable(3376), i64, %struct.Memory*, i8* %BRANCH_TAKEN, i64 %rel_off1, i64 %rel_off2, i64 %rel_off3) {
block_400488:
  %3 = getelementptr inbounds %struct.State, %struct.State* %0, i32 0, i32 6
  %4 = getelementptr inbounds %struct.GPR, %struct.GPR* %3, i32 0, i32 33
  %5 = getelementptr inbounds %struct.Reg, %struct.Reg* %4, i32 0, i32 0
  %PC = bitcast %union.anon* %5 to i64*
  %6 = load i64, i64* %PC
  %7 = add i64 %6, %rel_off1
  %8 = load i64, i64* %PC
  %9 = add i64 %8, %rel_off2
  %10 = load i64, i64* %PC
  %11 = add i64 %10, %rel_off3
  store i64 %11, i64* %PC
  %12 = getelementptr inbounds %struct.State, %struct.State* %0, i64 0, i32 2, i32 7
  %13 = load i8, i8* %12, align 1
  %14 = icmp eq i8 %13, 0
  %15 = zext i1 %14 to i8
  store i8 %15, i8* %BRANCH_TAKEN, align 1
  %16 = getelementptr inbounds %struct.State, %struct.State* %0, i64 0, i32 6, i32 33, i32 0, i32 0
  %17 = select i1 %14, i64 %7, i64 %9
  store i64 %17, i64* %16, align 8
  ret %struct.Memory* %2
}

define %struct.Memory* @routine_movl__0x0__0x99c0c8(%struct.State* dereferenceable(3376), i64, %struct.Memory*) {
block_400488:
  %3 = getelementptr inbounds %struct.State, %struct.State* %0, i32 0, i32 6
  %4 = getelementptr inbounds %struct.GPR, %struct.GPR* %3, i32 0, i32 33
  %5 = getelementptr inbounds %struct.Reg, %struct.Reg* %4, i32 0, i32 0
  %PC = bitcast %union.anon* %5 to i64*
  %6 = load i64, i64* %PC
  %7 = add i64 %6, 11
  store i64 %7, i64* %PC
  store i32 0, i32* bitcast (%G_0x99c0c8_type* @G_0x99c0c8 to i32*)
  ret %struct.Memory* %2
}

define %struct.Memory* @routine_jmpq_.L_403cc6(%struct.State* dereferenceable(3376), i64, %struct.Memory*, i64 %rel_off1, i64 %rel_off2) {
block_400488:
  %3 = getelementptr inbounds %struct.State, %struct.State* %0, i32 0, i32 6
  %4 = getelementptr inbounds %struct.GPR, %struct.GPR* %3, i32 0, i32 33
  %5 = getelementptr inbounds %struct.Reg, %struct.Reg* %4, i32 0, i32 0
  %PC = bitcast %union.anon* %5 to i64*
  %6 = load i64, i64* %PC
  %7 = add i64 %6, %rel_off1
  %8 = load i64, i64* %PC
  %9 = add i64 %8, %rel_off2
  store i64 %9, i64* %PC
  %10 = getelementptr inbounds %struct.State, %struct.State* %0, i64 0, i32 6, i32 33, i32 0, i32 0
  store i64 %7, i64* %10, align 8
  ret %struct.Memory* %2
}

define %struct.Memory* @routine_movl_0x99c0c8___eax(%struct.State* dereferenceable(3376), i64, %struct.Memory*) {
block_400488:
  %3 = getelementptr inbounds %struct.State, %struct.State* %0, i32 0, i32 6
  %4 = getelementptr inbounds %struct.GPR, %struct.GPR* %3, i32 0, i32 33
  %5 = getelementptr inbounds %struct.Reg, %struct.Reg* %4, i32 0, i32 0
  %PC = bitcast %union.anon* %5 to i64*
  %6 = getelementptr inbounds %struct.State, %struct.State* %0, i32 0, i32 6
  %7 = getelementptr inbounds %struct.GPR, %struct.GPR* %6, i32 0, i32 1
  %8 = getelementptr inbounds %struct.Reg, %struct.Reg* %7, i32 0, i32 0
  %RAX = bitcast %union.anon* %8 to i64*
  %9 = load i64, i64* %PC
  %10 = add i64 %9, 7
  store i64 %10, i64* %PC
  %11 = load i32, i32* bitcast (%G_0x99c0c8_type* @G_0x99c0c8 to i32*)
  %12 = zext i32 %11 to i64
  store i64 %12, i64* %RAX, align 8
  ret %struct.Memory* %2
}

define %struct.Memory* @routine_addl__0x1___eax(%struct.State* dereferenceable(3376), i64, %struct.Memory*) {
block_400488:
  %3 = getelementptr inbounds %struct.State, %struct.State* %0, i32 0, i32 6
  %4 = getelementptr inbounds %struct.GPR, %struct.GPR* %3, i32 0, i32 33
  %5 = getelementptr inbounds %struct.Reg, %struct.Reg* %4, i32 0, i32 0
  %PC = bitcast %union.anon* %5 to i64*
  %6 = getelementptr inbounds %struct.State, %struct.State* %0, i32 0, i32 6
  %7 = getelementptr inbounds %struct.GPR, %struct.GPR* %6, i32 0, i32 1
  %8 = getelementptr inbounds %struct.Reg, %struct.Reg* %7, i32 0, i32 0
  %RAX = bitcast %union.anon* %8 to i64*
  %9 = load i64, i64* %RAX
  %10 = load i64, i64* %PC
  %11 = add i64 %10, 3
  store i64 %11, i64* %PC
  %12 = trunc i64 %9 to i32
  %13 = add i32 1, %12
  %14 = zext i32 %13 to i64
  store i64 %14, i64* %RAX, align 8
  %15 = icmp ult i32 %13, %12
  %16 = icmp ult i32 %13, 1
  %17 = or i1 %15, %16
  %18 = zext i1 %17 to i8
  %19 = getelementptr inbounds %struct.State, %struct.State* %0, i64 0, i32 2, i32 1
  store i8 %18, i8* %19, align 1
  %20 = and i32 %13, 255
  %21 = call i32 @llvm.ctpop.i32(i32 %20)
  %22 = trunc i32 %21 to i8
  %23 = and i8 %22, 1
  %24 = xor i8 %23, 1
  %25 = getelementptr inbounds %struct.State, %struct.State* %0, i64 0, i32 2, i32 3
  store i8 %24, i8* %25, align 1
  %26 = xor i64 1, %9
  %27 = trunc i64 %26 to i32
  %28 = xor i32 %27, %13
  %29 = lshr i32 %28, 4
  %30 = trunc i32 %29 to i8
  %31 = and i8 %30, 1
  %32 = getelementptr inbounds %struct.State, %struct.State* %0, i64 0, i32 2, i32 5
  store i8 %31, i8* %32, align 1
  %33 = icmp eq i32 %13, 0
  %34 = zext i1 %33 to i8
  %35 = getelementptr inbounds %struct.State, %struct.State* %0, i64 0, i32 2, i32 7
  store i8 %34, i8* %35, align 1
  %36 = lshr i32 %13, 31
  %37 = trunc i32 %36 to i8
  %38 = getelementptr inbounds %struct.State, %struct.State* %0, i64 0, i32 2, i32 9
  store i8 %37, i8* %38, align 1
  %39 = lshr i32 %12, 31
  %40 = xor i32 %36, %39
  %41 = add i32 %40, %36
  %42 = icmp eq i32 %41, 2
  %43 = zext i1 %42 to i8
  %44 = getelementptr inbounds %struct.State, %struct.State* %0, i64 0, i32 2, i32 13
  store i8 %43, i8* %44, align 1
  ret %struct.Memory* %2
}

define %struct.Memory* @routine_movl__eax__0x99c0c8(%struct.State* dereferenceable(3376), i64, %struct.Memory*) {
block_400488:
  %3 = getelementptr inbounds %struct.State, %struct.State* %0, i32 0, i32 6
  %4 = getelementptr inbounds %struct.GPR, %struct.GPR* %3, i32 0, i32 33
  %5 = getelementptr inbounds %struct.Reg, %struct.Reg* %4, i32 0, i32 0
  %PC = bitcast %union.anon* %5 to i64*
  %6 = getelementptr inbounds %struct.State, %struct.State* %0, i32 0, i32 6
  %7 = getelementptr inbounds %struct.GPR, %struct.GPR* %6, i32 0, i32 1
  %8 = getelementptr inbounds %struct.Reg, %struct.Reg* %7, i32 0, i32 0
  %EAX = bitcast %union.anon* %8 to i32*
  %9 = load i32, i32* %EAX
  %10 = zext i32 %9 to i64
  %11 = load i64, i64* %PC
  %12 = add i64 %11, 7
  store i64 %12, i64* %PC
  store i32 %9, i32* bitcast (%G_0x99c0c8_type* @G_0x99c0c8 to i32*)
  ret %struct.Memory* %2
}

define %struct.Memory* @routine_cmpl__0x5d__MINUS0x4__rbp_(%struct.State* dereferenceable(3376), i64, %struct.Memory*) {
block_400488:
  %3 = getelementptr inbounds %struct.State, %struct.State* %0, i32 0, i32 6
  %4 = getelementptr inbounds %struct.GPR, %struct.GPR* %3, i32 0, i32 33
  %5 = getelementptr inbounds %struct.Reg, %struct.Reg* %4, i32 0, i32 0
  %PC = bitcast %union.anon* %5 to i64*
  %6 = getelementptr inbounds %struct.State, %struct.State* %0, i32 0, i32 6
  %7 = getelementptr inbounds %struct.GPR, %struct.GPR* %6, i32 0, i32 15
  %8 = getelementptr inbounds %struct.Reg, %struct.Reg* %7, i32 0, i32 0
  %RBP = bitcast %union.anon* %8 to i64*
  %9 = load i64, i64* %RBP
  %10 = sub i64 %9, 4
  %11 = load i64, i64* %PC
  %12 = add i64 %11, 4
  store i64 %12, i64* %PC
  %13 = inttoptr i64 %10 to i32*
  %14 = load i32, i32* %13
  %15 = sub i32 %14, 93
  %16 = icmp ult i32 %14, 93
  %17 = zext i1 %16 to i8
  %18 = getelementptr inbounds %struct.State, %struct.State* %0, i64 0, i32 2, i32 1
  store i8 %17, i8* %18, align 1
  %19 = and i32 %15, 255
  %20 = call i32 @llvm.ctpop.i32(i32 %19)
  %21 = trunc i32 %20 to i8
  %22 = and i8 %21, 1
  %23 = xor i8 %22, 1
  %24 = getelementptr inbounds %struct.State, %struct.State* %0, i64 0, i32 2, i32 3
  store i8 %23, i8* %24, align 1
  %25 = xor i32 %14, 93
  %26 = xor i32 %25, %15
  %27 = lshr i32 %26, 4
  %28 = trunc i32 %27 to i8
  %29 = and i8 %28, 1
  %30 = getelementptr inbounds %struct.State, %struct.State* %0, i64 0, i32 2, i32 5
  store i8 %29, i8* %30, align 1
  %31 = icmp eq i32 %15, 0
  %32 = zext i1 %31 to i8
  %33 = getelementptr inbounds %struct.State, %struct.State* %0, i64 0, i32 2, i32 7
  store i8 %32, i8* %33, align 1
  %34 = lshr i32 %15, 31
  %35 = trunc i32 %34 to i8
  %36 = getelementptr inbounds %struct.State, %struct.State* %0, i64 0, i32 2, i32 9
  store i8 %35, i8* %36, align 1
  %37 = lshr i32 %14, 31
  %38 = xor i32 %34, %37
  %39 = add i32 %38, %37
  %40 = icmp eq i32 %39, 2
  %41 = zext i1 %40 to i8
  %42 = getelementptr inbounds %struct.State, %struct.State* %0, i64 0, i32 2, i32 13
  store i8 %41, i8* %42, align 1
  ret %struct.Memory* %2
}

define %struct.Memory* @routine_jne_.L_403cfa(%struct.State* dereferenceable(3376), i64, %struct.Memory*, i8* %BRANCH_TAKEN, i64 %rel_off1, i64 %rel_off2, i64 %rel_off3) {
block_400488:
  %3 = getelementptr inbounds %struct.State, %struct.State* %0, i32 0, i32 6
  %4 = getelementptr inbounds %struct.GPR, %struct.GPR* %3, i32 0, i32 33
  %5 = getelementptr inbounds %struct.Reg, %struct.Reg* %4, i32 0, i32 0
  %PC = bitcast %union.anon* %5 to i64*
  %6 = load i64, i64* %PC
  %7 = add i64 %6, %rel_off1
  %8 = load i64, i64* %PC
  %9 = add i64 %8, %rel_off2
  %10 = load i64, i64* %PC
  %11 = add i64 %10, %rel_off3
  store i64 %11, i64* %PC
  %12 = getelementptr inbounds %struct.State, %struct.State* %0, i64 0, i32 2, i32 7
  %13 = load i8, i8* %12, align 1
  %14 = icmp eq i8 %13, 0
  %15 = zext i1 %14 to i8
  store i8 %15, i8* %BRANCH_TAKEN, align 1
  %16 = getelementptr inbounds %struct.State, %struct.State* %0, i64 0, i32 6, i32 33, i32 0, i32 0
  %17 = select i1 %14, i64 %7, i64 %9
  store i64 %17, i64* %16, align 8
  ret %struct.Memory* %2
}

define %struct.Memory* @routine_cmpl__0x3c__0x99c0c8(%struct.State* dereferenceable(3376), i64, %struct.Memory*) {
block_400488:
  %3 = getelementptr inbounds %struct.State, %struct.State* %0, i32 0, i32 6
  %4 = getelementptr inbounds %struct.GPR, %struct.GPR* %3, i32 0, i32 33
  %5 = getelementptr inbounds %struct.Reg, %struct.Reg* %4, i32 0, i32 0
  %PC = bitcast %union.anon* %5 to i64*
  %6 = load i64, i64* %PC
  %7 = add i64 %6, 8
  store i64 %7, i64* %PC
  %8 = load i32, i32* bitcast (%G_0x99c0c8_type* @G_0x99c0c8 to i32*)
  %9 = sub i32 %8, 60
  %10 = icmp ult i32 %8, 60
  %11 = zext i1 %10 to i8
  %12 = getelementptr inbounds %struct.State, %struct.State* %0, i64 0, i32 2, i32 1
  store i8 %11, i8* %12, align 1
  %13 = and i32 %9, 255
  %14 = call i32 @llvm.ctpop.i32(i32 %13)
  %15 = trunc i32 %14 to i8
  %16 = and i8 %15, 1
  %17 = xor i8 %16, 1
  %18 = getelementptr inbounds %struct.State, %struct.State* %0, i64 0, i32 2, i32 3
  store i8 %17, i8* %18, align 1
  %19 = xor i32 %8, 60
  %20 = xor i32 %19, %9
  %21 = lshr i32 %20, 4
  %22 = trunc i32 %21 to i8
  %23 = and i8 %22, 1
  %24 = getelementptr inbounds %struct.State, %struct.State* %0, i64 0, i32 2, i32 5
  store i8 %23, i8* %24, align 1
  %25 = icmp eq i32 %9, 0
  %26 = zext i1 %25 to i8
  %27 = getelementptr inbounds %struct.State, %struct.State* %0, i64 0, i32 2, i32 7
  store i8 %26, i8* %27, align 1
  %28 = lshr i32 %9, 31
  %29 = trunc i32 %28 to i8
  %30 = getelementptr inbounds %struct.State, %struct.State* %0, i64 0, i32 2, i32 9
  store i8 %29, i8* %30, align 1
  %31 = lshr i32 %8, 31
  %32 = xor i32 %28, %31
  %33 = add i32 %32, %31
  %34 = icmp eq i32 %33, 2
  %35 = zext i1 %34 to i8
  %36 = getelementptr inbounds %struct.State, %struct.State* %0, i64 0, i32 2, i32 13
  store i8 %35, i8* %36, align 1
  ret %struct.Memory* %2
}

define %struct.Memory* @routine_jle_.L_403cfa(%struct.State* dereferenceable(3376), i64, %struct.Memory*, i8* %BRANCH_TAKEN, i64 %rel_off1, i64 %rel_off2, i64 %rel_off3) {
block_400488:
  %3 = getelementptr inbounds %struct.State, %struct.State* %0, i32 0, i32 6
  %4 = getelementptr inbounds %struct.GPR, %struct.GPR* %3, i32 0, i32 33
  %5 = getelementptr inbounds %struct.Reg, %struct.Reg* %4, i32 0, i32 0
  %PC = bitcast %union.anon* %5 to i64*
  %6 = load i64, i64* %PC
  %7 = add i64 %6, %rel_off1
  %8 = load i64, i64* %PC
  %9 = add i64 %8, %rel_off2
  %10 = load i64, i64* %PC
  %11 = add i64 %10, %rel_off3
  store i64 %11, i64* %PC
  %12 = getelementptr inbounds %struct.State, %struct.State* %0, i64 0, i32 2, i32 7
  %13 = load i8, i8* %12, align 1
  %14 = icmp ne i8 %13, 0
  %15 = getelementptr inbounds %struct.State, %struct.State* %0, i64 0, i32 2, i32 9
  %16 = load i8, i8* %15, align 1
  %17 = icmp ne i8 %16, 0
  %18 = getelementptr inbounds %struct.State, %struct.State* %0, i64 0, i32 2, i32 13
  %19 = load i8, i8* %18, align 1
  %20 = icmp ne i8 %19, 0
  %21 = xor i1 %17, %20
  %22 = or i1 %14, %21
  %23 = zext i1 %22 to i8
  store i8 %23, i8* %BRANCH_TAKEN, align 1
  %24 = getelementptr inbounds %struct.State, %struct.State* %0, i64 0, i32 6, i32 33, i32 0, i32 0
  %25 = select i1 %22, i64 %7, i64 %9
  store i64 %25, i64* %24, align 8
  ret %struct.Memory* %2
}

define %struct.Memory* @routine_movl__0xa___edi(%struct.State* dereferenceable(3376), i64, %struct.Memory*) {
block_400488:
  %3 = getelementptr inbounds %struct.State, %struct.State* %0, i32 0, i32 6
  %4 = getelementptr inbounds %struct.GPR, %struct.GPR* %3, i32 0, i32 33
  %5 = getelementptr inbounds %struct.Reg, %struct.Reg* %4, i32 0, i32 0
  %PC = bitcast %union.anon* %5 to i64*
  %6 = getelementptr inbounds %struct.State, %struct.State* %0, i32 0, i32 6
  %7 = getelementptr inbounds %struct.GPR, %struct.GPR* %6, i32 0, i32 11
  %8 = getelementptr inbounds %struct.Reg, %struct.Reg* %7, i32 0, i32 0
  %RDI = bitcast %union.anon* %8 to i64*
  %9 = load i64, i64* %PC
  %10 = add i64 %9, 5
  store i64 %10, i64* %PC
  store i64 10, i64* %RDI, align 8
  ret %struct.Memory* %2
}

define %struct.Memory* @routine_movl__eax__MINUS0x18__rbp_(%struct.State* dereferenceable(3376), i64, %struct.Memory*) {
block_400488:
  %3 = getelementptr inbounds %struct.State, %struct.State* %0, i32 0, i32 6
  %4 = getelementptr inbounds %struct.GPR, %struct.GPR* %3, i32 0, i32 33
  %5 = getelementptr inbounds %struct.Reg, %struct.Reg* %4, i32 0, i32 0
  %PC = bitcast %union.anon* %5 to i64*
  %6 = getelementptr inbounds %struct.State, %struct.State* %0, i32 0, i32 6
  %7 = getelementptr inbounds %struct.GPR, %struct.GPR* %6, i32 0, i32 1
  %8 = getelementptr inbounds %struct.Reg, %struct.Reg* %7, i32 0, i32 0
  %EAX = bitcast %union.anon* %8 to i32*
  %9 = getelementptr inbounds %struct.State, %struct.State* %0, i32 0, i32 6
  %10 = getelementptr inbounds %struct.GPR, %struct.GPR* %9, i32 0, i32 15
  %11 = getelementptr inbounds %struct.Reg, %struct.Reg* %10, i32 0, i32 0
  %RBP = bitcast %union.anon* %11 to i64*
  %12 = load i64, i64* %RBP
  %13 = sub i64 %12, 24
  %14 = load i32, i32* %EAX
  %15 = zext i32 %14 to i64
  %16 = load i64, i64* %PC
  %17 = add i64 %16, 3
  store i64 %17, i64* %PC
  %18 = inttoptr i64 %13 to i32*
  store i32 %14, i32* %18
  ret %struct.Memory* %2
}

define %struct.Memory* @routine_addq__0x20___rsp(%struct.State* dereferenceable(3376), i64, %struct.Memory*) {
block_400488:
  %3 = getelementptr inbounds %struct.State, %struct.State* %0, i32 0, i32 6
  %4 = getelementptr inbounds %struct.GPR, %struct.GPR* %3, i32 0, i32 33
  %5 = getelementptr inbounds %struct.Reg, %struct.Reg* %4, i32 0, i32 0
  %PC = bitcast %union.anon* %5 to i64*
  %6 = getelementptr inbounds %struct.State, %struct.State* %0, i32 0, i32 6
  %7 = getelementptr inbounds %struct.GPR, %struct.GPR* %6, i32 0, i32 13
  %8 = getelementptr inbounds %struct.Reg, %struct.Reg* %7, i32 0, i32 0
  %RSP = bitcast %union.anon* %8 to i64*
  %9 = load i64, i64* %RSP
  %10 = load i64, i64* %PC
  %11 = add i64 %10, 4
  store i64 %11, i64* %PC
  %12 = add i64 32, %9
  store i64 %12, i64* %RSP, align 8
  %13 = icmp ult i64 %12, %9
  %14 = icmp ult i64 %12, 32
  %15 = or i1 %13, %14
  %16 = zext i1 %15 to i8
  %17 = getelementptr inbounds %struct.State, %struct.State* %0, i64 0, i32 2, i32 1
  store i8 %16, i8* %17, align 1
  %18 = trunc i64 %12 to i32
  %19 = and i32 %18, 255
  %20 = call i32 @llvm.ctpop.i32(i32 %19)
  %21 = trunc i32 %20 to i8
  %22 = and i8 %21, 1
  %23 = xor i8 %22, 1
  %24 = getelementptr inbounds %struct.State, %struct.State* %0, i64 0, i32 2, i32 3
  store i8 %23, i8* %24, align 1
  %25 = xor i64 32, %9
  %26 = xor i64 %25, %12
  %27 = lshr i64 %26, 4
  %28 = trunc i64 %27 to i8
  %29 = and i8 %28, 1
  %30 = getelementptr inbounds %struct.State, %struct.State* %0, i64 0, i32 2, i32 5
  store i8 %29, i8* %30, align 1
  %31 = icmp eq i64 %12, 0
  %32 = zext i1 %31 to i8
  %33 = getelementptr inbounds %struct.State, %struct.State* %0, i64 0, i32 2, i32 7
  store i8 %32, i8* %33, align 1
  %34 = lshr i64 %12, 63
  %35 = trunc i64 %34 to i8
  %36 = getelementptr inbounds %struct.State, %struct.State* %0, i64 0, i32 2, i32 9
  store i8 %35, i8* %36, align 1
  %37 = lshr i64 %9, 63
  %38 = xor i64 %34, %37
  %39 = add i64 %38, %34
  %40 = icmp eq i64 %39, 2
  %41 = zext i1 %40 to i8
  %42 = getelementptr inbounds %struct.State, %struct.State* %0, i64 0, i32 2, i32 13
  store i8 %41, i8* %42, align 1
  ret %struct.Memory* %2
}

define %struct.Memory* @routine_popq__rbp(%struct.State* dereferenceable(3376), i64, %struct.Memory*) {
block_400488:
  %3 = getelementptr inbounds %struct.State, %struct.State* %0, i32 0, i32 6
  %4 = getelementptr inbounds %struct.GPR, %struct.GPR* %3, i32 0, i32 33
  %5 = getelementptr inbounds %struct.Reg, %struct.Reg* %4, i32 0, i32 0
  %PC = bitcast %union.anon* %5 to i64*
  %6 = getelementptr inbounds %struct.State, %struct.State* %0, i32 0, i32 6
  %7 = getelementptr inbounds %struct.GPR, %struct.GPR* %6, i32 0, i32 15
  %8 = getelementptr inbounds %struct.Reg, %struct.Reg* %7, i32 0, i32 0
  %RBP = bitcast %union.anon* %8 to i64*
  %9 = load i64, i64* %PC
  %10 = add i64 %9, 1
  store i64 %10, i64* %PC
  %11 = getelementptr inbounds %struct.State, %struct.State* %0, i64 0, i32 6, i32 13, i32 0, i32 0
  %12 = load i64, i64* %11, align 8
  %13 = add i64 %12, 8
  %14 = inttoptr i64 %12 to i64*
  %15 = load i64, i64* %14
  store i64 %15, i64* %RBP, align 8
  store i64 %13, i64* %11, align 8
  ret %struct.Memory* %2
}

define %struct.Memory* @routine_retq(%struct.State* dereferenceable(3376), i64, %struct.Memory*) {
block_400488:
  %3 = getelementptr inbounds %struct.State, %struct.State* %0, i32 0, i32 6
  %4 = getelementptr inbounds %struct.GPR, %struct.GPR* %3, i32 0, i32 33
  %5 = getelementptr inbounds %struct.Reg, %struct.Reg* %4, i32 0, i32 0
  %PC = bitcast %union.anon* %5 to i64*
  %6 = load i64, i64* %PC
  %7 = add i64 %6, 1
  store i64 %7, i64* %PC
  %8 = getelementptr inbounds %struct.State, %struct.State* %0, i64 0, i32 6, i32 33, i32 0, i32 0
  %9 = getelementptr inbounds %struct.State, %struct.State* %0, i64 0, i32 6, i32 13, i32 0, i32 0
  %10 = load i64, i64* %9, align 8
  %11 = inttoptr i64 %10 to i64*
  %12 = load i64, i64* %11
  store i64 %12, i64* %8, align 8
  %13 = add i64 %10, 8
  store i64 %13, i64* %9, align 8
  ret %struct.Memory* %2
}

attributes #0 = { argmemonly nounwind }
attributes #1 = { nounwind readnone }
attributes #2 = { alwaysinline }
