; ModuleID = './output//test1.target.extract.ll'
source_filename = "viterbi_flat.c"
target datalayout = "e-m:e-i64:64-f80:128-n8:16:32:64-S128"
target triple = "x86_64-unknown-linux-gnu"

@d_decoded = external hidden global [18585 x i8], align 16

; Function Attrs: nounwind uwtable
define i8* @do_decoding(i32 %in_cbps, i32 %in_ntraceback, i8* nocapture readnone %in_depuncture_pattern, i32 %in_n_data_bits, i8* nocapture readonly %depd_data) local_unnamed_addr #0 {
entry:
  ret i8* getelementptr inbounds ([18585 x i8], [18585 x i8]* @d_decoded, i64 0, i64 0)
}

attributes #0 = { nounwind uwtable "correctly-rounded-divide-sqrt-fp-math"="false" "disable-tail-calls"="false" "less-precise-fpmad"="false" "no-frame-pointer-elim"="false" "no-infs-fp-math"="false" "no-jump-tables"="false" "no-nans-fp-math"="false" "no-signed-zeros-fp-math"="false" "no-trapping-math"="false" "stack-protector-buffer-size"="8" "target-cpu"="x86-64" "target-features"="+fxsr,+mmx,+sse,+sse2,+x87" "unsafe-fp-math"="false" "use-soft-float"="false" }

!llvm.ident = !{!0}

!0 = !{!"clang version 4.0.0 (tags/RELEASE_400/final)"}
