; ModuleID = '/home/sdasgup3/Github/validating-binary-decompilation/tests/program_translation_validation/toy-examples/bc-seeds/sum-2-n/sum-2-n.bc'
source_filename = "llvm-link"
target datalayout = "e-m:e-i64:64-f80:128-n8:16:32:64-S128"
target triple = "x86_64-unknown-linux-gnu"

; Function Attrs: noinline nounwind uwtable
define i32 @sum_2_n(i32 %n) #0 {
entry:
  %n.addr = alloca i32, align 4
  %sum = alloca i32, align 4
  %i = alloca i32, align 4
  store i32 %n, i32* %n.addr, align 4
  store i32 0, i32* %sum, align 4
  store i32 0, i32* %i, align 4
  br label %for.cond

for.cond:                                         ; preds = %for.inc, %entry
  %0 = load i32, i32* %i, align 4
  %1 = load i32, i32* %n.addr, align 4
  %cmp = icmp slt i32 %0, %1
  br i1 %cmp, label %for.body, label %for.end

for.body:                                         ; preds = %for.cond
  %2 = load i32, i32* %i, align 4
  %3 = load i32, i32* %sum, align 4
  %add = add nsw i32 %3, %2
  store i32 %add, i32* %sum, align 4
  br label %for.inc

for.inc:                                          ; preds = %for.body
  %4 = load i32, i32* %i, align 4
  %inc = add nsw i32 %4, 1
  store i32 %inc, i32* %i, align 4
  br label %for.cond

for.end:                                          ; preds = %for.cond
  %5 = load i32, i32* %sum, align 4
  ret i32 %5
}

; Function Attrs: noinline nounwind uwtable
define i32 @main() #0 {
entry:
  %retval = alloca i32, align 4
  store i32 0, i32* %retval, align 4
  %call = call i32 @sum_2_n(i32 10)
  ret i32 %call
}

attributes #0 = { noinline nounwind uwtable "correctly-rounded-divide-sqrt-fp-math"="false" "disable-tail-calls"="false" "less-precise-fpmad"="false" "no-frame-pointer-elim"="true" "no-frame-pointer-elim-non-leaf" "no-infs-fp-math"="false" "no-jump-tables"="false" "no-nans-fp-math"="false" "no-signed-zeros-fp-math"="false" "no-trapping-math"="false" "stack-protector-buffer-size"="8" "target-cpu"="x86-64" "target-features"="+fxsr,+mmx,+sse,+sse2,+x87" "unsafe-fp-math"="false" "use-soft-float"="false" }

!llvm.ident = !{!0}

!0 = !{!"clang version 4.0.0 (tags/RELEASE_400/final)"}
