[     1s]    INFO tuneNormalizer:  Search Space: ['-mem2reg', '-licm', '-gvn', '-early-cse', '-globalopt', '-simplifycfg', '-basicaa', '-aa', '-memdep', '-dse', '-deadargelim', '-libcalls-shrinkwrap', '-tailcallelim', '-instcombine', '-memcpyopt', '-early-cse-memssa']


[     1s] WARNING opentuner.search.simplextechniques: only 1 point in simplex, will not use RandomNelderMead
[    50s]    INFO opentuner.search.plugin.DisplayPlugin: tests=4, best #592, cost time=0.0031, found by UniformGreedyMutation
[    95s]    INFO opentuner.search.plugin.DisplayPlugin: tests=8, best #592, cost time=0.0031, found by UniformGreedyMutation
[   144s]    INFO opentuner.search.plugin.DisplayPlugin: tests=12, best #592, cost time=0.0031, found by UniformGreedyMutation
[   199s]    INFO opentuner.search.plugin.DisplayPlugin: tests=16, best #601, cost time=0.0029, found by NormalGreedyMutation
[   250s]    INFO opentuner.search.plugin.DisplayPlugin: tests=20, best #601, cost time=0.0029, found by NormalGreedyMutation
[   298s]    INFO opentuner.search.plugin.DisplayPlugin: tests=24, best #601, cost time=0.0029, found by NormalGreedyMutation
[   353s]    INFO opentuner.search.plugin.DisplayPlugin: tests=28, best #601, cost time=0.0029, found by NormalGreedyMutation
[   405s]    INFO opentuner.search.plugin.DisplayPlugin: tests=32, best #601, cost time=0.0029, found by NormalGreedyMutation
[   456s]    INFO opentuner.search.plugin.DisplayPlugin: tests=36, best #601, cost time=0.0029, found by NormalGreedyMutation
[   508s]    INFO opentuner.search.plugin.DisplayPlugin: tests=40, best #601, cost time=0.0029, found by NormalGreedyMutation
[   562s]    INFO opentuner.search.plugin.DisplayPlugin: tests=44, best #601, cost time=0.0029, found by NormalGreedyMutation
[   609s]    INFO opentuner.search.plugin.DisplayPlugin: tests=48, best #601, cost time=0.0029, found by NormalGreedyMutation
[   670s]    INFO opentuner.search.plugin.DisplayPlugin: tests=52, best #601, cost time=0.0029, found by NormalGreedyMutation
[   723s]    INFO opentuner.search.plugin.DisplayPlugin: tests=56, best #601, cost time=0.0029, found by NormalGreedyMutation
[   769s]    INFO opentuner.search.plugin.DisplayPlugin: tests=60, best #601, cost time=0.0029, found by NormalGreedyMutation
[   831s]    INFO opentuner.search.plugin.DisplayPlugin: tests=64, best #601, cost time=0.0029, found by NormalGreedyMutation
[   854s]    INFO tuneNormalizer: run_precompiled: Early Exit: Optimal pass sequence written to mcsema//normalizer_final_config.json: [ -gvn -aa -memdep -libcalls-shrinkwrap -tailcallelim -instcombine -early-cse-memssa]
[   891s]    INFO opentuner.search.plugin.DisplayPlugin: tests=68, best #637, cost time=0.0000, found by NormalGreedyMutation
[   911s]    INFO tuneNormalizer: run_precompiled: Early Exit: Optimal pass sequence written to mcsema//normalizer_final_config.json: [ -gvn -aa -memdep -libcalls-shrinkwrap -instcombine -early-cse-memssa]
[   943s]    INFO tuneNormalizer: run_precompiled: Early Exit: Optimal pass sequence written to mcsema//normalizer_final_config.json: [ -licm -gvn -aa -memdep -libcalls-shrinkwrap -tailcallelim -instcombine -early-cse-memssa]
[   943s]    INFO opentuner.search.plugin.DisplayPlugin: tests=72, best #637, cost time=0.0000, found by NormalGreedyMutation
[   982s]    INFO tuneNormalizer: run_precompiled: Early Exit: Optimal pass sequence written to mcsema//normalizer_final_config.json: [ -gvn -memdep -deadargelim -libcalls-shrinkwrap -instcombine -early-cse-memssa]
[  1003s]    INFO tuneNormalizer: run_precompiled: Early Exit: Optimal pass sequence written to mcsema//normalizer_final_config.json: [ -gvn -aa -memdep -libcalls-shrinkwrap -instcombine -early-cse-memssa]
[  1003s]    INFO opentuner.search.plugin.DisplayPlugin: tests=76, best #637, cost time=0.0000, found by NormalGreedyMutation
[  1054s]    INFO opentuner.search.plugin.DisplayPlugin: tests=80, best #637, cost time=0.0000, found by NormalGreedyMutation
[  1102s]    INFO opentuner.search.plugin.DisplayPlugin: tests=84, best #637, cost time=0.0000, found by NormalGreedyMutation
[  1132s]    INFO tuneNormalizer: run_precompiled: Early Exit: Optimal pass sequence written to mcsema//normalizer_final_config.json: [ -gvn -aa -memdep -libcalls-shrinkwrap -instcombine -early-cse-memssa]
[  1153s]    INFO tuneNormalizer: run_precompiled: Early Exit: Optimal pass sequence written to mcsema//normalizer_final_config.json: [ -gvn -early-cse -aa -memdep -libcalls-shrinkwrap -tailcallelim -instcombine -early-cse-memssa]
[  1153s]    INFO opentuner.search.plugin.DisplayPlugin: tests=88, best #637, cost time=0.0000, found by NormalGreedyMutation
[  1178s]    INFO tuneNormalizer: run_precompiled: Early Exit: Optimal pass sequence written to mcsema//normalizer_final_config.json: [ -mem2reg -gvn -aa -memdep -libcalls-shrinkwrap -tailcallelim -instcombine -early-cse-memssa]
[  1189s]    INFO tuneNormalizer: run_precompiled: Early Exit: Optimal pass sequence written to mcsema//normalizer_final_config.json: [ -gvn -memdep -tailcallelim -instcombine -early-cse-memssa]
[  1210s]    INFO opentuner.search.plugin.DisplayPlugin: tests=92, best #637, cost time=0.0000, found by NormalGreedyMutation
[  1232s]    INFO tuneNormalizer: run_precompiled: Early Exit: Optimal pass sequence written to mcsema//normalizer_final_config.json: [ -mem2reg -gvn -memdep -libcalls-shrinkwrap -instcombine -early-cse-memssa]
[  1253s]    INFO tuneNormalizer: run_precompiled: Early Exit: Optimal pass sequence written to mcsema//normalizer_final_config.json: [ -gvn -aa -memdep -libcalls-shrinkwrap -tailcallelim -instcombine -early-cse-memssa]
[  1253s]    INFO opentuner.search.plugin.DisplayPlugin: tests=95, best #637, cost time=0.0000, found by NormalGreedyMutation
[  1301s]    INFO opentuner.search.plugin.DisplayPlugin: tests=99, best #637, cost time=0.0000, found by NormalGreedyMutation
[  1335s]    INFO tuneNormalizer: run_precompiled: Early Exit: Optimal pass sequence written to mcsema//normalizer_final_config.json: [ -gvn -memdep -libcalls-shrinkwrap -tailcallelim -instcombine -early-cse-memssa]
[  1356s]    INFO tuneNormalizer: run_precompiled: Early Exit: Optimal pass sequence written to mcsema//normalizer_final_config.json: [ -gvn -aa -memdep -dse -libcalls-shrinkwrap -tailcallelim -instcombine -early-cse-memssa]
[  1356s]    INFO opentuner.search.plugin.DisplayPlugin: tests=103, best #637, cost time=0.0000, found by NormalGreedyMutation
[  1356s]    INFO opentuner.search.plugin.DisplayPlugin: tests=103, best #637, cost time=0.0000, found by NormalGreedyMutation
[  1356s]    INFO tuneNormalizer: Optimal pass sequence seen so far: [-early-cse-memssa -instcombine -libcalls-shrinkwrap -aa -memdep -tailcallelim -gvn ]
1137.26user 37.71system 22:36.50elapsed 86%CPU (0avgtext+0avgdata 90080maxresident)k
16inputs+2083520outputs (0major+4285939minor)pagefaults 0swaps
