; ModuleID = 'mcsema/test.proposed.ll'
source_filename = "llvm-link"
target datalayout = "e-m:e-i64:64-f80:128-n8:16:32:64-S128"
target triple = "x86_64-pc-linux-gnu-elf"

%union.anon = type { i64 }
%seg_400388__init_type = type <{ [23 x i8] }>
%seg_4003a0__text_type = type <{ [354 x i8] }>
%seg_400504__fini_type = type <{ [9 x i8] }>
%seg_400510__rodata_type = type <{ [4 x i8] }>
%seg_400514__eh_frame_hdr_type = type <{ [52 x i8] }>
%seg_400548__eh_frame_type = type <{ [208 x i8] }>
%seg_601018__data_type = type <{ [16 x i8] }>
%__bss_start_type = type <{ [8 x i8] }>
%struct.State = type { %struct.ArchState, [32 x %union.VectorReg], %struct.ArithFlags, %union.anon, %struct.Segments, %struct.AddressSpace, %struct.GPR, %struct.X87Stack, %struct.MMX, %struct.FPUStatusFlags, %union.anon, %union.FPU, %struct.SegmentCaches }
%struct.ArchState = type { i32, i32, %union.anon }
%union.VectorReg = type { %union.vec512_t }
%union.vec512_t = type { %struct.uint64v8_t }
%struct.uint64v8_t = type { [8 x i64] }
%struct.ArithFlags = type { i8, i8, i8, i8, i8, i8, i8, i8, i8, i8, i8, i8, i8, i8, i8, i8 }
%struct.Segments = type { i16, %union.SegmentSelector, i16, %union.SegmentSelector, i16, %union.SegmentSelector, i16, %union.SegmentSelector, i16, %union.SegmentSelector, i16, %union.SegmentSelector }
%union.SegmentSelector = type { i16 }
%struct.AddressSpace = type { i64, %struct.Reg, i64, %struct.Reg, i64, %struct.Reg, i64, %struct.Reg, i64, %struct.Reg, i64, %struct.Reg }
%struct.Reg = type { %union.anon }
%struct.GPR = type { i64, %struct.Reg, i64, %struct.Reg, i64, %struct.Reg, i64, %struct.Reg, i64, %struct.Reg, i64, %struct.Reg, i64, %struct.Reg, i64, %struct.Reg, i64, %struct.Reg, i64, %struct.Reg, i64, %struct.Reg, i64, %struct.Reg, i64, %struct.Reg, i64, %struct.Reg, i64, %struct.Reg, i64, %struct.Reg, i64, %struct.Reg }
%struct.X87Stack = type { [8 x %struct.anon.3] }
%struct.anon.3 = type { i64, double }
%struct.MMX = type { [8 x %struct.anon.4] }
%struct.anon.4 = type { i64, %union.vec64_t }
%union.vec64_t = type { %struct.uint64v1_t }
%struct.uint64v1_t = type { [1 x i64] }
%struct.FPUStatusFlags = type { i8, i8, i8, i8, i8, i8, i8, i8, i8, i8, i8, i8, i8, i8, i8, i8, i8, i8, i8, i8, [4 x i8] }
%union.FPU = type { %struct.anon.13 }
%struct.anon.13 = type { %struct.FpuFXSAVE, [96 x i8] }
%struct.FpuFXSAVE = type { %union.SegmentSelector, %union.SegmentSelector, %union.FPUAbridgedTagWord, i8, i16, i32, %union.SegmentSelector, i16, i32, %union.SegmentSelector, i16, %union.FPUControlStatus, %union.FPUControlStatus, [8 x %struct.FPUStackElem], [16 x %union.vec128_t] }
%union.FPUAbridgedTagWord = type { i8 }
%union.FPUControlStatus = type { i32 }
%struct.FPUStackElem = type { %union.anon.11, [6 x i8] }
%union.anon.11 = type { %struct.float80_t }
%struct.float80_t = type { [10 x i8] }
%union.vec128_t = type { %struct.uint128v1_t }
%struct.uint128v1_t = type { [1 x i128] }
%struct.SegmentCaches = type { %struct.SegmentShadow, %struct.SegmentShadow, %struct.SegmentShadow, %struct.SegmentShadow, %struct.SegmentShadow, %struct.SegmentShadow }
%struct.SegmentShadow = type { %union.anon, i32, i32 }
%struct.Memory = type opaque
%struct.anon.2 = type { i8, i8 }

@switch.table = private unnamed_addr constant [4 x i32] [i32 2048, i32 3072, i32 0, i32 1024]
@DR0 = external global i64, align 8
@DR1 = external global i64, align 8
@DR2 = external global i64, align 8
@DR3 = external global i64, align 8
@DR4 = external global i64, align 8
@DR5 = external global i64, align 8
@DR6 = external global i64, align 8
@DR7 = external global i64, align 8
@gCR0 = external global %union.anon, align 1
@gCR1 = external global %union.anon, align 1
@gCR2 = external global %union.anon, align 1
@gCR3 = external global %union.anon, align 1
@gCR4 = external global %union.anon, align 1
@gCR8 = external global %union.anon, align 1
@seg_400388__init = internal constant %seg_400388__init_type <{ [23 x i8] c"H\83\EC\08H\8B\05e\0C \00H\85\C0t\02\FF\D0H\83\C4\08\C3" }>
@seg_4003a0__text = internal constant %seg_4003a0__text_type <{ [354 x i8] c"1\EDI\89\D1^H\89\E2H\83\E4\F0PTI\C7\C0\00\05@\00H\C7\C1\90\04@\00H\C7\C7\88\04@\00\FF\15&\0C \00\F4\0F\1FD\00\00\F3\C3f.\0F\1F\84\00\00\00\00\00\0F\1F@\00U\B8(\10`\00H=(\10`\00H\89\E5t\17\B8\00\00\00\00H\85\C0t\0D]\BF(\10`\00\FF\E0\0F\1FD\00\00]\C3f\0F\1FD\00\00\BE(\10`\00UH\81\EE(\10`\00H\89\E5H\C1\FE\03H\89\F0H\C1\E8?H\01\C6H\D1\FEt\15\B8\00\00\00\00H\85\C0t\0B]\BF(\10`\00\FF\E0\0F\1F\00]\C3f\0F\1FD\00\00\80=\D1\0B \00\00u\17UH\89\E5\E8~\FF\FF\FF\C6\05\BF\0B \00\01]\C3\0F\1FD\00\00\F3\C3\0F\1F@\00f.\0F\1F\84\00\00\00\00\00UH\89\E5]\EB\89\90U\C3f\0F\1FD\00\00AWAVI\89\D7AUATL\8D%\9E\09 \00UH\8D-\9E\09 \00SA\89\FDI\89\F6L)\E5H\83\EC\08H\C1\FD\03\E8\C7\FE\FF\FFH\85\EDt 1\DB\0F\1F\84\00\00\00\00\00L\89\FAL\89\F6D\89\EFA\FF\14\DCH\83\C3\01H9\DDu\EAH\83\C4\08[]A\5CA]A^A_\C3\90f.\0F\1F\84\00\00\00\00\00\F3\C3" }>
@seg_400504__fini = internal constant %seg_400504__fini_type <{ [9 x i8] c"H\83\EC\08H\83\C4\08\C3" }>
@seg_400510__rodata = internal constant %seg_400510__rodata_type <{ [4 x i8] c"\01\00\02\00" }>
@seg_400514__eh_frame_hdr = internal constant %seg_400514__eh_frame_hdr_type <{ [52 x i8] c"\01\1B\03;0\00\00\00\05\00\00\00\8C\FE\FF\FFL\00\00\00\BC\FE\FF\FFx\00\00\00t\FF\FF\FF\8C\00\00\00|\FF\FF\FF\A4\00\00\00\EC\FF\FF\FF\EC\00\00\00" }>
@seg_400548__eh_frame = internal constant %seg_400548__eh_frame_type <{ [208 x i8] c"\14\00\00\00\00\00\00\00\01zR\00\01x\10\01\1B\0C\07\08\90\01\07\10\10\00\00\00\1C\00\00\008\FE\FF\FF+\00\00\00\00\00\00\00\14\00\00\00\00\00\00\00\01zR\00\01x\10\01\1B\0C\07\08\90\01\00\00\10\00\00\00\1C\00\00\00<\FE\FF\FF\02\00\00\00\00\00\00\00\14\00\00\000\00\00\00\E0\FE\FF\FF\02\00\00\00\00\00\00\00\00\00\00\00D\00\00\00H\00\00\00\D0\FE\FF\FFe\00\00\00\00B\0E\10\8F\02B\0E\18\8E\03E\0E \8D\04B\0E(\8C\05H\0E0\86\06H\0E8\83\07M\0E@r\0E8A\0E0A\0E(B\0E B\0E\18B\0E\10B\0E\08\00\10\00\00\00\90\00\00\00\F8\FE\FF\FF\02\00\00\00\00\00\00\00\00\00\00\00" }>
@seg_601018__data = internal global %seg_601018__data_type zeroinitializer
@__bss_start = global %__bss_start_type zeroinitializer
@0 = internal global i1 false

declare %struct.Memory* @__remill_error(%struct.State* dereferenceable(3376), i64, %struct.Memory*)

declare i32 @__remill_fpu_exception_test_and_clear(i32, i32)

; Function Attrs: argmemonly nounwind
declare void @llvm.lifetime.start(i64, i8* nocapture) #0

; Function Attrs: argmemonly nounwind
declare void @llvm.lifetime.end(i64, i8* nocapture) #0

; Function Attrs: nounwind readnone
declare i32 @llvm.ctpop.i32(i32) #1

; Function Attrs: nounwind readnone
declare i32 @llvm.bswap.i32(i32) #1

; Function Attrs: nounwind readnone
declare i64 @llvm.bswap.i64(i64) #1

; Function Attrs: nounwind readnone
declare i32 @llvm.cttz.i32(i32, i1) #1

; Function Attrs: nounwind readnone
declare i64 @llvm.cttz.i64(i64, i1) #1

; Function Attrs: nounwind readnone
declare i32 @llvm.ctlz.i32(i32, i1) #1

; Function Attrs: nounwind readnone
declare i64 @llvm.ctlz.i64(i64, i1) #1

; Function Attrs: argmemonly nounwind
declare void @llvm.memcpy.p0i8.p0i8.i64(i8* nocapture writeonly, i8* nocapture readonly, i64, i32, i1) #0

; Function Attrs: nounwind readnone
declare double @llvm.nearbyint.f64(double) #1

; Function Attrs: nounwind readnone
declare double @llvm.fabs.f64(double) #1

; Function Attrs: nounwind readnone
declare <4 x double> @llvm.nearbyint.v4f64(<4 x double>) #1

; Function Attrs: nounwind readnone
declare <4 x double> @llvm.fabs.v4f64(<4 x double>) #1

; Function Attrs: nounwind readnone
declare double @llvm.trunc.f64(double) #1

; Function Attrs: nounwind readnone
declare <4 x double> @llvm.trunc.v4f64(<4 x double>) #1

; Function Attrs: nounwind readnone
declare float @llvm.nearbyint.f32(float) #1

; Function Attrs: nounwind readnone
declare float @llvm.fabs.f32(float) #1

; Function Attrs: nounwind readnone
declare <4 x float> @llvm.nearbyint.v4f32(<4 x float>) #1

; Function Attrs: nounwind readnone
declare <4 x float> @llvm.fabs.v4f32(<4 x float>) #1

; Function Attrs: nounwind readnone
declare float @llvm.trunc.f32(float) #1

; Function Attrs: nounwind readnone
declare <4 x float> @llvm.trunc.v4f32(<4 x float>) #1

; Function Attrs: argmemonly nounwind
declare void @llvm.memset.p0i8.i64(i8* nocapture writeonly, i8, i64, i32, i1) #0

declare double @atan(double) local_unnamed_addr

declare double @cos(double) local_unnamed_addr

declare double @sin(double) local_unnamed_addr

declare double @sqrt(double) local_unnamed_addr

declare double @tan(double) local_unnamed_addr

declare extern_weak x86_64_sysvcc i64 @abort()

declare extern_weak x86_64_sysvcc i64 @abs(i64)

declare extern_weak x86_64_sysvcc i64 @asin(i64)

declare extern_weak x86_64_sysvcc i64 @atof(i64)

declare extern_weak x86_64_sysvcc i64 @atoi(i64)

declare extern_weak x86_64_sysvcc i64 @atol(i64)

declare extern_weak x86_64_sysvcc i64 @calloc(i64, i64)

declare extern_weak x86_64_sysvcc i64 @clock()

declare extern_weak x86_64_sysvcc i64 @cosf(i64)

declare extern_weak x86_64_sysvcc i64 @exit(i64)

declare extern_weak x86_64_sysvcc i64 @exp(i64)

declare extern_weak x86_64_sysvcc i64 @fflush(i64)

declare extern_weak x86_64_sysvcc i64 @floor(i64)

declare extern_weak x86_64_sysvcc i64 @fprintf(i64, i64, i64, i64, i64, i64, i64, i64, i64, i64, i64, i64, i64, i64, i64, i64)

declare extern_weak x86_64_sysvcc i64 @fputs(i64, i64)

declare extern_weak x86_64_sysvcc i64 @free(i64)

declare extern_weak x86_64_sysvcc i64 @fwrite(i64, i64, i64, i64)

declare extern_weak x86_64_sysvcc i64 @getchar()

declare extern_weak x86_64_sysvcc i64 @gettimeofday(i64, i64)

declare extern_weak x86_64_sysvcc i64 @__isoc99_fscanf(i64, i64, i64, i64, i64, i64, i64, i64, i64, i64, i64, i64, i64, i64, i64, i64)

declare extern_weak x86_64_sysvcc i64 @__isoc99_scanf(i64, i64, i64, i64, i64, i64, i64, i64, i64, i64, i64, i64, i64, i64, i64, i64)

declare extern_weak x86_64_sysvcc i64 @__isoc99_sscanf(i64, i64, i64, i64, i64, i64, i64, i64, i64, i64, i64, i64, i64, i64, i64, i64)

declare extern_weak x86_64_sysvcc i64 @log(i64)

declare extern_weak x86_64_sysvcc i64 @lrand48()

declare extern_weak x86_64_sysvcc i64 @malloc(i64)

declare extern_weak x86_64_sysvcc i64 @memalign(i64, i64)

declare extern_weak x86_64_sysvcc i64 @memcpy(i64, i64, i64)

declare extern_weak x86_64_sysvcc i64 @memset(i64, i64, i64)

declare extern_weak x86_64_sysvcc i64 @perror(i64)

declare extern_weak x86_64_sysvcc i64 @posix_memalign(i64, i64, i64)

declare extern_weak x86_64_sysvcc i64 @pow(i64, i64)

declare extern_weak x86_64_sysvcc i64 @printf(i64, i64, i64, i64, i64, i64, i64, i64, i64, i64, i64, i64, i64, i64, i64, i64)

declare extern_weak x86_64_sysvcc i64 @putchar(i64)

declare extern_weak x86_64_sysvcc i64 @puts(i64)

declare extern_weak x86_64_sysvcc i64 @rand()

declare extern_weak x86_64_sysvcc i64 @random()

declare extern_weak x86_64_sysvcc i64 @realloc(i64, i64)

declare extern_weak x86_64_sysvcc i64 @seed48(i64)

declare extern_weak x86_64_sysvcc i64 @sinf(i64)

declare extern_weak x86_64_sysvcc i64 @sprintf(i64, i64, i64, i64, i64, i64, i64, i64, i64, i64, i64, i64, i64, i64, i64, i64)

declare extern_weak x86_64_sysvcc i64 @srand(i64)

declare extern_weak x86_64_sysvcc i64 @strcat(i64, i64)

declare extern_weak x86_64_sysvcc i64 @strcmp(i64, i64)

declare extern_weak x86_64_sysvcc i64 @strcpy(i64, i64)

declare extern_weak x86_64_sysvcc i64 @strdup(i64)

declare extern_weak x86_64_sysvcc i64 @strlen(i64)

declare extern_weak x86_64_sysvcc i64 @strncmp(i64, i64, i64)

declare extern_weak x86_64_sysvcc i64 @strtoll(i64, i64, i64)

declare extern_weak x86_64_sysvcc i64 @time(i64)

declare extern_weak x86_64_sysvcc i64 @ungetc(i64, i64)

declare extern_weak x86_64_sysvcc i64 @pthread_join(i64, i64)

declare extern_weak x86_64_sysvcc i64 @pthread_create(i64, i64, i64, i64)

declare %struct.Memory* @__remill_function_call(%struct.State* dereferenceable(3376), i64, %struct.Memory*)

declare %struct.Memory* @ext_sqrt(%struct.State* noalias dereferenceable(3376), i64, %struct.Memory* noalias)

declare %struct.Memory* @ext_atan(%struct.State* noalias dereferenceable(3376), i64, %struct.Memory* noalias)

declare %struct.Memory* @ext_cos(%struct.State* noalias dereferenceable(3376), i64, %struct.Memory* noalias)

declare %struct.Memory* @ext_tan(%struct.State* noalias dereferenceable(3376), i64, %struct.Memory* noalias)

declare %struct.Memory* @ext_sin(%struct.State* noalias dereferenceable(3376), i64, %struct.Memory* noalias)

; Function Attrs: alwaysinline
define %struct.Memory* @is_halfeye(%struct.State* noalias, i64, %struct.Memory* noalias) #2 {
entry:
  %3 = getelementptr inbounds %struct.State, %struct.State* %0, i64 0, i32 6, i32 33, i32 0, i32 0
  store i64 %1, i64* %3, align 8
  %BRANCH_TAKEN = alloca i8, align 1
  store i8 0, i8* %BRANCH_TAKEN, align 1
  %MEMORY = alloca %struct.Memory*, align 8
  store %struct.Memory* %2, %struct.Memory** %MEMORY, align 8
  %loadMem_43b030 = load %struct.Memory*, %struct.Memory** %MEMORY
  %4 = getelementptr inbounds %struct.State, %struct.State* %0, i32 0, i32 6
  %5 = getelementptr inbounds %struct.GPR, %struct.GPR* %4, i32 0, i32 33
  %6 = getelementptr inbounds %struct.Reg, %struct.Reg* %5, i32 0, i32 0
  %PC.i = bitcast %union.anon* %6 to i64*
  %7 = getelementptr inbounds %struct.State, %struct.State* %0, i32 0, i32 6
  %8 = getelementptr inbounds %struct.GPR, %struct.GPR* %7, i32 0, i32 15
  %9 = getelementptr inbounds %struct.Reg, %struct.Reg* %8, i32 0, i32 0
  %RBP.i = bitcast %union.anon* %9 to i64*
  %10 = load i64, i64* %RBP.i
  %11 = load i64, i64* %PC.i
  %12 = add i64 %11, 1
  store i64 %12, i64* %PC.i
  %13 = getelementptr inbounds %struct.State, %struct.State* %0, i64 0, i32 6, i32 13, i32 0, i32 0
  %14 = load i64, i64* %13, align 8
  %15 = add i64 %14, -8
  %16 = inttoptr i64 %15 to i64*
  store i64 %10, i64* %16
  store i64 %15, i64* %13, align 8
  store %struct.Memory* %loadMem_43b030, %struct.Memory** %MEMORY
  %loadMem_43b031 = load %struct.Memory*, %struct.Memory** %MEMORY
  %17 = getelementptr inbounds %struct.State, %struct.State* %0, i32 0, i32 6
  %18 = getelementptr inbounds %struct.GPR, %struct.GPR* %17, i32 0, i32 33
  %19 = getelementptr inbounds %struct.Reg, %struct.Reg* %18, i32 0, i32 0
  %PC.i28 = bitcast %union.anon* %19 to i64*
  %20 = getelementptr inbounds %struct.State, %struct.State* %0, i32 0, i32 6
  %21 = getelementptr inbounds %struct.GPR, %struct.GPR* %20, i32 0, i32 13
  %22 = getelementptr inbounds %struct.Reg, %struct.Reg* %21, i32 0, i32 0
  %RSP.i = bitcast %union.anon* %22 to i64*
  %23 = getelementptr inbounds %struct.State, %struct.State* %0, i32 0, i32 6
  %24 = getelementptr inbounds %struct.GPR, %struct.GPR* %23, i32 0, i32 15
  %25 = getelementptr inbounds %struct.Reg, %struct.Reg* %24, i32 0, i32 0
  %RBP.i29 = bitcast %union.anon* %25 to i64*
  %26 = load i64, i64* %RSP.i
  %27 = load i64, i64* %PC.i28
  %28 = add i64 %27, 3
  store i64 %28, i64* %PC.i28
  store i64 %26, i64* %RBP.i29, align 8
  store %struct.Memory* %loadMem_43b031, %struct.Memory** %MEMORY
  %loadMem_43b034 = load %struct.Memory*, %struct.Memory** %MEMORY
  %29 = getelementptr inbounds %struct.State, %struct.State* %0, i32 0, i32 6
  %30 = getelementptr inbounds %struct.GPR, %struct.GPR* %29, i32 0, i32 33
  %31 = getelementptr inbounds %struct.Reg, %struct.Reg* %30, i32 0, i32 0
  %PC.i25 = bitcast %union.anon* %31 to i64*
  %32 = getelementptr inbounds %struct.State, %struct.State* %0, i32 0, i32 6
  %33 = getelementptr inbounds %struct.GPR, %struct.GPR* %32, i32 0, i32 11
  %34 = getelementptr inbounds %struct.Reg, %struct.Reg* %33, i32 0, i32 0
  %RDI.i26 = bitcast %union.anon* %34 to i64*
  %35 = getelementptr inbounds %struct.State, %struct.State* %0, i32 0, i32 6
  %36 = getelementptr inbounds %struct.GPR, %struct.GPR* %35, i32 0, i32 15
  %37 = getelementptr inbounds %struct.Reg, %struct.Reg* %36, i32 0, i32 0
  %RBP.i27 = bitcast %union.anon* %37 to i64*
  %38 = load i64, i64* %RBP.i27
  %39 = sub i64 %38, 8
  %40 = load i64, i64* %RDI.i26
  %41 = load i64, i64* %PC.i25
  %42 = add i64 %41, 4
  store i64 %42, i64* %PC.i25
  %43 = inttoptr i64 %39 to i64*
  store i64 %40, i64* %43
  store %struct.Memory* %loadMem_43b034, %struct.Memory** %MEMORY
  %loadMem_43b038 = load %struct.Memory*, %struct.Memory** %MEMORY
  %44 = getelementptr inbounds %struct.State, %struct.State* %0, i32 0, i32 6
  %45 = getelementptr inbounds %struct.GPR, %struct.GPR* %44, i32 0, i32 33
  %46 = getelementptr inbounds %struct.Reg, %struct.Reg* %45, i32 0, i32 0
  %PC.i22 = bitcast %union.anon* %46 to i64*
  %47 = getelementptr inbounds %struct.State, %struct.State* %0, i32 0, i32 6
  %48 = getelementptr inbounds %struct.GPR, %struct.GPR* %47, i32 0, i32 9
  %49 = getelementptr inbounds %struct.Reg, %struct.Reg* %48, i32 0, i32 0
  %ESI.i23 = bitcast %union.anon* %49 to i32*
  %50 = getelementptr inbounds %struct.State, %struct.State* %0, i32 0, i32 6
  %51 = getelementptr inbounds %struct.GPR, %struct.GPR* %50, i32 0, i32 15
  %52 = getelementptr inbounds %struct.Reg, %struct.Reg* %51, i32 0, i32 0
  %RBP.i24 = bitcast %union.anon* %52 to i64*
  %53 = load i64, i64* %RBP.i24
  %54 = sub i64 %53, 12
  %55 = load i32, i32* %ESI.i23
  %56 = zext i32 %55 to i64
  %57 = load i64, i64* %PC.i22
  %58 = add i64 %57, 3
  store i64 %58, i64* %PC.i22
  %59 = inttoptr i64 %54 to i32*
  store i32 %55, i32* %59
  store %struct.Memory* %loadMem_43b038, %struct.Memory** %MEMORY
  %loadMem_43b03b = load %struct.Memory*, %struct.Memory** %MEMORY
  %60 = getelementptr inbounds %struct.State, %struct.State* %0, i32 0, i32 6
  %61 = getelementptr inbounds %struct.GPR, %struct.GPR* %60, i32 0, i32 33
  %62 = getelementptr inbounds %struct.Reg, %struct.Reg* %61, i32 0, i32 0
  %PC.i19 = bitcast %union.anon* %62 to i64*
  %63 = getelementptr inbounds %struct.State, %struct.State* %0, i32 0, i32 6
  %64 = getelementptr inbounds %struct.GPR, %struct.GPR* %63, i32 0, i32 11
  %65 = getelementptr inbounds %struct.Reg, %struct.Reg* %64, i32 0, i32 0
  %RDI.i20 = bitcast %union.anon* %65 to i64*
  %66 = getelementptr inbounds %struct.State, %struct.State* %0, i32 0, i32 6
  %67 = getelementptr inbounds %struct.GPR, %struct.GPR* %66, i32 0, i32 15
  %68 = getelementptr inbounds %struct.Reg, %struct.Reg* %67, i32 0, i32 0
  %RBP.i21 = bitcast %union.anon* %68 to i64*
  %69 = load i64, i64* %RBP.i21
  %70 = sub i64 %69, 8
  %71 = load i64, i64* %PC.i19
  %72 = add i64 %71, 4
  store i64 %72, i64* %PC.i19
  %73 = inttoptr i64 %70 to i64*
  %74 = load i64, i64* %73
  store i64 %74, i64* %RDI.i20, align 8
  store %struct.Memory* %loadMem_43b03b, %struct.Memory** %MEMORY
  %loadMem_43b03f = load %struct.Memory*, %struct.Memory** %MEMORY
  %75 = getelementptr inbounds %struct.State, %struct.State* %0, i32 0, i32 6
  %76 = getelementptr inbounds %struct.GPR, %struct.GPR* %75, i32 0, i32 33
  %77 = getelementptr inbounds %struct.Reg, %struct.Reg* %76, i32 0, i32 0
  %PC.i16 = bitcast %union.anon* %77 to i64*
  %78 = getelementptr inbounds %struct.State, %struct.State* %0, i32 0, i32 6
  %79 = getelementptr inbounds %struct.GPR, %struct.GPR* %78, i32 0, i32 1
  %80 = getelementptr inbounds %struct.Reg, %struct.Reg* %79, i32 0, i32 0
  %RAX.i17 = bitcast %union.anon* %80 to i64*
  %81 = getelementptr inbounds %struct.State, %struct.State* %0, i32 0, i32 6
  %82 = getelementptr inbounds %struct.GPR, %struct.GPR* %81, i32 0, i32 15
  %83 = getelementptr inbounds %struct.Reg, %struct.Reg* %82, i32 0, i32 0
  %RBP.i18 = bitcast %union.anon* %83 to i64*
  %84 = load i64, i64* %RBP.i18
  %85 = sub i64 %84, 12
  %86 = load i64, i64* %PC.i16
  %87 = add i64 %86, 4
  store i64 %87, i64* %PC.i16
  %88 = inttoptr i64 %85 to i32*
  %89 = load i32, i32* %88
  %90 = sext i32 %89 to i64
  store i64 %90, i64* %RAX.i17, align 8
  store %struct.Memory* %loadMem_43b03f, %struct.Memory** %MEMORY
  %loadMem_43b043 = load %struct.Memory*, %struct.Memory** %MEMORY
  %91 = getelementptr inbounds %struct.State, %struct.State* %0, i32 0, i32 6
  %92 = getelementptr inbounds %struct.GPR, %struct.GPR* %91, i32 0, i32 33
  %93 = getelementptr inbounds %struct.Reg, %struct.Reg* %92, i32 0, i32 0
  %PC.i14 = bitcast %union.anon* %93 to i64*
  %94 = getelementptr inbounds %struct.State, %struct.State* %0, i32 0, i32 6
  %95 = getelementptr inbounds %struct.GPR, %struct.GPR* %94, i32 0, i32 1
  %96 = getelementptr inbounds %struct.Reg, %struct.Reg* %95, i32 0, i32 0
  %RAX.i15 = bitcast %union.anon* %96 to i64*
  %97 = load i64, i64* %RAX.i15
  %98 = load i64, i64* %PC.i14
  %99 = add i64 %98, 4
  store i64 %99, i64* %PC.i14
  %100 = sext i64 %97 to i128
  %101 = and i128 %100, -18446744073709551616
  %102 = zext i64 %97 to i128
  %103 = or i128 %101, %102
  %104 = mul i128 48, %103
  %105 = trunc i128 %104 to i64
  store i64 %105, i64* %RAX.i15, align 8
  %106 = sext i64 %105 to i128
  %107 = icmp ne i128 %106, %104
  %108 = zext i1 %107 to i8
  %109 = getelementptr inbounds %struct.State, %struct.State* %0, i64 0, i32 2, i32 1
  store i8 %108, i8* %109, align 1
  %110 = trunc i128 %104 to i32
  %111 = and i32 %110, 255
  %112 = call i32 @llvm.ctpop.i32(i32 %111)
  %113 = trunc i32 %112 to i8
  %114 = and i8 %113, 1
  %115 = xor i8 %114, 1
  %116 = getelementptr inbounds %struct.State, %struct.State* %0, i64 0, i32 2, i32 3
  store i8 %115, i8* %116, align 1
  %117 = getelementptr inbounds %struct.State, %struct.State* %0, i64 0, i32 2, i32 5
  store i8 0, i8* %117, align 1
  %118 = getelementptr inbounds %struct.State, %struct.State* %0, i64 0, i32 2, i32 7
  store i8 0, i8* %118, align 1
  %119 = lshr i64 %105, 63
  %120 = trunc i64 %119 to i8
  %121 = getelementptr inbounds %struct.State, %struct.State* %0, i64 0, i32 2, i32 9
  store i8 %120, i8* %121, align 1
  %122 = getelementptr inbounds %struct.State, %struct.State* %0, i64 0, i32 2, i32 13
  store i8 %108, i8* %122, align 1
  store %struct.Memory* %loadMem_43b043, %struct.Memory** %MEMORY
  %loadMem_43b047 = load %struct.Memory*, %struct.Memory** %MEMORY
  %123 = getelementptr inbounds %struct.State, %struct.State* %0, i32 0, i32 6
  %124 = getelementptr inbounds %struct.GPR, %struct.GPR* %123, i32 0, i32 33
  %125 = getelementptr inbounds %struct.Reg, %struct.Reg* %124, i32 0, i32 0
  %PC.i11 = bitcast %union.anon* %125 to i64*
  %126 = getelementptr inbounds %struct.State, %struct.State* %0, i32 0, i32 6
  %127 = getelementptr inbounds %struct.GPR, %struct.GPR* %126, i32 0, i32 1
  %128 = getelementptr inbounds %struct.Reg, %struct.Reg* %127, i32 0, i32 0
  %RAX.i12 = bitcast %union.anon* %128 to i64*
  %129 = getelementptr inbounds %struct.State, %struct.State* %0, i32 0, i32 6
  %130 = getelementptr inbounds %struct.GPR, %struct.GPR* %129, i32 0, i32 11
  %131 = getelementptr inbounds %struct.Reg, %struct.Reg* %130, i32 0, i32 0
  %RDI.i13 = bitcast %union.anon* %131 to i64*
  %132 = load i64, i64* %RDI.i13
  %133 = load i64, i64* %RAX.i12
  %134 = load i64, i64* %PC.i11
  %135 = add i64 %134, 3
  store i64 %135, i64* %PC.i11
  %136 = add i64 %133, %132
  store i64 %136, i64* %RDI.i13, align 8
  %137 = icmp ult i64 %136, %132
  %138 = icmp ult i64 %136, %133
  %139 = or i1 %137, %138
  %140 = zext i1 %139 to i8
  %141 = getelementptr inbounds %struct.State, %struct.State* %0, i64 0, i32 2, i32 1
  store i8 %140, i8* %141, align 1
  %142 = trunc i64 %136 to i32
  %143 = and i32 %142, 255
  %144 = call i32 @llvm.ctpop.i32(i32 %143)
  %145 = trunc i32 %144 to i8
  %146 = and i8 %145, 1
  %147 = xor i8 %146, 1
  %148 = getelementptr inbounds %struct.State, %struct.State* %0, i64 0, i32 2, i32 3
  store i8 %147, i8* %148, align 1
  %149 = xor i64 %133, %132
  %150 = xor i64 %149, %136
  %151 = lshr i64 %150, 4
  %152 = trunc i64 %151 to i8
  %153 = and i8 %152, 1
  %154 = getelementptr inbounds %struct.State, %struct.State* %0, i64 0, i32 2, i32 5
  store i8 %153, i8* %154, align 1
  %155 = icmp eq i64 %136, 0
  %156 = zext i1 %155 to i8
  %157 = getelementptr inbounds %struct.State, %struct.State* %0, i64 0, i32 2, i32 7
  store i8 %156, i8* %157, align 1
  %158 = lshr i64 %136, 63
  %159 = trunc i64 %158 to i8
  %160 = getelementptr inbounds %struct.State, %struct.State* %0, i64 0, i32 2, i32 9
  store i8 %159, i8* %160, align 1
  %161 = lshr i64 %132, 63
  %162 = lshr i64 %133, 63
  %163 = xor i64 %158, %161
  %164 = xor i64 %158, %162
  %165 = add i64 %163, %164
  %166 = icmp eq i64 %165, 2
  %167 = zext i1 %166 to i8
  %168 = getelementptr inbounds %struct.State, %struct.State* %0, i64 0, i32 2, i32 13
  store i8 %167, i8* %168, align 1
  store %struct.Memory* %loadMem_43b047, %struct.Memory** %MEMORY
  %loadMem_43b04a = load %struct.Memory*, %struct.Memory** %MEMORY
  %169 = getelementptr inbounds %struct.State, %struct.State* %0, i32 0, i32 6
  %170 = getelementptr inbounds %struct.GPR, %struct.GPR* %169, i32 0, i32 33
  %171 = getelementptr inbounds %struct.Reg, %struct.Reg* %170, i32 0, i32 0
  %PC.i10 = bitcast %union.anon* %171 to i64*
  %172 = getelementptr inbounds %struct.State, %struct.State* %0, i32 0, i32 6
  %173 = getelementptr inbounds %struct.GPR, %struct.GPR* %172, i32 0, i32 9
  %174 = getelementptr inbounds %struct.Reg, %struct.Reg* %173, i32 0, i32 0
  %RSI.i = bitcast %union.anon* %174 to i64*
  %175 = getelementptr inbounds %struct.State, %struct.State* %0, i32 0, i32 6
  %176 = getelementptr inbounds %struct.GPR, %struct.GPR* %175, i32 0, i32 11
  %177 = getelementptr inbounds %struct.Reg, %struct.Reg* %176, i32 0, i32 0
  %RDI.i = bitcast %union.anon* %177 to i64*
  %178 = load i64, i64* %RDI.i
  %179 = add i64 %178, 4
  %180 = load i64, i64* %PC.i10
  %181 = add i64 %180, 4
  store i64 %181, i64* %PC.i10
  %182 = inttoptr i64 %179 to i8*
  %183 = load i8, i8* %182
  %184 = sext i8 %183 to i64
  %185 = and i64 %184, 4294967295
  store i64 %185, i64* %RSI.i, align 8
  store %struct.Memory* %loadMem_43b04a, %struct.Memory** %MEMORY
  %loadMem_43b04e = load %struct.Memory*, %struct.Memory** %MEMORY
  %186 = getelementptr inbounds %struct.State, %struct.State* %0, i32 0, i32 6
  %187 = getelementptr inbounds %struct.GPR, %struct.GPR* %186, i32 0, i32 33
  %188 = getelementptr inbounds %struct.Reg, %struct.Reg* %187, i32 0, i32 0
  %PC.i9 = bitcast %union.anon* %188 to i64*
  %189 = getelementptr inbounds %struct.State, %struct.State* %0, i32 0, i32 6
  %190 = getelementptr inbounds %struct.GPR, %struct.GPR* %189, i32 0, i32 9
  %191 = getelementptr inbounds %struct.Reg, %struct.Reg* %190, i32 0, i32 0
  %ESI.i = bitcast %union.anon* %191 to i32*
  %192 = load i32, i32* %ESI.i
  %193 = zext i32 %192 to i64
  %194 = load i64, i64* %PC.i9
  %195 = add i64 %194, 3
  store i64 %195, i64* %PC.i9
  %196 = sub i32 %192, 2
  %197 = icmp ult i32 %192, 2
  %198 = zext i1 %197 to i8
  %199 = getelementptr inbounds %struct.State, %struct.State* %0, i64 0, i32 2, i32 1
  store i8 %198, i8* %199, align 1
  %200 = and i32 %196, 255
  %201 = call i32 @llvm.ctpop.i32(i32 %200)
  %202 = trunc i32 %201 to i8
  %203 = and i8 %202, 1
  %204 = xor i8 %203, 1
  %205 = getelementptr inbounds %struct.State, %struct.State* %0, i64 0, i32 2, i32 3
  store i8 %204, i8* %205, align 1
  %206 = xor i64 2, %193
  %207 = trunc i64 %206 to i32
  %208 = xor i32 %207, %196
  %209 = lshr i32 %208, 4
  %210 = trunc i32 %209 to i8
  %211 = and i8 %210, 1
  %212 = getelementptr inbounds %struct.State, %struct.State* %0, i64 0, i32 2, i32 5
  store i8 %211, i8* %212, align 1
  %213 = icmp eq i32 %196, 0
  %214 = zext i1 %213 to i8
  %215 = getelementptr inbounds %struct.State, %struct.State* %0, i64 0, i32 2, i32 7
  store i8 %214, i8* %215, align 1
  %216 = lshr i32 %196, 31
  %217 = trunc i32 %216 to i8
  %218 = getelementptr inbounds %struct.State, %struct.State* %0, i64 0, i32 2, i32 9
  store i8 %217, i8* %218, align 1
  %219 = lshr i32 %192, 31
  %220 = xor i32 %216, %219
  %221 = add i32 %220, %219
  %222 = icmp eq i32 %221, 2
  %223 = zext i1 %222 to i8
  %224 = getelementptr inbounds %struct.State, %struct.State* %0, i64 0, i32 2, i32 13
  store i8 %223, i8* %224, align 1
  store %struct.Memory* %loadMem_43b04e, %struct.Memory** %MEMORY
  %loadMem_43b051 = load %struct.Memory*, %struct.Memory** %MEMORY
  %225 = getelementptr inbounds %struct.State, %struct.State* %0, i32 0, i32 6
  %226 = getelementptr inbounds %struct.GPR, %struct.GPR* %225, i32 0, i32 33
  %227 = getelementptr inbounds %struct.Reg, %struct.Reg* %226, i32 0, i32 0
  %PC.i7 = bitcast %union.anon* %227 to i64*
  %228 = getelementptr inbounds %struct.State, %struct.State* %0, i32 0, i32 6
  %229 = getelementptr inbounds %struct.GPR, %struct.GPR* %228, i32 0, i32 5
  %230 = getelementptr inbounds %struct.Reg, %struct.Reg* %229, i32 0, i32 0
  %231 = bitcast %union.anon* %230 to %struct.anon.2*
  %CL.i8 = getelementptr inbounds %struct.anon.2, %struct.anon.2* %231, i32 0, i32 0
  %232 = load i64, i64* %PC.i7
  %233 = add i64 %232, 3
  store i64 %233, i64* %PC.i7
  %234 = getelementptr inbounds %struct.State, %struct.State* %0, i64 0, i32 2, i32 7
  %235 = load i8, i8* %234, align 1
  store i8 %235, i8* %CL.i8, align 1
  store %struct.Memory* %loadMem_43b051, %struct.Memory** %MEMORY
  %loadMem_43b054 = load %struct.Memory*, %struct.Memory** %MEMORY
  %236 = getelementptr inbounds %struct.State, %struct.State* %0, i32 0, i32 6
  %237 = getelementptr inbounds %struct.GPR, %struct.GPR* %236, i32 0, i32 33
  %238 = getelementptr inbounds %struct.Reg, %struct.Reg* %237, i32 0, i32 0
  %PC.i5 = bitcast %union.anon* %238 to i64*
  %239 = getelementptr inbounds %struct.State, %struct.State* %0, i32 0, i32 6
  %240 = getelementptr inbounds %struct.GPR, %struct.GPR* %239, i32 0, i32 5
  %241 = getelementptr inbounds %struct.Reg, %struct.Reg* %240, i32 0, i32 0
  %242 = bitcast %union.anon* %241 to %struct.anon.2*
  %CL.i6 = getelementptr inbounds %struct.anon.2, %struct.anon.2* %242, i32 0, i32 0
  %243 = load i8, i8* %CL.i6
  %244 = zext i8 %243 to i64
  %245 = load i64, i64* %PC.i5
  %246 = add i64 %245, 3
  store i64 %246, i64* %PC.i5
  %247 = and i64 1, %244
  %248 = trunc i64 %247 to i8
  store i8 %248, i8* %CL.i6, align 1
  %249 = getelementptr inbounds %struct.State, %struct.State* %0, i64 0, i32 2, i32 1
  store i8 0, i8* %249, align 1
  %250 = trunc i64 %247 to i32
  %251 = and i32 %250, 255
  %252 = call i32 @llvm.ctpop.i32(i32 %251)
  %253 = trunc i32 %252 to i8
  %254 = and i8 %253, 1
  %255 = xor i8 %254, 1
  %256 = getelementptr inbounds %struct.State, %struct.State* %0, i64 0, i32 2, i32 3
  store i8 %255, i8* %256, align 1
  %257 = icmp eq i8 %248, 0
  %258 = zext i1 %257 to i8
  %259 = getelementptr inbounds %struct.State, %struct.State* %0, i64 0, i32 2, i32 7
  store i8 %258, i8* %259, align 1
  %260 = getelementptr inbounds %struct.State, %struct.State* %0, i64 0, i32 2, i32 9
  store i8 0, i8* %260, align 1
  %261 = getelementptr inbounds %struct.State, %struct.State* %0, i64 0, i32 2, i32 13
  store i8 0, i8* %261, align 1
  %262 = getelementptr inbounds %struct.State, %struct.State* %0, i64 0, i32 2, i32 5
  store i8 0, i8* %262, align 1
  store %struct.Memory* %loadMem_43b054, %struct.Memory** %MEMORY
  %loadMem_43b057 = load %struct.Memory*, %struct.Memory** %MEMORY
  %263 = getelementptr inbounds %struct.State, %struct.State* %0, i32 0, i32 6
  %264 = getelementptr inbounds %struct.GPR, %struct.GPR* %263, i32 0, i32 33
  %265 = getelementptr inbounds %struct.Reg, %struct.Reg* %264, i32 0, i32 0
  %PC.i4 = bitcast %union.anon* %265 to i64*
  %266 = getelementptr inbounds %struct.State, %struct.State* %0, i32 0, i32 6
  %267 = getelementptr inbounds %struct.GPR, %struct.GPR* %266, i32 0, i32 5
  %268 = getelementptr inbounds %struct.Reg, %struct.Reg* %267, i32 0, i32 0
  %269 = bitcast %union.anon* %268 to %struct.anon.2*
  %CL.i = getelementptr inbounds %struct.anon.2, %struct.anon.2* %269, i32 0, i32 0
  %270 = getelementptr inbounds %struct.State, %struct.State* %0, i32 0, i32 6
  %271 = getelementptr inbounds %struct.GPR, %struct.GPR* %270, i32 0, i32 1
  %272 = getelementptr inbounds %struct.Reg, %struct.Reg* %271, i32 0, i32 0
  %RAX.i = bitcast %union.anon* %272 to i64*
  %273 = load i8, i8* %CL.i
  %274 = zext i8 %273 to i64
  %275 = load i64, i64* %PC.i4
  %276 = add i64 %275, 3
  store i64 %276, i64* %PC.i4
  %277 = and i64 %274, 255
  store i64 %277, i64* %RAX.i, align 8
  store %struct.Memory* %loadMem_43b057, %struct.Memory** %MEMORY
  %loadMem_43b05a = load %struct.Memory*, %struct.Memory** %MEMORY
  %278 = getelementptr inbounds %struct.State, %struct.State* %0, i32 0, i32 6
  %279 = getelementptr inbounds %struct.GPR, %struct.GPR* %278, i32 0, i32 33
  %280 = getelementptr inbounds %struct.Reg, %struct.Reg* %279, i32 0, i32 0
  %PC.i2 = bitcast %union.anon* %280 to i64*
  %281 = getelementptr inbounds %struct.State, %struct.State* %0, i32 0, i32 6
  %282 = getelementptr inbounds %struct.GPR, %struct.GPR* %281, i32 0, i32 15
  %283 = getelementptr inbounds %struct.Reg, %struct.Reg* %282, i32 0, i32 0
  %RBP.i3 = bitcast %union.anon* %283 to i64*
  %284 = load i64, i64* %PC.i2
  %285 = add i64 %284, 1
  store i64 %285, i64* %PC.i2
  %286 = getelementptr inbounds %struct.State, %struct.State* %0, i64 0, i32 6, i32 13, i32 0, i32 0
  %287 = load i64, i64* %286, align 8
  %288 = add i64 %287, 8
  %289 = inttoptr i64 %287 to i64*
  %290 = load i64, i64* %289
  store i64 %290, i64* %RBP.i3, align 8
  store i64 %288, i64* %286, align 8
  store %struct.Memory* %loadMem_43b05a, %struct.Memory** %MEMORY
  %loadMem_43b05b = load %struct.Memory*, %struct.Memory** %MEMORY
  %291 = getelementptr inbounds %struct.State, %struct.State* %0, i32 0, i32 6
  %292 = getelementptr inbounds %struct.GPR, %struct.GPR* %291, i32 0, i32 33
  %293 = getelementptr inbounds %struct.Reg, %struct.Reg* %292, i32 0, i32 0
  %PC.i1 = bitcast %union.anon* %293 to i64*
  %294 = load i64, i64* %PC.i1
  %295 = add i64 %294, 1
  store i64 %295, i64* %PC.i1
  %296 = getelementptr inbounds %struct.State, %struct.State* %0, i64 0, i32 6, i32 33, i32 0, i32 0
  %297 = getelementptr inbounds %struct.State, %struct.State* %0, i64 0, i32 6, i32 13, i32 0, i32 0
  %298 = load i64, i64* %297, align 8
  %299 = inttoptr i64 %298 to i64*
  %300 = load i64, i64* %299
  store i64 %300, i64* %296, align 8
  %301 = add i64 %298, 8
  store i64 %301, i64* %297, align 8
  store %struct.Memory* %loadMem_43b05b, %struct.Memory** %MEMORY
  ret %struct.Memory* %loadMem_43b05b
}

define %struct.Memory* @routine_pushq__rbp(%struct.State* dereferenceable(3376), i64, %struct.Memory*) {
block_400488:
  %3 = getelementptr inbounds %struct.State, %struct.State* %0, i32 0, i32 6
  %4 = getelementptr inbounds %struct.GPR, %struct.GPR* %3, i32 0, i32 33
  %5 = getelementptr inbounds %struct.Reg, %struct.Reg* %4, i32 0, i32 0
  %PC = bitcast %union.anon* %5 to i64*
  %6 = getelementptr inbounds %struct.State, %struct.State* %0, i32 0, i32 6
  %7 = getelementptr inbounds %struct.GPR, %struct.GPR* %6, i32 0, i32 15
  %8 = getelementptr inbounds %struct.Reg, %struct.Reg* %7, i32 0, i32 0
  %RBP = bitcast %union.anon* %8 to i64*
  %9 = load i64, i64* %RBP
  %10 = load i64, i64* %PC
  %11 = add i64 %10, 1
  store i64 %11, i64* %PC
  %12 = getelementptr inbounds %struct.State, %struct.State* %0, i64 0, i32 6, i32 13, i32 0, i32 0
  %13 = load i64, i64* %12, align 8
  %14 = add i64 %13, -8
  %15 = inttoptr i64 %14 to i64*
  store i64 %9, i64* %15
  store i64 %14, i64* %12, align 8
  ret %struct.Memory* %2
}

define %struct.Memory* @routine_movq__rsp___rbp(%struct.State* dereferenceable(3376), i64, %struct.Memory*) {
block_400488:
  %3 = getelementptr inbounds %struct.State, %struct.State* %0, i32 0, i32 6
  %4 = getelementptr inbounds %struct.GPR, %struct.GPR* %3, i32 0, i32 33
  %5 = getelementptr inbounds %struct.Reg, %struct.Reg* %4, i32 0, i32 0
  %PC = bitcast %union.anon* %5 to i64*
  %6 = getelementptr inbounds %struct.State, %struct.State* %0, i32 0, i32 6
  %7 = getelementptr inbounds %struct.GPR, %struct.GPR* %6, i32 0, i32 13
  %8 = getelementptr inbounds %struct.Reg, %struct.Reg* %7, i32 0, i32 0
  %RSP = bitcast %union.anon* %8 to i64*
  %9 = getelementptr inbounds %struct.State, %struct.State* %0, i32 0, i32 6
  %10 = getelementptr inbounds %struct.GPR, %struct.GPR* %9, i32 0, i32 15
  %11 = getelementptr inbounds %struct.Reg, %struct.Reg* %10, i32 0, i32 0
  %RBP = bitcast %union.anon* %11 to i64*
  %12 = load i64, i64* %RSP
  %13 = load i64, i64* %PC
  %14 = add i64 %13, 3
  store i64 %14, i64* %PC
  store i64 %12, i64* %RBP, align 8
  ret %struct.Memory* %2
}

define %struct.Memory* @routine_movq__rdi__MINUS0x8__rbp_(%struct.State* dereferenceable(3376), i64, %struct.Memory*) {
block_400488:
  %3 = getelementptr inbounds %struct.State, %struct.State* %0, i32 0, i32 6
  %4 = getelementptr inbounds %struct.GPR, %struct.GPR* %3, i32 0, i32 33
  %5 = getelementptr inbounds %struct.Reg, %struct.Reg* %4, i32 0, i32 0
  %PC = bitcast %union.anon* %5 to i64*
  %6 = getelementptr inbounds %struct.State, %struct.State* %0, i32 0, i32 6
  %7 = getelementptr inbounds %struct.GPR, %struct.GPR* %6, i32 0, i32 11
  %8 = getelementptr inbounds %struct.Reg, %struct.Reg* %7, i32 0, i32 0
  %RDI = bitcast %union.anon* %8 to i64*
  %9 = getelementptr inbounds %struct.State, %struct.State* %0, i32 0, i32 6
  %10 = getelementptr inbounds %struct.GPR, %struct.GPR* %9, i32 0, i32 15
  %11 = getelementptr inbounds %struct.Reg, %struct.Reg* %10, i32 0, i32 0
  %RBP = bitcast %union.anon* %11 to i64*
  %12 = load i64, i64* %RBP
  %13 = sub i64 %12, 8
  %14 = load i64, i64* %RDI
  %15 = load i64, i64* %PC
  %16 = add i64 %15, 4
  store i64 %16, i64* %PC
  %17 = inttoptr i64 %13 to i64*
  store i64 %14, i64* %17
  ret %struct.Memory* %2
}

define %struct.Memory* @routine_movl__esi__MINUS0xc__rbp_(%struct.State* dereferenceable(3376), i64, %struct.Memory*) {
block_400488:
  %3 = getelementptr inbounds %struct.State, %struct.State* %0, i32 0, i32 6
  %4 = getelementptr inbounds %struct.GPR, %struct.GPR* %3, i32 0, i32 33
  %5 = getelementptr inbounds %struct.Reg, %struct.Reg* %4, i32 0, i32 0
  %PC = bitcast %union.anon* %5 to i64*
  %6 = getelementptr inbounds %struct.State, %struct.State* %0, i32 0, i32 6
  %7 = getelementptr inbounds %struct.GPR, %struct.GPR* %6, i32 0, i32 9
  %8 = getelementptr inbounds %struct.Reg, %struct.Reg* %7, i32 0, i32 0
  %ESI = bitcast %union.anon* %8 to i32*
  %9 = getelementptr inbounds %struct.State, %struct.State* %0, i32 0, i32 6
  %10 = getelementptr inbounds %struct.GPR, %struct.GPR* %9, i32 0, i32 15
  %11 = getelementptr inbounds %struct.Reg, %struct.Reg* %10, i32 0, i32 0
  %RBP = bitcast %union.anon* %11 to i64*
  %12 = load i64, i64* %RBP
  %13 = sub i64 %12, 12
  %14 = load i32, i32* %ESI
  %15 = zext i32 %14 to i64
  %16 = load i64, i64* %PC
  %17 = add i64 %16, 3
  store i64 %17, i64* %PC
  %18 = inttoptr i64 %13 to i32*
  store i32 %14, i32* %18
  ret %struct.Memory* %2
}

define %struct.Memory* @routine_movq_MINUS0x8__rbp____rdi(%struct.State* dereferenceable(3376), i64, %struct.Memory*) {
block_400488:
  %3 = getelementptr inbounds %struct.State, %struct.State* %0, i32 0, i32 6
  %4 = getelementptr inbounds %struct.GPR, %struct.GPR* %3, i32 0, i32 33
  %5 = getelementptr inbounds %struct.Reg, %struct.Reg* %4, i32 0, i32 0
  %PC = bitcast %union.anon* %5 to i64*
  %6 = getelementptr inbounds %struct.State, %struct.State* %0, i32 0, i32 6
  %7 = getelementptr inbounds %struct.GPR, %struct.GPR* %6, i32 0, i32 11
  %8 = getelementptr inbounds %struct.Reg, %struct.Reg* %7, i32 0, i32 0
  %RDI = bitcast %union.anon* %8 to i64*
  %9 = getelementptr inbounds %struct.State, %struct.State* %0, i32 0, i32 6
  %10 = getelementptr inbounds %struct.GPR, %struct.GPR* %9, i32 0, i32 15
  %11 = getelementptr inbounds %struct.Reg, %struct.Reg* %10, i32 0, i32 0
  %RBP = bitcast %union.anon* %11 to i64*
  %12 = load i64, i64* %RBP
  %13 = sub i64 %12, 8
  %14 = load i64, i64* %PC
  %15 = add i64 %14, 4
  store i64 %15, i64* %PC
  %16 = inttoptr i64 %13 to i64*
  %17 = load i64, i64* %16
  store i64 %17, i64* %RDI, align 8
  ret %struct.Memory* %2
}

define %struct.Memory* @routine_movslq_MINUS0xc__rbp____rax(%struct.State* dereferenceable(3376), i64, %struct.Memory*) {
block_400488:
  %3 = getelementptr inbounds %struct.State, %struct.State* %0, i32 0, i32 6
  %4 = getelementptr inbounds %struct.GPR, %struct.GPR* %3, i32 0, i32 33
  %5 = getelementptr inbounds %struct.Reg, %struct.Reg* %4, i32 0, i32 0
  %PC = bitcast %union.anon* %5 to i64*
  %6 = getelementptr inbounds %struct.State, %struct.State* %0, i32 0, i32 6
  %7 = getelementptr inbounds %struct.GPR, %struct.GPR* %6, i32 0, i32 1
  %8 = getelementptr inbounds %struct.Reg, %struct.Reg* %7, i32 0, i32 0
  %RAX = bitcast %union.anon* %8 to i64*
  %9 = getelementptr inbounds %struct.State, %struct.State* %0, i32 0, i32 6
  %10 = getelementptr inbounds %struct.GPR, %struct.GPR* %9, i32 0, i32 15
  %11 = getelementptr inbounds %struct.Reg, %struct.Reg* %10, i32 0, i32 0
  %RBP = bitcast %union.anon* %11 to i64*
  %12 = load i64, i64* %RBP
  %13 = sub i64 %12, 12
  %14 = load i64, i64* %PC
  %15 = add i64 %14, 4
  store i64 %15, i64* %PC
  %16 = inttoptr i64 %13 to i32*
  %17 = load i32, i32* %16
  %18 = sext i32 %17 to i64
  store i64 %18, i64* %RAX, align 8
  ret %struct.Memory* %2
}

define %struct.Memory* @routine_imulq__0x30___rax___rax(%struct.State* dereferenceable(3376), i64, %struct.Memory*) {
block_400488:
  %3 = getelementptr inbounds %struct.State, %struct.State* %0, i32 0, i32 6
  %4 = getelementptr inbounds %struct.GPR, %struct.GPR* %3, i32 0, i32 33
  %5 = getelementptr inbounds %struct.Reg, %struct.Reg* %4, i32 0, i32 0
  %PC = bitcast %union.anon* %5 to i64*
  %6 = getelementptr inbounds %struct.State, %struct.State* %0, i32 0, i32 6
  %7 = getelementptr inbounds %struct.GPR, %struct.GPR* %6, i32 0, i32 1
  %8 = getelementptr inbounds %struct.Reg, %struct.Reg* %7, i32 0, i32 0
  %RAX = bitcast %union.anon* %8 to i64*
  %9 = load i64, i64* %RAX
  %10 = load i64, i64* %PC
  %11 = add i64 %10, 4
  store i64 %11, i64* %PC
  %12 = sext i64 %9 to i128
  %13 = and i128 %12, -18446744073709551616
  %14 = zext i64 %9 to i128
  %15 = or i128 %13, %14
  %16 = mul i128 48, %15
  %17 = trunc i128 %16 to i64
  store i64 %17, i64* %RAX, align 8
  %18 = sext i64 %17 to i128
  %19 = icmp ne i128 %18, %16
  %20 = zext i1 %19 to i8
  %21 = getelementptr inbounds %struct.State, %struct.State* %0, i64 0, i32 2, i32 1
  store i8 %20, i8* %21, align 1
  %22 = trunc i128 %16 to i32
  %23 = and i32 %22, 255
  %24 = call i32 @llvm.ctpop.i32(i32 %23)
  %25 = trunc i32 %24 to i8
  %26 = and i8 %25, 1
  %27 = xor i8 %26, 1
  %28 = getelementptr inbounds %struct.State, %struct.State* %0, i64 0, i32 2, i32 3
  store i8 %27, i8* %28, align 1
  %29 = getelementptr inbounds %struct.State, %struct.State* %0, i64 0, i32 2, i32 5
  store i8 0, i8* %29, align 1
  %30 = getelementptr inbounds %struct.State, %struct.State* %0, i64 0, i32 2, i32 7
  store i8 0, i8* %30, align 1
  %31 = lshr i64 %17, 63
  %32 = trunc i64 %31 to i8
  %33 = getelementptr inbounds %struct.State, %struct.State* %0, i64 0, i32 2, i32 9
  store i8 %32, i8* %33, align 1
  %34 = getelementptr inbounds %struct.State, %struct.State* %0, i64 0, i32 2, i32 13
  store i8 %20, i8* %34, align 1
  ret %struct.Memory* %2
}

define %struct.Memory* @routine_addq__rax___rdi(%struct.State* dereferenceable(3376), i64, %struct.Memory*) {
block_400488:
  %3 = getelementptr inbounds %struct.State, %struct.State* %0, i32 0, i32 6
  %4 = getelementptr inbounds %struct.GPR, %struct.GPR* %3, i32 0, i32 33
  %5 = getelementptr inbounds %struct.Reg, %struct.Reg* %4, i32 0, i32 0
  %PC = bitcast %union.anon* %5 to i64*
  %6 = getelementptr inbounds %struct.State, %struct.State* %0, i32 0, i32 6
  %7 = getelementptr inbounds %struct.GPR, %struct.GPR* %6, i32 0, i32 1
  %8 = getelementptr inbounds %struct.Reg, %struct.Reg* %7, i32 0, i32 0
  %RAX = bitcast %union.anon* %8 to i64*
  %9 = getelementptr inbounds %struct.State, %struct.State* %0, i32 0, i32 6
  %10 = getelementptr inbounds %struct.GPR, %struct.GPR* %9, i32 0, i32 11
  %11 = getelementptr inbounds %struct.Reg, %struct.Reg* %10, i32 0, i32 0
  %RDI = bitcast %union.anon* %11 to i64*
  %12 = load i64, i64* %RDI
  %13 = load i64, i64* %RAX
  %14 = load i64, i64* %PC
  %15 = add i64 %14, 3
  store i64 %15, i64* %PC
  %16 = add i64 %13, %12
  store i64 %16, i64* %RDI, align 8
  %17 = icmp ult i64 %16, %12
  %18 = icmp ult i64 %16, %13
  %19 = or i1 %17, %18
  %20 = zext i1 %19 to i8
  %21 = getelementptr inbounds %struct.State, %struct.State* %0, i64 0, i32 2, i32 1
  store i8 %20, i8* %21, align 1
  %22 = trunc i64 %16 to i32
  %23 = and i32 %22, 255
  %24 = call i32 @llvm.ctpop.i32(i32 %23)
  %25 = trunc i32 %24 to i8
  %26 = and i8 %25, 1
  %27 = xor i8 %26, 1
  %28 = getelementptr inbounds %struct.State, %struct.State* %0, i64 0, i32 2, i32 3
  store i8 %27, i8* %28, align 1
  %29 = xor i64 %13, %12
  %30 = xor i64 %29, %16
  %31 = lshr i64 %30, 4
  %32 = trunc i64 %31 to i8
  %33 = and i8 %32, 1
  %34 = getelementptr inbounds %struct.State, %struct.State* %0, i64 0, i32 2, i32 5
  store i8 %33, i8* %34, align 1
  %35 = icmp eq i64 %16, 0
  %36 = zext i1 %35 to i8
  %37 = getelementptr inbounds %struct.State, %struct.State* %0, i64 0, i32 2, i32 7
  store i8 %36, i8* %37, align 1
  %38 = lshr i64 %16, 63
  %39 = trunc i64 %38 to i8
  %40 = getelementptr inbounds %struct.State, %struct.State* %0, i64 0, i32 2, i32 9
  store i8 %39, i8* %40, align 1
  %41 = lshr i64 %12, 63
  %42 = lshr i64 %13, 63
  %43 = xor i64 %38, %41
  %44 = xor i64 %38, %42
  %45 = add i64 %43, %44
  %46 = icmp eq i64 %45, 2
  %47 = zext i1 %46 to i8
  %48 = getelementptr inbounds %struct.State, %struct.State* %0, i64 0, i32 2, i32 13
  store i8 %47, i8* %48, align 1
  ret %struct.Memory* %2
}

define %struct.Memory* @routine_movsbl_0x4__rdi____esi(%struct.State* dereferenceable(3376), i64, %struct.Memory*) {
block_400488:
  %3 = getelementptr inbounds %struct.State, %struct.State* %0, i32 0, i32 6
  %4 = getelementptr inbounds %struct.GPR, %struct.GPR* %3, i32 0, i32 33
  %5 = getelementptr inbounds %struct.Reg, %struct.Reg* %4, i32 0, i32 0
  %PC = bitcast %union.anon* %5 to i64*
  %6 = getelementptr inbounds %struct.State, %struct.State* %0, i32 0, i32 6
  %7 = getelementptr inbounds %struct.GPR, %struct.GPR* %6, i32 0, i32 9
  %8 = getelementptr inbounds %struct.Reg, %struct.Reg* %7, i32 0, i32 0
  %RSI = bitcast %union.anon* %8 to i64*
  %9 = getelementptr inbounds %struct.State, %struct.State* %0, i32 0, i32 6
  %10 = getelementptr inbounds %struct.GPR, %struct.GPR* %9, i32 0, i32 11
  %11 = getelementptr inbounds %struct.Reg, %struct.Reg* %10, i32 0, i32 0
  %RDI = bitcast %union.anon* %11 to i64*
  %12 = load i64, i64* %RDI
  %13 = add i64 %12, 4
  %14 = load i64, i64* %PC
  %15 = add i64 %14, 4
  store i64 %15, i64* %PC
  %16 = inttoptr i64 %13 to i8*
  %17 = load i8, i8* %16
  %18 = sext i8 %17 to i64
  %19 = and i64 %18, 4294967295
  store i64 %19, i64* %RSI, align 8
  ret %struct.Memory* %2
}

define %struct.Memory* @routine_cmpl__0x2___esi(%struct.State* dereferenceable(3376), i64, %struct.Memory*) {
block_400488:
  %3 = getelementptr inbounds %struct.State, %struct.State* %0, i32 0, i32 6
  %4 = getelementptr inbounds %struct.GPR, %struct.GPR* %3, i32 0, i32 33
  %5 = getelementptr inbounds %struct.Reg, %struct.Reg* %4, i32 0, i32 0
  %PC = bitcast %union.anon* %5 to i64*
  %6 = getelementptr inbounds %struct.State, %struct.State* %0, i32 0, i32 6
  %7 = getelementptr inbounds %struct.GPR, %struct.GPR* %6, i32 0, i32 9
  %8 = getelementptr inbounds %struct.Reg, %struct.Reg* %7, i32 0, i32 0
  %ESI = bitcast %union.anon* %8 to i32*
  %9 = load i32, i32* %ESI
  %10 = zext i32 %9 to i64
  %11 = load i64, i64* %PC
  %12 = add i64 %11, 3
  store i64 %12, i64* %PC
  %13 = sub i32 %9, 2
  %14 = icmp ult i32 %9, 2
  %15 = zext i1 %14 to i8
  %16 = getelementptr inbounds %struct.State, %struct.State* %0, i64 0, i32 2, i32 1
  store i8 %15, i8* %16, align 1
  %17 = and i32 %13, 255
  %18 = call i32 @llvm.ctpop.i32(i32 %17)
  %19 = trunc i32 %18 to i8
  %20 = and i8 %19, 1
  %21 = xor i8 %20, 1
  %22 = getelementptr inbounds %struct.State, %struct.State* %0, i64 0, i32 2, i32 3
  store i8 %21, i8* %22, align 1
  %23 = xor i64 2, %10
  %24 = trunc i64 %23 to i32
  %25 = xor i32 %24, %13
  %26 = lshr i32 %25, 4
  %27 = trunc i32 %26 to i8
  %28 = and i8 %27, 1
  %29 = getelementptr inbounds %struct.State, %struct.State* %0, i64 0, i32 2, i32 5
  store i8 %28, i8* %29, align 1
  %30 = icmp eq i32 %13, 0
  %31 = zext i1 %30 to i8
  %32 = getelementptr inbounds %struct.State, %struct.State* %0, i64 0, i32 2, i32 7
  store i8 %31, i8* %32, align 1
  %33 = lshr i32 %13, 31
  %34 = trunc i32 %33 to i8
  %35 = getelementptr inbounds %struct.State, %struct.State* %0, i64 0, i32 2, i32 9
  store i8 %34, i8* %35, align 1
  %36 = lshr i32 %9, 31
  %37 = xor i32 %33, %36
  %38 = add i32 %37, %36
  %39 = icmp eq i32 %38, 2
  %40 = zext i1 %39 to i8
  %41 = getelementptr inbounds %struct.State, %struct.State* %0, i64 0, i32 2, i32 13
  store i8 %40, i8* %41, align 1
  ret %struct.Memory* %2
}

define %struct.Memory* @routine_sete__cl(%struct.State* dereferenceable(3376), i64, %struct.Memory*) {
block_400488:
  %3 = getelementptr inbounds %struct.State, %struct.State* %0, i32 0, i32 6
  %4 = getelementptr inbounds %struct.GPR, %struct.GPR* %3, i32 0, i32 33
  %5 = getelementptr inbounds %struct.Reg, %struct.Reg* %4, i32 0, i32 0
  %PC = bitcast %union.anon* %5 to i64*
  %6 = getelementptr inbounds %struct.State, %struct.State* %0, i32 0, i32 6
  %7 = getelementptr inbounds %struct.GPR, %struct.GPR* %6, i32 0, i32 5
  %8 = getelementptr inbounds %struct.Reg, %struct.Reg* %7, i32 0, i32 0
  %9 = bitcast %union.anon* %8 to %struct.anon.2*
  %CL = getelementptr inbounds %struct.anon.2, %struct.anon.2* %9, i32 0, i32 0
  %10 = load i64, i64* %PC
  %11 = add i64 %10, 3
  store i64 %11, i64* %PC
  %12 = getelementptr inbounds %struct.State, %struct.State* %0, i64 0, i32 2, i32 7
  %13 = load i8, i8* %12, align 1
  store i8 %13, i8* %CL, align 1
  ret %struct.Memory* %2
}

define %struct.Memory* @routine_andb__0x1___cl(%struct.State* dereferenceable(3376), i64, %struct.Memory*) {
block_400488:
  %3 = getelementptr inbounds %struct.State, %struct.State* %0, i32 0, i32 6
  %4 = getelementptr inbounds %struct.GPR, %struct.GPR* %3, i32 0, i32 33
  %5 = getelementptr inbounds %struct.Reg, %struct.Reg* %4, i32 0, i32 0
  %PC = bitcast %union.anon* %5 to i64*
  %6 = getelementptr inbounds %struct.State, %struct.State* %0, i32 0, i32 6
  %7 = getelementptr inbounds %struct.GPR, %struct.GPR* %6, i32 0, i32 5
  %8 = getelementptr inbounds %struct.Reg, %struct.Reg* %7, i32 0, i32 0
  %9 = bitcast %union.anon* %8 to %struct.anon.2*
  %CL = getelementptr inbounds %struct.anon.2, %struct.anon.2* %9, i32 0, i32 0
  %10 = load i8, i8* %CL
  %11 = zext i8 %10 to i64
  %12 = load i64, i64* %PC
  %13 = add i64 %12, 3
  store i64 %13, i64* %PC
  %14 = and i64 1, %11
  %15 = trunc i64 %14 to i8
  store i8 %15, i8* %CL, align 1
  %16 = getelementptr inbounds %struct.State, %struct.State* %0, i64 0, i32 2, i32 1
  store i8 0, i8* %16, align 1
  %17 = trunc i64 %14 to i32
  %18 = and i32 %17, 255
  %19 = call i32 @llvm.ctpop.i32(i32 %18)
  %20 = trunc i32 %19 to i8
  %21 = and i8 %20, 1
  %22 = xor i8 %21, 1
  %23 = getelementptr inbounds %struct.State, %struct.State* %0, i64 0, i32 2, i32 3
  store i8 %22, i8* %23, align 1
  %24 = icmp eq i8 %15, 0
  %25 = zext i1 %24 to i8
  %26 = getelementptr inbounds %struct.State, %struct.State* %0, i64 0, i32 2, i32 7
  store i8 %25, i8* %26, align 1
  %27 = getelementptr inbounds %struct.State, %struct.State* %0, i64 0, i32 2, i32 9
  store i8 0, i8* %27, align 1
  %28 = getelementptr inbounds %struct.State, %struct.State* %0, i64 0, i32 2, i32 13
  store i8 0, i8* %28, align 1
  %29 = getelementptr inbounds %struct.State, %struct.State* %0, i64 0, i32 2, i32 5
  store i8 0, i8* %29, align 1
  ret %struct.Memory* %2
}

define %struct.Memory* @routine_movzbl__cl___eax(%struct.State* dereferenceable(3376), i64, %struct.Memory*) {
block_400488:
  %3 = getelementptr inbounds %struct.State, %struct.State* %0, i32 0, i32 6
  %4 = getelementptr inbounds %struct.GPR, %struct.GPR* %3, i32 0, i32 33
  %5 = getelementptr inbounds %struct.Reg, %struct.Reg* %4, i32 0, i32 0
  %PC = bitcast %union.anon* %5 to i64*
  %6 = getelementptr inbounds %struct.State, %struct.State* %0, i32 0, i32 6
  %7 = getelementptr inbounds %struct.GPR, %struct.GPR* %6, i32 0, i32 5
  %8 = getelementptr inbounds %struct.Reg, %struct.Reg* %7, i32 0, i32 0
  %9 = bitcast %union.anon* %8 to %struct.anon.2*
  %CL = getelementptr inbounds %struct.anon.2, %struct.anon.2* %9, i32 0, i32 0
  %10 = getelementptr inbounds %struct.State, %struct.State* %0, i32 0, i32 6
  %11 = getelementptr inbounds %struct.GPR, %struct.GPR* %10, i32 0, i32 1
  %12 = getelementptr inbounds %struct.Reg, %struct.Reg* %11, i32 0, i32 0
  %RAX = bitcast %union.anon* %12 to i64*
  %13 = load i8, i8* %CL
  %14 = zext i8 %13 to i64
  %15 = load i64, i64* %PC
  %16 = add i64 %15, 3
  store i64 %16, i64* %PC
  %17 = and i64 %14, 255
  store i64 %17, i64* %RAX, align 8
  ret %struct.Memory* %2
}

define %struct.Memory* @routine_popq__rbp(%struct.State* dereferenceable(3376), i64, %struct.Memory*) {
block_400488:
  %3 = getelementptr inbounds %struct.State, %struct.State* %0, i32 0, i32 6
  %4 = getelementptr inbounds %struct.GPR, %struct.GPR* %3, i32 0, i32 33
  %5 = getelementptr inbounds %struct.Reg, %struct.Reg* %4, i32 0, i32 0
  %PC = bitcast %union.anon* %5 to i64*
  %6 = getelementptr inbounds %struct.State, %struct.State* %0, i32 0, i32 6
  %7 = getelementptr inbounds %struct.GPR, %struct.GPR* %6, i32 0, i32 15
  %8 = getelementptr inbounds %struct.Reg, %struct.Reg* %7, i32 0, i32 0
  %RBP = bitcast %union.anon* %8 to i64*
  %9 = load i64, i64* %PC
  %10 = add i64 %9, 1
  store i64 %10, i64* %PC
  %11 = getelementptr inbounds %struct.State, %struct.State* %0, i64 0, i32 6, i32 13, i32 0, i32 0
  %12 = load i64, i64* %11, align 8
  %13 = add i64 %12, 8
  %14 = inttoptr i64 %12 to i64*
  %15 = load i64, i64* %14
  store i64 %15, i64* %RBP, align 8
  store i64 %13, i64* %11, align 8
  ret %struct.Memory* %2
}

define %struct.Memory* @routine_retq(%struct.State* dereferenceable(3376), i64, %struct.Memory*) {
block_400488:
  %3 = getelementptr inbounds %struct.State, %struct.State* %0, i32 0, i32 6
  %4 = getelementptr inbounds %struct.GPR, %struct.GPR* %3, i32 0, i32 33
  %5 = getelementptr inbounds %struct.Reg, %struct.Reg* %4, i32 0, i32 0
  %PC = bitcast %union.anon* %5 to i64*
  %6 = load i64, i64* %PC
  %7 = add i64 %6, 1
  store i64 %7, i64* %PC
  %8 = getelementptr inbounds %struct.State, %struct.State* %0, i64 0, i32 6, i32 33, i32 0, i32 0
  %9 = getelementptr inbounds %struct.State, %struct.State* %0, i64 0, i32 6, i32 13, i32 0, i32 0
  %10 = load i64, i64* %9, align 8
  %11 = inttoptr i64 %10 to i64*
  %12 = load i64, i64* %11
  store i64 %12, i64* %8, align 8
  %13 = add i64 %10, 8
  store i64 %13, i64* %9, align 8
  ret %struct.Memory* %2
}

attributes #0 = { argmemonly nounwind }
attributes #1 = { nounwind readnone }
attributes #2 = { alwaysinline }
