; ModuleID = 'mcsema/test.proposed.inline.ll'
source_filename = "llvm-link"
target datalayout = "e-m:e-i64:64-f80:128-n8:16:32:64-S128"
target triple = "x86_64-pc-linux-gnu-elf"

%__bss_start_type = type <{ [8 x i8] }>
%struct.State = type { %struct.ArchState, [32 x %union.VectorReg], %struct.ArithFlags, %union.anon, %struct.Segments, %struct.AddressSpace, %struct.GPR, %struct.X87Stack, %struct.MMX, %struct.FPUStatusFlags, %union.anon, %union.FPU, %struct.SegmentCaches }
%struct.ArchState = type { i32, i32, %union.anon }
%union.VectorReg = type { %union.vec512_t }
%union.vec512_t = type { %struct.uint64v8_t }
%struct.uint64v8_t = type { [8 x i64] }
%struct.ArithFlags = type { i8, i8, i8, i8, i8, i8, i8, i8, i8, i8, i8, i8, i8, i8, i8, i8 }
%struct.Segments = type { i16, %union.SegmentSelector, i16, %union.SegmentSelector, i16, %union.SegmentSelector, i16, %union.SegmentSelector, i16, %union.SegmentSelector, i16, %union.SegmentSelector }
%union.SegmentSelector = type { i16 }
%struct.AddressSpace = type { i64, %struct.Reg, i64, %struct.Reg, i64, %struct.Reg, i64, %struct.Reg, i64, %struct.Reg, i64, %struct.Reg }
%struct.Reg = type { %union.anon }
%struct.GPR = type { i64, %struct.Reg, i64, %struct.Reg, i64, %struct.Reg, i64, %struct.Reg, i64, %struct.Reg, i64, %struct.Reg, i64, %struct.Reg, i64, %struct.Reg, i64, %struct.Reg, i64, %struct.Reg, i64, %struct.Reg, i64, %struct.Reg, i64, %struct.Reg, i64, %struct.Reg, i64, %struct.Reg, i64, %struct.Reg, i64, %struct.Reg }
%struct.X87Stack = type { [8 x %struct.anon.3] }
%struct.anon.3 = type { i64, double }
%struct.MMX = type { [8 x %struct.anon.4] }
%struct.anon.4 = type { i64, %union.vec64_t }
%union.vec64_t = type { %struct.uint64v1_t }
%struct.uint64v1_t = type { [1 x i64] }
%struct.FPUStatusFlags = type { i8, i8, i8, i8, i8, i8, i8, i8, i8, i8, i8, i8, i8, i8, i8, i8, i8, i8, i8, i8, [4 x i8] }
%union.anon = type { i64 }
%union.FPU = type { %struct.anon.13 }
%struct.anon.13 = type { %struct.FpuFXSAVE, [96 x i8] }
%struct.FpuFXSAVE = type { %union.SegmentSelector, %union.SegmentSelector, %union.FPUAbridgedTagWord, i8, i16, i32, %union.SegmentSelector, i16, i32, %union.SegmentSelector, i16, %union.FPUControlStatus, %union.FPUControlStatus, [8 x %struct.FPUStackElem], [16 x %union.vec128_t] }
%union.FPUAbridgedTagWord = type { i8 }
%union.FPUControlStatus = type { i32 }
%struct.FPUStackElem = type { %union.anon.11, [6 x i8] }
%union.anon.11 = type { %struct.float80_t }
%struct.float80_t = type { [10 x i8] }
%union.vec128_t = type { %struct.uint128v1_t }
%struct.uint128v1_t = type { [1 x i128] }
%struct.SegmentCaches = type { %struct.SegmentShadow, %struct.SegmentShadow, %struct.SegmentShadow, %struct.SegmentShadow, %struct.SegmentShadow, %struct.SegmentShadow }
%struct.SegmentShadow = type { %union.anon, i32, i32 }
%struct.Memory = type opaque

@__bss_start = local_unnamed_addr global %__bss_start_type zeroinitializer

; Function Attrs: nounwind readnone
declare i32 @llvm.ctpop.i32(i32) #0

declare %struct.Memory* @sub_477710.somewhere(%struct.State* noalias dereferenceable(3376), i64, %struct.Memory* noalias readnone returned) local_unnamed_addr

; Function Attrs: alwaysinline
define %struct.Memory* @autohelperfusekipat65(%struct.State* noalias, i64, %struct.Memory* noalias readnone returned) local_unnamed_addr #1 {
entry:
  %3 = getelementptr inbounds %struct.State, %struct.State* %0, i64 0, i32 6, i32 33, i32 0, i32 0
  %RBP.i = getelementptr inbounds %struct.State, %struct.State* %0, i64 0, i32 6, i32 15, i32 0, i32 0
  %4 = load i64, i64* %RBP.i, align 8
  %5 = add i64 %1, 1
  store i64 %5, i64* %3, align 8
  %6 = getelementptr inbounds %struct.State, %struct.State* %0, i64 0, i32 6, i32 13, i32 0, i32 0
  %7 = load i64, i64* %6, align 8
  %8 = add i64 %7, -8
  %9 = inttoptr i64 %8 to i64*
  store i64 %4, i64* %9, align 8
  %10 = load i64, i64* %3, align 8
  store i64 %8, i64* %RBP.i, align 8
  %11 = getelementptr inbounds %struct.State, %struct.State* %0, i64 0, i32 6, i32 3, i32 0
  %RBX.i143 = getelementptr inbounds %union.anon, %union.anon* %11, i64 0, i32 0
  %12 = load i64, i64* %RBX.i143, align 8
  %13 = add i64 %10, 4
  store i64 %13, i64* %3, align 8
  %14 = add i64 %7, -16
  %15 = inttoptr i64 %14 to i64*
  store i64 %12, i64* %15, align 8
  %16 = load i64, i64* %3, align 8
  %17 = add i64 %7, -104
  store i64 %17, i64* %6, align 8
  %18 = icmp ult i64 %14, 88
  %19 = zext i1 %18 to i8
  %20 = getelementptr inbounds %struct.State, %struct.State* %0, i64 0, i32 2, i32 1
  store i8 %19, i8* %20, align 1
  %21 = trunc i64 %17 to i32
  %22 = and i32 %21, 255
  %23 = tail call i32 @llvm.ctpop.i32(i32 %22)
  %24 = trunc i32 %23 to i8
  %25 = and i8 %24, 1
  %26 = xor i8 %25, 1
  %27 = getelementptr inbounds %struct.State, %struct.State* %0, i64 0, i32 2, i32 3
  store i8 %26, i8* %27, align 1
  %28 = xor i64 %14, 16
  %29 = xor i64 %28, %17
  %30 = lshr i64 %29, 4
  %31 = trunc i64 %30 to i8
  %32 = and i8 %31, 1
  %33 = getelementptr inbounds %struct.State, %struct.State* %0, i64 0, i32 2, i32 5
  store i8 %32, i8* %33, align 1
  %34 = icmp eq i64 %17, 0
  %35 = zext i1 %34 to i8
  %36 = getelementptr inbounds %struct.State, %struct.State* %0, i64 0, i32 2, i32 7
  store i8 %35, i8* %36, align 1
  %37 = lshr i64 %17, 63
  %38 = trunc i64 %37 to i8
  %39 = getelementptr inbounds %struct.State, %struct.State* %0, i64 0, i32 2, i32 9
  store i8 %38, i8* %39, align 1
  %40 = lshr i64 %14, 63
  %41 = xor i64 %37, %40
  %42 = add nuw nsw i64 %41, %40
  %43 = icmp eq i64 %42, 2
  %44 = zext i1 %43 to i8
  %45 = getelementptr inbounds %struct.State, %struct.State* %0, i64 0, i32 2, i32 13
  store i8 %44, i8* %45, align 1
  %46 = getelementptr inbounds %struct.State, %struct.State* %0, i64 0, i32 6, i32 1, i32 0
  %RAX.i139 = getelementptr inbounds %union.anon, %union.anon* %46, i64 0, i32 0
  store i64 1, i64* %RAX.i139, align 8
  %47 = getelementptr inbounds %struct.State, %struct.State* %0, i64 0, i32 6, i32 17, i32 0
  %R8D.i137 = bitcast %union.anon* %47 to i32*
  %48 = getelementptr inbounds %union.anon, %union.anon* %47, i64 0, i32 0
  store i64 6, i64* %48, align 8
  %49 = getelementptr inbounds %struct.State, %struct.State* %0, i64 0, i32 6, i32 19, i32 0
  %R9D.i135 = bitcast %union.anon* %49 to i32*
  %50 = getelementptr inbounds %union.anon, %union.anon* %49, i64 0, i32 0
  store i64 3, i64* %50, align 8
  %51 = getelementptr inbounds %struct.State, %struct.State* %0, i64 0, i32 6, i32 11, i32 0
  %EDI.i132 = bitcast %union.anon* %51 to i32*
  %52 = load i64, i64* %RBP.i, align 8
  %53 = add i64 %52, -12
  %54 = load i32, i32* %EDI.i132, align 4
  %55 = add i64 %16, 24
  store i64 %55, i64* %3, align 8
  %56 = inttoptr i64 %53 to i32*
  store i32 %54, i32* %56, align 4
  %57 = getelementptr inbounds %struct.State, %struct.State* %0, i64 0, i32 6, i32 9, i32 0
  %ESI.i129 = bitcast %union.anon* %57 to i32*
  %58 = load i64, i64* %RBP.i, align 8
  %59 = add i64 %58, -16
  %60 = load i32, i32* %ESI.i129, align 4
  %61 = load i64, i64* %3, align 8
  %62 = add i64 %61, 3
  store i64 %62, i64* %3, align 8
  %63 = inttoptr i64 %59 to i32*
  store i32 %60, i32* %63, align 4
  %64 = getelementptr inbounds %struct.State, %struct.State* %0, i64 0, i32 6, i32 7, i32 0
  %EDX.i126 = bitcast %union.anon* %64 to i32*
  %65 = load i64, i64* %RBP.i, align 8
  %66 = add i64 %65, -20
  %67 = load i32, i32* %EDX.i126, align 4
  %68 = load i64, i64* %3, align 8
  %69 = add i64 %68, 3
  store i64 %69, i64* %3, align 8
  %70 = inttoptr i64 %66 to i32*
  store i32 %67, i32* %70, align 4
  %71 = getelementptr inbounds %struct.State, %struct.State* %0, i64 0, i32 6, i32 5, i32 0
  %ECX.i123 = bitcast %union.anon* %71 to i32*
  %72 = load i64, i64* %RBP.i, align 8
  %73 = add i64 %72, -24
  %74 = load i32, i32* %ECX.i123, align 4
  %75 = load i64, i64* %3, align 8
  %76 = add i64 %75, 3
  store i64 %76, i64* %3, align 8
  %77 = inttoptr i64 %73 to i32*
  store i32 %74, i32* %77, align 4
  %R10.i121 = getelementptr inbounds %struct.State, %struct.State* %0, i64 0, i32 6, i32 21, i32 0, i32 0
  %78 = load i64, i64* %RBP.i, align 8
  %79 = add i64 %78, -12
  %80 = load i64, i64* %3, align 8
  %81 = add i64 %80, 4
  store i64 %81, i64* %3, align 8
  %82 = inttoptr i64 %79 to i32*
  %83 = load i32, i32* %82, align 4
  %84 = sext i32 %83 to i64
  store i64 %84, i64* %R10.i121, align 8
  %RCX.i117 = getelementptr inbounds %union.anon, %union.anon* %71, i64 0, i32 0
  %85 = shl nsw i64 %84, 2
  %86 = add nsw i64 %85, 11894096
  %87 = add i64 %80, 12
  store i64 %87, i64* %3, align 8
  %88 = inttoptr i64 %86 to i32*
  %89 = load i32, i32* %88, align 4
  %90 = zext i32 %89 to i64
  store i64 %90, i64* %RCX.i117, align 8
  %91 = add i64 %78, -16
  %92 = add i64 %80, 15
  store i64 %92, i64* %3, align 8
  %93 = inttoptr i64 %91 to i32*
  %94 = load i32, i32* %93, align 4
  %95 = add i32 %94, %89
  %96 = zext i32 %95 to i64
  store i64 %96, i64* %RCX.i117, align 8
  %97 = icmp ult i32 %95, %89
  %98 = icmp ult i32 %95, %94
  %99 = or i1 %97, %98
  %100 = zext i1 %99 to i8
  store i8 %100, i8* %20, align 1
  %101 = and i32 %95, 255
  %102 = tail call i32 @llvm.ctpop.i32(i32 %101)
  %103 = trunc i32 %102 to i8
  %104 = and i8 %103, 1
  %105 = xor i8 %104, 1
  store i8 %105, i8* %27, align 1
  %106 = xor i32 %94, %89
  %107 = xor i32 %106, %95
  %108 = lshr i32 %107, 4
  %109 = trunc i32 %108 to i8
  %110 = and i8 %109, 1
  store i8 %110, i8* %33, align 1
  %111 = icmp eq i32 %95, 0
  %112 = zext i1 %111 to i8
  store i8 %112, i8* %36, align 1
  %113 = lshr i32 %95, 31
  %114 = trunc i32 %113 to i8
  store i8 %114, i8* %39, align 1
  %115 = lshr i32 %89, 31
  %116 = lshr i32 %94, 31
  %117 = xor i32 %113, %115
  %118 = xor i32 %113, %116
  %119 = add nuw nsw i32 %117, %118
  %120 = icmp eq i32 %119, 2
  %121 = zext i1 %120 to i8
  store i8 %121, i8* %45, align 1
  %122 = add i64 %78, -28
  %123 = add i64 %80, 18
  store i64 %123, i64* %3, align 8
  %124 = inttoptr i64 %122 to i32*
  store i32 %95, i32* %124, align 4
  %125 = load i64, i64* %RBP.i, align 8
  %126 = add i64 %125, -12
  %127 = load i64, i64* %3, align 8
  %128 = add i64 %127, 4
  store i64 %128, i64* %3, align 8
  %129 = inttoptr i64 %126 to i32*
  %130 = load i32, i32* %129, align 4
  %131 = sext i32 %130 to i64
  store i64 %131, i64* %R10.i121, align 8
  %132 = shl nsw i64 %131, 2
  %133 = add nsw i64 %132, 11894128
  %134 = add i64 %127, 12
  store i64 %134, i64* %3, align 8
  %135 = inttoptr i64 %133 to i32*
  %136 = load i32, i32* %135, align 4
  %137 = zext i32 %136 to i64
  store i64 %137, i64* %RCX.i117, align 8
  %138 = add i64 %125, -16
  %139 = add i64 %127, 15
  store i64 %139, i64* %3, align 8
  %140 = inttoptr i64 %138 to i32*
  %141 = load i32, i32* %140, align 4
  %142 = add i32 %141, %136
  %143 = zext i32 %142 to i64
  store i64 %143, i64* %RCX.i117, align 8
  %144 = icmp ult i32 %142, %136
  %145 = icmp ult i32 %142, %141
  %146 = or i1 %144, %145
  %147 = zext i1 %146 to i8
  store i8 %147, i8* %20, align 1
  %148 = and i32 %142, 255
  %149 = tail call i32 @llvm.ctpop.i32(i32 %148)
  %150 = trunc i32 %149 to i8
  %151 = and i8 %150, 1
  %152 = xor i8 %151, 1
  store i8 %152, i8* %27, align 1
  %153 = xor i32 %141, %136
  %154 = xor i32 %153, %142
  %155 = lshr i32 %154, 4
  %156 = trunc i32 %155 to i8
  %157 = and i8 %156, 1
  store i8 %157, i8* %33, align 1
  %158 = icmp eq i32 %142, 0
  %159 = zext i1 %158 to i8
  store i8 %159, i8* %36, align 1
  %160 = lshr i32 %142, 31
  %161 = trunc i32 %160 to i8
  store i8 %161, i8* %39, align 1
  %162 = lshr i32 %136, 31
  %163 = lshr i32 %141, 31
  %164 = xor i32 %160, %162
  %165 = xor i32 %160, %163
  %166 = add nuw nsw i32 %164, %165
  %167 = icmp eq i32 %166, 2
  %168 = zext i1 %167 to i8
  store i8 %168, i8* %45, align 1
  %169 = add i64 %125, -32
  %170 = add i64 %127, 18
  store i64 %170, i64* %3, align 8
  %171 = inttoptr i64 %169 to i32*
  store i32 %142, i32* %171, align 4
  %172 = load i64, i64* %RBP.i, align 8
  %173 = add i64 %172, -12
  %174 = load i64, i64* %3, align 8
  %175 = add i64 %174, 4
  store i64 %175, i64* %3, align 8
  %176 = inttoptr i64 %173 to i32*
  %177 = load i32, i32* %176, align 4
  %178 = sext i32 %177 to i64
  store i64 %178, i64* %R10.i121, align 8
  %179 = shl nsw i64 %178, 2
  %180 = add nsw i64 %179, 11905840
  %181 = add i64 %174, 12
  store i64 %181, i64* %3, align 8
  %182 = inttoptr i64 %180 to i32*
  %183 = load i32, i32* %182, align 4
  %184 = zext i32 %183 to i64
  store i64 %184, i64* %RCX.i117, align 8
  %185 = add i64 %172, -16
  %186 = add i64 %174, 15
  store i64 %186, i64* %3, align 8
  %187 = inttoptr i64 %185 to i32*
  %188 = load i32, i32* %187, align 4
  %189 = add i32 %188, %183
  %190 = zext i32 %189 to i64
  store i64 %190, i64* %RCX.i117, align 8
  %191 = icmp ult i32 %189, %183
  %192 = icmp ult i32 %189, %188
  %193 = or i1 %191, %192
  %194 = zext i1 %193 to i8
  store i8 %194, i8* %20, align 1
  %195 = and i32 %189, 255
  %196 = tail call i32 @llvm.ctpop.i32(i32 %195)
  %197 = trunc i32 %196 to i8
  %198 = and i8 %197, 1
  %199 = xor i8 %198, 1
  store i8 %199, i8* %27, align 1
  %200 = xor i32 %188, %183
  %201 = xor i32 %200, %189
  %202 = lshr i32 %201, 4
  %203 = trunc i32 %202 to i8
  %204 = and i8 %203, 1
  store i8 %204, i8* %33, align 1
  %205 = icmp eq i32 %189, 0
  %206 = zext i1 %205 to i8
  store i8 %206, i8* %36, align 1
  %207 = lshr i32 %189, 31
  %208 = trunc i32 %207 to i8
  store i8 %208, i8* %39, align 1
  %209 = lshr i32 %183, 31
  %210 = lshr i32 %188, 31
  %211 = xor i32 %207, %209
  %212 = xor i32 %207, %210
  %213 = add nuw nsw i32 %211, %212
  %214 = icmp eq i32 %213, 2
  %215 = zext i1 %214 to i8
  store i8 %215, i8* %45, align 1
  %216 = add i64 %172, -36
  %217 = add i64 %174, 18
  store i64 %217, i64* %3, align 8
  %218 = inttoptr i64 %216 to i32*
  store i32 %189, i32* %218, align 4
  %219 = load i64, i64* %RBP.i, align 8
  %220 = add i64 %219, -12
  %221 = load i64, i64* %3, align 8
  %222 = add i64 %221, 4
  store i64 %222, i64* %3, align 8
  %223 = inttoptr i64 %220 to i32*
  %224 = load i32, i32* %223, align 4
  %225 = sext i32 %224 to i64
  store i64 %225, i64* %R10.i121, align 8
  %226 = shl nsw i64 %225, 2
  %227 = add nsw i64 %226, 11907024
  %228 = add i64 %221, 12
  store i64 %228, i64* %3, align 8
  %229 = inttoptr i64 %227 to i32*
  %230 = load i32, i32* %229, align 4
  %231 = zext i32 %230 to i64
  store i64 %231, i64* %RCX.i117, align 8
  %232 = add i64 %219, -16
  %233 = add i64 %221, 15
  store i64 %233, i64* %3, align 8
  %234 = inttoptr i64 %232 to i32*
  %235 = load i32, i32* %234, align 4
  %236 = add i32 %235, %230
  %237 = zext i32 %236 to i64
  store i64 %237, i64* %RCX.i117, align 8
  %238 = icmp ult i32 %236, %230
  %239 = icmp ult i32 %236, %235
  %240 = or i1 %238, %239
  %241 = zext i1 %240 to i8
  store i8 %241, i8* %20, align 1
  %242 = and i32 %236, 255
  %243 = tail call i32 @llvm.ctpop.i32(i32 %242)
  %244 = trunc i32 %243 to i8
  %245 = and i8 %244, 1
  %246 = xor i8 %245, 1
  store i8 %246, i8* %27, align 1
  %247 = xor i32 %235, %230
  %248 = xor i32 %247, %236
  %249 = lshr i32 %248, 4
  %250 = trunc i32 %249 to i8
  %251 = and i8 %250, 1
  store i8 %251, i8* %33, align 1
  %252 = icmp eq i32 %236, 0
  %253 = zext i1 %252 to i8
  store i8 %253, i8* %36, align 1
  %254 = lshr i32 %236, 31
  %255 = trunc i32 %254 to i8
  store i8 %255, i8* %39, align 1
  %256 = lshr i32 %230, 31
  %257 = lshr i32 %235, 31
  %258 = xor i32 %254, %256
  %259 = xor i32 %254, %257
  %260 = add nuw nsw i32 %258, %259
  %261 = icmp eq i32 %260, 2
  %262 = zext i1 %261 to i8
  store i8 %262, i8* %45, align 1
  %263 = add i64 %219, -40
  %264 = add i64 %221, 18
  store i64 %264, i64* %3, align 8
  %265 = inttoptr i64 %263 to i32*
  store i32 %236, i32* %265, align 4
  %266 = load i64, i64* %RBP.i, align 8
  %267 = add i64 %266, -12
  %268 = load i64, i64* %3, align 8
  %269 = add i64 %268, 4
  store i64 %269, i64* %3, align 8
  %270 = inttoptr i64 %267 to i32*
  %271 = load i32, i32* %270, align 4
  %272 = sext i32 %271 to i64
  store i64 %272, i64* %R10.i121, align 8
  %273 = shl nsw i64 %272, 2
  %274 = add nsw i64 %273, 11905872
  %275 = add i64 %268, 12
  store i64 %275, i64* %3, align 8
  %276 = inttoptr i64 %274 to i32*
  %277 = load i32, i32* %276, align 4
  %278 = zext i32 %277 to i64
  store i64 %278, i64* %RCX.i117, align 8
  %279 = add i64 %266, -16
  %280 = add i64 %268, 15
  store i64 %280, i64* %3, align 8
  %281 = inttoptr i64 %279 to i32*
  %282 = load i32, i32* %281, align 4
  %283 = add i32 %282, %277
  %284 = zext i32 %283 to i64
  store i64 %284, i64* %RCX.i117, align 8
  %285 = icmp ult i32 %283, %277
  %286 = icmp ult i32 %283, %282
  %287 = or i1 %285, %286
  %288 = zext i1 %287 to i8
  store i8 %288, i8* %20, align 1
  %289 = and i32 %283, 255
  %290 = tail call i32 @llvm.ctpop.i32(i32 %289)
  %291 = trunc i32 %290 to i8
  %292 = and i8 %291, 1
  %293 = xor i8 %292, 1
  store i8 %293, i8* %27, align 1
  %294 = xor i32 %282, %277
  %295 = xor i32 %294, %283
  %296 = lshr i32 %295, 4
  %297 = trunc i32 %296 to i8
  %298 = and i8 %297, 1
  store i8 %298, i8* %33, align 1
  %299 = icmp eq i32 %283, 0
  %300 = zext i1 %299 to i8
  store i8 %300, i8* %36, align 1
  %301 = lshr i32 %283, 31
  %302 = trunc i32 %301 to i8
  store i8 %302, i8* %39, align 1
  %303 = lshr i32 %277, 31
  %304 = lshr i32 %282, 31
  %305 = xor i32 %301, %303
  %306 = xor i32 %301, %304
  %307 = add nuw nsw i32 %305, %306
  %308 = icmp eq i32 %307, 2
  %309 = zext i1 %308 to i8
  store i8 %309, i8* %45, align 1
  %310 = add i64 %266, -44
  %311 = add i64 %268, 18
  store i64 %311, i64* %3, align 8
  %312 = inttoptr i64 %310 to i32*
  store i32 %283, i32* %312, align 4
  %313 = load i64, i64* %RBP.i, align 8
  %314 = add i64 %313, -12
  %315 = load i64, i64* %3, align 8
  %316 = add i64 %315, 4
  store i64 %316, i64* %3, align 8
  %317 = inttoptr i64 %314 to i32*
  %318 = load i32, i32* %317, align 4
  %319 = sext i32 %318 to i64
  store i64 %319, i64* %R10.i121, align 8
  %320 = shl nsw i64 %319, 2
  %321 = add nsw i64 %320, 11907056
  %322 = add i64 %315, 12
  store i64 %322, i64* %3, align 8
  %323 = inttoptr i64 %321 to i32*
  %324 = load i32, i32* %323, align 4
  %325 = zext i32 %324 to i64
  store i64 %325, i64* %RCX.i117, align 8
  %326 = add i64 %313, -16
  %327 = add i64 %315, 15
  store i64 %327, i64* %3, align 8
  %328 = inttoptr i64 %326 to i32*
  %329 = load i32, i32* %328, align 4
  %330 = add i32 %329, %324
  %331 = zext i32 %330 to i64
  store i64 %331, i64* %RCX.i117, align 8
  %332 = icmp ult i32 %330, %324
  %333 = icmp ult i32 %330, %329
  %334 = or i1 %332, %333
  %335 = zext i1 %334 to i8
  store i8 %335, i8* %20, align 1
  %336 = and i32 %330, 255
  %337 = tail call i32 @llvm.ctpop.i32(i32 %336)
  %338 = trunc i32 %337 to i8
  %339 = and i8 %338, 1
  %340 = xor i8 %339, 1
  store i8 %340, i8* %27, align 1
  %341 = xor i32 %329, %324
  %342 = xor i32 %341, %330
  %343 = lshr i32 %342, 4
  %344 = trunc i32 %343 to i8
  %345 = and i8 %344, 1
  store i8 %345, i8* %33, align 1
  %346 = icmp eq i32 %330, 0
  %347 = zext i1 %346 to i8
  store i8 %347, i8* %36, align 1
  %348 = lshr i32 %330, 31
  %349 = trunc i32 %348 to i8
  store i8 %349, i8* %39, align 1
  %350 = lshr i32 %324, 31
  %351 = lshr i32 %329, 31
  %352 = xor i32 %348, %350
  %353 = xor i32 %348, %351
  %354 = add nuw nsw i32 %352, %353
  %355 = icmp eq i32 %354, 2
  %356 = zext i1 %355 to i8
  store i8 %356, i8* %45, align 1
  %357 = add i64 %313, -48
  %358 = add i64 %315, 18
  store i64 %358, i64* %3, align 8
  %359 = inttoptr i64 %357 to i32*
  store i32 %330, i32* %359, align 4
  %360 = load i32, i32* %R9D.i135, align 4
  %361 = load i64, i64* %RBP.i, align 8
  %362 = add i64 %361, -20
  %363 = load i64, i64* %3, align 8
  %364 = add i64 %363, 4
  store i64 %364, i64* %3, align 8
  %365 = inttoptr i64 %362 to i32*
  %366 = load i32, i32* %365, align 4
  %367 = sub i32 %360, %366
  %368 = zext i32 %367 to i64
  store i64 %368, i64* %50, align 8
  %369 = icmp ult i32 %360, %366
  %370 = zext i1 %369 to i8
  store i8 %370, i8* %20, align 1
  %371 = and i32 %367, 255
  %372 = tail call i32 @llvm.ctpop.i32(i32 %371)
  %373 = trunc i32 %372 to i8
  %374 = and i8 %373, 1
  %375 = xor i8 %374, 1
  store i8 %375, i8* %27, align 1
  %376 = xor i32 %366, %360
  %377 = xor i32 %376, %367
  %378 = lshr i32 %377, 4
  %379 = trunc i32 %378 to i8
  %380 = and i8 %379, 1
  store i8 %380, i8* %33, align 1
  %381 = icmp eq i32 %367, 0
  %382 = zext i1 %381 to i8
  store i8 %382, i8* %36, align 1
  %383 = lshr i32 %367, 31
  %384 = trunc i32 %383 to i8
  store i8 %384, i8* %39, align 1
  %385 = lshr i32 %360, 31
  %386 = lshr i32 %366, 31
  %387 = xor i32 %386, %385
  %388 = xor i32 %383, %385
  %389 = add nuw nsw i32 %388, %387
  %390 = icmp eq i32 %389, 2
  %391 = zext i1 %390 to i8
  store i8 %391, i8* %45, align 1
  %392 = add i64 %361, -28
  %393 = add i64 %363, 7
  store i64 %393, i64* %3, align 8
  %394 = inttoptr i64 %392 to i32*
  %395 = load i32, i32* %394, align 4
  %396 = zext i32 %395 to i64
  store i64 %396, i64* %RCX.i117, align 8
  %RDX.i45 = getelementptr inbounds %union.anon, %union.anon* %64, i64 0, i32 0
  %397 = add i64 %361, -32
  %398 = add i64 %363, 10
  store i64 %398, i64* %3, align 8
  %399 = inttoptr i64 %397 to i32*
  %400 = load i32, i32* %399, align 4
  %401 = zext i32 %400 to i64
  store i64 %401, i64* %RDX.i45, align 8
  %RSI.i42 = getelementptr inbounds %union.anon, %union.anon* %57, i64 0, i32 0
  %402 = add i64 %361, -36
  %403 = add i64 %363, 13
  store i64 %403, i64* %3, align 8
  %404 = inttoptr i64 %402 to i32*
  %405 = load i32, i32* %404, align 4
  %406 = zext i32 %405 to i64
  store i64 %406, i64* %RSI.i42, align 8
  %RDI.i39 = getelementptr inbounds %union.anon, %union.anon* %51, i64 0, i32 0
  %407 = add i64 %361, -40
  %408 = add i64 %363, 16
  store i64 %408, i64* %3, align 8
  %409 = inttoptr i64 %407 to i32*
  %410 = load i32, i32* %409, align 4
  %411 = zext i32 %410 to i64
  store i64 %411, i64* %RDI.i39, align 8
  %412 = getelementptr inbounds %struct.State, %struct.State* %0, i64 0, i32 6, i32 23, i32 0
  %R11D.i36 = bitcast %union.anon* %412 to i32*
  %413 = getelementptr inbounds %union.anon, %union.anon* %412, i64 0, i32 0
  %414 = add i64 %361, -44
  %415 = add i64 %363, 20
  store i64 %415, i64* %3, align 8
  %416 = inttoptr i64 %414 to i32*
  %417 = load i32, i32* %416, align 4
  %418 = zext i32 %417 to i64
  store i64 %418, i64* %413, align 8
  %419 = add i64 %361, -48
  %420 = add i64 %363, 23
  store i64 %420, i64* %3, align 8
  %421 = inttoptr i64 %419 to i32*
  %422 = load i32, i32* %421, align 4
  %423 = zext i32 %422 to i64
  store i64 %423, i64* %RBX.i143, align 8
  %424 = add i64 %361, -52
  %425 = add i64 %363, 26
  store i64 %425, i64* %3, align 8
  %426 = inttoptr i64 %424 to i32*
  store i32 %410, i32* %426, align 4
  %427 = load i32, i32* %R9D.i135, align 4
  %428 = zext i32 %427 to i64
  %429 = load i64, i64* %3, align 8
  store i64 %428, i64* %RDI.i39, align 8
  %430 = load i64, i64* %RBP.i, align 8
  %431 = add i64 %430, -56
  %432 = load i32, i32* %ESI.i129, align 4
  %433 = add i64 %429, 6
  store i64 %433, i64* %3, align 8
  %434 = inttoptr i64 %431 to i32*
  store i32 %432, i32* %434, align 4
  %EAX.i25 = bitcast %union.anon* %46 to i32*
  %435 = load i32, i32* %EAX.i25, align 4
  %436 = zext i32 %435 to i64
  %437 = load i64, i64* %3, align 8
  store i64 %436, i64* %RSI.i42, align 8
  %438 = load i64, i64* %RBP.i, align 8
  %439 = add i64 %438, -60
  %440 = load i32, i32* %EDX.i126, align 4
  %441 = add i64 %437, 5
  store i64 %441, i64* %3, align 8
  %442 = inttoptr i64 %439 to i32*
  store i32 %440, i32* %442, align 4
  %443 = load i32, i32* %R8D.i137, align 4
  %444 = zext i32 %443 to i64
  %445 = load i64, i64* %3, align 8
  store i64 %444, i64* %RDX.i45, align 8
  %446 = load i64, i64* %RBP.i, align 8
  %447 = add i64 %446, -60
  %448 = add i64 %445, 7
  store i64 %448, i64* %3, align 8
  %449 = inttoptr i64 %447 to i32*
  %450 = load i32, i32* %449, align 4
  %451 = zext i32 %450 to i64
  store i64 %451, i64* %48, align 8
  %452 = add i64 %446, -56
  %453 = add i64 %445, 11
  store i64 %453, i64* %3, align 8
  %454 = inttoptr i64 %452 to i32*
  %455 = load i32, i32* %454, align 4
  %456 = zext i32 %455 to i64
  store i64 %456, i64* %50, align 8
  %457 = add i64 %446, -52
  %458 = add i64 %445, 14
  store i64 %458, i64* %3, align 8
  %459 = inttoptr i64 %457 to i32*
  %460 = load i32, i32* %459, align 4
  %461 = zext i32 %460 to i64
  store i64 %461, i64* %RAX.i139, align 8
  %462 = bitcast i64* %6 to i32**
  %463 = load i32*, i32** %462, align 8
  %464 = add i64 %445, 17
  store i64 %464, i64* %3, align 8
  store i32 %460, i32* %463, align 4
  %465 = load i64, i64* %6, align 8
  %466 = add i64 %465, 8
  %467 = load i32, i32* %R11D.i36, align 4
  %468 = load i64, i64* %3, align 8
  %469 = add i64 %468, 5
  store i64 %469, i64* %3, align 8
  %470 = inttoptr i64 %466 to i32*
  store i32 %467, i32* %470, align 4
  %EBX.i = bitcast %union.anon* %11 to i32*
  %471 = load i64, i64* %6, align 8
  %472 = add i64 %471, 16
  %473 = load i32, i32* %EBX.i, align 4
  %474 = load i64, i64* %3, align 8
  %475 = add i64 %474, 4
  store i64 %475, i64* %3, align 8
  %476 = inttoptr i64 %472 to i32*
  store i32 %473, i32* %476, align 4
  %AL.i = bitcast %union.anon* %46 to i8*
  %477 = load i64, i64* %3, align 8
  store i8 0, i8* %AL.i, align 1
  %478 = add i64 %477, -219649
  %479 = add i64 %477, 7
  %480 = load i64, i64* %6, align 8
  %481 = add i64 %480, -8
  %482 = inttoptr i64 %481 to i64*
  store i64 %479, i64* %482, align 8
  store i64 %481, i64* %6, align 8
  store i64 %478, i64* %3, align 8
  %call2_4ad113 = tail call %struct.Memory* @sub_477710.somewhere(%struct.State* %0, i64 %478, %struct.Memory* %2)
  %483 = load i64, i64* %6, align 8
  %484 = load i64, i64* %3, align 8
  %485 = add i64 %483, 88
  store i64 %485, i64* %6, align 8
  %486 = icmp ugt i64 %483, -89
  %487 = zext i1 %486 to i8
  store i8 %487, i8* %20, align 1
  %488 = trunc i64 %485 to i32
  %489 = and i32 %488, 255
  %490 = tail call i32 @llvm.ctpop.i32(i32 %489)
  %491 = trunc i32 %490 to i8
  %492 = and i8 %491, 1
  %493 = xor i8 %492, 1
  store i8 %493, i8* %27, align 1
  %494 = xor i64 %483, 16
  %495 = xor i64 %494, %485
  %496 = lshr i64 %495, 4
  %497 = trunc i64 %496 to i8
  %498 = and i8 %497, 1
  store i8 %498, i8* %33, align 1
  %499 = icmp eq i64 %485, 0
  %500 = zext i1 %499 to i8
  store i8 %500, i8* %36, align 1
  %501 = lshr i64 %485, 63
  %502 = trunc i64 %501 to i8
  store i8 %502, i8* %39, align 1
  %503 = lshr i64 %483, 63
  %504 = xor i64 %501, %503
  %505 = add nuw nsw i64 %504, %501
  %506 = icmp eq i64 %505, 2
  %507 = zext i1 %506 to i8
  store i8 %507, i8* %45, align 1
  %508 = add i64 %484, 5
  store i64 %508, i64* %3, align 8
  %509 = add i64 %483, 96
  %510 = inttoptr i64 %485 to i64*
  %511 = load i64, i64* %510, align 8
  store i64 %511, i64* %RBX.i143, align 8
  store i64 %509, i64* %6, align 8
  %512 = add i64 %484, 6
  store i64 %512, i64* %3, align 8
  %513 = add i64 %483, 104
  %514 = inttoptr i64 %509 to i64*
  %515 = load i64, i64* %514, align 8
  store i64 %515, i64* %RBP.i, align 8
  store i64 %513, i64* %6, align 8
  %516 = add i64 %484, 7
  store i64 %516, i64* %3, align 8
  %517 = inttoptr i64 %513 to i64*
  %518 = load i64, i64* %517, align 8
  store i64 %518, i64* %3, align 8
  %519 = add i64 %483, 112
  store i64 %519, i64* %6, align 8
  ret %struct.Memory* %call2_4ad113
}

; Function Attrs: norecurse nounwind
define %struct.Memory* @routine_pushq__rbp(%struct.State* nocapture dereferenceable(3376), i64, %struct.Memory* readnone returned) local_unnamed_addr #2 {
block_400488:
  %PC = getelementptr inbounds %struct.State, %struct.State* %0, i64 0, i32 6, i32 33, i32 0, i32 0
  %RBP = getelementptr inbounds %struct.State, %struct.State* %0, i64 0, i32 6, i32 15, i32 0, i32 0
  %3 = load i64, i64* %RBP, align 8
  %4 = load i64, i64* %PC, align 8
  %5 = add i64 %4, 1
  store i64 %5, i64* %PC, align 8
  %6 = getelementptr inbounds %struct.State, %struct.State* %0, i64 0, i32 6, i32 13, i32 0, i32 0
  %7 = load i64, i64* %6, align 8
  %8 = add i64 %7, -8
  %9 = inttoptr i64 %8 to i64*
  store i64 %3, i64* %9, align 8
  store i64 %8, i64* %6, align 8
  ret %struct.Memory* %2
}

; Function Attrs: norecurse nounwind
define %struct.Memory* @routine_movq__rsp___rbp(%struct.State* nocapture dereferenceable(3376), i64, %struct.Memory* readnone returned) local_unnamed_addr #2 {
block_400488:
  %PC = getelementptr inbounds %struct.State, %struct.State* %0, i64 0, i32 6, i32 33, i32 0, i32 0
  %RSP = getelementptr inbounds %struct.State, %struct.State* %0, i64 0, i32 6, i32 13, i32 0, i32 0
  %RBP = getelementptr inbounds %struct.State, %struct.State* %0, i64 0, i32 6, i32 15, i32 0, i32 0
  %3 = load i64, i64* %RSP, align 8
  %4 = load i64, i64* %PC, align 8
  %5 = add i64 %4, 3
  store i64 %5, i64* %PC, align 8
  store i64 %3, i64* %RBP, align 8
  ret %struct.Memory* %2
}

; Function Attrs: norecurse nounwind
define %struct.Memory* @routine_pushq__rbx(%struct.State* nocapture dereferenceable(3376), i64, %struct.Memory* readnone returned) local_unnamed_addr #2 {
block_400488:
  %PC = getelementptr inbounds %struct.State, %struct.State* %0, i64 0, i32 6, i32 33, i32 0, i32 0
  %RBX = getelementptr inbounds %struct.State, %struct.State* %0, i64 0, i32 6, i32 3, i32 0, i32 0
  %3 = load i64, i64* %RBX, align 8
  %4 = load i64, i64* %PC, align 8
  %5 = add i64 %4, 1
  store i64 %5, i64* %PC, align 8
  %6 = getelementptr inbounds %struct.State, %struct.State* %0, i64 0, i32 6, i32 13, i32 0, i32 0
  %7 = load i64, i64* %6, align 8
  %8 = add i64 %7, -8
  %9 = inttoptr i64 %8 to i64*
  store i64 %3, i64* %9, align 8
  store i64 %8, i64* %6, align 8
  ret %struct.Memory* %2
}

; Function Attrs: nounwind
define %struct.Memory* @routine_subq__0x58___rsp(%struct.State* nocapture dereferenceable(3376), i64, %struct.Memory* readnone returned) local_unnamed_addr #3 {
block_400488:
  %PC = getelementptr inbounds %struct.State, %struct.State* %0, i64 0, i32 6, i32 33, i32 0, i32 0
  %RSP = getelementptr inbounds %struct.State, %struct.State* %0, i64 0, i32 6, i32 13, i32 0, i32 0
  %3 = load i64, i64* %RSP, align 8
  %4 = load i64, i64* %PC, align 8
  %5 = add i64 %4, 4
  store i64 %5, i64* %PC, align 8
  %6 = add i64 %3, -88
  store i64 %6, i64* %RSP, align 8
  %7 = icmp ult i64 %3, 88
  %8 = zext i1 %7 to i8
  %9 = getelementptr inbounds %struct.State, %struct.State* %0, i64 0, i32 2, i32 1
  store i8 %8, i8* %9, align 1
  %10 = trunc i64 %6 to i32
  %11 = and i32 %10, 255
  %12 = tail call i32 @llvm.ctpop.i32(i32 %11)
  %13 = trunc i32 %12 to i8
  %14 = and i8 %13, 1
  %15 = xor i8 %14, 1
  %16 = getelementptr inbounds %struct.State, %struct.State* %0, i64 0, i32 2, i32 3
  store i8 %15, i8* %16, align 1
  %17 = xor i64 %3, 16
  %18 = xor i64 %17, %6
  %19 = lshr i64 %18, 4
  %20 = trunc i64 %19 to i8
  %21 = and i8 %20, 1
  %22 = getelementptr inbounds %struct.State, %struct.State* %0, i64 0, i32 2, i32 5
  store i8 %21, i8* %22, align 1
  %23 = icmp eq i64 %6, 0
  %24 = zext i1 %23 to i8
  %25 = getelementptr inbounds %struct.State, %struct.State* %0, i64 0, i32 2, i32 7
  store i8 %24, i8* %25, align 1
  %26 = lshr i64 %6, 63
  %27 = trunc i64 %26 to i8
  %28 = getelementptr inbounds %struct.State, %struct.State* %0, i64 0, i32 2, i32 9
  store i8 %27, i8* %28, align 1
  %29 = lshr i64 %3, 63
  %30 = xor i64 %26, %29
  %31 = add nuw nsw i64 %30, %29
  %32 = icmp eq i64 %31, 2
  %33 = zext i1 %32 to i8
  %34 = getelementptr inbounds %struct.State, %struct.State* %0, i64 0, i32 2, i32 13
  store i8 %33, i8* %34, align 1
  ret %struct.Memory* %2
}

; Function Attrs: norecurse nounwind
define %struct.Memory* @routine_movl__0x1___eax(%struct.State* nocapture dereferenceable(3376), i64, %struct.Memory* readnone returned) local_unnamed_addr #2 {
block_400488:
  %PC = getelementptr inbounds %struct.State, %struct.State* %0, i64 0, i32 6, i32 33, i32 0, i32 0
  %RAX = getelementptr inbounds %struct.State, %struct.State* %0, i64 0, i32 6, i32 1, i32 0, i32 0
  %3 = load i64, i64* %PC, align 8
  %4 = add i64 %3, 5
  store i64 %4, i64* %PC, align 8
  store i64 1, i64* %RAX, align 8
  ret %struct.Memory* %2
}

; Function Attrs: norecurse nounwind
define %struct.Memory* @routine_movl__0x6___r8d(%struct.State* nocapture dereferenceable(3376), i64, %struct.Memory* readnone returned) local_unnamed_addr #2 {
block_400488:
  %PC = getelementptr inbounds %struct.State, %struct.State* %0, i64 0, i32 6, i32 33, i32 0, i32 0
  %3 = getelementptr inbounds %struct.State, %struct.State* %0, i64 0, i32 6, i32 17, i32 0, i32 0
  %4 = load i64, i64* %PC, align 8
  %5 = add i64 %4, 6
  store i64 %5, i64* %PC, align 8
  store i64 6, i64* %3, align 8
  ret %struct.Memory* %2
}

; Function Attrs: norecurse nounwind
define %struct.Memory* @routine_movl__0x3___r9d(%struct.State* nocapture dereferenceable(3376), i64, %struct.Memory* readnone returned) local_unnamed_addr #2 {
block_400488:
  %PC = getelementptr inbounds %struct.State, %struct.State* %0, i64 0, i32 6, i32 33, i32 0, i32 0
  %3 = getelementptr inbounds %struct.State, %struct.State* %0, i64 0, i32 6, i32 19, i32 0, i32 0
  %4 = load i64, i64* %PC, align 8
  %5 = add i64 %4, 6
  store i64 %5, i64* %PC, align 8
  store i64 3, i64* %3, align 8
  ret %struct.Memory* %2
}

; Function Attrs: norecurse nounwind
define %struct.Memory* @routine_movl__edi__MINUS0xc__rbp_(%struct.State* nocapture dereferenceable(3376), i64, %struct.Memory* readnone returned) local_unnamed_addr #2 {
block_400488:
  %PC = getelementptr inbounds %struct.State, %struct.State* %0, i64 0, i32 6, i32 33, i32 0, i32 0
  %3 = getelementptr inbounds %struct.State, %struct.State* %0, i64 0, i32 6, i32 11, i32 0
  %EDI = bitcast %union.anon* %3 to i32*
  %RBP = getelementptr inbounds %struct.State, %struct.State* %0, i64 0, i32 6, i32 15, i32 0, i32 0
  %4 = load i64, i64* %RBP, align 8
  %5 = add i64 %4, -12
  %6 = load i32, i32* %EDI, align 4
  %7 = load i64, i64* %PC, align 8
  %8 = add i64 %7, 3
  store i64 %8, i64* %PC, align 8
  %9 = inttoptr i64 %5 to i32*
  store i32 %6, i32* %9, align 4
  ret %struct.Memory* %2
}

; Function Attrs: norecurse nounwind
define %struct.Memory* @routine_movl__esi__MINUS0x10__rbp_(%struct.State* nocapture dereferenceable(3376), i64, %struct.Memory* readnone returned) local_unnamed_addr #2 {
block_400488:
  %PC = getelementptr inbounds %struct.State, %struct.State* %0, i64 0, i32 6, i32 33, i32 0, i32 0
  %3 = getelementptr inbounds %struct.State, %struct.State* %0, i64 0, i32 6, i32 9, i32 0
  %ESI = bitcast %union.anon* %3 to i32*
  %RBP = getelementptr inbounds %struct.State, %struct.State* %0, i64 0, i32 6, i32 15, i32 0, i32 0
  %4 = load i64, i64* %RBP, align 8
  %5 = add i64 %4, -16
  %6 = load i32, i32* %ESI, align 4
  %7 = load i64, i64* %PC, align 8
  %8 = add i64 %7, 3
  store i64 %8, i64* %PC, align 8
  %9 = inttoptr i64 %5 to i32*
  store i32 %6, i32* %9, align 4
  ret %struct.Memory* %2
}

; Function Attrs: norecurse nounwind
define %struct.Memory* @routine_movl__edx__MINUS0x14__rbp_(%struct.State* nocapture dereferenceable(3376), i64, %struct.Memory* readnone returned) local_unnamed_addr #2 {
block_400488:
  %PC = getelementptr inbounds %struct.State, %struct.State* %0, i64 0, i32 6, i32 33, i32 0, i32 0
  %3 = getelementptr inbounds %struct.State, %struct.State* %0, i64 0, i32 6, i32 7, i32 0
  %EDX = bitcast %union.anon* %3 to i32*
  %RBP = getelementptr inbounds %struct.State, %struct.State* %0, i64 0, i32 6, i32 15, i32 0, i32 0
  %4 = load i64, i64* %RBP, align 8
  %5 = add i64 %4, -20
  %6 = load i32, i32* %EDX, align 4
  %7 = load i64, i64* %PC, align 8
  %8 = add i64 %7, 3
  store i64 %8, i64* %PC, align 8
  %9 = inttoptr i64 %5 to i32*
  store i32 %6, i32* %9, align 4
  ret %struct.Memory* %2
}

; Function Attrs: norecurse nounwind
define %struct.Memory* @routine_movl__ecx__MINUS0x18__rbp_(%struct.State* nocapture dereferenceable(3376), i64, %struct.Memory* readnone returned) local_unnamed_addr #2 {
block_400488:
  %PC = getelementptr inbounds %struct.State, %struct.State* %0, i64 0, i32 6, i32 33, i32 0, i32 0
  %3 = getelementptr inbounds %struct.State, %struct.State* %0, i64 0, i32 6, i32 5, i32 0
  %ECX = bitcast %union.anon* %3 to i32*
  %RBP = getelementptr inbounds %struct.State, %struct.State* %0, i64 0, i32 6, i32 15, i32 0, i32 0
  %4 = load i64, i64* %RBP, align 8
  %5 = add i64 %4, -24
  %6 = load i32, i32* %ECX, align 4
  %7 = load i64, i64* %PC, align 8
  %8 = add i64 %7, 3
  store i64 %8, i64* %PC, align 8
  %9 = inttoptr i64 %5 to i32*
  store i32 %6, i32* %9, align 4
  ret %struct.Memory* %2
}

; Function Attrs: norecurse nounwind
define %struct.Memory* @routine_movslq_MINUS0xc__rbp____r10(%struct.State* nocapture dereferenceable(3376), i64, %struct.Memory* readnone returned) local_unnamed_addr #2 {
block_400488:
  %PC = getelementptr inbounds %struct.State, %struct.State* %0, i64 0, i32 6, i32 33, i32 0, i32 0
  %RBP = getelementptr inbounds %struct.State, %struct.State* %0, i64 0, i32 6, i32 15, i32 0, i32 0
  %R10 = getelementptr inbounds %struct.State, %struct.State* %0, i64 0, i32 6, i32 21, i32 0, i32 0
  %3 = load i64, i64* %RBP, align 8
  %4 = add i64 %3, -12
  %5 = load i64, i64* %PC, align 8
  %6 = add i64 %5, 4
  store i64 %6, i64* %PC, align 8
  %7 = inttoptr i64 %4 to i32*
  %8 = load i32, i32* %7, align 4
  %9 = sext i32 %8 to i64
  store i64 %9, i64* %R10, align 8
  ret %struct.Memory* %2
}

; Function Attrs: norecurse nounwind
define %struct.Memory* @routine_movl_0xb57d50___r10_4____ecx(%struct.State* nocapture dereferenceable(3376), i64, %struct.Memory* readnone returned) local_unnamed_addr #2 {
block_400488:
  %PC = getelementptr inbounds %struct.State, %struct.State* %0, i64 0, i32 6, i32 33, i32 0, i32 0
  %RCX = getelementptr inbounds %struct.State, %struct.State* %0, i64 0, i32 6, i32 5, i32 0, i32 0
  %R10 = getelementptr inbounds %struct.State, %struct.State* %0, i64 0, i32 6, i32 21, i32 0, i32 0
  %3 = load i64, i64* %R10, align 8
  %4 = shl i64 %3, 2
  %5 = add i64 %4, 11894096
  %6 = load i64, i64* %PC, align 8
  %7 = add i64 %6, 8
  store i64 %7, i64* %PC, align 8
  %8 = inttoptr i64 %5 to i32*
  %9 = load i32, i32* %8, align 4
  %10 = zext i32 %9 to i64
  store i64 %10, i64* %RCX, align 8
  ret %struct.Memory* %2
}

; Function Attrs: nounwind
define %struct.Memory* @routine_addl_MINUS0x10__rbp____ecx(%struct.State* nocapture dereferenceable(3376), i64, %struct.Memory* readnone returned) local_unnamed_addr #3 {
block_400488:
  %PC = getelementptr inbounds %struct.State, %struct.State* %0, i64 0, i32 6, i32 33, i32 0, i32 0
  %RCX = getelementptr inbounds %struct.State, %struct.State* %0, i64 0, i32 6, i32 5, i32 0, i32 0
  %RBP = getelementptr inbounds %struct.State, %struct.State* %0, i64 0, i32 6, i32 15, i32 0, i32 0
  %3 = load i64, i64* %RCX, align 8
  %4 = load i64, i64* %RBP, align 8
  %5 = add i64 %4, -16
  %6 = load i64, i64* %PC, align 8
  %7 = add i64 %6, 3
  store i64 %7, i64* %PC, align 8
  %8 = trunc i64 %3 to i32
  %9 = inttoptr i64 %5 to i32*
  %10 = load i32, i32* %9, align 4
  %11 = add i32 %10, %8
  %12 = zext i32 %11 to i64
  store i64 %12, i64* %RCX, align 8
  %13 = icmp ult i32 %11, %8
  %14 = icmp ult i32 %11, %10
  %15 = or i1 %13, %14
  %16 = zext i1 %15 to i8
  %17 = getelementptr inbounds %struct.State, %struct.State* %0, i64 0, i32 2, i32 1
  store i8 %16, i8* %17, align 1
  %18 = and i32 %11, 255
  %19 = tail call i32 @llvm.ctpop.i32(i32 %18)
  %20 = trunc i32 %19 to i8
  %21 = and i8 %20, 1
  %22 = xor i8 %21, 1
  %23 = getelementptr inbounds %struct.State, %struct.State* %0, i64 0, i32 2, i32 3
  store i8 %22, i8* %23, align 1
  %24 = xor i32 %10, %8
  %25 = xor i32 %24, %11
  %26 = lshr i32 %25, 4
  %27 = trunc i32 %26 to i8
  %28 = and i8 %27, 1
  %29 = getelementptr inbounds %struct.State, %struct.State* %0, i64 0, i32 2, i32 5
  store i8 %28, i8* %29, align 1
  %30 = icmp eq i32 %11, 0
  %31 = zext i1 %30 to i8
  %32 = getelementptr inbounds %struct.State, %struct.State* %0, i64 0, i32 2, i32 7
  store i8 %31, i8* %32, align 1
  %33 = lshr i32 %11, 31
  %34 = trunc i32 %33 to i8
  %35 = getelementptr inbounds %struct.State, %struct.State* %0, i64 0, i32 2, i32 9
  store i8 %34, i8* %35, align 1
  %36 = lshr i32 %8, 31
  %37 = lshr i32 %10, 31
  %38 = xor i32 %33, %36
  %39 = xor i32 %33, %37
  %40 = add nuw nsw i32 %38, %39
  %41 = icmp eq i32 %40, 2
  %42 = zext i1 %41 to i8
  %43 = getelementptr inbounds %struct.State, %struct.State* %0, i64 0, i32 2, i32 13
  store i8 %42, i8* %43, align 1
  ret %struct.Memory* %2
}

; Function Attrs: norecurse nounwind
define %struct.Memory* @routine_movl__ecx__MINUS0x1c__rbp_(%struct.State* nocapture dereferenceable(3376), i64, %struct.Memory* readnone returned) local_unnamed_addr #2 {
block_400488:
  %PC = getelementptr inbounds %struct.State, %struct.State* %0, i64 0, i32 6, i32 33, i32 0, i32 0
  %3 = getelementptr inbounds %struct.State, %struct.State* %0, i64 0, i32 6, i32 5, i32 0
  %ECX = bitcast %union.anon* %3 to i32*
  %RBP = getelementptr inbounds %struct.State, %struct.State* %0, i64 0, i32 6, i32 15, i32 0, i32 0
  %4 = load i64, i64* %RBP, align 8
  %5 = add i64 %4, -28
  %6 = load i32, i32* %ECX, align 4
  %7 = load i64, i64* %PC, align 8
  %8 = add i64 %7, 3
  store i64 %8, i64* %PC, align 8
  %9 = inttoptr i64 %5 to i32*
  store i32 %6, i32* %9, align 4
  ret %struct.Memory* %2
}

; Function Attrs: norecurse nounwind
define %struct.Memory* @routine_movl_0xb57d70___r10_4____ecx(%struct.State* nocapture dereferenceable(3376), i64, %struct.Memory* readnone returned) local_unnamed_addr #2 {
block_400488:
  %PC = getelementptr inbounds %struct.State, %struct.State* %0, i64 0, i32 6, i32 33, i32 0, i32 0
  %RCX = getelementptr inbounds %struct.State, %struct.State* %0, i64 0, i32 6, i32 5, i32 0, i32 0
  %R10 = getelementptr inbounds %struct.State, %struct.State* %0, i64 0, i32 6, i32 21, i32 0, i32 0
  %3 = load i64, i64* %R10, align 8
  %4 = shl i64 %3, 2
  %5 = add i64 %4, 11894128
  %6 = load i64, i64* %PC, align 8
  %7 = add i64 %6, 8
  store i64 %7, i64* %PC, align 8
  %8 = inttoptr i64 %5 to i32*
  %9 = load i32, i32* %8, align 4
  %10 = zext i32 %9 to i64
  store i64 %10, i64* %RCX, align 8
  ret %struct.Memory* %2
}

; Function Attrs: norecurse nounwind
define %struct.Memory* @routine_movl__ecx__MINUS0x20__rbp_(%struct.State* nocapture dereferenceable(3376), i64, %struct.Memory* readnone returned) local_unnamed_addr #2 {
block_400488:
  %PC = getelementptr inbounds %struct.State, %struct.State* %0, i64 0, i32 6, i32 33, i32 0, i32 0
  %3 = getelementptr inbounds %struct.State, %struct.State* %0, i64 0, i32 6, i32 5, i32 0
  %ECX = bitcast %union.anon* %3 to i32*
  %RBP = getelementptr inbounds %struct.State, %struct.State* %0, i64 0, i32 6, i32 15, i32 0, i32 0
  %4 = load i64, i64* %RBP, align 8
  %5 = add i64 %4, -32
  %6 = load i32, i32* %ECX, align 4
  %7 = load i64, i64* %PC, align 8
  %8 = add i64 %7, 3
  store i64 %8, i64* %PC, align 8
  %9 = inttoptr i64 %5 to i32*
  store i32 %6, i32* %9, align 4
  ret %struct.Memory* %2
}

; Function Attrs: norecurse nounwind
define %struct.Memory* @routine_movl_0xb5ab30___r10_4____ecx(%struct.State* nocapture dereferenceable(3376), i64, %struct.Memory* readnone returned) local_unnamed_addr #2 {
block_400488:
  %PC = getelementptr inbounds %struct.State, %struct.State* %0, i64 0, i32 6, i32 33, i32 0, i32 0
  %RCX = getelementptr inbounds %struct.State, %struct.State* %0, i64 0, i32 6, i32 5, i32 0, i32 0
  %R10 = getelementptr inbounds %struct.State, %struct.State* %0, i64 0, i32 6, i32 21, i32 0, i32 0
  %3 = load i64, i64* %R10, align 8
  %4 = shl i64 %3, 2
  %5 = add i64 %4, 11905840
  %6 = load i64, i64* %PC, align 8
  %7 = add i64 %6, 8
  store i64 %7, i64* %PC, align 8
  %8 = inttoptr i64 %5 to i32*
  %9 = load i32, i32* %8, align 4
  %10 = zext i32 %9 to i64
  store i64 %10, i64* %RCX, align 8
  ret %struct.Memory* %2
}

; Function Attrs: norecurse nounwind
define %struct.Memory* @routine_movl__ecx__MINUS0x24__rbp_(%struct.State* nocapture dereferenceable(3376), i64, %struct.Memory* readnone returned) local_unnamed_addr #2 {
block_400488:
  %PC = getelementptr inbounds %struct.State, %struct.State* %0, i64 0, i32 6, i32 33, i32 0, i32 0
  %3 = getelementptr inbounds %struct.State, %struct.State* %0, i64 0, i32 6, i32 5, i32 0
  %ECX = bitcast %union.anon* %3 to i32*
  %RBP = getelementptr inbounds %struct.State, %struct.State* %0, i64 0, i32 6, i32 15, i32 0, i32 0
  %4 = load i64, i64* %RBP, align 8
  %5 = add i64 %4, -36
  %6 = load i32, i32* %ECX, align 4
  %7 = load i64, i64* %PC, align 8
  %8 = add i64 %7, 3
  store i64 %8, i64* %PC, align 8
  %9 = inttoptr i64 %5 to i32*
  store i32 %6, i32* %9, align 4
  ret %struct.Memory* %2
}

; Function Attrs: norecurse nounwind
define %struct.Memory* @routine_movl_0xb5afd0___r10_4____ecx(%struct.State* nocapture dereferenceable(3376), i64, %struct.Memory* readnone returned) local_unnamed_addr #2 {
block_400488:
  %PC = getelementptr inbounds %struct.State, %struct.State* %0, i64 0, i32 6, i32 33, i32 0, i32 0
  %RCX = getelementptr inbounds %struct.State, %struct.State* %0, i64 0, i32 6, i32 5, i32 0, i32 0
  %R10 = getelementptr inbounds %struct.State, %struct.State* %0, i64 0, i32 6, i32 21, i32 0, i32 0
  %3 = load i64, i64* %R10, align 8
  %4 = shl i64 %3, 2
  %5 = add i64 %4, 11907024
  %6 = load i64, i64* %PC, align 8
  %7 = add i64 %6, 8
  store i64 %7, i64* %PC, align 8
  %8 = inttoptr i64 %5 to i32*
  %9 = load i32, i32* %8, align 4
  %10 = zext i32 %9 to i64
  store i64 %10, i64* %RCX, align 8
  ret %struct.Memory* %2
}

; Function Attrs: norecurse nounwind
define %struct.Memory* @routine_movl__ecx__MINUS0x28__rbp_(%struct.State* nocapture dereferenceable(3376), i64, %struct.Memory* readnone returned) local_unnamed_addr #2 {
block_400488:
  %PC = getelementptr inbounds %struct.State, %struct.State* %0, i64 0, i32 6, i32 33, i32 0, i32 0
  %3 = getelementptr inbounds %struct.State, %struct.State* %0, i64 0, i32 6, i32 5, i32 0
  %ECX = bitcast %union.anon* %3 to i32*
  %RBP = getelementptr inbounds %struct.State, %struct.State* %0, i64 0, i32 6, i32 15, i32 0, i32 0
  %4 = load i64, i64* %RBP, align 8
  %5 = add i64 %4, -40
  %6 = load i32, i32* %ECX, align 4
  %7 = load i64, i64* %PC, align 8
  %8 = add i64 %7, 3
  store i64 %8, i64* %PC, align 8
  %9 = inttoptr i64 %5 to i32*
  store i32 %6, i32* %9, align 4
  ret %struct.Memory* %2
}

; Function Attrs: norecurse nounwind
define %struct.Memory* @routine_movl_0xb5ab50___r10_4____ecx(%struct.State* nocapture dereferenceable(3376), i64, %struct.Memory* readnone returned) local_unnamed_addr #2 {
block_400488:
  %PC = getelementptr inbounds %struct.State, %struct.State* %0, i64 0, i32 6, i32 33, i32 0, i32 0
  %RCX = getelementptr inbounds %struct.State, %struct.State* %0, i64 0, i32 6, i32 5, i32 0, i32 0
  %R10 = getelementptr inbounds %struct.State, %struct.State* %0, i64 0, i32 6, i32 21, i32 0, i32 0
  %3 = load i64, i64* %R10, align 8
  %4 = shl i64 %3, 2
  %5 = add i64 %4, 11905872
  %6 = load i64, i64* %PC, align 8
  %7 = add i64 %6, 8
  store i64 %7, i64* %PC, align 8
  %8 = inttoptr i64 %5 to i32*
  %9 = load i32, i32* %8, align 4
  %10 = zext i32 %9 to i64
  store i64 %10, i64* %RCX, align 8
  ret %struct.Memory* %2
}

; Function Attrs: norecurse nounwind
define %struct.Memory* @routine_movl__ecx__MINUS0x2c__rbp_(%struct.State* nocapture dereferenceable(3376), i64, %struct.Memory* readnone returned) local_unnamed_addr #2 {
block_400488:
  %PC = getelementptr inbounds %struct.State, %struct.State* %0, i64 0, i32 6, i32 33, i32 0, i32 0
  %3 = getelementptr inbounds %struct.State, %struct.State* %0, i64 0, i32 6, i32 5, i32 0
  %ECX = bitcast %union.anon* %3 to i32*
  %RBP = getelementptr inbounds %struct.State, %struct.State* %0, i64 0, i32 6, i32 15, i32 0, i32 0
  %4 = load i64, i64* %RBP, align 8
  %5 = add i64 %4, -44
  %6 = load i32, i32* %ECX, align 4
  %7 = load i64, i64* %PC, align 8
  %8 = add i64 %7, 3
  store i64 %8, i64* %PC, align 8
  %9 = inttoptr i64 %5 to i32*
  store i32 %6, i32* %9, align 4
  ret %struct.Memory* %2
}

; Function Attrs: norecurse nounwind
define %struct.Memory* @routine_movl_0xb5aff0___r10_4____ecx(%struct.State* nocapture dereferenceable(3376), i64, %struct.Memory* readnone returned) local_unnamed_addr #2 {
block_400488:
  %PC = getelementptr inbounds %struct.State, %struct.State* %0, i64 0, i32 6, i32 33, i32 0, i32 0
  %RCX = getelementptr inbounds %struct.State, %struct.State* %0, i64 0, i32 6, i32 5, i32 0, i32 0
  %R10 = getelementptr inbounds %struct.State, %struct.State* %0, i64 0, i32 6, i32 21, i32 0, i32 0
  %3 = load i64, i64* %R10, align 8
  %4 = shl i64 %3, 2
  %5 = add i64 %4, 11907056
  %6 = load i64, i64* %PC, align 8
  %7 = add i64 %6, 8
  store i64 %7, i64* %PC, align 8
  %8 = inttoptr i64 %5 to i32*
  %9 = load i32, i32* %8, align 4
  %10 = zext i32 %9 to i64
  store i64 %10, i64* %RCX, align 8
  ret %struct.Memory* %2
}

; Function Attrs: norecurse nounwind
define %struct.Memory* @routine_movl__ecx__MINUS0x30__rbp_(%struct.State* nocapture dereferenceable(3376), i64, %struct.Memory* readnone returned) local_unnamed_addr #2 {
block_400488:
  %PC = getelementptr inbounds %struct.State, %struct.State* %0, i64 0, i32 6, i32 33, i32 0, i32 0
  %3 = getelementptr inbounds %struct.State, %struct.State* %0, i64 0, i32 6, i32 5, i32 0
  %ECX = bitcast %union.anon* %3 to i32*
  %RBP = getelementptr inbounds %struct.State, %struct.State* %0, i64 0, i32 6, i32 15, i32 0, i32 0
  %4 = load i64, i64* %RBP, align 8
  %5 = add i64 %4, -48
  %6 = load i32, i32* %ECX, align 4
  %7 = load i64, i64* %PC, align 8
  %8 = add i64 %7, 3
  store i64 %8, i64* %PC, align 8
  %9 = inttoptr i64 %5 to i32*
  store i32 %6, i32* %9, align 4
  ret %struct.Memory* %2
}

; Function Attrs: nounwind
define %struct.Memory* @routine_subl_MINUS0x14__rbp____r9d(%struct.State* nocapture dereferenceable(3376), i64, %struct.Memory* readnone returned) local_unnamed_addr #3 {
block_400488:
  %PC = getelementptr inbounds %struct.State, %struct.State* %0, i64 0, i32 6, i32 33, i32 0, i32 0
  %3 = getelementptr inbounds %struct.State, %struct.State* %0, i64 0, i32 6, i32 19, i32 0
  %R9D = bitcast %union.anon* %3 to i32*
  %RBP = getelementptr inbounds %struct.State, %struct.State* %0, i64 0, i32 6, i32 15, i32 0, i32 0
  %4 = getelementptr inbounds %union.anon, %union.anon* %3, i64 0, i32 0
  %5 = load i32, i32* %R9D, align 4
  %6 = load i64, i64* %RBP, align 8
  %7 = add i64 %6, -20
  %8 = load i64, i64* %PC, align 8
  %9 = add i64 %8, 4
  store i64 %9, i64* %PC, align 8
  %10 = inttoptr i64 %7 to i32*
  %11 = load i32, i32* %10, align 4
  %12 = sub i32 %5, %11
  %13 = zext i32 %12 to i64
  store i64 %13, i64* %4, align 8
  %14 = icmp ult i32 %5, %11
  %15 = zext i1 %14 to i8
  %16 = getelementptr inbounds %struct.State, %struct.State* %0, i64 0, i32 2, i32 1
  store i8 %15, i8* %16, align 1
  %17 = and i32 %12, 255
  %18 = tail call i32 @llvm.ctpop.i32(i32 %17)
  %19 = trunc i32 %18 to i8
  %20 = and i8 %19, 1
  %21 = xor i8 %20, 1
  %22 = getelementptr inbounds %struct.State, %struct.State* %0, i64 0, i32 2, i32 3
  store i8 %21, i8* %22, align 1
  %23 = xor i32 %11, %5
  %24 = xor i32 %23, %12
  %25 = lshr i32 %24, 4
  %26 = trunc i32 %25 to i8
  %27 = and i8 %26, 1
  %28 = getelementptr inbounds %struct.State, %struct.State* %0, i64 0, i32 2, i32 5
  store i8 %27, i8* %28, align 1
  %29 = icmp eq i32 %12, 0
  %30 = zext i1 %29 to i8
  %31 = getelementptr inbounds %struct.State, %struct.State* %0, i64 0, i32 2, i32 7
  store i8 %30, i8* %31, align 1
  %32 = lshr i32 %12, 31
  %33 = trunc i32 %32 to i8
  %34 = getelementptr inbounds %struct.State, %struct.State* %0, i64 0, i32 2, i32 9
  store i8 %33, i8* %34, align 1
  %35 = lshr i32 %5, 31
  %36 = lshr i32 %11, 31
  %37 = xor i32 %36, %35
  %38 = xor i32 %32, %35
  %39 = add nuw nsw i32 %38, %37
  %40 = icmp eq i32 %39, 2
  %41 = zext i1 %40 to i8
  %42 = getelementptr inbounds %struct.State, %struct.State* %0, i64 0, i32 2, i32 13
  store i8 %41, i8* %42, align 1
  ret %struct.Memory* %2
}

; Function Attrs: norecurse nounwind
define %struct.Memory* @routine_movl_MINUS0x1c__rbp____ecx(%struct.State* nocapture dereferenceable(3376), i64, %struct.Memory* readnone returned) local_unnamed_addr #2 {
block_400488:
  %PC = getelementptr inbounds %struct.State, %struct.State* %0, i64 0, i32 6, i32 33, i32 0, i32 0
  %RCX = getelementptr inbounds %struct.State, %struct.State* %0, i64 0, i32 6, i32 5, i32 0, i32 0
  %RBP = getelementptr inbounds %struct.State, %struct.State* %0, i64 0, i32 6, i32 15, i32 0, i32 0
  %3 = load i64, i64* %RBP, align 8
  %4 = add i64 %3, -28
  %5 = load i64, i64* %PC, align 8
  %6 = add i64 %5, 3
  store i64 %6, i64* %PC, align 8
  %7 = inttoptr i64 %4 to i32*
  %8 = load i32, i32* %7, align 4
  %9 = zext i32 %8 to i64
  store i64 %9, i64* %RCX, align 8
  ret %struct.Memory* %2
}

; Function Attrs: norecurse nounwind
define %struct.Memory* @routine_movl_MINUS0x20__rbp____edx(%struct.State* nocapture dereferenceable(3376), i64, %struct.Memory* readnone returned) local_unnamed_addr #2 {
block_400488:
  %PC = getelementptr inbounds %struct.State, %struct.State* %0, i64 0, i32 6, i32 33, i32 0, i32 0
  %RDX = getelementptr inbounds %struct.State, %struct.State* %0, i64 0, i32 6, i32 7, i32 0, i32 0
  %RBP = getelementptr inbounds %struct.State, %struct.State* %0, i64 0, i32 6, i32 15, i32 0, i32 0
  %3 = load i64, i64* %RBP, align 8
  %4 = add i64 %3, -32
  %5 = load i64, i64* %PC, align 8
  %6 = add i64 %5, 3
  store i64 %6, i64* %PC, align 8
  %7 = inttoptr i64 %4 to i32*
  %8 = load i32, i32* %7, align 4
  %9 = zext i32 %8 to i64
  store i64 %9, i64* %RDX, align 8
  ret %struct.Memory* %2
}

; Function Attrs: norecurse nounwind
define %struct.Memory* @routine_movl_MINUS0x24__rbp____esi(%struct.State* nocapture dereferenceable(3376), i64, %struct.Memory* readnone returned) local_unnamed_addr #2 {
block_400488:
  %PC = getelementptr inbounds %struct.State, %struct.State* %0, i64 0, i32 6, i32 33, i32 0, i32 0
  %RSI = getelementptr inbounds %struct.State, %struct.State* %0, i64 0, i32 6, i32 9, i32 0, i32 0
  %RBP = getelementptr inbounds %struct.State, %struct.State* %0, i64 0, i32 6, i32 15, i32 0, i32 0
  %3 = load i64, i64* %RBP, align 8
  %4 = add i64 %3, -36
  %5 = load i64, i64* %PC, align 8
  %6 = add i64 %5, 3
  store i64 %6, i64* %PC, align 8
  %7 = inttoptr i64 %4 to i32*
  %8 = load i32, i32* %7, align 4
  %9 = zext i32 %8 to i64
  store i64 %9, i64* %RSI, align 8
  ret %struct.Memory* %2
}

; Function Attrs: norecurse nounwind
define %struct.Memory* @routine_movl_MINUS0x28__rbp____edi(%struct.State* nocapture dereferenceable(3376), i64, %struct.Memory* readnone returned) local_unnamed_addr #2 {
block_400488:
  %PC = getelementptr inbounds %struct.State, %struct.State* %0, i64 0, i32 6, i32 33, i32 0, i32 0
  %RDI = getelementptr inbounds %struct.State, %struct.State* %0, i64 0, i32 6, i32 11, i32 0, i32 0
  %RBP = getelementptr inbounds %struct.State, %struct.State* %0, i64 0, i32 6, i32 15, i32 0, i32 0
  %3 = load i64, i64* %RBP, align 8
  %4 = add i64 %3, -40
  %5 = load i64, i64* %PC, align 8
  %6 = add i64 %5, 3
  store i64 %6, i64* %PC, align 8
  %7 = inttoptr i64 %4 to i32*
  %8 = load i32, i32* %7, align 4
  %9 = zext i32 %8 to i64
  store i64 %9, i64* %RDI, align 8
  ret %struct.Memory* %2
}

; Function Attrs: norecurse nounwind
define %struct.Memory* @routine_movl_MINUS0x2c__rbp____r11d(%struct.State* nocapture dereferenceable(3376), i64, %struct.Memory* readnone returned) local_unnamed_addr #2 {
block_400488:
  %PC = getelementptr inbounds %struct.State, %struct.State* %0, i64 0, i32 6, i32 33, i32 0, i32 0
  %RBP = getelementptr inbounds %struct.State, %struct.State* %0, i64 0, i32 6, i32 15, i32 0, i32 0
  %3 = getelementptr inbounds %struct.State, %struct.State* %0, i64 0, i32 6, i32 23, i32 0, i32 0
  %4 = load i64, i64* %RBP, align 8
  %5 = add i64 %4, -44
  %6 = load i64, i64* %PC, align 8
  %7 = add i64 %6, 4
  store i64 %7, i64* %PC, align 8
  %8 = inttoptr i64 %5 to i32*
  %9 = load i32, i32* %8, align 4
  %10 = zext i32 %9 to i64
  store i64 %10, i64* %3, align 8
  ret %struct.Memory* %2
}

; Function Attrs: norecurse nounwind
define %struct.Memory* @routine_movl_MINUS0x30__rbp____ebx(%struct.State* nocapture dereferenceable(3376), i64, %struct.Memory* readnone returned) local_unnamed_addr #2 {
block_400488:
  %PC = getelementptr inbounds %struct.State, %struct.State* %0, i64 0, i32 6, i32 33, i32 0, i32 0
  %RBX = getelementptr inbounds %struct.State, %struct.State* %0, i64 0, i32 6, i32 3, i32 0, i32 0
  %RBP = getelementptr inbounds %struct.State, %struct.State* %0, i64 0, i32 6, i32 15, i32 0, i32 0
  %3 = load i64, i64* %RBP, align 8
  %4 = add i64 %3, -48
  %5 = load i64, i64* %PC, align 8
  %6 = add i64 %5, 3
  store i64 %6, i64* %PC, align 8
  %7 = inttoptr i64 %4 to i32*
  %8 = load i32, i32* %7, align 4
  %9 = zext i32 %8 to i64
  store i64 %9, i64* %RBX, align 8
  ret %struct.Memory* %2
}

; Function Attrs: norecurse nounwind
define %struct.Memory* @routine_movl__edi__MINUS0x34__rbp_(%struct.State* nocapture dereferenceable(3376), i64, %struct.Memory* readnone returned) local_unnamed_addr #2 {
block_400488:
  %PC = getelementptr inbounds %struct.State, %struct.State* %0, i64 0, i32 6, i32 33, i32 0, i32 0
  %3 = getelementptr inbounds %struct.State, %struct.State* %0, i64 0, i32 6, i32 11, i32 0
  %EDI = bitcast %union.anon* %3 to i32*
  %RBP = getelementptr inbounds %struct.State, %struct.State* %0, i64 0, i32 6, i32 15, i32 0, i32 0
  %4 = load i64, i64* %RBP, align 8
  %5 = add i64 %4, -52
  %6 = load i32, i32* %EDI, align 4
  %7 = load i64, i64* %PC, align 8
  %8 = add i64 %7, 3
  store i64 %8, i64* %PC, align 8
  %9 = inttoptr i64 %5 to i32*
  store i32 %6, i32* %9, align 4
  ret %struct.Memory* %2
}

; Function Attrs: norecurse nounwind
define %struct.Memory* @routine_movl__r9d___edi(%struct.State* nocapture dereferenceable(3376), i64, %struct.Memory* readnone returned) local_unnamed_addr #2 {
block_400488:
  %PC = getelementptr inbounds %struct.State, %struct.State* %0, i64 0, i32 6, i32 33, i32 0, i32 0
  %3 = getelementptr inbounds %struct.State, %struct.State* %0, i64 0, i32 6, i32 19, i32 0
  %R9D = bitcast %union.anon* %3 to i32*
  %RDI = getelementptr inbounds %struct.State, %struct.State* %0, i64 0, i32 6, i32 11, i32 0, i32 0
  %4 = load i32, i32* %R9D, align 4
  %5 = zext i32 %4 to i64
  %6 = load i64, i64* %PC, align 8
  %7 = add i64 %6, 3
  store i64 %7, i64* %PC, align 8
  store i64 %5, i64* %RDI, align 8
  ret %struct.Memory* %2
}

; Function Attrs: norecurse nounwind
define %struct.Memory* @routine_movl__esi__MINUS0x38__rbp_(%struct.State* nocapture dereferenceable(3376), i64, %struct.Memory* readnone returned) local_unnamed_addr #2 {
block_400488:
  %PC = getelementptr inbounds %struct.State, %struct.State* %0, i64 0, i32 6, i32 33, i32 0, i32 0
  %3 = getelementptr inbounds %struct.State, %struct.State* %0, i64 0, i32 6, i32 9, i32 0
  %ESI = bitcast %union.anon* %3 to i32*
  %RBP = getelementptr inbounds %struct.State, %struct.State* %0, i64 0, i32 6, i32 15, i32 0, i32 0
  %4 = load i64, i64* %RBP, align 8
  %5 = add i64 %4, -56
  %6 = load i32, i32* %ESI, align 4
  %7 = load i64, i64* %PC, align 8
  %8 = add i64 %7, 3
  store i64 %8, i64* %PC, align 8
  %9 = inttoptr i64 %5 to i32*
  store i32 %6, i32* %9, align 4
  ret %struct.Memory* %2
}

; Function Attrs: norecurse nounwind
define %struct.Memory* @routine_movl__eax___esi(%struct.State* nocapture dereferenceable(3376), i64, %struct.Memory* readnone returned) local_unnamed_addr #2 {
block_400488:
  %PC = getelementptr inbounds %struct.State, %struct.State* %0, i64 0, i32 6, i32 33, i32 0, i32 0
  %3 = getelementptr inbounds %struct.State, %struct.State* %0, i64 0, i32 6, i32 1, i32 0
  %EAX = bitcast %union.anon* %3 to i32*
  %RSI = getelementptr inbounds %struct.State, %struct.State* %0, i64 0, i32 6, i32 9, i32 0, i32 0
  %4 = load i32, i32* %EAX, align 4
  %5 = zext i32 %4 to i64
  %6 = load i64, i64* %PC, align 8
  %7 = add i64 %6, 2
  store i64 %7, i64* %PC, align 8
  store i64 %5, i64* %RSI, align 8
  ret %struct.Memory* %2
}

; Function Attrs: norecurse nounwind
define %struct.Memory* @routine_movl__edx__MINUS0x3c__rbp_(%struct.State* nocapture dereferenceable(3376), i64, %struct.Memory* readnone returned) local_unnamed_addr #2 {
block_400488:
  %PC = getelementptr inbounds %struct.State, %struct.State* %0, i64 0, i32 6, i32 33, i32 0, i32 0
  %3 = getelementptr inbounds %struct.State, %struct.State* %0, i64 0, i32 6, i32 7, i32 0
  %EDX = bitcast %union.anon* %3 to i32*
  %RBP = getelementptr inbounds %struct.State, %struct.State* %0, i64 0, i32 6, i32 15, i32 0, i32 0
  %4 = load i64, i64* %RBP, align 8
  %5 = add i64 %4, -60
  %6 = load i32, i32* %EDX, align 4
  %7 = load i64, i64* %PC, align 8
  %8 = add i64 %7, 3
  store i64 %8, i64* %PC, align 8
  %9 = inttoptr i64 %5 to i32*
  store i32 %6, i32* %9, align 4
  ret %struct.Memory* %2
}

; Function Attrs: norecurse nounwind
define %struct.Memory* @routine_movl__r8d___edx(%struct.State* nocapture dereferenceable(3376), i64, %struct.Memory* readnone returned) local_unnamed_addr #2 {
block_400488:
  %PC = getelementptr inbounds %struct.State, %struct.State* %0, i64 0, i32 6, i32 33, i32 0, i32 0
  %3 = getelementptr inbounds %struct.State, %struct.State* %0, i64 0, i32 6, i32 17, i32 0
  %R8D = bitcast %union.anon* %3 to i32*
  %RDX = getelementptr inbounds %struct.State, %struct.State* %0, i64 0, i32 6, i32 7, i32 0, i32 0
  %4 = load i32, i32* %R8D, align 4
  %5 = zext i32 %4 to i64
  %6 = load i64, i64* %PC, align 8
  %7 = add i64 %6, 3
  store i64 %7, i64* %PC, align 8
  store i64 %5, i64* %RDX, align 8
  ret %struct.Memory* %2
}

; Function Attrs: norecurse nounwind
define %struct.Memory* @routine_movl_MINUS0x3c__rbp____r8d(%struct.State* nocapture dereferenceable(3376), i64, %struct.Memory* readnone returned) local_unnamed_addr #2 {
block_400488:
  %PC = getelementptr inbounds %struct.State, %struct.State* %0, i64 0, i32 6, i32 33, i32 0, i32 0
  %RBP = getelementptr inbounds %struct.State, %struct.State* %0, i64 0, i32 6, i32 15, i32 0, i32 0
  %3 = getelementptr inbounds %struct.State, %struct.State* %0, i64 0, i32 6, i32 17, i32 0, i32 0
  %4 = load i64, i64* %RBP, align 8
  %5 = add i64 %4, -60
  %6 = load i64, i64* %PC, align 8
  %7 = add i64 %6, 4
  store i64 %7, i64* %PC, align 8
  %8 = inttoptr i64 %5 to i32*
  %9 = load i32, i32* %8, align 4
  %10 = zext i32 %9 to i64
  store i64 %10, i64* %3, align 8
  ret %struct.Memory* %2
}

; Function Attrs: norecurse nounwind
define %struct.Memory* @routine_movl_MINUS0x38__rbp____r9d(%struct.State* nocapture dereferenceable(3376), i64, %struct.Memory* readnone returned) local_unnamed_addr #2 {
block_400488:
  %PC = getelementptr inbounds %struct.State, %struct.State* %0, i64 0, i32 6, i32 33, i32 0, i32 0
  %RBP = getelementptr inbounds %struct.State, %struct.State* %0, i64 0, i32 6, i32 15, i32 0, i32 0
  %3 = getelementptr inbounds %struct.State, %struct.State* %0, i64 0, i32 6, i32 19, i32 0, i32 0
  %4 = load i64, i64* %RBP, align 8
  %5 = add i64 %4, -56
  %6 = load i64, i64* %PC, align 8
  %7 = add i64 %6, 4
  store i64 %7, i64* %PC, align 8
  %8 = inttoptr i64 %5 to i32*
  %9 = load i32, i32* %8, align 4
  %10 = zext i32 %9 to i64
  store i64 %10, i64* %3, align 8
  ret %struct.Memory* %2
}

; Function Attrs: norecurse nounwind
define %struct.Memory* @routine_movl_MINUS0x34__rbp____eax(%struct.State* nocapture dereferenceable(3376), i64, %struct.Memory* readnone returned) local_unnamed_addr #2 {
block_400488:
  %PC = getelementptr inbounds %struct.State, %struct.State* %0, i64 0, i32 6, i32 33, i32 0, i32 0
  %RAX = getelementptr inbounds %struct.State, %struct.State* %0, i64 0, i32 6, i32 1, i32 0, i32 0
  %RBP = getelementptr inbounds %struct.State, %struct.State* %0, i64 0, i32 6, i32 15, i32 0, i32 0
  %3 = load i64, i64* %RBP, align 8
  %4 = add i64 %3, -52
  %5 = load i64, i64* %PC, align 8
  %6 = add i64 %5, 3
  store i64 %6, i64* %PC, align 8
  %7 = inttoptr i64 %4 to i32*
  %8 = load i32, i32* %7, align 4
  %9 = zext i32 %8 to i64
  store i64 %9, i64* %RAX, align 8
  ret %struct.Memory* %2
}

; Function Attrs: norecurse nounwind
define %struct.Memory* @routine_movl__eax____rsp_(%struct.State* nocapture dereferenceable(3376), i64, %struct.Memory* readnone returned) local_unnamed_addr #2 {
block_400488:
  %PC = getelementptr inbounds %struct.State, %struct.State* %0, i64 0, i32 6, i32 33, i32 0, i32 0
  %3 = getelementptr inbounds %struct.State, %struct.State* %0, i64 0, i32 6, i32 1, i32 0
  %EAX = bitcast %union.anon* %3 to i32*
  %RSP = getelementptr inbounds %struct.State, %struct.State* %0, i64 0, i32 6, i32 13, i32 0, i32 0
  %4 = bitcast i64* %RSP to i32**
  %5 = load i32*, i32** %4, align 8
  %6 = load i32, i32* %EAX, align 4
  %7 = load i64, i64* %PC, align 8
  %8 = add i64 %7, 3
  store i64 %8, i64* %PC, align 8
  store i32 %6, i32* %5, align 4
  ret %struct.Memory* %2
}

; Function Attrs: norecurse nounwind
define %struct.Memory* @routine_movl__r11d__0x8__rsp_(%struct.State* nocapture dereferenceable(3376), i64, %struct.Memory* readnone returned) local_unnamed_addr #2 {
block_400488:
  %PC = getelementptr inbounds %struct.State, %struct.State* %0, i64 0, i32 6, i32 33, i32 0, i32 0
  %3 = getelementptr inbounds %struct.State, %struct.State* %0, i64 0, i32 6, i32 23, i32 0
  %R11D = bitcast %union.anon* %3 to i32*
  %RSP = getelementptr inbounds %struct.State, %struct.State* %0, i64 0, i32 6, i32 13, i32 0, i32 0
  %4 = load i64, i64* %RSP, align 8
  %5 = add i64 %4, 8
  %6 = load i32, i32* %R11D, align 4
  %7 = load i64, i64* %PC, align 8
  %8 = add i64 %7, 5
  store i64 %8, i64* %PC, align 8
  %9 = inttoptr i64 %5 to i32*
  store i32 %6, i32* %9, align 4
  ret %struct.Memory* %2
}

; Function Attrs: norecurse nounwind
define %struct.Memory* @routine_movl__ebx__0x10__rsp_(%struct.State* nocapture dereferenceable(3376), i64, %struct.Memory* readnone returned) local_unnamed_addr #2 {
block_400488:
  %PC = getelementptr inbounds %struct.State, %struct.State* %0, i64 0, i32 6, i32 33, i32 0, i32 0
  %3 = getelementptr inbounds %struct.State, %struct.State* %0, i64 0, i32 6, i32 3, i32 0
  %EBX = bitcast %union.anon* %3 to i32*
  %RSP = getelementptr inbounds %struct.State, %struct.State* %0, i64 0, i32 6, i32 13, i32 0, i32 0
  %4 = load i64, i64* %RSP, align 8
  %5 = add i64 %4, 16
  %6 = load i32, i32* %EBX, align 4
  %7 = load i64, i64* %PC, align 8
  %8 = add i64 %7, 4
  store i64 %8, i64* %PC, align 8
  %9 = inttoptr i64 %5 to i32*
  store i32 %6, i32* %9, align 4
  ret %struct.Memory* %2
}

; Function Attrs: norecurse nounwind
define %struct.Memory* @routine_movb__0x0___al(%struct.State* nocapture dereferenceable(3376), i64, %struct.Memory* readnone returned) local_unnamed_addr #2 {
block_400488:
  %PC = getelementptr inbounds %struct.State, %struct.State* %0, i64 0, i32 6, i32 33, i32 0, i32 0
  %3 = getelementptr inbounds %struct.State, %struct.State* %0, i64 0, i32 6, i32 1, i32 0
  %AL = bitcast %union.anon* %3 to i8*
  %4 = load i64, i64* %PC, align 8
  %5 = add i64 %4, 2
  store i64 %5, i64* %PC, align 8
  store i8 0, i8* %AL, align 1
  ret %struct.Memory* %2
}

; Function Attrs: norecurse nounwind
define %struct.Memory* @routine_callq_.somewhere(%struct.State* nocapture dereferenceable(3376), i64, %struct.Memory* readnone returned, i64 %rel_off1, i64 %rel_off2, i64 %rel_off3) local_unnamed_addr #2 {
block_400488:
  %PC = getelementptr inbounds %struct.State, %struct.State* %0, i64 0, i32 6, i32 33, i32 0, i32 0
  %3 = load i64, i64* %PC, align 8
  %4 = add i64 %3, %rel_off1
  %5 = add i64 %3, %rel_off2
  %6 = getelementptr inbounds %struct.State, %struct.State* %0, i64 0, i32 6, i32 13, i32 0, i32 0
  %7 = load i64, i64* %6, align 8
  %8 = add i64 %7, -8
  %9 = inttoptr i64 %8 to i64*
  store i64 %5, i64* %9, align 8
  store i64 %8, i64* %6, align 8
  store i64 %4, i64* %PC, align 8
  ret %struct.Memory* %2
}

; Function Attrs: nounwind
define %struct.Memory* @routine_addq__0x58___rsp(%struct.State* nocapture dereferenceable(3376), i64, %struct.Memory* readnone returned) local_unnamed_addr #3 {
block_400488:
  %PC = getelementptr inbounds %struct.State, %struct.State* %0, i64 0, i32 6, i32 33, i32 0, i32 0
  %RSP = getelementptr inbounds %struct.State, %struct.State* %0, i64 0, i32 6, i32 13, i32 0, i32 0
  %3 = load i64, i64* %RSP, align 8
  %4 = load i64, i64* %PC, align 8
  %5 = add i64 %4, 4
  store i64 %5, i64* %PC, align 8
  %6 = add i64 %3, 88
  store i64 %6, i64* %RSP, align 8
  %7 = icmp ugt i64 %3, -89
  %8 = zext i1 %7 to i8
  %9 = getelementptr inbounds %struct.State, %struct.State* %0, i64 0, i32 2, i32 1
  store i8 %8, i8* %9, align 1
  %10 = trunc i64 %6 to i32
  %11 = and i32 %10, 255
  %12 = tail call i32 @llvm.ctpop.i32(i32 %11)
  %13 = trunc i32 %12 to i8
  %14 = and i8 %13, 1
  %15 = xor i8 %14, 1
  %16 = getelementptr inbounds %struct.State, %struct.State* %0, i64 0, i32 2, i32 3
  store i8 %15, i8* %16, align 1
  %17 = xor i64 %3, 16
  %18 = xor i64 %17, %6
  %19 = lshr i64 %18, 4
  %20 = trunc i64 %19 to i8
  %21 = and i8 %20, 1
  %22 = getelementptr inbounds %struct.State, %struct.State* %0, i64 0, i32 2, i32 5
  store i8 %21, i8* %22, align 1
  %23 = icmp eq i64 %6, 0
  %24 = zext i1 %23 to i8
  %25 = getelementptr inbounds %struct.State, %struct.State* %0, i64 0, i32 2, i32 7
  store i8 %24, i8* %25, align 1
  %26 = lshr i64 %6, 63
  %27 = trunc i64 %26 to i8
  %28 = getelementptr inbounds %struct.State, %struct.State* %0, i64 0, i32 2, i32 9
  store i8 %27, i8* %28, align 1
  %29 = lshr i64 %3, 63
  %30 = xor i64 %26, %29
  %31 = add nuw nsw i64 %30, %26
  %32 = icmp eq i64 %31, 2
  %33 = zext i1 %32 to i8
  %34 = getelementptr inbounds %struct.State, %struct.State* %0, i64 0, i32 2, i32 13
  store i8 %33, i8* %34, align 1
  ret %struct.Memory* %2
}

; Function Attrs: norecurse nounwind
define %struct.Memory* @routine_popq__rbx(%struct.State* nocapture dereferenceable(3376), i64, %struct.Memory* readnone returned) local_unnamed_addr #2 {
block_400488:
  %PC = getelementptr inbounds %struct.State, %struct.State* %0, i64 0, i32 6, i32 33, i32 0, i32 0
  %RBX = getelementptr inbounds %struct.State, %struct.State* %0, i64 0, i32 6, i32 3, i32 0, i32 0
  %3 = load i64, i64* %PC, align 8
  %4 = add i64 %3, 1
  store i64 %4, i64* %PC, align 8
  %5 = getelementptr inbounds %struct.State, %struct.State* %0, i64 0, i32 6, i32 13, i32 0, i32 0
  %6 = load i64, i64* %5, align 8
  %7 = add i64 %6, 8
  %8 = inttoptr i64 %6 to i64*
  %9 = load i64, i64* %8, align 8
  store i64 %9, i64* %RBX, align 8
  store i64 %7, i64* %5, align 8
  ret %struct.Memory* %2
}

; Function Attrs: norecurse nounwind
define %struct.Memory* @routine_popq__rbp(%struct.State* nocapture dereferenceable(3376), i64, %struct.Memory* readnone returned) local_unnamed_addr #2 {
block_400488:
  %PC = getelementptr inbounds %struct.State, %struct.State* %0, i64 0, i32 6, i32 33, i32 0, i32 0
  %RBP = getelementptr inbounds %struct.State, %struct.State* %0, i64 0, i32 6, i32 15, i32 0, i32 0
  %3 = load i64, i64* %PC, align 8
  %4 = add i64 %3, 1
  store i64 %4, i64* %PC, align 8
  %5 = getelementptr inbounds %struct.State, %struct.State* %0, i64 0, i32 6, i32 13, i32 0, i32 0
  %6 = load i64, i64* %5, align 8
  %7 = add i64 %6, 8
  %8 = inttoptr i64 %6 to i64*
  %9 = load i64, i64* %8, align 8
  store i64 %9, i64* %RBP, align 8
  store i64 %7, i64* %5, align 8
  ret %struct.Memory* %2
}

; Function Attrs: norecurse nounwind
define %struct.Memory* @routine_retq(%struct.State* nocapture dereferenceable(3376), i64, %struct.Memory* readnone returned) local_unnamed_addr #2 {
block_400488:
  %PC = getelementptr inbounds %struct.State, %struct.State* %0, i64 0, i32 6, i32 33, i32 0, i32 0
  %3 = load i64, i64* %PC, align 8
  %4 = add i64 %3, 1
  store i64 %4, i64* %PC, align 8
  %5 = getelementptr inbounds %struct.State, %struct.State* %0, i64 0, i32 6, i32 13, i32 0, i32 0
  %6 = load i64, i64* %5, align 8
  %7 = inttoptr i64 %6 to i64*
  %8 = load i64, i64* %7, align 8
  store i64 %8, i64* %PC, align 8
  %9 = add i64 %6, 8
  store i64 %9, i64* %5, align 8
  ret %struct.Memory* %2
}

attributes #0 = { nounwind readnone }
attributes #1 = { alwaysinline }
attributes #2 = { norecurse nounwind }
attributes #3 = { nounwind }
