; ModuleID = 'mcsema/test0.target.opt.ll'
source_filename = "llvm-link"
target datalayout = "e-m:e-i64:64-f80:128-n8:16:32:64-S128"
target triple = "x86_64-pc-linux-gnu-elf"

%G_0xc8__rip__4195632__type = type <{ [16 x i8] }>
%G__0x400600_type = type <{ [8 x i8] }>
%struct.State = type { %struct.ArchState, [32 x %union.VectorReg], %struct.ArithFlags, %union.anon, %struct.Segments, %struct.AddressSpace, %struct.GPR, %struct.X87Stack, %struct.MMX, %struct.FPUStatusFlags, %union.anon, %union.FPU, %struct.SegmentCaches }
%struct.ArchState = type { i32, i32, %union.anon }
%union.VectorReg = type { %union.vec512_t }
%union.vec512_t = type { %struct.uint64v8_t }
%struct.uint64v8_t = type { [8 x i64] }
%struct.ArithFlags = type { i8, i8, i8, i8, i8, i8, i8, i8, i8, i8, i8, i8, i8, i8, i8, i8 }
%struct.Segments = type { i16, %union.SegmentSelector, i16, %union.SegmentSelector, i16, %union.SegmentSelector, i16, %union.SegmentSelector, i16, %union.SegmentSelector, i16, %union.SegmentSelector }
%union.SegmentSelector = type { i16 }
%struct.AddressSpace = type { i64, %struct.Reg, i64, %struct.Reg, i64, %struct.Reg, i64, %struct.Reg, i64, %struct.Reg, i64, %struct.Reg }
%struct.Reg = type { %union.anon }
%struct.GPR = type { i64, %struct.Reg, i64, %struct.Reg, i64, %struct.Reg, i64, %struct.Reg, i64, %struct.Reg, i64, %struct.Reg, i64, %struct.Reg, i64, %struct.Reg, i64, %struct.Reg, i64, %struct.Reg, i64, %struct.Reg, i64, %struct.Reg, i64, %struct.Reg, i64, %struct.Reg, i64, %struct.Reg, i64, %struct.Reg, i64, %struct.Reg }
%struct.X87Stack = type { [8 x %struct.anon.3] }
%struct.anon.3 = type { i64, double }
%struct.MMX = type { [8 x %struct.anon.4] }
%struct.anon.4 = type { i64, %union.vec64_t }
%union.vec64_t = type { %struct.uint64v1_t }
%struct.uint64v1_t = type { [1 x i64] }
%struct.FPUStatusFlags = type { i8, i8, i8, i8, i8, i8, i8, i8, i8, i8, i8, i8, i8, i8, i8, i8, i8, i8, i8, i8, [4 x i8] }
%union.anon = type { i64 }
%union.FPU = type { %struct.anon.13 }
%struct.anon.13 = type { %struct.FpuFXSAVE, [96 x i8] }
%struct.FpuFXSAVE = type { %union.SegmentSelector, %union.SegmentSelector, %union.FPUAbridgedTagWord, i8, i16, i32, %union.SegmentSelector, i16, i32, %union.SegmentSelector, i16, %union.FPUControlStatus, %union.FPUControlStatus, [8 x %struct.FPUStackElem], [16 x %union.vec128_t] }
%union.FPUAbridgedTagWord = type { i8 }
%union.FPUControlStatus = type { i32 }
%struct.FPUStackElem = type { %union.anon.11, [6 x i8] }
%union.anon.11 = type { %struct.float80_t }
%struct.float80_t = type { [10 x i8] }
%union.vec128_t = type { %struct.uint128v1_t }
%struct.uint128v1_t = type { [1 x i128] }
%struct.SegmentCaches = type { %struct.SegmentShadow, %struct.SegmentShadow, %struct.SegmentShadow, %struct.SegmentShadow, %struct.SegmentShadow, %struct.SegmentShadow }
%struct.SegmentShadow = type { %union.anon, i32, i32 }
%struct.Memory = type opaque

@G_0xc8__rip__4195632_ = external local_unnamed_addr global %G_0xc8__rip__4195632__type
@G__0x400600 = external global %G__0x400600_type

; Function Attrs: nounwind readnone
declare i32 @llvm.ctpop.i32(i32) #0

declare extern_weak x86_64_sysvcc i64 @printf(i64, i64, i64, i64, i64, i64, i64, i64, i64, i64, i64, i64, i64, i64, i64, i64)

declare %struct.Memory* @__remill_function_call(%struct.State* dereferenceable(3376), i64, %struct.Memory*) local_unnamed_addr

declare %struct.Memory* @sub_4004f0.fun(%struct.State* noalias dereferenceable(3376), i64, %struct.Memory* noalias readnone returned) local_unnamed_addr

; Function Attrs: alwaysinline
define %struct.Memory* @main(%struct.State* noalias, i64, %struct.Memory* noalias) local_unnamed_addr #1 {
entry:
  %3 = getelementptr inbounds %struct.State, %struct.State* %0, i64 0, i32 6, i32 33, i32 0, i32 0
  %PC.i = getelementptr inbounds %struct.State, %struct.State* %0, i64 0, i32 6, i32 33, i32 0, i32 0
  %RBP.i = getelementptr inbounds %struct.State, %struct.State* %0, i64 0, i32 6, i32 15, i32 0, i32 0
  %4 = load i64, i64* %RBP.i, align 8
  %5 = add i64 %1, 1
  store i64 %5, i64* %PC.i, align 8
  %6 = getelementptr inbounds %struct.State, %struct.State* %0, i64 0, i32 6, i32 13, i32 0, i32 0
  %7 = load i64, i64* %6, align 8
  %8 = add i64 %7, -8
  %9 = inttoptr i64 %8 to i64*
  store i64 %4, i64* %9, align 8
  %RSP.i11 = getelementptr inbounds %struct.State, %struct.State* %0, i64 0, i32 6, i32 13, i32 0, i32 0
  %10 = load i64, i64* %PC.i, align 8
  store i64 %8, i64* %RBP.i, align 8
  %11 = add i64 %7, -40
  store i64 %11, i64* %RSP.i11, align 8
  %12 = icmp ult i64 %8, 32
  %13 = zext i1 %12 to i8
  %14 = getelementptr inbounds %struct.State, %struct.State* %0, i64 0, i32 2, i32 1
  store i8 %13, i8* %14, align 1
  %15 = trunc i64 %11 to i32
  %16 = and i32 %15, 255
  %17 = call i32 @llvm.ctpop.i32(i32 %16)
  %18 = trunc i32 %17 to i8
  %19 = and i8 %18, 1
  %20 = xor i8 %19, 1
  %21 = getelementptr inbounds %struct.State, %struct.State* %0, i64 0, i32 2, i32 3
  store i8 %20, i8* %21, align 1
  %22 = xor i64 %8, %11
  %23 = lshr i64 %22, 4
  %24 = trunc i64 %23 to i8
  %25 = and i8 %24, 1
  %26 = getelementptr inbounds %struct.State, %struct.State* %0, i64 0, i32 2, i32 5
  store i8 %25, i8* %26, align 1
  %27 = icmp eq i64 %11, 0
  %28 = zext i1 %27 to i8
  %29 = getelementptr inbounds %struct.State, %struct.State* %0, i64 0, i32 2, i32 7
  store i8 %28, i8* %29, align 1
  %30 = lshr i64 %11, 63
  %31 = trunc i64 %30 to i8
  %32 = getelementptr inbounds %struct.State, %struct.State* %0, i64 0, i32 2, i32 9
  store i8 %31, i8* %32, align 1
  %33 = lshr i64 %8, 63
  %34 = xor i64 %30, %33
  %35 = add nuw nsw i64 %34, %33
  %36 = icmp eq i64 %35, 2
  %37 = zext i1 %36 to i8
  %38 = getelementptr inbounds %struct.State, %struct.State* %0, i64 0, i32 2, i32 13
  store i8 %37, i8* %38, align 1
  %39 = getelementptr inbounds %struct.State, %struct.State* %0, i64 0, i32 1
  %40 = load i64, i64* bitcast (%G_0xc8__rip__4195632__type* @G_0xc8__rip__4195632_ to i64*), align 8
  %41 = getelementptr inbounds [32 x %union.VectorReg], [32 x %union.VectorReg]* %39, i64 0, i64 0, i32 0, i32 0, i32 0, i64 0
  store i64 %40, i64* %41, align 1
  %42 = getelementptr inbounds %struct.State, %struct.State* %0, i64 0, i32 1, i64 0, i32 0, i32 0, i32 0, i64 1
  %43 = bitcast i64* %42 to double*
  store double 0.000000e+00, double* %43, align 1
  %44 = add i64 %7, -12
  %45 = add i64 %10, 22
  store i64 %45, i64* %PC.i, align 8
  %46 = inttoptr i64 %44 to i32*
  store i32 0, i32* %46, align 4
  %47 = load i64, i64* %RBP.i, align 8
  %48 = add i64 %47, -16
  %49 = load i64, i64* %PC.i, align 8
  %50 = add i64 %49, 5
  store i64 %50, i64* %PC.i, align 8
  %51 = getelementptr inbounds [32 x %union.VectorReg], [32 x %union.VectorReg]* %39, i64 0, i64 0, i32 0, i32 0, i32 0, i64 0
  %52 = load i64, i64* %51, align 1
  %53 = inttoptr i64 %48 to i64*
  store i64 %52, i64* %53, align 8
  %54 = load i64, i64* %RBP.i, align 8
  %55 = add i64 %54, -16
  %56 = load i64, i64* %PC.i, align 8
  %57 = add i64 %56, 5
  store i64 %57, i64* %PC.i, align 8
  %58 = inttoptr i64 %55 to i64*
  %59 = load i64, i64* %58, align 8
  %60 = getelementptr inbounds %struct.State, %struct.State* %0, i64 0, i32 1, i64 1, i32 0, i32 0, i32 0, i64 0
  store i64 %59, i64* %60, align 1
  %61 = getelementptr inbounds %struct.State, %struct.State* %0, i64 0, i32 1, i64 1, i32 0, i32 0, i32 0, i64 1
  %62 = bitcast i64* %61 to double*
  store double 0.000000e+00, double* %62, align 1
  %63 = add i64 %56, -76
  %64 = add i64 %56, 10
  %65 = load i64, i64* %6, align 8
  %66 = add i64 %65, -8
  %67 = inttoptr i64 %66 to i64*
  store i64 %64, i64* %67, align 8
  store i64 %66, i64* %6, align 8
  store i64 %63, i64* %3, align 8
  %call2_400541 = call %struct.Memory* @sub_4004f0.fun(%struct.State* %0, i64 %63, %struct.Memory* %2)
  %RDI.i = getelementptr inbounds %struct.State, %struct.State* %0, i64 0, i32 6, i32 11, i32 0, i32 0
  %68 = load i64, i64* %PC.i, align 8
  store i64 add (i64 ptrtoint (%G__0x400600_type* @G__0x400600 to i64), i64 184), i64* %RDI.i, align 8
  %69 = getelementptr inbounds %struct.State, %struct.State* %0, i64 0, i32 6, i32 1, i32 0
  %AL.i = bitcast %union.anon* %69 to i8*
  store i8 1, i8* %AL.i, align 1
  %70 = add i64 %68, -342
  %71 = add i64 %68, 17
  %72 = load i64, i64* %6, align 8
  %73 = add i64 %72, -8
  %74 = inttoptr i64 %73 to i64*
  store i64 %71, i64* %74, align 8
  store i64 %73, i64* %6, align 8
  store i64 %70, i64* %3, align 8
  %75 = call %struct.Memory* @__remill_function_call(%struct.State* %0, i64 ptrtoint (i64 (i64, i64, i64, i64, i64, i64, i64, i64, i64, i64, i64, i64, i64, i64, i64, i64)* @printf to i64), %struct.Memory* %call2_400541)
  %76 = getelementptr inbounds %struct.State, %struct.State* %0, i64 0, i32 6, i32 5, i32 0
  %ECX.i9 = bitcast %union.anon* %76 to i32*
  %RCX.i = getelementptr inbounds %union.anon, %union.anon* %76, i64 0, i32 0
  %77 = load i64, i64* %PC.i, align 8
  store i64 0, i64* %RCX.i, align 8
  %EAX.i = bitcast %union.anon* %69 to i32*
  %78 = load i64, i64* %RBP.i, align 8
  %79 = add i64 %78, -20
  %80 = load i32, i32* %EAX.i, align 4
  %81 = add i64 %77, 5
  store i64 %81, i64* %PC.i, align 8
  %82 = inttoptr i64 %79 to i32*
  store i32 %80, i32* %82, align 4
  %RAX.i = getelementptr inbounds %union.anon, %union.anon* %69, i64 0, i32 0
  %83 = load i32, i32* %ECX.i9, align 4
  %84 = zext i32 %83 to i64
  %85 = load i64, i64* %PC.i, align 8
  store i64 %84, i64* %RAX.i, align 8
  %86 = load i64, i64* %RSP.i11, align 8
  %87 = add i64 %86, 32
  store i64 %87, i64* %RSP.i11, align 8
  %88 = icmp ugt i64 %86, -33
  %89 = zext i1 %88 to i8
  store i8 %89, i8* %14, align 1
  %90 = trunc i64 %87 to i32
  %91 = and i32 %90, 255
  %92 = call i32 @llvm.ctpop.i32(i32 %91)
  %93 = trunc i32 %92 to i8
  %94 = and i8 %93, 1
  %95 = xor i8 %94, 1
  store i8 %95, i8* %21, align 1
  %96 = xor i64 %86, %87
  %97 = lshr i64 %96, 4
  %98 = trunc i64 %97 to i8
  %99 = and i8 %98, 1
  store i8 %99, i8* %26, align 1
  %100 = icmp eq i64 %87, 0
  %101 = zext i1 %100 to i8
  store i8 %101, i8* %29, align 1
  %102 = lshr i64 %87, 63
  %103 = trunc i64 %102 to i8
  store i8 %103, i8* %32, align 1
  %104 = lshr i64 %86, 63
  %105 = xor i64 %102, %104
  %106 = add nuw nsw i64 %105, %102
  %107 = icmp eq i64 %106, 2
  %108 = zext i1 %107 to i8
  store i8 %108, i8* %38, align 1
  %109 = add i64 %85, 7
  store i64 %109, i64* %PC.i, align 8
  %110 = add i64 %86, 40
  %111 = inttoptr i64 %87 to i64*
  %112 = load i64, i64* %111, align 8
  store i64 %112, i64* %RBP.i, align 8
  store i64 %110, i64* %6, align 8
  %113 = add i64 %85, 8
  store i64 %113, i64* %PC.i, align 8
  %114 = inttoptr i64 %110 to i64*
  %115 = load i64, i64* %114, align 8
  store i64 %115, i64* %3, align 8
  %116 = add i64 %86, 48
  store i64 %116, i64* %6, align 8
  ret %struct.Memory* %75
}

attributes #0 = { nounwind readnone }
attributes #1 = { alwaysinline }
